#Timestamp	CPU(0) Frequency(MHz)	CPU(0) Temperature(C)	A7 Voltage(V)	A7 Current(A)	A7 Power(W)	CPU(4) Frequency(MHz)	CPU(4) Temperature(C)	A15 Voltage(V)	A15 Current(A)	A15 Power(W)	GPU Frequency(MHz)	GPU Temperature(C)	GPU Voltage(V)	GPU Current(A)	GPU Power(W)	RAM Voltage(V)	RAM Current(A)	RAM Power(W)
1517347549899947400	400 32 0.900000 0.017000 0.015000 600 31 0.900000 0.343000 0.312000 600 36 1.000000 0.051000 0.051000 1.200000 0.029000 0.035000
1517347550411358983	400 32 0.900000 0.017000 0.015000 600 31 0.900000 0.344000 0.313000 600 36 1.000000 0.051000 0.051000 1.200000 0.026000 0.031000
1517347550922779650	400 32 0.900000 0.017000 0.015000 600 31 0.900000 0.341000 0.310000 600 36 1.000000 0.051000 0.051000 1.200000 0.028000 0.033000
1517347551434278025	400 32 0.900000 0.017000 0.015000 600 31 0.900000 0.340000 0.309000 600 36 1.000000 0.052000 0.052000 1.200000 0.028000 0.033000
1517347551945601817	400 32 0.900000 0.017000 0.015000 600 31 0.900000 0.349000 0.317000 600 36 1.000000 0.051000 0.051000 1.200000 0.027000 0.032000
1517347552457085442	400 32 0.900000 0.017000 0.015000 600 31 0.900000 0.351000 0.319000 600 36 1.000000 0.051000 0.051000 1.200000 0.028000 0.033000
1517347552968403317	400 32 0.900000 0.017000 0.015000 600 31 0.900000 0.351000 0.319000 600 36 1.000000 0.051000 0.051000 1.200000 0.028000 0.033000
1517347553479959067	400 32 0.900000 0.017000 0.015000 600 31 0.900000 0.345000 0.313000 600 36 1.000000 0.051000 0.051000 1.200000 0.027000 0.032000
1517347553991444192	400 32 0.900000 0.017000 0.015000 600 31 0.900000 0.345000 0.313000 600 36 1.000000 0.051000 0.051000 1.200000 0.028000 0.033000
1517347554502911817	400 32 0.900000 0.017000 0.015000 600 31 0.900000 0.349000 0.317000 600 36 1.000000 0.052000 0.052000 1.200000 0.028000 0.033000
1517347555014317109	400 32 0.900000 0.017000 0.015000 600 31 0.900000 0.352000 0.320000 600 36 1.000000 0.051000 0.051000 1.200000 0.028000 0.033000
1517347555525531651	400 32 0.900000 0.017000 0.015000 600 31 0.900000 0.353000 0.321000 600 36 1.000000 0.051000 0.051000 1.200000 0.028000 0.033000
1517347556036831942	400 32 0.900000 0.017000 0.015000 600 31 0.900000 0.347000 0.315000 600 36 1.000000 0.052000 0.052000 1.200000 0.027000 0.032000
1517347556548272359	400 32 0.900000 0.017000 0.015000 600 31 0.900000 0.345000 0.313000 600 36 1.000000 0.051000 0.051000 1.200000 0.027000 0.032000
1517347557059659151	400 32 0.900000 0.017000 0.015000 600 31 0.900000 0.341000 0.310000 600 36 1.000000 0.051000 0.051000 1.200000 0.028000 0.033000
1517347557571018693	400 32 0.900000 0.017000 0.015000 600 31 0.900000 0.342000 0.311000 600 36 1.000000 0.051000 0.051000 1.200000 0.028000 0.033000
1517347558082489568	400 32 0.900000 0.017000 0.015000 600 31 0.900000 0.341000 0.310000 600 36 1.000000 0.051000 0.051000 1.200000 0.028000 0.033000
1517347558593782026	400 32 0.900000 0.017000 0.015000 600 31 0.900000 0.340000 0.309000 600 36 1.000000 0.051000 0.051000 1.200000 0.027000 0.032000
1517347559105148484	400 32 0.900000 0.017000 0.015000 600 31 0.900000 0.339000 0.308000 600 36 1.000000 0.052000 0.052000 1.200000 0.027000 0.032000
1517347559616641068	400 32 0.900000 0.017000 0.015000 600 31 0.900000 0.341000 0.310000 600 36 1.000000 0.051000 0.051000 1.200000 0.026000 0.031000
1517347560128176860	400 32 0.900000 0.017000 0.015000 600 31 0.900000 0.353000 0.321000 600 36 1.000000 0.051000 0.051000 1.200000 0.028000 0.033000
1517347560639752526	400 32 0.900000 0.017000 0.015000 600 31 0.900000 0.352000 0.320000 600 36 1.000000 0.051000 0.051000 1.200000 0.028000 0.033000
1517347561151245610	400 32 0.900000 0.017000 0.015000 600 31 0.900000 0.346000 0.314000 600 36 1.000000 0.051000 0.051000 1.200000 0.028000 0.033000
1517347561662728151	400 32 0.900000 0.017000 0.015000 600 31 0.900000 0.344000 0.313000 600 36 1.000000 0.052000 0.052000 1.200000 0.027000 0.032000
1517347562174057818	400 32 0.900000 0.017000 0.015000 600 31 0.900000 0.347000 0.315000 600 36 1.000000 0.051000 0.051000 1.200000 0.027000 0.032000
1517347562685427360	400 32 0.900000 0.017000 0.015000 600 31 0.900000 0.354000 0.322000 600 36 1.000000 0.052000 0.052000 1.200000 0.028000 0.033000
1517347563196877693	400 32 0.900000 0.017000 0.015000 600 31 0.900000 0.355000 0.323000 600 36 1.000000 0.051000 0.051000 1.200000 0.028000 0.033000
1517347563708341527	400 32 0.900000 0.017000 0.015000 600 31 0.900000 0.347000 0.315000 600 36 1.000000 0.052000 0.052000 1.200000 0.028000 0.033000
1517347564219890693	400 32 0.900000 0.017000 0.015000 600 31 0.900000 0.340000 0.309000 600 36 1.000000 0.051000 0.051000 1.200000 0.027000 0.032000
1517347564731323068	400 32 0.900000 0.017000 0.015000 600 31 0.900000 0.341000 0.310000 600 36 1.000000 0.052000 0.052000 1.200000 0.026000 0.031000
1517347565242625527	400 32 0.900000 0.017000 0.015000 600 31 0.900000 0.341000 0.310000 600 36 1.000000 0.052000 0.052000 1.200000 0.028000 0.033000
1517347565754169777	400 32 0.900000 0.017000 0.015000 600 31 0.900000 0.341000 0.310000 600 36 1.000000 0.051000 0.051000 1.200000 0.028000 0.033000
1517347566265562527	400 32 0.900000 0.018000 0.016000 600 31 0.900000 0.339000 0.308000 600 36 1.000000 0.051000 0.051000 1.200000 0.026000 0.031000
1517347566777214444	400 32 0.900000 0.017000 0.015000 600 31 0.900000 0.341000 0.310000 600 36 1.000000 0.052000 0.052000 1.200000 0.027000 0.032000
1517347567288495819	400 32 0.900000 0.017000 0.015000 600 31 0.900000 0.341000 0.310000 600 36 1.000000 0.051000 0.051000 1.200000 0.026000 0.031000
1517347567800305319	400 32 0.900000 0.017000 0.015000 600 31 0.900000 0.341000 0.310000 600 36 1.000000 0.051000 0.051000 1.200000 0.026000 0.031000
1517347568311679986	400 32 0.900000 0.017000 0.015000 600 31 0.900000 0.351000 0.319000 600 36 1.000000 0.051000 0.051000 1.200000 0.028000 0.033000
1517347568822926569	400 32 0.900000 0.017000 0.015000 600 31 0.900000 0.350000 0.318000 600 36 1.000000 0.051000 0.051000 1.200000 0.028000 0.033000
1517347569334224944	400 32 0.900000 0.017000 0.015000 600 31 0.900000 0.344000 0.313000 600 36 1.000000 0.052000 0.052000 1.200000 0.028000 0.033000
1517347569845540777	400 32 0.900000 0.017000 0.015000 600 31 0.900000 0.346000 0.314000 600 36 1.000000 0.051000 0.051000 1.200000 0.027000 0.032000
1517347570356832527	400 32 0.900000 0.017000 0.015000 600 31 0.900000 0.351000 0.319000 600 36 1.000000 0.051000 0.051000 1.200000 0.028000 0.033000
1517347570868026194	400 32 0.900000 0.017000 0.015000 600 31 0.900000 0.341000 0.310000 600 36 1.000000 0.051000 0.051000 1.200000 0.027000 0.032000
1517347571379337653	400 32 0.900000 0.017000 0.015000 600 31 0.900000 0.340000 0.309000 600 36 1.000000 0.052000 0.052000 1.200000 0.028000 0.033000
1517347571890714903	400 32 0.900000 0.017000 0.015000 600 31 0.900000 0.340000 0.309000 600 36 1.000000 0.051000 0.051000 1.200000 0.028000 0.033000
1517347572401930111	400 32 0.900000 0.017000 0.015000 600 31 0.900000 0.341000 0.310000 600 36 1.000000 0.051000 0.051000 1.200000 0.028000 0.033000
1517347572913334569	400 32 0.900000 0.017000 0.015000 600 31 0.900000 0.339000 0.308000 600 36 1.000000 0.052000 0.052000 1.200000 0.028000 0.033000
1517347573424593653	400 32 0.900000 0.017000 0.015000 600 31 0.900000 0.340000 0.309000 600 36 1.000000 0.051000 0.051000 1.200000 0.027000 0.032000
1517347573935886028	400 32 0.900000 0.017000 0.015000 600 31 0.900000 0.340000 0.309000 600 36 1.000000 0.051000 0.051000 1.200000 0.026000 0.031000
1517347574447286486	400 32 0.900000 0.017000 0.015000 600 31 0.900000 0.343000 0.312000 600 36 1.000000 0.051000 0.051000 1.200000 0.027000 0.032000
1517347574958600361	400 32 0.900000 0.017000 0.015000 600 31 0.900000 0.342000 0.311000 600 36 1.000000 0.051000 0.051000 1.200000 0.027000 0.032000
1517347575470028153	400 32 0.900000 0.017000 0.015000 600 31 0.900000 0.340000 0.309000 600 36 1.000000 0.051000 0.051000 1.200000 0.026000 0.031000
1517347575981259945	400 32 0.900000 0.017000 0.015000 600 31 0.900000 0.339000 0.308000 600 36 1.000000 0.051000 0.051000 1.200000 0.027000 0.032000
1517347576492725945	400 32 0.900000 0.017000 0.015000 600 31 0.900000 0.349000 0.317000 600 36 1.000000 0.051000 0.051000 1.200000 0.027000 0.032000
1517347577004132445	400 32 0.900000 0.017000 0.015000 600 31 0.900000 0.345000 0.313000 600 36 1.000000 0.051000 0.051000 1.200000 0.028000 0.033000
1517347577515498112	400 32 0.900000 0.017000 0.015000 600 31 0.900000 0.343000 0.312000 600 36 1.000000 0.051000 0.051000 1.200000 0.028000 0.033000
1517347578026866737	400 32 0.900000 0.017000 0.015000 600 31 0.900000 0.358000 0.325000 600 36 1.000000 0.051000 0.051000 1.200000 0.028000 0.033000
1517347578538155070	400 32 0.900000 0.017000 0.015000 600 31 0.900000 0.351000 0.319000 600 35 1.000000 0.052000 0.052000 1.200000 0.027000 0.032000
1517347579049409320	400 32 0.900000 0.017000 0.015000 600 31 0.900000 0.349000 0.317000 600 36 1.000000 0.051000 0.051000 1.200000 0.028000 0.033000
1517347579560790404	400 32 0.900000 0.017000 0.015000 600 31 0.900000 0.347000 0.315000 600 36 1.000000 0.051000 0.051000 1.200000 0.029000 0.035000
1517347580072086320	400 32 0.900000 0.017000 0.015000 600 31 0.900000 0.348000 0.316000 600 36 1.000000 0.051000 0.051000 1.200000 0.027000 0.032000
1517347580583422279	400 32 0.900000 0.017000 0.015000 600 31 0.900000 0.351000 0.319000 600 36 1.000000 0.051000 0.051000 1.200000 0.027000 0.032000
1517347581094786362	400 32 0.900000 0.017000 0.015000 600 31 0.900000 0.351000 0.319000 600 36 1.000000 0.051000 0.051000 1.200000 0.027000 0.032000
1517347581606030487	400 32 0.900000 0.017000 0.015000 600 31 0.900000 0.349000 0.317000 600 36 1.000000 0.051000 0.051000 1.200000 0.026000 0.031000
1517347582117256071	400 32 0.900000 0.017000 0.015000 600 31 0.900000 0.347000 0.315000 600 36 1.000000 0.051000 0.051000 1.200000 0.027000 0.032000
1517347582628631321	400 32 0.900000 0.017000 0.015000 600 31 0.900000 0.349000 0.317000 600 36 1.000000 0.051000 0.051000 1.200000 0.027000 0.032000
1517347583139775446	400 32 0.900000 0.017000 0.015000 600 31 0.900000 0.351000 0.319000 600 36 1.000000 0.052000 0.052000 1.200000 0.026000 0.031000
1517347583651259696	400 32 0.900000 0.017000 0.015000 600 31 0.900000 0.351000 0.319000 600 36 1.000000 0.051000 0.051000 1.200000 0.027000 0.032000
1517347584162703487	400 32 0.900000 0.017000 0.015000 600 31 0.900000 0.349000 0.317000 600 36 1.000000 0.051000 0.051000 1.200000 0.028000 0.033000
1517347584674384404	400 32 0.900000 0.017000 0.015000 600 31 0.900000 0.343000 0.312000 600 36 1.000000 0.051000 0.051000 1.200000 0.026000 0.031000
1517347585185951279	400 32 0.900000 0.017000 0.015000 600 31 0.900000 0.348000 0.316000 600 36 1.000000 0.052000 0.052000 1.200000 0.028000 0.033000
1517347585697265363	400 32 0.900000 0.017000 0.015000 600 31 0.900000 0.351000 0.319000 600 36 1.000000 0.052000 0.052000 1.200000 0.028000 0.033000
1517347586208685904	400 32 0.900000 0.017000 0.015000 600 31 0.900000 0.351000 0.319000 600 36 1.000000 0.052000 0.052000 1.200000 0.028000 0.033000
1517347586720109571	400 32 0.900000 0.017000 0.015000 600 31 0.900000 0.349000 0.317000 600 36 1.000000 0.051000 0.051000 1.200000 0.027000 0.032000
1517347587231402154	400 32 0.900000 0.017000 0.015000 600 31 0.900000 0.346000 0.314000 600 36 1.000000 0.051000 0.051000 1.200000 0.028000 0.033000
1517347587742742613	400 32 0.900000 0.017000 0.015000 600 31 0.900000 0.346000 0.314000 600 36 1.000000 0.051000 0.051000 1.200000 0.028000 0.033000
1517347588253920821	400 32 0.900000 0.017000 0.015000 600 31 0.900000 0.349000 0.317000 600 36 1.000000 0.052000 0.052000 1.200000 0.027000 0.032000
1517347588765379196	400 32 0.900000 0.017000 0.015000 600 31 0.900000 0.351000 0.319000 600 35 1.000000 0.051000 0.051000 1.200000 0.027000 0.032000
1517347589276609530	400 32 0.900000 0.017000 0.015000 600 31 0.900000 0.351000 0.319000 600 36 1.000000 0.051000 0.051000 1.200000 0.027000 0.032000
1517347589787794946	400 32 0.900000 0.017000 0.015000 600 31 0.900000 0.347000 0.315000 600 36 1.000000 0.052000 0.052000 1.200000 0.027000 0.032000
1517347590299141613	400 32 0.900000 0.017000 0.015000 600 31 0.900000 0.346000 0.314000 600 36 1.000000 0.051000 0.051000 1.200000 0.027000 0.032000
1517347590810626155	400 32 0.900000 0.017000 0.015000 600 31 0.900000 0.350000 0.318000 600 36 1.000000 0.051000 0.051000 1.200000 0.026000 0.031000
1517347591322102613	400 32 0.900000 0.017000 0.015000 600 31 0.900000 0.341000 0.310000 600 36 1.000000 0.051000 0.051000 1.200000 0.026000 0.031000
1517347591833455280	400 32 0.900000 0.017000 0.015000 600 31 0.900000 0.342000 0.311000 600 36 1.000000 0.051000 0.051000 1.200000 0.026000 0.031000
1517347592344684780	400 32 0.900000 0.017000 0.015000 600 31 0.900000 0.341000 0.310000 600 36 1.000000 0.051000 0.051000 1.200000 0.027000 0.032000
1517347592856051530	400 32 0.900000 0.017000 0.015000 600 31 0.900000 0.341000 0.310000 600 36 1.000000 0.052000 0.052000 1.200000 0.027000 0.032000
1517347593367319197	400 32 0.900000 0.017000 0.015000 600 31 0.900000 0.348000 0.316000 600 35 1.000000 0.052000 0.052000 1.200000 0.027000 0.032000
1517347593878937739	400 32 0.900000 0.017000 0.015000 600 31 0.900000 0.351000 0.319000 600 35 1.000000 0.051000 0.051000 1.200000 0.028000 0.033000
1517347594390362114	400 32 0.900000 0.017000 0.015000 600 31 0.900000 0.351000 0.319000 600 35 1.000000 0.051000 0.051000 1.200000 0.028000 0.033000
1517347594901829114	400 32 0.900000 0.017000 0.015000 600 31 0.900000 0.347000 0.315000 600 36 1.000000 0.051000 0.051000 1.200000 0.028000 0.033000
1517347595413142405	400 32 0.900000 0.017000 0.015000 600 31 0.900000 0.347000 0.315000 600 36 1.000000 0.051000 0.051000 1.200000 0.026000 0.031000
1517347595924617905	400 32 0.900000 0.017000 0.015000 600 31 0.900000 0.350000 0.318000 600 36 1.000000 0.051000 0.051000 1.200000 0.027000 0.032000
1517347596435989739	400 32 0.900000 0.017000 0.015000 600 31 0.900000 0.352000 0.320000 600 36 1.000000 0.052000 0.052000 1.200000 0.028000 0.033000
1517347596947439614	400 32 0.900000 0.017000 0.015000 600 31 0.900000 0.354000 0.322000 600 36 1.000000 0.051000 0.051000 1.200000 0.028000 0.033000
1517347597458933447	400 32 0.900000 0.017000 0.015000 600 31 0.900000 0.347000 0.315000 600 36 1.000000 0.051000 0.051000 1.200000 0.027000 0.032000
1517347597970267447	400 32 0.900000 0.017000 0.015000 600 31 0.900000 0.342000 0.311000 600 36 1.000000 0.051000 0.051000 1.200000 0.028000 0.033000
1517347598481857531	400 32 0.900000 0.017000 0.015000 600 31 0.900000 0.341000 0.310000 600 36 1.000000 0.051000 0.051000 1.200000 0.028000 0.033000
1517347598993171239	400 32 0.900000 0.017000 0.015000 600 31 0.900000 0.341000 0.310000 600 35 1.000000 0.051000 0.051000 1.200000 0.027000 0.032000
1517347599504596906	400 32 0.900000 0.017000 0.015000 600 31 0.900000 0.342000 0.311000 600 35 1.000000 0.051000 0.051000 1.200000 0.029000 0.035000
1517347600016101114	400 32 0.900000 0.017000 0.015000 600 31 0.900000 0.340000 0.309000 600 36 1.000000 0.051000 0.051000 1.200000 0.027000 0.032000
1517347600527505864	400 32 0.900000 0.017000 0.015000 600 31 0.900000 0.340000 0.309000 600 36 1.000000 0.051000 0.051000 1.200000 0.027000 0.032000
1517347601038806989	400 32 0.900000 0.017000 0.015000 600 31 0.900000 0.341000 0.310000 600 36 1.000000 0.051000 0.051000 1.200000 0.026000 0.031000
1517347601550366323	400 32 0.900000 0.017000 0.015000 600 31 0.900000 0.352000 0.320000 600 36 1.000000 0.051000 0.051000 1.200000 0.028000 0.033000
1517347602061823031	400 32 0.900000 0.017000 0.015000 600 31 0.900000 0.352000 0.320000 600 36 1.000000 0.052000 0.052000 1.200000 0.027000 0.032000
1517347602573212448	400 32 0.900000 0.017000 0.015000 600 31 0.900000 0.347000 0.315000 600 36 1.000000 0.051000 0.051000 1.200000 0.028000 0.033000
1517347603084554740	400 32 0.900000 0.017000 0.015000 600 31 0.900000 0.346000 0.314000 600 35 1.000000 0.051000 0.051000 1.200000 0.027000 0.032000
1517347603596014115	400 32 0.900000 0.017000 0.015000 600 31 0.900000 0.348000 0.316000 600 36 1.000000 0.052000 0.052000 1.200000 0.028000 0.033000
1517347604107429240	400 32 0.900000 0.017000 0.015000 600 31 0.900000 0.353000 0.321000 600 36 1.000000 0.051000 0.051000 1.200000 0.027000 0.032000
1517347604618801948	400 32 0.900000 0.017000 0.015000 600 31 0.900000 0.354000 0.322000 600 36 1.000000 0.052000 0.052000 1.200000 0.029000 0.035000
1517347605130319407	400 32 0.900000 0.017000 0.015000 600 31 0.900000 0.341000 0.310000 600 36 1.000000 0.051000 0.051000 1.200000 0.027000 0.032000
1517347605642040615	400 32 0.900000 0.017000 0.015000 600 31 0.900000 0.340000 0.309000 600 35 1.000000 0.051000 0.051000 1.200000 0.027000 0.032000
1517347606153373240	400 32 0.900000 0.017000 0.015000 600 31 0.900000 0.341000 0.310000 600 36 1.000000 0.052000 0.052000 1.200000 0.027000 0.032000
1517347606664663240	400 32 0.900000 0.017000 0.015000 600 31 0.900000 0.342000 0.311000 600 36 1.000000 0.052000 0.052000 1.200000 0.026000 0.031000
1517347607176090990	400 32 0.900000 0.017000 0.015000 600 31 0.900000 0.341000 0.310000 600 35 1.000000 0.051000 0.051000 1.200000 0.028000 0.033000
1517347607687418324	400 32 0.900000 0.017000 0.015000 600 31 0.900000 0.340000 0.309000 600 36 1.000000 0.051000 0.051000 1.200000 0.028000 0.033000
1517347608198862949	400 32 0.900000 0.017000 0.015000 600 31 0.900000 0.340000 0.309000 600 35 1.000000 0.052000 0.052000 1.200000 0.027000 0.032000
1517347608710210324	400 32 0.900000 0.017000 0.015000 600 31 0.900000 0.342000 0.311000 600 36 1.000000 0.051000 0.051000 1.200000 0.026000 0.031000
1517347609221465990	400 32 0.900000 0.017000 0.015000 600 31 0.900000 0.341000 0.310000 600 36 1.000000 0.051000 0.051000 1.200000 0.028000 0.033000
1517347609733095907	400 32 0.900000 0.017000 0.015000 600 31 0.900000 0.352000 0.320000 600 36 1.000000 0.051000 0.051000 1.200000 0.027000 0.032000
1517347610244608074	400 32 0.900000 0.017000 0.015000 600 31 0.900000 0.350000 0.318000 600 36 1.000000 0.052000 0.052000 1.200000 0.027000 0.032000
1517347610755962699	400 32 0.900000 0.017000 0.015000 600 31 0.900000 0.345000 0.313000 600 36 1.000000 0.051000 0.051000 1.200000 0.028000 0.033000
1517347611267284866	400 32 0.900000 0.017000 0.015000 600 31 0.900000 0.346000 0.314000 600 36 1.000000 0.052000 0.052000 1.200000 0.027000 0.032000
1517347611778721657	400 32 0.900000 0.017000 0.015000 600 31 0.900000 0.342000 0.311000 600 36 1.000000 0.051000 0.051000 1.200000 0.027000 0.032000
1517347612290157241	400 32 0.900000 0.017000 0.015000 600 31 0.900000 0.341000 0.310000 600 36 1.000000 0.051000 0.051000 1.200000 0.028000 0.033000
1517347612801505074	400 32 0.900000 0.017000 0.015000 600 31 0.900000 0.341000 0.310000 600 36 1.000000 0.052000 0.052000 1.200000 0.030000 0.036000
1517347613312923908	400 32 0.900000 0.017000 0.015000 600 31 0.900000 0.340000 0.309000 600 36 1.000000 0.051000 0.051000 1.200000 0.028000 0.033000
1517347613824309324	400 32 0.900000 0.017000 0.015000 600 31 0.900000 0.342000 0.311000 600 36 1.000000 0.051000 0.051000 1.200000 0.028000 0.033000
1517347614335638574	400 32 0.900000 0.017000 0.015000 600 31 0.900000 0.342000 0.311000 600 36 1.000000 0.052000 0.052000 1.200000 0.029000 0.035000
1517347614847053824	400 32 0.900000 0.017000 0.015000 600 31 0.900000 0.341000 0.310000 600 36 1.000000 0.051000 0.051000 1.200000 0.027000 0.032000
1517347615358458574	400 32 0.900000 0.017000 0.015000 600 31 0.900000 0.340000 0.309000 600 36 1.000000 0.051000 0.051000 1.200000 0.027000 0.032000
1517347615869805533	400 32 0.900000 0.017000 0.015000 600 31 0.900000 0.341000 0.310000 600 36 1.000000 0.052000 0.052000 1.200000 0.028000 0.033000
1517347616381110783	400 32 0.900000 0.017000 0.015000 600 31 0.900000 0.341000 0.310000 600 35 1.000000 0.051000 0.051000 1.200000 0.027000 0.032000
1517347616892472116	400 32 0.900000 0.017000 0.015000 600 31 0.900000 0.341000 0.310000 600 36 1.000000 0.051000 0.051000 1.200000 0.026000 0.031000
1517347617403858116	400 32 0.900000 0.017000 0.015000 600 31 0.900000 0.352000 0.320000 600 36 1.000000 0.052000 0.052000 1.200000 0.026000 0.031000
1517347617915281991	400 32 0.900000 0.017000 0.015000 600 31 0.900000 0.341000 0.310000 600 36 1.000000 0.052000 0.052000 1.200000 0.028000 0.033000
1517347618426477867	400 32 0.900000 0.017000 0.015000 600 31 0.900000 0.339000 0.308000 600 36 1.000000 0.051000 0.051000 1.200000 0.028000 0.033000
1517347618937945158	400 32 0.900000 0.017000 0.015000 600 31 0.900000 0.347000 0.315000 600 36 1.000000 0.051000 0.051000 1.200000 0.029000 0.035000
1517347619449345617	400 32 0.900000 0.017000 0.015000 600 31 0.900000 0.350000 0.318000 600 36 1.000000 0.052000 0.052000 1.200000 0.028000 0.033000
1517347619960685283	400 32 0.900000 0.017000 0.015000 600 31 0.900000 0.352000 0.320000 600 36 1.000000 0.051000 0.051000 1.200000 0.027000 0.032000
1517347620472091658	400 32 0.900000 0.017000 0.015000 600 31 0.900000 0.348000 0.316000 600 36 1.000000 0.051000 0.051000 1.200000 0.027000 0.032000
1517347620983318992	400 32 0.900000 0.017000 0.015000 600 31 0.900000 0.346000 0.314000 600 36 1.000000 0.051000 0.051000 1.200000 0.028000 0.033000
1517347621494820617	400 32 0.900000 0.017000 0.015000 600 31 0.900000 0.346000 0.314000 600 36 1.000000 0.051000 0.051000 1.200000 0.028000 0.033000
1517347622006272909	400 32 0.900000 0.017000 0.015000 600 31 0.900000 0.349000 0.317000 600 36 1.000000 0.052000 0.052000 1.200000 0.026000 0.031000
1517347622517577575	400 32 0.900000 0.017000 0.015000 600 31 0.900000 0.351000 0.319000 600 36 1.000000 0.051000 0.051000 1.200000 0.026000 0.031000
1517347623028869742	400 32 0.900000 0.017000 0.015000 600 31 0.900000 0.350000 0.318000 600 36 1.000000 0.051000 0.051000 1.200000 0.028000 0.033000
1517347623540304159	400 32 0.900000 0.017000 0.015000 600 31 0.900000 0.347000 0.315000 600 36 1.000000 0.051000 0.051000 1.200000 0.028000 0.033000
1517347624051582409	400 32 0.900000 0.017000 0.015000 600 31 0.900000 0.346000 0.314000 600 36 1.000000 0.051000 0.051000 1.200000 0.028000 0.033000
1517347624563027576	400 32 0.900000 0.018000 0.016000 600 31 0.900000 0.348000 0.316000 600 36 1.000000 0.052000 0.052000 1.200000 0.026000 0.031000
1517347625074433659	400 32 0.900000 0.017000 0.015000 600 31 0.900000 0.351000 0.319000 600 36 1.000000 0.051000 0.051000 1.200000 0.027000 0.032000
1517347625585520784	400 32 0.900000 0.017000 0.015000 600 31 0.900000 0.341000 0.310000 600 36 1.000000 0.051000 0.051000 1.200000 0.027000 0.032000
1517347626096883617	400 32 0.900000 0.017000 0.015000 600 31 0.900000 0.342000 0.311000 600 36 1.000000 0.052000 0.052000 1.200000 0.026000 0.031000
1517347626608065117	400 32 0.900000 0.017000 0.015000 600 31 0.900000 0.346000 0.314000 600 36 1.000000 0.051000 0.051000 1.200000 0.028000 0.033000
1517347627119476076	400 32 0.900000 0.017000 0.015000 600 31 0.900000 0.349000 0.317000 600 36 1.000000 0.051000 0.051000 1.200000 0.028000 0.033000
1517347627630830534	400 32 0.900000 0.017000 0.015000 600 31 0.900000 0.351000 0.319000 600 36 1.000000 0.051000 0.051000 1.200000 0.027000 0.032000
1517347628142273409	400 32 0.900000 0.017000 0.015000 600 31 0.900000 0.350000 0.318000 600 36 1.000000 0.052000 0.052000 1.200000 0.027000 0.032000
1517347628653552868	400 32 0.900000 0.017000 0.015000 600 31 0.900000 0.348000 0.316000 600 36 1.000000 0.052000 0.052000 1.200000 0.027000 0.032000
1517347629164973159	400 32 0.900000 0.017000 0.015000 600 31 0.900000 0.349000 0.317000 600 36 1.000000 0.052000 0.052000 1.200000 0.027000 0.032000
1517347629676456660	400 32 0.900000 0.017000 0.015000 600 31 0.900000 0.349000 0.317000 600 36 1.000000 0.051000 0.051000 1.200000 0.026000 0.031000
1517347630187893826	400 32 0.900000 0.017000 0.015000 600 31 0.900000 0.351000 0.319000 600 36 1.000000 0.051000 0.051000 1.200000 0.027000 0.032000
1517347630699159951	400 32 0.900000 0.017000 0.015000 600 31 0.900000 0.351000 0.319000 600 36 1.000000 0.051000 0.051000 1.200000 0.026000 0.031000
1517347631210630160	400 32 0.900000 0.017000 0.015000 600 31 0.900000 0.349000 0.317000 600 36 1.000000 0.052000 0.052000 1.200000 0.027000 0.032000
1517347631722238451	400 32 0.900000 0.017000 0.015000 600 31 0.900000 0.346000 0.314000 600 36 1.000000 0.051000 0.051000 1.200000 0.027000 0.032000
1517347632233585993	400 32 0.900000 0.017000 0.015000 600 31 0.900000 0.342000 0.311000 600 36 1.000000 0.051000 0.051000 1.200000 0.027000 0.032000
1517347632745087577	400 32 0.900000 0.017000 0.015000 600 31 0.900000 0.341000 0.310000 600 36 1.000000 0.051000 0.051000 1.200000 0.026000 0.031000
1517347633256475993	400 32 0.900000 0.017000 0.015000 600 31 0.900000 0.342000 0.311000 600 36 1.000000 0.051000 0.051000 1.200000 0.026000 0.031000
1517347633768506785	400 32 0.900000 0.017000 0.015000 600 31 0.900000 0.343000 0.312000 600 37 1.000000 0.051000 0.051000 1.200000 0.035000 0.042000
1517347634281849868	400 32 0.900000 0.017000 0.015000 600 31 0.900000 0.341000 0.310000 600 36 1.000000 0.052000 0.052000 1.200000 0.031000 0.037000
1517347634793364202	400 32 0.900000 0.017000 0.015000 600 31 0.900000 0.348000 0.316000 600 36 1.000000 0.051000 0.051000 1.200000 0.027000 0.032000
1517347635305072285	400 32 0.900000 0.017000 0.015000 600 31 0.900000 0.350000 0.318000 600 36 1.000000 0.051000 0.051000 1.200000 0.028000 0.033000
1517347635816624244	400 32 0.900000 0.017000 0.015000 600 31 0.900000 0.353000 0.321000 600 36 1.000000 0.051000 0.051000 1.200000 0.028000 0.033000
1517347636326959910	400 32 0.900000 0.017000 0.015000 600 31 0.900000 0.352000 0.320000 600 36 1.000000 0.051000 0.051000 1.200000 0.028000 0.033000
1517347636837156244	400 32 0.900000 0.018000 0.016000 600 31 0.900000 0.347000 0.315000 600 36 1.000000 0.051000 0.051000 1.200000 0.028000 0.033000
1517347637347449202	400 32 0.900000 0.017000 0.015000 600 31 0.900000 0.344000 0.313000 600 36 1.000000 0.051000 0.051000 1.200000 0.028000 0.033000
1517347637857769160	400 32 0.900000 0.017000 0.015000 600 31 0.900000 0.350000 0.318000 600 36 1.000000 0.051000 0.051000 1.200000 0.028000 0.033000
1517347638367995661	400 32 0.900000 0.017000 0.015000 600 31 0.900000 0.351000 0.319000 600 36 1.000000 0.051000 0.051000 1.200000 0.028000 0.033000
1517347638878400327	400 32 0.900000 0.017000 0.015000 600 31 0.900000 0.347000 0.315000 600 36 1.000000 0.052000 0.052000 1.200000 0.027000 0.032000
1517347639388556869	400 32 0.900000 0.017000 0.015000 600 31 0.900000 0.341000 0.310000 600 36 1.000000 0.052000 0.052000 1.200000 0.031000 0.037000
1517347639898847744	400 32 0.900000 0.017000 0.015000 600 31 0.900000 0.341000 0.310000 600 36 1.000000 0.051000 0.051000 1.200000 0.028000 0.033000
1517347640409035702	400 32 0.900000 0.017000 0.015000 600 31 0.900000 0.342000 0.311000 600 36 1.000000 0.052000 0.052000 1.200000 0.028000 0.033000
1517347640919502661	400 32 0.900000 0.017000 0.015000 600 31 0.900000 0.343000 0.312000 600 36 1.000000 0.051000 0.051000 1.200000 0.028000 0.033000
1517347641429825911	400 32 0.900000 0.017000 0.015000 600 31 0.900000 0.342000 0.311000 600 36 1.000000 0.051000 0.051000 1.200000 0.027000 0.032000
1517347641940015536	400 32 0.900000 0.017000 0.015000 600 31 0.900000 0.341000 0.310000 600 36 1.000000 0.051000 0.051000 1.200000 0.027000 0.032000
1517347642450329869	400 32 0.900000 0.017000 0.015000 600 31 0.900000 0.347000 0.315000 600 36 1.000000 0.051000 0.051000 1.200000 0.028000 0.033000
1517347642960544744	400 32 0.900000 0.017000 0.015000 600 31 0.900000 0.345000 0.313000 600 36 1.000000 0.051000 0.051000 1.200000 0.027000 0.032000
1517347643470997619	400 32 0.900000 0.017000 0.015000 600 31 0.900000 0.350000 0.318000 600 36 1.000000 0.052000 0.052000 1.200000 0.027000 0.032000
1517347643981340328	400 32 0.900000 0.017000 0.015000 600 31 0.900000 0.353000 0.321000 600 36 1.000000 0.051000 0.051000 1.200000 0.028000 0.033000
1517347644492574161	400 32 0.900000 0.017000 0.015000 600 31 0.900000 0.348000 0.316000 600 36 1.000000 0.051000 0.051000 1.200000 0.028000 0.033000
1517347645002964120	400 32 0.900000 0.017000 0.015000 600 31 0.900000 0.356000 0.323000 600 36 1.000000 0.051000 0.051000 1.200000 0.029000 0.035000
1517347645513119703	400 32 0.900000 0.017000 0.015000 600 31 0.900000 0.341000 0.310000 600 36 1.000000 0.051000 0.051000 1.200000 0.027000 0.032000
1517347646023538995	400 32 0.900000 0.018000 0.016000 600 31 0.900000 0.343000 0.312000 600 36 1.000000 0.051000 0.051000 1.200000 0.028000 0.033000
1517347646533945703	400 32 0.900000 0.017000 0.015000 600 31 0.900000 0.340000 0.309000 600 36 1.000000 0.051000 0.051000 1.200000 0.028000 0.033000
1517347647044171537	400 32 0.900000 0.017000 0.015000 600 31 0.900000 0.341000 0.310000 600 36 1.000000 0.051000 0.051000 1.200000 0.028000 0.033000
1517347647554456370	400 32 0.900000 0.017000 0.015000 600 31 0.900000 0.341000 0.310000 600 36 1.000000 0.051000 0.051000 1.200000 0.027000 0.032000
1517347648064572870	400 32 0.900000 0.017000 0.015000 600 31 0.900000 0.342000 0.311000 600 36 1.000000 0.051000 0.051000 1.200000 0.028000 0.033000
1517347648574893787	400 32 0.900000 0.017000 0.015000 600 31 0.900000 0.343000 0.312000 600 36 1.000000 0.052000 0.052000 1.200000 0.027000 0.032000
1517347649085109245	400 32 0.900000 0.017000 0.015000 600 31 0.900000 0.342000 0.311000 600 36 1.000000 0.052000 0.052000 1.200000 0.027000 0.032000
1517347649595511079	400 32 0.900000 0.017000 0.015000 600 31 0.900000 0.340000 0.309000 600 36 1.000000 0.052000 0.052000 1.200000 0.027000 0.032000
1517347650105897120	400 32 0.900000 0.017000 0.015000 600 31 0.900000 0.342000 0.311000 600 36 1.000000 0.052000 0.052000 1.200000 0.027000 0.032000
1517347650616191620	400 32 0.900000 0.017000 0.015000 600 31 0.900000 0.345000 0.313000 600 36 1.000000 0.051000 0.051000 1.200000 0.028000 0.033000
1517347651126231370	400 32 0.900000 0.017000 0.015000 600 31 0.900000 0.348000 0.316000 600 36 1.000000 0.052000 0.052000 1.200000 0.028000 0.033000
1517347651636544079	400 32 0.900000 0.017000 0.015000 600 31 0.900000 0.352000 0.320000 600 36 1.000000 0.051000 0.051000 1.200000 0.028000 0.033000
1517347652146769204	400 32 0.900000 0.017000 0.015000 600 31 0.900000 0.342000 0.311000 600 36 1.000000 0.051000 0.051000 1.200000 0.028000 0.033000
1517347652657099621	400 32 0.900000 0.017000 0.015000 600 31 0.900000 0.342000 0.311000 600 36 1.000000 0.051000 0.051000 1.200000 0.028000 0.033000
1517347653167320246	400 32 0.900000 0.017000 0.015000 600 31 0.900000 0.342000 0.311000 600 36 1.000000 0.051000 0.051000 1.200000 0.027000 0.032000
1517347653677473496	400 32 0.900000 0.017000 0.015000 600 31 0.900000 0.342000 0.311000 600 36 1.000000 0.051000 0.051000 1.200000 0.027000 0.032000
1517347654187777954	400 32 0.900000 0.017000 0.015000 600 31 0.900000 0.341000 0.310000 600 36 1.000000 0.052000 0.052000 1.200000 0.028000 0.033000
1517347654698003496	400 32 0.900000 0.017000 0.015000 600 31 0.900000 0.341000 0.310000 600 36 1.000000 0.051000 0.051000 1.200000 0.027000 0.032000
1517347655208102663	400 32 0.900000 0.017000 0.015000 600 31 0.900000 0.342000 0.311000 600 36 1.000000 0.051000 0.051000 1.200000 0.027000 0.032000
1517347655718408538	400 32 0.900000 0.017000 0.015000 600 31 0.900000 0.341000 0.310000 600 36 1.000000 0.051000 0.051000 1.200000 0.028000 0.033000
1517347656228586413	400 32 0.900000 0.017000 0.015000 600 31 0.900000 0.347000 0.315000 600 36 1.000000 0.052000 0.052000 1.200000 0.027000 0.032000
1517347656738822371	400 32 0.900000 0.017000 0.015000 600 31 0.900000 0.345000 0.313000 600 36 1.000000 0.051000 0.051000 1.200000 0.027000 0.032000
1517347657248977496	400 32 0.900000 0.017000 0.015000 600 31 0.900000 0.351000 0.319000 600 36 1.000000 0.051000 0.051000 1.200000 0.027000 0.032000
1517347657759200121	400 32 0.900000 0.017000 0.015000 600 31 0.900000 0.351000 0.319000 600 36 1.000000 0.051000 0.051000 1.200000 0.027000 0.032000
1517347658269506538	400 32 0.900000 0.017000 0.015000 600 31 0.900000 0.343000 0.312000 600 36 1.000000 0.052000 0.052000 1.200000 0.028000 0.033000
1517347658779872871	400 32 0.900000 0.017000 0.015000 600 31 0.900000 0.345000 0.313000 600 36 1.000000 0.051000 0.051000 1.200000 0.027000 0.032000
1517347659290056996	400 32 0.900000 0.017000 0.015000 600 31 0.900000 0.351000 0.319000 600 36 1.000000 0.051000 0.051000 1.200000 0.027000 0.032000
1517347659800094163	400 32 0.900000 0.017000 0.015000 600 31 0.900000 0.349000 0.317000 600 36 1.000000 0.051000 0.051000 1.200000 0.028000 0.033000
1517347660310309038	400 32 0.900000 0.017000 0.015000 600 31 0.900000 0.346000 0.314000 600 36 1.000000 0.052000 0.052000 1.200000 0.028000 0.033000
1517347660820587955	400 32 0.900000 0.017000 0.015000 600 31 0.900000 0.350000 0.318000 600 36 1.000000 0.051000 0.051000 1.200000 0.027000 0.032000
1517347661330912497	400 32 0.900000 0.017000 0.015000 600 31 0.900000 0.353000 0.321000 600 36 1.000000 0.051000 0.051000 1.200000 0.027000 0.032000
1517347661840826747	400 32 0.900000 0.017000 0.015000 600 31 0.900000 0.346000 0.314000 600 36 1.000000 0.051000 0.051000 1.200000 0.027000 0.032000
1517347662351251372	400 32 0.900000 0.017000 0.015000 600 31 0.900000 0.345000 0.313000 600 36 1.000000 0.052000 0.052000 1.200000 0.027000 0.032000
1517347662861461080	400 32 0.900000 0.017000 0.015000 600 31 0.900000 0.350000 0.318000 600 36 1.000000 0.051000 0.051000 1.200000 0.026000 0.031000
1517347663371713789	400 32 0.900000 0.017000 0.015000 600 31 0.900000 0.355000 0.323000 600 36 1.000000 0.051000 0.051000 1.200000 0.027000 0.032000
1517347663881895622	400 32 0.900000 0.017000 0.015000 600 31 0.900000 0.346000 0.314000 600 36 1.000000 0.051000 0.051000 1.200000 0.027000 0.032000
1517347664392280664	400 32 0.900000 0.017000 0.015000 600 32 0.900000 0.346000 0.314000 600 36 1.000000 0.051000 0.051000 1.200000 0.027000 0.032000
1517347664902440039	400 32 0.900000 0.017000 0.015000 600 31 0.900000 0.343000 0.312000 600 36 1.000000 0.051000 0.051000 1.200000 0.027000 0.032000
1517347665412836830	400 32 0.900000 0.017000 0.015000 600 31 0.900000 0.343000 0.312000 600 36 1.000000 0.051000 0.051000 1.200000 0.027000 0.032000
1517347665923103622	400 32 0.900000 0.017000 0.015000 600 31 0.900000 0.347000 0.315000 600 36 1.000000 0.052000 0.052000 1.200000 0.027000 0.032000
1517347666433287456	400 32 0.900000 0.017000 0.015000 600 31 0.900000 0.348000 0.316000 600 36 1.000000 0.051000 0.051000 1.200000 0.028000 0.033000
1517347666943648206	400 32 0.900000 0.017000 0.015000 600 31 0.900000 0.354000 0.322000 600 36 1.000000 0.052000 0.052000 1.200000 0.028000 0.033000
1517347667453954789	400 32 0.900000 0.017000 0.015000 600 31 0.900000 0.351000 0.319000 600 36 1.000000 0.051000 0.051000 1.200000 0.027000 0.032000
1517347667964069039	400 32 0.900000 0.017000 0.015000 600 31 0.900000 0.345000 0.313000 600 36 1.000000 0.051000 0.051000 1.200000 0.027000 0.032000
1517347668474405789	400 32 0.900000 0.017000 0.015000 600 31 0.900000 0.348000 0.316000 600 36 1.000000 0.051000 0.051000 1.200000 0.027000 0.032000
1517347668984670706	400 32 0.900000 0.017000 0.015000 600 31 0.900000 0.351000 0.319000 600 36 1.000000 0.051000 0.051000 1.200000 0.026000 0.031000
1517347669494882206	400 32 0.900000 0.017000 0.015000 600 31 0.900000 0.348000 0.316000 600 36 1.000000 0.051000 0.051000 1.200000 0.027000 0.032000
1517347670005056164	400 32 0.900000 0.017000 0.015000 600 31 0.900000 0.346000 0.314000 600 36 1.000000 0.051000 0.051000 1.200000 0.027000 0.032000
1517347670515322789	400 32 0.900000 0.017000 0.015000 600 31 0.900000 0.350000 0.318000 600 36 1.000000 0.052000 0.052000 1.200000 0.026000 0.031000
1517347671025401123	400 32 0.900000 0.017000 0.015000 600 31 0.900000 0.352000 0.320000 600 36 1.000000 0.052000 0.052000 1.200000 0.027000 0.032000
1517347671535814081	400 32 0.900000 0.017000 0.015000 600 31 0.900000 0.341000 0.310000 600 36 1.000000 0.051000 0.051000 1.200000 0.027000 0.032000
1517347672046007206	400 32 0.900000 0.017000 0.015000 600 31 0.900000 0.342000 0.311000 600 36 1.000000 0.051000 0.051000 1.200000 0.027000 0.032000
1517347672556175915	400 32 0.900000 0.017000 0.015000 600 31 0.900000 0.343000 0.312000 600 36 1.000000 0.051000 0.051000 1.200000 0.027000 0.032000
1517347673066338998	400 32 0.900000 0.017000 0.015000 600 31 0.900000 0.342000 0.311000 600 36 1.000000 0.052000 0.052000 1.200000 0.027000 0.032000
1517347673576855581	400 32 0.900000 0.017000 0.015000 600 31 0.900000 0.346000 0.314000 600 36 1.000000 0.051000 0.051000 1.200000 0.027000 0.032000
1517347674087231081	400 32 0.900000 0.017000 0.015000 600 31 0.900000 0.347000 0.315000 600 36 1.000000 0.052000 0.052000 1.200000 0.028000 0.033000
1517347674597615790	400 32 0.900000 0.017000 0.015000 600 31 0.900000 0.353000 0.321000 600 36 1.000000 0.051000 0.051000 1.200000 0.027000 0.032000
1517347675107919665	400 32 0.900000 0.017000 0.015000 600 31 0.900000 0.350000 0.318000 600 36 1.000000 0.051000 0.051000 1.200000 0.026000 0.031000
1517347675618338457	400 32 0.900000 0.017000 0.015000 600 31 0.900000 0.345000 0.313000 600 36 1.000000 0.051000 0.051000 1.200000 0.026000 0.031000
1517347676128678457	400 32 0.900000 0.017000 0.015000 600 31 0.900000 0.348000 0.316000 600 36 1.000000 0.051000 0.051000 1.200000 0.028000 0.033000
1517347676638946248	400 32 0.900000 0.017000 0.015000 600 31 0.900000 0.352000 0.320000 600 36 1.000000 0.052000 0.052000 1.200000 0.028000 0.033000
1517347677149025249	400 32 0.900000 0.017000 0.015000 600 31 0.900000 0.351000 0.319000 600 36 1.000000 0.051000 0.051000 1.200000 0.028000 0.033000
1517347677659789665	400 32 0.900000 0.017000 0.015000 600 31 0.900000 0.345000 0.313000 600 36 1.000000 0.051000 0.051000 1.200000 0.028000 0.033000
1517347678170194707	400 32 0.900000 0.017000 0.015000 600 31 0.900000 0.342000 0.311000 600 36 1.000000 0.051000 0.051000 1.200000 0.027000 0.032000
1517347678680482415	400 32 0.900000 0.017000 0.015000 600 31 0.900000 0.340000 0.309000 600 36 1.000000 0.051000 0.051000 1.200000 0.028000 0.033000
1517347679190647332	400 32 0.900000 0.017000 0.015000 600 31 0.900000 0.342000 0.311000 600 36 1.000000 0.051000 0.051000 1.200000 0.027000 0.032000
1517347679700909707	400 32 0.900000 0.017000 0.015000 600 31 0.900000 0.342000 0.311000 600 36 1.000000 0.051000 0.051000 1.200000 0.028000 0.033000
1517347680211165374	400 32 0.900000 0.017000 0.015000 600 31 0.900000 0.343000 0.312000 600 36 1.000000 0.051000 0.051000 1.200000 0.028000 0.033000
1517347680721338707	400 32 0.900000 0.017000 0.015000 600 31 0.900000 0.340000 0.309000 600 36 1.000000 0.052000 0.052000 1.200000 0.028000 0.033000
1517347681231712332	400 32 0.900000 0.017000 0.015000 600 31 0.900000 0.346000 0.314000 600 36 1.000000 0.052000 0.052000 1.200000 0.028000 0.033000
1517347681743220457	400 32 0.900000 0.017000 0.015000 600 32 0.900000 0.345000 0.313000 600 36 1.000000 0.051000 0.051000 1.200000 0.027000 0.032000
1517347682254880332	400 33 0.900000 0.019000 0.017000 600 32 0.900000 0.373000 0.339000 600 36 1.000000 0.052000 0.052000 1.200000 0.086000 0.104000
1517347682828848624	400 34 0.900000 0.019000 0.017000 600 32 0.900000 0.375000 0.341000 600 38 1.000000 0.051000 0.051000 1.200000 0.107000 0.130000
1517347683388869458	400 35 0.900000 0.111000 0.101000 600 32 0.900000 0.834000 0.754000 600 38 1.000000 0.051000 0.051000 1.200000 0.062000 0.075000
1517347683944808999	400 35 0.900000 0.111000 0.101000 600 33 0.900000 0.835000 0.754000 600 39 1.000000 0.052000 0.052000 1.200000 0.061000 0.073000
1517347684500749874	400 35 0.900000 0.111000 0.101000 600 33 0.900000 0.834000 0.753000 600 39 1.000000 0.052000 0.052000 1.200000 0.060000 0.072000
1517347685064851166	400 35 0.900000 0.111000 0.101000 600 33 0.900000 0.835000 0.754000 600 39 1.000000 0.052000 0.052000 1.200000 0.059000 0.071000
1517347685624877500	400 36 0.900000 0.111000 0.101000 600 33 0.900000 0.834000 0.753000 600 39 1.000000 0.052000 0.052000 1.200000 0.059000 0.071000
1517347686188832666	400 36 0.900000 0.111000 0.101000 600 33 0.900000 0.835000 0.754000 600 39 1.000000 0.052000 0.052000 1.200000 0.060000 0.072000
1517347686740848666	400 36 0.900000 0.111000 0.101000 600 34 0.900000 0.834000 0.753000 600 39 1.000000 0.052000 0.052000 1.200000 0.059000 0.071000
1517347687304921833	400 36 0.900000 0.111000 0.101000 600 34 0.900000 0.835000 0.754000 600 40 1.000000 0.052000 0.052000 1.200000 0.059000 0.071000
1517347687864741916	400 36 0.900000 0.111000 0.101000 600 34 0.900000 0.835000 0.754000 600 40 1.000000 0.052000 0.052000 1.200000 0.060000 0.072000
1517347688436854583	400 36 0.900000 0.111000 0.101000 600 34 0.900000 0.836000 0.754000 600 40 1.000000 0.052000 0.052000 1.200000 0.059000 0.071000
1517347689000836958	400 36 0.900000 0.111000 0.101000 600 34 0.900000 0.835000 0.754000 600 40 1.000000 0.052000 0.052000 1.200000 0.059000 0.071000
1517347689560829792	400 36 0.900000 0.111000 0.101000 600 34 0.900000 0.835000 0.754000 600 40 1.000000 0.052000 0.052000 1.200000 0.060000 0.072000
1517347690116815583	400 36 0.900000 0.111000 0.101000 600 34 0.900000 0.835000 0.753000 600 40 1.000000 0.052000 0.052000 1.200000 0.060000 0.072000
1517347690680887833	400 36 0.900000 0.111000 0.101000 600 34 0.900000 0.835000 0.754000 600 40 1.000000 0.052000 0.052000 1.200000 0.060000 0.072000
1517347691240782292	400 36 0.900000 0.111000 0.101000 600 34 0.900000 0.835000 0.754000 600 40 1.000000 0.052000 0.052000 1.200000 0.060000 0.072000
1517347691800844334	400 36 0.900000 0.111000 0.101000 600 34 0.900000 0.836000 0.754000 600 40 1.000000 0.052000 0.052000 1.200000 0.059000 0.071000
1517347692356810417	400 36 0.900000 0.111000 0.101000 600 34 0.900000 0.835000 0.753000 600 40 1.000000 0.052000 0.052000 1.200000 0.060000 0.072000
1517347692912761417	400 36 0.900000 0.111000 0.101000 600 34 0.900000 0.836000 0.754000 600 40 1.000000 0.052000 0.052000 1.200000 0.059000 0.071000
1517347693476813125	400 37 0.900000 0.111000 0.101000 600 34 0.900000 0.836000 0.754000 600 40 1.000000 0.052000 0.052000 1.200000 0.059000 0.071000
1517347694032867709	400 36 0.900000 0.111000 0.101000 600 34 0.900000 0.836000 0.754000 600 40 1.000000 0.052000 0.052000 1.200000 0.059000 0.071000
1517347694596769084	400 37 0.900000 0.111000 0.101000 600 34 0.900000 0.835000 0.754000 600 40 1.000000 0.052000 0.052000 1.200000 0.059000 0.071000
1517347695160836792	400 37 0.900000 0.111000 0.101000 600 34 0.900000 0.835000 0.753000 600 40 1.000000 0.052000 0.052000 1.200000 0.060000 0.072000
1517347695720843542	400 37 0.900000 0.111000 0.101000 600 34 0.900000 0.837000 0.755000 600 40 1.000000 0.052000 0.052000 1.200000 0.059000 0.071000
1517347696276870292	400 37 0.900000 0.111000 0.101000 600 34 0.900000 0.836000 0.754000 600 40 1.000000 0.052000 0.052000 1.200000 0.060000 0.072000
1517347696832866459	400 37 0.900000 0.111000 0.101000 600 34 0.900000 0.835000 0.754000 600 40 1.000000 0.052000 0.052000 1.200000 0.059000 0.071000
1517347697396766584	400 37 0.900000 0.111000 0.101000 600 34 0.900000 0.835000 0.754000 600 40 1.000000 0.052000 0.052000 1.200000 0.058000 0.070000
1517347697940813793	400 37 0.900000 0.111000 0.101000 600 34 0.900000 0.836000 0.754000 600 40 1.000000 0.052000 0.052000 1.200000 0.058000 0.070000
1517347698508873168	400 37 0.900000 0.111000 0.101000 600 34 0.900000 0.836000 0.754000 600 40 1.000000 0.052000 0.052000 1.200000 0.059000 0.071000
1517347699076829334	400 37 0.900000 0.111000 0.101000 600 34 0.900000 0.835000 0.753000 600 40 1.000000 0.052000 0.052000 1.200000 0.059000 0.071000
1517347699636875585	400 37 0.900000 0.111000 0.101000 600 34 0.900000 0.836000 0.754000 600 40 1.000000 0.052000 0.052000 1.200000 0.059000 0.071000
1517347700196779543	400 37 0.900000 0.111000 0.101000 600 34 0.900000 0.836000 0.754000 600 40 1.000000 0.052000 0.052000 1.200000 0.060000 0.072000
1517347700756795751	400 37 0.900000 0.111000 0.101000 600 35 0.900000 0.835000 0.754000 600 41 1.000000 0.052000 0.052000 1.200000 0.059000 0.071000
1517347701308753460	400 37 0.900000 0.111000 0.101000 600 35 0.900000 0.836000 0.754000 600 41 1.000000 0.052000 0.052000 1.200000 0.060000 0.072000
1517347701864765543	400 37 0.900000 0.111000 0.101000 600 35 0.900000 0.836000 0.754000 600 41 1.000000 0.052000 0.052000 1.200000 0.059000 0.071000
1517347702420806460	400 37 0.900000 0.111000 0.101000 600 35 0.900000 0.836000 0.754000 600 41 1.000000 0.052000 0.052000 1.200000 0.058000 0.070000
1517347702984814085	400 37 0.900000 0.111000 0.101000 600 35 0.900000 0.834000 0.753000 600 41 1.000000 0.052000 0.052000 1.200000 0.059000 0.071000
1517347703552842002	400 37 0.900000 0.111000 0.101000 600 35 0.900000 0.835000 0.753000 600 41 1.000000 0.052000 0.052000 1.200000 0.059000 0.071000
1517347704108852627	400 37 0.900000 0.111000 0.101000 600 35 0.900000 0.835000 0.754000 600 41 1.000000 0.052000 0.052000 1.200000 0.059000 0.071000
1517347704664817627	400 37 0.900000 0.111000 0.101000 600 35 0.900000 0.836000 0.754000 600 41 1.000000 0.052000 0.052000 1.200000 0.059000 0.071000
1517347705232810335	400 37 0.900000 0.111000 0.101000 600 35 0.900000 0.835000 0.754000 600 41 1.000000 0.052000 0.052000 1.200000 0.059000 0.071000
1517347705792808294	400 37 0.900000 0.111000 0.101000 600 35 0.900000 0.835000 0.754000 600 41 1.000000 0.052000 0.052000 1.200000 0.060000 0.072000
1517347706348802877	400 37 0.900000 0.111000 0.101000 600 35 0.900000 0.835000 0.754000 600 41 1.000000 0.052000 0.052000 1.200000 0.060000 0.072000
1517347706916788627	400 37 0.900000 0.111000 0.101000 600 35 0.900000 0.837000 0.755000 600 41 1.000000 0.052000 0.052000 1.200000 0.058000 0.070000
1517347707476843710	400 37 0.900000 0.111000 0.101000 600 35 0.900000 0.836000 0.754000 600 41 1.000000 0.052000 0.052000 1.200000 0.059000 0.071000
1517347708032796711	400 37 0.900000 0.111000 0.101000 600 35 0.900000 0.836000 0.754000 600 41 1.000000 0.052000 0.052000 1.200000 0.059000 0.071000
1517347708600914627	400 37 0.900000 0.111000 0.101000 600 35 0.900000 0.836000 0.754000 600 41 1.000000 0.052000 0.052000 1.200000 0.059000 0.071000
1517347709164847836	400 37 0.900000 0.111000 0.101000 600 35 0.900000 0.835000 0.754000 600 41 1.000000 0.052000 0.052000 1.200000 0.059000 0.071000
1517347709720921961	400 37 0.900000 0.111000 0.101000 600 35 0.900000 0.835000 0.754000 600 41 1.000000 0.052000 0.052000 1.200000 0.059000 0.071000
1517347710284848377	400 37 0.900000 0.111000 0.101000 600 35 0.900000 0.836000 0.754000 600 41 1.000000 0.052000 0.052000 1.200000 0.059000 0.071000
1517347710828859794	400 37 0.900000 0.111000 0.101000 600 35 0.900000 0.837000 0.755000 600 41 1.000000 0.052000 0.052000 1.200000 0.058000 0.070000
1517347711392819836	400 37 0.900000 0.111000 0.101000 600 35 0.900000 0.837000 0.755000 600 41 1.000000 0.052000 0.052000 1.200000 0.059000 0.071000
1517347711952823003	400 37 0.900000 0.111000 0.101000 600 35 0.900000 0.837000 0.755000 600 41 1.000000 0.052000 0.052000 1.200000 0.059000 0.071000
1517347712504791794	400 37 0.900000 0.111000 0.101000 600 35 0.900000 0.835000 0.753000 600 41 1.000000 0.052000 0.052000 1.200000 0.059000 0.071000
1517347713068745211	400 37 0.900000 0.111000 0.101000 600 35 0.900000 0.835000 0.754000 600 41 1.000000 0.052000 0.052000 1.200000 0.059000 0.071000
1517347713624908295	400 37 0.900000 0.111000 0.101000 600 35 0.900000 0.836000 0.754000 600 41 1.000000 0.052000 0.052000 1.200000 0.059000 0.071000
1517347714176833128	400 37 0.900000 0.111000 0.101000 600 35 0.900000 0.836000 0.754000 600 41 1.000000 0.052000 0.052000 1.200000 0.059000 0.071000
1517347714736863128	400 37 0.900000 0.111000 0.101000 600 35 0.900000 0.835000 0.754000 600 41 1.000000 0.052000 0.052000 1.200000 0.059000 0.071000
1517347715304822545	400 37 0.900000 0.111000 0.101000 600 35 0.900000 0.835000 0.754000 600 41 1.000000 0.052000 0.052000 1.200000 0.059000 0.071000
1517347715872839795	400 37 0.900000 0.111000 0.101000 600 35 0.900000 0.837000 0.755000 600 41 1.000000 0.052000 0.052000 1.200000 0.058000 0.070000
1517347716428819920	400 37 0.900000 0.111000 0.101000 600 35 0.900000 0.837000 0.755000 600 41 1.000000 0.052000 0.052000 1.200000 0.059000 0.071000
1517347716996819128	400 37 0.900000 0.111000 0.101000 600 35 0.900000 0.837000 0.755000 600 41 1.000000 0.052000 0.052000 1.200000 0.059000 0.071000
1517347717548835295	400 37 0.900000 0.111000 0.101000 600 35 0.900000 0.837000 0.755000 600 41 1.000000 0.052000 0.052000 1.200000 0.059000 0.071000
1517347718104850212	400 37 0.900000 0.111000 0.101000 600 35 0.900000 0.836000 0.754000 600 41 1.000000 0.052000 0.052000 1.200000 0.060000 0.072000
1517347718672831295	400 37 0.900000 0.111000 0.101000 600 35 0.900000 0.837000 0.755000 600 41 1.000000 0.052000 0.052000 1.200000 0.059000 0.071000
1517347719228825795	400 37 0.900000 0.111000 0.101000 600 35 0.900000 0.836000 0.754000 600 41 1.000000 0.052000 0.052000 1.200000 0.060000 0.072000
1517347719769280337	400 37 0.900000 0.111000 0.101000 600 35 0.900000 0.835000 0.753000 600 41 1.000000 0.052000 0.052000 1.200000 0.060000 0.072000
1517347720324826920	400 37 0.900000 0.111000 0.101000 600 35 0.900000 0.836000 0.754000 600 41 1.000000 0.052000 0.052000 1.200000 0.058000 0.070000
1517347720892850420	400 37 0.900000 0.111000 0.101000 600 35 0.900000 0.837000 0.755000 600 41 1.000000 0.052000 0.052000 1.200000 0.060000 0.072000
1517347721456831629	400 37 0.900000 0.111000 0.101000 600 35 0.900000 0.837000 0.755000 600 41 1.000000 0.052000 0.052000 1.200000 0.059000 0.071000
1517347722016818962	400 37 0.900000 0.111000 0.101000 600 35 0.900000 0.837000 0.755000 600 41 1.000000 0.052000 0.052000 1.200000 0.059000 0.071000
1517347722564833504	400 37 0.900000 0.111000 0.101000 600 35 0.900000 0.837000 0.755000 600 41 1.000000 0.052000 0.052000 1.200000 0.059000 0.071000
1517347723124832421	400 37 0.900000 0.111000 0.101000 600 35 0.900000 0.837000 0.755000 600 41 1.000000 0.052000 0.052000 1.200000 0.059000 0.071000
1517347723688887546	400 37 0.900000 0.111000 0.101000 600 35 0.900000 0.837000 0.755000 600 41 1.000000 0.052000 0.052000 1.200000 0.059000 0.071000
1517347724240825337	400 37 0.900000 0.111000 0.101000 600 35 0.900000 0.836000 0.754000 600 41 1.000000 0.052000 0.052000 1.200000 0.060000 0.072000
1517347724792872338	400 37 0.900000 0.111000 0.101000 600 35 0.900000 0.836000 0.754000 600 41 1.000000 0.052000 0.052000 1.200000 0.060000 0.072000
1517347725360816629	400 37 0.900000 0.111000 0.101000 600 35 0.900000 0.837000 0.754000 600 41 1.000000 0.052000 0.052000 1.200000 0.059000 0.071000
1517347725928836546	400 37 0.900000 0.111000 0.101000 600 35 0.900000 0.836000 0.754000 600 41 1.000000 0.052000 0.052000 1.200000 0.059000 0.071000
1517347726484756671	400 37 0.900000 0.111000 0.101000 600 35 0.900000 0.837000 0.755000 600 41 1.000000 0.052000 0.052000 1.200000 0.059000 0.071000
1517347727036794379	400 37 0.900000 0.111000 0.101000 600 35 0.900000 0.837000 0.755000 600 41 1.000000 0.052000 0.052000 1.200000 0.059000 0.071000
1517347727596867713	400 37 0.900000 0.111000 0.101000 600 35 0.900000 0.836000 0.754000 600 41 1.000000 0.052000 0.052000 1.200000 0.059000 0.071000
1517347728148826046	400 37 0.900000 0.111000 0.101000 600 35 0.900000 0.838000 0.756000 600 41 1.000000 0.052000 0.052000 1.200000 0.060000 0.072000
1517347728708811213	400 37 0.900000 0.111000 0.101000 600 35 0.900000 0.837000 0.755000 600 41 1.000000 0.052000 0.052000 1.200000 0.059000 0.071000
1517347729264833046	400 37 0.900000 0.111000 0.101000 600 35 0.900000 0.835000 0.754000 600 41 1.000000 0.052000 0.052000 1.200000 0.059000 0.071000
1517347729828828713	400 37 0.900000 0.111000 0.101000 600 35 0.900000 0.837000 0.755000 600 41 1.000000 0.052000 0.052000 1.200000 0.060000 0.072000
1517347730384820005	400 37 0.900000 0.111000 0.101000 600 35 0.900000 0.837000 0.755000 600 41 1.000000 0.052000 0.052000 1.200000 0.059000 0.071000
1517347730940801672	400 37 0.900000 0.111000 0.101000 600 35 0.900000 0.837000 0.755000 600 41 1.000000 0.052000 0.052000 1.200000 0.059000 0.071000
1517347731504798047	400 37 0.900000 0.111000 0.101000 600 35 0.900000 0.837000 0.755000 600 41 1.000000 0.052000 0.052000 1.200000 0.060000 0.072000
1517347732064823797	400 37 0.900000 0.111000 0.101000 600 35 0.900000 0.837000 0.755000 600 41 1.000000 0.052000 0.052000 1.200000 0.060000 0.072000
1517347732632834172	400 37 0.900000 0.111000 0.101000 600 35 0.900000 0.837000 0.755000 600 41 1.000000 0.052000 0.052000 1.200000 0.060000 0.072000
1517347733200882255	400 37 0.900000 0.111000 0.101000 600 35 0.900000 0.837000 0.755000 600 41 1.000000 0.052000 0.052000 1.200000 0.060000 0.072000
1517347733768834672	400 37 0.900000 0.111000 0.101000 600 35 0.900000 0.837000 0.755000 600 41 1.000000 0.052000 0.052000 1.200000 0.060000 0.072000
1517347734320841964	400 37 0.900000 0.111000 0.101000 600 35 0.900000 0.835000 0.753000 600 41 1.000000 0.052000 0.052000 1.200000 0.059000 0.071000
1517347734880767464	400 37 0.900000 0.111000 0.101000 600 35 0.900000 0.835000 0.754000 600 41 1.000000 0.052000 0.052000 1.200000 0.059000 0.071000
1517347735428816589	400 37 0.900000 0.111000 0.101000 600 35 0.900000 0.836000 0.754000 600 41 1.000000 0.052000 0.052000 1.200000 0.059000 0.071000
1517347735980775797	400 37 0.900000 0.111000 0.101000 600 35 0.900000 0.836000 0.754000 600 41 1.000000 0.052000 0.052000 1.200000 0.059000 0.071000
1517347736544799506	400 37 0.900000 0.111000 0.101000 600 35 0.900000 0.836000 0.754000 600 41 1.000000 0.052000 0.052000 1.200000 0.059000 0.071000
1517347737096754964	400 37 0.900000 0.111000 0.101000 600 35 0.900000 0.836000 0.754000 600 41 1.000000 0.052000 0.052000 1.200000 0.060000 0.072000
1517347737652847172	400 37 0.900000 0.111000 0.101000 600 35 0.900000 0.837000 0.755000 600 41 1.000000 0.052000 0.052000 1.200000 0.060000 0.072000
1517347738204842756	400 37 0.900000 0.111000 0.101000 600 35 0.900000 0.836000 0.754000 600 41 1.000000 0.052000 0.052000 1.200000 0.060000 0.072000
1517347738768825881	400 37 0.900000 0.111000 0.101000 600 35 0.900000 0.835000 0.754000 600 41 1.000000 0.052000 0.052000 1.200000 0.059000 0.071000
1517347739328899256	400 37 0.900000 0.111000 0.101000 600 35 0.900000 0.836000 0.754000 600 41 1.000000 0.052000 0.052000 1.200000 0.059000 0.071000
1517347739892838798	400 37 0.900000 0.111000 0.101000 600 35 0.900000 0.837000 0.755000 600 41 1.000000 0.052000 0.052000 1.200000 0.059000 0.071000
1517347740468763881	400 37 0.900000 0.111000 0.101000 600 35 0.900000 0.837000 0.754000 600 41 1.000000 0.052000 0.052000 1.200000 0.058000 0.070000
1517347741012767548	400 37 0.900000 0.111000 0.101000 600 35 0.900000 0.836000 0.754000 600 41 1.000000 0.052000 0.052000 1.200000 0.059000 0.071000
1517347741564778381	400 37 0.900000 0.111000 0.101000 600 35 0.900000 0.835000 0.753000 600 41 1.000000 0.052000 0.052000 1.200000 0.059000 0.071000
1517347742116769590	400 37 0.900000 0.111000 0.101000 600 35 0.900000 0.836000 0.754000 600 41 1.000000 0.052000 0.052000 1.200000 0.060000 0.072000
1517347742684889048	400 37 0.900000 0.111000 0.101000 600 35 0.900000 0.836000 0.754000 600 41 1.000000 0.052000 0.052000 1.200000 0.060000 0.072000
1517347743244769215	400 37 0.900000 0.111000 0.101000 600 35 0.900000 0.836000 0.754000 600 41 1.000000 0.052000 0.052000 1.200000 0.059000 0.071000
1517347743812856256	400 37 0.900000 0.111000 0.101000 600 35 0.900000 0.837000 0.754000 600 41 1.000000 0.052000 0.052000 1.200000 0.059000 0.071000
1517347744372863340	400 37 0.900000 0.111000 0.101000 600 35 0.900000 0.837000 0.754000 600 41 1.000000 0.052000 0.052000 1.200000 0.059000 0.071000
1517347744928883715	400 37 0.900000 0.111000 0.101000 600 35 0.900000 0.837000 0.754000 600 41 1.000000 0.052000 0.052000 1.200000 0.059000 0.071000
1517347745492835882	400 37 0.900000 0.111000 0.101000 600 35 0.900000 0.836000 0.754000 600 41 1.000000 0.052000 0.052000 1.200000 0.058000 0.070000
1517347746056859340	400 37 0.900000 0.111000 0.101000 600 35 0.900000 0.835000 0.753000 600 41 1.000000 0.052000 0.052000 1.200000 0.059000 0.071000
1517347746616840798	400 37 0.900000 0.111000 0.101000 600 35 0.900000 0.835000 0.753000 600 41 1.000000 0.052000 0.052000 1.200000 0.059000 0.071000
1517347747180844382	400 37 0.900000 0.111000 0.101000 600 35 0.900000 0.835000 0.753000 600 41 1.000000 0.052000 0.052000 1.200000 0.059000 0.071000
1517347747740886465	400 37 0.900000 0.111000 0.101000 600 35 0.900000 0.835000 0.754000 600 41 1.000000 0.052000 0.052000 1.200000 0.059000 0.071000
1517347748292789049	400 37 0.900000 0.111000 0.101000 600 35 0.900000 0.837000 0.754000 600 41 1.000000 0.052000 0.052000 1.200000 0.059000 0.071000
1517347748848810549	400 37 0.900000 0.111000 0.101000 600 35 0.900000 0.837000 0.754000 600 41 1.000000 0.052000 0.052000 1.200000 0.059000 0.071000
1517347749408827174	400 37 0.900000 0.111000 0.101000 600 35 0.900000 0.837000 0.755000 600 41 1.000000 0.052000 0.052000 1.200000 0.058000 0.070000
1517347749972762299	400 37 0.900000 0.111000 0.101000 600 35 0.900000 0.837000 0.755000 600 41 1.000000 0.052000 0.052000 1.200000 0.059000 0.071000
1517347750532847216	400 37 0.900000 0.111000 0.101000 600 35 0.900000 0.836000 0.754000 600 41 1.000000 0.052000 0.052000 1.200000 0.058000 0.070000
1517347751076768632	400 37 0.900000 0.111000 0.101000 600 35 0.900000 0.836000 0.754000 600 41 1.000000 0.052000 0.052000 1.200000 0.059000 0.071000
1517347751628866216	400 37 0.900000 0.111000 0.101000 600 35 0.900000 0.836000 0.754000 600 41 1.000000 0.052000 0.052000 1.200000 0.059000 0.071000
1517347752184830799	400 37 0.900000 0.111000 0.101000 600 35 0.900000 0.836000 0.754000 600 41 1.000000 0.052000 0.052000 1.200000 0.059000 0.071000
1517347752752791383	400 37 0.900000 0.111000 0.101000 600 35 0.900000 0.835000 0.753000 600 41 1.000000 0.052000 0.052000 1.200000 0.059000 0.071000
1517347753316774924	400 37 0.900000 0.111000 0.101000 600 35 0.900000 0.836000 0.754000 600 41 1.000000 0.052000 0.052000 1.200000 0.060000 0.072000
1517347753860832841	400 37 0.900000 0.111000 0.101000 600 35 0.900000 0.836000 0.754000 600 41 1.000000 0.052000 0.052000 1.200000 0.059000 0.071000
1517347754424842841	400 37 0.900000 0.111000 0.101000 600 35 0.900000 0.837000 0.755000 600 41 1.000000 0.052000 0.052000 1.200000 0.058000 0.070000
1517347754984905466	400 37 0.900000 0.111000 0.101000 600 35 0.900000 0.837000 0.755000 600 41 1.000000 0.052000 0.052000 1.200000 0.059000 0.071000
1517347755540870675	400 37 0.900000 0.111000 0.101000 600 35 0.900000 0.836000 0.754000 600 41 1.000000 0.052000 0.052000 1.200000 0.059000 0.071000
1517347756096883508	400 37 0.900000 0.111000 0.101000 600 35 0.900000 0.835000 0.753000 600 41 1.000000 0.052000 0.052000 1.200000 0.059000 0.071000
1517347756664768466	400 37 0.900000 0.111000 0.101000 600 35 0.900000 0.836000 0.754000 600 41 1.000000 0.052000 0.052000 1.200000 0.059000 0.071000
1517347757232834258	400 37 0.900000 0.111000 0.101000 600 35 0.900000 0.835000 0.754000 600 41 1.000000 0.052000 0.052000 1.200000 0.058000 0.070000
1517347757784855466	400 37 0.900000 0.111000 0.101000 600 35 0.900000 0.835000 0.753000 600 41 1.000000 0.052000 0.052000 1.200000 0.059000 0.071000
1517347758344752425	400 37 0.900000 0.111000 0.101000 600 35 0.900000 0.837000 0.755000 600 41 1.000000 0.052000 0.052000 1.200000 0.058000 0.070000
1517347758900824592	400 37 0.900000 0.111000 0.101000 600 35 0.900000 0.837000 0.755000 600 41 1.000000 0.052000 0.052000 1.200000 0.059000 0.071000
1517347759464828675	400 37 0.900000 0.111000 0.101000 600 35 0.900000 0.837000 0.754000 600 41 1.000000 0.052000 0.052000 1.200000 0.060000 0.072000
1517347760024771925	400 37 0.900000 0.111000 0.101000 600 35 0.900000 0.837000 0.754000 600 41 1.000000 0.052000 0.052000 1.200000 0.059000 0.071000
1517347760588763217	400 37 0.900000 0.111000 0.101000 600 35 0.900000 0.837000 0.754000 600 41 1.000000 0.052000 0.052000 1.200000 0.059000 0.071000
1517347761136866842	400 37 0.900000 0.111000 0.101000 600 35 0.900000 0.837000 0.755000 600 41 1.000000 0.052000 0.052000 1.200000 0.059000 0.071000
1517347761696925925	400 37 0.900000 0.111000 0.101000 600 35 0.900000 0.836000 0.754000 600 41 1.000000 0.052000 0.052000 1.200000 0.059000 0.071000
1517347762264789592	400 37 0.900000 0.111000 0.101000 600 35 0.900000 0.835000 0.753000 600 41 1.000000 0.052000 0.052000 1.200000 0.059000 0.071000
1517347762828834092	400 37 0.900000 0.111000 0.101000 600 35 0.900000 0.837000 0.754000 600 41 1.000000 0.052000 0.052000 1.200000 0.059000 0.071000
1517347763396862925	400 37 0.900000 0.111000 0.101000 600 35 0.900000 0.837000 0.754000 600 41 1.000000 0.052000 0.052000 1.200000 0.059000 0.071000
1517347763960778176	400 37 0.900000 0.111000 0.101000 600 35 0.900000 0.837000 0.754000 600 41 1.000000 0.052000 0.052000 1.200000 0.059000 0.071000
1517347764524771217	400 37 0.900000 0.111000 0.101000 600 35 0.900000 0.837000 0.754000 600 41 1.000000 0.052000 0.052000 1.200000 0.059000 0.071000
1517347765072816426	400 37 0.900000 0.111000 0.101000 600 35 0.900000 0.837000 0.755000 600 41 1.000000 0.052000 0.052000 1.200000 0.059000 0.071000
1517347765636822051	400 37 0.900000 0.111000 0.101000 600 35 0.900000 0.837000 0.754000 600 41 1.000000 0.052000 0.052000 1.200000 0.059000 0.071000
1517347766180706467	400 37 0.900000 0.111000 0.101000 600 35 0.900000 0.836000 0.754000 600 41 1.000000 0.052000 0.052000 1.200000 0.059000 0.071000
1517347766748767759	400 37 0.900000 0.111000 0.101000 600 35 0.900000 0.837000 0.755000 600 41 1.000000 0.052000 0.052000 1.200000 0.060000 0.072000
1517347767308820343	400 37 0.900000 0.111000 0.101000 600 35 0.900000 0.836000 0.754000 600 41 1.000000 0.052000 0.052000 1.200000 0.059000 0.071000
1517347767852818468	400 37 0.900000 0.111000 0.101000 600 35 0.900000 0.837000 0.754000 600 41 1.000000 0.052000 0.052000 1.200000 0.060000 0.072000
1517347768404749926	400 37 0.900000 0.111000 0.101000 600 35 0.900000 0.837000 0.754000 600 41 1.000000 0.052000 0.052000 1.200000 0.060000 0.072000
1517347768964905551	400 37 0.900000 0.111000 0.101000 600 35 0.900000 0.837000 0.754000 600 41 1.000000 0.052000 0.052000 1.200000 0.059000 0.071000
1517347769520861218	400 37 0.900000 0.111000 0.101000 600 35 0.900000 0.836000 0.754000 600 41 1.000000 0.052000 0.052000 1.200000 0.060000 0.072000
1517347770068820676	400 37 0.900000 0.111000 0.101000 600 35 0.900000 0.837000 0.754000 600 41 1.000000 0.052000 0.052000 1.200000 0.059000 0.071000
1517347770632834551	400 37 0.900000 0.111000 0.101000 600 35 0.900000 0.837000 0.754000 600 41 1.000000 0.052000 0.052000 1.200000 0.059000 0.071000
1517347771196860218	400 37 0.900000 0.111000 0.101000 600 35 0.900000 0.837000 0.754000 600 41 1.000000 0.052000 0.052000 1.200000 0.060000 0.072000
1517347771764876301	400 37 0.900000 0.111000 0.101000 600 35 0.900000 0.836000 0.754000 600 41 1.000000 0.052000 0.052000 1.200000 0.059000 0.071000
1517347772320847218	400 37 0.900000 0.111000 0.101000 600 35 0.900000 0.837000 0.755000 600 41 1.000000 0.052000 0.052000 1.200000 0.059000 0.071000
1517347772884793593	400 37 0.900000 0.111000 0.101000 600 35 0.900000 0.837000 0.754000 600 41 1.000000 0.052000 0.052000 1.200000 0.059000 0.071000
1517347773444841843	400 37 0.900000 0.111000 0.101000 600 35 0.900000 0.835000 0.753000 600 41 1.000000 0.052000 0.052000 1.200000 0.059000 0.071000
1517347774004845510	400 37 0.900000 0.111000 0.101000 600 35 0.900000 0.836000 0.754000 600 41 1.000000 0.052000 0.052000 1.200000 0.059000 0.071000
1517347774560737010	400 37 0.900000 0.111000 0.101000 600 35 0.900000 0.835000 0.753000 600 41 1.000000 0.052000 0.052000 1.200000 0.059000 0.071000
1517347775124910135	400 37 0.900000 0.111000 0.101000 600 35 0.900000 0.836000 0.754000 600 41 1.000000 0.052000 0.052000 1.200000 0.060000 0.072000
1517347775680716552	400 37 0.900000 0.111000 0.101000 600 35 0.900000 0.836000 0.754000 600 41 1.000000 0.052000 0.052000 1.200000 0.060000 0.072000
1517347776252868094	400 37 0.900000 0.111000 0.101000 600 35 0.900000 0.835000 0.753000 600 41 1.000000 0.052000 0.052000 1.200000 0.059000 0.071000
1517347776820840302	400 37 0.900000 0.111000 0.101000 600 35 0.900000 0.837000 0.754000 600 41 1.000000 0.052000 0.052000 1.200000 0.059000 0.071000
1517347777384834677	400 37 0.900000 0.111000 0.101000 600 35 0.900000 0.835000 0.754000 600 41 1.000000 0.052000 0.052000 1.200000 0.059000 0.071000
1517347777932825427	400 37 0.900000 0.111000 0.101000 600 35 0.900000 0.835000 0.754000 600 41 1.000000 0.052000 0.052000 1.200000 0.059000 0.071000
1517347778496854094	400 37 0.900000 0.111000 0.101000 600 35 0.900000 0.836000 0.754000 600 41 1.000000 0.052000 0.052000 1.200000 0.059000 0.071000
1517347779044715177	400 37 0.900000 0.111000 0.101000 600 35 0.900000 0.836000 0.754000 600 41 1.000000 0.052000 0.052000 1.200000 0.058000 0.070000
1517347779612858052	400 37 0.900000 0.111000 0.101000 600 35 0.900000 0.837000 0.754000 600 41 1.000000 0.052000 0.052000 1.200000 0.059000 0.071000
1517347780172851636	400 37 0.900000 0.111000 0.101000 600 35 0.900000 0.835000 0.753000 600 41 1.000000 0.052000 0.052000 1.200000 0.059000 0.071000
1517347780736841386	400 37 0.900000 0.111000 0.101000 600 35 0.900000 0.836000 0.754000 600 41 1.000000 0.052000 0.052000 1.200000 0.060000 0.072000
1517347781288876969	400 37 0.900000 0.111000 0.101000 600 35 0.900000 0.837000 0.755000 600 41 1.000000 0.052000 0.052000 1.200000 0.058000 0.070000
1517347781832823261	400 37 0.900000 0.111000 0.101000 600 35 0.900000 0.835000 0.754000 600 41 1.000000 0.052000 0.052000 1.200000 0.059000 0.071000
1517347782388774511	400 37 0.900000 0.111000 0.101000 600 35 0.900000 0.836000 0.754000 600 41 1.000000 0.052000 0.052000 1.200000 0.058000 0.070000
1517347782956884219	400 37 0.900000 0.111000 0.101000 600 35 0.900000 0.835000 0.754000 600 41 1.000000 0.052000 0.052000 1.200000 0.059000 0.071000
1517347783516841470	400 37 0.900000 0.111000 0.101000 600 35 0.900000 0.836000 0.754000 600 41 1.000000 0.052000 0.052000 1.200000 0.058000 0.070000
1517347784080754678	400 37 0.900000 0.111000 0.101000 600 35 0.900000 0.836000 0.754000 600 41 1.000000 0.052000 0.052000 1.200000 0.059000 0.071000
1517347784644843595	400 37 0.900000 0.111000 0.101000 600 35 0.900000 0.836000 0.754000 600 41 1.000000 0.052000 0.052000 1.200000 0.060000 0.072000
1517347785204891011	400 37 0.900000 0.111000 0.101000 600 35 0.900000 0.835000 0.754000 600 41 1.000000 0.052000 0.052000 1.200000 0.060000 0.072000
1517347785756741470	400 37 0.900000 0.111000 0.101000 600 35 0.900000 0.836000 0.754000 600 41 1.000000 0.052000 0.052000 1.200000 0.059000 0.071000
1517347786316783178	400 37 0.900000 0.111000 0.101000 600 35 0.900000 0.836000 0.754000 600 41 1.000000 0.052000 0.052000 1.200000 0.059000 0.071000
1517347786876876678	400 37 0.900000 0.111000 0.101000 600 35 0.900000 0.837000 0.755000 600 41 1.000000 0.052000 0.052000 1.200000 0.059000 0.071000
1517347787440909928	400 37 0.900000 0.111000 0.101000 600 35 0.900000 0.836000 0.754000 600 41 1.000000 0.052000 0.052000 1.200000 0.059000 0.071000
1517347788000786178	400 37 0.900000 0.111000 0.101000 600 35 0.900000 0.836000 0.754000 600 41 1.000000 0.052000 0.052000 1.200000 0.058000 0.070000
1517347788568856678	400 37 0.900000 0.111000 0.101000 600 35 0.900000 0.836000 0.754000 600 41 1.000000 0.052000 0.052000 1.200000 0.059000 0.071000
1517347789120783554	400 37 0.900000 0.111000 0.101000 600 35 0.900000 0.837000 0.755000 600 41 1.000000 0.052000 0.052000 1.200000 0.059000 0.071000
1517347789672795887	400 37 0.900000 0.111000 0.101000 600 35 0.900000 0.836000 0.754000 600 41 1.000000 0.052000 0.052000 1.200000 0.059000 0.071000
1517347790228858887	400 37 0.900000 0.111000 0.101000 600 35 0.900000 0.835000 0.754000 600 41 1.000000 0.052000 0.052000 1.200000 0.059000 0.071000
1517347790780918595	400 37 0.900000 0.111000 0.101000 600 35 0.900000 0.837000 0.755000 600 41 1.000000 0.052000 0.052000 1.200000 0.059000 0.071000
1517347791344808137	400 37 0.900000 0.111000 0.101000 600 35 0.900000 0.837000 0.755000 600 41 1.000000 0.052000 0.052000 1.200000 0.059000 0.071000
1517347791900871887	400 37 0.900000 0.111000 0.101000 600 35 0.900000 0.837000 0.754000 600 41 1.000000 0.052000 0.052000 1.200000 0.058000 0.070000
1517347792460749012	400 37 0.900000 0.111000 0.101000 600 35 0.900000 0.837000 0.755000 600 41 1.000000 0.052000 0.052000 1.200000 0.059000 0.071000
1517347793024881471	400 37 0.900000 0.111000 0.101000 600 35 0.900000 0.837000 0.755000 600 41 1.000000 0.052000 0.052000 1.200000 0.059000 0.071000
1517347793592883721	400 37 0.900000 0.111000 0.101000 600 35 0.900000 0.836000 0.754000 600 41 1.000000 0.052000 0.052000 1.200000 0.059000 0.071000
1517347794164791929	400 37 0.900000 0.111000 0.101000 600 35 0.900000 0.835000 0.754000 600 41 1.000000 0.052000 0.052000 1.200000 0.059000 0.071000
1517347794716863429	400 37 0.900000 0.111000 0.101000 600 35 0.900000 0.836000 0.754000 600 41 1.000000 0.052000 0.052000 1.200000 0.059000 0.071000
1517347795280806763	400 37 0.900000 0.111000 0.101000 600 35 0.900000 0.837000 0.754000 600 41 1.000000 0.052000 0.052000 1.200000 0.058000 0.070000
1517347795840826929	400 37 0.900000 0.111000 0.101000 600 35 0.900000 0.837000 0.755000 600 41 1.000000 0.052000 0.052000 1.200000 0.059000 0.071000
1517347796400875388	400 37 0.900000 0.111000 0.101000 600 35 0.900000 0.837000 0.755000 600 41 1.000000 0.052000 0.052000 1.200000 0.059000 0.071000
1517347796964888971	400 37 0.900000 0.111000 0.101000 600 35 0.900000 0.837000 0.755000 600 41 1.000000 0.052000 0.052000 1.200000 0.058000 0.070000
1517347797532887680	400 37 0.900000 0.111000 0.101000 600 35 0.900000 0.837000 0.755000 600 41 1.000000 0.052000 0.052000 1.200000 0.058000 0.070000
1517347798096826055	400 37 0.900000 0.111000 0.101000 600 35 0.900000 0.836000 0.754000 600 41 1.000000 0.052000 0.052000 1.200000 0.059000 0.071000
1517347798660798638	400 37 0.900000 0.111000 0.101000 600 35 0.900000 0.837000 0.755000 600 41 1.000000 0.052000 0.052000 1.200000 0.059000 0.071000
1517347799212814513	400 37 0.900000 0.111000 0.101000 600 35 0.900000 0.837000 0.755000 600 41 1.000000 0.052000 0.052000 1.200000 0.059000 0.071000
1517347799776839513	400 37 0.900000 0.111000 0.101000 600 35 0.900000 0.837000 0.755000 600 41 1.000000 0.052000 0.052000 1.200000 0.059000 0.071000
1517347800336860472	400 37 0.900000 0.111000 0.101000 600 35 0.900000 0.837000 0.755000 600 41 1.000000 0.052000 0.052000 1.200000 0.060000 0.072000
1517347800892768472	400 37 0.900000 0.111000 0.101000 600 35 0.900000 0.837000 0.755000 600 41 1.000000 0.052000 0.052000 1.200000 0.059000 0.071000
1517347801444902888	400 37 0.900000 0.111000 0.101000 600 35 0.900000 0.837000 0.755000 600 41 1.000000 0.052000 0.052000 1.200000 0.060000 0.072000
1517347802000790305	400 37 0.900000 0.111000 0.101000 600 35 0.900000 0.837000 0.755000 600 41 1.000000 0.052000 0.052000 1.200000 0.060000 0.072000
1517347802560840805	400 37 0.900000 0.111000 0.101000 600 35 0.900000 0.837000 0.755000 600 41 1.000000 0.052000 0.052000 1.200000 0.059000 0.071000
1517347803124854472	400 37 0.900000 0.111000 0.101000 600 35 0.900000 0.836000 0.754000 600 41 1.000000 0.052000 0.052000 1.200000 0.059000 0.071000
1517347803680802597	400 37 0.900000 0.111000 0.101000 600 35 0.900000 0.836000 0.754000 600 41 1.000000 0.052000 0.052000 1.200000 0.059000 0.071000
1517347804240781097	400 37 0.900000 0.111000 0.101000 600 35 0.900000 0.837000 0.755000 600 41 1.000000 0.052000 0.052000 1.200000 0.059000 0.071000
1517347804792786180	400 37 0.900000 0.111000 0.101000 600 35 0.900000 0.837000 0.755000 600 41 1.000000 0.052000 0.052000 1.200000 0.059000 0.071000
1517347805352806389	400 37 0.900000 0.111000 0.101000 600 35 0.900000 0.837000 0.755000 600 41 1.000000 0.052000 0.052000 1.200000 0.060000 0.072000
1517347805912777347	400 37 0.900000 0.111000 0.101000 600 35 0.900000 0.837000 0.755000 600 41 1.000000 0.052000 0.052000 1.200000 0.059000 0.071000
1517347806480823097	400 37 0.900000 0.111000 0.101000 600 35 0.900000 0.837000 0.755000 600 41 1.000000 0.052000 0.052000 1.200000 0.060000 0.072000
1517347807036757931	400 37 0.900000 0.111000 0.101000 600 35 0.900000 0.837000 0.755000 600 41 1.000000 0.052000 0.052000 1.200000 0.059000 0.071000
1517347807592843056	400 37 0.900000 0.111000 0.101000 600 35 0.900000 0.837000 0.755000 600 41 1.000000 0.052000 0.052000 1.200000 0.059000 0.071000
1517347808160872847	400 37 0.900000 0.111000 0.101000 600 35 0.900000 0.836000 0.754000 600 41 1.000000 0.052000 0.052000 1.200000 0.059000 0.071000
1517347808720852389	400 37 0.900000 0.111000 0.101000 600 35 0.900000 0.837000 0.755000 600 41 1.000000 0.052000 0.052000 1.200000 0.059000 0.071000
1517347809276780639	400 37 0.900000 0.111000 0.101000 600 35 0.900000 0.837000 0.755000 600 41 1.000000 0.052000 0.052000 1.200000 0.059000 0.071000
1517347809836872348	400 37 0.900000 0.111000 0.101000 600 35 0.900000 0.837000 0.755000 600 41 1.000000 0.052000 0.052000 1.200000 0.059000 0.071000
1517347810388837598	400 37 0.900000 0.111000 0.101000 600 35 0.900000 0.836000 0.754000 600 41 1.000000 0.052000 0.052000 1.200000 0.060000 0.072000
1517347810914146973	400 37 0.900000 0.111000 0.101000 600 35 0.900000 0.837000 0.754000 600 41 1.000000 0.053000 0.053000 1.200000 0.060000 0.072000
1517347811425619806	400 35 0.900000 0.018000 0.016000 600 34 0.900000 0.290000 0.262000 600 40 1.000000 0.052000 0.052000 1.200000 0.041000 0.049000
1517347811936731556	400 34 0.900000 0.017000 0.015000 600 34 0.900000 0.326000 0.296000 600 40 1.000000 0.052000 0.052000 1.200000 0.026000 0.031000
1517347812447960140	400 34 0.900000 0.017000 0.015000 600 33 0.900000 0.325000 0.296000 600 40 1.000000 0.052000 0.052000 1.200000 0.026000 0.031000
1517347812959053390	400 34 0.900000 0.017000 0.015000 600 33 0.900000 0.327000 0.297000 600 40 1.000000 0.052000 0.052000 1.200000 0.025000 0.030000
1517347813470229515	400 34 0.900000 0.018000 0.016000 600 33 0.900000 0.342000 0.311000 600 40 1.000000 0.052000 0.052000 1.200000 0.027000 0.032000
1517347813981208431	400 34 0.900000 0.017000 0.015000 600 33 0.900000 0.335000 0.305000 600 39 1.000000 0.052000 0.052000 1.200000 0.025000 0.030000
1517347814492451932	400 34 0.900000 0.017000 0.015000 600 33 0.900000 0.330000 0.300000 600 39 1.000000 0.052000 0.052000 1.200000 0.024000 0.028000
1517347815003729223	400 34 0.900000 0.017000 0.015000 600 33 0.900000 0.321000 0.292000 600 39 1.000000 0.052000 0.052000 1.200000 0.025000 0.030000
1517347815514916015	400 33 0.900000 0.017000 0.015000 600 33 0.900000 0.325000 0.295000 600 39 1.000000 0.052000 0.052000 1.200000 0.025000 0.030000
1517347816025894682	400 33 0.900000 0.017000 0.015000 600 32 0.900000 0.332000 0.302000 600 39 1.000000 0.052000 0.052000 1.200000 0.024000 0.028000
1517347816537080557	400 33 0.900000 0.017000 0.015000 600 32 0.900000 0.331000 0.301000 600 39 1.000000 0.052000 0.052000 1.200000 0.025000 0.030000
1517347817048064640	400 33 0.900000 0.017000 0.015000 600 32 0.900000 0.329000 0.299000 600 39 1.000000 0.051000 0.051000 1.200000 0.026000 0.031000
1517347817559186140	400 33 0.900000 0.017000 0.015000 600 32 0.900000 0.323000 0.293000 600 39 1.000000 0.052000 0.052000 1.200000 0.026000 0.031000
1517347818070337599	400 33 0.900000 0.017000 0.015000 600 32 0.900000 0.330000 0.300000 600 39 1.000000 0.052000 0.052000 1.200000 0.025000 0.030000
1517347818581349015	400 33 0.900000 0.017000 0.015000 600 32 0.900000 0.333000 0.303000 600 39 1.000000 0.052000 0.052000 1.200000 0.024000 0.028000
1517347819092376932	400 33 0.900000 0.017000 0.015000 600 32 0.900000 0.328000 0.298000 600 39 1.000000 0.052000 0.052000 1.200000 0.024000 0.028000
1517347819603456974	400 33 0.900000 0.017000 0.015000 600 32 0.900000 0.322000 0.293000 600 38 1.000000 0.052000 0.052000 1.200000 0.025000 0.030000
1517347820114779516	400 33 0.900000 0.018000 0.016000 600 32 0.900000 0.350000 0.318000 600 38 1.000000 0.051000 0.051000 1.200000 0.030000 0.036000
1517347820626031099	400 33 0.900000 0.017000 0.015000 600 32 0.900000 0.333000 0.303000 600 38 1.000000 0.052000 0.052000 1.200000 0.024000 0.028000
1517347821137083724	400 33 0.900000 0.017000 0.015000 600 32 0.900000 0.332000 0.302000 600 38 1.000000 0.052000 0.052000 1.200000 0.024000 0.028000
1517347821648141432	400 33 0.900000 0.017000 0.015000 600 32 0.900000 0.327000 0.297000 600 38 1.000000 0.052000 0.052000 1.200000 0.024000 0.028000
1517347822159399141	400 33 0.900000 0.018000 0.016000 600 32 0.900000 0.349000 0.317000 600 38 1.000000 0.052000 0.052000 1.200000 0.027000 0.032000
1517347822670624933	400 33 0.900000 0.017000 0.015000 600 32 0.900000 0.321000 0.292000 600 38 1.000000 0.052000 0.052000 1.200000 0.024000 0.028000
1517347823182115308	400 33 0.900000 0.017000 0.015000 600 32 0.900000 0.332000 0.302000 600 38 1.000000 0.052000 0.052000 1.200000 0.025000 0.030000
1517347823693164933	400 33 0.900000 0.017000 0.015000 600 32 0.900000 0.331000 0.301000 600 38 1.000000 0.051000 0.051000 1.200000 0.025000 0.030000
1517347824204375224	400 33 0.900000 0.017000 0.015000 600 32 0.900000 0.326000 0.296000 600 38 1.000000 0.051000 0.051000 1.200000 0.025000 0.030000
1517347824715663391	400 33 0.900000 0.017000 0.015000 600 32 0.900000 0.340000 0.309000 600 38 1.000000 0.051000 0.051000 1.200000 0.031000 0.037000
1517347825226869933	400 32 0.900000 0.017000 0.015000 600 32 0.900000 0.334000 0.304000 600 38 1.000000 0.052000 0.052000 1.200000 0.028000 0.033000
1517347825738174308	400 32 0.900000 0.017000 0.015000 600 32 0.900000 0.333000 0.303000 600 38 1.000000 0.051000 0.051000 1.200000 0.025000 0.030000
1517347826249265683	400 32 0.900000 0.017000 0.015000 600 32 0.900000 0.331000 0.301000 600 38 1.000000 0.051000 0.051000 1.200000 0.025000 0.030000
1517347826760567683	400 32 0.900000 0.017000 0.015000 600 32 0.900000 0.328000 0.298000 600 38 1.000000 0.051000 0.051000 1.200000 0.024000 0.028000
1517347827271801183	400 32 0.900000 0.017000 0.015000 600 32 0.900000 0.324000 0.295000 600 38 1.000000 0.052000 0.052000 1.200000 0.024000 0.028000
1517347827783036183	400 32 0.900000 0.017000 0.015000 600 32 0.900000 0.330000 0.300000 600 38 1.000000 0.052000 0.052000 1.200000 0.025000 0.030000
1517347828294334475	400 32 0.900000 0.017000 0.015000 600 31 0.900000 0.332000 0.302000 600 38 1.000000 0.052000 0.052000 1.200000 0.024000 0.028000
1517347828805401308	400 32 0.900000 0.017000 0.015000 600 32 0.900000 0.320000 0.291000 600 38 1.000000 0.052000 0.052000 1.200000 0.024000 0.028000
1517347829316418225	400 32 0.900000 0.017000 0.015000 600 31 0.900000 0.319000 0.290000 600 38 1.000000 0.051000 0.051000 1.200000 0.025000 0.030000
1517347829827606433	400 32 0.900000 0.017000 0.015000 600 31 0.900000 0.321000 0.292000 600 38 1.000000 0.051000 0.051000 1.200000 0.024000 0.028000
1517347830338785642	400 32 0.900000 0.017000 0.015000 600 31 0.900000 0.322000 0.293000 600 38 1.000000 0.052000 0.052000 1.200000 0.025000 0.030000
1517347830850262267	400 32 0.900000 0.017000 0.015000 600 31 0.900000 0.320000 0.291000 600 38 1.000000 0.051000 0.051000 1.200000 0.024000 0.028000
1517347831361978934	400 32 0.900000 0.017000 0.015000 600 31 0.900000 0.347000 0.315000 600 38 1.000000 0.052000 0.052000 1.200000 0.027000 0.032000
1517347831873017392	400 32 0.900000 0.017000 0.015000 600 31 0.900000 0.329000 0.299000 600 38 1.000000 0.051000 0.051000 1.200000 0.025000 0.030000
1517347832384186517	400 32 0.900000 0.017000 0.015000 600 31 0.900000 0.329000 0.299000 600 38 1.000000 0.052000 0.052000 1.200000 0.025000 0.030000
1517347832895317475	400 32 0.900000 0.017000 0.015000 600 31 0.900000 0.334000 0.304000 600 38 1.000000 0.051000 0.051000 1.200000 0.026000 0.031000
1517347833406413142	400 32 0.900000 0.017000 0.015000 600 31 0.900000 0.358000 0.326000 600 38 1.000000 0.052000 0.052000 1.200000 0.029000 0.035000
1517347833917569226	400 32 0.900000 0.017000 0.015000 600 31 0.900000 0.327000 0.297000 600 38 1.000000 0.052000 0.052000 1.200000 0.024000 0.028000
1517347834428905726	400 32 0.900000 0.017000 0.015000 600 31 0.900000 0.325000 0.295000 600 38 1.000000 0.051000 0.051000 1.200000 0.024000 0.028000
1517347834940146476	400 32 0.900000 0.017000 0.015000 600 31 0.900000 0.328000 0.298000 600 38 1.000000 0.052000 0.052000 1.200000 0.025000 0.030000
1517347835451614934	400 33 0.900000 0.018000 0.016000 600 32 0.900000 0.388000 0.353000 600 36 1.000000 0.052000 0.052000 1.200000 0.034000 0.041000
1517347835963058934	400 33 0.900000 0.018000 0.016000 600 32 0.900000 0.339000 0.308000 600 36 1.000000 0.052000 0.052000 1.200000 0.030000 0.036000
1517347836474390268	400 32 0.900000 0.017000 0.015000 600 32 0.900000 0.318000 0.289000 600 36 1.000000 0.052000 0.052000 1.200000 0.024000 0.028000
1517347836985317851	400 32 0.900000 0.017000 0.015000 600 32 0.900000 0.320000 0.291000 600 36 1.000000 0.052000 0.052000 1.200000 0.024000 0.028000
1517347837496634559	400 32 0.900000 0.017000 0.015000 600 31 0.900000 0.321000 0.292000 600 36 1.000000 0.052000 0.052000 1.200000 0.024000 0.028000
1517347838007631726	400 32 0.900000 0.017000 0.015000 600 31 0.900000 0.320000 0.291000 600 36 1.000000 0.052000 0.052000 1.200000 0.024000 0.028000
1517347838518907601	400 32 0.900000 0.017000 0.015000 600 31 0.900000 0.324000 0.294000 600 36 1.000000 0.052000 0.052000 1.200000 0.024000 0.028000
1517347839029945476	400 32 0.900000 0.017000 0.015000 600 31 0.900000 0.320000 0.291000 600 36 1.000000 0.051000 0.051000 1.200000 0.024000 0.028000
1517347839541268310	400 32 0.900000 0.017000 0.015000 600 31 0.900000 0.324000 0.294000 600 36 1.000000 0.052000 0.052000 1.200000 0.024000 0.028000
1517347840052433060	400 32 0.900000 0.018000 0.016000 600 31 0.900000 0.330000 0.300000 600 36 1.000000 0.051000 0.051000 1.200000 0.025000 0.030000
1517347840563635476	400 32 0.900000 0.017000 0.015000 600 31 0.900000 0.334000 0.303000 600 36 1.000000 0.052000 0.052000 1.200000 0.024000 0.028000
1517347841074850685	400 32 0.900000 0.017000 0.015000 600 31 0.900000 0.330000 0.300000 600 36 1.000000 0.051000 0.051000 1.200000 0.025000 0.030000
1517347841585951185	400 32 0.900000 0.017000 0.015000 600 31 0.900000 0.325000 0.295000 600 36 1.000000 0.051000 0.051000 1.200000 0.025000 0.030000
1517347842096330727	400 32 0.900000 0.017000 0.015000 600 31 0.900000 0.324000 0.294000 600 36 1.000000 0.051000 0.051000 1.200000 0.025000 0.030000
1517347842606886185	400 32 0.900000 0.019000 0.017000 600 31 0.900000 0.334000 0.303000 600 36 1.000000 0.052000 0.052000 1.200000 0.033000 0.039000
1517347843116922393	400 32 0.900000 0.017000 0.015000 600 31 0.900000 0.319000 0.290000 600 36 1.000000 0.051000 0.051000 1.200000 0.025000 0.030000
1517347843627124102	400 32 0.900000 0.017000 0.015000 600 31 0.900000 0.318000 0.289000 600 36 1.000000 0.052000 0.052000 1.200000 0.025000 0.030000
1517347844137379935	400 33 0.900000 0.017000 0.015000 600 32 0.900000 0.321000 0.292000 600 36 1.000000 0.051000 0.051000 1.200000 0.025000 0.030000
1517347844647796102	400 32 0.900000 0.024000 0.021000 600 32 0.900000 0.361000 0.328000 600 36 1.000000 0.052000 0.052000 1.200000 0.035000 0.042000
1517347845157924810	400 32 0.900000 0.017000 0.015000 600 31 0.900000 0.319000 0.290000 600 36 1.000000 0.052000 0.052000 1.200000 0.026000 0.031000
1517347845668011977	400 32 0.900000 0.017000 0.015000 600 31 0.900000 0.318000 0.289000 600 36 1.000000 0.052000 0.052000 1.200000 0.025000 0.030000
1517347846178422685	400 33 0.900000 0.017000 0.015000 600 31 0.900000 0.318000 0.289000 600 36 1.000000 0.052000 0.052000 1.200000 0.025000 0.030000
1517347846688849352	400 33 0.900000 0.023000 0.021000 600 31 0.900000 0.376000 0.342000 600 36 1.000000 0.051000 0.051000 1.200000 0.034000 0.041000
1517347847199241644	400 32 0.900000 0.020000 0.018000 600 31 0.900000 0.323000 0.293000 600 36 1.000000 0.051000 0.051000 1.200000 0.031000 0.037000
1517347847709514186	400 32 0.900000 0.017000 0.015000 600 31 0.900000 0.323000 0.293000 600 36 1.000000 0.051000 0.051000 1.200000 0.026000 0.031000
1517347848219706102	400 32 0.900000 0.017000 0.015000 600 31 0.900000 0.327000 0.297000 600 36 1.000000 0.051000 0.051000 1.200000 0.024000 0.028000
1517347848729887144	400 32 0.900000 0.017000 0.015000 600 31 0.900000 0.321000 0.292000 600 36 1.000000 0.052000 0.052000 1.200000 0.025000 0.030000
1517347849240199602	400 32 0.900000 0.017000 0.015000 600 31 0.900000 0.317000 0.288000 600 36 1.000000 0.051000 0.051000 1.200000 0.025000 0.030000
1517347849750238019	400 32 0.900000 0.017000 0.015000 600 31 0.900000 0.319000 0.290000 600 36 1.000000 0.051000 0.051000 1.200000 0.024000 0.028000
1517347850260289769	400 32 0.900000 0.017000 0.015000 600 31 0.900000 0.320000 0.291000 600 36 1.000000 0.051000 0.051000 1.200000 0.025000 0.030000
1517347850770373561	400 32 0.900000 0.017000 0.015000 600 31 0.900000 0.330000 0.300000 600 36 1.000000 0.051000 0.051000 1.200000 0.025000 0.030000
1517347851280446103	400 32 0.900000 0.017000 0.015000 600 31 0.900000 0.325000 0.295000 600 36 1.000000 0.052000 0.052000 1.200000 0.026000 0.031000
1517347851790733603	400 32 0.900000 0.017000 0.015000 600 31 0.900000 0.324000 0.295000 600 36 1.000000 0.051000 0.051000 1.200000 0.025000 0.030000
1517347852300657561	400 32 0.900000 0.017000 0.015000 600 31 0.900000 0.331000 0.301000 600 36 1.000000 0.052000 0.052000 1.200000 0.024000 0.028000
1517347852810960019	400 32 0.900000 0.017000 0.015000 600 31 0.900000 0.330000 0.300000 600 36 1.000000 0.051000 0.051000 1.200000 0.026000 0.031000
1517347853321031811	400 32 0.900000 0.018000 0.016000 600 31 0.900000 0.343000 0.312000 600 36 1.000000 0.052000 0.052000 1.200000 0.029000 0.035000
1517347853831542853	400 32 0.900000 0.017000 0.015000 600 31 0.900000 0.326000 0.296000 600 36 1.000000 0.052000 0.052000 1.200000 0.024000 0.028000
1517347854341527853	400 32 0.900000 0.017000 0.015000 600 31 0.900000 0.332000 0.302000 600 36 1.000000 0.051000 0.051000 1.200000 0.024000 0.028000
1517347854851453686	400 32 0.900000 0.017000 0.015000 600 31 0.900000 0.328000 0.298000 600 36 1.000000 0.052000 0.052000 1.200000 0.024000 0.028000
1517347855361555270	400 32 0.900000 0.017000 0.015000 600 31 0.900000 0.324000 0.295000 600 36 1.000000 0.051000 0.051000 1.200000 0.026000 0.031000
1517347855871490811	400 32 0.900000 0.017000 0.015000 600 31 0.900000 0.336000 0.305000 600 36 1.000000 0.052000 0.052000 1.200000 0.026000 0.031000
1517347856381457228	400 32 0.900000 0.017000 0.015000 600 31 0.900000 0.328000 0.298000 600 36 1.000000 0.051000 0.051000 1.200000 0.024000 0.028000
1517347856891613603	400 32 0.900000 0.017000 0.015000 600 31 0.900000 0.324000 0.294000 600 36 1.000000 0.052000 0.052000 1.200000 0.025000 0.030000
1517347857401885562	400 32 0.900000 0.017000 0.015000 600 31 0.900000 0.327000 0.297000 600 36 1.000000 0.051000 0.051000 1.200000 0.025000 0.030000
1517347857912079020	400 32 0.900000 0.018000 0.016000 600 31 0.900000 0.357000 0.324000 600 36 1.000000 0.051000 0.051000 1.200000 0.032000 0.038000
1517347858422188645	400 32 0.900000 0.017000 0.015000 600 31 0.900000 0.327000 0.297000 600 36 1.000000 0.051000 0.051000 1.200000 0.025000 0.030000
1517347858932111437	400 32 0.900000 0.017000 0.015000 600 31 0.900000 0.323000 0.293000 600 36 1.000000 0.052000 0.052000 1.200000 0.026000 0.031000
1517347859442047604	400 32 0.900000 0.017000 0.015000 600 31 0.900000 0.327000 0.297000 600 35 1.000000 0.051000 0.051000 1.200000 0.025000 0.030000
1517347859952058645	400 32 0.900000 0.017000 0.015000 600 31 0.900000 0.332000 0.302000 600 36 1.000000 0.051000 0.051000 1.200000 0.024000 0.028000
1517347860462007104	400 32 0.900000 0.017000 0.015000 600 31 0.900000 0.326000 0.296000 600 36 1.000000 0.051000 0.051000 1.200000 0.024000 0.028000
1517347860972038895	400 32 0.900000 0.017000 0.015000 600 31 0.900000 0.323000 0.293000 600 36 1.000000 0.051000 0.051000 1.200000 0.024000 0.028000
1517347861482018937	400 32 0.900000 0.017000 0.015000 600 31 0.900000 0.322000 0.293000 600 36 1.000000 0.051000 0.051000 1.200000 0.024000 0.028000
1517347861991893979	400 32 0.900000 0.017000 0.015000 600 31 0.900000 0.320000 0.291000 600 36 1.000000 0.052000 0.052000 1.200000 0.024000 0.028000
1517347862502116062	400 32 0.900000 0.017000 0.015000 600 31 0.900000 0.319000 0.290000 600 36 1.000000 0.051000 0.051000 1.200000 0.024000 0.028000
1517347863011974021	400 32 0.900000 0.017000 0.015000 600 31 0.900000 0.326000 0.296000 600 36 1.000000 0.051000 0.051000 1.200000 0.025000 0.030000
1517347863522193271	400 32 0.900000 0.017000 0.015000 600 31 0.900000 0.332000 0.302000 600 36 1.000000 0.051000 0.051000 1.200000 0.024000 0.028000
1517347864032325937	400 32 0.900000 0.017000 0.015000 600 31 0.900000 0.327000 0.297000 600 36 1.000000 0.052000 0.052000 1.200000 0.025000 0.030000
1517347864542552229	400 32 0.900000 0.017000 0.015000 600 31 0.900000 0.359000 0.326000 600 36 1.000000 0.051000 0.051000 1.200000 0.033000 0.039000
1517347865052604729	400 32 0.900000 0.017000 0.015000 600 31 0.900000 0.330000 0.300000 600 36 1.000000 0.051000 0.051000 1.200000 0.025000 0.030000
1517347865564044146	400 32 0.900000 0.017000 0.015000 600 31 0.900000 0.326000 0.296000 600 35 1.000000 0.051000 0.051000 1.200000 0.037000 0.044000
1517347866075121354	400 32 0.900000 0.030000 0.027000 600 31 0.900000 0.106000 0.096000 600 35 1.000000 0.051000 0.051000 1.200000 0.032000 0.038000
1517347866585986854	400 31 0.900000 0.017000 0.015000 600 31 0.900000 0.072000 0.065000 600 35 1.000000 0.052000 0.052000 1.200000 0.023000 0.027000
