#Timestamp	CPU(0) Frequency(MHz)	CPU(0) Temperature(C)	A7 Voltage(V)	A7 Current(A)	A7 Power(W)	CPU(4) Frequency(MHz)	CPU(4) Temperature(C)	A15 Voltage(V)	A15 Current(A)	A15 Power(W)	GPU Frequency(MHz)	GPU Temperature(C)	GPU Voltage(V)	GPU Current(A)	GPU Power(W)	RAM Voltage(V)	RAM Current(A)	RAM Power(W)
1517308675886388516	700 31 0.900000 0.030000 0.029000 1100 30 0.900000 0.634000 0.628000 600 35 1.000000 0.051000 0.051000 1.200000 0.040000 0.048000
1517308676393451641	700 31 0.900000 0.029000 0.028000 1100 30 0.900000 0.631000 0.625000 600 35 1.000000 0.051000 0.051000 1.200000 0.030000 0.036000
1517308676900508599	700 31 0.900000 0.028000 0.027000 1100 30 0.900000 0.632000 0.626000 600 35 1.000000 0.051000 0.051000 1.200000 0.029000 0.035000
1517308677407707641	700 31 0.900000 0.029000 0.028000 1100 30 0.900000 0.635000 0.629000 600 35 1.000000 0.051000 0.051000 1.200000 0.029000 0.035000
1517308677914722308	700 31 0.900000 0.029000 0.028000 1100 30 0.900000 0.654000 0.648000 600 35 1.000000 0.051000 0.051000 1.200000 0.030000 0.036000
1517308678421644974	700 31 0.900000 0.030000 0.029000 1100 30 0.900000 0.641000 0.635000 600 35 1.000000 0.051000 0.051000 1.200000 0.029000 0.035000
1517308678928687183	700 32 0.900000 0.028000 0.027000 1100 30 0.900000 0.644000 0.638000 600 35 1.000000 0.051000 0.051000 1.200000 0.030000 0.036000
1517308679435764183	700 32 0.900000 0.029000 0.028000 1100 30 0.900000 0.644000 0.638000 600 35 1.000000 0.051000 0.051000 1.200000 0.029000 0.035000
1517308679942701850	700 32 0.900000 0.029000 0.028000 1100 30 0.900000 0.635000 0.629000 600 35 1.000000 0.051000 0.051000 1.200000 0.030000 0.036000
1517308680449725475	700 32 0.900000 0.029000 0.028000 1100 30 0.900000 0.634000 0.628000 600 35 1.000000 0.051000 0.051000 1.200000 0.030000 0.036000
1517308680956699891	700 32 0.900000 0.028000 0.027000 1100 30 0.900000 0.633000 0.627000 600 35 1.000000 0.051000 0.051000 1.200000 0.029000 0.035000
1517308681463814350	700 31 0.900000 0.029000 0.028000 1100 30 0.900000 0.632000 0.626000 600 35 1.000000 0.052000 0.052000 1.200000 0.029000 0.035000
1517308681970803100	700 32 0.900000 0.029000 0.028000 1100 30 0.900000 0.634000 0.628000 600 35 1.000000 0.051000 0.051000 1.200000 0.030000 0.036000
1517308682477850475	700 32 0.900000 0.029000 0.028000 1100 30 0.900000 0.637000 0.631000 600 35 1.000000 0.051000 0.051000 1.200000 0.030000 0.036000
1517308682984884558	700 32 0.900000 0.029000 0.028000 1100 30 0.900000 0.634000 0.628000 600 35 1.000000 0.051000 0.051000 1.200000 0.028000 0.033000
1517308683491992142	700 31 0.900000 0.029000 0.028000 1100 30 0.900000 0.632000 0.626000 600 35 1.000000 0.051000 0.051000 1.200000 0.029000 0.035000
1517308683999146017	700 31 0.900000 0.029000 0.028000 1100 30 0.900000 0.637000 0.631000 600 35 1.000000 0.051000 0.051000 1.200000 0.029000 0.035000
1517308684506217309	700 31 0.900000 0.029000 0.028000 1100 30 0.900000 0.648000 0.642000 600 35 1.000000 0.051000 0.051000 1.200000 0.031000 0.037000
1517308685013181809	700 31 0.900000 0.029000 0.028000 1100 30 0.900000 0.646000 0.640000 600 35 1.000000 0.051000 0.051000 1.200000 0.029000 0.035000
1517308685520237267	700 31 0.900000 0.029000 0.028000 1100 30 0.900000 0.634000 0.628000 600 35 1.000000 0.051000 0.051000 1.200000 0.030000 0.036000
1517308686027332517	700 32 0.900000 0.030000 0.029000 1100 30 0.900000 0.633000 0.627000 600 35 1.000000 0.051000 0.051000 1.200000 0.030000 0.036000
1517308686534444809	700 31 0.900000 0.029000 0.028000 1100 30 0.900000 0.633000 0.627000 600 35 1.000000 0.051000 0.051000 1.200000 0.029000 0.035000
1517308687041469642	700 31 0.900000 0.029000 0.028000 1100 30 0.900000 0.635000 0.629000 600 35 1.000000 0.051000 0.051000 1.200000 0.030000 0.036000
1517308687548522726	700 31 0.900000 0.029000 0.028000 1100 30 0.900000 0.635000 0.629000 600 35 1.000000 0.051000 0.051000 1.200000 0.028000 0.033000
1517308688055667684	700 31 0.900000 0.029000 0.028000 1100 30 0.900000 0.655000 0.649000 600 35 1.000000 0.051000 0.051000 1.200000 0.030000 0.036000
1517308688562842517	700 31 0.900000 0.029000 0.028000 1100 30 0.900000 0.635000 0.629000 600 35 1.000000 0.051000 0.051000 1.200000 0.028000 0.033000
1517308689069977267	700 31 0.900000 0.029000 0.028000 1100 30 0.900000 0.651000 0.645000 600 35 1.000000 0.051000 0.051000 1.200000 0.029000 0.035000
1517308689576990351	700 31 0.900000 0.028000 0.027000 1100 30 0.900000 0.641000 0.635000 600 35 1.000000 0.051000 0.051000 1.200000 0.028000 0.033000
1517308690084020434	700 31 0.900000 0.029000 0.028000 1100 30 0.900000 0.646000 0.640000 600 35 1.000000 0.051000 0.051000 1.200000 0.029000 0.035000
1517308690591088809	700 31 0.900000 0.028000 0.027000 1100 30 0.900000 0.632000 0.626000 600 35 1.000000 0.051000 0.051000 1.200000 0.029000 0.035000
1517308691098301309	700 31 0.900000 0.029000 0.028000 1100 30 0.900000 0.641000 0.635000 600 35 1.000000 0.051000 0.051000 1.200000 0.029000 0.035000
1517308691605341226	700 31 0.900000 0.029000 0.028000 1100 30 0.900000 0.647000 0.641000 600 35 1.000000 0.051000 0.051000 1.200000 0.029000 0.035000
1517308692112452809	700 31 0.900000 0.029000 0.028000 1100 30 0.900000 0.640000 0.634000 600 35 1.000000 0.051000 0.051000 1.200000 0.030000 0.036000
1517308692619517351	700 31 0.900000 0.029000 0.028000 1100 30 0.900000 0.653000 0.647000 600 35 1.000000 0.051000 0.051000 1.200000 0.031000 0.037000
1517308693126773018	700 31 0.900000 0.028000 0.027000 1100 30 0.900000 0.634000 0.628000 600 35 1.000000 0.051000 0.051000 1.200000 0.029000 0.035000
1517308693633817310	700 31 0.900000 0.028000 0.027000 1100 30 0.900000 0.654000 0.648000 600 35 1.000000 0.051000 0.051000 1.200000 0.030000 0.036000
1517308694140774601	700 31 0.900000 0.029000 0.028000 1100 30 0.900000 0.636000 0.630000 600 35 1.000000 0.051000 0.051000 1.200000 0.029000 0.035000
1517308694647868185	700 31 0.900000 0.029000 0.028000 1100 30 0.900000 0.650000 0.644000 600 35 1.000000 0.051000 0.051000 1.200000 0.029000 0.035000
1517308695154942226	700 31 0.900000 0.028000 0.027000 1100 30 0.900000 0.641000 0.635000 600 35 1.000000 0.051000 0.051000 1.200000 0.028000 0.033000
1517308695662061185	700 31 0.900000 0.029000 0.028000 1100 30 0.900000 0.644000 0.638000 600 35 1.000000 0.051000 0.051000 1.200000 0.031000 0.037000
1517308696169144518	700 31 0.900000 0.029000 0.028000 1100 30 0.900000 0.644000 0.638000 600 35 1.000000 0.051000 0.051000 1.200000 0.028000 0.033000
1517308696676146268	700 31 0.900000 0.028000 0.027000 1100 30 0.900000 0.634000 0.628000 600 35 1.000000 0.051000 0.051000 1.200000 0.030000 0.036000
1517308697183248352	700 31 0.900000 0.029000 0.028000 1100 30 0.900000 0.649000 0.643000 600 35 1.000000 0.051000 0.051000 1.200000 0.030000 0.036000
1517308697690288435	700 31 0.900000 0.029000 0.028000 1100 30 0.900000 0.638000 0.632000 600 35 1.000000 0.051000 0.051000 1.200000 0.029000 0.035000
1517308698197200977	700 31 0.900000 0.028000 0.027000 1100 30 0.900000 0.651000 0.645000 600 35 1.000000 0.052000 0.052000 1.200000 0.029000 0.035000
1517308698704345644	700 31 0.900000 0.029000 0.028000 1100 30 0.900000 0.632000 0.626000 600 35 1.000000 0.051000 0.051000 1.200000 0.030000 0.036000
1517308699211314727	700 31 0.900000 0.029000 0.028000 1100 30 0.900000 0.653000 0.647000 600 35 1.000000 0.051000 0.051000 1.200000 0.029000 0.035000
1517308699718358810	700 31 0.900000 0.029000 0.028000 1100 30 0.900000 0.637000 0.631000 600 35 1.000000 0.051000 0.051000 1.200000 0.028000 0.033000
1517308700225498602	700 31 0.900000 0.028000 0.027000 1100 30 0.900000 0.652000 0.646000 600 35 1.000000 0.051000 0.051000 1.200000 0.029000 0.035000
1517308700732525727	700 31 0.900000 0.029000 0.028000 1100 30 0.900000 0.638000 0.632000 600 35 1.000000 0.051000 0.051000 1.200000 0.029000 0.035000
1517308701239756602	700 31 0.900000 0.029000 0.028000 1100 30 0.900000 0.643000 0.637000 600 35 1.000000 0.052000 0.052000 1.200000 0.029000 0.035000
1517308701746857269	700 31 0.900000 0.029000 0.028000 1100 30 0.900000 0.645000 0.639000 600 35 1.000000 0.051000 0.051000 1.200000 0.029000 0.035000
1517308702253937686	700 31 0.900000 0.029000 0.028000 1100 30 0.900000 0.634000 0.628000 600 35 1.000000 0.051000 0.051000 1.200000 0.028000 0.033000
1517308702760962269	700 31 0.900000 0.028000 0.027000 1100 30 0.900000 0.635000 0.629000 600 35 1.000000 0.051000 0.051000 1.200000 0.029000 0.035000
1517308703268045269	700 31 0.900000 0.028000 0.027000 1100 30 0.900000 0.631000 0.625000 600 35 1.000000 0.051000 0.051000 1.200000 0.028000 0.033000
1517308703775109436	700 31 0.900000 0.028000 0.027000 1100 30 0.900000 0.652000 0.646000 600 35 1.000000 0.051000 0.051000 1.200000 0.028000 0.033000
1517308704282164436	700 31 0.900000 0.029000 0.028000 1100 30 0.900000 0.634000 0.628000 600 35 1.000000 0.051000 0.051000 1.200000 0.030000 0.036000
1517308704789159519	700 31 0.900000 0.028000 0.027000 1100 30 0.900000 0.652000 0.646000 600 35 1.000000 0.051000 0.051000 1.200000 0.028000 0.033000
1517308705296263978	700 31 0.900000 0.029000 0.028000 1100 30 0.900000 0.637000 0.631000 600 35 1.000000 0.051000 0.051000 1.200000 0.029000 0.035000
1517308705803344186	700 31 0.900000 0.028000 0.027000 1100 30 0.900000 0.646000 0.640000 600 35 1.000000 0.051000 0.051000 1.200000 0.030000 0.036000
1517308706310414269	700 31 0.900000 0.028000 0.027000 1100 29 0.900000 0.638000 0.632000 600 35 1.000000 0.052000 0.052000 1.200000 0.029000 0.035000
1517308706817498770	700 31 0.900000 0.029000 0.028000 1100 30 0.900000 0.644000 0.638000 600 35 1.000000 0.051000 0.051000 1.200000 0.028000 0.033000
1517308707324439103	700 31 0.900000 0.029000 0.028000 1100 30 0.900000 0.646000 0.640000 600 35 1.000000 0.051000 0.051000 1.200000 0.029000 0.035000
1517308707831468145	700 31 0.900000 0.028000 0.027000 1100 30 0.900000 0.633000 0.627000 600 35 1.000000 0.051000 0.051000 1.200000 0.028000 0.033000
1517308708338570686	700 31 0.900000 0.029000 0.028000 1100 29 0.900000 0.632000 0.626000 600 35 1.000000 0.051000 0.051000 1.200000 0.029000 0.035000
1517308708845578770	700 31 0.900000 0.028000 0.027000 1100 29 0.900000 0.648000 0.642000 600 35 1.000000 0.051000 0.051000 1.200000 0.028000 0.033000
1517308709352560187	700 31 0.900000 0.029000 0.028000 1100 30 0.900000 0.633000 0.627000 600 35 1.000000 0.051000 0.051000 1.200000 0.028000 0.033000
1517308709859660853	700 31 0.900000 0.029000 0.028000 1100 30 0.900000 0.634000 0.628000 600 35 1.000000 0.051000 0.051000 1.200000 0.031000 0.037000
1517308710366693603	700 31 0.900000 0.029000 0.028000 1100 29 0.900000 0.652000 0.646000 600 35 1.000000 0.051000 0.051000 1.200000 0.029000 0.035000
1517308710873747353	700 31 0.900000 0.029000 0.028000 1100 29 0.900000 0.634000 0.628000 600 35 1.000000 0.051000 0.051000 1.200000 0.029000 0.035000
1517308711380726187	700 31 0.900000 0.029000 0.028000 1100 29 0.900000 0.646000 0.640000 600 35 1.000000 0.051000 0.051000 1.200000 0.028000 0.033000
1517308711887712353	700 31 0.900000 0.029000 0.028000 1100 29 0.900000 0.639000 0.633000 600 35 1.000000 0.051000 0.051000 1.200000 0.028000 0.033000
1517308712394827104	700 31 0.900000 0.028000 0.027000 1100 29 0.900000 0.644000 0.638000 600 35 1.000000 0.051000 0.051000 1.200000 0.030000 0.036000
1517308712901874312	700 31 0.900000 0.029000 0.028000 1100 29 0.900000 0.644000 0.638000 600 35 1.000000 0.051000 0.051000 1.200000 0.030000 0.036000
1517308713408915104	700 31 0.900000 0.028000 0.027000 1100 29 0.900000 0.630000 0.624000 600 35 1.000000 0.051000 0.051000 1.200000 0.032000 0.038000
1517308713916101020	700 31 0.900000 0.029000 0.028000 1100 29 0.900000 0.630000 0.624000 600 35 1.000000 0.051000 0.051000 1.200000 0.028000 0.033000
1517308714423164812	700 31 0.900000 0.029000 0.028000 1100 29 0.900000 0.631000 0.625000 600 35 1.000000 0.052000 0.052000 1.200000 0.029000 0.035000
1517308714930215354	700 31 0.900000 0.029000 0.028000 1100 29 0.900000 0.632000 0.626000 600 35 1.000000 0.051000 0.051000 1.200000 0.029000 0.035000
1517308715437218646	700 31 0.900000 0.028000 0.027000 1100 29 0.900000 0.630000 0.624000 600 35 1.000000 0.051000 0.051000 1.200000 0.030000 0.036000
1517308715944411646	700 31 0.900000 0.029000 0.028000 1100 29 0.900000 0.629000 0.623000 600 35 1.000000 0.051000 0.051000 1.200000 0.029000 0.035000
1517308716452113312	700 31 0.900000 0.028000 0.027000 1100 29 0.900000 0.635000 0.629000 600 35 1.000000 0.051000 0.051000 1.200000 0.030000 0.036000
1517308716959234687	700 31 0.900000 0.030000 0.029000 1100 29 0.900000 0.644000 0.638000 600 35 1.000000 0.052000 0.052000 1.200000 0.031000 0.037000
1517308717466355479	700 31 0.900000 0.028000 0.027000 1100 29 0.900000 0.643000 0.637000 600 35 1.000000 0.051000 0.051000 1.200000 0.029000 0.035000
1517308717973430813	700 31 0.900000 0.029000 0.028000 1100 29 0.900000 0.639000 0.633000 600 34 1.000000 0.051000 0.051000 1.200000 0.030000 0.036000
1517308718480514313	700 31 0.900000 0.029000 0.028000 1100 29 0.900000 0.645000 0.639000 600 35 1.000000 0.051000 0.051000 1.200000 0.029000 0.035000
1517308718987645854	700 31 0.900000 0.028000 0.027000 1100 29 0.900000 0.631000 0.625000 600 34 1.000000 0.051000 0.051000 1.200000 0.031000 0.037000
1517308719494300688	700 31 0.900000 0.028000 0.027000 1100 29 0.900000 0.632000 0.626000 600 35 1.000000 0.051000 0.051000 1.200000 0.030000 0.036000
1517308720000822979	700 31 0.900000 0.029000 0.028000 1100 29 0.900000 0.634000 0.628000 600 35 1.000000 0.051000 0.051000 1.200000 0.030000 0.036000
1517308720507223646	700 31 0.900000 0.029000 0.028000 1100 29 0.900000 0.632000 0.626000 600 35 1.000000 0.051000 0.051000 1.200000 0.030000 0.036000
1517308721013529980	700 31 0.900000 0.028000 0.027000 1100 29 0.900000 0.631000 0.625000 600 34 1.000000 0.051000 0.051000 1.200000 0.029000 0.035000
1517308721519990021	700 31 0.900000 0.029000 0.028000 1100 29 0.900000 0.632000 0.626000 600 34 1.000000 0.051000 0.051000 1.200000 0.030000 0.036000
1517308722026560355	700 31 0.900000 0.028000 0.027000 1100 29 0.900000 0.634000 0.628000 600 34 1.000000 0.051000 0.051000 1.200000 0.029000 0.035000
1517308722532967063	700 31 0.900000 0.028000 0.027000 1100 29 0.900000 0.632000 0.626000 600 35 1.000000 0.051000 0.051000 1.200000 0.029000 0.035000
1517308723039386480	700 31 0.900000 0.028000 0.027000 1100 29 0.900000 0.633000 0.627000 600 34 1.000000 0.051000 0.051000 1.200000 0.029000 0.035000
1517308723545904688	700 31 0.900000 0.029000 0.028000 1100 29 0.900000 0.649000 0.643000 600 34 1.000000 0.051000 0.051000 1.200000 0.030000 0.036000
1517308724052324522	700 31 0.900000 0.029000 0.028000 1100 29 0.900000 0.632000 0.626000 600 34 1.000000 0.051000 0.051000 1.200000 0.029000 0.035000
1517308724558830855	700 31 0.900000 0.029000 0.028000 1100 29 0.900000 0.633000 0.627000 600 34 1.000000 0.051000 0.051000 1.200000 0.030000 0.036000
1517308725065209313	700 31 0.900000 0.028000 0.027000 1100 29 0.900000 0.632000 0.626000 600 34 1.000000 0.051000 0.051000 1.200000 0.030000 0.036000
1517308725571610605	700 31 0.900000 0.029000 0.028000 1100 29 0.900000 0.632000 0.626000 600 34 1.000000 0.051000 0.051000 1.200000 0.031000 0.037000
1517308726078070772	700 31 0.900000 0.029000 0.028000 1100 29 0.900000 0.630000 0.624000 600 35 1.000000 0.051000 0.051000 1.200000 0.029000 0.035000
1517308726584372980	700 31 0.900000 0.028000 0.027000 1100 29 0.900000 0.632000 0.626000 600 34 1.000000 0.051000 0.051000 1.200000 0.030000 0.036000
1517308727090780355	700 31 0.900000 0.029000 0.028000 1100 29 0.900000 0.633000 0.627000 600 34 1.000000 0.051000 0.051000 1.200000 0.029000 0.035000
1517308727597088814	700 31 0.900000 0.029000 0.028000 1100 29 0.900000 0.633000 0.627000 600 34 1.000000 0.051000 0.051000 1.200000 0.029000 0.035000
1517308728103344855	700 31 0.900000 0.028000 0.027000 1100 29 0.900000 0.635000 0.629000 600 34 1.000000 0.051000 0.051000 1.200000 0.028000 0.033000
1517308728609718147	700 31 0.900000 0.028000 0.027000 1100 29 0.900000 0.646000 0.640000 600 34 1.000000 0.052000 0.052000 1.200000 0.029000 0.035000
1517308729116148022	700 31 0.900000 0.028000 0.027000 1100 29 0.900000 0.636000 0.630000 600 34 1.000000 0.051000 0.051000 1.200000 0.029000 0.035000
1517308729622353731	700 31 0.900000 0.029000 0.028000 1100 29 0.900000 0.649000 0.643000 600 34 1.000000 0.051000 0.051000 1.200000 0.030000 0.036000
1517308730128802106	700 31 0.900000 0.028000 0.027000 1100 29 0.900000 0.640000 0.634000 600 35 1.000000 0.051000 0.051000 1.200000 0.029000 0.035000
1517308730635185106	700 31 0.900000 0.029000 0.028000 1100 29 0.900000 0.649000 0.643000 600 34 1.000000 0.051000 0.051000 1.200000 0.030000 0.036000
1517308731141474189	700 31 0.900000 0.029000 0.028000 1100 29 0.900000 0.635000 0.629000 600 34 1.000000 0.051000 0.051000 1.200000 0.029000 0.035000
1517308731647883356	700 31 0.900000 0.028000 0.027000 1100 29 0.900000 0.648000 0.642000 600 35 1.000000 0.051000 0.051000 1.200000 0.030000 0.036000
1517308732154280273	700 31 0.900000 0.028000 0.027000 1100 29 0.900000 0.640000 0.634000 600 35 1.000000 0.051000 0.051000 1.200000 0.029000 0.035000
1517308732660566606	700 31 0.900000 0.029000 0.028000 1100 29 0.900000 0.649000 0.643000 600 34 1.000000 0.051000 0.051000 1.200000 0.030000 0.036000
1517308733166935648	700 31 0.900000 0.029000 0.028000 1100 29 0.900000 0.638000 0.632000 600 34 1.000000 0.051000 0.051000 1.200000 0.028000 0.033000
1517308733673274231	700 31 0.900000 0.029000 0.028000 1100 29 0.900000 0.645000 0.639000 600 34 1.000000 0.051000 0.051000 1.200000 0.028000 0.033000
1517308734179669856	700 31 0.900000 0.029000 0.028000 1100 29 0.900000 0.639000 0.633000 600 34 1.000000 0.051000 0.051000 1.200000 0.029000 0.035000
1517308734685934898	700 31 0.900000 0.029000 0.028000 1100 29 0.900000 0.653000 0.647000 600 34 1.000000 0.051000 0.051000 1.200000 0.029000 0.035000
1517308735192216106	700 31 0.900000 0.028000 0.027000 1100 29 0.900000 0.634000 0.628000 600 34 1.000000 0.051000 0.051000 1.200000 0.028000 0.033000
1517308735698543606	700 31 0.900000 0.029000 0.028000 1100 29 0.900000 0.645000 0.639000 600 34 1.000000 0.051000 0.051000 1.200000 0.030000 0.036000
1517308736204839481	700 31 0.900000 0.028000 0.027000 1100 29 0.900000 0.636000 0.630000 600 34 1.000000 0.051000 0.051000 1.200000 0.030000 0.036000
1517308736711208815	700 31 0.900000 0.029000 0.028000 1100 29 0.900000 0.646000 0.640000 600 34 1.000000 0.051000 0.051000 1.200000 0.028000 0.033000
1517308737217544982	700 31 0.900000 0.028000 0.027000 1100 29 0.900000 0.641000 0.635000 600 34 1.000000 0.051000 0.051000 1.200000 0.030000 0.036000
1517308737723857315	700 31 0.900000 0.028000 0.027000 1100 29 0.900000 0.646000 0.640000 600 34 1.000000 0.051000 0.051000 1.200000 0.029000 0.035000
1517308738230186440	700 31 0.900000 0.029000 0.028000 1100 29 0.900000 0.638000 0.632000 600 34 1.000000 0.051000 0.051000 1.200000 0.029000 0.035000
1517308738736508773	700 31 0.900000 0.029000 0.028000 1100 29 0.900000 0.645000 0.639000 600 34 1.000000 0.051000 0.051000 1.200000 0.029000 0.035000
1517308739242765440	700 31 0.900000 0.028000 0.027000 1100 29 0.900000 0.640000 0.634000 600 34 1.000000 0.051000 0.051000 1.200000 0.028000 0.033000
1517308739749095690	700 31 0.900000 0.029000 0.028000 1100 29 0.900000 0.646000 0.640000 600 34 1.000000 0.051000 0.051000 1.200000 0.029000 0.035000
1517308740255613399	700 31 0.900000 0.029000 0.028000 1100 29 0.900000 0.640000 0.634000 600 34 1.000000 0.051000 0.051000 1.200000 0.029000 0.035000
1517308740761900190	700 31 0.900000 0.028000 0.027000 1100 29 0.900000 0.634000 0.628000 600 34 1.000000 0.051000 0.051000 1.200000 0.029000 0.035000
1517308741268134899	700 31 0.900000 0.029000 0.028000 1100 29 0.900000 0.633000 0.627000 600 35 1.000000 0.051000 0.051000 1.200000 0.029000 0.035000
1517308741774406482	700 31 0.900000 0.029000 0.028000 1100 29 0.900000 0.645000 0.639000 600 34 1.000000 0.051000 0.051000 1.200000 0.029000 0.035000
1517308742280764315	700 31 0.900000 0.029000 0.028000 1100 29 0.900000 0.641000 0.635000 600 34 1.000000 0.051000 0.051000 1.200000 0.030000 0.036000
1517308742787088357	700 31 0.900000 0.029000 0.028000 1100 29 0.900000 0.646000 0.640000 600 34 1.000000 0.051000 0.051000 1.200000 0.029000 0.035000
1517308743293407982	700 31 0.900000 0.028000 0.027000 1100 29 0.900000 0.639000 0.633000 600 34 1.000000 0.051000 0.051000 1.200000 0.030000 0.036000
1517308743799778191	700 31 0.900000 0.029000 0.028000 1100 29 0.900000 0.644000 0.638000 600 34 1.000000 0.051000 0.051000 1.200000 0.029000 0.035000
1517308744306329982	700 31 0.900000 0.028000 0.027000 1100 29 0.900000 0.642000 0.636000 600 34 1.000000 0.051000 0.051000 1.200000 0.029000 0.035000
1517308744812640441	700 31 0.900000 0.028000 0.027000 1100 29 0.900000 0.649000 0.643000 600 34 1.000000 0.051000 0.051000 1.200000 0.029000 0.035000
1517308745318953024	700 31 0.900000 0.029000 0.028000 1100 29 0.900000 0.641000 0.635000 600 34 1.000000 0.051000 0.051000 1.200000 0.028000 0.033000
1517308745825201691	700 31 0.900000 0.029000 0.028000 1100 29 0.900000 0.633000 0.627000 600 34 1.000000 0.051000 0.051000 1.200000 0.029000 0.035000
1517308746331577108	700 31 0.900000 0.028000 0.027000 1100 29 0.900000 0.635000 0.629000 600 34 1.000000 0.051000 0.051000 1.200000 0.028000 0.033000
1517308746837920774	700 31 0.900000 0.029000 0.028000 1100 29 0.900000 0.634000 0.628000 600 34 1.000000 0.052000 0.052000 1.200000 0.028000 0.033000
1517308747345030441	700 31 0.900000 0.028000 0.027000 1100 29 0.900000 0.633000 0.627000 600 34 1.000000 0.051000 0.051000 1.200000 0.029000 0.035000
1517308747853019524	700 31 0.900000 0.031000 0.030000 1100 30 0.900000 0.656000 0.650000 600 35 1.000000 0.051000 0.051000 1.200000 0.123000 0.149000
1517308748363587441	700 35 0.900000 0.072000 0.071000 1100 31 0.900000 0.976000 0.968000 600 39 1.000000 0.051000 0.051000 1.200000 0.092000 0.111000
1517308748923696358	700 36 0.900000 0.164000 0.161000 1100 31 0.900000 1.660000 1.653000 600 40 1.000000 0.051000 0.051000 1.200000 0.074000 0.089000
1517308749479623066	700 36 0.900000 0.204000 0.200000 1100 32 0.900000 1.671000 1.664000 600 41 1.000000 0.051000 0.051000 1.200000 0.073000 0.088000
1517308750039690691	700 37 0.900000 0.204000 0.200000 1100 32 0.900000 1.673000 1.666000 600 41 1.000000 0.051000 0.051000 1.200000 0.072000 0.087000
1517308750607700733	700 37 0.900000 0.205000 0.201000 1100 33 0.900000 1.673000 1.666000 600 42 1.000000 0.052000 0.052000 1.200000 0.072000 0.087000
1517308751171651983	700 38 0.900000 0.205000 0.201000 1100 33 0.900000 1.674000 1.667000 600 42 1.000000 0.052000 0.052000 1.200000 0.072000 0.087000
1517308751739689483	700 38 0.900000 0.205000 0.201000 1100 33 0.900000 1.673000 1.666000 600 42 1.000000 0.052000 0.052000 1.200000 0.071000 0.085000
1517308752295691650	700 38 0.900000 0.205000 0.201000 1100 34 0.900000 1.671000 1.664000 600 42 1.000000 0.052000 0.052000 1.200000 0.072000 0.087000
1517308752859648067	700 38 0.900000 0.204000 0.200000 1100 34 0.900000 1.674000 1.667000 600 43 1.000000 0.052000 0.052000 1.200000 0.072000 0.087000
1517308753427653567	700 39 0.900000 0.205000 0.201000 1100 34 0.900000 1.674000 1.667000 600 43 1.000000 0.052000 0.052000 1.200000 0.072000 0.087000
1517308753995704317	700 39 0.900000 0.205000 0.201000 1100 34 0.900000 1.675000 1.668000 600 43 1.000000 0.052000 0.052000 1.200000 0.072000 0.087000
1517308754555678234	700 39 0.900000 0.205000 0.201000 1100 34 0.900000 1.674000 1.667000 600 43 1.000000 0.052000 0.052000 1.200000 0.072000 0.087000
1517308755119648859	700 39 0.900000 0.205000 0.201000 1100 34 0.900000 1.676000 1.669000 600 43 1.000000 0.052000 0.052000 1.200000 0.072000 0.087000
1517308755675684525	700 39 0.900000 0.205000 0.201000 1100 34 0.900000 1.676000 1.669000 600 43 1.000000 0.052000 0.052000 1.200000 0.072000 0.087000
1517308756231682650	700 39 0.900000 0.205000 0.201000 1100 35 0.900000 1.676000 1.669000 600 43 1.000000 0.052000 0.052000 1.200000 0.073000 0.088000
1517308756795687317	700 39 0.900000 0.205000 0.201000 1100 35 0.900000 1.677000 1.670000 600 43 1.000000 0.052000 0.052000 1.200000 0.073000 0.088000
1517308757359708859	700 39 0.900000 0.205000 0.201000 1100 35 0.900000 1.676000 1.669000 600 44 1.000000 0.052000 0.052000 1.200000 0.072000 0.087000
1517308757923667026	700 40 0.900000 0.205000 0.201000 1100 35 0.900000 1.676000 1.669000 600 44 1.000000 0.052000 0.052000 1.200000 0.072000 0.087000
1517308758479759442	700 40 0.900000 0.206000 0.202000 1100 35 0.900000 1.677000 1.670000 600 44 1.000000 0.053000 0.053000 1.200000 0.072000 0.087000
1517308759035685026	700 40 0.900000 0.205000 0.201000 1100 35 0.900000 1.678000 1.671000 600 44 1.000000 0.052000 0.052000 1.200000 0.072000 0.087000
1517308759599669609	700 40 0.900000 0.206000 0.202000 1100 35 0.900000 1.678000 1.671000 600 44 1.000000 0.052000 0.052000 1.200000 0.073000 0.088000
1517308760163712568	700 40 0.900000 0.205000 0.201000 1100 35 0.900000 1.678000 1.671000 600 44 1.000000 0.052000 0.052000 1.200000 0.072000 0.087000
1517308760731695651	700 40 0.900000 0.205000 0.201000 1100 35 0.900000 1.679000 1.672000 600 44 1.000000 0.052000 0.052000 1.200000 0.072000 0.087000
1517308761299790359	700 40 0.900000 0.205000 0.201000 1100 35 0.900000 1.677000 1.670000 600 44 1.000000 0.052000 0.052000 1.200000 0.072000 0.087000
1517308761863726193	700 40 0.900000 0.206000 0.202000 1100 35 0.900000 1.676000 1.669000 600 44 1.000000 0.052000 0.052000 1.200000 0.073000 0.088000
1517308762431656735	700 40 0.900000 0.205000 0.201000 1100 35 0.900000 1.679000 1.672000 600 44 1.000000 0.052000 0.052000 1.200000 0.072000 0.087000
1517308762995714068	700 40 0.900000 0.205000 0.201000 1100 35 0.900000 1.679000 1.672000 600 44 1.000000 0.052000 0.052000 1.200000 0.073000 0.088000
1517308763559687735	700 40 0.900000 0.205000 0.201000 1100 36 0.900000 1.679000 1.672000 600 44 1.000000 0.052000 0.052000 1.200000 0.072000 0.087000
1517308764127682485	700 40 0.900000 0.205000 0.201000 1100 36 0.900000 1.676000 1.669000 600 44 1.000000 0.052000 0.052000 1.200000 0.072000 0.087000
1517308764687678735	700 40 0.900000 0.205000 0.201000 1100 36 0.900000 1.679000 1.672000 600 44 1.000000 0.052000 0.052000 1.200000 0.072000 0.087000
1517308765243691277	700 40 0.900000 0.206000 0.202000 1100 36 0.900000 1.679000 1.672000 600 45 1.000000 0.052000 0.052000 1.200000 0.073000 0.088000
1517308765807636985	700 40 0.900000 0.205000 0.201000 1100 36 0.900000 1.679000 1.672000 600 45 1.000000 0.052000 0.052000 1.200000 0.072000 0.087000
1517308766375716443	700 40 0.900000 0.206000 0.202000 1100 36 0.900000 1.678000 1.671000 600 45 1.000000 0.052000 0.052000 1.200000 0.072000 0.087000
1517308766927700568	700 40 0.900000 0.205000 0.201000 1100 36 0.900000 1.679000 1.672000 600 45 1.000000 0.052000 0.052000 1.200000 0.072000 0.087000
1517308767495635652	700 40 0.900000 0.206000 0.202000 1100 36 0.900000 1.677000 1.670000 600 45 1.000000 0.052000 0.052000 1.200000 0.072000 0.087000
1517308768063695735	700 41 0.900000 0.205000 0.201000 1100 36 0.900000 1.676000 1.669000 600 45 1.000000 0.052000 0.052000 1.200000 0.072000 0.087000
1517308768627664569	700 41 0.900000 0.205000 0.201000 1100 36 0.900000 1.679000 1.672000 600 45 1.000000 0.052000 0.052000 1.200000 0.072000 0.087000
1517308769191703360	700 41 0.900000 0.205000 0.201000 1100 36 0.900000 1.679000 1.672000 600 45 1.000000 0.052000 0.052000 1.200000 0.072000 0.087000
1517308769759695694	700 41 0.900000 0.205000 0.201000 1100 36 0.900000 1.679000 1.672000 600 45 1.000000 0.053000 0.053000 1.200000 0.072000 0.087000
1517308770315735694	700 41 0.900000 0.206000 0.202000 1100 36 0.900000 1.680000 1.673000 600 45 1.000000 0.052000 0.052000 1.200000 0.072000 0.087000
1517308770879678236	700 41 0.900000 0.206000 0.202000 1100 36 0.900000 1.679000 1.672000 600 45 1.000000 0.052000 0.052000 1.200000 0.072000 0.087000
1517308771431640861	700 41 0.900000 0.205000 0.201000 1100 36 0.900000 1.678000 1.671000 600 45 1.000000 0.052000 0.052000 1.200000 0.072000 0.087000
1517308771991620069	700 41 0.900000 0.205000 0.201000 1100 36 0.900000 1.678000 1.671000 600 45 1.000000 0.052000 0.052000 1.200000 0.072000 0.087000
1517308772551677277	700 41 0.900000 0.205000 0.201000 1100 36 0.900000 1.678000 1.671000 600 45 1.000000 0.053000 0.053000 1.200000 0.072000 0.087000
1517308773119676111	700 41 0.900000 0.205000 0.201000 1100 36 0.900000 1.679000 1.672000 600 45 1.000000 0.052000 0.052000 1.200000 0.073000 0.088000
1517308773683690194	700 41 0.900000 0.205000 0.201000 1100 36 0.900000 1.677000 1.670000 600 45 1.000000 0.052000 0.052000 1.200000 0.073000 0.088000
1517308774247695444	700 41 0.900000 0.206000 0.202000 1100 36 0.900000 1.676000 1.669000 600 45 1.000000 0.052000 0.052000 1.200000 0.072000 0.087000
1517308774807623153	700 41 0.900000 0.205000 0.201000 1100 36 0.900000 1.677000 1.670000 600 45 1.000000 0.052000 0.052000 1.200000 0.072000 0.087000
1517308775351689319	700 41 0.900000 0.206000 0.202000 1100 36 0.900000 1.679000 1.672000 600 45 1.000000 0.053000 0.053000 1.200000 0.071000 0.085000
1517308775915693611	700 41 0.900000 0.205000 0.201000 1100 36 0.900000 1.679000 1.672000 600 45 1.000000 0.052000 0.052000 1.200000 0.071000 0.085000
1517308776463719278	700 41 0.900000 0.205000 0.201000 1100 36 0.900000 1.680000 1.673000 600 45 1.000000 0.052000 0.052000 1.200000 0.072000 0.087000
1517308777027700736	700 41 0.900000 0.205000 0.201000 1100 36 0.900000 1.679000 1.672000 600 45 1.000000 0.052000 0.052000 1.200000 0.072000 0.087000
1517308777583691611	700 41 0.900000 0.206000 0.202000 1100 36 0.900000 1.681000 1.674000 600 45 1.000000 0.052000 0.052000 1.200000 0.072000 0.087000
1517308778163694028	700 41 0.900000 0.205000 0.201000 1100 36 0.900000 1.679000 1.672000 600 45 1.000000 0.053000 0.053000 1.200000 0.073000 0.088000
1517308778731645070	700 41 0.900000 0.205000 0.201000 1100 36 0.900000 1.678000 1.671000 600 45 1.000000 0.052000 0.052000 1.200000 0.073000 0.088000
1517308779295717653	700 41 0.900000 0.206000 0.202000 1100 37 0.900000 1.677000 1.670000 600 45 1.000000 0.052000 0.052000 1.200000 0.072000 0.087000
1517308779855675570	700 41 0.900000 0.205000 0.201000 1100 37 0.900000 1.680000 1.673000 600 45 1.000000 0.052000 0.052000 1.200000 0.072000 0.087000
1517308780415673695	700 41 0.900000 0.205000 0.201000 1100 37 0.900000 1.680000 1.673000 600 45 1.000000 0.053000 0.053000 1.200000 0.071000 0.085000
1517308780975635987	700 41 0.900000 0.206000 0.202000 1100 37 0.900000 1.679000 1.672000 600 45 1.000000 0.053000 0.053000 1.200000 0.072000 0.087000
1517308781527701612	700 41 0.900000 0.205000 0.201000 1100 37 0.900000 1.679000 1.672000 600 46 1.000000 0.052000 0.052000 1.200000 0.072000 0.087000
1517308782087676695	700 41 0.900000 0.205000 0.201000 1100 37 0.900000 1.680000 1.673000 600 46 1.000000 0.052000 0.052000 1.200000 0.072000 0.087000
1517308782639666279	700 41 0.900000 0.206000 0.202000 1100 37 0.900000 1.680000 1.673000 600 46 1.000000 0.052000 0.052000 1.200000 0.072000 0.087000
1517308783203673404	700 41 0.900000 0.205000 0.201000 1100 37 0.900000 1.680000 1.673000 600 45 1.000000 0.053000 0.053000 1.200000 0.073000 0.088000
1517308783751580820	700 41 0.900000 0.206000 0.202000 1100 37 0.900000 1.682000 1.675000 600 45 1.000000 0.053000 0.053000 1.200000 0.073000 0.088000
1517308784303698070	700 41 0.900000 0.206000 0.202000 1100 37 0.900000 1.679000 1.672000 600 45 1.000000 0.053000 0.053000 1.200000 0.072000 0.087000
1517308784867690654	700 41 0.900000 0.205000 0.201000 1100 37 0.900000 1.681000 1.674000 600 46 1.000000 0.052000 0.052000 1.200000 0.072000 0.087000
1517308785423682904	700 41 0.900000 0.205000 0.201000 1100 37 0.900000 1.681000 1.674000 600 46 1.000000 0.052000 0.052000 1.200000 0.072000 0.087000
1517308785983661529	700 41 0.900000 0.206000 0.202000 1100 37 0.900000 1.681000 1.674000 600 46 1.000000 0.052000 0.052000 1.200000 0.072000 0.087000
1517308786535691946	700 41 0.900000 0.206000 0.202000 1100 37 0.900000 1.680000 1.673000 600 46 1.000000 0.052000 0.052000 1.200000 0.072000 0.087000
1517308787099704862	700 42 0.900000 0.206000 0.202000 1100 37 0.900000 1.680000 1.673000 600 46 1.000000 0.052000 0.052000 1.200000 0.072000 0.087000
1517308787663681196	700 42 0.900000 0.206000 0.202000 1100 37 0.900000 1.679000 1.672000 600 46 1.000000 0.053000 0.053000 1.200000 0.072000 0.087000
1517308788227705988	700 41 0.900000 0.206000 0.202000 1100 37 0.900000 1.680000 1.673000 600 46 1.000000 0.052000 0.052000 1.200000 0.073000 0.088000
1517308788775637321	700 41 0.900000 0.206000 0.202000 1100 37 0.900000 1.678000 1.671000 600 46 1.000000 0.052000 0.052000 1.200000 0.073000 0.088000
1517308789323682821	700 41 0.900000 0.206000 0.202000 1100 37 0.900000 1.682000 1.675000 600 46 1.000000 0.052000 0.052000 1.200000 0.072000 0.087000
1517308789891706738	700 41 0.900000 0.205000 0.201000 1100 37 0.900000 1.680000 1.673000 600 46 1.000000 0.052000 0.052000 1.200000 0.072000 0.087000
1517308790439617780	700 41 0.900000 0.206000 0.202000 1100 37 0.900000 1.682000 1.675000 600 46 1.000000 0.053000 0.053000 1.200000 0.072000 0.087000
1517308791007706613	700 42 0.900000 0.205000 0.201000 1100 37 0.900000 1.681000 1.674000 600 46 1.000000 0.052000 0.052000 1.200000 0.071000 0.085000
1517308791571664363	700 42 0.900000 0.205000 0.201000 1100 37 0.900000 1.682000 1.675000 600 46 1.000000 0.052000 0.052000 1.200000 0.072000 0.087000
1517308792135686821	700 42 0.900000 0.206000 0.202000 1100 37 0.900000 1.681000 1.674000 600 46 1.000000 0.053000 0.053000 1.200000 0.072000 0.087000
1517308792699639946	700 42 0.900000 0.206000 0.202000 1100 37 0.900000 1.681000 1.674000 600 46 1.000000 0.052000 0.052000 1.200000 0.072000 0.087000
1517308793263664363	700 42 0.900000 0.206000 0.202000 1100 37 0.900000 1.681000 1.674000 600 46 1.000000 0.052000 0.052000 1.200000 0.072000 0.087000
1517308793827671572	700 42 0.900000 0.205000 0.201000 1100 37 0.900000 1.683000 1.676000 600 46 1.000000 0.053000 0.053000 1.200000 0.071000 0.085000
1517308794387698363	700 41 0.900000 0.205000 0.201000 1100 37 0.900000 1.682000 1.675000 600 46 1.000000 0.053000 0.053000 1.200000 0.072000 0.087000
1517308794951682322	700 42 0.900000 0.205000 0.201000 1100 37 0.900000 1.682000 1.675000 600 46 1.000000 0.053000 0.053000 1.200000 0.072000 0.087000
1517308795519664322	700 42 0.900000 0.206000 0.202000 1100 37 0.900000 1.681000 1.674000 600 46 1.000000 0.053000 0.053000 1.200000 0.072000 0.087000
1517308796079671322	700 42 0.900000 0.205000 0.201000 1100 37 0.900000 1.682000 1.675000 600 46 1.000000 0.052000 0.052000 1.200000 0.072000 0.087000
1517308796651700697	700 42 0.900000 0.205000 0.201000 1100 37 0.900000 1.680000 1.673000 600 46 1.000000 0.053000 0.053000 1.200000 0.072000 0.087000
1517308797215711114	700 42 0.900000 0.205000 0.201000 1100 37 0.900000 1.681000 1.674000 600 46 1.000000 0.052000 0.052000 1.200000 0.073000 0.088000
1517308797767674864	700 42 0.900000 0.206000 0.202000 1100 37 0.900000 1.682000 1.675000 600 46 1.000000 0.052000 0.052000 1.200000 0.072000 0.087000
1517308798331675864	700 42 0.900000 0.206000 0.202000 1100 37 0.900000 1.681000 1.674000 600 46 1.000000 0.053000 0.053000 1.200000 0.072000 0.087000
1517308798895657947	700 42 0.900000 0.206000 0.202000 1100 37 0.900000 1.681000 1.674000 600 46 1.000000 0.052000 0.052000 1.200000 0.072000 0.087000
1517308799455677364	700 42 0.900000 0.206000 0.202000 1100 37 0.900000 1.682000 1.675000 600 46 1.000000 0.052000 0.052000 1.200000 0.072000 0.087000
1517308800019674697	700 42 0.900000 0.206000 0.202000 1100 37 0.900000 1.682000 1.675000 600 46 1.000000 0.053000 0.053000 1.200000 0.073000 0.088000
1517308800575738947	700 42 0.900000 0.206000 0.202000 1100 37 0.900000 1.681000 1.674000 600 46 1.000000 0.052000 0.052000 1.200000 0.073000 0.088000
1517308801139717114	700 42 0.900000 0.206000 0.202000 1100 37 0.900000 1.682000 1.675000 600 46 1.000000 0.053000 0.053000 1.200000 0.073000 0.088000
1517308801699663989	700 42 0.900000 0.206000 0.202000 1100 37 0.900000 1.680000 1.673000 600 46 1.000000 0.053000 0.053000 1.200000 0.073000 0.088000
1517308802263654323	700 42 0.900000 0.206000 0.202000 1100 37 0.900000 1.682000 1.675000 600 46 1.000000 0.053000 0.053000 1.200000 0.072000 0.087000
1517308802827646364	700 42 0.900000 0.206000 0.202000 1100 37 0.900000 1.682000 1.675000 600 46 1.000000 0.053000 0.053000 1.200000 0.072000 0.087000
1517308803395713239	700 42 0.900000 0.206000 0.202000 1100 37 0.900000 1.681000 1.674000 600 46 1.000000 0.053000 0.053000 1.200000 0.072000 0.087000
1517308803947695864	700 42 0.900000 0.205000 0.201000 1100 37 0.900000 1.681000 1.674000 600 46 1.000000 0.053000 0.053000 1.200000 0.072000 0.087000
1517308804507671740	700 42 0.900000 0.206000 0.202000 1100 37 0.900000 1.683000 1.676000 600 46 1.000000 0.053000 0.053000 1.200000 0.073000 0.088000
1517308805071710865	700 42 0.900000 0.207000 0.203000 1100 37 0.900000 1.682000 1.675000 600 46 1.000000 0.053000 0.053000 1.200000 0.073000 0.088000
1517308805619671573	700 42 0.900000 0.206000 0.202000 1100 37 0.900000 1.680000 1.673000 600 46 1.000000 0.053000 0.053000 1.200000 0.072000 0.087000
1517308806187688240	700 42 0.900000 0.206000 0.202000 1100 37 0.900000 1.682000 1.675000 600 46 1.000000 0.053000 0.053000 1.200000 0.073000 0.088000
1517308806763670281	700 42 0.900000 0.206000 0.202000 1100 37 0.900000 1.682000 1.675000 600 46 1.000000 0.052000 0.052000 1.200000 0.072000 0.087000
1517308807319657032	700 42 0.900000 0.206000 0.202000 1100 37 0.900000 1.681000 1.674000 600 46 1.000000 0.052000 0.052000 1.200000 0.072000 0.087000
1517308807883673032	700 42 0.900000 0.206000 0.202000 1100 37 0.900000 1.679000 1.672000 600 46 1.000000 0.052000 0.052000 1.200000 0.073000 0.088000
1517308808447637323	700 42 0.900000 0.206000 0.202000 1100 38 0.900000 1.679000 1.672000 600 46 1.000000 0.052000 0.052000 1.200000 0.073000 0.088000
1517308809015682782	700 42 0.900000 0.206000 0.202000 1100 37 0.900000 1.679000 1.672000 600 46 1.000000 0.052000 0.052000 1.200000 0.073000 0.088000
1517308809579697448	700 42 0.900000 0.206000 0.202000 1100 37 0.900000 1.679000 1.672000 600 46 1.000000 0.052000 0.052000 1.200000 0.073000 0.088000
1517308810116163574	700 42 0.900000 0.206000 0.202000 1100 37 0.900000 1.680000 1.673000 600 46 1.000000 0.052000 0.052000 1.200000 0.073000 0.088000
1517308810683660074	700 42 0.900000 0.206000 0.202000 1100 37 0.900000 1.682000 1.675000 600 46 1.000000 0.053000 0.053000 1.200000 0.072000 0.087000
1517308811239661407	700 42 0.900000 0.206000 0.202000 1100 37 0.900000 1.682000 1.675000 600 46 1.000000 0.053000 0.053000 1.200000 0.071000 0.085000
1517308811807700615	700 42 0.900000 0.205000 0.201000 1100 37 0.900000 1.681000 1.674000 600 46 1.000000 0.053000 0.053000 1.200000 0.071000 0.085000
1517308812367698699	700 42 0.900000 0.206000 0.202000 1100 37 0.900000 1.679000 1.672000 600 46 1.000000 0.053000 0.053000 1.200000 0.072000 0.087000
1517308812931639282	700 42 0.900000 0.206000 0.202000 1100 37 0.900000 1.679000 1.672000 600 46 1.000000 0.053000 0.053000 1.200000 0.073000 0.088000
1517308813483664449	700 42 0.900000 0.206000 0.202000 1100 37 0.900000 1.681000 1.674000 600 46 1.000000 0.052000 0.052000 1.200000 0.073000 0.088000
1517308814047681032	700 42 0.900000 0.206000 0.202000 1100 37 0.900000 1.682000 1.675000 600 46 1.000000 0.053000 0.053000 1.200000 0.072000 0.087000
1517308814607888824	700 42 0.900000 0.206000 0.202000 1100 37 0.900000 1.682000 1.675000 600 46 1.000000 0.052000 0.052000 1.200000 0.072000 0.087000
1517308815163702741	700 42 0.900000 0.206000 0.202000 1100 37 0.900000 1.681000 1.674000 600 46 1.000000 0.052000 0.052000 1.200000 0.073000 0.088000
1517308815727628949	700 42 0.900000 0.206000 0.202000 1100 37 0.900000 1.682000 1.675000 600 46 1.000000 0.052000 0.052000 1.200000 0.072000 0.087000
1517308816291689741	700 42 0.900000 0.206000 0.202000 1100 37 0.900000 1.683000 1.676000 600 46 1.000000 0.053000 0.053000 1.200000 0.072000 0.087000
1517308816851699533	700 42 0.900000 0.206000 0.202000 1100 38 0.900000 1.682000 1.675000 600 46 1.000000 0.053000 0.053000 1.200000 0.072000 0.087000
1517308817419700241	700 42 0.900000 0.206000 0.202000 1100 37 0.900000 1.682000 1.675000 600 46 1.000000 0.053000 0.053000 1.200000 0.072000 0.087000
1517308817991715908	700 42 0.900000 0.205000 0.201000 1100 38 0.900000 1.679000 1.672000 600 46 1.000000 0.053000 0.053000 1.200000 0.072000 0.087000
1517308818543737491	700 42 0.900000 0.206000 0.202000 1100 37 0.900000 1.684000 1.677000 600 46 1.000000 0.053000 0.053000 1.200000 0.073000 0.088000
1517308819107640491	700 42 0.900000 0.206000 0.202000 1100 38 0.900000 1.681000 1.674000 600 46 1.000000 0.053000 0.053000 1.200000 0.072000 0.087000
1517308819614867950	700 39 0.900000 0.206000 0.202000 1100 37 0.900000 1.680000 1.673000 600 43 1.000000 0.052000 0.052000 1.200000 0.072000 0.087000
1517308820121481200	700 37 0.900000 0.071000 0.070000 1100 35 1.000000 0.318000 0.318000 600 40 1.000000 0.052000 0.052000 1.200000 0.040000 0.048000
1517308820627917450	700 36 0.900000 0.089000 0.087000 1100 35 1.000000 0.140000 0.140000 600 39 1.000000 0.052000 0.052000 1.200000 0.025000 0.030000
1517308821134421783	700 35 0.900000 0.089000 0.087000 1100 34 1.000000 0.132000 0.132000 600 38 1.000000 0.052000 0.052000 1.200000 0.026000 0.031000
1517308821640998908	700 34 0.900000 0.088000 0.086000 1100 33 1.000000 0.157000 0.157000 600 37 1.000000 0.052000 0.052000 1.200000 0.028000 0.033000
1517308822147500992	700 34 0.900000 0.089000 0.087000 1100 33 1.000000 0.127000 0.127000 600 37 1.000000 0.052000 0.052000 1.200000 0.026000 0.031000
1517308822653994783	700 33 0.900000 0.089000 0.087000 1100 33 1.000000 0.137000 0.137000 600 36 1.000000 0.052000 0.052000 1.200000 0.025000 0.030000
1517308823160363200	700 33 0.900000 0.088000 0.086000 1100 32 1.000000 0.127000 0.127000 600 36 1.000000 0.052000 0.052000 1.200000 0.025000 0.030000
1517308823666750075	700 33 0.900000 0.089000 0.087000 1100 32 1.000000 0.133000 0.133000 600 36 1.000000 0.052000 0.052000 1.200000 0.025000 0.030000
1517308824173005450	700 33 0.900000 0.088000 0.086000 1100 32 1.000000 0.117000 0.117000 600 36 1.000000 0.052000 0.052000 1.200000 0.025000 0.030000
1517308824679387867	700 32 0.900000 0.088000 0.086000 1100 31 1.000000 0.118000 0.118000 600 35 1.000000 0.051000 0.051000 1.200000 0.025000 0.030000
1517308825185738742	700 32 0.900000 0.088000 0.086000 1100 31 1.000000 0.120000 0.120000 600 35 1.000000 0.051000 0.051000 1.200000 0.025000 0.030000
1517308825692051034	700 32 0.900000 0.088000 0.086000 1100 31 1.000000 0.118000 0.118000 600 35 1.000000 0.052000 0.052000 1.200000 0.025000 0.030000
1517308826198299242	700 32 0.900000 0.088000 0.086000 1100 31 1.000000 0.125000 0.125000 600 35 1.000000 0.052000 0.052000 1.200000 0.025000 0.030000
1517308826704771659	700 32 0.900000 0.088000 0.086000 1100 31 1.000000 0.130000 0.130000 600 35 1.000000 0.052000 0.052000 1.200000 0.025000 0.030000
1517308827211155451	700 32 0.900000 0.088000 0.086000 1100 31 1.000000 0.124000 0.124000 600 35 1.000000 0.051000 0.051000 1.200000 0.026000 0.031000
1517308827717464992	700 31 0.900000 0.088000 0.086000 1100 31 1.000000 0.136000 0.136000 600 35 1.000000 0.051000 0.051000 1.200000 0.025000 0.030000
1517308828223951617	700 31 0.900000 0.088000 0.086000 1100 31 1.000000 0.125000 0.125000 600 34 1.000000 0.051000 0.051000 1.200000 0.025000 0.030000
1517308828730297409	700 31 0.900000 0.088000 0.086000 1100 30 1.000000 0.132000 0.132000 600 34 1.000000 0.051000 0.051000 1.200000 0.025000 0.030000
1517308829236603034	700 31 0.900000 0.088000 0.086000 1100 30 1.000000 0.116000 0.116000 600 34 1.000000 0.051000 0.051000 1.200000 0.026000 0.031000
1517308829743012659	700 31 0.900000 0.088000 0.086000 1100 30 1.000000 0.119000 0.119000 600 34 1.000000 0.052000 0.052000 1.200000 0.025000 0.030000
1517308830249404743	700 31 0.900000 0.088000 0.086000 1100 30 1.000000 0.118000 0.118000 600 34 1.000000 0.051000 0.051000 1.200000 0.025000 0.030000
1517308830756139784	700 31 0.900000 0.088000 0.086000 1100 30 1.000000 0.159000 0.159000 600 34 1.000000 0.052000 0.052000 1.200000 0.029000 0.035000
1517308831262699493	700 31 0.900000 0.088000 0.086000 1100 30 1.000000 0.114000 0.114000 600 34 1.000000 0.051000 0.051000 1.200000 0.025000 0.030000
1517308831770066409	700 31 0.900000 0.087000 0.085000 1100 30 1.000000 0.115000 0.115000 600 34 1.000000 0.051000 0.051000 1.200000 0.025000 0.030000
1517308832277020285	700 31 0.900000 0.089000 0.087000 1100 30 0.900000 0.293000 0.292000 600 34 1.000000 0.051000 0.051000 1.200000 0.036000 0.043000
1517308832783679535	700 31 0.900000 0.088000 0.086000 1100 30 1.000000 0.144000 0.144000 600 34 1.000000 0.051000 0.051000 1.200000 0.026000 0.031000
1517308833290578993	700 31 0.900000 0.089000 0.087000 1100 30 1.000000 0.198000 0.198000 600 34 1.000000 0.051000 0.051000 1.200000 0.033000 0.039000
1517308833797233576	700 31 0.900000 0.091000 0.089000 1100 30 1.000000 0.196000 0.196000 600 34 1.000000 0.051000 0.051000 1.200000 0.032000 0.038000
1517308834303826160	700 31 0.900000 0.088000 0.086000 1100 30 1.000000 0.118000 0.118000 600 34 1.000000 0.051000 0.051000 1.200000 0.025000 0.030000
1517308834810410493	700 31 0.900000 0.088000 0.086000 1100 30 1.000000 0.118000 0.118000 600 34 1.000000 0.051000 0.051000 1.200000 0.025000 0.030000
1517308835316828202	700 31 0.900000 0.088000 0.086000 1100 30 1.000000 0.118000 0.118000 600 33 1.000000 0.051000 0.051000 1.200000 0.025000 0.030000
1517308835823262577	700 30 0.900000 0.088000 0.086000 1100 30 1.000000 0.115000 0.115000 600 33 1.000000 0.051000 0.051000 1.200000 0.026000 0.031000
1517308836329734285	700 30 0.900000 0.087000 0.085000 1100 30 1.000000 0.114000 0.114000 600 33 1.000000 0.051000 0.051000 1.200000 0.025000 0.030000
1517308836836167827	700 30 0.900000 0.088000 0.086000 1100 30 1.000000 0.119000 0.119000 600 33 1.000000 0.051000 0.051000 1.200000 0.025000 0.030000
1517308837342508285	700 30 0.900000 0.088000 0.086000 1100 30 1.000000 0.117000 0.117000 600 33 1.000000 0.051000 0.051000 1.200000 0.025000 0.030000
1517308837848902952	700 30 0.900000 0.088000 0.086000 1100 29 1.000000 0.117000 0.117000 600 33 1.000000 0.051000 0.051000 1.200000 0.025000 0.030000
1517308838355199535	700 30 0.900000 0.088000 0.086000 1100 29 1.000000 0.115000 0.115000 600 33 1.000000 0.051000 0.051000 1.200000 0.025000 0.030000
1517308838861606577	700 30 0.900000 0.088000 0.086000 1100 29 1.000000 0.132000 0.132000 600 33 1.000000 0.051000 0.051000 1.200000 0.026000 0.031000
1517308839367942785	700 30 0.900000 0.088000 0.086000 1100 29 1.000000 0.120000 0.120000 600 33 1.000000 0.051000 0.051000 1.200000 0.025000 0.030000
1517308839874203744	700 30 0.900000 0.088000 0.086000 1100 29 1.000000 0.136000 0.136000 600 33 1.000000 0.051000 0.051000 1.200000 0.025000 0.030000
1517308840380413827	700 30 0.900000 0.088000 0.086000 1100 29 1.000000 0.117000 0.117000 600 33 1.000000 0.051000 0.051000 1.200000 0.025000 0.030000
1517308840886760119	700 30 0.900000 0.088000 0.086000 1100 29 1.000000 0.116000 0.116000 600 33 1.000000 0.051000 0.051000 1.200000 0.025000 0.030000
1517308841393097161	700 30 0.900000 0.088000 0.086000 1100 29 1.000000 0.113000 0.113000 600 33 1.000000 0.051000 0.051000 1.200000 0.025000 0.030000
1517308841900903286	700 30 0.900000 0.087000 0.085000 1100 29 1.000000 0.115000 0.115000 600 36 1.000000 0.051000 0.051000 1.200000 0.026000 0.031000
1517308842408053286	700 31 0.900000 0.034000 0.033000 1100 29 0.900000 0.707000 0.701000 600 38 1.000000 0.051000 0.051000 1.200000 0.035000 0.042000
1517308842914976744	700 31 0.900000 0.029000 0.028000 1100 30 0.900000 0.668000 0.661000 600 39 1.000000 0.051000 0.051000 1.200000 0.027000 0.032000
1517308843422053161	700 31 0.900000 0.031000 0.030000 1100 30 0.900000 0.720000 0.713000 600 39 1.000000 0.052000 0.052000 1.200000 0.031000 0.037000
1517308843929035619	700 31 0.900000 0.030000 0.029000 1100 30 0.900000 0.691000 0.685000 600 39 1.000000 0.051000 0.051000 1.200000 0.033000 0.039000
1517308844435945828	700 31 0.900000 0.028000 0.027000 1100 30 0.900000 0.672000 0.665000 600 39 1.000000 0.052000 0.052000 1.200000 0.027000 0.032000
1517308844943031453	700 31 0.900000 0.028000 0.027000 1100 30 0.900000 0.677000 0.670000 600 39 1.000000 0.052000 0.052000 1.200000 0.027000 0.032000
1517308845450049078	700 31 0.900000 0.029000 0.028000 1100 30 0.900000 0.691000 0.684000 600 39 1.000000 0.051000 0.051000 1.200000 0.026000 0.031000
1517308845956889661	700 31 0.900000 0.029000 0.028000 1100 30 0.900000 0.670000 0.663000 600 39 1.000000 0.051000 0.051000 1.200000 0.025000 0.030000
1517308846463718578	700 31 0.900000 0.029000 0.028000 1100 30 0.900000 0.686000 0.679000 600 39 1.000000 0.052000 0.052000 1.200000 0.027000 0.032000
1517308846970723453	700 31 0.900000 0.029000 0.028000 1100 30 0.900000 0.671000 0.664000 600 39 1.000000 0.051000 0.051000 1.200000 0.026000 0.031000
1517308847477767161	700 31 0.900000 0.029000 0.028000 1100 30 0.900000 0.688000 0.681000 600 40 1.000000 0.051000 0.051000 1.200000 0.027000 0.032000
1517308847984162995	700 31 0.900000 0.029000 0.028000 1100 30 0.900000 0.679000 0.673000 600 39 1.000000 0.052000 0.052000 1.200000 0.026000 0.031000
1517308848490760328	700 32 0.900000 0.028000 0.027000 1100 30 0.900000 0.680000 0.674000 600 40 1.000000 0.051000 0.051000 1.200000 0.025000 0.030000
1517308848997107203	700 32 0.900000 0.029000 0.028000 1100 30 0.900000 0.700000 0.693000 600 40 1.000000 0.052000 0.052000 1.200000 0.032000 0.038000
1517308849503420328	700 31 0.900000 0.029000 0.028000 1100 30 0.900000 0.681000 0.674000 600 40 1.000000 0.051000 0.051000 1.200000 0.026000 0.031000
1517308850009741412	700 31 0.900000 0.028000 0.027000 1100 30 0.900000 0.678000 0.671000 600 40 1.000000 0.052000 0.052000 1.200000 0.027000 0.032000
1517308850515953328	700 31 0.900000 0.028000 0.027000 1100 30 0.900000 0.680000 0.673000 600 40 1.000000 0.051000 0.051000 1.200000 0.026000 0.031000
1517308851022289995	700 32 0.900000 0.028000 0.027000 1100 30 0.900000 0.676000 0.669000 600 40 1.000000 0.052000 0.052000 1.200000 0.026000 0.031000
1517308851528539787	700 32 0.900000 0.029000 0.028000 1100 30 0.900000 0.678000 0.671000 600 40 1.000000 0.052000 0.052000 1.200000 0.026000 0.031000
1517308852034781245	700 31 0.900000 0.028000 0.027000 1100 30 0.900000 0.674000 0.667000 600 40 1.000000 0.051000 0.051000 1.200000 0.028000 0.033000
1517308852541175454	700 32 0.900000 0.029000 0.028000 1100 30 0.900000 0.683000 0.676000 600 40 1.000000 0.051000 0.051000 1.200000 0.026000 0.031000
1517308853048932912	700 31 0.900000 0.030000 0.029000 1100 30 0.900000 0.692000 0.685000 600 40 1.000000 0.052000 0.052000 1.200000 0.030000 0.036000
1517308853555649204	700 32 0.900000 0.030000 0.029000 1100 30 0.900000 0.680000 0.673000 600 37 1.000000 0.052000 0.052000 1.200000 0.026000 0.031000
1517308854061969162	700 32 0.900000 0.030000 0.029000 1100 30 0.900000 0.738000 0.731000 600 36 1.000000 0.051000 0.051000 1.200000 0.033000 0.039000
1517308854568250745	700 32 0.900000 0.031000 0.030000 1100 31 0.900000 0.705000 0.698000 600 36 1.000000 0.051000 0.051000 1.200000 0.029000 0.035000
1517308855074423829	700 32 0.900000 0.029000 0.028000 1100 31 0.900000 0.685000 0.678000 600 36 1.000000 0.052000 0.052000 1.200000 0.026000 0.031000
1517308855580435162	700 32 0.900000 0.029000 0.028000 1100 31 0.900000 0.680000 0.673000 600 36 1.000000 0.052000 0.052000 1.200000 0.026000 0.031000
1517308856086620329	700 32 0.900000 0.029000 0.028000 1100 31 0.900000 0.678000 0.671000 600 36 1.000000 0.051000 0.051000 1.200000 0.025000 0.030000
1517308856592730537	700 32 0.900000 0.029000 0.028000 1100 31 0.900000 0.673000 0.666000 600 36 1.000000 0.052000 0.052000 1.200000 0.025000 0.030000
1517308857098874537	700 32 0.900000 0.029000 0.028000 1100 31 0.900000 0.672000 0.665000 600 36 1.000000 0.052000 0.052000 1.200000 0.025000 0.030000
1517308857605094621	700 32 0.900000 0.029000 0.028000 1100 31 0.900000 0.683000 0.676000 600 36 1.000000 0.051000 0.051000 1.200000 0.026000 0.031000
1517308858111312996	700 32 0.900000 0.030000 0.029000 1100 31 0.900000 0.708000 0.701000 600 36 1.000000 0.052000 0.052000 1.200000 0.029000 0.035000
1517308858617390246	700 32 0.900000 0.029000 0.028000 1100 31 0.900000 0.685000 0.678000 600 36 1.000000 0.052000 0.052000 1.200000 0.026000 0.031000
1517308859123604454	700 32 0.900000 0.029000 0.028000 1100 31 0.900000 0.698000 0.691000 600 36 1.000000 0.052000 0.052000 1.200000 0.030000 0.036000
1517308859629896121	700 32 0.900000 0.030000 0.029000 1100 31 0.900000 0.695000 0.688000 600 36 1.000000 0.052000 0.052000 1.200000 0.034000 0.041000
1517308860135987829	700 32 0.900000 0.028000 0.027000 1100 31 0.900000 0.679000 0.672000 600 36 1.000000 0.051000 0.051000 1.200000 0.027000 0.032000
1517308860642106121	700 32 0.900000 0.030000 0.029000 1100 31 0.900000 0.681000 0.674000 600 36 1.000000 0.052000 0.052000 1.200000 0.026000 0.031000
1517308861148170121	700 32 0.900000 0.029000 0.028000 1100 31 0.900000 0.676000 0.669000 600 36 1.000000 0.052000 0.052000 1.200000 0.026000 0.031000
1517308861654350580	700 32 0.900000 0.029000 0.028000 1100 31 0.900000 0.684000 0.677000 600 36 1.000000 0.051000 0.051000 1.200000 0.025000 0.030000
1517308862160865580	700 32 0.900000 0.032000 0.031000 1100 31 0.900000 0.656000 0.650000 600 36 1.000000 0.051000 0.051000 1.200000 0.039000 0.047000
1517308862667821371	700 31 0.900000 0.030000 0.029000 1100 30 1.000000 0.147000 0.147000 600 35 1.000000 0.051000 0.051000 1.200000 0.029000 0.035000
