#Timestamp	CPU(0) Frequency(MHz)	CPU(0) Temperature(C)	A7 Voltage(V)	A7 Current(A)	A7 Power(W)	CPU(4) Frequency(MHz)	CPU(4) Temperature(C)	A15 Voltage(V)	A15 Current(A)	A15 Power(W)	GPU Frequency(MHz)	GPU Temperature(C)	GPU Voltage(V)	GPU Current(A)	GPU Power(W)	RAM Voltage(V)	RAM Current(A)	RAM Power(W)
1538246806510801830	700 30 1.000000 0.046000 0.046000 1100 25 0.900000 0.863000 0.858000 600 34 1.000000 0.050000 0.050000 1.200000 0.035000 0.042000
1538246807070727830	700 32 0.900000 0.257000 0.250000 1100 26 0.900000 2.288000 2.283000 600 36 1.000000 0.050000 0.050000 1.200000 0.030000 0.036000
1538246807618725789	700 33 0.900000 0.257000 0.250000 1100 27 0.900000 2.285000 2.280000 600 38 1.000000 0.050000 0.050000 1.200000 0.029000 0.035000
1538246808170728247	700 34 0.900000 0.258000 0.251000 1100 28 0.900000 2.288000 2.283000 600 39 1.000000 0.050000 0.050000 1.200000 0.030000 0.036000
1538246808730754664	700 35 0.900000 0.258000 0.251000 1100 28 0.900000 2.301000 2.296000 600 39 1.000000 0.050000 0.050000 1.200000 0.029000 0.035000
1538246809282701664	700 35 0.900000 0.259000 0.252000 1100 29 0.900000 2.299000 2.294000 600 40 1.000000 0.050000 0.050000 1.200000 0.029000 0.035000
1538246809830720539	700 36 0.900000 0.259000 0.252000 1100 29 0.900000 2.300000 2.295000 600 40 1.000000 0.051000 0.051000 1.200000 0.029000 0.035000
1538246810382702289	700 36 0.900000 0.259000 0.252000 1100 29 0.900000 2.302000 2.297000 600 41 1.000000 0.050000 0.050000 1.200000 0.029000 0.035000
1538246810938727539	700 36 0.900000 0.259000 0.252000 1100 30 0.900000 2.302000 2.297000 600 41 1.000000 0.050000 0.050000 1.200000 0.029000 0.035000
1538246811494668581	700 36 0.900000 0.259000 0.252000 1100 30 0.900000 2.298000 2.293000 600 41 1.000000 0.050000 0.050000 1.200000 0.029000 0.035000
1538246812042715081	700 37 0.900000 0.259000 0.252000 1100 30 0.900000 2.298000 2.293000 600 41 1.000000 0.050000 0.050000 1.200000 0.029000 0.035000
1538246812602724873	700 37 0.900000 0.259000 0.252000 1100 31 0.900000 2.296000 2.291000 600 42 1.000000 0.050000 0.050000 1.200000 0.029000 0.035000
1538246813162750831	700 37 0.900000 0.259000 0.252000 1100 31 0.900000 2.301000 2.296000 600 42 1.000000 0.050000 0.050000 1.200000 0.029000 0.035000
1538246813722745331	700 37 0.900000 0.259000 0.252000 1100 31 0.900000 2.295000 2.290000 600 42 1.000000 0.051000 0.051000 1.200000 0.029000 0.035000
1538246814278725540	700 37 0.900000 0.259000 0.252000 1100 31 0.900000 2.305000 2.300000 600 42 1.000000 0.050000 0.050000 1.200000 0.029000 0.035000
1538246814826704623	700 37 0.900000 0.259000 0.252000 1100 31 0.900000 2.304000 2.299000 600 42 1.000000 0.051000 0.051000 1.200000 0.029000 0.035000
1538246815378696998	700 38 0.900000 0.259000 0.252000 1100 31 0.900000 2.305000 2.300000 600 42 1.000000 0.050000 0.050000 1.200000 0.029000 0.035000
1538246815930698373	700 38 0.900000 0.259000 0.252000 1100 31 0.900000 2.320000 2.315000 600 42 1.000000 0.051000 0.051000 1.200000 0.029000 0.035000
1538246816478740332	700 38 0.900000 0.259000 0.252000 1100 31 0.900000 2.320000 2.315000 600 43 1.000000 0.051000 0.051000 1.200000 0.029000 0.035000
1538246817030763665	700 38 0.900000 0.259000 0.252000 1100 31 0.900000 2.318000 2.313000 600 43 1.000000 0.051000 0.051000 1.200000 0.029000 0.035000
1538246817586695082	700 38 0.900000 0.259000 0.252000 1100 32 0.900000 2.313000 2.308000 600 43 1.000000 0.050000 0.050000 1.200000 0.029000 0.035000
1538246818146730332	700 38 0.900000 0.259000 0.252000 1100 32 0.900000 2.313000 2.308000 600 43 1.000000 0.051000 0.051000 1.200000 0.029000 0.035000
1538246818710711707	700 38 0.900000 0.259000 0.252000 1100 32 0.900000 2.319000 2.314000 600 43 1.000000 0.051000 0.051000 1.200000 0.029000 0.035000
1538246819258877957	700 38 0.900000 0.259000 0.252000 1100 32 0.900000 2.320000 2.315000 600 43 1.000000 0.051000 0.051000 1.200000 0.028000 0.033000
1538246819818758332	700 38 0.900000 0.259000 0.252000 1100 32 0.900000 2.319000 2.314000 600 43 1.000000 0.051000 0.051000 1.200000 0.029000 0.035000
1538246820382722915	700 38 0.900000 0.259000 0.252000 1100 32 0.900000 2.320000 2.315000 600 43 1.000000 0.051000 0.051000 1.200000 0.029000 0.035000
1538246820942726957	700 38 0.900000 0.259000 0.252000 1100 32 0.900000 2.321000 2.316000 600 43 1.000000 0.051000 0.051000 1.200000 0.029000 0.035000
1538246821486712291	700 38 0.900000 0.259000 0.252000 1100 32 0.900000 2.320000 2.315000 600 43 1.000000 0.051000 0.051000 1.200000 0.029000 0.035000
1538246822038706666	700 38 0.900000 0.259000 0.252000 1100 32 0.900000 2.320000 2.315000 600 43 1.000000 0.051000 0.051000 1.200000 0.029000 0.035000
1538246822598723499	700 38 0.900000 0.259000 0.252000 1100 32 0.900000 2.317000 2.312000 600 43 1.000000 0.051000 0.051000 1.200000 0.029000 0.035000
1538246823162760624	700 38 0.900000 0.259000 0.252000 1100 32 0.900000 2.320000 2.315000 600 43 1.000000 0.051000 0.051000 1.200000 0.029000 0.035000
1538246823714654832	700 38 0.900000 0.259000 0.252000 1100 32 0.900000 2.321000 2.316000 600 43 1.000000 0.051000 0.051000 1.200000 0.029000 0.035000
1538246824258766249	700 39 0.900000 0.259000 0.252000 1100 32 0.900000 2.310000 2.305000 600 43 1.000000 0.051000 0.051000 1.200000 0.029000 0.035000
1538246824818731041	700 38 0.900000 0.259000 0.252000 1100 32 0.900000 2.330000 2.325000 600 43 1.000000 0.051000 0.051000 1.200000 0.029000 0.035000
1538246825370709916	700 38 0.900000 0.259000 0.252000 1100 32 0.900000 2.362000 2.357000 600 44 1.000000 0.051000 0.051000 1.200000 0.029000 0.035000
1538246825922740166	700 39 0.900000 0.259000 0.252000 1100 32 0.900000 2.364000 2.359000 600 44 1.000000 0.050000 0.050000 1.200000 0.029000 0.035000
1538246826458757374	700 38 0.900000 0.259000 0.252000 1100 32 0.900000 2.362000 2.357000 600 44 1.000000 0.051000 0.051000 1.200000 0.029000 0.035000
1538246827006740208	700 39 0.900000 0.259000 0.252000 1100 32 0.900000 2.362000 2.357000 600 44 1.000000 0.051000 0.051000 1.200000 0.029000 0.035000
1538246827570774833	700 39 0.900000 0.259000 0.252000 1100 32 0.900000 2.362000 2.357000 600 44 1.000000 0.051000 0.051000 1.200000 0.028000 0.033000
1538246828118710250	700 39 0.900000 0.259000 0.252000 1100 32 0.900000 2.349000 2.344000 600 44 1.000000 0.051000 0.051000 1.200000 0.029000 0.035000
1538246828682746083	700 39 0.900000 0.259000 0.252000 1100 32 0.900000 2.350000 2.345000 600 44 1.000000 0.051000 0.051000 1.200000 0.029000 0.035000
1538246829242775041	700 39 0.900000 0.259000 0.252000 1100 32 0.900000 2.350000 2.345000 600 44 1.000000 0.051000 0.051000 1.200000 0.029000 0.035000
1538246829798776458	700 39 0.900000 0.259000 0.252000 1100 32 0.900000 2.355000 2.350000 600 44 1.000000 0.051000 0.051000 1.200000 0.029000 0.035000
1538246830346737917	700 39 0.900000 0.259000 0.252000 1100 32 0.900000 2.362000 2.357000 600 44 1.000000 0.051000 0.051000 1.200000 0.029000 0.035000
1538246830906743250	700 39 0.900000 0.259000 0.252000 1100 32 0.900000 2.363000 2.358000 600 44 1.000000 0.051000 0.051000 1.200000 0.029000 0.035000
1538246831462752667	700 39 0.900000 0.259000 0.252000 1100 32 0.900000 2.352000 2.347000 600 44 1.000000 0.051000 0.051000 1.200000 0.029000 0.035000
1538246832026759292	700 39 0.900000 0.259000 0.252000 1100 32 0.900000 2.355000 2.350000 600 44 1.000000 0.051000 0.051000 1.200000 0.029000 0.035000
1538246832582773667	700 39 0.900000 0.259000 0.252000 1100 33 0.900000 2.350000 2.345000 600 44 1.000000 0.051000 0.051000 1.200000 0.029000 0.035000
1538246833130685792	700 39 0.900000 0.259000 0.252000 1100 33 0.900000 2.356000 2.351000 600 44 1.000000 0.051000 0.051000 1.200000 0.029000 0.035000
1538246833690744334	700 39 0.900000 0.259000 0.252000 1100 33 1.000000 2.351000 2.351000 600 44 1.000000 0.051000 0.051000 1.200000 0.029000 0.035000
1538246834246710542	700 39 0.900000 0.259000 0.252000 1100 33 0.900000 2.351000 2.346000 600 44 1.000000 0.051000 0.051000 1.200000 0.029000 0.035000
1538246834806765334	700 39 0.900000 0.259000 0.252000 1100 33 0.900000 2.332000 2.327000 600 44 1.000000 0.051000 0.051000 1.200000 0.029000 0.035000
1538246835370754042	700 39 0.900000 0.259000 0.252000 1100 33 0.900000 2.330000 2.325000 600 44 1.000000 0.051000 0.051000 1.200000 0.029000 0.035000
1538246835926702251	700 39 0.900000 0.260000 0.252000 1100 32 0.900000 2.322000 2.317000 600 44 1.000000 0.051000 0.051000 1.200000 0.029000 0.035000
1538246836482702542	700 39 0.900000 0.260000 0.252000 1100 32 0.900000 2.323000 2.318000 600 44 1.000000 0.051000 0.051000 1.200000 0.029000 0.035000
1538246837046786501	700 39 0.900000 0.260000 0.252000 1100 33 0.900000 2.322000 2.317000 600 44 1.000000 0.051000 0.051000 1.200000 0.030000 0.036000
1538246837606696834	700 39 0.900000 0.259000 0.252000 1100 33 0.900000 2.312000 2.307000 600 44 1.000000 0.051000 0.051000 1.200000 0.030000 0.036000
1538246838166743084	700 39 0.900000 0.260000 0.252000 1100 33 0.900000 2.319000 2.314000 600 44 1.000000 0.051000 0.051000 1.200000 0.029000 0.035000
1538246838714718168	700 39 0.900000 0.260000 0.252000 1100 33 0.900000 2.323000 2.318000 600 44 1.000000 0.051000 0.051000 1.200000 0.029000 0.035000
1538246839274698834	700 39 0.900000 0.260000 0.252000 1100 32 0.900000 2.324000 2.319000 600 44 1.000000 0.051000 0.051000 1.200000 0.029000 0.035000
1538246839822712584	700 39 0.900000 0.260000 0.252000 1100 32 0.900000 2.325000 2.320000 600 44 1.000000 0.051000 0.051000 1.200000 0.029000 0.035000
1538246840378707043	700 39 0.900000 0.260000 0.252000 1100 33 0.900000 2.329000 2.324000 600 44 1.000000 0.051000 0.051000 1.200000 0.029000 0.035000
1538246840930720126	700 39 0.900000 0.260000 0.252000 1100 33 0.900000 2.328000 2.323000 600 44 1.000000 0.051000 0.051000 1.200000 0.030000 0.036000
1538246841490729210	700 39 0.900000 0.260000 0.252000 1100 33 0.900000 2.324000 2.319000 600 44 1.000000 0.051000 0.051000 1.200000 0.030000 0.036000
1538246842054729335	700 39 0.900000 0.260000 0.252000 1100 33 0.900000 2.319000 2.314000 600 44 1.000000 0.051000 0.051000 1.200000 0.030000 0.036000
1538246842610744251	700 39 0.900000 0.260000 0.252000 1100 33 0.900000 2.318000 2.313000 600 44 1.000000 0.051000 0.051000 1.200000 0.030000 0.036000
1538246843170693460	700 39 0.900000 0.260000 0.252000 1100 33 0.900000 2.323000 2.318000 600 44 1.000000 0.051000 0.051000 1.200000 0.030000 0.036000
1538246843730729418	700 39 0.900000 0.260000 0.252000 1100 33 0.900000 2.322000 2.317000 600 44 1.000000 0.051000 0.051000 1.200000 0.030000 0.036000
1538246844290710668	700 39 0.900000 0.260000 0.252000 1100 33 0.900000 2.326000 2.321000 600 44 1.000000 0.051000 0.051000 1.200000 0.030000 0.036000
1538246844846661460	700 39 0.900000 0.260000 0.252000 1100 33 0.900000 2.331000 2.326000 600 44 1.000000 0.051000 0.051000 1.200000 0.029000 0.035000
1538246845406710627	700 39 0.900000 0.261000 0.253000 1100 33 0.900000 2.326000 2.321000 600 44 1.000000 0.051000 0.051000 1.200000 0.030000 0.036000
1538246845958723168	700 39 0.900000 0.260000 0.252000 1100 33 0.900000 2.327000 2.322000 600 44 1.000000 0.051000 0.051000 1.200000 0.030000 0.036000
1538246846518701210	700 39 0.900000 0.260000 0.252000 1100 33 0.900000 2.325000 2.320000 600 44 1.000000 0.051000 0.051000 1.200000 0.030000 0.036000
1538246847070682127	700 39 0.900000 0.261000 0.253000 1100 33 0.900000 2.324000 2.319000 600 44 1.000000 0.051000 0.051000 1.200000 0.029000 0.035000
1538246847618671127	700 39 0.900000 0.261000 0.253000 1100 33 0.900000 2.313000 2.308000 600 44 1.000000 0.051000 0.051000 1.200000 0.030000 0.036000
1538246848170759169	700 39 0.900000 0.260000 0.252000 1100 33 0.900000 2.315000 2.310000 600 44 1.000000 0.050000 0.050000 1.200000 0.029000 0.035000
1538246848726720752	700 39 0.900000 0.260000 0.252000 1100 33 0.900000 2.317000 2.312000 600 44 1.000000 0.051000 0.051000 1.200000 0.029000 0.035000
1538246849286744002	700 39 0.900000 0.260000 0.252000 1100 33 0.900000 2.317000 2.312000 600 44 1.000000 0.051000 0.051000 1.200000 0.030000 0.036000
1538246849842719377	700 39 0.900000 0.260000 0.252000 1100 33 0.900000 2.321000 2.316000 600 44 1.000000 0.051000 0.051000 1.200000 0.030000 0.036000
1538246850398696461	700 39 0.900000 0.260000 0.252000 1100 33 0.900000 2.326000 2.321000 600 44 1.000000 0.051000 0.051000 1.200000 0.029000 0.035000
1538246850962755211	700 39 0.900000 0.260000 0.252000 1100 33 0.900000 2.328000 2.323000 600 44 1.000000 0.051000 0.051000 1.200000 0.030000 0.036000
1538246851518711627	700 39 0.900000 0.260000 0.252000 1100 33 0.900000 2.327000 2.322000 600 44 1.000000 0.051000 0.051000 1.200000 0.030000 0.036000
1538246852070730336	700 39 0.900000 0.260000 0.252000 1100 33 0.900000 2.326000 2.321000 600 44 1.000000 0.051000 0.051000 1.200000 0.030000 0.036000
1538246852630739336	700 39 0.900000 0.260000 0.252000 1100 33 0.900000 2.324000 2.319000 600 44 1.000000 0.051000 0.051000 1.200000 0.029000 0.035000
1538246853190727836	700 39 0.900000 0.260000 0.252000 1100 33 0.900000 2.337000 2.332000 600 44 1.000000 0.051000 0.051000 1.200000 0.030000 0.036000
1538246853738708794	700 39 0.900000 0.260000 0.252000 1100 33 0.900000 2.340000 2.335000 600 44 1.000000 0.051000 0.051000 1.200000 0.029000 0.035000
1538246854290710878	700 39 0.900000 0.260000 0.252000 1100 33 0.900000 2.337000 2.332000 600 44 1.000000 0.051000 0.051000 1.200000 0.030000 0.036000
1538246854842670669	700 39 0.900000 0.261000 0.253000 1100 33 0.900000 2.326000 2.321000 600 44 1.000000 0.051000 0.051000 1.200000 0.029000 0.035000
1538246855402661711	700 39 0.900000 0.260000 0.252000 1100 33 0.900000 2.329000 2.324000 600 44 1.000000 0.051000 0.051000 1.200000 0.029000 0.035000
1538246855966702795	700 39 0.900000 0.260000 0.252000 1100 33 0.900000 2.338000 2.333000 600 44 1.000000 0.051000 0.051000 1.200000 0.029000 0.035000
1538246856534683628	700 39 0.900000 0.260000 0.252000 1100 33 0.900000 2.338000 2.333000 600 44 1.000000 0.051000 0.051000 1.200000 0.029000 0.035000
1538246857098741170	700 39 0.900000 0.260000 0.252000 1100 33 0.900000 2.339000 2.334000 600 44 1.000000 0.051000 0.051000 1.200000 0.029000 0.035000
1538246857654714628	700 39 0.900000 0.260000 0.252000 1100 33 0.900000 2.338000 2.333000 600 44 1.000000 0.051000 0.051000 1.200000 0.029000 0.035000
1538246858198698837	700 39 0.900000 0.260000 0.252000 1100 33 0.900000 2.337000 2.332000 600 44 1.000000 0.051000 0.051000 1.200000 0.030000 0.036000
1538246858758682837	700 39 0.900000 0.260000 0.252000 1100 33 0.900000 2.336000 2.331000 600 44 1.000000 0.051000 0.051000 1.200000 0.029000 0.035000
1538246859310721587	700 39 0.900000 0.260000 0.252000 1100 33 0.900000 2.333000 2.328000 600 44 1.000000 0.051000 0.051000 1.200000 0.030000 0.036000
1538246859862676795	700 39 0.900000 0.260000 0.252000 1100 33 0.900000 2.332000 2.327000 600 44 1.000000 0.051000 0.051000 1.200000 0.029000 0.035000
1538246860410720420	700 39 0.900000 0.260000 0.252000 1100 33 0.900000 2.336000 2.331000 600 44 1.000000 0.051000 0.051000 1.200000 0.030000 0.036000
1538246860958707462	700 39 0.900000 0.260000 0.252000 1100 33 0.900000 2.339000 2.334000 600 44 1.000000 0.051000 0.051000 1.200000 0.029000 0.035000
1538246861518735712	700 39 0.900000 0.260000 0.252000 1100 33 0.900000 2.340000 2.335000 600 44 1.000000 0.051000 0.051000 1.200000 0.029000 0.035000
1538246862082670754	700 39 0.900000 0.260000 0.252000 1100 33 0.900000 2.340000 2.335000 600 44 1.000000 0.051000 0.051000 1.200000 0.029000 0.035000
1538246862646745545	700 39 0.900000 0.260000 0.252000 1100 33 0.900000 2.325000 2.320000 600 44 1.000000 0.051000 0.051000 1.200000 0.030000 0.036000
1538246863206693462	700 39 0.900000 0.260000 0.252000 1100 33 0.900000 2.327000 2.322000 600 44 1.000000 0.051000 0.051000 1.200000 0.030000 0.036000
1538246863762696379	700 39 0.900000 0.260000 0.252000 1100 33 0.900000 2.329000 2.324000 600 44 1.000000 0.051000 0.051000 1.200000 0.030000 0.036000
1538246864314719337	700 39 0.900000 0.260000 0.252000 1100 33 0.900000 2.335000 2.330000 600 44 1.000000 0.051000 0.051000 1.200000 0.030000 0.036000
1538246864866689379	700 39 0.900000 0.260000 0.252000 1100 33 0.900000 2.329000 2.324000 600 44 1.000000 0.051000 0.051000 1.200000 0.029000 0.035000
1538246865430736254	700 39 0.900000 0.260000 0.252000 1100 33 0.900000 2.323000 2.318000 600 44 1.000000 0.051000 0.051000 1.200000 0.030000 0.036000
1538246865978704421	700 39 0.900000 0.259000 0.252000 1100 33 0.900000 2.337000 2.332000 600 44 1.000000 0.051000 0.051000 1.200000 0.029000 0.035000
1538246866530670879	700 39 0.900000 0.259000 0.252000 1100 33 0.900000 2.337000 2.332000 600 44 1.000000 0.051000 0.051000 1.200000 0.028000 0.033000
1538246867094716171	700 39 0.900000 0.259000 0.252000 1100 33 0.900000 2.336000 2.331000 600 44 1.000000 0.051000 0.051000 1.200000 0.029000 0.035000
1538246867650726421	700 39 0.900000 0.259000 0.252000 1100 33 0.900000 2.335000 2.330000 600 44 1.000000 0.051000 0.051000 1.200000 0.028000 0.033000
1538246868206715171	700 39 0.900000 0.259000 0.252000 1100 33 0.900000 2.336000 2.331000 600 44 1.000000 0.051000 0.051000 1.200000 0.028000 0.033000
1538246868766673754	700 39 0.900000 0.259000 0.252000 1100 33 0.900000 2.330000 2.325000 600 44 1.000000 0.051000 0.051000 1.200000 0.028000 0.033000
1538246869322728463	700 39 0.900000 0.259000 0.252000 1100 33 0.900000 2.330000 2.325000 600 44 1.000000 0.051000 0.051000 1.200000 0.029000 0.035000
1538246869882754880	700 39 0.900000 0.259000 0.252000 1100 33 0.900000 2.330000 2.325000 600 44 1.000000 0.051000 0.051000 1.200000 0.029000 0.035000
1538246870434707588	700 39 0.900000 0.259000 0.252000 1100 33 0.900000 2.333000 2.328000 600 44 1.000000 0.051000 0.051000 1.200000 0.029000 0.035000
1538246870994753255	700 39 0.900000 0.259000 0.252000 1100 33 0.900000 2.329000 2.324000 600 44 1.000000 0.051000 0.051000 1.200000 0.028000 0.033000
1538246871554729046	700 39 0.900000 0.260000 0.252000 1100 33 0.900000 2.333000 2.328000 600 44 1.000000 0.051000 0.051000 1.200000 0.028000 0.033000
1538246872106716213	700 39 0.900000 0.260000 0.252000 1100 33 0.900000 2.330000 2.325000 600 44 1.000000 0.051000 0.051000 1.200000 0.028000 0.033000
1538246872662756047	700 39 0.900000 0.260000 0.252000 1100 33 0.900000 2.333000 2.328000 600 44 1.000000 0.051000 0.051000 1.200000 0.028000 0.033000
1538246873226725380	700 39 0.900000 0.259000 0.252000 1100 33 0.900000 2.324000 2.319000 600 44 1.000000 0.051000 0.051000 1.200000 0.029000 0.035000
1538246873778711713	700 39 0.900000 0.259000 0.252000 1100 33 0.900000 2.307000 2.302000 600 44 1.000000 0.051000 0.051000 1.200000 0.028000 0.033000
1538246874338705588	700 39 0.900000 0.259000 0.252000 1100 33 0.900000 2.311000 2.306000 600 44 1.000000 0.051000 0.051000 1.200000 0.028000 0.033000
1538246874882721005	700 39 0.900000 0.259000 0.252000 1100 33 0.900000 2.308000 2.303000 600 44 1.000000 0.051000 0.051000 1.200000 0.029000 0.035000
1538246875434714547	700 39 0.900000 0.259000 0.252000 1100 33 0.900000 2.312000 2.307000 600 44 1.000000 0.050000 0.050000 1.200000 0.029000 0.035000
1538246875982744005	700 39 0.900000 0.259000 0.252000 1100 33 0.900000 2.318000 2.313000 600 44 1.000000 0.051000 0.051000 1.200000 0.028000 0.033000
1538246876538724005	700 39 0.900000 0.259000 0.252000 1100 33 0.900000 2.312000 2.307000 600 44 1.000000 0.051000 0.051000 1.200000 0.028000 0.033000
1538246877094732505	700 39 0.900000 0.259000 0.252000 1100 33 0.900000 2.310000 2.305000 600 44 1.000000 0.051000 0.051000 1.200000 0.028000 0.033000
1538246877650721297	700 39 0.900000 0.259000 0.252000 1100 33 0.900000 2.304000 2.299000 600 44 1.000000 0.051000 0.051000 1.200000 0.028000 0.033000
1538246878202711131	700 39 0.900000 0.260000 0.252000 1100 33 0.900000 2.310000 2.305000 600 44 1.000000 0.051000 0.051000 1.200000 0.028000 0.033000
1538246878762671881	700 39 0.900000 0.259000 0.252000 1100 33 0.900000 2.317000 2.312000 600 44 1.000000 0.051000 0.051000 1.200000 0.028000 0.033000
1538246879314662672	700 39 0.900000 0.259000 0.252000 1100 33 0.900000 2.315000 2.310000 600 44 1.000000 0.051000 0.051000 1.200000 0.028000 0.033000
1538246879874711506	700 39 0.900000 0.259000 0.252000 1100 33 0.900000 2.316000 2.311000 600 44 1.000000 0.051000 0.051000 1.200000 0.028000 0.033000
1538246880434725506	700 39 0.900000 0.259000 0.252000 1100 33 0.900000 2.316000 2.311000 600 44 1.000000 0.051000 0.051000 1.200000 0.028000 0.033000
1538246880982735839	700 39 0.900000 0.259000 0.252000 1100 33 0.900000 2.319000 2.314000 600 44 1.000000 0.051000 0.051000 1.200000 0.029000 0.035000
1538246881538691298	700 39 0.900000 0.259000 0.252000 1100 33 0.900000 2.335000 2.330000 600 44 1.000000 0.051000 0.051000 1.200000 0.028000 0.033000
1538246882098700881	700 39 0.900000 0.259000 0.252000 1100 33 0.900000 2.333000 2.328000 600 44 1.000000 0.051000 0.051000 1.200000 0.028000 0.033000
1538246882654779673	700 39 0.900000 0.259000 0.252000 1100 33 0.900000 2.332000 2.327000 600 44 1.000000 0.051000 0.051000 1.200000 0.028000 0.033000
1538246883214691215	700 39 0.900000 0.259000 0.252000 1100 33 0.900000 2.329000 2.324000 600 44 1.000000 0.051000 0.051000 1.200000 0.028000 0.033000
1538246883770709673	700 39 0.900000 0.259000 0.252000 1100 33 0.900000 2.336000 2.331000 600 44 1.000000 0.051000 0.051000 1.200000 0.028000 0.033000
1538246884326727798	700 40 0.900000 0.259000 0.252000 1100 33 0.900000 2.332000 2.327000 600 44 1.000000 0.051000 0.051000 1.200000 0.028000 0.033000
1538246884886746715	700 39 0.900000 0.259000 0.252000 1100 33 0.900000 2.333000 2.328000 600 44 1.000000 0.051000 0.051000 1.200000 0.029000 0.035000
1538246885446673881	700 40 0.900000 0.259000 0.252000 1100 33 0.900000 2.333000 2.328000 600 44 1.000000 0.051000 0.051000 1.200000 0.029000 0.035000
1538246886002692882	700 40 0.900000 0.259000 0.252000 1100 33 0.900000 2.327000 2.322000 600 44 1.000000 0.051000 0.051000 1.200000 0.028000 0.033000
1538246886562744632	700 40 0.900000 0.259000 0.252000 1100 33 0.900000 2.338000 2.333000 600 44 1.000000 0.051000 0.051000 1.200000 0.029000 0.035000
1538246887118715715	700 39 0.900000 0.259000 0.252000 1100 33 0.900000 2.339000 2.334000 600 44 1.000000 0.051000 0.051000 1.200000 0.029000 0.035000
1538246887670725923	700 39 0.900000 0.259000 0.252000 1100 33 0.900000 2.337000 2.332000 600 44 1.000000 0.051000 0.051000 1.200000 0.029000 0.035000
1538246888226704715	700 40 0.900000 0.259000 0.252000 1100 33 0.900000 2.332000 2.327000 600 44 1.000000 0.051000 0.051000 1.200000 0.029000 0.035000
1538246888786707632	700 39 0.900000 0.259000 0.252000 1100 33 0.900000 2.336000 2.331000 600 44 1.000000 0.051000 0.051000 1.200000 0.029000 0.035000
1538246889342705465	700 39 0.900000 0.259000 0.252000 1100 33 0.900000 2.334000 2.329000 600 44 1.000000 0.051000 0.051000 1.200000 0.029000 0.035000
1538246889898796715	700 39 0.900000 0.259000 0.252000 1100 33 0.900000 2.332000 2.327000 600 44 1.000000 0.051000 0.051000 1.200000 0.028000 0.033000
1538246890458780674	700 40 0.900000 0.259000 0.252000 1100 33 0.900000 2.328000 2.323000 600 44 1.000000 0.051000 0.051000 1.200000 0.029000 0.035000
1538246891006736340	700 39 0.900000 0.259000 0.252000 1100 33 0.900000 2.314000 2.309000 600 45 1.000000 0.051000 0.051000 1.200000 0.028000 0.033000
1538246891570723007	700 39 0.900000 0.260000 0.252000 1100 33 0.900000 2.323000 2.318000 600 44 1.000000 0.051000 0.051000 1.200000 0.028000 0.033000
1538246892122643882	700 39 0.900000 0.259000 0.252000 1100 33 0.900000 2.324000 2.319000 600 44 1.000000 0.051000 0.051000 1.200000 0.028000 0.033000
1538246892678677257	700 39 0.900000 0.259000 0.252000 1100 33 0.900000 2.322000 2.317000 600 44 1.000000 0.051000 0.051000 1.200000 0.029000 0.035000
1538246893234717716	700 39 0.900000 0.259000 0.252000 1100 33 0.900000 2.323000 2.318000 600 44 1.000000 0.051000 0.051000 1.200000 0.029000 0.035000
1538246893782654091	700 40 0.900000 0.259000 0.252000 1100 33 0.900000 2.322000 2.317000 600 44 1.000000 0.051000 0.051000 1.200000 0.029000 0.035000
1538246894346693799	700 40 0.900000 0.259000 0.252000 1100 33 0.900000 2.320000 2.315000 600 44 1.000000 0.051000 0.051000 1.200000 0.029000 0.035000
1538246894898718174	700 40 0.900000 0.259000 0.252000 1100 33 0.900000 2.316000 2.311000 600 44 1.000000 0.051000 0.051000 1.200000 0.029000 0.035000
1538246895454717674	700 39 0.900000 0.259000 0.252000 1100 33 0.900000 2.320000 2.315000 600 44 1.000000 0.051000 0.051000 1.200000 0.030000 0.036000
1538246896006736091	700 39 0.900000 0.259000 0.252000 1100 33 0.900000 2.314000 2.309000 600 44 1.000000 0.051000 0.051000 1.200000 0.030000 0.036000
1538246896566754924	700 39 0.900000 0.259000 0.252000 1100 33 0.900000 2.312000 2.307000 600 44 1.000000 0.051000 0.051000 1.200000 0.031000 0.037000
1538246897126719758	700 40 0.900000 0.259000 0.252000 1100 33 0.900000 2.324000 2.319000 600 44 1.000000 0.051000 0.051000 1.200000 0.030000 0.036000
1538246897678715883	700 39 0.900000 0.259000 0.252000 1100 33 0.900000 2.324000 2.319000 600 44 1.000000 0.051000 0.051000 1.200000 0.031000 0.037000
1538246898234740258	700 39 0.900000 0.259000 0.252000 1100 33 0.900000 2.324000 2.319000 600 44 1.000000 0.051000 0.051000 1.200000 0.031000 0.037000
1538246898786709966	700 39 0.900000 0.259000 0.252000 1100 33 0.900000 2.324000 2.319000 600 44 1.000000 0.051000 0.051000 1.200000 0.031000 0.037000
1538246899338725800	700 39 0.900000 0.259000 0.252000 1100 33 0.900000 2.326000 2.321000 600 44 1.000000 0.051000 0.051000 1.200000 0.030000 0.036000
1538246899894699800	700 39 0.900000 0.259000 0.252000 1100 33 0.900000 2.324000 2.319000 600 44 1.000000 0.051000 0.051000 1.200000 0.031000 0.037000
1538246900454688425	700 39 0.900000 0.259000 0.252000 1100 33 0.900000 2.323000 2.318000 600 44 1.000000 0.051000 0.051000 1.200000 0.031000 0.037000
1538246901014742925	700 39 0.900000 0.259000 0.252000 1100 33 0.900000 2.313000 2.308000 600 44 1.000000 0.051000 0.051000 1.200000 0.031000 0.037000
1538246901570733717	700 39 0.900000 0.259000 0.252000 1100 33 0.900000 2.312000 2.307000 600 44 1.000000 0.051000 0.051000 1.200000 0.030000 0.036000
1538246902126707425	700 39 0.900000 0.259000 0.252000 1100 33 0.900000 2.325000 2.320000 600 44 1.000000 0.051000 0.051000 1.200000 0.031000 0.037000
1538246902686682925	700 39 0.900000 0.259000 0.252000 1100 33 0.900000 2.324000 2.319000 600 44 1.000000 0.051000 0.051000 1.200000 0.031000 0.037000
1538246903242716217	700 39 0.900000 0.259000 0.252000 1100 33 0.900000 2.324000 2.319000 600 44 1.000000 0.051000 0.051000 1.200000 0.031000 0.037000
1538246903802701842	700 39 0.900000 0.259000 0.252000 1100 33 0.900000 2.324000 2.319000 600 44 1.000000 0.051000 0.051000 1.200000 0.030000 0.036000
1538246904350734342	700 39 0.900000 0.259000 0.252000 1100 33 0.900000 2.325000 2.320000 600 44 1.000000 0.051000 0.051000 1.200000 0.031000 0.037000
1538246904902755509	700 40 0.900000 0.259000 0.252000 1100 33 0.900000 2.323000 2.318000 600 44 1.000000 0.051000 0.051000 1.200000 0.031000 0.037000
1538246905462744467	700 39 0.900000 0.259000 0.252000 1100 33 0.900000 2.323000 2.318000 600 44 1.000000 0.051000 0.051000 1.200000 0.030000 0.036000
1538246906022674301	700 39 0.900000 0.259000 0.252000 1100 33 0.900000 2.319000 2.314000 600 44 1.000000 0.051000 0.051000 1.200000 0.031000 0.037000
1538246906582656592	700 39 0.900000 0.259000 0.252000 1100 33 0.900000 2.325000 2.320000 600 44 1.000000 0.051000 0.051000 1.200000 0.031000 0.037000
1538246907138782467	700 39 0.900000 0.259000 0.252000 1100 33 0.900000 2.325000 2.320000 600 44 1.000000 0.051000 0.051000 1.200000 0.031000 0.037000
1538246907686708301	700 39 0.900000 0.259000 0.252000 1100 33 0.900000 2.326000 2.321000 600 44 1.000000 0.051000 0.051000 1.200000 0.031000 0.037000
1538246908246671676	700 39 0.900000 0.259000 0.252000 1100 33 0.900000 2.324000 2.319000 600 44 1.000000 0.051000 0.051000 1.200000 0.031000 0.037000
1538246908786724093	700 39 0.900000 0.259000 0.252000 1100 33 0.900000 2.316000 2.311000 600 44 1.000000 0.051000 0.051000 1.200000 0.031000 0.037000
1538246909338736176	700 39 0.900000 0.259000 0.252000 1100 33 0.900000 2.315000 2.310000 600 44 1.000000 0.051000 0.051000 1.200000 0.030000 0.036000
1538246909882711093	700 40 0.900000 0.259000 0.252000 1100 33 0.900000 2.327000 2.322000 600 44 1.000000 0.051000 0.051000 1.200000 0.030000 0.036000
1538246910442762551	700 40 0.900000 0.259000 0.252000 1100 33 0.900000 2.321000 2.316000 600 44 1.000000 0.051000 0.051000 1.200000 0.031000 0.037000
1538246911002736093	700 40 0.900000 0.259000 0.252000 1100 33 0.900000 2.320000 2.315000 600 44 1.000000 0.051000 0.051000 1.200000 0.031000 0.037000
1538246911562725468	700 39 0.900000 0.259000 0.252000 1100 33 0.900000 2.335000 2.330000 600 44 1.000000 0.051000 0.051000 1.200000 0.031000 0.037000
1538246912126746135	700 39 0.900000 0.259000 0.252000 1100 33 0.900000 2.343000 2.338000 600 44 1.000000 0.051000 0.051000 1.200000 0.031000 0.037000
1538246912682732510	700 39 0.900000 0.259000 0.252000 1100 33 0.900000 2.342000 2.337000 600 44 1.000000 0.051000 0.051000 1.200000 0.030000 0.036000
1538246913234744301	700 40 0.900000 0.259000 0.252000 1100 33 0.900000 2.335000 2.330000 600 44 1.000000 0.051000 0.051000 1.200000 0.030000 0.036000
1538246913786733177	700 40 0.900000 0.259000 0.252000 1100 33 0.900000 2.329000 2.324000 600 44 1.000000 0.051000 0.051000 1.200000 0.030000 0.036000
1538246914346726218	700 40 0.900000 0.259000 0.252000 1100 33 0.900000 2.343000 2.338000 600 45 1.000000 0.051000 0.051000 1.200000 0.031000 0.037000
1538246914890672093	700 40 0.900000 0.259000 0.252000 1100 33 0.900000 2.339000 2.334000 600 44 1.000000 0.051000 0.051000 1.200000 0.030000 0.036000
1538246915450677635	700 39 0.900000 0.259000 0.252000 1100 33 0.900000 2.336000 2.331000 600 44 1.000000 0.051000 0.051000 1.200000 0.030000 0.036000
1538246916002732468	700 40 0.900000 0.259000 0.252000 1100 33 0.900000 2.333000 2.328000 600 44 1.000000 0.051000 0.051000 1.200000 0.031000 0.037000
1538246916562722219	700 39 0.900000 0.259000 0.252000 1100 33 0.900000 2.336000 2.331000 600 44 1.000000 0.051000 0.051000 1.200000 0.031000 0.037000
1538246917126683260	700 40 0.900000 0.259000 0.252000 1100 33 0.900000 2.337000 2.332000 600 44 1.000000 0.051000 0.051000 1.200000 0.031000 0.037000
1538246917686724927	700 40 0.900000 0.259000 0.252000 1100 33 0.900000 2.343000 2.338000 600 44 1.000000 0.051000 0.051000 1.200000 0.030000 0.036000
1538246918238641094	700 40 0.900000 0.259000 0.252000 1100 33 0.900000 2.342000 2.337000 600 45 1.000000 0.051000 0.051000 1.200000 0.031000 0.037000
1538246918790666219	700 40 0.900000 0.259000 0.252000 1100 33 0.900000 2.337000 2.332000 600 45 1.000000 0.051000 0.051000 1.200000 0.030000 0.036000
1538246919334688927	700 39 0.900000 0.259000 0.252000 1100 33 0.900000 2.325000 2.320000 600 44 1.000000 0.051000 0.051000 1.200000 0.030000 0.036000
1538246919894762969	700 40 0.900000 0.259000 0.252000 1100 33 0.900000 2.335000 2.330000 600 44 1.000000 0.051000 0.051000 1.200000 0.031000 0.037000
1538246920454742927	700 40 0.900000 0.259000 0.252000 1100 33 0.900000 2.332000 2.327000 600 44 1.000000 0.051000 0.051000 1.200000 0.030000 0.036000
1538246921006698219	700 40 0.900000 0.259000 0.252000 1100 33 0.900000 2.324000 2.319000 600 44 1.000000 0.051000 0.051000 1.200000 0.030000 0.036000
1538246921566674177	700 40 0.900000 0.259000 0.252000 1100 33 0.900000 2.324000 2.319000 600 44 1.000000 0.051000 0.051000 1.200000 0.031000 0.037000
1538246922122689053	700 40 0.900000 0.259000 0.252000 1100 33 0.900000 2.321000 2.316000 600 44 1.000000 0.051000 0.051000 1.200000 0.031000 0.037000
1538246922678684886	700 39 0.900000 0.259000 0.252000 1100 33 0.900000 2.324000 2.319000 600 44 1.000000 0.051000 0.051000 1.200000 0.031000 0.037000
1538246923226765053	700 40 0.900000 0.259000 0.252000 1100 33 0.900000 2.331000 2.326000 600 44 1.000000 0.051000 0.051000 1.200000 0.031000 0.037000
1538246923774709344	700 40 0.900000 0.259000 0.252000 1100 33 1.000000 2.331000 2.331000 600 44 1.000000 0.051000 0.051000 1.200000 0.031000 0.037000
1538246924330740594	700 40 0.900000 0.259000 0.252000 1100 33 0.900000 2.331000 2.326000 600 44 1.000000 0.051000 0.051000 1.200000 0.030000 0.036000
1538246924878707761	700 40 0.900000 0.260000 0.252000 1100 33 0.900000 2.330000 2.325000 600 44 1.000000 0.051000 0.051000 1.200000 0.031000 0.037000
1538246925430705886	700 40 0.900000 0.260000 0.252000 1100 33 0.900000 2.325000 2.320000 600 44 1.000000 0.051000 0.051000 1.200000 0.031000 0.037000
1538246925986723761	700 39 0.900000 0.260000 0.252000 1100 33 0.900000 2.318000 2.313000 600 44 1.000000 0.051000 0.051000 1.200000 0.029000 0.035000
1538246926550700178	700 40 0.900000 0.260000 0.252000 1100 33 0.900000 2.329000 2.324000 600 44 1.000000 0.051000 0.051000 1.200000 0.029000 0.035000
1538246927106712470	700 40 0.900000 0.259000 0.252000 1100 33 0.900000 2.331000 2.326000 600 44 1.000000 0.051000 0.051000 1.200000 0.030000 0.036000
1538246927670720762	700 39 0.900000 0.260000 0.252000 1100 33 0.900000 2.325000 2.320000 600 45 1.000000 0.051000 0.051000 1.200000 0.029000 0.035000
1538246928218762387	700 40 0.900000 0.260000 0.252000 1100 33 0.900000 2.360000 2.355000 600 44 1.000000 0.051000 0.051000 1.200000 0.030000 0.036000
1538246928770732887	700 40 0.900000 0.260000 0.252000 1100 33 0.900000 2.360000 2.355000 600 44 1.000000 0.051000 0.051000 1.200000 0.030000 0.036000
1538246929330729303	700 40 0.900000 0.260000 0.252000 1100 33 0.900000 2.361000 2.356000 600 45 1.000000 0.051000 0.051000 1.200000 0.030000 0.036000
1538246929878734970	700 39 0.900000 0.260000 0.252000 1100 33 1.000000 2.362000 2.362000 600 45 1.000000 0.051000 0.051000 1.200000 0.030000 0.036000
1538246930422766470	700 40 0.900000 0.260000 0.252000 1100 33 1.000000 2.361000 2.361000 600 45 1.000000 0.051000 0.051000 1.200000 0.030000 0.036000
1538246930978753470	700 40 0.900000 0.260000 0.252000 1100 33 1.000000 2.360000 2.360000 600 45 1.000000 0.051000 0.051000 1.200000 0.030000 0.036000
1538246931530720970	700 40 0.900000 0.260000 0.252000 1100 33 0.900000 2.355000 2.350000 600 45 1.000000 0.051000 0.051000 1.200000 0.030000 0.036000
1538246932090681887	700 40 0.900000 0.260000 0.252000 1100 33 0.900000 2.357000 2.352000 600 45 1.000000 0.051000 0.051000 1.200000 0.030000 0.036000
1538246932638737012	700 40 0.900000 0.260000 0.252000 1100 33 1.000000 2.353000 2.353000 600 45 1.000000 0.051000 0.051000 1.200000 0.030000 0.036000
1538246933194660054	700 40 0.900000 0.260000 0.252000 1100 33 0.900000 2.348000 2.343000 600 45 1.000000 0.051000 0.051000 1.200000 0.030000 0.036000
1538246933758695929	700 40 0.900000 0.260000 0.252000 1100 33 0.900000 2.353000 2.348000 600 45 1.000000 0.050000 0.050000 1.200000 0.029000 0.035000
1538246934318715346	700 40 0.900000 0.260000 0.252000 1100 33 0.900000 2.361000 2.356000 600 45 1.000000 0.051000 0.051000 1.200000 0.029000 0.035000
1538246934882725637	700 40 0.900000 0.260000 0.252000 1100 33 1.000000 2.362000 2.362000 600 45 1.000000 0.051000 0.051000 1.200000 0.030000 0.036000
1538246935446678679	700 40 0.900000 0.260000 0.252000 1100 33 0.900000 2.361000 2.356000 600 45 1.000000 0.051000 0.051000 1.200000 0.030000 0.036000
1538246936010727512	700 40 0.900000 0.260000 0.252000 1100 33 0.900000 2.360000 2.355000 600 45 1.000000 0.051000 0.051000 1.200000 0.030000 0.036000
1538246936558725429	700 40 0.900000 0.260000 0.252000 1100 33 0.900000 2.359000 2.354000 600 45 1.000000 0.051000 0.051000 1.200000 0.030000 0.036000
1538246937114766471	700 40 0.900000 0.260000 0.252000 1100 33 1.000000 2.349000 2.349000 600 45 1.000000 0.051000 0.051000 1.200000 0.030000 0.036000
1538246937682696596	700 40 0.900000 0.260000 0.252000 1100 33 0.900000 2.324000 2.319000 600 45 1.000000 0.051000 0.051000 1.200000 0.030000 0.036000
1538246938246705638	700 40 0.900000 0.260000 0.252000 1100 33 0.900000 2.323000 2.318000 600 45 1.000000 0.051000 0.051000 1.200000 0.030000 0.036000
1538246938810761513	700 40 0.900000 0.260000 0.252000 1100 33 0.900000 2.336000 2.331000 600 45 1.000000 0.051000 0.051000 1.200000 0.030000 0.036000
1538246939370714346	700 40 0.900000 0.260000 0.252000 1100 33 0.900000 2.335000 2.330000 600 45 1.000000 0.051000 0.051000 1.200000 0.029000 0.035000
1538246939926718888	700 40 0.900000 0.259000 0.252000 1100 33 0.900000 2.324000 2.319000 600 44 1.000000 0.051000 0.051000 1.200000 0.030000 0.036000
1538246940486712430	700 40 0.900000 0.260000 0.252000 1100 33 1.000000 2.325000 2.325000 600 44 1.000000 0.051000 0.051000 1.200000 0.030000 0.036000
1538246941046716971	700 40 0.900000 0.260000 0.252000 1100 33 1.000000 2.325000 2.325000 600 45 1.000000 0.051000 0.051000 1.200000 0.030000 0.036000
1538246941594737763	700 40 0.900000 0.260000 0.252000 1100 33 0.900000 2.323000 2.318000 600 44 1.000000 0.051000 0.051000 1.200000 0.029000 0.035000
1538246942154771972	700 39 0.900000 0.260000 0.252000 1100 33 0.900000 2.321000 2.316000 600 44 1.000000 0.051000 0.051000 1.200000 0.030000 0.036000
1538246942706696347	700 40 0.900000 0.259000 0.252000 1100 33 1.000000 2.323000 2.323000 600 44 1.000000 0.051000 0.051000 1.200000 0.030000 0.036000
1538246943258703847	700 40 0.900000 0.259000 0.252000 1100 33 0.900000 2.321000 2.316000 600 44 1.000000 0.051000 0.051000 1.200000 0.030000 0.036000
1538246943806657222	700 39 0.900000 0.260000 0.252000 1100 33 0.900000 2.325000 2.320000 600 44 1.000000 0.051000 0.051000 1.200000 0.030000 0.036000
1538246944362716888	700 40 0.900000 0.260000 0.252000 1100 33 0.900000 2.324000 2.319000 600 44 1.000000 0.051000 0.051000 1.200000 0.030000 0.036000
1538246944922674389	700 40 0.900000 0.259000 0.252000 1100 33 0.900000 2.326000 2.321000 600 44 1.000000 0.051000 0.051000 1.200000 0.029000 0.035000
1538246945490723972	700 39 0.900000 0.260000 0.252000 1100 33 1.000000 2.324000 2.324000 600 44 1.000000 0.051000 0.051000 1.200000 0.029000 0.035000
1538246946046722389	700 39 0.900000 0.259000 0.252000 1100 33 1.000000 2.325000 2.325000 600 44 1.000000 0.051000 0.051000 1.200000 0.030000 0.036000
1538246946610714555	700 40 0.900000 0.260000 0.252000 1100 33 1.000000 2.330000 2.330000 600 44 1.000000 0.051000 0.051000 1.200000 0.029000 0.035000
1538246947170724222	700 40 0.900000 0.260000 0.252000 1100 33 0.900000 2.332000 2.327000 600 44 1.000000 0.051000 0.051000 1.200000 0.030000 0.036000
1538246947730715889	700 40 0.900000 0.260000 0.252000 1100 33 1.000000 2.331000 2.331000 600 44 1.000000 0.051000 0.051000 1.200000 0.030000 0.036000
1538246948274723014	700 40 0.900000 0.260000 0.252000 1100 33 0.900000 2.331000 2.326000 600 44 1.000000 0.051000 0.051000 1.200000 0.029000 0.035000
1538246948830746681	700 40 0.900000 0.260000 0.252000 1100 33 1.000000 2.338000 2.338000 600 44 1.000000 0.051000 0.051000 1.200000 0.029000 0.035000
1538246949390759056	700 40 0.900000 0.260000 0.252000 1100 33 1.000000 2.330000 2.330000 600 44 1.000000 0.051000 0.051000 1.200000 0.029000 0.035000
1538246949942715139	700 40 0.900000 0.260000 0.252000 1100 33 0.900000 2.335000 2.330000 600 44 1.000000 0.051000 0.051000 1.200000 0.029000 0.035000
1538246950498710389	700 40 0.900000 0.260000 0.252000 1100 33 0.900000 2.332000 2.327000 600 44 1.000000 0.051000 0.051000 1.200000 0.030000 0.036000
1538246951054688973	700 40 0.900000 0.260000 0.252000 1100 33 0.900000 2.329000 2.324000 600 44 1.000000 0.051000 0.051000 1.200000 0.030000 0.036000
1538246951610736306	700 40 0.900000 0.259000 0.252000 1100 33 0.900000 2.331000 2.326000 600 44 1.000000 0.051000 0.051000 1.200000 0.030000 0.036000
1538246952162746389	700 40 0.900000 0.260000 0.252000 1100 33 0.900000 2.328000 2.323000 600 44 1.000000 0.051000 0.051000 1.200000 0.030000 0.036000
1538246952718738681	700 40 0.900000 0.260000 0.252000 1100 33 0.900000 2.336000 2.331000 600 44 1.000000 0.051000 0.051000 1.200000 0.030000 0.036000
1538246953270741598	700 40 0.900000 0.260000 0.252000 1100 33 0.900000 2.325000 2.320000 600 44 1.000000 0.051000 0.051000 1.200000 0.030000 0.036000
1538246953830719348	700 40 0.900000 0.260000 0.252000 1100 33 0.900000 2.330000 2.325000 600 44 1.000000 0.051000 0.051000 1.200000 0.029000 0.035000
1538246954390702348	700 40 0.900000 0.260000 0.252000 1100 33 0.900000 2.326000 2.321000 600 44 1.000000 0.051000 0.051000 1.200000 0.031000 0.037000
1538246954958717265	700 39 0.900000 0.260000 0.252000 1100 33 1.000000 2.335000 2.335000 600 44 1.000000 0.051000 0.051000 1.200000 0.030000 0.036000
1538246955514725931	700 40 0.900000 0.260000 0.252000 1100 33 0.900000 2.330000 2.325000 600 45 1.000000 0.051000 0.051000 1.200000 0.030000 0.036000
1538246956066644307	700 40 0.900000 0.260000 0.252000 1100 33 0.900000 2.335000 2.330000 600 44 1.000000 0.051000 0.051000 1.200000 0.030000 0.036000
1538246956618691432	700 40 0.900000 0.260000 0.252000 1100 33 0.900000 2.350000 2.345000 600 45 1.000000 0.051000 0.051000 1.200000 0.030000 0.036000
1538246957174761307	700 40 0.900000 0.260000 0.252000 1100 33 0.900000 2.339000 2.334000 600 45 1.000000 0.051000 0.051000 1.200000 0.031000 0.037000
1538246957734723307	700 40 0.900000 0.260000 0.252000 1100 33 0.900000 2.350000 2.345000 600 44 1.000000 0.051000 0.051000 1.200000 0.031000 0.037000
1538246958283152223	700 40 0.900000 0.260000 0.252000 1100 33 1.000000 2.342000 2.342000 600 44 1.000000 0.050000 0.050000 1.200000 0.030000 0.036000
1538246958850720724	700 40 0.900000 0.260000 0.252000 1100 33 1.000000 2.353000 2.353000 600 45 1.000000 0.051000 0.051000 1.200000 0.030000 0.036000
1538246959402729557	700 39 0.900000 0.260000 0.252000 1100 33 0.900000 2.354000 2.349000 600 45 1.000000 0.051000 0.051000 1.200000 0.030000 0.036000
1538246959954704557	700 40 0.900000 0.260000 0.252000 1100 33 1.000000 2.355000 2.355000 600 45 1.000000 0.051000 0.051000 1.200000 0.030000 0.036000
1538246960514736932	700 40 0.900000 0.260000 0.252000 1100 33 0.900000 2.347000 2.342000 600 45 1.000000 0.051000 0.051000 1.200000 0.030000 0.036000
1538246961062666890	700 40 0.900000 0.260000 0.252000 1100 33 1.000000 2.353000 2.353000 600 45 1.000000 0.051000 0.051000 1.200000 0.030000 0.036000
1538246961626719016	700 40 0.900000 0.260000 0.252000 1100 33 1.000000 2.353000 2.353000 600 44 1.000000 0.051000 0.051000 1.200000 0.030000 0.036000
1538246962178715307	700 40 0.900000 0.260000 0.252000 1100 33 1.000000 2.354000 2.354000 600 45 1.000000 0.051000 0.051000 1.200000 0.030000 0.036000
1538246962734698016	700 40 0.900000 0.260000 0.252000 1100 33 1.000000 2.341000 2.341000 600 45 1.000000 0.051000 0.051000 1.200000 0.030000 0.036000
1538246963286669016	700 40 0.900000 0.260000 0.252000 1100 33 1.000000 2.350000 2.350000 600 45 1.000000 0.051000 0.051000 1.200000 0.031000 0.037000
1538246963842667891	700 40 0.900000 0.260000 0.252000 1100 33 1.000000 2.355000 2.355000 600 45 1.000000 0.051000 0.051000 1.200000 0.031000 0.037000
1538246964382668141	700 40 0.900000 0.259000 0.252000 1100 33 1.000000 2.356000 2.356000 600 45 1.000000 0.051000 0.051000 1.200000 0.030000 0.036000
1538246964922747141	700 40 0.900000 0.260000 0.252000 1100 33 1.000000 2.347000 2.347000 600 45 1.000000 0.051000 0.051000 1.200000 0.030000 0.036000
1538246965482727974	700 40 0.900000 0.260000 0.252000 1100 33 1.000000 2.340000 2.340000 600 44 1.000000 0.051000 0.051000 1.200000 0.030000 0.036000
1538246966034766891	700 40 0.900000 0.260000 0.252000 1100 33 1.000000 2.334000 2.334000 600 44 1.000000 0.051000 0.051000 1.200000 0.030000 0.036000
1538246966590705349	700 39 0.900000 0.260000 0.252000 1100 33 1.000000 2.334000 2.334000 600 44 1.000000 0.051000 0.051000 1.200000 0.030000 0.036000
1538246967142664600	700 40 0.900000 0.260000 0.252000 1100 33 1.000000 2.333000 2.333000 600 44 1.000000 0.051000 0.051000 1.200000 0.030000 0.036000
1538246967698711641	700 39 0.900000 0.260000 0.252000 1100 33 1.000000 2.327000 2.327000 600 44 1.000000 0.051000 0.051000 1.200000 0.030000 0.036000
1538246968250696266	700 40 0.900000 0.260000 0.252000 1100 33 0.900000 2.322000 2.317000 600 44 1.000000 0.051000 0.051000 1.200000 0.030000 0.036000
1538246968802742558	700 40 0.900000 0.259000 0.252000 1100 33 0.900000 2.323000 2.318000 600 44 1.000000 0.051000 0.051000 1.200000 0.030000 0.036000
1538246969358645725	700 39 0.900000 0.260000 0.253000 1100 33 0.900000 2.313000 2.308000 600 45 1.000000 0.051000 0.051000 1.200000 0.030000 0.036000
1538246969914696225	700 39 0.900000 0.260000 0.252000 1100 33 0.900000 2.326000 2.321000 600 44 1.000000 0.051000 0.051000 1.200000 0.030000 0.036000
1538246970486720933	700 40 0.900000 0.260000 0.252000 1100 33 0.900000 2.326000 2.321000 600 44 1.000000 0.051000 0.051000 1.200000 0.030000 0.036000
1538246971046662850	700 40 0.900000 0.259000 0.252000 1100 33 0.900000 2.325000 2.320000 600 44 1.000000 0.051000 0.051000 1.200000 0.030000 0.036000
1538246971594700933	700 40 0.900000 0.260000 0.252000 1100 33 0.900000 2.325000 2.320000 600 44 1.000000 0.051000 0.051000 1.200000 0.031000 0.037000
1538246972146703392	700 39 0.900000 0.260000 0.252000 1100 33 0.900000 2.319000 2.314000 600 44 1.000000 0.051000 0.051000 1.200000 0.031000 0.037000
1538246972698663684	700 40 0.900000 0.260000 0.252000 1100 33 0.900000 2.321000 2.316000 600 44 1.000000 0.051000 0.051000 1.200000 0.031000 0.037000
1538246973246712767	700 40 0.900000 0.260000 0.252000 1100 33 0.900000 2.325000 2.320000 600 44 1.000000 0.051000 0.051000 1.200000 0.030000 0.036000
1538246973806744642	700 39 0.900000 0.260000 0.252000 1100 33 0.900000 2.322000 2.317000 600 44 1.000000 0.051000 0.051000 1.200000 0.030000 0.036000
1538246974362720975	700 39 0.900000 0.260000 0.252000 1100 33 0.900000 2.319000 2.314000 600 44 1.000000 0.051000 0.051000 1.200000 0.030000 0.036000
1538246974910729725	700 39 0.900000 0.260000 0.252000 1100 33 0.900000 2.313000 2.308000 600 44 1.000000 0.051000 0.051000 1.200000 0.030000 0.036000
1538246975478720392	700 39 0.900000 0.260000 0.252000 1100 33 0.900000 2.321000 2.316000 600 44 1.000000 0.051000 0.051000 1.200000 0.031000 0.037000
1538246976038731392	700 40 0.900000 0.260000 0.252000 1100 33 0.900000 2.319000 2.314000 600 44 1.000000 0.051000 0.051000 1.200000 0.030000 0.036000
1538246976594726642	700 39 0.900000 0.260000 0.252000 1100 33 0.900000 2.319000 2.314000 600 44 1.000000 0.051000 0.051000 1.200000 0.031000 0.037000
1538246977146750767	700 40 0.900000 0.260000 0.252000 1100 33 0.900000 2.321000 2.316000 600 44 1.000000 0.051000 0.051000 1.200000 0.031000 0.037000
1538246977698671892	700 39 0.900000 0.260000 0.252000 1100 33 0.900000 2.324000 2.319000 600 44 1.000000 0.050000 0.050000 1.200000 0.030000 0.036000
1538246978258753476	700 39 0.900000 0.260000 0.252000 1100 33 0.900000 2.316000 2.311000 600 44 1.000000 0.051000 0.051000 1.200000 0.031000 0.037000
1538246978814704018	700 39 0.900000 0.259000 0.252000 1100 33 0.900000 2.315000 2.310000 600 44 1.000000 0.051000 0.051000 1.200000 0.031000 0.037000
1538246979354704976	700 39 0.900000 0.260000 0.252000 1100 33 0.900000 2.316000 2.311000 600 44 1.000000 0.051000 0.051000 1.200000 0.031000 0.037000
1538246979918708476	700 39 0.900000 0.260000 0.252000 1100 33 0.900000 2.321000 2.316000 600 44 1.000000 0.051000 0.051000 1.200000 0.030000 0.036000
1538246980470711768	700 39 0.900000 0.260000 0.252000 1100 33 0.900000 2.322000 2.317000 600 44 1.000000 0.051000 0.051000 1.200000 0.030000 0.036000
1538246981022699185	700 39 0.900000 0.260000 0.252000 1100 33 0.900000 2.322000 2.317000 600 44 1.000000 0.051000 0.051000 1.200000 0.030000 0.036000
1538246981570697810	700 39 0.900000 0.260000 0.252000 1100 33 0.900000 2.322000 2.317000 600 44 1.000000 0.051000 0.051000 1.200000 0.030000 0.036000
1538246982122685143	700 39 0.900000 0.260000 0.252000 1100 33 0.900000 2.322000 2.317000 600 44 1.000000 0.051000 0.051000 1.200000 0.030000 0.036000
1538246982686685435	700 40 0.900000 0.260000 0.252000 1100 33 0.900000 2.323000 2.318000 600 44 1.000000 0.051000 0.051000 1.200000 0.030000 0.036000
1538246983250696226	700 40 0.900000 0.260000 0.252000 1100 33 0.900000 2.323000 2.318000 600 44 1.000000 0.051000 0.051000 1.200000 0.030000 0.036000
1538246983802724602	700 39 0.900000 0.260000 0.252000 1100 33 0.900000 2.315000 2.310000 600 44 1.000000 0.051000 0.051000 1.200000 0.030000 0.036000
1538246984362701352	700 40 0.900000 0.260000 0.252000 1100 33 0.900000 2.330000 2.325000 600 44 1.000000 0.051000 0.051000 1.200000 0.030000 0.036000
1538246984922703227	700 39 0.900000 0.260000 0.252000 1100 33 0.900000 2.329000 2.324000 600 44 1.000000 0.051000 0.051000 1.200000 0.031000 0.037000
1538246985490703727	700 40 0.900000 0.260000 0.252000 1100 33 0.900000 2.330000 2.325000 600 44 1.000000 0.051000 0.051000 1.200000 0.031000 0.037000
1538246986038727018	700 39 0.900000 0.261000 0.253000 1100 33 1.000000 2.330000 2.330000 600 44 1.000000 0.051000 0.051000 1.200000 0.031000 0.037000
1538246986598738727	700 39 0.900000 0.260000 0.252000 1100 33 1.000000 2.337000 2.337000 600 44 1.000000 0.051000 0.051000 1.200000 0.031000 0.037000
1538246987146718185	700 40 0.900000 0.260000 0.252000 1100 33 1.000000 2.337000 2.337000 600 44 1.000000 0.051000 0.051000 1.200000 0.031000 0.037000
1538246987706669144	700 39 0.900000 0.261000 0.253000 1100 33 0.900000 2.336000 2.331000 600 44 1.000000 0.051000 0.051000 1.200000 0.031000 0.037000
1538246988266700019	700 40 0.900000 0.260000 0.252000 1100 33 1.000000 2.337000 2.337000 600 44 1.000000 0.051000 0.051000 1.200000 0.031000 0.037000
1538246988826755560	700 39 0.900000 0.260000 0.252000 1100 33 0.900000 2.336000 2.331000 600 44 1.000000 0.051000 0.051000 1.200000 0.031000 0.037000
1538246989382717394	700 39 0.900000 0.260000 0.252000 1100 33 1.000000 2.337000 2.337000 600 44 1.000000 0.051000 0.051000 1.200000 0.031000 0.037000
1538246989942741936	700 39 0.900000 0.260000 0.252000 1100 33 0.900000 2.331000 2.326000 600 44 1.000000 0.051000 0.051000 1.200000 0.031000 0.037000
1538246990494745144	700 39 0.900000 0.260000 0.252000 1100 33 0.900000 2.335000 2.330000 600 44 1.000000 0.051000 0.051000 1.200000 0.031000 0.037000
1538246991058719852	700 40 0.900000 0.260000 0.252000 1100 33 0.900000 2.330000 2.325000 600 44 1.000000 0.051000 0.051000 1.200000 0.031000 0.037000
1538246991618709561	700 39 0.900000 0.260000 0.252000 1100 33 1.000000 2.327000 2.327000 600 44 1.000000 0.051000 0.051000 1.200000 0.031000 0.037000
1538246992182716144	700 40 0.900000 0.260000 0.252000 1100 33 0.900000 2.330000 2.325000 600 44 1.000000 0.051000 0.051000 1.200000 0.031000 0.037000
1538246992742668519	700 39 0.900000 0.260000 0.252000 1100 33 0.900000 2.336000 2.331000 600 45 1.000000 0.051000 0.051000 1.200000 0.031000 0.037000
1538246993302659561	700 39 0.900000 0.260000 0.252000 1100 33 0.900000 2.332000 2.327000 600 44 1.000000 0.051000 0.051000 1.200000 0.032000 0.038000
1538246993854730603	700 40 0.900000 0.260000 0.252000 1100 33 0.900000 2.315000 2.310000 600 44 1.000000 0.051000 0.051000 1.200000 0.031000 0.037000
1538246994406737894	700 40 0.900000 0.260000 0.252000 1100 33 0.900000 2.318000 2.313000 600 44 1.000000 0.051000 0.051000 1.200000 0.031000 0.037000
1538246994966656770	700 39 0.900000 0.260000 0.252000 1100 33 1.000000 2.325000 2.325000 600 44 1.000000 0.051000 0.051000 1.200000 0.031000 0.037000
1538246995514761311	700 40 0.900000 0.260000 0.252000 1100 33 0.900000 2.322000 2.317000 600 44 1.000000 0.051000 0.051000 1.200000 0.031000 0.037000
1538246996070658270	700 39 0.900000 0.260000 0.252000 1100 33 0.900000 2.321000 2.316000 600 44 1.000000 0.051000 0.051000 1.200000 0.031000 0.037000
1538246996630739686	700 39 0.900000 0.260000 0.252000 1100 33 0.900000 2.326000 2.321000 600 44 1.000000 0.051000 0.051000 1.200000 0.031000 0.037000
1538246997182696020	700 40 0.900000 0.260000 0.252000 1100 33 0.900000 2.330000 2.325000 600 44 1.000000 0.051000 0.051000 1.200000 0.031000 0.037000
1538246997734707437	700 40 0.900000 0.260000 0.252000 1100 33 0.900000 2.330000 2.325000 600 44 1.000000 0.051000 0.051000 1.200000 0.031000 0.037000
1538246998290691437	700 39 0.900000 0.260000 0.252000 1100 33 0.900000 2.319000 2.314000 600 44 1.000000 0.051000 0.051000 1.200000 0.031000 0.037000
1538246998850718687	700 40 0.900000 0.260000 0.252000 1100 33 0.900000 2.324000 2.319000 600 44 1.000000 0.051000 0.051000 1.200000 0.031000 0.037000
1538246999402760353	700 39 0.900000 0.260000 0.252000 1100 33 0.900000 2.325000 2.320000 600 44 1.000000 0.051000 0.051000 1.200000 0.032000 0.038000
1538246999954716103	700 39 0.900000 0.260000 0.252000 1100 33 0.900000 2.331000 2.326000 600 44 1.000000 0.051000 0.051000 1.200000 0.032000 0.038000
1538247000518728645	700 39 0.900000 0.260000 0.252000 1100 33 0.900000 2.328000 2.323000 600 44 1.000000 0.051000 0.051000 1.200000 0.031000 0.037000
1538247001078668645	700 40 0.900000 0.260000 0.252000 1100 33 0.900000 2.330000 2.325000 600 44 1.000000 0.051000 0.051000 1.200000 0.031000 0.037000
1538247001638791812	700 39 0.900000 0.261000 0.253000 1100 33 0.900000 2.331000 2.326000 600 44 1.000000 0.051000 0.051000 1.200000 0.031000 0.037000
1538247002186699104	700 39 0.900000 0.260000 0.252000 1100 33 0.900000 2.324000 2.319000 600 44 1.000000 0.051000 0.051000 1.200000 0.031000 0.037000
1538247002746748645	700 39 0.900000 0.260000 0.252000 1100 33 0.900000 2.337000 2.332000 600 44 1.000000 0.051000 0.051000 1.200000 0.031000 0.037000
1538247003298702437	700 40 0.900000 0.260000 0.252000 1100 33 0.900000 2.337000 2.332000 600 44 1.000000 0.051000 0.051000 1.200000 0.031000 0.037000
1538247003854721479	700 40 0.900000 0.260000 0.252000 1100 33 0.900000 2.341000 2.336000 600 44 1.000000 0.051000 0.051000 1.200000 0.031000 0.037000
1538247004410665396	700 39 0.900000 0.260000 0.252000 1100 33 0.900000 2.342000 2.337000 600 44 1.000000 0.051000 0.051000 1.200000 0.031000 0.037000
1538247004974702771	700 40 0.900000 0.260000 0.252000 1100 33 0.900000 2.339000 2.334000 600 44 1.000000 0.051000 0.051000 1.200000 0.031000 0.037000
1538247005534685979	700 40 0.900000 0.260000 0.252000 1100 33 0.900000 2.341000 2.336000 600 44 1.000000 0.051000 0.051000 1.200000 0.031000 0.037000
1538247006094694521	700 40 0.900000 0.261000 0.253000 1100 33 0.900000 2.339000 2.334000 600 44 1.000000 0.051000 0.051000 1.200000 0.031000 0.037000
1538247006650764438	700 39 0.900000 0.260000 0.252000 1100 33 0.900000 2.339000 2.334000 600 44 1.000000 0.051000 0.051000 1.200000 0.031000 0.037000
1538247007202711646	700 39 0.900000 0.260000 0.252000 1100 33 0.900000 2.335000 2.330000 600 44 1.000000 0.051000 0.051000 1.200000 0.031000 0.037000
1538247007762777563	700 40 0.900000 0.260000 0.252000 1100 33 0.900000 2.341000 2.336000 600 44 1.000000 0.051000 0.051000 1.200000 0.031000 0.037000
1538247008314687604	700 40 0.900000 0.260000 0.252000 1100 33 0.900000 2.335000 2.330000 600 44 1.000000 0.051000 0.051000 1.200000 0.031000 0.037000
1538247008874717271	700 39 0.900000 0.260000 0.252000 1100 33 0.900000 2.338000 2.333000 600 44 1.000000 0.051000 0.051000 1.200000 0.031000 0.037000
1538247009438759813	700 40 0.900000 0.260000 0.252000 1100 33 0.900000 2.327000 2.322000 600 44 1.000000 0.051000 0.051000 1.200000 0.031000 0.037000
1538247009994674063	700 40 0.900000 0.260000 0.252000 1100 33 0.900000 2.327000 2.322000 600 44 1.000000 0.051000 0.051000 1.200000 0.031000 0.037000
1538247010550716896	700 39 0.900000 0.260000 0.252000 1100 33 0.900000 2.339000 2.334000 600 44 1.000000 0.051000 0.051000 1.200000 0.031000 0.037000
1538247011110710896	700 39 0.900000 0.260000 0.252000 1100 33 0.900000 2.339000 2.334000 600 44 1.000000 0.051000 0.051000 1.200000 0.031000 0.037000
1538247011670652438	700 39 0.900000 0.260000 0.252000 1100 33 0.900000 2.338000 2.333000 600 44 1.000000 0.051000 0.051000 1.200000 0.031000 0.037000
1538247012226711813	700 39 0.900000 0.260000 0.252000 1100 33 0.900000 2.341000 2.336000 600 44 1.000000 0.051000 0.051000 1.200000 0.031000 0.037000
1538247012786687605	700 39 0.900000 0.261000 0.253000 1100 33 0.900000 2.336000 2.331000 600 44 1.000000 0.051000 0.051000 1.200000 0.031000 0.037000
1538247013346741688	700 40 0.900000 0.261000 0.253000 1100 33 0.900000 2.331000 2.326000 600 44 1.000000 0.051000 0.051000 1.200000 0.030000 0.036000
1538247013898710897	700 40 0.900000 0.260000 0.252000 1100 33 0.900000 2.338000 2.333000 600 44 1.000000 0.051000 0.051000 1.200000 0.030000 0.036000
1538247014454728522	700 39 0.900000 0.260000 0.252000 1100 33 0.900000 2.334000 2.329000 600 44 1.000000 0.051000 0.051000 1.200000 0.030000 0.036000
1538247015014682689	700 39 0.900000 0.260000 0.252000 1100 33 0.900000 2.329000 2.324000 600 44 1.000000 0.051000 0.051000 1.200000 0.030000 0.036000
1538247015574693314	700 39 0.900000 0.260000 0.252000 1100 33 0.900000 2.338000 2.333000 600 44 1.000000 0.051000 0.051000 1.200000 0.031000 0.037000
1538247016130725272	700 39 0.900000 0.260000 0.252000 1100 33 0.900000 2.337000 2.332000 600 44 1.000000 0.051000 0.051000 1.200000 0.030000 0.036000
1538247016690666855	700 39 0.900000 0.260000 0.252000 1100 33 0.900000 2.337000 2.332000 600 44 1.000000 0.051000 0.051000 1.200000 0.030000 0.036000
1538247017242720606	700 40 0.900000 0.260000 0.252000 1100 33 0.900000 2.337000 2.332000 600 44 1.000000 0.051000 0.051000 1.200000 0.030000 0.036000
1538247017802711397	700 40 0.900000 0.260000 0.252000 1100 33 0.900000 2.338000 2.333000 600 44 1.000000 0.051000 0.051000 1.200000 0.030000 0.036000
1538247018358725731	700 40 0.900000 0.260000 0.252000 1100 33 0.900000 2.332000 2.327000 600 44 1.000000 0.051000 0.051000 1.200000 0.030000 0.036000
1538247018906728481	700 39 0.900000 0.260000 0.252000 1100 33 0.900000 2.332000 2.327000 600 44 1.000000 0.051000 0.051000 1.200000 0.030000 0.036000
1538247019466708314	700 39 0.900000 0.260000 0.252000 1100 33 0.900000 2.332000 2.327000 600 44 1.000000 0.051000 0.051000 1.200000 0.031000 0.037000
1538247020014756189	700 39 0.900000 0.260000 0.252000 1100 33 0.900000 2.329000 2.324000 600 44 1.000000 0.051000 0.051000 1.200000 0.030000 0.036000
1538247020578737939	700 40 0.900000 0.260000 0.252000 1100 33 0.900000 2.337000 2.332000 600 44 1.000000 0.051000 0.051000 1.200000 0.030000 0.036000
1538247021130731439	700 40 0.900000 0.260000 0.252000 1100 33 0.900000 2.334000 2.329000 600 44 1.000000 0.051000 0.051000 1.200000 0.030000 0.036000
1538247021690724356	700 39 0.900000 0.260000 0.252000 1100 33 0.900000 2.318000 2.313000 600 44 1.000000 0.051000 0.051000 1.200000 0.030000 0.036000
1538247022242674898	700 39 0.900000 0.260000 0.252000 1100 33 0.900000 2.318000 2.313000 600 44 1.000000 0.051000 0.051000 1.200000 0.030000 0.036000
1538247022798691856	700 39 0.900000 0.261000 0.253000 1100 33 0.900000 2.320000 2.315000 600 44 1.000000 0.051000 0.051000 1.200000 0.031000 0.037000
1538247023350710398	700 39 0.900000 0.260000 0.252000 1100 33 0.900000 2.318000 2.313000 600 44 1.000000 0.051000 0.051000 1.200000 0.031000 0.037000
1538247023910724106	700 39 0.900000 0.260000 0.252000 1100 33 0.900000 2.325000 2.320000 600 44 1.000000 0.051000 0.051000 1.200000 0.030000 0.036000
1538247024470760565	700 39 0.900000 0.260000 0.252000 1100 33 0.900000 2.319000 2.314000 600 44 1.000000 0.051000 0.051000 1.200000 0.030000 0.036000
1538247025034701731	700 39 0.900000 0.260000 0.252000 1100 33 1.000000 2.319000 2.319000 600 44 1.000000 0.051000 0.051000 1.200000 0.031000 0.037000
1538247025594683190	700 39 0.900000 0.261000 0.253000 1100 33 0.900000 2.326000 2.321000 600 44 1.000000 0.051000 0.051000 1.200000 0.030000 0.036000
1538247026154743398	700 39 0.900000 0.261000 0.253000 1100 33 0.900000 2.325000 2.320000 600 44 1.000000 0.051000 0.051000 1.200000 0.030000 0.036000
1538247026718740232	700 39 0.900000 0.261000 0.253000 1100 33 0.900000 2.325000 2.320000 600 44 1.000000 0.051000 0.051000 1.200000 0.030000 0.036000
1538247027278713565	700 40 0.900000 0.260000 0.252000 1100 33 0.900000 2.325000 2.320000 600 44 1.000000 0.051000 0.051000 1.200000 0.030000 0.036000
1538247027834697440	700 39 0.900000 0.260000 0.252000 1100 33 0.900000 2.327000 2.322000 600 44 1.000000 0.051000 0.051000 1.200000 0.031000 0.037000
1538247028382667274	700 39 0.900000 0.260000 0.252000 1100 33 0.900000 2.325000 2.320000 600 44 1.000000 0.051000 0.051000 1.200000 0.031000 0.037000
1538247028930696649	700 40 0.900000 0.260000 0.252000 1100 33 0.900000 2.326000 2.321000 600 44 1.000000 0.051000 0.051000 1.200000 0.031000 0.037000
1538247029494666440	700 39 0.900000 0.260000 0.252000 1100 33 0.900000 2.325000 2.320000 600 44 1.000000 0.051000 0.051000 1.200000 0.030000 0.036000
1538247030001535399	700 39 0.900000 0.260000 0.252000 1100 33 0.900000 2.325000 2.320000 600 43 1.000000 0.051000 0.051000 1.200000 0.031000 0.037000
1538247030508081815	700 38 0.900000 0.260000 0.252000 1100 32 0.900000 1.818000 1.810000 600 39 1.000000 0.051000 0.051000 1.200000 0.031000 0.037000
1538247031014502940	700 37 0.900000 0.260000 0.253000 1100 32 0.900000 1.024000 1.015000 600 36 1.000000 0.051000 0.051000 1.200000 0.031000 0.037000
1538247031520782857	700 36 0.900000 0.261000 0.254000 1100 31 0.900000 0.769000 0.762000 600 35 1.000000 0.051000 0.051000 1.200000 0.030000 0.036000
1538247032027144107	700 35 0.900000 0.260000 0.253000 1100 31 0.900000 0.760000 0.753000 600 34 1.000000 0.051000 0.051000 1.200000 0.030000 0.036000
1538247032533506607	700 35 0.900000 0.260000 0.252000 1100 30 0.900000 0.765000 0.758000 600 34 1.000000 0.050000 0.050000 1.200000 0.030000 0.036000
1538247033039978482	700 31 0.900000 0.260000 0.253000 1100 29 0.900000 0.757000 0.750000 600 33 1.000000 0.051000 0.051000 1.200000 0.031000 0.037000
1538247033546347024	700 30 0.900000 0.260000 0.253000 1100 28 1.000000 0.137000 0.137000 600 32 1.000000 0.051000 0.051000 1.200000 0.030000 0.036000
1538247034052684483	700 29 0.900000 0.260000 0.253000 1100 28 1.000000 0.126000 0.126000 600 31 1.000000 0.050000 0.050000 1.200000 0.030000 0.036000
1538247034558894024	700 28 0.900000 0.260000 0.253000 1100 27 1.000000 0.136000 0.136000 600 31 1.000000 0.050000 0.050000 1.200000 0.030000 0.036000
1538247035065202274	700 28 0.900000 0.260000 0.253000 1100 27 1.000000 0.119000 0.119000 600 30 1.000000 0.050000 0.050000 1.200000 0.030000 0.036000
1538247035571637566	700 28 0.900000 0.260000 0.253000 1100 26 1.000000 0.135000 0.135000 600 30 1.000000 0.050000 0.050000 1.200000 0.030000 0.036000
1538247036078015274	700 28 0.900000 0.260000 0.253000 1100 26 1.000000 0.118000 0.118000 600 30 1.000000 0.050000 0.050000 1.200000 0.031000 0.037000
1538247036584329566	700 27 0.900000 0.259000 0.252000 1100 26 1.000000 0.137000 0.137000 600 29 1.000000 0.050000 0.050000 1.200000 0.030000 0.036000
1538247037090753900	700 27 0.900000 0.259000 0.252000 1100 26 1.000000 0.118000 0.118000 600 29 1.000000 0.050000 0.050000 1.200000 0.030000 0.036000
1538247037597213441	700 27 0.900000 0.259000 0.252000 1100 25 1.000000 0.137000 0.137000 600 29 1.000000 0.050000 0.050000 1.200000 0.030000 0.036000
1538247038103570900	700 27 0.900000 0.259000 0.252000 1100 25 1.000000 0.115000 0.115000 600 29 1.000000 0.050000 0.050000 1.200000 0.030000 0.036000
1538247038609969191	700 26 0.900000 0.259000 0.252000 1100 25 1.000000 0.137000 0.137000 600 29 1.000000 0.050000 0.050000 1.200000 0.030000 0.036000
1538247039116255150	700 26 0.900000 0.259000 0.252000 1100 25 1.000000 0.118000 0.118000 600 28 1.000000 0.050000 0.050000 1.200000 0.030000 0.036000
1538247039622628733	700 26 0.900000 0.259000 0.252000 1100 25 1.000000 0.138000 0.138000 600 28 1.000000 0.050000 0.050000 1.200000 0.030000 0.036000
1538247040128950442	700 26 0.900000 0.259000 0.252000 1100 25 1.000000 0.115000 0.115000 600 28 1.000000 0.050000 0.050000 1.200000 0.030000 0.036000
1538247040635195275	700 26 0.900000 0.259000 0.252000 1100 24 1.000000 0.135000 0.135000 600 28 1.000000 0.050000 0.050000 1.200000 0.030000 0.036000
1538247041141464733	700 26 0.900000 0.259000 0.252000 1100 24 1.000000 0.117000 0.117000 600 28 1.000000 0.050000 0.050000 1.200000 0.031000 0.037000
1538247041647866483	700 26 0.900000 0.259000 0.252000 1100 24 1.000000 0.116000 0.116000 600 28 1.000000 0.050000 0.050000 1.200000 0.030000 0.036000
1538247042154224692	700 26 0.900000 0.259000 0.252000 1100 24 1.000000 0.115000 0.115000 600 28 1.000000 0.050000 0.050000 1.200000 0.031000 0.037000
1538247042660546109	700 25 0.900000 0.259000 0.252000 1100 24 1.000000 0.136000 0.136000 600 27 1.000000 0.050000 0.050000 1.200000 0.031000 0.037000
1538247043166938525	700 25 0.900000 0.204000 0.201000 1100 24 1.000000 0.109000 0.109000 600 27 1.000000 0.050000 0.050000 1.200000 0.029000 0.035000
1538247043673322067	700 25 0.900000 0.094000 0.092000 1100 23 1.000000 0.130000 0.130000 600 27 1.000000 0.050000 0.050000 1.200000 0.025000 0.030000
1538247044179599859	700 24 0.900000 0.086000 0.084000 1100 23 1.000000 0.112000 0.112000 600 27 1.000000 0.050000 0.050000 1.200000 0.025000 0.030000
1538247044686094817	700 24 0.900000 0.089000 0.087000 1100 23 1.000000 0.129000 0.129000 600 27 1.000000 0.050000 0.050000 1.200000 0.025000 0.030000
1538247045192537401	700 24 0.900000 0.028000 0.027000 1100 23 1.000000 0.111000 0.111000 600 27 1.000000 0.050000 0.050000 1.200000 0.022000 0.026000
