#Timestamp	CPU(0) Frequency(MHz)	CPU(0) Temperature(C)	A7 Voltage(V)	A7 Current(A)	A7 Power(W)	CPU(4) Frequency(MHz)	CPU(4) Temperature(C)	A15 Voltage(V)	A15 Current(A)	A15 Power(W)	GPU Frequency(MHz)	GPU Temperature(C)	GPU Voltage(V)	GPU Current(A)	GPU Power(W)	RAM Voltage(V)	RAM Current(A)	RAM Power(W)
1517164513051533539	1400 35 1.200000 0.081000 0.103000 800 34 0.900000 0.405000 0.375000 600 38 1.000000 0.052000 0.052000 1.200000 0.034000 0.041000
1517164513560281414	1400 35 1.200000 0.078000 0.099000 800 34 0.900000 0.431000 0.394000 600 38 1.000000 0.052000 0.052000 1.200000 0.029000 0.035000
1517164514069213205	1400 35 1.200000 0.078000 0.099000 800 34 0.900000 0.438000 0.400000 600 38 1.000000 0.052000 0.052000 1.200000 0.028000 0.033000
1517164514578117747	1400 35 1.200000 0.078000 0.099000 800 34 0.900000 0.441000 0.403000 600 38 1.000000 0.052000 0.052000 1.200000 0.028000 0.033000
1517164515087060581	1400 35 1.200000 0.078000 0.099000 800 34 0.900000 0.432000 0.395000 600 38 1.000000 0.052000 0.052000 1.200000 0.028000 0.033000
1517164515595903956	1400 35 1.200000 0.078000 0.099000 800 34 0.900000 0.429000 0.392000 600 38 1.000000 0.052000 0.052000 1.200000 0.028000 0.033000
1517164516104752372	1400 35 1.200000 0.078000 0.099000 800 34 0.900000 0.429000 0.392000 600 38 1.000000 0.052000 0.052000 1.200000 0.029000 0.035000
1517164516613474747	1400 35 1.200000 0.078000 0.099000 800 34 0.900000 0.432000 0.394000 600 38 1.000000 0.052000 0.052000 1.200000 0.028000 0.033000
1517164517122298789	1400 35 1.200000 0.077000 0.097000 800 34 0.900000 0.429000 0.392000 600 38 1.000000 0.052000 0.052000 1.200000 0.027000 0.032000
1517164517631156664	1400 35 1.200000 0.079000 0.100000 800 34 0.900000 0.431000 0.394000 600 38 1.000000 0.052000 0.052000 1.200000 0.028000 0.033000
1517164518139983331	1400 35 1.200000 0.078000 0.099000 800 34 0.900000 0.430000 0.393000 600 38 1.000000 0.052000 0.052000 1.200000 0.028000 0.033000
1517164518648864539	1400 35 1.200000 0.078000 0.099000 800 34 0.900000 0.446000 0.408000 600 38 1.000000 0.052000 0.052000 1.200000 0.028000 0.033000
1517164519157749331	1400 35 1.200000 0.078000 0.099000 800 34 0.900000 0.437000 0.399000 600 38 1.000000 0.052000 0.052000 1.200000 0.029000 0.035000
1517164519666624456	1400 35 1.200000 0.078000 0.099000 800 34 0.900000 0.440000 0.402000 600 38 1.000000 0.052000 0.052000 1.200000 0.028000 0.033000
1517164520175483331	1400 35 1.200000 0.078000 0.099000 800 34 0.900000 0.446000 0.408000 600 38 1.000000 0.052000 0.052000 1.200000 0.029000 0.035000
1517164520684331373	1400 35 1.200000 0.078000 0.099000 800 34 0.900000 0.433000 0.396000 600 38 1.000000 0.052000 0.052000 1.200000 0.029000 0.035000
1517164521193385998	1400 35 1.200000 0.078000 0.099000 800 34 0.900000 0.432000 0.396000 600 38 1.000000 0.052000 0.052000 1.200000 0.028000 0.033000
1517164521702271748	1400 35 1.200000 0.078000 0.099000 800 34 0.900000 0.431000 0.393000 600 38 1.000000 0.052000 0.052000 1.200000 0.029000 0.035000
1517164522211073540	1400 35 1.200000 0.078000 0.099000 800 34 0.900000 0.431000 0.394000 600 38 1.000000 0.052000 0.052000 1.200000 0.029000 0.035000
1517164522719994498	1400 35 1.200000 0.078000 0.099000 800 34 0.900000 0.431000 0.394000 600 38 1.000000 0.052000 0.052000 1.200000 0.028000 0.033000
1517164523228765707	1400 35 1.200000 0.078000 0.099000 800 34 0.900000 0.432000 0.396000 600 38 1.000000 0.052000 0.052000 1.200000 0.028000 0.033000
1517164523737756540	1400 35 1.200000 0.078000 0.099000 800 34 0.900000 0.429000 0.392000 600 38 1.000000 0.052000 0.052000 1.200000 0.027000 0.032000
1517164524246640915	1400 35 1.200000 0.078000 0.099000 800 34 0.900000 0.431000 0.394000 600 38 1.000000 0.052000 0.052000 1.200000 0.028000 0.033000
1517164524755596332	1400 35 1.200000 0.078000 0.099000 800 34 0.900000 0.430000 0.393000 600 38 1.000000 0.052000 0.052000 1.200000 0.028000 0.033000
1517164525264437498	1400 35 1.200000 0.078000 0.099000 800 34 0.900000 0.427000 0.389000 600 38 1.000000 0.052000 0.052000 1.200000 0.028000 0.033000
1517164525773461957	1400 35 1.200000 0.078000 0.099000 800 34 0.900000 0.441000 0.403000 600 38 1.000000 0.052000 0.052000 1.200000 0.028000 0.033000
1517164526282442165	1400 35 1.200000 0.078000 0.099000 800 34 0.900000 0.439000 0.401000 600 38 1.000000 0.052000 0.052000 1.200000 0.029000 0.035000
1517164526791376207	1400 35 1.200000 0.078000 0.099000 800 34 0.900000 0.432000 0.395000 600 38 1.000000 0.052000 0.052000 1.200000 0.029000 0.035000
1517164527300265249	1400 35 1.200000 0.078000 0.099000 800 34 0.900000 0.428000 0.391000 600 38 1.000000 0.052000 0.052000 1.200000 0.027000 0.032000
1517164527809210832	1400 35 1.200000 0.078000 0.099000 800 34 0.900000 0.428000 0.391000 600 38 1.000000 0.052000 0.052000 1.200000 0.029000 0.035000
1517164528318090957	1400 35 1.200000 0.078000 0.099000 800 34 0.900000 0.428000 0.390000 600 38 1.000000 0.052000 0.052000 1.200000 0.029000 0.035000
1517164528827112832	1400 35 1.200000 0.078000 0.099000 800 34 0.900000 0.429000 0.392000 600 38 1.000000 0.052000 0.052000 1.200000 0.028000 0.033000
1517164529336081416	1400 35 1.200000 0.078000 0.099000 800 34 0.900000 0.433000 0.396000 600 38 1.000000 0.052000 0.052000 1.200000 0.028000 0.033000
1517164529845081416	1400 35 1.200000 0.078000 0.099000 800 34 0.900000 0.437000 0.399000 600 38 1.000000 0.052000 0.052000 1.200000 0.027000 0.032000
1517164530354041874	1400 35 1.200000 0.078000 0.099000 800 34 0.900000 0.445000 0.407000 600 38 1.000000 0.052000 0.052000 1.200000 0.028000 0.033000
1517164530862995166	1400 35 1.200000 0.078000 0.099000 800 34 0.900000 0.435000 0.398000 600 38 1.000000 0.052000 0.052000 1.200000 0.028000 0.033000
1517164531371945624	1400 35 1.200000 0.078000 0.099000 800 34 0.900000 0.441000 0.403000 600 38 1.000000 0.052000 0.052000 1.200000 0.027000 0.032000
1517164531880792541	1400 35 1.200000 0.078000 0.099000 800 34 0.900000 0.448000 0.410000 600 38 1.000000 0.052000 0.052000 1.200000 0.028000 0.033000
1517164532389840749	1400 35 1.200000 0.078000 0.099000 800 34 0.900000 0.435000 0.398000 600 38 1.000000 0.052000 0.052000 1.200000 0.029000 0.035000
1517164532898802958	1400 35 1.200000 0.078000 0.099000 800 34 0.900000 0.440000 0.402000 600 38 1.000000 0.052000 0.052000 1.200000 0.029000 0.035000
1517164533407844749	1400 35 1.200000 0.078000 0.099000 800 34 0.900000 0.443000 0.405000 600 38 1.000000 0.052000 0.052000 1.200000 0.029000 0.035000
1517164533916855208	1400 35 1.200000 0.078000 0.099000 800 33 0.900000 0.436000 0.398000 600 38 1.000000 0.052000 0.052000 1.200000 0.029000 0.035000
1517164534425711625	1400 35 1.200000 0.078000 0.099000 800 34 0.900000 0.443000 0.406000 600 38 1.000000 0.052000 0.052000 1.200000 0.028000 0.033000
1517164534934623833	1400 35 1.200000 0.078000 0.099000 800 34 0.900000 0.443000 0.405000 600 38 1.000000 0.052000 0.052000 1.200000 0.029000 0.035000
1517164535443516333	1400 35 1.200000 0.078000 0.099000 800 34 0.900000 0.432000 0.395000 600 38 1.000000 0.052000 0.052000 1.200000 0.027000 0.032000
1517164535952332375	1400 35 1.200000 0.078000 0.099000 800 34 0.900000 0.443000 0.405000 600 38 1.000000 0.052000 0.052000 1.200000 0.028000 0.033000
1517164536461128250	1400 35 1.200000 0.078000 0.099000 800 34 0.900000 0.441000 0.403000 600 38 1.000000 0.052000 0.052000 1.200000 0.028000 0.033000
1517164536970030666	1400 35 1.200000 0.078000 0.099000 800 34 0.900000 0.431000 0.394000 600 38 1.000000 0.052000 0.052000 1.200000 0.028000 0.033000
1517164537478973625	1400 35 1.200000 0.078000 0.099000 800 34 0.900000 0.442000 0.404000 600 38 1.000000 0.052000 0.052000 1.200000 0.028000 0.033000
1517164537987924875	1400 35 1.200000 0.078000 0.099000 800 34 0.900000 0.438000 0.400000 600 38 1.000000 0.052000 0.052000 1.200000 0.028000 0.033000
1517164538496845458	1400 35 1.200000 0.078000 0.099000 800 33 0.900000 0.436000 0.398000 600 38 1.000000 0.052000 0.052000 1.200000 0.028000 0.033000
1517164539005872792	1400 35 1.200000 0.078000 0.099000 800 33 0.900000 0.430000 0.393000 600 38 1.000000 0.051000 0.051000 1.200000 0.028000 0.033000
1517164539514761833	1400 35 1.200000 0.078000 0.099000 800 34 0.900000 0.430000 0.393000 600 38 1.000000 0.052000 0.052000 1.200000 0.028000 0.033000
1517164540023776084	1400 35 1.200000 0.078000 0.099000 800 33 0.900000 0.433000 0.396000 600 38 1.000000 0.052000 0.052000 1.200000 0.029000 0.035000
1517164540532598459	1400 35 1.200000 0.078000 0.099000 800 33 0.900000 0.445000 0.407000 600 38 1.000000 0.052000 0.052000 1.200000 0.030000 0.036000
1517164541041503792	1400 35 1.200000 0.078000 0.099000 800 33 0.900000 0.435000 0.398000 600 38 1.000000 0.052000 0.052000 1.200000 0.027000 0.032000
1517164541550334084	1400 35 1.200000 0.078000 0.099000 800 34 0.900000 0.437000 0.399000 600 38 1.000000 0.052000 0.052000 1.200000 0.027000 0.032000
1517164542059349417	1400 35 1.200000 0.078000 0.099000 800 34 0.900000 0.444000 0.406000 600 38 1.000000 0.052000 0.052000 1.200000 0.028000 0.033000
1517164542568264292	1400 34 1.200000 0.077000 0.098000 800 34 0.900000 0.434000 0.397000 600 38 1.000000 0.052000 0.052000 1.200000 0.027000 0.032000
1517164543077067667	1400 35 1.200000 0.078000 0.099000 800 33 0.900000 0.441000 0.403000 600 38 1.000000 0.052000 0.052000 1.200000 0.028000 0.033000
1517164543586077917	1400 35 1.200000 0.078000 0.099000 800 33 0.900000 0.444000 0.406000 600 38 1.000000 0.052000 0.052000 1.200000 0.027000 0.032000
1517164544095242001	1400 35 1.200000 0.078000 0.099000 800 34 0.900000 0.433000 0.396000 600 38 1.000000 0.052000 0.052000 1.200000 0.029000 0.035000
1517164544604139542	1400 34 1.200000 0.078000 0.099000 800 34 0.900000 0.439000 0.401000 600 38 1.000000 0.052000 0.052000 1.200000 0.028000 0.033000
1517164545113072042	1400 35 1.200000 0.078000 0.099000 800 33 0.900000 0.431000 0.394000 600 38 1.000000 0.052000 0.052000 1.200000 0.029000 0.035000
1517164545621860626	1400 35 1.200000 0.078000 0.099000 800 33 0.900000 0.430000 0.393000 600 38 1.000000 0.052000 0.052000 1.200000 0.029000 0.035000
1517164546130809876	1400 34 1.200000 0.078000 0.099000 800 33 0.900000 0.430000 0.393000 600 38 1.000000 0.052000 0.052000 1.200000 0.029000 0.035000
1517164546639859668	1400 34 1.200000 0.078000 0.099000 800 33 0.900000 0.429000 0.392000 600 38 1.000000 0.052000 0.052000 1.200000 0.029000 0.035000
1517164547148900584	1400 34 1.200000 0.078000 0.099000 800 33 0.900000 0.431000 0.394000 600 38 1.000000 0.052000 0.052000 1.200000 0.028000 0.033000
1517164547657786001	1400 34 1.200000 0.078000 0.099000 800 33 0.900000 0.442000 0.404000 600 38 1.000000 0.052000 0.052000 1.200000 0.028000 0.033000
1517164548166617376	1400 34 1.200000 0.078000 0.099000 800 33 0.900000 0.440000 0.402000 600 38 1.000000 0.052000 0.052000 1.200000 0.029000 0.035000
1517164548675664793	1400 35 1.200000 0.078000 0.099000 800 33 0.900000 0.437000 0.399000 600 38 1.000000 0.052000 0.052000 1.200000 0.028000 0.033000
1517164549184530793	1400 34 1.200000 0.078000 0.099000 800 33 0.900000 0.443000 0.405000 600 38 1.000000 0.052000 0.052000 1.200000 0.030000 0.036000
1517164549693481126	1400 34 1.200000 0.078000 0.099000 800 33 0.900000 0.438000 0.400000 600 38 1.000000 0.052000 0.052000 1.200000 0.029000 0.035000
1517164550202250418	1400 35 1.200000 0.078000 0.099000 800 33 0.900000 0.436000 0.398000 600 38 1.000000 0.052000 0.052000 1.200000 0.028000 0.033000
1517164550711155418	1400 35 1.200000 0.078000 0.099000 800 33 0.900000 0.447000 0.409000 600 38 1.000000 0.052000 0.052000 1.200000 0.029000 0.035000
1517164551220080585	1400 34 1.200000 0.078000 0.099000 800 33 0.900000 0.430000 0.393000 600 38 1.000000 0.052000 0.052000 1.200000 0.029000 0.035000
1517164551728985960	1400 34 1.200000 0.078000 0.099000 800 33 0.900000 0.430000 0.392000 600 38 1.000000 0.052000 0.052000 1.200000 0.028000 0.033000
1517164552237986627	1400 35 1.200000 0.078000 0.099000 800 33 0.900000 0.430000 0.393000 600 38 1.000000 0.052000 0.052000 1.200000 0.028000 0.033000
1517164552746805668	1400 34 1.200000 0.078000 0.099000 800 33 0.900000 0.431000 0.394000 600 38 1.000000 0.052000 0.052000 1.200000 0.029000 0.035000
1517164553255657877	1400 35 1.200000 0.078000 0.099000 800 33 0.900000 0.431000 0.394000 600 38 1.000000 0.052000 0.052000 1.200000 0.028000 0.033000
1517164553764513377	1400 34 1.200000 0.078000 0.099000 800 33 0.900000 0.431000 0.393000 600 38 1.000000 0.052000 0.052000 1.200000 0.027000 0.032000
1517164554273478252	1400 34 1.200000 0.078000 0.099000 800 33 0.900000 0.434000 0.397000 600 38 1.000000 0.052000 0.052000 1.200000 0.028000 0.033000
1517164554782402544	1400 34 1.200000 0.078000 0.099000 800 33 0.900000 0.442000 0.405000 600 38 1.000000 0.052000 0.052000 1.200000 0.028000 0.033000
1517164555291358669	1400 34 1.200000 0.077000 0.097000 800 33 0.900000 0.442000 0.403000 600 37 1.000000 0.052000 0.052000 1.200000 0.029000 0.035000
1517164555800182877	1400 34 1.200000 0.078000 0.099000 800 33 0.900000 0.432000 0.395000 600 38 1.000000 0.051000 0.051000 1.200000 0.028000 0.033000
1517164556309283085	1400 34 1.200000 0.078000 0.099000 800 33 0.900000 0.439000 0.401000 600 38 1.000000 0.052000 0.052000 1.200000 0.028000 0.033000
1517164556818280169	1400 34 1.200000 0.078000 0.099000 800 33 0.900000 0.441000 0.404000 600 38 1.000000 0.052000 0.052000 1.200000 0.030000 0.036000
1517164557327275836	1400 34 1.200000 0.078000 0.099000 800 33 0.900000 0.430000 0.393000 600 38 1.000000 0.052000 0.052000 1.200000 0.027000 0.032000
1517164557836181336	1400 34 1.200000 0.078000 0.099000 800 33 0.900000 0.429000 0.392000 600 38 1.000000 0.052000 0.052000 1.200000 0.028000 0.033000
1517164558344930669	1400 34 1.200000 0.078000 0.099000 800 33 0.900000 0.427000 0.390000 600 37 1.000000 0.052000 0.052000 1.200000 0.028000 0.033000
1517164558853890836	1400 34 1.200000 0.078000 0.099000 800 33 0.900000 0.427000 0.390000 600 38 1.000000 0.052000 0.052000 1.200000 0.029000 0.035000
1517164559362748169	1400 34 1.200000 0.078000 0.099000 800 33 0.900000 0.429000 0.392000 600 38 1.000000 0.052000 0.052000 1.200000 0.026000 0.031000
1517164559871707211	1400 34 1.200000 0.078000 0.099000 800 33 0.900000 0.430000 0.393000 600 37 1.000000 0.052000 0.052000 1.200000 0.026000 0.031000
1517164560380542628	1400 34 1.200000 0.078000 0.099000 800 33 0.900000 0.430000 0.393000 600 37 1.000000 0.052000 0.052000 1.200000 0.029000 0.035000
1517164560889374169	1400 34 1.200000 0.078000 0.099000 800 33 0.900000 0.430000 0.393000 600 37 1.000000 0.052000 0.052000 1.200000 0.027000 0.032000
1517164561398576336	1400 34 1.200000 0.078000 0.099000 800 33 0.900000 0.436000 0.398000 600 37 1.000000 0.052000 0.052000 1.200000 0.030000 0.036000
1517164561907491044	1400 34 1.200000 0.077000 0.097000 800 33 0.900000 0.436000 0.398000 600 37 1.000000 0.052000 0.052000 1.200000 0.029000 0.035000
1517164562416403920	1400 34 1.200000 0.078000 0.099000 800 33 0.900000 0.447000 0.409000 600 37 1.000000 0.052000 0.052000 1.200000 0.028000 0.033000
1517164562925401295	1400 34 1.200000 0.079000 0.100000 800 33 0.900000 0.437000 0.399000 600 37 1.000000 0.052000 0.052000 1.200000 0.030000 0.036000
1517164563434379795	1400 34 1.200000 0.078000 0.099000 800 33 0.900000 0.432000 0.395000 600 37 1.000000 0.051000 0.051000 1.200000 0.029000 0.035000
1517164563943301711	1400 34 1.200000 0.078000 0.099000 800 33 0.900000 0.432000 0.396000 600 37 1.000000 0.052000 0.052000 1.200000 0.028000 0.033000
1517164564452092045	1400 34 1.200000 0.078000 0.099000 800 33 0.900000 0.429000 0.392000 600 37 1.000000 0.052000 0.052000 1.200000 0.030000 0.036000
1517164564961055378	1400 34 1.200000 0.078000 0.099000 800 33 0.900000 0.430000 0.393000 600 37 1.000000 0.052000 0.052000 1.200000 0.028000 0.033000
1517164565469868170	1400 34 1.200000 0.078000 0.099000 800 33 0.900000 0.430000 0.393000 600 37 1.000000 0.052000 0.052000 1.200000 0.027000 0.032000
1517164565978916337	1400 34 1.200000 0.078000 0.099000 800 33 0.900000 0.427000 0.390000 600 37 1.000000 0.052000 0.052000 1.200000 0.027000 0.032000
1517164566487856420	1400 34 1.200000 0.078000 0.099000 800 33 0.900000 0.429000 0.392000 600 37 1.000000 0.052000 0.052000 1.200000 0.027000 0.032000
1517164566996810003	1400 34 1.200000 0.077000 0.097000 800 33 0.900000 0.431000 0.394000 600 37 1.000000 0.052000 0.052000 1.200000 0.028000 0.033000
1517164567505634712	1400 34 1.200000 0.078000 0.099000 800 33 0.900000 0.431000 0.394000 600 37 1.000000 0.052000 0.052000 1.200000 0.027000 0.032000
1517164568014492545	1400 34 1.200000 0.077000 0.097000 800 33 0.900000 0.442000 0.404000 600 37 1.000000 0.052000 0.052000 1.200000 0.028000 0.033000
1517164568523570795	1400 34 1.200000 0.078000 0.099000 800 33 0.900000 0.430000 0.393000 600 37 1.000000 0.052000 0.052000 1.200000 0.028000 0.033000
1517164569032361462	1400 34 1.200000 0.078000 0.099000 800 33 0.900000 0.431000 0.394000 600 37 1.000000 0.052000 0.052000 1.200000 0.030000 0.036000
1517164569541267629	1400 34 1.200000 0.078000 0.099000 800 33 0.900000 0.443000 0.405000 600 37 1.000000 0.052000 0.052000 1.200000 0.029000 0.035000
1517164570050171254	1400 34 1.200000 0.078000 0.099000 800 33 0.900000 0.441000 0.403000 600 37 1.000000 0.052000 0.052000 1.200000 0.027000 0.032000
1517164570559057587	1400 34 1.200000 0.078000 0.099000 800 33 0.900000 0.436000 0.398000 600 37 1.000000 0.052000 0.052000 1.200000 0.030000 0.036000
1517164571067850754	1400 34 1.200000 0.078000 0.099000 800 33 0.900000 0.444000 0.406000 600 37 1.000000 0.052000 0.052000 1.200000 0.029000 0.035000
1517164571576708504	1400 34 1.200000 0.078000 0.099000 800 33 0.900000 0.438000 0.400000 600 37 1.000000 0.052000 0.052000 1.200000 0.028000 0.033000
1517164572085608462	1400 34 1.200000 0.078000 0.099000 800 33 0.900000 0.436000 0.398000 600 37 1.000000 0.052000 0.052000 1.200000 0.027000 0.032000
1517164572594411712	1400 34 1.200000 0.078000 0.099000 800 33 0.900000 0.446000 0.408000 600 37 1.000000 0.052000 0.052000 1.200000 0.028000 0.033000
1517164573103268379	1400 34 1.200000 0.078000 0.099000 800 33 0.900000 0.436000 0.398000 600 37 1.000000 0.052000 0.052000 1.200000 0.027000 0.032000
1517164573612186421	1400 34 1.200000 0.077000 0.097000 800 33 0.900000 0.439000 0.402000 600 37 1.000000 0.052000 0.052000 1.200000 0.027000 0.032000
1517164574121347713	1400 34 1.200000 0.078000 0.099000 800 33 0.900000 0.445000 0.407000 600 37 1.000000 0.052000 0.052000 1.200000 0.028000 0.033000
1517164574630201504	1400 34 1.200000 0.078000 0.099000 800 33 0.900000 0.438000 0.400000 600 37 1.000000 0.052000 0.052000 1.200000 0.028000 0.033000
1517164575139128921	1400 34 1.200000 0.078000 0.099000 800 33 0.900000 0.432000 0.395000 600 37 1.000000 0.052000 0.052000 1.200000 0.027000 0.032000
1517164575648225963	1400 34 1.200000 0.077000 0.097000 800 33 0.900000 0.443000 0.405000 600 37 1.000000 0.052000 0.052000 1.200000 0.027000 0.032000
1517164576157186880	1400 34 1.200000 0.078000 0.099000 800 33 0.900000 0.437000 0.402000 600 37 1.000000 0.052000 0.052000 1.200000 0.028000 0.033000
1517164576666222213	1400 34 1.200000 0.077000 0.097000 800 33 0.900000 0.441000 0.403000 600 37 1.000000 0.052000 0.052000 1.200000 0.028000 0.033000
1517164577175225421	1400 34 1.200000 0.078000 0.099000 800 33 0.900000 0.444000 0.406000 600 37 1.000000 0.052000 0.052000 1.200000 0.028000 0.033000
1517164577684122505	1400 34 1.200000 0.077000 0.098000 800 33 0.900000 0.434000 0.397000 600 37 1.000000 0.052000 0.052000 1.200000 0.028000 0.033000
1517164578193001671	1400 34 1.200000 0.078000 0.099000 800 33 0.900000 0.441000 0.403000 600 37 1.000000 0.052000 0.052000 1.200000 0.027000 0.032000
1517164578701984880	1400 34 1.200000 0.078000 0.099000 800 33 0.900000 0.442000 0.403000 600 37 1.000000 0.052000 0.052000 1.200000 0.028000 0.033000
1517164579210842797	1400 34 1.200000 0.078000 0.099000 800 33 0.900000 0.434000 0.397000 600 37 1.000000 0.051000 0.051000 1.200000 0.028000 0.033000
1517164579719936380	1400 34 1.200000 0.077000 0.098000 800 33 0.900000 0.442000 0.404000 600 37 1.000000 0.052000 0.052000 1.200000 0.028000 0.033000
1517164580228688922	1400 34 1.200000 0.078000 0.099000 800 33 0.900000 0.440000 0.402000 600 37 1.000000 0.052000 0.052000 1.200000 0.028000 0.033000
1517164580737412463	1400 34 1.200000 0.077000 0.097000 800 33 0.900000 0.431000 0.394000 600 37 1.000000 0.052000 0.052000 1.200000 0.029000 0.035000
1517164581246352088	1400 34 1.200000 0.077000 0.097000 800 33 0.900000 0.430000 0.393000 600 37 1.000000 0.052000 0.052000 1.200000 0.027000 0.032000
1517164581755391380	1400 34 1.200000 0.078000 0.099000 800 33 0.900000 0.432000 0.395000 600 37 1.000000 0.051000 0.051000 1.200000 0.028000 0.033000
1517164582264271172	1400 34 1.200000 0.078000 0.099000 800 33 0.900000 0.431000 0.394000 600 37 1.000000 0.052000 0.052000 1.200000 0.027000 0.032000
1517164582773222880	1400 34 1.200000 0.077000 0.097000 800 33 0.900000 0.445000 0.407000 600 37 1.000000 0.052000 0.052000 1.200000 0.029000 0.035000
1517164583282073089	1400 34 1.200000 0.078000 0.099000 800 33 0.900000 0.435000 0.398000 600 37 1.000000 0.052000 0.052000 1.200000 0.027000 0.032000
1517164583791105214	1400 34 1.200000 0.078000 0.099000 800 33 0.900000 0.436000 0.398000 600 37 1.000000 0.051000 0.051000 1.200000 0.028000 0.033000
1517164584299888380	1400 34 1.200000 0.078000 0.099000 800 33 0.900000 0.448000 0.409000 600 37 1.000000 0.052000 0.052000 1.200000 0.027000 0.032000
1517164584808838172	1400 34 1.200000 0.078000 0.099000 800 33 0.900000 0.438000 0.400000 600 37 1.000000 0.052000 0.052000 1.200000 0.029000 0.035000
1517164585317717714	1400 34 1.200000 0.078000 0.099000 800 33 0.900000 0.435000 0.398000 600 37 1.000000 0.052000 0.052000 1.200000 0.029000 0.035000
1517164585826640297	1400 34 1.200000 0.078000 0.099000 800 33 0.900000 0.445000 0.407000 600 37 1.000000 0.052000 0.052000 1.200000 0.029000 0.035000
1517164586335561006	1400 34 1.200000 0.078000 0.099000 800 33 0.900000 0.436000 0.398000 600 37 1.000000 0.052000 0.052000 1.200000 0.028000 0.033000
1517164586844526381	1400 34 1.200000 0.077000 0.097000 800 33 0.900000 0.439000 0.401000 600 37 1.000000 0.052000 0.052000 1.200000 0.028000 0.033000
1517164587353465131	1400 34 1.200000 0.078000 0.099000 800 33 0.900000 0.430000 0.393000 600 37 1.000000 0.052000 0.052000 1.200000 0.029000 0.035000
1517164587862472881	1400 34 1.200000 0.078000 0.099000 800 33 0.900000 0.429000 0.392000 600 37 1.000000 0.052000 0.052000 1.200000 0.027000 0.032000
1517164588371440089	1400 34 1.200000 0.078000 0.099000 800 33 0.900000 0.431000 0.394000 600 37 1.000000 0.052000 0.052000 1.200000 0.029000 0.035000
1517164588880344256	1400 34 1.200000 0.078000 0.099000 800 33 0.900000 0.433000 0.397000 600 37 1.000000 0.052000 0.052000 1.200000 0.029000 0.035000
1517164589389287006	1400 34 1.200000 0.077000 0.098000 800 32 0.900000 0.430000 0.393000 600 37 1.000000 0.052000 0.052000 1.200000 0.028000 0.033000
1517164589898277464	1400 34 1.200000 0.078000 0.099000 800 33 0.900000 0.428000 0.391000 600 37 1.000000 0.052000 0.052000 1.200000 0.028000 0.033000
1517164590407302923	1400 34 1.200000 0.080000 0.101000 800 33 0.900000 0.437000 0.399000 600 37 1.000000 0.052000 0.052000 1.200000 0.029000 0.035000
1517164590916234923	1400 34 1.200000 0.077000 0.097000 800 32 0.900000 0.432000 0.395000 600 37 1.000000 0.052000 0.052000 1.200000 0.028000 0.033000
1517164591425297423	1400 34 1.200000 0.078000 0.099000 800 33 0.900000 0.441000 0.403000 600 37 1.000000 0.052000 0.052000 1.200000 0.028000 0.033000
1517164591934214381	1400 34 1.200000 0.078000 0.099000 800 32 0.900000 0.442000 0.404000 600 37 1.000000 0.052000 0.052000 1.200000 0.029000 0.035000
1517164592443174840	1400 34 1.200000 0.077000 0.098000 800 32 0.900000 0.432000 0.395000 600 37 1.000000 0.052000 0.052000 1.200000 0.028000 0.033000
1517164592951976090	1400 34 1.200000 0.078000 0.099000 800 33 0.900000 0.440000 0.402000 600 37 1.000000 0.052000 0.052000 1.200000 0.029000 0.035000
1517164593460806923	1400 34 1.200000 0.077000 0.097000 800 33 0.900000 0.431000 0.394000 600 37 1.000000 0.052000 0.052000 1.200000 0.030000 0.036000
1517164593969634590	1400 34 1.200000 0.077000 0.097000 800 33 0.900000 0.431000 0.394000 600 37 1.000000 0.052000 0.052000 1.200000 0.029000 0.035000
1517164594478535882	1400 34 1.200000 0.078000 0.099000 800 32 0.900000 0.429000 0.392000 600 37 1.000000 0.052000 0.052000 1.200000 0.028000 0.033000
1517164594987465840	1400 34 1.200000 0.078000 0.099000 800 32 0.900000 0.429000 0.392000 600 37 1.000000 0.052000 0.052000 1.200000 0.028000 0.033000
1517164595496271965	1400 34 1.200000 0.078000 0.099000 800 32 0.900000 0.429000 0.392000 600 37 1.000000 0.051000 0.051000 1.200000 0.029000 0.035000
1517164596005144299	1400 34 1.200000 0.078000 0.099000 800 32 0.900000 0.430000 0.393000 600 37 1.000000 0.052000 0.052000 1.200000 0.028000 0.033000
1517164596514073257	1400 34 1.200000 0.078000 0.099000 800 33 0.900000 0.431000 0.394000 600 37 1.000000 0.052000 0.052000 1.200000 0.029000 0.035000
1517164597022942757	1400 34 1.200000 0.078000 0.099000 800 32 0.900000 0.431000 0.394000 600 37 1.000000 0.052000 0.052000 1.200000 0.027000 0.032000
1517164597531917840	1400 34 1.200000 0.078000 0.099000 800 33 0.900000 0.445000 0.407000 600 37 1.000000 0.052000 0.052000 1.200000 0.028000 0.033000
1517164598040729174	1400 34 1.200000 0.078000 0.099000 800 33 0.900000 0.435000 0.398000 600 37 1.000000 0.052000 0.052000 1.200000 0.029000 0.035000
1517164598549671341	1400 34 1.200000 0.078000 0.099000 800 32 0.900000 0.438000 0.400000 600 37 1.000000 0.052000 0.052000 1.200000 0.027000 0.032000
1517164599058507299	1400 34 1.200000 0.077000 0.097000 800 32 0.900000 0.444000 0.406000 600 37 1.000000 0.052000 0.052000 1.200000 0.028000 0.033000
1517164599567487507	1400 34 1.200000 0.077000 0.098000 800 33 0.900000 0.430000 0.393000 600 37 1.000000 0.052000 0.052000 1.200000 0.030000 0.036000
1517164600076333341	1400 34 1.200000 0.078000 0.099000 800 32 0.900000 0.429000 0.392000 600 37 1.000000 0.051000 0.051000 1.200000 0.029000 0.035000
1517164600585262424	1400 34 1.200000 0.078000 0.099000 800 32 0.900000 0.430000 0.393000 600 37 1.000000 0.051000 0.051000 1.200000 0.029000 0.035000
1517164601094091091	1400 34 1.200000 0.078000 0.099000 800 32 0.900000 0.433000 0.396000 600 37 1.000000 0.052000 0.052000 1.200000 0.027000 0.032000
1517164601603105341	1400 34 1.200000 0.077000 0.097000 800 33 0.900000 0.431000 0.394000 600 37 1.000000 0.052000 0.052000 1.200000 0.028000 0.033000
1517164602111910091	1400 34 1.200000 0.078000 0.099000 800 32 0.900000 0.430000 0.393000 600 37 1.000000 0.052000 0.052000 1.200000 0.027000 0.032000
1517164602620776424	1400 34 1.200000 0.077000 0.097000 800 32 0.900000 0.430000 0.393000 600 37 1.000000 0.052000 0.052000 1.200000 0.028000 0.033000
1517164603129664799	1400 34 1.200000 0.078000 0.099000 800 32 0.900000 0.430000 0.393000 600 37 1.000000 0.052000 0.052000 1.200000 0.028000 0.033000
1517164603638436383	1400 34 1.200000 0.077000 0.097000 800 32 0.900000 0.434000 0.399000 600 37 1.000000 0.052000 0.052000 1.200000 0.028000 0.033000
1517164604147202466	1400 34 1.200000 0.077000 0.098000 800 32 0.900000 0.430000 0.393000 600 37 1.000000 0.052000 0.052000 1.200000 0.028000 0.033000
1517164604656005175	1400 34 1.200000 0.078000 0.099000 800 32 0.900000 0.442000 0.404000 600 37 1.000000 0.052000 0.052000 1.200000 0.027000 0.032000
1517164605164835175	1400 34 1.200000 0.078000 0.099000 800 32 0.900000 0.439000 0.401000 600 37 1.000000 0.052000 0.052000 1.200000 0.030000 0.036000
1517164605673654175	1400 34 1.200000 0.077000 0.097000 800 32 0.900000 0.430000 0.393000 600 37 1.000000 0.052000 0.052000 1.200000 0.027000 0.032000
1517164606182332800	1400 34 1.200000 0.078000 0.099000 800 33 0.900000 0.431000 0.394000 600 37 1.000000 0.052000 0.052000 1.200000 0.030000 0.036000
1517164606691178383	1400 34 1.200000 0.077000 0.097000 800 32 0.900000 0.438000 0.400000 600 37 1.000000 0.052000 0.052000 1.200000 0.029000 0.035000
1517164607200066050	1400 34 1.200000 0.078000 0.099000 800 32 0.900000 0.436000 0.399000 600 37 1.000000 0.052000 0.052000 1.200000 0.028000 0.033000
1517164607708926133	1400 34 1.200000 0.078000 0.099000 800 32 0.900000 0.445000 0.407000 600 37 1.000000 0.052000 0.052000 1.200000 0.027000 0.032000
1517164608217696425	1400 33 1.200000 0.078000 0.099000 800 32 0.900000 0.437000 0.399000 600 37 1.000000 0.052000 0.052000 1.200000 0.029000 0.035000
1517164608726488383	1400 33 1.200000 0.078000 0.099000 800 32 0.900000 0.438000 0.400000 600 37 1.000000 0.052000 0.052000 1.200000 0.027000 0.032000
1517164609235430758	1400 34 1.200000 0.077000 0.097000 800 33 0.900000 0.445000 0.407000 600 37 1.000000 0.052000 0.052000 1.200000 0.029000 0.035000
1517164609744277717	1400 34 1.200000 0.077000 0.098000 800 32 0.900000 0.433000 0.396000 600 37 1.000000 0.052000 0.052000 1.200000 0.028000 0.033000
1517164610253189717	1400 34 1.200000 0.078000 0.099000 800 32 0.900000 0.440000 0.402000 600 37 1.000000 0.051000 0.051000 1.200000 0.028000 0.033000
1517164610761918134	1400 34 1.200000 0.077000 0.098000 800 32 0.900000 0.444000 0.406000 600 37 1.000000 0.051000 0.051000 1.200000 0.027000 0.032000
1517164611271803342	1400 34 1.200000 0.081000 0.103000 800 32 0.900000 0.434000 0.397000 600 37 1.000000 0.051000 0.051000 1.200000 0.087000 0.105000
1517164611781956634	1400 34 1.200000 0.081000 0.103000 800 33 0.900000 0.441000 0.403000 600 37 1.000000 0.051000 0.051000 1.200000 0.088000 0.106000
1517164612345446050	1400 38 1.200000 0.307000 0.390000 800 34 0.900000 0.448000 0.409000 600 39 1.000000 0.051000 0.051000 1.200000 0.096000 0.116000
1517164612897420676	1400 39 1.200000 0.534000 0.670000 800 36 0.900000 1.125000 1.031000 600 40 1.000000 0.052000 0.052000 1.200000 0.079000 0.095000
1517164613457426426	1400 40 1.200000 0.531000 0.666000 800 36 0.900000 1.123000 1.029000 600 41 1.000000 0.052000 0.052000 1.200000 0.076000 0.091000
1517164614013416634	1400 40 1.200000 0.532000 0.668000 800 37 0.900000 1.123000 1.029000 600 42 1.000000 0.052000 0.052000 1.200000 0.076000 0.091000
1517164614577416426	1400 40 1.200000 0.532000 0.668000 800 37 0.900000 1.125000 1.031000 600 42 1.000000 0.052000 0.052000 1.200000 0.076000 0.091000
1517164615141380842	1400 41 1.200000 0.532000 0.668000 800 38 0.900000 1.125000 1.031000 600 42 1.000000 0.052000 0.052000 1.200000 0.076000 0.091000
1517164615693405468	1400 41 1.200000 0.533000 0.669000 800 38 0.900000 1.125000 1.031000 600 42 1.000000 0.052000 0.052000 1.200000 0.077000 0.093000
1517164616253353384	1400 41 1.200000 0.532000 0.668000 800 38 0.900000 1.125000 1.031000 600 43 1.000000 0.052000 0.052000 1.200000 0.077000 0.093000
1517164616802019968	1400 42 1.200000 0.533000 0.669000 800 38 0.900000 1.126000 1.032000 600 43 1.000000 0.052000 0.052000 1.200000 0.077000 0.093000
1517164617361391218	1400 42 1.200000 0.533000 0.669000 800 38 0.900000 1.126000 1.032000 600 43 1.000000 0.052000 0.052000 1.200000 0.077000 0.093000
1517164617929419218	1400 42 1.200000 0.533000 0.669000 800 39 0.900000 1.126000 1.032000 600 43 1.000000 0.053000 0.053000 1.200000 0.076000 0.091000
1517164618489405385	1400 42 1.200000 0.533000 0.669000 800 39 0.900000 1.126000 1.032000 600 43 1.000000 0.053000 0.053000 1.200000 0.075000 0.090000
1517164619049363260	1400 42 1.200000 0.533000 0.669000 800 39 0.900000 1.126000 1.032000 600 44 1.000000 0.053000 0.053000 1.200000 0.076000 0.091000
1517164619601377343	1400 42 1.200000 0.533000 0.669000 800 39 0.900000 1.126000 1.032000 600 44 1.000000 0.052000 0.052000 1.200000 0.077000 0.093000
1517164620169418135	1400 42 1.200000 0.533000 0.669000 800 39 0.900000 1.126000 1.032000 600 44 1.000000 0.052000 0.052000 1.200000 0.077000 0.093000
1517164620729356843	1400 42 1.200000 0.533000 0.669000 800 39 0.900000 1.127000 1.033000 600 44 1.000000 0.053000 0.053000 1.200000 0.077000 0.093000
1517164621293447677	1400 42 1.200000 0.533000 0.669000 800 39 0.900000 1.126000 1.032000 600 44 1.000000 0.053000 0.053000 1.200000 0.076000 0.091000
1517164621853436760	1400 43 1.200000 0.533000 0.669000 800 39 0.900000 1.126000 1.032000 600 44 1.000000 0.053000 0.053000 1.200000 0.077000 0.093000
1517164622409390802	1400 43 1.200000 0.534000 0.670000 800 39 0.900000 1.128000 1.034000 600 44 1.000000 0.053000 0.053000 1.200000 0.076000 0.092000
1517164622969396635	1400 43 1.200000 0.533000 0.669000 800 39 0.900000 1.128000 1.034000 600 44 1.000000 0.053000 0.053000 1.200000 0.076000 0.091000
1517164623533403302	1400 43 1.200000 0.534000 0.670000 800 39 0.900000 1.127000 1.033000 600 44 1.000000 0.053000 0.053000 1.200000 0.076000 0.091000
1517164624077318010	1400 43 1.200000 0.534000 0.670000 800 39 0.900000 1.127000 1.033000 600 44 1.000000 0.053000 0.053000 1.200000 0.076000 0.091000
1517164624633422135	1400 43 1.200000 0.534000 0.670000 800 40 0.900000 1.128000 1.034000 600 44 1.000000 0.052000 0.052000 1.200000 0.075000 0.090000
1517164625197395802	1400 43 1.200000 0.534000 0.670000 800 40 0.900000 1.126000 1.032000 600 44 1.000000 0.053000 0.053000 1.200000 0.076000 0.091000
1517164625749414094	1400 43 1.200000 0.534000 0.670000 800 40 0.900000 1.126000 1.032000 600 44 1.000000 0.053000 0.053000 1.200000 0.077000 0.093000
1517164626301475260	1400 43 1.200000 0.534000 0.670000 800 40 0.900000 1.129000 1.035000 600 44 1.000000 0.053000 0.053000 1.200000 0.076000 0.091000
1517164626865469136	1400 43 1.200000 0.533000 0.669000 800 40 0.900000 1.128000 1.034000 600 44 1.000000 0.053000 0.053000 1.200000 0.076000 0.091000
1517164627421461011	1400 43 1.200000 0.534000 0.670000 800 40 0.900000 1.128000 1.034000 600 45 1.000000 0.053000 0.053000 1.200000 0.077000 0.093000
1517164627981372469	1400 43 1.200000 0.534000 0.670000 800 40 0.900000 1.128000 1.034000 600 45 1.000000 0.053000 0.053000 1.200000 0.077000 0.093000
1517164628541416261	1400 43 1.200000 0.534000 0.670000 800 40 0.900000 1.128000 1.034000 600 45 1.000000 0.053000 0.053000 1.200000 0.078000 0.094000
1517164629105378719	1400 43 1.200000 0.533000 0.669000 800 40 0.900000 1.128000 1.034000 600 45 1.000000 0.053000 0.053000 1.200000 0.078000 0.094000
1517164629669389636	1400 43 1.200000 0.534000 0.670000 800 40 0.900000 1.129000 1.035000 600 45 1.000000 0.053000 0.053000 1.200000 0.076000 0.091000
1517164630225372886	1400 43 1.200000 0.534000 0.670000 800 40 0.900000 1.129000 1.035000 600 45 1.000000 0.053000 0.053000 1.200000 0.077000 0.093000
1517164630793331886	1400 43 1.200000 0.534000 0.670000 800 40 0.900000 1.127000 1.033000 600 45 1.000000 0.053000 0.053000 1.200000 0.077000 0.093000
1517164631345378761	1400 43 1.200000 0.534000 0.670000 800 40 0.900000 1.126000 1.032000 600 45 1.000000 0.053000 0.053000 1.200000 0.077000 0.093000
1517164631909407803	1400 43 1.200000 0.534000 0.670000 800 40 0.900000 1.129000 1.035000 600 45 1.000000 0.053000 0.053000 1.200000 0.076000 0.091000
1517164632457446595	1400 43 1.200000 0.534000 0.670000 800 40 0.900000 1.128000 1.034000 600 45 1.000000 0.053000 0.053000 1.200000 0.078000 0.094000
1517164633025468345	1400 43 1.200000 0.534000 0.670000 800 40 0.900000 1.128000 1.034000 600 45 1.000000 0.053000 0.053000 1.200000 0.078000 0.094000
1517164633577336678	1400 43 1.200000 0.534000 0.670000 800 40 0.900000 1.128000 1.034000 600 45 1.000000 0.053000 0.053000 1.200000 0.077000 0.093000
1517164634141421428	1400 43 1.200000 0.533000 0.669000 800 40 0.900000 1.128000 1.034000 600 45 1.000000 0.053000 0.053000 1.200000 0.077000 0.093000
1517164634685369470	1400 43 1.200000 0.534000 0.670000 800 40 0.900000 1.128000 1.034000 600 45 1.000000 0.053000 0.053000 1.200000 0.079000 0.095000
1517164635241469887	1400 43 1.200000 0.534000 0.670000 800 40 0.900000 1.128000 1.034000 600 45 1.000000 0.053000 0.053000 1.200000 0.078000 0.094000
1517164635793413553	1400 43 1.200000 0.534000 0.670000 800 40 0.900000 1.128000 1.034000 600 45 1.000000 0.053000 0.053000 1.200000 0.077000 0.093000
1517164636345349137	1400 44 1.200000 0.534000 0.670000 800 40 0.900000 1.128000 1.034000 600 45 1.000000 0.053000 0.053000 1.200000 0.077000 0.093000
1517164636901492803	1400 44 1.200000 0.534000 0.670000 800 40 0.900000 1.128000 1.034000 600 45 1.000000 0.053000 0.053000 1.200000 0.077000 0.093000
1517164637445345803	1400 44 1.200000 0.534000 0.670000 800 40 0.900000 1.130000 1.036000 600 45 1.000000 0.053000 0.053000 1.200000 0.076000 0.091000
1517164638013408762	1400 44 1.200000 0.534000 0.670000 800 40 0.900000 1.129000 1.035000 600 45 1.000000 0.053000 0.053000 1.200000 0.076000 0.092000
1517164638561422304	1400 44 1.200000 0.534000 0.670000 800 40 0.900000 1.129000 1.035000 600 45 1.000000 0.053000 0.053000 1.200000 0.078000 0.094000
1517164639117398720	1400 44 1.200000 0.534000 0.670000 800 40 0.900000 1.130000 1.036000 600 45 1.000000 0.053000 0.053000 1.200000 0.078000 0.094000
1517164639681416387	1400 44 1.200000 0.534000 0.670000 800 40 0.900000 1.129000 1.035000 600 45 1.000000 0.053000 0.053000 1.200000 0.077000 0.093000
1517164640237441887	1400 44 1.200000 0.534000 0.670000 800 41 0.900000 1.130000 1.036000 600 45 1.000000 0.053000 0.053000 1.200000 0.077000 0.093000
1517164640805457554	1400 44 1.200000 0.534000 0.670000 800 41 0.900000 1.129000 1.035000 600 45 1.000000 0.053000 0.053000 1.200000 0.077000 0.093000
1517164641365403554	1400 44 1.200000 0.534000 0.670000 800 40 0.900000 1.128000 1.034000 600 45 1.000000 0.053000 0.053000 1.200000 0.077000 0.093000
1517164641925362471	1400 44 1.200000 0.534000 0.670000 800 41 0.900000 1.128000 1.034000 600 45 1.000000 0.053000 0.053000 1.200000 0.078000 0.094000
1517164642485347721	1400 44 1.200000 0.535000 0.671000 800 41 0.900000 1.130000 1.036000 600 45 1.000000 0.053000 0.053000 1.200000 0.077000 0.093000
1517164643037430012	1400 44 1.200000 0.534000 0.670000 800 40 0.900000 1.130000 1.036000 600 45 1.000000 0.053000 0.053000 1.200000 0.077000 0.093000
1517164643593418138	1400 44 1.200000 0.534000 0.670000 800 41 0.900000 1.130000 1.036000 600 45 1.000000 0.053000 0.053000 1.200000 0.077000 0.093000
1517164644153396888	1400 44 1.200000 0.534000 0.670000 800 41 0.900000 1.128000 1.034000 600 45 1.000000 0.053000 0.053000 1.200000 0.077000 0.093000
1517164644725368888	1400 44 1.200000 0.534000 0.670000 800 41 0.900000 1.129000 1.035000 600 45 1.000000 0.053000 0.053000 1.200000 0.077000 0.093000
1517164645285409221	1400 44 1.200000 0.534000 0.670000 800 41 0.900000 1.127000 1.033000 600 45 1.000000 0.053000 0.053000 1.200000 0.078000 0.094000
1517164645845430721	1400 44 1.200000 0.534000 0.670000 800 41 0.900000 1.128000 1.034000 600 45 1.000000 0.053000 0.053000 1.200000 0.077000 0.093000
1517164646405413555	1400 44 1.200000 0.534000 0.670000 800 41 0.900000 1.128000 1.034000 600 45 1.000000 0.053000 0.053000 1.200000 0.077000 0.093000
1517164646965461346	1400 44 1.200000 0.534000 0.670000 800 41 0.900000 1.130000 1.036000 600 45 1.000000 0.053000 0.053000 1.200000 0.076000 0.091000
1517164647533395346	1400 44 1.200000 0.534000 0.670000 800 41 0.900000 1.128000 1.034000 600 45 1.000000 0.053000 0.053000 1.200000 0.076000 0.091000
1517164648097356388	1400 44 1.200000 0.535000 0.671000 800 41 0.900000 1.128000 1.034000 600 45 1.000000 0.053000 0.053000 1.200000 0.076000 0.091000
1517164648657399263	1400 44 1.200000 0.534000 0.670000 800 41 0.900000 1.129000 1.035000 600 45 1.000000 0.053000 0.053000 1.200000 0.077000 0.093000
1517164649217362930	1400 44 1.200000 0.534000 0.670000 800 41 0.900000 1.128000 1.034000 600 45 1.000000 0.053000 0.053000 1.200000 0.078000 0.094000
1517164649781482263	1400 44 1.200000 0.534000 0.670000 800 41 0.900000 1.128000 1.034000 600 46 1.000000 0.053000 0.053000 1.200000 0.077000 0.093000
1517164650333402472	1400 44 1.200000 0.534000 0.670000 800 41 0.900000 1.129000 1.035000 600 45 1.000000 0.053000 0.053000 1.200000 0.077000 0.093000
1517164650893411305	1400 44 1.200000 0.535000 0.671000 800 41 0.900000 1.127000 1.033000 600 46 1.000000 0.053000 0.053000 1.200000 0.076000 0.092000
1517164651453399555	1400 44 1.200000 0.535000 0.671000 800 41 0.900000 1.130000 1.036000 600 46 1.000000 0.053000 0.053000 1.200000 0.076000 0.091000
1517164652013389847	1400 44 1.200000 0.534000 0.670000 800 41 0.900000 1.129000 1.035000 600 46 1.000000 0.053000 0.053000 1.200000 0.076000 0.091000
1517164652577436180	1400 44 1.200000 0.534000 0.670000 800 41 0.900000 1.130000 1.036000 600 46 1.000000 0.053000 0.053000 1.200000 0.077000 0.093000
1517164653145398555	1400 44 1.200000 0.534000 0.670000 800 41 0.900000 1.128000 1.034000 600 45 1.000000 0.053000 0.053000 1.200000 0.078000 0.094000
1517164653713353597	1400 44 1.200000 0.535000 0.671000 800 41 0.900000 1.129000 1.035000 600 46 1.000000 0.053000 0.053000 1.200000 0.077000 0.093000
1517164654273470097	1400 44 1.200000 0.535000 0.671000 800 41 0.900000 1.130000 1.036000 600 46 1.000000 0.053000 0.053000 1.200000 0.077000 0.093000
1517164654829438347	1400 44 1.200000 0.534000 0.670000 800 41 0.900000 1.129000 1.035000 600 46 1.000000 0.053000 0.053000 1.200000 0.077000 0.093000
1517164655385400472	1400 44 1.200000 0.535000 0.671000 800 41 0.900000 1.130000 1.036000 600 46 1.000000 0.053000 0.053000 1.200000 0.076000 0.091000
1517164655937339556	1400 44 1.200000 0.535000 0.671000 800 41 0.900000 1.130000 1.036000 600 46 1.000000 0.053000 0.053000 1.200000 0.076000 0.091000
1517164656501412264	1400 44 1.200000 0.535000 0.671000 800 41 0.900000 1.130000 1.036000 600 46 1.000000 0.053000 0.053000 1.200000 0.077000 0.093000
1517164657065436514	1400 44 1.200000 0.535000 0.671000 800 41 0.900000 1.130000 1.036000 600 46 1.000000 0.053000 0.053000 1.200000 0.077000 0.093000
1517164657629398848	1400 44 1.200000 0.535000 0.671000 800 41 0.900000 1.129000 1.035000 600 46 1.000000 0.053000 0.053000 1.200000 0.076000 0.091000
1517164658193405889	1400 44 1.200000 0.534000 0.670000 800 41 0.900000 1.129000 1.035000 600 46 1.000000 0.053000 0.053000 1.200000 0.076000 0.091000
1517164658753412473	1400 44 1.200000 0.535000 0.671000 800 41 0.900000 1.129000 1.035000 600 46 1.000000 0.053000 0.053000 1.200000 0.077000 0.093000
1517164659325451598	1400 44 1.200000 0.534000 0.670000 800 41 0.900000 1.129000 1.035000 600 46 1.000000 0.053000 0.053000 1.200000 0.078000 0.094000
1517164659889427889	1400 44 1.200000 0.535000 0.671000 800 41 0.900000 1.131000 1.037000 600 46 1.000000 0.053000 0.053000 1.200000 0.076000 0.091000
1517164660453441181	1400 44 1.200000 0.535000 0.671000 800 41 0.900000 1.130000 1.036000 600 46 1.000000 0.053000 0.053000 1.200000 0.076000 0.092000
1517164661017351806	1400 44 1.200000 0.534000 0.670000 800 41 0.900000 1.130000 1.036000 600 46 1.000000 0.053000 0.053000 1.200000 0.076000 0.091000
1517164661577409681	1400 44 1.200000 0.535000 0.671000 800 41 0.900000 1.129000 1.035000 600 46 1.000000 0.053000 0.053000 1.200000 0.076000 0.091000
1517164662141419931	1400 44 1.200000 0.535000 0.671000 800 41 0.900000 1.128000 1.034000 600 46 1.000000 0.053000 0.053000 1.200000 0.076000 0.091000
1517164662701412931	1400 44 1.200000 0.535000 0.671000 800 41 0.900000 1.128000 1.034000 600 46 1.000000 0.053000 0.053000 1.200000 0.076000 0.091000
1517164663261418182	1400 44 1.200000 0.535000 0.671000 800 41 0.900000 1.129000 1.035000 600 46 1.000000 0.053000 0.053000 1.200000 0.078000 0.094000
1517164663825482890	1400 44 1.200000 0.535000 0.671000 800 41 0.900000 1.129000 1.035000 600 46 1.000000 0.053000 0.053000 1.200000 0.077000 0.093000
1517164664377331973	1400 45 1.200000 0.535000 0.671000 800 41 0.900000 1.130000 1.036000 600 46 1.000000 0.053000 0.053000 1.200000 0.076000 0.091000
1517164664937460265	1400 44 1.200000 0.534000 0.670000 800 41 0.900000 1.131000 1.037000 600 46 1.000000 0.053000 0.053000 1.200000 0.076000 0.091000
1517164665493467765	1400 44 1.200000 0.535000 0.671000 800 41 0.900000 1.130000 1.036000 600 46 1.000000 0.053000 0.053000 1.200000 0.076000 0.091000
1517164666057405724	1400 44 1.200000 0.535000 0.671000 800 41 0.900000 1.130000 1.036000 600 46 1.000000 0.053000 0.053000 1.200000 0.076000 0.091000
1517164666617408307	1400 44 1.200000 0.535000 0.671000 800 41 0.900000 1.129000 1.035000 600 46 1.000000 0.053000 0.053000 1.200000 0.077000 0.093000
1517164667181399015	1400 44 1.200000 0.534000 0.670000 800 41 0.900000 1.130000 1.036000 600 46 1.000000 0.053000 0.053000 1.200000 0.077000 0.093000
1517164667741428182	1400 44 1.200000 0.534000 0.670000 800 41 0.900000 1.131000 1.037000 600 46 1.000000 0.053000 0.053000 1.200000 0.077000 0.093000
1517164668301329849	1400 44 1.200000 0.535000 0.671000 800 41 0.900000 1.130000 1.036000 600 46 1.000000 0.053000 0.053000 1.200000 0.077000 0.093000
1517164668853412182	1400 45 1.200000 0.535000 0.671000 800 41 0.900000 1.130000 1.036000 600 46 1.000000 0.053000 0.053000 1.200000 0.077000 0.093000
1517164669417394349	1400 44 1.200000 0.534000 0.670000 800 41 0.900000 1.130000 1.036000 600 46 1.000000 0.053000 0.053000 1.200000 0.078000 0.094000
1517164669973394891	1400 45 1.200000 0.534000 0.670000 800 41 0.900000 1.130000 1.036000 600 46 1.000000 0.053000 0.053000 1.200000 0.077000 0.093000
1517164670537436766	1400 45 1.200000 0.535000 0.671000 800 41 0.900000 1.130000 1.036000 600 46 1.000000 0.053000 0.053000 1.200000 0.077000 0.093000
1517164671113384182	1400 44 1.200000 0.535000 0.671000 800 41 0.900000 1.131000 1.037000 600 46 1.000000 0.053000 0.053000 1.200000 0.078000 0.094000
1517164671681356099	1400 45 1.200000 0.535000 0.671000 800 41 0.900000 1.129000 1.035000 600 46 1.000000 0.053000 0.053000 1.200000 0.078000 0.094000
1517164672241434599	1400 45 1.200000 0.535000 0.671000 800 41 0.900000 1.130000 1.036000 600 46 1.000000 0.053000 0.053000 1.200000 0.078000 0.094000
1517164672797364849	1400 44 1.200000 0.535000 0.671000 800 41 0.900000 1.130000 1.036000 600 46 1.000000 0.053000 0.053000 1.200000 0.077000 0.093000
1517164673365350891	1400 45 1.200000 0.535000 0.671000 800 41 0.900000 1.130000 1.036000 600 46 1.000000 0.053000 0.053000 1.200000 0.078000 0.094000
1517164673921439141	1400 44 1.200000 0.535000 0.671000 800 41 0.900000 1.131000 1.037000 600 46 1.000000 0.053000 0.053000 1.200000 0.078000 0.094000
1517164674489378266	1400 45 1.200000 0.535000 0.671000 800 41 0.900000 1.131000 1.037000 600 46 1.000000 0.053000 0.053000 1.200000 0.078000 0.094000
1517164675029378058	1400 45 1.200000 0.535000 0.671000 800 41 0.900000 1.131000 1.037000 600 46 1.000000 0.053000 0.053000 1.200000 0.077000 0.093000
1517164675585368100	1400 44 1.200000 0.535000 0.671000 800 41 0.900000 1.130000 1.036000 600 46 1.000000 0.053000 0.053000 1.200000 0.077000 0.093000
1517164676157354558	1400 45 1.200000 0.534000 0.670000 800 42 0.900000 1.130000 1.036000 600 46 1.000000 0.053000 0.053000 1.200000 0.078000 0.094000
1517164676729405891	1400 45 1.200000 0.535000 0.671000 800 41 0.900000 1.129000 1.035000 600 46 1.000000 0.053000 0.053000 1.200000 0.077000 0.093000
1517164677273351767	1400 45 1.200000 0.535000 0.671000 800 42 0.900000 1.131000 1.037000 600 46 1.000000 0.053000 0.053000 1.200000 0.077000 0.093000
1517164677817369725	1400 45 1.200000 0.535000 0.671000 800 41 0.900000 1.131000 1.037000 600 46 1.000000 0.053000 0.053000 1.200000 0.076000 0.091000
1517164678381373142	1400 45 1.200000 0.535000 0.671000 800 41 0.900000 1.130000 1.036000 600 46 1.000000 0.053000 0.053000 1.200000 0.076000 0.091000
1517164678941401850	1400 45 1.200000 0.535000 0.671000 800 41 0.900000 1.130000 1.036000 600 46 1.000000 0.053000 0.053000 1.200000 0.077000 0.093000
1517164679450300725	1400 41 1.200000 0.313000 0.396000 800 40 0.900000 0.171000 0.158000 600 43 1.000000 0.053000 0.053000 1.200000 0.067000 0.081000
1517164679958836850	1400 40 1.200000 0.241000 0.305000 800 39 0.900000 0.091000 0.084000 600 42 1.000000 0.053000 0.053000 1.200000 0.027000 0.032000
1517164680467144684	1400 39 1.200000 0.240000 0.303000 800 38 0.900000 0.091000 0.084000 600 41 1.000000 0.053000 0.053000 1.200000 0.027000 0.032000
1517164680974671725	1400 38 1.200000 0.244000 0.309000 800 38 0.900000 0.089000 0.082000 600 41 1.000000 0.053000 0.053000 1.200000 0.027000 0.032000
1517164681482121392	1400 38 1.200000 0.241000 0.305000 800 37 0.900000 0.087000 0.080000 600 40 1.000000 0.052000 0.052000 1.200000 0.027000 0.032000
1517164681989807809	1400 38 1.200000 0.241000 0.305000 800 37 0.900000 0.126000 0.116000 600 40 1.000000 0.053000 0.053000 1.200000 0.030000 0.036000
1517164682497355767	1400 37 1.200000 0.242000 0.306000 800 36 0.900000 0.113000 0.104000 600 40 1.000000 0.052000 0.052000 1.200000 0.031000 0.037000
1517164683004794392	1400 37 1.200000 0.243000 0.307000 800 36 0.900000 0.097000 0.089000 600 39 1.000000 0.052000 0.052000 1.200000 0.028000 0.033000
1517164683512225476	1400 37 1.200000 0.241000 0.305000 800 36 0.900000 0.095000 0.087000 600 39 1.000000 0.052000 0.052000 1.200000 0.027000 0.032000
1517164684019612767	1400 37 1.200000 0.242000 0.306000 800 36 0.900000 0.099000 0.091000 600 39 1.000000 0.052000 0.052000 1.200000 0.026000 0.031000
1517164684526941559	1400 37 1.200000 0.241000 0.305000 800 36 0.900000 0.090000 0.083000 600 39 1.000000 0.052000 0.052000 1.200000 0.027000 0.032000
1517164685034426392	1400 36 1.200000 0.241000 0.305000 800 36 0.900000 0.105000 0.097000 600 39 1.000000 0.052000 0.052000 1.200000 0.027000 0.032000
1517164685541882643	1400 36 1.200000 0.241000 0.305000 800 35 0.900000 0.089000 0.082000 600 38 1.000000 0.052000 0.052000 1.200000 0.027000 0.032000
1517164686049131684	1400 36 1.200000 0.241000 0.305000 800 35 0.900000 0.101000 0.093000 600 38 1.000000 0.052000 0.052000 1.200000 0.027000 0.032000
1517164686556509351	1400 36 1.200000 0.241000 0.305000 800 35 0.900000 0.089000 0.082000 600 38 1.000000 0.052000 0.052000 1.200000 0.026000 0.031000
1517164687063796309	1400 36 1.200000 0.241000 0.305000 800 35 0.900000 0.098000 0.090000 600 38 1.000000 0.052000 0.052000 1.200000 0.027000 0.032000
1517164687571203726	1400 36 1.200000 0.240000 0.304000 800 35 0.900000 0.096000 0.088000 600 38 1.000000 0.052000 0.052000 1.200000 0.027000 0.032000
1517164688078370143	1400 36 1.200000 0.241000 0.305000 800 35 0.900000 0.094000 0.086000 600 38 1.000000 0.052000 0.052000 1.200000 0.026000 0.031000
1517164688585694310	1400 36 1.200000 0.242000 0.306000 800 35 0.900000 0.098000 0.090000 600 38 1.000000 0.052000 0.052000 1.200000 0.026000 0.031000
1517164689093100976	1400 36 1.200000 0.240000 0.303000 800 35 0.900000 0.088000 0.081000 600 38 1.000000 0.052000 0.052000 1.200000 0.027000 0.032000
1517164689600569101	1400 36 1.200000 0.241000 0.305000 800 35 0.900000 0.103000 0.095000 600 38 1.000000 0.052000 0.052000 1.200000 0.027000 0.032000
1517164690107863435	1400 36 1.200000 0.240000 0.304000 800 35 0.900000 0.087000 0.080000 600 38 1.000000 0.052000 0.052000 1.200000 0.028000 0.033000
1517164690615248060	1400 36 1.200000 0.240000 0.304000 800 35 0.900000 0.102000 0.094000 600 37 1.000000 0.052000 0.052000 1.200000 0.026000 0.031000
1517164691122699268	1400 35 1.200000 0.241000 0.305000 800 35 0.900000 0.089000 0.082000 600 38 1.000000 0.052000 0.052000 1.200000 0.027000 0.032000
1517164691630436227	1400 36 1.200000 0.240000 0.304000 800 35 0.900000 0.098000 0.090000 600 37 1.000000 0.052000 0.052000 1.200000 0.027000 0.032000
1517164692138289352	1400 36 1.200000 0.242000 0.306000 800 35 0.900000 0.109000 0.100000 600 38 1.000000 0.052000 0.052000 1.200000 0.030000 0.036000
1517164692645922352	1400 35 1.200000 0.242000 0.306000 800 34 0.900000 0.111000 0.102000 600 37 1.000000 0.052000 0.052000 1.200000 0.029000 0.035000
1517164693153368893	1400 35 1.200000 0.239000 0.302000 800 34 0.900000 0.102000 0.094000 600 38 1.000000 0.052000 0.052000 1.200000 0.027000 0.032000
1517164693660863144	1400 35 1.200000 0.241000 0.305000 800 34 0.900000 0.084000 0.077000 600 37 1.000000 0.052000 0.052000 1.200000 0.026000 0.031000
1517164694168345560	1400 35 1.200000 0.239000 0.303000 800 34 0.900000 0.103000 0.095000 600 37 1.000000 0.052000 0.052000 1.200000 0.027000 0.032000
1517164694675767935	1400 35 1.200000 0.240000 0.303000 800 34 0.900000 0.087000 0.080000 600 37 1.000000 0.052000 0.052000 1.200000 0.026000 0.031000
1517164695183759227	1400 35 1.200000 0.224000 0.284000 800 34 0.900000 0.311000 0.286000 600 38 1.000000 0.052000 0.052000 1.200000 0.037000 0.044000
1517164695692984727	1400 35 1.200000 0.090000 0.114000 800 34 0.900000 0.471000 0.430000 600 38 1.000000 0.052000 0.052000 1.200000 0.032000 0.038000
1517164696201290602	1400 35 1.200000 0.091000 0.115000 800 34 0.900000 0.489000 0.448000 600 38 1.000000 0.052000 0.052000 1.200000 0.034000 0.041000
1517164696709647602	1400 35 1.200000 0.079000 0.100000 800 34 0.900000 0.449000 0.410000 600 38 1.000000 0.052000 0.052000 1.200000 0.033000 0.039000
1517164697217500644	1400 35 1.200000 0.078000 0.099000 800 34 0.900000 0.429000 0.392000 600 38 1.000000 0.052000 0.052000 1.200000 0.024000 0.028000
1517164697725333519	1400 35 1.200000 0.078000 0.099000 800 34 0.900000 0.431000 0.394000 600 38 1.000000 0.052000 0.052000 1.200000 0.026000 0.031000
1517164698233146144	1400 35 1.200000 0.078000 0.099000 800 34 0.900000 0.431000 0.394000 600 38 1.000000 0.052000 0.052000 1.200000 0.025000 0.030000
1517164698740933977	1400 35 1.200000 0.078000 0.099000 800 34 0.900000 0.424000 0.387000 600 38 1.000000 0.052000 0.052000 1.200000 0.024000 0.028000
1517164699248704269	1400 35 1.200000 0.078000 0.099000 800 34 0.900000 0.436000 0.398000 600 38 1.000000 0.052000 0.052000 1.200000 0.024000 0.028000
1517164699756413353	1400 35 1.200000 0.078000 0.099000 800 34 0.900000 0.423000 0.387000 600 38 1.000000 0.052000 0.052000 1.200000 0.024000 0.028000
1517164700264155644	1400 35 1.200000 0.078000 0.099000 800 34 0.900000 0.421000 0.385000 600 38 1.000000 0.052000 0.052000 1.200000 0.026000 0.031000
1517164700772090978	1400 35 1.200000 0.078000 0.099000 800 34 0.900000 0.420000 0.384000 600 38 1.000000 0.052000 0.052000 1.200000 0.025000 0.030000
1517164701279840269	1400 35 1.200000 0.078000 0.099000 800 34 0.900000 0.420000 0.384000 600 38 1.000000 0.052000 0.052000 1.200000 0.024000 0.028000
1517164701787738019	1400 35 1.200000 0.078000 0.099000 800 34 0.900000 0.425000 0.388000 600 38 1.000000 0.052000 0.052000 1.200000 0.024000 0.028000
1517164702295559478	1400 35 1.200000 0.078000 0.099000 800 34 0.900000 0.421000 0.385000 600 38 1.000000 0.052000 0.052000 1.200000 0.024000 0.028000
1517164702803383436	1400 35 1.200000 0.078000 0.099000 800 34 0.900000 0.435000 0.398000 600 38 1.000000 0.052000 0.052000 1.200000 0.026000 0.031000
1517164703311147561	1400 35 1.200000 0.078000 0.099000 800 34 0.900000 0.426000 0.389000 600 38 1.000000 0.052000 0.052000 1.200000 0.025000 0.030000
1517164703819046978	1400 35 1.200000 0.078000 0.099000 800 34 0.900000 0.432000 0.395000 600 38 1.000000 0.052000 0.052000 1.200000 0.024000 0.028000
1517164704326832978	1400 35 1.200000 0.078000 0.099000 800 34 0.900000 0.434000 0.397000 600 38 1.000000 0.052000 0.052000 1.200000 0.024000 0.028000
1517164704834614937	1400 35 1.200000 0.078000 0.099000 800 34 0.900000 0.430000 0.393000 600 38 1.000000 0.052000 0.052000 1.200000 0.025000 0.030000
1517164705342352978	1400 35 1.200000 0.078000 0.099000 800 34 0.900000 0.438000 0.399000 600 38 1.000000 0.052000 0.052000 1.200000 0.025000 0.030000
1517164705850080103	1400 35 1.200000 0.078000 0.099000 800 34 0.900000 0.423000 0.386000 600 38 1.000000 0.052000 0.052000 1.200000 0.025000 0.030000
1517164706357853812	1400 35 1.200000 0.078000 0.099000 800 34 0.900000 0.422000 0.386000 600 38 1.000000 0.052000 0.052000 1.200000 0.025000 0.030000
1517164706865892062	1400 35 1.200000 0.079000 0.100000 800 34 0.900000 0.454000 0.415000 600 38 1.000000 0.052000 0.052000 1.200000 0.031000 0.037000
1517164707373801603	1400 35 1.200000 0.079000 0.100000 800 34 0.900000 0.428000 0.393000 600 38 1.000000 0.052000 0.052000 1.200000 0.025000 0.030000
1517164707881510729	1400 35 1.200000 0.078000 0.099000 800 34 0.900000 0.418000 0.382000 600 38 1.000000 0.052000 0.052000 1.200000 0.025000 0.030000
1517164708389465354	1400 35 1.200000 0.078000 0.099000 800 33 0.900000 0.421000 0.385000 600 38 1.000000 0.052000 0.052000 1.200000 0.026000 0.031000
1517164708897309854	1400 35 1.200000 0.078000 0.099000 800 34 0.900000 0.425000 0.388000 600 38 1.000000 0.052000 0.052000 1.200000 0.025000 0.030000
1517164709405177145	1400 35 1.200000 0.078000 0.099000 800 33 0.900000 0.429000 0.392000 600 38 1.000000 0.052000 0.052000 1.200000 0.025000 0.030000
1517164709913043229	1400 35 1.200000 0.078000 0.099000 800 33 0.900000 0.429000 0.392000 600 38 1.000000 0.052000 0.052000 1.200000 0.025000 0.030000
1517164710421081062	1400 35 1.200000 0.078000 0.099000 800 34 0.900000 0.431000 0.394000 600 38 1.000000 0.052000 0.052000 1.200000 0.026000 0.031000
1517164710929152229	1400 35 1.200000 0.079000 0.100000 800 34 0.900000 0.452000 0.413000 600 38 1.000000 0.052000 0.052000 1.200000 0.032000 0.038000
1517164711437140354	1400 35 1.200000 0.079000 0.100000 800 34 0.900000 0.450000 0.411000 600 38 1.000000 0.052000 0.052000 1.200000 0.033000 0.039000
1517164711944940479	1400 35 1.200000 0.079000 0.100000 800 34 0.900000 0.441000 0.403000 600 38 1.000000 0.052000 0.052000 1.200000 0.033000 0.039000
1517164712452690646	1400 35 1.200000 0.078000 0.099000 800 33 0.900000 0.420000 0.384000 600 38 1.000000 0.052000 0.052000 1.200000 0.025000 0.030000
1517164712960359937	1400 35 1.200000 0.078000 0.099000 800 33 0.900000 0.419000 0.382000 600 38 1.000000 0.052000 0.052000 1.200000 0.025000 0.030000
1517164713468177771	1400 35 1.200000 0.078000 0.099000 800 33 0.900000 0.421000 0.386000 600 38 1.000000 0.052000 0.052000 1.200000 0.025000 0.030000
1517164713976039396	1400 35 1.200000 0.078000 0.099000 800 33 0.900000 0.422000 0.385000 600 38 1.000000 0.052000 0.052000 1.200000 0.025000 0.030000
1517164714483759521	1400 34 1.200000 0.078000 0.099000 800 33 0.900000 0.422000 0.386000 600 38 1.000000 0.052000 0.052000 1.200000 0.025000 0.030000
1517164714991563188	1400 35 1.200000 0.078000 0.099000 800 33 0.900000 0.420000 0.384000 600 38 1.000000 0.052000 0.052000 1.200000 0.025000 0.030000
1517164715499259771	1400 35 1.200000 0.078000 0.099000 800 33 0.900000 0.421000 0.385000 600 38 1.000000 0.052000 0.052000 1.200000 0.025000 0.030000
1517164716007098313	1400 34 1.200000 0.078000 0.099000 800 33 0.900000 0.430000 0.392000 600 38 1.000000 0.052000 0.052000 1.200000 0.025000 0.030000
1517164716514844146	1400 35 1.200000 0.078000 0.099000 800 33 0.900000 0.433000 0.396000 600 38 1.000000 0.052000 0.052000 1.200000 0.025000 0.030000
1517164717023342730	1400 35 1.200000 0.078000 0.099000 800 34 0.900000 0.414000 0.379000 600 38 1.000000 0.052000 0.052000 1.200000 0.025000 0.030000
1517164717531916438	1400 34 1.200000 0.092000 0.117000 800 33 0.900000 0.131000 0.121000 600 37 1.000000 0.052000 0.052000 1.200000 0.045000 0.054000
