#Timestamp	CPU(0) Frequency(MHz)	CPU(0) Temperature(C)	A7 Voltage(V)	A7 Current(A)	A7 Power(W)	CPU(4) Frequency(MHz)	CPU(4) Temperature(C)	A15 Voltage(V)	A15 Current(A)	A15 Power(W)	GPU Frequency(MHz)	GPU Temperature(C)	GPU Voltage(V)	GPU Current(A)	GPU Power(W)	RAM Voltage(V)	RAM Current(A)	RAM Power(W)
1518663525036528776	300 36 0.900000 0.047000 0.042000 1000 31 0.900000 0.633000 0.615000 600 40 1.000000 0.051000 0.051000 1.200000 0.034000 0.041000
1518663525576396693	300 37 0.900000 0.084000 0.076000 1000 32 0.900000 2.042000 1.986000 600 42 1.000000 0.051000 0.051000 1.200000 0.028000 0.033000
1518663526120368485	300 38 0.900000 0.085000 0.077000 1000 33 0.900000 2.039000 1.983000 600 43 1.000000 0.051000 0.051000 1.200000 0.028000 0.033000
1518663526652406985	300 39 0.900000 0.085000 0.077000 1000 33 0.900000 2.039000 1.983000 600 44 1.000000 0.052000 0.052000 1.200000 0.028000 0.033000
1518663527184279402	300 39 0.900000 0.085000 0.077000 1000 34 0.900000 2.039000 1.983000 600 45 1.000000 0.052000 0.052000 1.200000 0.028000 0.033000
1518663527728358860	300 40 0.900000 0.086000 0.078000 1000 34 0.900000 2.039000 1.981000 600 45 1.000000 0.052000 0.052000 1.200000 0.028000 0.033000
1518663528272376652	300 40 0.900000 0.086000 0.078000 1000 35 0.900000 2.047000 1.991000 600 46 1.000000 0.052000 0.052000 1.200000 0.028000 0.033000
1518663528804376902	300 41 0.900000 0.086000 0.078000 1000 35 0.900000 2.053000 1.995000 600 46 1.000000 0.052000 0.052000 1.200000 0.028000 0.033000
1518663529336359652	300 41 0.900000 0.086000 0.078000 1000 35 0.900000 2.055000 1.999000 600 46 1.000000 0.052000 0.052000 1.200000 0.028000 0.033000
1518663529868355569	300 41 0.900000 0.086000 0.078000 1000 36 0.900000 2.051000 1.993000 600 47 1.000000 0.052000 0.052000 1.200000 0.028000 0.033000
1518663530400361694	300 42 0.900000 0.086000 0.078000 1000 36 0.900000 2.050000 1.994000 600 47 1.000000 0.052000 0.052000 1.200000 0.028000 0.033000
1518663530944284902	300 42 0.900000 0.086000 0.078000 1000 36 0.900000 2.049000 1.991000 600 47 1.000000 0.052000 0.052000 1.200000 0.028000 0.033000
1518663531476506152	300 42 0.900000 0.086000 0.078000 1000 36 0.900000 2.054000 1.996000 600 47 1.000000 0.052000 0.052000 1.200000 0.028000 0.033000
1518663532008428486	300 42 0.900000 0.087000 0.079000 1000 36 0.900000 2.011000 1.954000 600 47 1.000000 0.053000 0.053000 1.200000 0.032000 0.038000
1518663532552344069	300 42 0.900000 0.086000 0.078000 1000 37 0.900000 2.052000 1.994000 600 48 1.000000 0.053000 0.053000 1.200000 0.028000 0.033000
1518663533096382111	300 42 0.900000 0.085000 0.077000 1000 37 0.900000 2.053000 1.995000 600 48 1.000000 0.052000 0.052000 1.200000 0.028000 0.033000
1518663533624394444	300 43 0.900000 0.086000 0.078000 1000 37 0.900000 2.045000 1.989000 600 48 1.000000 0.052000 0.052000 1.200000 0.029000 0.035000
1518663534168362569	300 43 0.900000 0.086000 0.078000 1000 37 0.900000 2.052000 1.996000 600 48 1.000000 0.052000 0.052000 1.200000 0.028000 0.033000
1518663534712252903	300 43 0.900000 0.086000 0.078000 1000 37 0.900000 2.060000 2.004000 600 48 1.000000 0.052000 0.052000 1.200000 0.030000 0.036000
1518663535256358736	300 43 0.900000 0.086000 0.078000 1000 37 0.900000 2.058000 2.002000 600 48 1.000000 0.052000 0.052000 1.200000 0.029000 0.035000
1518663535808268861	300 43 0.900000 0.086000 0.078000 1000 37 0.900000 2.060000 2.004000 600 48 1.000000 0.052000 0.052000 1.200000 0.029000 0.035000
1518663536352288986	300 43 0.900000 0.086000 0.078000 1000 37 0.900000 2.060000 2.004000 600 48 1.000000 0.053000 0.053000 1.200000 0.030000 0.036000
1518663536896361486	300 43 0.900000 0.086000 0.078000 1000 37 0.900000 2.059000 2.003000 600 49 1.000000 0.053000 0.053000 1.200000 0.029000 0.035000
1518663537420367111	300 43 0.900000 0.086000 0.078000 1000 37 0.900000 2.063000 2.007000 600 49 1.000000 0.052000 0.052000 1.200000 0.029000 0.035000
1518663537952381361	300 43 0.900000 0.086000 0.078000 1000 38 0.900000 2.080000 2.023000 600 49 1.000000 0.053000 0.053000 1.200000 0.030000 0.036000
1518663538496396986	300 43 0.900000 0.085000 0.077000 1000 38 0.900000 2.085000 2.028000 600 49 1.000000 0.053000 0.053000 1.200000 0.029000 0.035000
1518663539028295195	300 43 0.900000 0.085000 0.077000 1000 38 0.900000 2.086000 2.029000 600 49 1.000000 0.052000 0.052000 1.200000 0.030000 0.036000
1518663539560389403	300 44 0.900000 0.086000 0.078000 1000 38 0.900000 2.082000 2.025000 600 49 1.000000 0.052000 0.052000 1.200000 0.030000 0.036000
1518663540104349153	300 44 0.900000 0.086000 0.078000 1000 38 0.900000 2.085000 2.028000 600 49 1.000000 0.053000 0.053000 1.200000 0.029000 0.035000
1518663540636408403	300 44 0.900000 0.086000 0.078000 1000 38 0.900000 2.084000 2.027000 600 49 1.000000 0.052000 0.052000 1.200000 0.029000 0.035000
1518663541176297195	300 44 0.900000 0.087000 0.079000 1000 38 0.900000 2.075000 2.018000 600 49 1.000000 0.053000 0.053000 1.200000 0.029000 0.035000
1518663541708348778	300 44 0.900000 0.087000 0.079000 1000 38 0.900000 2.070000 2.014000 600 49 1.000000 0.053000 0.053000 1.200000 0.029000 0.035000
1518663542252391904	300 44 0.900000 0.087000 0.079000 1000 38 0.900000 2.081000 2.024000 600 49 1.000000 0.053000 0.053000 1.200000 0.033000 0.039000
1518663542784392945	300 44 0.900000 0.086000 0.078000 1000 38 0.900000 2.082000 2.025000 600 49 1.000000 0.053000 0.053000 1.200000 0.030000 0.036000
1518663543316392154	300 44 0.900000 0.086000 0.078000 1000 38 0.900000 2.078000 2.021000 600 49 1.000000 0.053000 0.053000 1.200000 0.029000 0.035000
1518663543856377154	300 44 0.900000 0.086000 0.078000 1000 38 0.900000 2.079000 2.022000 600 49 1.000000 0.053000 0.053000 1.200000 0.029000 0.035000
1518663544388355737	300 44 0.900000 0.086000 0.078000 1000 38 0.900000 2.077000 2.020000 600 49 1.000000 0.053000 0.053000 1.200000 0.030000 0.036000
1518663544932283112	300 44 0.900000 0.087000 0.079000 1000 38 0.900000 2.074000 2.018000 600 50 1.000000 0.053000 0.053000 1.200000 0.030000 0.036000
1518663545464343279	300 44 0.900000 0.087000 0.079000 1000 38 0.900000 2.079000 2.022000 600 50 1.000000 0.053000 0.053000 1.200000 0.029000 0.035000
1518663545996337862	300 44 0.900000 0.086000 0.078000 1000 38 0.900000 2.084000 2.027000 600 50 1.000000 0.053000 0.053000 1.200000 0.030000 0.036000
1518663546540364571	300 44 0.900000 0.086000 0.078000 1000 38 0.900000 2.079000 2.022000 600 50 1.000000 0.053000 0.053000 1.200000 0.030000 0.036000
1518663547080338029	300 44 0.900000 0.086000 0.078000 1000 39 0.900000 2.079000 2.022000 600 50 1.000000 0.053000 0.053000 1.200000 0.029000 0.035000
1518663547612356737	300 44 0.900000 0.087000 0.079000 1000 39 0.900000 2.079000 2.022000 600 50 1.000000 0.053000 0.053000 1.200000 0.030000 0.036000
1518663548144314529	300 44 0.900000 0.086000 0.078000 1000 39 0.900000 2.085000 2.028000 600 50 1.000000 0.053000 0.053000 1.200000 0.029000 0.035000
1518663548676388279	300 44 0.900000 0.087000 0.079000 1000 39 0.900000 2.097000 2.040000 600 50 1.000000 0.053000 0.053000 1.200000 0.028000 0.033000
1518663549220265779	300 44 0.900000 0.086000 0.078000 1000 39 0.900000 2.100000 2.043000 600 50 1.000000 0.053000 0.053000 1.200000 0.028000 0.033000
1518663549764348321	300 44 0.900000 0.086000 0.078000 1000 39 0.900000 2.097000 2.040000 600 50 1.000000 0.053000 0.053000 1.200000 0.028000 0.033000
1518663550296348529	300 44 0.900000 0.086000 0.078000 1000 39 0.900000 2.094000 2.037000 600 50 1.000000 0.053000 0.053000 1.200000 0.028000 0.033000
1518663550840333321	300 44 0.900000 0.086000 0.078000 1000 39 0.900000 2.093000 2.036000 600 50 1.000000 0.053000 0.053000 1.200000 0.028000 0.033000
1518663551384290238	300 44 0.900000 0.086000 0.078000 1000 39 0.900000 2.093000 2.036000 600 50 1.000000 0.053000 0.053000 1.200000 0.028000 0.033000
1518663551916446780	300 45 0.900000 0.087000 0.079000 1000 39 0.900000 2.040000 1.982000 600 50 1.000000 0.053000 0.053000 1.200000 0.031000 0.037000
1518663552456406780	300 44 0.900000 0.086000 0.078000 1000 39 0.900000 2.081000 2.024000 600 50 1.000000 0.053000 0.053000 1.200000 0.028000 0.033000
1518663553000293780	300 45 0.900000 0.087000 0.079000 1000 39 0.900000 2.087000 2.030000 600 50 1.000000 0.053000 0.053000 1.200000 0.028000 0.033000
1518663553544384030	300 44 0.900000 0.086000 0.078000 1000 39 0.900000 2.078000 2.021000 600 50 1.000000 0.053000 0.053000 1.200000 0.029000 0.035000
1518663554076362280	300 45 0.900000 0.086000 0.078000 1000 39 0.900000 2.080000 2.023000 600 50 1.000000 0.053000 0.053000 1.200000 0.029000 0.035000
1518663554608285988	300 45 0.900000 0.088000 0.080000 1000 39 0.900000 2.078000 2.021000 600 50 1.000000 0.053000 0.053000 1.200000 0.029000 0.035000
1518663555152369155	300 45 0.900000 0.087000 0.079000 1000 39 0.900000 2.080000 2.023000 600 50 1.000000 0.053000 0.053000 1.200000 0.029000 0.035000
1518663555696383322	300 45 0.900000 0.087000 0.079000 1000 39 0.900000 2.087000 2.030000 600 50 1.000000 0.053000 0.053000 1.200000 0.029000 0.035000
1518663556240397072	300 45 0.900000 0.087000 0.079000 1000 39 0.900000 2.071000 2.015000 600 50 1.000000 0.053000 0.053000 1.200000 0.030000 0.036000
1518663556772370822	300 45 0.900000 0.086000 0.078000 1000 39 0.900000 2.067000 2.009000 600 50 1.000000 0.053000 0.053000 1.200000 0.030000 0.036000
1518663557304322364	300 45 0.900000 0.086000 0.078000 1000 39 0.900000 2.072000 2.016000 600 50 1.000000 0.053000 0.053000 1.200000 0.029000 0.035000
1518663557848348447	300 45 0.900000 0.087000 0.079000 1000 39 0.900000 2.074000 2.018000 600 50 1.000000 0.053000 0.053000 1.200000 0.029000 0.035000
1518663558380386489	300 45 0.900000 0.087000 0.079000 1000 39 0.900000 2.078000 2.019000 600 50 1.000000 0.053000 0.053000 1.200000 0.029000 0.035000
1518663558912350114	300 45 0.900000 0.086000 0.078000 1000 39 0.900000 2.081000 2.022000 600 50 1.000000 0.053000 0.053000 1.200000 0.029000 0.035000
1518663559456356031	300 45 0.900000 0.087000 0.079000 1000 39 0.900000 2.074000 2.015000 600 50 1.000000 0.053000 0.053000 1.200000 0.029000 0.035000
1518663559988288322	300 45 0.900000 0.086000 0.078000 1000 39 0.900000 2.081000 2.022000 600 51 1.000000 0.053000 0.053000 1.200000 0.029000 0.035000
1518663560532300489	300 45 0.900000 0.086000 0.078000 1000 39 0.900000 2.075000 2.016000 600 51 1.000000 0.053000 0.053000 1.200000 0.029000 0.035000
1518663561076402156	300 45 0.900000 0.086000 0.078000 1000 39 0.900000 2.082000 2.025000 600 50 1.000000 0.053000 0.053000 1.200000 0.029000 0.035000
1518663561608392156	300 45 0.900000 0.086000 0.078000 1000 39 0.900000 2.070000 2.012000 600 50 1.000000 0.053000 0.053000 1.200000 0.028000 0.033000
1518663562140373614	300 45 0.900000 0.087000 0.079000 1000 39 0.900000 2.031000 1.974000 600 50 1.000000 0.053000 0.053000 1.200000 0.030000 0.036000
1518663562672398448	300 45 0.900000 0.086000 0.078000 1000 39 0.900000 2.070000 2.014000 600 51 1.000000 0.053000 0.053000 1.200000 0.028000 0.033000
1518663563216300906	300 45 0.900000 0.086000 0.078000 1000 40 0.900000 2.068000 2.012000 600 51 1.000000 0.053000 0.053000 1.200000 0.028000 0.033000
1518663563760377739	300 45 0.900000 0.086000 0.078000 1000 39 0.900000 2.070000 2.014000 600 51 1.000000 0.053000 0.053000 1.200000 0.028000 0.033000
1518663564304380073	300 45 0.900000 0.086000 0.078000 1000 40 0.900000 2.077000 2.020000 600 51 1.000000 0.053000 0.053000 1.200000 0.028000 0.033000
1518663564836397656	300 45 0.900000 0.086000 0.078000 1000 40 0.900000 2.087000 2.030000 600 51 1.000000 0.053000 0.053000 1.200000 0.028000 0.033000
1518663565368296573	300 45 0.900000 0.086000 0.078000 1000 40 0.900000 2.084000 2.027000 600 51 1.000000 0.053000 0.053000 1.200000 0.028000 0.033000
1518663565920374990	300 45 0.900000 0.088000 0.080000 1000 40 0.900000 2.075000 2.018000 600 51 1.000000 0.053000 0.053000 1.200000 0.028000 0.033000
1518663566464343406	300 45 0.900000 0.087000 0.079000 1000 39 0.900000 2.081000 2.024000 600 51 1.000000 0.053000 0.053000 1.200000 0.027000 0.032000
1518663567008315990	300 45 0.900000 0.087000 0.079000 1000 40 0.900000 2.085000 2.028000 600 51 1.000000 0.053000 0.053000 1.200000 0.028000 0.033000
1518663567560409198	300 45 0.900000 0.087000 0.079000 1000 40 0.900000 2.084000 2.027000 600 51 1.000000 0.053000 0.053000 1.200000 0.028000 0.033000
1518663568092391490	300 45 0.900000 0.087000 0.079000 1000 40 0.900000 2.082000 2.025000 600 51 1.000000 0.053000 0.053000 1.200000 0.028000 0.033000
1518663568624378032	300 45 0.900000 0.086000 0.078000 1000 40 0.900000 2.082000 2.025000 600 51 1.000000 0.053000 0.053000 1.200000 0.028000 0.033000
1518663569156387740	300 45 0.900000 0.087000 0.079000 1000 40 0.900000 2.084000 2.027000 600 51 1.000000 0.053000 0.053000 1.200000 0.027000 0.032000
1518663569680340615	300 45 0.900000 0.086000 0.078000 1000 40 0.900000 2.082000 2.025000 600 51 1.000000 0.053000 0.053000 1.200000 0.028000 0.033000
1518663570212358324	300 45 0.900000 0.086000 0.078000 1000 40 0.900000 2.083000 2.026000 600 51 1.000000 0.053000 0.053000 1.200000 0.028000 0.033000
1518663570756351740	300 45 0.900000 0.086000 0.078000 1000 40 0.900000 2.085000 2.028000 600 51 1.000000 0.053000 0.053000 1.200000 0.028000 0.033000
1518663571288299574	300 45 0.900000 0.086000 0.078000 1000 40 0.900000 2.078000 2.021000 600 51 1.000000 0.053000 0.053000 1.200000 0.028000 0.033000
1518663571870338282	300 45 0.900000 0.086000 0.078000 1000 40 0.900000 2.080000 2.023000 600 51 1.000000 0.053000 0.053000 1.200000 0.028000 0.033000
1518663572400447407	300 45 0.900000 0.087000 0.079000 1000 40 0.900000 2.044000 1.988000 600 51 1.000000 0.053000 0.053000 1.200000 0.031000 0.037000
1518663572944379407	300 45 0.900000 0.088000 0.080000 1000 40 0.900000 2.074000 2.018000 600 51 1.000000 0.053000 0.053000 1.200000 0.029000 0.035000
1518663573476301782	300 45 0.900000 0.087000 0.079000 1000 40 0.900000 2.089000 2.032000 600 51 1.000000 0.053000 0.053000 1.200000 0.029000 0.035000
1518663574008291407	300 45 0.900000 0.086000 0.078000 1000 40 0.900000 2.091000 2.034000 600 51 1.000000 0.053000 0.053000 1.200000 0.029000 0.035000
1518663574540386741	300 45 0.900000 0.086000 0.078000 1000 40 0.900000 2.089000 2.032000 600 51 1.000000 0.053000 0.053000 1.200000 0.030000 0.036000
1518663575072342699	300 45 0.900000 0.086000 0.078000 1000 40 0.900000 2.089000 2.032000 600 51 1.000000 0.053000 0.053000 1.200000 0.030000 0.036000
1518663575612386449	300 46 0.900000 0.086000 0.078000 1000 40 0.900000 2.089000 2.032000 600 51 1.000000 0.053000 0.053000 1.200000 0.030000 0.036000
1518663576144304824	300 45 0.900000 0.087000 0.079000 1000 40 0.900000 2.088000 2.031000 600 51 1.000000 0.053000 0.053000 1.200000 0.030000 0.036000
1518663576676356949	300 45 0.900000 0.086000 0.078000 1000 40 0.900000 2.085000 2.028000 600 51 1.000000 0.053000 0.053000 1.200000 0.029000 0.035000
1518663577220318616	300 45 0.900000 0.086000 0.078000 1000 40 0.900000 2.085000 2.028000 600 51 1.000000 0.053000 0.053000 1.200000 0.029000 0.035000
1518663577752365241	300 45 0.900000 0.086000 0.078000 1000 40 0.900000 2.078000 2.019000 600 51 1.000000 0.053000 0.053000 1.200000 0.030000 0.036000
1518663578296329866	300 45 0.900000 0.087000 0.079000 1000 40 0.900000 2.079000 2.020000 600 51 1.000000 0.053000 0.053000 1.200000 0.029000 0.035000
1518663578828271450	300 45 0.900000 0.087000 0.079000 1000 40 0.900000 2.067000 2.011000 600 51 1.000000 0.053000 0.053000 1.200000 0.029000 0.035000
1518663579360285908	300 45 0.900000 0.087000 0.079000 1000 40 0.900000 2.067000 2.011000 600 51 1.000000 0.053000 0.053000 1.200000 0.029000 0.035000
1518663579892301116	300 45 0.900000 0.087000 0.079000 1000 40 0.900000 2.068000 2.012000 600 51 1.000000 0.053000 0.053000 1.200000 0.029000 0.035000
1518663580424302533	300 45 0.900000 0.086000 0.078000 1000 40 0.900000 2.066000 2.010000 600 51 1.000000 0.053000 0.053000 1.200000 0.029000 0.035000
1518663580956314116	300 46 0.900000 0.086000 0.078000 1000 40 0.900000 2.066000 2.008000 600 51 1.000000 0.053000 0.053000 1.200000 0.029000 0.035000
1518663581500316283	300 45 0.900000 0.086000 0.078000 1000 40 0.900000 2.068000 2.012000 600 51 1.000000 0.053000 0.053000 1.200000 0.029000 0.035000
1518663582050022908	300 45 0.900000 0.086000 0.078000 1000 40 0.900000 2.069000 2.013000 600 51 1.000000 0.053000 0.053000 1.200000 0.029000 0.035000
1518663582580447117	300 46 0.900000 0.086000 0.078000 1000 40 0.900000 2.065000 2.007000 600 51 1.000000 0.053000 0.053000 1.200000 0.033000 0.039000
1518663583112386992	300 45 0.900000 0.086000 0.078000 1000 40 0.900000 2.065000 2.007000 600 51 1.000000 0.053000 0.053000 1.200000 0.030000 0.036000
1518663583644841492	300 46 0.900000 0.086000 0.078000 1000 40 0.900000 2.066000 2.010000 600 51 1.000000 0.053000 0.053000 1.200000 0.029000 0.035000
1518663584176332200	300 46 0.900000 0.086000 0.078000 1000 40 0.900000 2.067000 2.011000 600 51 1.000000 0.053000 0.053000 1.200000 0.030000 0.036000
1518663584708313534	300 46 0.900000 0.087000 0.079000 1000 40 0.900000 2.069000 2.013000 600 51 1.000000 0.053000 0.053000 1.200000 0.029000 0.035000
1518663585240326409	300 45 0.900000 0.087000 0.079000 1000 40 0.900000 2.068000 2.012000 600 51 1.000000 0.053000 0.053000 1.200000 0.029000 0.035000
1518663585772382784	300 46 0.900000 0.087000 0.079000 1000 40 0.900000 2.067000 2.011000 600 51 1.000000 0.053000 0.053000 1.200000 0.029000 0.035000
1518663586304338284	300 46 0.900000 0.087000 0.079000 1000 40 0.900000 2.077000 2.020000 600 51 1.000000 0.053000 0.053000 1.200000 0.029000 0.035000
1518663586848302576	300 46 0.900000 0.086000 0.078000 1000 40 0.900000 2.079000 2.022000 600 51 1.000000 0.053000 0.053000 1.200000 0.029000 0.035000
1518663587384253242	300 46 0.900000 0.087000 0.079000 1000 40 0.900000 2.077000 2.020000 600 51 1.000000 0.053000 0.053000 1.200000 0.030000 0.036000
1518663587936283867	300 46 0.900000 0.087000 0.079000 1000 40 0.900000 2.078000 2.021000 600 51 1.000000 0.053000 0.053000 1.200000 0.029000 0.035000
1518663588480345242	300 46 0.900000 0.086000 0.078000 1000 40 0.900000 2.074000 2.018000 600 51 1.000000 0.053000 0.053000 1.200000 0.030000 0.036000
1518663589024336117	300 46 0.900000 0.086000 0.078000 1000 40 0.900000 2.084000 2.027000 600 51 1.000000 0.053000 0.053000 1.200000 0.029000 0.035000
1518663589568361451	300 46 0.900000 0.087000 0.079000 1000 40 0.900000 2.074000 2.018000 600 51 1.000000 0.053000 0.053000 1.200000 0.030000 0.036000
1518663590100294868	300 46 0.900000 0.086000 0.078000 1000 40 0.900000 2.083000 2.026000 600 51 1.000000 0.053000 0.053000 1.200000 0.028000 0.033000
1518663590632327951	300 46 0.900000 0.086000 0.078000 1000 40 0.900000 2.082000 2.025000 600 51 1.000000 0.053000 0.053000 1.200000 0.028000 0.033000
1518663591176359034	300 46 0.900000 0.086000 0.078000 1000 40 0.900000 2.084000 2.027000 600 51 1.000000 0.053000 0.053000 1.200000 0.028000 0.033000
1518663591708339493	300 46 0.900000 0.086000 0.078000 1000 40 0.900000 2.087000 2.030000 600 51 1.000000 0.053000 0.053000 1.200000 0.028000 0.033000
1518663592252441493	300 46 0.900000 0.086000 0.078000 1000 40 0.900000 2.053000 1.997000 600 51 1.000000 0.053000 0.053000 1.200000 0.032000 0.038000
1518663592784363785	300 46 0.900000 0.087000 0.079000 1000 40 0.900000 2.088000 2.031000 600 51 1.000000 0.053000 0.053000 1.200000 0.028000 0.033000
1518663593316306326	300 46 0.900000 0.086000 0.078000 1000 40 0.900000 2.087000 2.030000 600 51 1.000000 0.053000 0.053000 1.200000 0.028000 0.033000
1518663593860331576	300 46 0.900000 0.086000 0.078000 1000 40 0.900000 2.082000 2.025000 600 51 1.000000 0.053000 0.053000 1.200000 0.028000 0.033000
1518663594392355326	300 46 0.900000 0.087000 0.079000 1000 40 0.900000 2.088000 2.031000 600 52 1.000000 0.053000 0.053000 1.200000 0.028000 0.033000
1518663594932268660	300 46 0.900000 0.086000 0.078000 1000 40 0.900000 2.080000 2.023000 600 51 1.000000 0.053000 0.053000 1.200000 0.028000 0.033000
1518663595464305827	300 46 0.900000 0.086000 0.078000 1000 40 0.900000 2.078000 2.021000 600 51 1.000000 0.053000 0.053000 1.200000 0.026000 0.031000
1518663595996345035	300 46 0.900000 0.086000 0.078000 1000 40 0.900000 2.082000 2.025000 600 51 1.000000 0.053000 0.053000 1.200000 0.026000 0.031000
1518663596540347035	300 46 0.900000 0.086000 0.078000 1000 40 0.900000 2.080000 2.023000 600 51 1.000000 0.053000 0.053000 1.200000 0.026000 0.031000
1518663597072372452	300 46 0.900000 0.087000 0.079000 1000 40 0.900000 2.082000 2.025000 600 51 1.000000 0.053000 0.053000 1.200000 0.026000 0.031000
1518663597624312118	300 46 0.900000 0.086000 0.078000 1000 40 0.900000 2.079000 2.022000 600 51 1.000000 0.053000 0.053000 1.200000 0.026000 0.031000
1518663598156380910	300 46 0.900000 0.086000 0.078000 1000 40 0.900000 2.079000 2.022000 600 52 1.000000 0.053000 0.053000 1.200000 0.027000 0.032000
1518663598700348660	300 46 0.900000 0.086000 0.078000 1000 40 0.900000 2.078000 2.021000 600 52 1.000000 0.053000 0.053000 1.200000 0.027000 0.032000
1518663599244342494	300 46 0.900000 0.086000 0.078000 1000 40 0.900000 2.071000 2.015000 600 51 1.000000 0.053000 0.053000 1.200000 0.028000 0.033000
1518663599776338035	300 46 0.900000 0.086000 0.078000 1000 40 0.900000 2.079000 2.022000 600 51 1.000000 0.053000 0.053000 1.200000 0.028000 0.033000
1518663600320342494	300 46 0.900000 0.086000 0.078000 1000 40 0.900000 2.079000 2.022000 600 51 1.000000 0.053000 0.053000 1.200000 0.028000 0.033000
1518663600852357077	300 46 0.900000 0.086000 0.078000 1000 40 0.900000 2.081000 2.024000 600 51 1.000000 0.053000 0.053000 1.200000 0.028000 0.033000
1518663601384359577	300 46 0.900000 0.086000 0.078000 1000 40 0.900000 2.078000 2.021000 600 51 1.000000 0.053000 0.053000 1.200000 0.028000 0.033000
1518663601916324369	300 46 0.900000 0.086000 0.078000 1000 40 0.900000 2.076000 2.019000 600 51 1.000000 0.053000 0.053000 1.200000 0.028000 0.033000
1518663602460424827	300 46 0.900000 0.088000 0.080000 1000 40 0.900000 2.079000 2.022000 600 51 1.000000 0.053000 0.053000 1.200000 0.033000 0.039000
1518663603004344411	300 46 0.900000 0.086000 0.078000 1000 40 0.900000 2.077000 2.020000 600 51 1.000000 0.053000 0.053000 1.200000 0.028000 0.033000
1518663603548298619	300 46 0.900000 0.086000 0.078000 1000 41 0.900000 2.069000 2.013000 600 51 1.000000 0.053000 0.053000 1.200000 0.028000 0.033000
1518663604088379161	300 46 0.900000 0.086000 0.078000 1000 40 0.900000 2.078000 2.021000 600 52 1.000000 0.053000 0.053000 1.200000 0.028000 0.033000
1518663604632368453	300 46 0.900000 0.087000 0.079000 1000 40 0.900000 2.079000 2.022000 600 52 1.000000 0.053000 0.053000 1.200000 0.026000 0.031000
1518663605164336744	300 46 0.900000 0.086000 0.078000 1000 40 0.900000 2.078000 2.021000 600 52 1.000000 0.053000 0.053000 1.200000 0.026000 0.031000
1518663605696306369	300 46 0.900000 0.086000 0.078000 1000 40 0.900000 2.076000 2.019000 600 52 1.000000 0.053000 0.053000 1.200000 0.026000 0.031000
1518663606228359578	300 46 0.900000 0.086000 0.078000 1000 41 0.900000 2.077000 2.020000 600 52 1.000000 0.053000 0.053000 1.200000 0.026000 0.031000
1518663606772287370	300 46 0.900000 0.086000 0.078000 1000 40 0.900000 2.073000 2.017000 600 51 1.000000 0.053000 0.053000 1.200000 0.026000 0.031000
1518663607316281620	300 46 0.900000 0.086000 0.078000 1000 41 0.900000 2.071000 2.015000 600 52 1.000000 0.053000 0.053000 1.200000 0.026000 0.031000
1518663607848386078	300 46 0.900000 0.086000 0.078000 1000 40 0.900000 2.070000 2.014000 600 52 1.000000 0.053000 0.053000 1.200000 0.026000 0.031000
1518663608388320286	300 46 0.900000 0.086000 0.078000 1000 41 0.900000 2.069000 2.013000 600 52 1.000000 0.053000 0.053000 1.200000 0.026000 0.031000
1518663608920294620	300 46 0.900000 0.086000 0.078000 1000 41 0.900000 2.069000 2.013000 600 52 1.000000 0.053000 0.053000 1.200000 0.026000 0.031000
1518663609464352203	300 46 0.900000 0.086000 0.078000 1000 40 0.900000 2.062000 2.006000 600 52 1.000000 0.053000 0.053000 1.200000 0.026000 0.031000
1518663609996273245	300 46 0.900000 0.087000 0.079000 1000 41 0.900000 2.062000 2.006000 600 52 1.000000 0.053000 0.053000 1.200000 0.026000 0.031000
1518663610528360120	300 46 0.900000 0.086000 0.078000 1000 41 0.900000 2.061000 2.005000 600 52 1.000000 0.053000 0.053000 1.200000 0.026000 0.031000
1518663611052267578	300 46 0.900000 0.086000 0.078000 1000 41 0.900000 2.064000 2.008000 600 52 1.000000 0.053000 0.053000 1.200000 0.026000 0.031000
1518663611588331745	300 46 0.900000 0.086000 0.078000 1000 41 0.900000 2.062000 2.006000 600 52 1.000000 0.053000 0.053000 1.200000 0.026000 0.031000
1518663612120358745	300 46 0.900000 0.086000 0.078000 1000 41 0.900000 2.064000 2.008000 600 52 1.000000 0.053000 0.053000 1.200000 0.026000 0.031000
1518663612652396329	300 46 0.900000 0.095000 0.086000 1000 41 0.900000 2.052000 1.996000 600 52 1.000000 0.053000 0.053000 1.200000 0.032000 0.038000
1518663613184358162	300 46 0.900000 0.086000 0.078000 1000 41 0.900000 2.063000 2.007000 600 52 1.000000 0.053000 0.053000 1.200000 0.026000 0.031000
1518663613716351329	300 46 0.900000 0.086000 0.078000 1000 41 0.900000 2.067000 2.011000 600 52 1.000000 0.053000 0.053000 1.200000 0.026000 0.031000
1518663614248349495	300 46 0.900000 0.086000 0.078000 1000 41 0.900000 2.070000 2.014000 600 52 1.000000 0.053000 0.053000 1.200000 0.028000 0.033000
1518663614788333037	300 46 0.900000 0.086000 0.078000 1000 41 0.900000 2.068000 2.012000 600 52 1.000000 0.053000 0.053000 1.200000 0.028000 0.033000
1518663615320383412	300 46 0.900000 0.086000 0.078000 1000 41 0.900000 2.070000 2.014000 600 52 1.000000 0.053000 0.053000 1.200000 0.027000 0.032000
1518663615864343912	300 46 0.900000 0.086000 0.078000 1000 40 0.900000 2.075000 2.018000 600 52 1.000000 0.053000 0.053000 1.200000 0.028000 0.033000
1518663616396349537	300 46 0.900000 0.087000 0.079000 1000 41 0.900000 2.080000 2.023000 600 52 1.000000 0.053000 0.053000 1.200000 0.028000 0.033000
1518663616928382371	300 46 0.900000 0.086000 0.078000 1000 41 0.900000 2.074000 2.015000 600 52 1.000000 0.053000 0.053000 1.200000 0.028000 0.033000
1518663617472273162	300 46 0.900000 0.086000 0.078000 1000 41 0.900000 2.084000 2.027000 600 52 1.000000 0.053000 0.053000 1.200000 0.028000 0.033000
1518663618004361413	300 46 0.900000 0.087000 0.079000 1000 41 0.900000 2.091000 2.034000 600 52 1.000000 0.053000 0.053000 1.200000 0.028000 0.033000
1518663618548309496	300 46 0.900000 0.086000 0.078000 1000 41 0.900000 2.089000 2.032000 600 52 1.000000 0.053000 0.053000 1.200000 0.027000 0.032000
1518663619092339413	300 46 0.900000 0.086000 0.078000 1000 41 0.900000 2.089000 2.032000 600 52 1.000000 0.053000 0.053000 1.200000 0.028000 0.033000
1518663619624338913	300 46 0.900000 0.086000 0.078000 1000 41 0.900000 2.086000 2.029000 600 52 1.000000 0.053000 0.053000 1.200000 0.027000 0.032000
1518663620164282621	300 46 0.900000 0.087000 0.079000 1000 41 0.900000 2.083000 2.026000 600 52 1.000000 0.053000 0.053000 1.200000 0.028000 0.033000
1518663620708337871	300 46 0.900000 0.087000 0.079000 1000 41 0.900000 2.093000 2.036000 600 52 1.000000 0.053000 0.053000 1.200000 0.028000 0.033000
1518663621252333996	300 46 0.900000 0.086000 0.078000 1000 41 0.900000 2.098000 2.041000 600 52 1.000000 0.053000 0.053000 1.200000 0.027000 0.032000
1518663621796370538	300 46 0.900000 0.086000 0.078000 1000 41 0.900000 2.099000 2.042000 600 52 1.000000 0.053000 0.053000 1.200000 0.027000 0.032000
1518663622406101371	300 46 0.900000 0.086000 0.078000 1000 41 0.900000 2.098000 2.041000 600 52 1.000000 0.053000 0.053000 1.200000 0.027000 0.032000
1518663622936431746	300 46 0.900000 0.089000 0.081000 1000 41 0.900000 2.101000 2.044000 600 52 1.000000 0.053000 0.053000 1.200000 0.033000 0.039000
1518663623480328455	300 46 0.900000 0.086000 0.078000 1000 41 0.900000 2.094000 2.037000 600 52 1.000000 0.053000 0.053000 1.200000 0.028000 0.033000
1518663624012346122	300 46 0.900000 0.086000 0.078000 1000 41 0.900000 2.094000 2.037000 600 52 1.000000 0.053000 0.053000 1.200000 0.028000 0.033000
1518663624556340330	300 46 0.900000 0.087000 0.079000 1000 41 0.900000 2.093000 2.036000 600 52 1.000000 0.053000 0.053000 1.200000 0.028000 0.033000
1518663625100327705	300 46 0.900000 0.087000 0.079000 1000 41 0.900000 2.093000 2.036000 600 52 1.000000 0.053000 0.053000 1.200000 0.028000 0.033000
1518663625632376455	300 46 0.900000 0.086000 0.078000 1000 41 0.900000 2.102000 2.045000 600 52 1.000000 0.053000 0.053000 1.200000 0.028000 0.033000
1518663626164301205	300 46 0.900000 0.087000 0.079000 1000 41 0.900000 2.100000 2.043000 600 52 1.000000 0.053000 0.053000 1.200000 0.028000 0.033000
1518663626708349830	300 46 0.900000 0.086000 0.078000 1000 41 0.900000 2.098000 2.041000 600 52 1.000000 0.053000 0.053000 1.200000 0.028000 0.033000
1518663627240336997	300 46 0.900000 0.087000 0.079000 1000 41 0.900000 2.102000 2.045000 600 52 1.000000 0.053000 0.053000 1.200000 0.027000 0.032000
1518663627772364455	300 46 0.900000 0.086000 0.078000 1000 41 0.900000 2.099000 2.042000 600 52 1.000000 0.053000 0.053000 1.200000 0.028000 0.033000
1518663628304351247	300 46 0.900000 0.086000 0.078000 1000 41 0.900000 2.094000 2.037000 600 52 1.000000 0.053000 0.053000 1.200000 0.028000 0.033000
1518663628836377831	300 46 0.900000 0.086000 0.078000 1000 41 0.900000 2.095000 2.038000 600 52 1.000000 0.053000 0.053000 1.200000 0.028000 0.033000
1518663629368297289	300 46 0.900000 0.086000 0.078000 1000 41 0.900000 2.094000 2.037000 600 52 1.000000 0.053000 0.053000 1.200000 0.028000 0.033000
1518663629912313539	300 46 0.900000 0.087000 0.079000 1000 41 0.900000 2.083000 2.026000 600 52 1.000000 0.053000 0.053000 1.200000 0.028000 0.033000
1518663630444389914	300 46 0.900000 0.087000 0.079000 1000 41 0.900000 2.085000 2.028000 600 52 1.000000 0.053000 0.053000 1.200000 0.027000 0.032000
1518663630976367372	300 46 0.900000 0.087000 0.079000 1000 41 0.900000 2.084000 2.027000 600 52 1.000000 0.053000 0.053000 1.200000 0.028000 0.033000
1518663631520308081	300 46 0.900000 0.086000 0.078000 1000 41 0.900000 2.064000 2.008000 600 52 1.000000 0.053000 0.053000 1.200000 0.028000 0.033000
1518663632052322289	300 46 0.900000 0.086000 0.078000 1000 41 0.900000 2.081000 2.024000 600 52 1.000000 0.053000 0.053000 1.200000 0.026000 0.031000
1518663632596430414	300 46 0.900000 0.088000 0.080000 1000 41 0.900000 2.086000 2.029000 600 52 1.000000 0.053000 0.053000 1.200000 0.028000 0.033000
1518663633140311623	300 46 0.900000 0.086000 0.078000 1000 41 0.900000 2.073000 2.017000 600 52 1.000000 0.053000 0.053000 1.200000 0.026000 0.031000
1518663633684360039	300 46 0.900000 0.086000 0.078000 1000 41 0.900000 2.078000 2.021000 600 52 1.000000 0.053000 0.053000 1.200000 0.026000 0.031000
1518663634216360498	300 46 0.900000 0.086000 0.078000 1000 41 0.900000 2.085000 2.028000 600 52 1.000000 0.053000 0.053000 1.200000 0.026000 0.031000
1518663634744335790	300 46 0.900000 0.086000 0.078000 1000 41 0.900000 2.080000 2.023000 600 52 1.000000 0.053000 0.053000 1.200000 0.026000 0.031000
1518663635272305456	300 46 0.900000 0.087000 0.079000 1000 41 0.900000 2.084000 2.027000 600 52 1.000000 0.053000 0.053000 1.200000 0.026000 0.031000
1518663635804350498	300 47 0.900000 0.086000 0.078000 1000 41 0.900000 2.083000 2.026000 600 52 1.000000 0.053000 0.053000 1.200000 0.027000 0.032000
1518663636336384081	300 47 0.900000 0.087000 0.079000 1000 41 0.900000 2.079000 2.020000 600 52 1.000000 0.053000 0.053000 1.200000 0.026000 0.031000
1518663636868363706	300 46 0.900000 0.087000 0.079000 1000 41 0.900000 2.083000 2.026000 600 52 1.000000 0.053000 0.053000 1.200000 0.026000 0.031000
1518663637400374957	300 47 0.900000 0.086000 0.078000 1000 41 0.900000 2.084000 2.027000 600 52 1.000000 0.053000 0.053000 1.200000 0.026000 0.031000
1518663637940278832	300 47 0.900000 0.086000 0.078000 1000 41 0.900000 2.083000 2.026000 600 52 1.000000 0.053000 0.053000 1.200000 0.027000 0.032000
1518663638488344748	300 47 0.900000 0.086000 0.078000 1000 41 0.900000 2.068000 2.012000 600 52 1.000000 0.053000 0.053000 1.200000 0.026000 0.031000
1518663639020285665	300 46 0.900000 0.086000 0.078000 1000 41 0.900000 2.073000 2.017000 600 52 1.000000 0.053000 0.053000 1.200000 0.026000 0.031000
1518663639552319623	300 46 0.900000 0.086000 0.078000 1000 41 0.900000 2.074000 2.018000 600 52 1.000000 0.053000 0.053000 1.200000 0.027000 0.032000
1518663640096337915	300 47 0.900000 0.086000 0.078000 1000 41 0.900000 2.071000 2.015000 600 52 1.000000 0.053000 0.053000 1.200000 0.027000 0.032000
1518663640640367749	300 46 0.900000 0.086000 0.078000 1000 41 0.900000 2.071000 2.013000 600 52 1.000000 0.053000 0.053000 1.200000 0.027000 0.032000
1518663641172351082	300 46 0.900000 0.086000 0.078000 1000 41 0.900000 2.079000 2.022000 600 52 1.000000 0.053000 0.053000 1.200000 0.027000 0.032000
1518663641716359165	300 46 0.900000 0.087000 0.079000 1000 41 0.900000 2.089000 2.032000 600 52 1.000000 0.053000 0.053000 1.200000 0.027000 0.032000
1518663642248335874	300 47 0.900000 0.086000 0.078000 1000 41 0.900000 2.088000 2.031000 600 52 1.000000 0.053000 0.053000 1.200000 0.027000 0.032000
1518663642780459082	300 46 0.900000 0.086000 0.078000 1000 41 0.900000 2.080000 2.023000 600 52 1.000000 0.053000 0.053000 1.200000 0.030000 0.036000
1518663643312309791	300 47 0.900000 0.086000 0.078000 1000 41 0.900000 2.082000 2.025000 600 52 1.000000 0.053000 0.053000 1.200000 0.028000 0.033000
1518663643856314249	300 46 0.900000 0.086000 0.078000 1000 41 0.900000 2.082000 2.025000 600 52 1.000000 0.053000 0.053000 1.200000 0.028000 0.033000
1518663644400301124	300 47 0.900000 0.086000 0.078000 1000 41 0.900000 2.073000 2.017000 600 52 1.000000 0.053000 0.053000 1.200000 0.027000 0.032000
1518663644932385541	300 46 0.900000 0.087000 0.079000 1000 41 0.900000 2.078000 2.021000 600 52 1.000000 0.053000 0.053000 1.200000 0.028000 0.033000
1518663645464276416	300 46 0.900000 0.087000 0.079000 1000 41 0.900000 2.076000 2.019000 600 52 1.000000 0.053000 0.053000 1.200000 0.028000 0.033000
1518663645996304499	300 47 0.900000 0.086000 0.078000 1000 41 0.900000 2.079000 2.022000 600 52 1.000000 0.053000 0.053000 1.200000 0.028000 0.033000
1518663646528370374	300 47 0.900000 0.086000 0.078000 1000 41 0.900000 2.081000 2.022000 600 52 1.000000 0.053000 0.053000 1.200000 0.028000 0.033000
1518663647072306291	300 47 0.900000 0.087000 0.079000 1000 41 0.900000 2.080000 2.023000 600 52 1.000000 0.053000 0.053000 1.200000 0.028000 0.033000
1518663647604358124	300 47 0.900000 0.086000 0.078000 1000 41 0.900000 2.078000 2.021000 600 52 1.000000 0.053000 0.053000 1.200000 0.028000 0.033000
1518663648157936708	300 46 0.900000 0.086000 0.078000 1000 41 0.900000 2.080000 2.023000 600 52 1.000000 0.053000 0.053000 1.200000 0.028000 0.033000
1518663648688386458	300 47 0.900000 0.086000 0.078000 1000 41 0.900000 2.085000 2.028000 600 52 1.000000 0.053000 0.053000 1.200000 0.026000 0.031000
1518663649236324500	300 47 0.900000 0.086000 0.078000 1000 41 0.900000 2.081000 2.024000 600 52 1.000000 0.053000 0.053000 1.200000 0.026000 0.031000
1518663649768349041	300 46 0.900000 0.086000 0.078000 1000 41 0.900000 2.087000 2.030000 600 52 1.000000 0.053000 0.053000 1.200000 0.026000 0.031000
1518663650300335083	300 47 0.900000 0.086000 0.078000 1000 41 0.900000 2.086000 2.029000 600 52 1.000000 0.053000 0.053000 1.200000 0.026000 0.031000
1518663650832357041	300 47 0.900000 0.086000 0.078000 1000 41 0.900000 2.085000 2.028000 600 52 1.000000 0.053000 0.053000 1.200000 0.026000 0.031000
1518663651376363542	300 46 0.900000 0.086000 0.078000 1000 41 0.900000 2.083000 2.026000 600 52 1.000000 0.053000 0.053000 1.200000 0.026000 0.031000
1518663651916358917	300 46 0.900000 0.086000 0.078000 1000 41 0.900000 2.086000 2.029000 600 52 1.000000 0.053000 0.053000 1.200000 0.026000 0.031000
1518663652448334583	300 46 0.900000 0.086000 0.078000 1000 41 0.900000 2.085000 2.028000 600 52 1.000000 0.053000 0.053000 1.200000 0.026000 0.031000
1518663652972390500	300 46 0.900000 0.088000 0.080000 1000 41 0.900000 2.033000 1.976000 600 52 1.000000 0.053000 0.053000 1.200000 0.030000 0.036000
1518663653516345458	300 46 0.900000 0.086000 0.078000 1000 41 0.900000 2.094000 2.037000 600 52 1.000000 0.053000 0.053000 1.200000 0.026000 0.031000
1518663654048362917	300 46 0.900000 0.087000 0.079000 1000 41 0.900000 2.090000 2.033000 600 52 1.000000 0.053000 0.053000 1.200000 0.028000 0.033000
1518663654580395625	300 47 0.900000 0.086000 0.078000 1000 41 0.900000 2.096000 2.039000 600 52 1.000000 0.053000 0.053000 1.200000 0.028000 0.033000
1518663655112394750	300 47 0.900000 0.087000 0.079000 1000 41 0.900000 2.096000 2.039000 600 52 1.000000 0.053000 0.053000 1.200000 0.028000 0.033000
1518663655656389209	300 46 0.900000 0.087000 0.079000 1000 41 0.900000 2.084000 2.027000 600 52 1.000000 0.053000 0.053000 1.200000 0.028000 0.033000
1518663656188370084	300 46 0.900000 0.086000 0.078000 1000 41 0.900000 2.089000 2.032000 600 52 1.000000 0.053000 0.053000 1.200000 0.028000 0.033000
1518663656732344459	300 47 0.900000 0.086000 0.078000 1000 41 0.900000 2.087000 2.030000 600 52 1.000000 0.053000 0.053000 1.200000 0.028000 0.033000
1518663657276334167	300 47 0.900000 0.086000 0.078000 1000 41 0.900000 2.092000 2.035000 600 52 1.000000 0.053000 0.053000 1.200000 0.028000 0.033000
1518663657820295584	300 47 0.900000 0.086000 0.078000 1000 41 0.900000 2.082000 2.025000 600 52 1.000000 0.053000 0.053000 1.200000 0.028000 0.033000
1518663658352347001	300 46 0.900000 0.087000 0.079000 1000 41 0.900000 2.080000 2.023000 600 52 1.000000 0.053000 0.053000 1.200000 0.028000 0.033000
1518663658884377626	300 46 0.900000 0.086000 0.078000 1000 41 0.900000 2.073000 2.017000 600 52 1.000000 0.053000 0.053000 1.200000 0.027000 0.032000
1518663659416351084	300 47 0.900000 0.086000 0.078000 1000 41 0.900000 2.082000 2.025000 600 52 1.000000 0.053000 0.053000 1.200000 0.027000 0.032000
1518663659948328334	300 46 0.900000 0.086000 0.078000 1000 41 0.900000 2.085000 2.028000 600 52 1.000000 0.053000 0.053000 1.200000 0.027000 0.032000
1518663660476353834	300 47 0.900000 0.087000 0.079000 1000 41 0.900000 2.073000 2.017000 600 52 1.000000 0.053000 0.053000 1.200000 0.027000 0.032000
1518663661008360334	300 46 0.900000 0.087000 0.079000 1000 41 0.900000 2.074000 2.018000 600 52 1.000000 0.053000 0.053000 1.200000 0.028000 0.033000
1518663661540350293	300 47 0.900000 0.086000 0.078000 1000 41 0.900000 2.074000 2.018000 600 52 1.000000 0.053000 0.053000 1.200000 0.028000 0.033000
1518663662072332459	300 47 0.900000 0.086000 0.078000 1000 41 0.900000 2.075000 2.018000 600 52 1.000000 0.053000 0.053000 1.200000 0.028000 0.033000
1518663662596259293	300 47 0.900000 0.086000 0.078000 1000 41 0.900000 2.076000 2.019000 600 52 1.000000 0.053000 0.053000 1.200000 0.027000 0.032000
1518663663128437001	300 46 0.900000 0.087000 0.079000 1000 41 0.900000 2.032000 1.977000 600 52 1.000000 0.053000 0.053000 1.200000 0.030000 0.036000
1518663663660399751	300 47 0.900000 0.087000 0.079000 1000 41 0.900000 2.087000 2.030000 600 52 1.000000 0.053000 0.053000 1.200000 0.028000 0.033000
1518663664204374793	300 46 0.900000 0.086000 0.078000 1000 41 0.900000 2.084000 2.027000 600 52 1.000000 0.053000 0.053000 1.200000 0.028000 0.033000
1518663664748391543	300 46 0.900000 0.087000 0.079000 1000 41 0.900000 2.093000 2.036000 600 52 1.000000 0.053000 0.053000 1.200000 0.028000 0.033000
1518663665280283668	300 46 0.900000 0.086000 0.078000 1000 41 0.900000 2.086000 2.029000 600 52 1.000000 0.053000 0.053000 1.200000 0.028000 0.033000
1518663665812369293	300 46 0.900000 0.087000 0.079000 1000 41 0.900000 2.073000 2.017000 600 52 1.000000 0.053000 0.053000 1.200000 0.028000 0.033000
1518663666344265502	300 46 0.900000 0.087000 0.079000 1000 41 0.900000 2.071000 2.015000 600 52 1.000000 0.053000 0.053000 1.200000 0.028000 0.033000
1518663666880363252	300 46 0.900000 0.087000 0.079000 1000 41 0.900000 2.078000 2.021000 600 52 1.000000 0.053000 0.053000 1.200000 0.027000 0.032000
1518663667412355502	300 46 0.900000 0.086000 0.078000 1000 41 0.900000 2.077000 2.020000 600 52 1.000000 0.053000 0.053000 1.200000 0.027000 0.032000
1518663667956343127	300 46 0.900000 0.086000 0.078000 1000 41 0.900000 2.078000 2.021000 600 52 1.000000 0.053000 0.053000 1.200000 0.027000 0.032000
1518663668500287669	300 46 0.900000 0.086000 0.078000 1000 41 0.900000 2.072000 2.016000 600 52 1.000000 0.053000 0.053000 1.200000 0.027000 0.032000
1518663669032352752	300 46 0.900000 0.086000 0.078000 1000 41 0.900000 2.064000 2.008000 600 52 1.000000 0.053000 0.053000 1.200000 0.027000 0.032000
1518663669576266085	300 46 0.900000 0.087000 0.079000 1000 41 0.900000 2.069000 2.013000 600 52 1.000000 0.053000 0.053000 1.200000 0.027000 0.032000
1518663670108373127	300 46 0.900000 0.086000 0.078000 1000 41 0.900000 2.068000 2.012000 600 52 1.000000 0.053000 0.053000 1.200000 0.027000 0.032000
1518663670652405460	300 46 0.900000 0.086000 0.078000 1000 41 0.900000 2.069000 2.013000 600 52 1.000000 0.053000 0.053000 1.200000 0.027000 0.032000
1518663671184348794	300 46 0.900000 0.086000 0.078000 1000 41 0.900000 2.073000 2.017000 600 52 1.000000 0.053000 0.053000 1.200000 0.027000 0.032000
1518663671728263877	300 46 0.900000 0.086000 0.078000 1000 41 0.900000 2.073000 2.017000 600 52 1.000000 0.053000 0.053000 1.200000 0.027000 0.032000
1518663672260308044	300 46 0.900000 0.086000 0.078000 1000 41 0.900000 2.076000 2.019000 600 52 1.000000 0.053000 0.053000 1.200000 0.028000 0.033000
1518663672796573586	300 46 0.900000 0.087000 0.079000 1000 41 0.900000 2.068000 2.012000 600 52 1.000000 0.053000 0.053000 1.200000 0.028000 0.033000
1518663673328383961	300 46 0.900000 0.087000 0.079000 1000 41 0.900000 2.028000 1.971000 600 52 1.000000 0.053000 0.053000 1.200000 0.030000 0.036000
1518663673872360794	300 46 0.900000 0.087000 0.079000 1000 41 0.900000 2.068000 2.012000 600 52 1.000000 0.053000 0.053000 1.200000 0.028000 0.033000
1518663674404300919	300 46 0.900000 0.087000 0.079000 1000 41 0.900000 2.074000 2.018000 600 52 1.000000 0.053000 0.053000 1.200000 0.028000 0.033000
1518663674936383086	300 46 0.900000 0.087000 0.079000 1000 41 0.900000 2.068000 2.012000 600 52 1.000000 0.053000 0.053000 1.200000 0.028000 0.033000
1518663675468393128	300 46 0.900000 0.087000 0.079000 1000 41 0.900000 2.068000 2.012000 600 52 1.000000 0.053000 0.053000 1.200000 0.028000 0.033000
1518663676000352878	300 46 0.900000 0.087000 0.079000 1000 41 0.900000 2.069000 2.013000 600 52 1.000000 0.053000 0.053000 1.200000 0.028000 0.033000
1518663676532377711	300 46 0.900000 0.088000 0.080000 1000 41 0.900000 2.070000 2.014000 600 52 1.000000 0.053000 0.053000 1.200000 0.028000 0.033000
1518663677076333753	300 46 0.900000 0.087000 0.079000 1000 41 0.900000 2.071000 2.015000 600 52 1.000000 0.053000 0.053000 1.200000 0.028000 0.033000
1518663677620380545	300 46 0.900000 0.087000 0.079000 1000 41 0.900000 2.079000 2.022000 600 52 1.000000 0.053000 0.053000 1.200000 0.028000 0.033000
1518663678148302003	300 46 0.900000 0.086000 0.078000 1000 41 0.900000 2.072000 2.016000 600 52 1.000000 0.053000 0.053000 1.200000 0.028000 0.033000
1518663678680356586	300 46 0.900000 0.086000 0.078000 1000 41 0.900000 2.071000 2.013000 600 52 1.000000 0.053000 0.053000 1.200000 0.028000 0.033000
1518663679212333337	300 46 0.900000 0.086000 0.078000 1000 41 0.900000 2.065000 2.009000 600 52 1.000000 0.053000 0.053000 1.200000 0.028000 0.033000
1518663679744355378	300 46 0.900000 0.087000 0.079000 1000 41 0.900000 2.069000 2.013000 600 52 1.000000 0.053000 0.053000 1.200000 0.028000 0.033000
1518663680276373795	300 47 0.900000 0.086000 0.078000 1000 41 0.900000 2.071000 2.015000 600 52 1.000000 0.053000 0.053000 1.200000 0.029000 0.035000
1518663680808352628	300 47 0.900000 0.087000 0.079000 1000 41 0.900000 2.077000 2.020000 600 52 1.000000 0.053000 0.053000 1.200000 0.028000 0.033000
1518663681352333837	300 47 0.900000 0.087000 0.079000 1000 41 0.900000 2.079000 2.022000 600 52 1.000000 0.053000 0.053000 1.200000 0.028000 0.033000
1518663681896341212	300 47 0.900000 0.087000 0.079000 1000 41 0.900000 2.072000 2.016000 600 52 1.000000 0.053000 0.053000 1.200000 0.028000 0.033000
1518663682432377129	300 46 0.900000 0.087000 0.079000 1000 41 0.900000 2.081000 2.024000 600 52 1.000000 0.053000 0.053000 1.200000 0.028000 0.033000
1518663682985947004	300 46 0.900000 0.087000 0.079000 1000 41 0.900000 2.086000 2.029000 600 52 1.000000 0.053000 0.053000 1.200000 0.029000 0.035000
1518663683504430420	300 47 0.900000 0.086000 0.078000 1000 41 0.900000 2.091000 2.034000 600 52 1.000000 0.053000 0.053000 1.200000 0.027000 0.032000
1518663684036397045	300 47 0.900000 0.087000 0.079000 1000 41 0.900000 2.098000 2.041000 600 52 1.000000 0.053000 0.053000 1.200000 0.027000 0.032000
1518663684568381837	300 47 0.900000 0.086000 0.078000 1000 41 0.900000 2.098000 2.041000 600 52 1.000000 0.053000 0.053000 1.200000 0.026000 0.031000
1518663685100389004	300 47 0.900000 0.087000 0.079000 1000 41 0.900000 2.096000 2.039000 600 52 1.000000 0.053000 0.053000 1.200000 0.027000 0.032000
1518663685632312504	300 47 0.900000 0.086000 0.078000 1000 41 0.900000 2.095000 2.038000 600 52 1.000000 0.053000 0.053000 1.200000 0.027000 0.032000
1518663686176380212	300 47 0.900000 0.087000 0.079000 1000 41 0.900000 2.097000 2.040000 600 52 1.000000 0.053000 0.053000 1.200000 0.026000 0.031000
1518663686716307087	300 47 0.900000 0.087000 0.079000 1000 41 0.900000 2.100000 2.043000 600 52 1.000000 0.053000 0.053000 1.200000 0.027000 0.032000
1518663687244345004	300 47 0.900000 0.087000 0.079000 1000 41 0.900000 2.098000 2.041000 600 52 1.000000 0.053000 0.053000 1.200000 0.026000 0.031000
1518663687788366296	300 47 0.900000 0.087000 0.079000 1000 41 0.900000 2.097000 2.040000 600 53 1.000000 0.053000 0.053000 1.200000 0.028000 0.033000
1518663688332335838	300 47 0.900000 0.086000 0.078000 1000 41 0.900000 2.094000 2.037000 600 52 1.000000 0.053000 0.053000 1.200000 0.027000 0.032000
1518663688864363379	300 47 0.900000 0.086000 0.078000 1000 41 0.900000 2.094000 2.037000 600 52 1.000000 0.053000 0.053000 1.200000 0.027000 0.032000
1518663689384382671	300 47 0.900000 0.087000 0.079000 1000 41 0.900000 2.095000 2.036000 600 52 1.000000 0.053000 0.053000 1.200000 0.027000 0.032000
1518663689928398129	300 47 0.900000 0.087000 0.079000 1000 41 0.900000 2.101000 2.044000 600 52 1.000000 0.053000 0.053000 1.200000 0.029000 0.035000
1518663690460357796	300 47 0.900000 0.086000 0.078000 1000 41 0.900000 2.102000 2.045000 600 52 1.000000 0.053000 0.053000 1.200000 0.027000 0.032000
1518663691004414921	300 47 0.900000 0.087000 0.079000 1000 41 0.900000 2.103000 2.046000 600 53 1.000000 0.053000 0.053000 1.200000 0.027000 0.032000
1518663691548384588	300 47 0.900000 0.088000 0.080000 1000 41 0.900000 2.105000 2.048000 600 52 1.000000 0.053000 0.053000 1.200000 0.028000 0.033000
1518663692096282630	300 47 0.900000 0.087000 0.079000 1000 41 0.900000 2.099000 2.042000 600 52 1.000000 0.053000 0.053000 1.200000 0.027000 0.032000
1518663692624364921	300 47 0.900000 0.088000 0.080000 1000 41 0.900000 2.093000 2.036000 600 52 1.000000 0.053000 0.053000 1.200000 0.028000 0.033000
1518663693144466463	300 47 0.900000 0.088000 0.080000 1000 41 0.900000 2.092000 2.035000 600 52 1.000000 0.053000 0.053000 1.200000 0.032000 0.038000
1518663693676372672	300 47 0.900000 0.087000 0.079000 1000 41 0.900000 2.088000 2.031000 600 52 1.000000 0.053000 0.053000 1.200000 0.027000 0.032000
1518663694208349380	300 47 0.900000 0.088000 0.080000 1000 41 0.900000 2.084000 2.027000 600 52 1.000000 0.053000 0.053000 1.200000 0.028000 0.033000
1518663694740409588	300 47 0.900000 0.087000 0.079000 1000 41 0.900000 2.084000 2.027000 600 52 1.000000 0.053000 0.053000 1.200000 0.029000 0.035000
1518663695272424463	300 47 0.900000 0.087000 0.079000 1000 41 0.900000 2.079000 2.022000 600 52 1.000000 0.053000 0.053000 1.200000 0.028000 0.033000
1518663695816359172	300 47 0.900000 0.087000 0.079000 1000 41 0.900000 2.080000 2.023000 600 52 1.000000 0.053000 0.053000 1.200000 0.028000 0.033000
1518663696348342422	300 47 0.900000 0.087000 0.079000 1000 41 0.900000 2.073000 2.017000 600 52 1.000000 0.053000 0.053000 1.200000 0.028000 0.033000
1518663696880361130	300 47 0.900000 0.086000 0.078000 1000 41 0.900000 2.077000 2.020000 600 52 1.000000 0.053000 0.053000 1.200000 0.028000 0.033000
1518663697424351755	300 47 0.900000 0.087000 0.079000 1000 41 0.900000 2.081000 2.024000 600 52 1.000000 0.053000 0.053000 1.200000 0.028000 0.033000
1518663697956384547	300 47 0.900000 0.086000 0.078000 1000 41 0.900000 2.079000 2.022000 600 52 1.000000 0.053000 0.053000 1.200000 0.028000 0.033000
1518663698500349755	300 47 0.900000 0.086000 0.078000 1000 41 0.900000 2.079000 2.022000 600 52 1.000000 0.053000 0.053000 1.200000 0.028000 0.033000
1518663699044329047	300 47 0.900000 0.086000 0.078000 1000 41 0.900000 2.085000 2.028000 600 52 1.000000 0.053000 0.053000 1.200000 0.028000 0.033000
1518663699576339547	300 47 0.900000 0.087000 0.079000 1000 41 0.900000 2.084000 2.027000 600 52 1.000000 0.053000 0.053000 1.200000 0.028000 0.033000
1518663700130920381	300 47 0.900000 0.087000 0.079000 1000 41 0.900000 2.081000 2.024000 600 52 1.000000 0.053000 0.053000 1.200000 0.029000 0.035000
1518663700648374214	300 47 0.900000 0.086000 0.078000 1000 41 0.900000 2.089000 2.032000 600 52 1.000000 0.053000 0.053000 1.200000 0.028000 0.033000
1518663701188322047	300 47 0.900000 0.086000 0.078000 1000 41 0.900000 2.074000 2.018000 600 52 1.000000 0.053000 0.053000 1.200000 0.027000 0.032000
1518663701732378173	300 47 0.900000 0.086000 0.078000 1000 41 0.900000 2.078000 2.021000 600 52 1.000000 0.053000 0.053000 1.200000 0.027000 0.032000
1518663702276294006	300 47 0.900000 0.086000 0.078000 1000 41 0.900000 2.074000 2.018000 600 52 1.000000 0.053000 0.053000 1.200000 0.027000 0.032000
1518663702808359423	300 47 0.900000 0.087000 0.079000 1000 41 0.900000 2.076000 2.019000 600 52 1.000000 0.053000 0.053000 1.200000 0.028000 0.033000
1518663703340446464	300 47 0.900000 0.088000 0.080000 1000 41 0.900000 2.038000 1.980000 600 52 1.000000 0.053000 0.053000 1.200000 0.032000 0.038000
1518663703873127798	300 47 0.900000 0.086000 0.078000 1000 41 0.900000 2.079000 2.022000 600 52 1.000000 0.053000 0.053000 1.200000 0.028000 0.033000
1518663704404358756	300 46 0.900000 0.087000 0.079000 1000 41 0.900000 2.074000 2.015000 600 52 1.000000 0.053000 0.053000 1.200000 0.028000 0.033000
1518663704936600506	300 47 0.900000 0.087000 0.079000 1000 41 0.900000 2.076000 2.019000 600 52 1.000000 0.053000 0.053000 1.200000 0.028000 0.033000
1518663705468305256	300 46 0.900000 0.088000 0.080000 1000 41 0.900000 2.075000 2.018000 600 52 1.000000 0.053000 0.053000 1.200000 0.028000 0.033000
1518663706012372756	300 47 0.900000 0.087000 0.079000 1000 41 0.900000 2.067000 2.009000 600 52 1.000000 0.053000 0.053000 1.200000 0.028000 0.033000
1518663706544379965	300 46 0.900000 0.087000 0.079000 1000 41 0.900000 2.063000 2.005000 600 52 1.000000 0.053000 0.053000 1.200000 0.028000 0.033000
1518663707088335257	300 46 0.900000 0.086000 0.078000 1000 41 0.900000 2.066000 2.010000 600 52 1.000000 0.053000 0.053000 1.200000 0.028000 0.033000
1518663707632398132	300 46 0.900000 0.087000 0.079000 1000 41 0.900000 2.070000 2.014000 600 52 1.000000 0.053000 0.053000 1.200000 0.029000 0.035000
1518663708164371048	300 46 0.900000 0.086000 0.078000 1000 41 0.900000 2.073000 2.017000 600 52 1.000000 0.053000 0.053000 1.200000 0.028000 0.033000
1518663708696371548	300 46 0.900000 0.086000 0.078000 1000 41 0.900000 2.074000 2.018000 600 52 1.000000 0.053000 0.053000 1.200000 0.028000 0.033000
1518663709228342715	300 46 0.900000 0.086000 0.078000 1000 41 0.900000 2.071000 2.015000 600 52 1.000000 0.053000 0.053000 1.200000 0.028000 0.033000
1518663709768292007	300 47 0.900000 0.086000 0.078000 1000 41 0.900000 2.070000 2.014000 600 52 1.000000 0.053000 0.053000 1.200000 0.028000 0.033000
1518663710300347340	300 46 0.900000 0.086000 0.078000 1000 41 0.900000 2.067000 2.011000 600 52 1.000000 0.053000 0.053000 1.200000 0.028000 0.033000
1518663710832293674	300 46 0.900000 0.087000 0.079000 1000 41 0.900000 2.067000 2.011000 600 52 1.000000 0.053000 0.053000 1.200000 0.028000 0.033000
1518663711364369257	300 46 0.900000 0.087000 0.079000 1000 41 0.900000 2.070000 2.014000 600 52 1.000000 0.053000 0.053000 1.200000 0.028000 0.033000
1518663711896342424	300 46 0.900000 0.087000 0.079000 1000 41 0.900000 2.066000 2.008000 600 52 1.000000 0.053000 0.053000 1.200000 0.028000 0.033000
1518663712428345215	300 46 0.900000 0.086000 0.078000 1000 41 0.900000 2.068000 2.010000 600 52 1.000000 0.053000 0.053000 1.200000 0.028000 0.033000
1518663712952336007	300 46 0.900000 0.087000 0.079000 1000 41 0.900000 2.062000 2.004000 600 52 1.000000 0.053000 0.053000 1.200000 0.028000 0.033000
1518663713484459299	300 46 0.900000 0.087000 0.079000 1000 41 0.900000 2.062000 2.006000 600 52 1.000000 0.053000 0.053000 1.200000 0.033000 0.039000
1518663714028391507	300 46 0.900000 0.087000 0.079000 1000 41 0.900000 2.065000 2.009000 600 52 1.000000 0.053000 0.053000 1.200000 0.028000 0.033000
1518663714572319341	300 46 0.900000 0.088000 0.080000 1000 41 0.900000 2.070000 2.014000 600 52 1.000000 0.053000 0.053000 1.200000 0.029000 0.035000
1518663715096325716	300 46 0.900000 0.086000 0.078000 1000 41 0.900000 2.068000 2.012000 600 52 1.000000 0.053000 0.053000 1.200000 0.028000 0.033000
1518663715628377883	300 46 0.900000 0.087000 0.079000 1000 41 0.900000 2.067000 2.011000 600 52 1.000000 0.053000 0.053000 1.200000 0.028000 0.033000
1518663716164353341	300 46 0.900000 0.087000 0.079000 1000 41 0.900000 2.069000 2.013000 600 52 1.000000 0.053000 0.053000 1.200000 0.028000 0.033000
1518663716696271841	300 46 0.900000 0.086000 0.078000 1000 41 0.900000 2.074000 2.018000 600 52 1.000000 0.053000 0.053000 1.200000 0.029000 0.035000
1518663717228338299	300 46 0.900000 0.087000 0.079000 1000 41 0.900000 2.077000 2.020000 600 52 1.000000 0.053000 0.053000 1.200000 0.028000 0.033000
1518663717772350716	300 46 0.900000 0.086000 0.078000 1000 41 0.900000 2.080000 2.023000 600 52 1.000000 0.053000 0.053000 1.200000 0.028000 0.033000
1518663718304398341	300 46 0.900000 0.086000 0.078000 1000 41 0.900000 2.076000 2.019000 600 52 1.000000 0.053000 0.053000 1.200000 0.028000 0.033000
1518663718848349841	300 46 0.900000 0.087000 0.079000 1000 41 0.900000 2.085000 2.028000 600 52 1.000000 0.053000 0.053000 1.200000 0.028000 0.033000
1518663719380332216	300 46 0.900000 0.086000 0.078000 1000 41 0.900000 2.090000 2.033000 600 52 1.000000 0.053000 0.053000 1.200000 0.026000 0.031000
1518663719912378466	300 46 0.900000 0.087000 0.079000 1000 41 0.900000 2.090000 2.033000 600 52 1.000000 0.053000 0.053000 1.200000 0.026000 0.031000
1518663720456290716	300 46 0.900000 0.086000 0.078000 1000 41 0.900000 2.087000 2.030000 600 52 1.000000 0.053000 0.053000 1.200000 0.026000 0.031000
1518663721000397925	300 46 0.900000 0.087000 0.079000 1000 41 0.900000 2.089000 2.032000 600 52 1.000000 0.053000 0.053000 1.200000 0.027000 0.032000
1518663721544383425	300 46 0.900000 0.087000 0.079000 1000 41 0.900000 2.090000 2.033000 600 52 1.000000 0.053000 0.053000 1.200000 0.027000 0.032000
1518663722080283925	300 46 0.900000 0.086000 0.078000 1000 41 0.900000 2.089000 2.032000 600 52 1.000000 0.053000 0.053000 1.200000 0.027000 0.032000
1518663722624354550	300 46 0.900000 0.086000 0.078000 1000 41 0.900000 2.088000 2.031000 600 52 1.000000 0.053000 0.053000 1.200000 0.026000 0.031000
1518663723202510508	300 46 0.900000 0.087000 0.079000 1000 41 0.900000 2.088000 2.031000 600 52 1.000000 0.053000 0.053000 1.200000 0.027000 0.032000
1518663723748379008	300 46 0.900000 0.089000 0.081000 1000 41 0.900000 2.048000 1.990000 600 52 1.000000 0.053000 0.053000 1.200000 0.027000 0.032000
1518663724292419759	300 46 0.900000 0.086000 0.078000 1000 41 0.900000 2.080000 2.023000 600 52 1.000000 0.053000 0.053000 1.200000 0.027000 0.032000
1518663724824384759	300 46 0.900000 0.086000 0.078000 1000 41 0.900000 2.082000 2.023000 600 52 1.000000 0.053000 0.053000 1.200000 0.027000 0.032000
1518663725356340592	300 46 0.900000 0.087000 0.079000 1000 41 0.900000 2.085000 2.028000 600 52 1.000000 0.053000 0.053000 1.200000 0.027000 0.032000
1518663725900379967	300 46 0.900000 0.086000 0.078000 1000 41 0.900000 2.085000 2.028000 600 52 1.000000 0.053000 0.053000 1.200000 0.027000 0.032000
1518663726420296884	300 46 0.900000 0.087000 0.079000 1000 41 0.900000 2.087000 2.030000 600 52 1.000000 0.053000 0.053000 1.200000 0.027000 0.032000
1518663726964354801	300 46 0.900000 0.087000 0.079000 1000 41 0.900000 2.082000 2.025000 600 52 1.000000 0.053000 0.053000 1.200000 0.027000 0.032000
1518663727496371384	300 46 0.900000 0.086000 0.078000 1000 41 0.900000 2.082000 2.025000 600 52 1.000000 0.053000 0.053000 1.200000 0.027000 0.032000
1518663728028283676	300 46 0.900000 0.087000 0.079000 1000 41 0.900000 2.084000 2.027000 600 52 1.000000 0.053000 0.053000 1.200000 0.027000 0.032000
1518663728560549092	300 46 0.900000 0.087000 0.079000 1000 41 0.900000 2.081000 2.024000 600 52 1.000000 0.053000 0.053000 1.200000 0.028000 0.033000
1518663729096365009	300 46 0.900000 0.087000 0.079000 1000 41 0.900000 2.078000 2.021000 600 52 1.000000 0.053000 0.053000 1.200000 0.028000 0.033000
1518663729628391468	300 46 0.900000 0.087000 0.079000 1000 41 0.900000 2.084000 2.027000 600 52 1.000000 0.053000 0.053000 1.200000 0.028000 0.033000
1518663730152347176	300 46 0.900000 0.086000 0.078000 1000 41 0.900000 2.078000 2.021000 600 52 1.000000 0.053000 0.053000 1.200000 0.028000 0.033000
1518663730684379968	300 46 0.900000 0.087000 0.079000 1000 41 0.900000 2.076000 2.019000 600 52 1.000000 0.053000 0.053000 1.200000 0.027000 0.032000
1518663731228334926	300 46 0.900000 0.087000 0.079000 1000 41 0.900000 2.084000 2.027000 600 52 1.000000 0.053000 0.053000 1.200000 0.027000 0.032000
1518663731772311718	300 46 0.900000 0.086000 0.078000 1000 40 0.900000 2.077000 2.020000 600 52 1.000000 0.053000 0.053000 1.200000 0.027000 0.032000
1518663732304386510	300 46 0.900000 0.087000 0.079000 1000 41 0.900000 2.081000 2.024000 600 52 1.000000 0.053000 0.053000 1.200000 0.027000 0.032000
1518663732848334718	300 46 0.900000 0.086000 0.078000 1000 41 0.900000 2.080000 2.023000 600 52 1.000000 0.053000 0.053000 1.200000 0.026000 0.031000
1518663733398104426	300 46 0.900000 0.086000 0.078000 1000 41 0.900000 2.074000 2.018000 600 52 1.000000 0.053000 0.053000 1.200000 0.033000 0.039000
1518663733916477260	300 46 0.900000 0.086000 0.078000 1000 40 0.900000 2.085000 2.028000 600 52 1.000000 0.053000 0.053000 1.200000 0.029000 0.035000
1518663734456423426	300 46 0.900000 0.087000 0.079000 1000 40 0.900000 2.089000 2.032000 600 52 1.000000 0.053000 0.053000 1.200000 0.029000 0.035000
1518663734988322385	300 46 0.900000 0.086000 0.078000 1000 40 0.900000 2.079000 2.022000 600 52 1.000000 0.053000 0.053000 1.200000 0.029000 0.035000
1518663735532355385	300 46 0.900000 0.086000 0.078000 1000 40 0.900000 2.086000 2.029000 600 52 1.000000 0.053000 0.053000 1.200000 0.029000 0.035000
1518663736064345552	300 46 0.900000 0.087000 0.079000 1000 40 0.900000 2.084000 2.027000 600 52 1.000000 0.053000 0.053000 1.200000 0.029000 0.035000
1518663736596375177	300 46 0.900000 0.088000 0.080000 1000 40 0.900000 2.094000 2.037000 600 52 1.000000 0.053000 0.053000 1.200000 0.029000 0.035000
1518663737128361177	300 46 0.900000 0.087000 0.079000 1000 40 0.900000 2.092000 2.033000 600 51 1.000000 0.053000 0.053000 1.200000 0.029000 0.035000
1518663737660385760	300 46 0.900000 0.087000 0.079000 1000 40 0.900000 2.098000 2.041000 600 51 1.000000 0.053000 0.053000 1.200000 0.029000 0.035000
1518663738192407094	300 46 0.900000 0.087000 0.079000 1000 40 0.900000 2.097000 2.040000 600 52 1.000000 0.053000 0.053000 1.200000 0.029000 0.035000
1518663738724356302	300 46 0.900000 0.088000 0.080000 1000 40 0.900000 2.096000 2.039000 600 52 1.000000 0.053000 0.053000 1.200000 0.029000 0.035000
1518663739256343094	300 46 0.900000 0.087000 0.079000 1000 40 0.900000 2.099000 2.042000 600 51 1.000000 0.053000 0.053000 1.200000 0.029000 0.035000
1518663739800352885	300 46 0.900000 0.087000 0.079000 1000 40 0.900000 2.096000 2.039000 600 51 1.000000 0.053000 0.053000 1.200000 0.029000 0.035000
1518663740332386344	300 46 0.900000 0.087000 0.079000 1000 40 0.900000 2.100000 2.043000 600 51 1.000000 0.053000 0.053000 1.200000 0.028000 0.033000
1518663740872313927	300 46 0.900000 0.086000 0.078000 1000 40 0.900000 2.094000 2.037000 600 51 1.000000 0.053000 0.053000 1.200000 0.030000 0.036000
1518663741404279677	300 46 0.900000 0.088000 0.080000 1000 40 0.900000 2.097000 2.040000 600 51 1.000000 0.053000 0.053000 1.200000 0.028000 0.033000
1518663741948325552	300 46 0.900000 0.087000 0.079000 1000 40 0.900000 2.100000 2.043000 600 51 1.000000 0.053000 0.053000 1.200000 0.029000 0.035000
1518663742480375719	300 46 0.900000 0.088000 0.080000 1000 40 0.900000 2.099000 2.042000 600 51 1.000000 0.053000 0.053000 1.200000 0.029000 0.035000
1518663743012370177	300 46 0.900000 0.087000 0.079000 1000 40 0.900000 2.095000 2.038000 600 51 1.000000 0.053000 0.053000 1.200000 0.029000 0.035000
1518663743544431136	300 45 0.900000 0.088000 0.080000 1000 40 0.900000 2.095000 2.038000 600 51 1.000000 0.053000 0.053000 1.200000 0.028000 0.033000
1518663744076411803	300 46 0.900000 0.087000 0.079000 1000 40 0.900000 2.074000 2.018000 600 51 1.000000 0.053000 0.053000 1.200000 0.029000 0.035000
1518663744620475136	300 46 0.900000 0.087000 0.079000 1000 40 0.900000 2.085000 2.028000 600 51 1.000000 0.053000 0.053000 1.200000 0.029000 0.035000
1518663745152329053	300 46 0.900000 0.087000 0.079000 1000 40 0.900000 2.088000 2.031000 600 51 1.000000 0.053000 0.053000 1.200000 0.030000 0.036000
1518663745684375719	300 45 0.900000 0.087000 0.079000 1000 40 0.900000 2.087000 2.030000 600 51 1.000000 0.053000 0.053000 1.200000 0.029000 0.035000
1518663746216406261	300 45 0.900000 0.087000 0.079000 1000 40 0.900000 2.088000 2.031000 600 51 1.000000 0.053000 0.053000 1.200000 0.029000 0.035000
1518663746748292470	300 45 0.900000 0.088000 0.080000 1000 40 0.900000 2.091000 2.034000 600 51 1.000000 0.053000 0.053000 1.200000 0.028000 0.033000
1518663747288368845	300 45 0.900000 0.086000 0.078000 1000 40 0.900000 2.089000 2.032000 600 51 1.000000 0.053000 0.053000 1.200000 0.028000 0.033000
1518663747832352178	300 45 0.900000 0.087000 0.079000 1000 40 0.900000 2.094000 2.037000 600 51 1.000000 0.053000 0.053000 1.200000 0.029000 0.035000
1518663748376370803	300 45 0.900000 0.086000 0.078000 1000 40 0.900000 2.091000 2.034000 600 51 1.000000 0.053000 0.053000 1.200000 0.028000 0.033000
1518663748908382553	300 45 0.900000 0.087000 0.079000 1000 40 0.900000 2.090000 2.033000 600 51 1.000000 0.053000 0.053000 1.200000 0.029000 0.035000
1518663749444372387	300 45 0.900000 0.088000 0.080000 1000 40 0.900000 2.092000 2.035000 600 51 1.000000 0.053000 0.053000 1.200000 0.029000 0.035000
1518663749988371012	300 45 0.900000 0.088000 0.080000 1000 40 0.900000 2.096000 2.039000 600 51 1.000000 0.053000 0.053000 1.200000 0.029000 0.035000
1518663750520369678	300 45 0.900000 0.087000 0.079000 1000 40 0.900000 2.098000 2.041000 600 51 1.000000 0.053000 0.053000 1.200000 0.028000 0.033000
1518663751052297303	300 45 0.900000 0.087000 0.079000 1000 40 0.900000 2.100000 2.043000 600 51 1.000000 0.053000 0.053000 1.200000 0.027000 0.032000
1518663751584352095	300 45 0.900000 0.087000 0.079000 1000 40 0.900000 2.097000 2.040000 600 51 1.000000 0.053000 0.053000 1.200000 0.028000 0.033000
1518663752116361970	300 45 0.900000 0.087000 0.079000 1000 40 0.900000 2.096000 2.039000 600 51 1.000000 0.053000 0.053000 1.200000 0.027000 0.032000
1518663752644361304	300 45 0.900000 0.086000 0.078000 1000 40 0.900000 2.098000 2.041000 600 51 1.000000 0.053000 0.053000 1.200000 0.028000 0.033000
1518663753176334845	300 46 0.900000 0.087000 0.079000 1000 40 0.900000 2.099000 2.042000 600 51 1.000000 0.053000 0.053000 1.200000 0.027000 0.032000
1518663753708433554	300 45 0.900000 0.089000 0.081000 1000 40 0.900000 2.075000 2.018000 600 51 1.000000 0.053000 0.053000 1.200000 0.034000 0.041000
1518663754240427845	300 45 0.900000 0.086000 0.078000 1000 40 0.900000 2.100000 2.043000 600 51 1.000000 0.053000 0.053000 1.200000 0.027000 0.032000
1518663754784393887	300 45 0.900000 0.087000 0.079000 1000 40 0.900000 2.101000 2.044000 600 51 1.000000 0.053000 0.053000 1.200000 0.027000 0.032000
1518663755328371762	300 45 0.900000 0.088000 0.080000 1000 40 0.900000 2.097000 2.040000 600 51 1.000000 0.053000 0.053000 1.200000 0.027000 0.032000
1518663755872294512	300 45 0.900000 0.088000 0.080000 1000 40 0.900000 2.098000 2.041000 600 51 1.000000 0.053000 0.053000 1.200000 0.028000 0.033000
1518663756416353929	300 45 0.900000 0.087000 0.079000 1000 40 0.900000 2.102000 2.045000 600 51 1.000000 0.053000 0.053000 1.200000 0.028000 0.033000
1518663756960352887	300 45 0.900000 0.088000 0.080000 1000 40 0.900000 2.082000 2.025000 600 51 1.000000 0.053000 0.053000 1.200000 0.027000 0.032000
1518663757492357804	300 45 0.900000 0.088000 0.080000 1000 40 0.900000 2.075000 2.018000 600 51 1.000000 0.053000 0.053000 1.200000 0.028000 0.033000
1518663758028330471	300 45 0.900000 0.088000 0.080000 1000 40 0.900000 2.081000 2.024000 600 51 1.000000 0.053000 0.053000 1.200000 0.028000 0.033000
1518663758572838179	300 45 0.900000 0.087000 0.079000 1000 40 0.900000 2.085000 2.026000 600 51 1.000000 0.053000 0.053000 1.200000 0.029000 0.035000
1518663759104377846	300 45 0.900000 0.087000 0.079000 1000 40 0.900000 2.068000 2.010000 600 51 1.000000 0.053000 0.053000 1.200000 0.028000 0.033000
1518663759648326388	300 45 0.900000 0.087000 0.079000 1000 40 0.900000 2.074000 2.018000 600 51 1.000000 0.053000 0.053000 1.200000 0.028000 0.033000
1518663760180349888	300 45 0.900000 0.086000 0.078000 1000 40 0.900000 2.080000 2.023000 600 51 1.000000 0.053000 0.053000 1.200000 0.028000 0.033000
1518663760724353930	300 45 0.900000 0.087000 0.079000 1000 40 0.900000 2.079000 2.020000 600 51 1.000000 0.053000 0.053000 1.200000 0.029000 0.035000
1518663761256333805	300 45 0.900000 0.088000 0.080000 1000 39 0.900000 2.070000 2.012000 600 51 1.000000 0.053000 0.053000 1.200000 0.029000 0.035000
1518663761788328346	300 45 0.900000 0.087000 0.079000 1000 39 0.900000 2.067000 2.009000 600 51 1.000000 0.053000 0.053000 1.200000 0.029000 0.035000
1518663762320350221	300 45 0.900000 0.087000 0.079000 1000 39 0.900000 2.066000 2.010000 600 51 1.000000 0.053000 0.053000 1.200000 0.029000 0.035000
1518663762864325680	300 45 0.900000 0.087000 0.079000 1000 39 0.900000 2.073000 2.014000 600 51 1.000000 0.053000 0.053000 1.200000 0.029000 0.035000
1518663763400292513	300 45 0.900000 0.087000 0.079000 1000 39 0.900000 2.079000 2.020000 600 51 1.000000 0.053000 0.053000 1.200000 0.029000 0.035000
1518663763932427972	300 45 0.900000 0.088000 0.080000 1000 39 0.900000 2.032000 1.975000 600 50 1.000000 0.053000 0.053000 1.200000 0.035000 0.042000
1518663764476341305	300 45 0.900000 0.087000 0.079000 1000 39 0.900000 2.061000 2.003000 600 50 1.000000 0.053000 0.053000 1.200000 0.029000 0.035000
1518663765020354513	300 45 0.900000 0.087000 0.079000 1000 39 0.900000 2.065000 2.007000 600 51 1.000000 0.053000 0.053000 1.200000 0.029000 0.035000
1518663765552356013	300 45 0.900000 0.086000 0.078000 1000 39 0.900000 2.068000 2.010000 600 50 1.000000 0.053000 0.053000 1.200000 0.027000 0.032000
1518663766096329430	300 45 0.900000 0.087000 0.079000 1000 39 0.900000 2.068000 2.012000 600 50 1.000000 0.053000 0.053000 1.200000 0.027000 0.032000
1518663766628309389	300 45 0.900000 0.087000 0.079000 1000 39 0.900000 2.068000 2.012000 600 50 1.000000 0.053000 0.053000 1.200000 0.027000 0.032000
1518663767172356430	300 45 0.900000 0.086000 0.078000 1000 39 0.900000 2.067000 2.009000 600 50 1.000000 0.053000 0.053000 1.200000 0.027000 0.032000
1518663767716271389	300 45 0.900000 0.088000 0.080000 1000 39 0.900000 2.068000 2.010000 600 50 1.000000 0.052000 0.052000 1.200000 0.027000 0.032000
1518663768248294055	300 45 0.900000 0.087000 0.079000 1000 39 0.900000 2.071000 2.013000 600 50 1.000000 0.053000 0.053000 1.200000 0.027000 0.032000
1518663768796360514	300 45 0.900000 0.087000 0.079000 1000 39 0.900000 2.068000 2.010000 600 50 1.000000 0.053000 0.053000 1.200000 0.028000 0.033000
1518663769340338097	300 45 0.900000 0.087000 0.079000 1000 39 0.900000 2.080000 2.021000 600 50 1.000000 0.053000 0.053000 1.200000 0.027000 0.032000
1518663769872419472	300 45 0.900000 0.088000 0.080000 1000 39 0.900000 2.077000 2.018000 600 50 1.000000 0.053000 0.053000 1.200000 0.027000 0.032000
1518663770416297347	300 45 0.900000 0.087000 0.079000 1000 39 0.900000 2.076000 2.017000 600 50 1.000000 0.053000 0.053000 1.200000 0.028000 0.033000
1518663770948360306	300 45 0.900000 0.087000 0.079000 1000 39 0.900000 2.075000 2.016000 600 50 1.000000 0.053000 0.053000 1.200000 0.028000 0.033000
1518663771492342348	300 45 0.900000 0.086000 0.078000 1000 39 0.900000 2.077000 2.020000 600 50 1.000000 0.053000 0.053000 1.200000 0.028000 0.033000
1518663772036364306	300 45 0.900000 0.086000 0.078000 1000 39 0.900000 2.075000 2.018000 600 50 1.000000 0.053000 0.053000 1.200000 0.027000 0.032000
1518663772560289431	300 45 0.900000 0.087000 0.079000 1000 39 0.900000 2.074000 2.015000 600 50 1.000000 0.053000 0.053000 1.200000 0.027000 0.032000
1518663773104331931	300 45 0.900000 0.087000 0.079000 1000 39 0.900000 2.085000 2.026000 600 50 1.000000 0.053000 0.053000 1.200000 0.027000 0.032000
1518663773668457264	300 44 0.900000 0.086000 0.078000 1000 39 0.900000 2.080000 2.023000 600 50 1.000000 0.053000 0.053000 1.200000 0.027000 0.032000
1518663774200335890	300 45 0.900000 0.088000 0.080000 1000 39 0.900000 2.068000 2.012000 600 50 1.000000 0.053000 0.053000 1.200000 0.028000 0.033000
1518663774732366015	300 45 0.900000 0.087000 0.079000 1000 39 0.900000 2.077000 2.020000 600 50 1.000000 0.053000 0.053000 1.200000 0.028000 0.033000
1518663775264400140	300 45 0.900000 0.087000 0.079000 1000 39 0.900000 2.081000 2.024000 600 50 1.000000 0.053000 0.053000 1.200000 0.028000 0.033000
1518663775796374640	300 45 0.900000 0.087000 0.079000 1000 39 0.900000 2.078000 2.021000 600 50 1.000000 0.053000 0.053000 1.200000 0.028000 0.033000
1518663776344372473	300 45 0.900000 0.087000 0.079000 1000 39 0.900000 2.081000 2.024000 600 50 1.000000 0.053000 0.053000 1.200000 0.029000 0.035000
1518663776876351598	300 45 0.900000 0.087000 0.079000 1000 39 0.900000 2.086000 2.027000 600 50 1.000000 0.053000 0.053000 1.200000 0.029000 0.035000
1518663777408324098	300 45 0.900000 0.088000 0.080000 1000 39 0.900000 2.085000 2.028000 600 50 1.000000 0.053000 0.053000 1.200000 0.028000 0.033000
1518663777940387932	300 45 0.900000 0.087000 0.079000 1000 39 0.900000 2.090000 2.031000 600 50 1.000000 0.053000 0.053000 1.200000 0.028000 0.033000
1518663778494691515	300 45 0.900000 0.086000 0.078000 1000 39 0.900000 2.086000 2.029000 600 50 1.000000 0.053000 0.053000 1.200000 0.028000 0.033000
1518663779024313890	300 45 0.900000 0.086000 0.078000 1000 39 0.900000 2.087000 2.030000 600 50 1.000000 0.053000 0.053000 1.200000 0.029000 0.035000
1518663779556324390	300 45 0.900000 0.087000 0.079000 1000 39 0.900000 2.088000 2.029000 600 50 1.000000 0.053000 0.053000 1.200000 0.029000 0.035000
1518663780088299932	300 45 0.900000 0.087000 0.079000 1000 39 0.900000 2.091000 2.034000 600 50 1.000000 0.053000 0.053000 1.200000 0.028000 0.033000
1518663780620339474	300 45 0.900000 0.088000 0.080000 1000 39 0.900000 2.089000 2.032000 600 50 1.000000 0.053000 0.053000 1.200000 0.029000 0.035000
1518663781152266807	300 45 0.900000 0.087000 0.079000 1000 39 0.900000 2.086000 2.029000 600 50 1.000000 0.053000 0.053000 1.200000 0.029000 0.035000
1518663781692344682	300 44 0.900000 0.087000 0.079000 1000 39 0.900000 2.085000 2.026000 600 50 1.000000 0.053000 0.053000 1.200000 0.028000 0.033000
1518663782224267932	300 45 0.900000 0.086000 0.078000 1000 39 0.900000 2.092000 2.035000 600 50 1.000000 0.053000 0.053000 1.200000 0.028000 0.033000
1518663782768341349	300 45 0.900000 0.086000 0.078000 1000 39 0.900000 2.079000 2.020000 600 50 1.000000 0.053000 0.053000 1.200000 0.029000 0.035000
1518663783300388141	300 45 0.900000 0.086000 0.078000 1000 39 0.900000 2.074000 2.015000 600 50 1.000000 0.053000 0.053000 1.200000 0.029000 0.035000
1518663783832410516	300 44 0.900000 0.086000 0.078000 1000 39 0.900000 2.074000 2.015000 600 50 1.000000 0.053000 0.053000 1.200000 0.029000 0.035000
1518663784364348391	300 44 0.900000 0.086000 0.078000 1000 39 0.900000 2.065000 2.007000 600 50 1.000000 0.053000 0.053000 1.200000 0.029000 0.035000
1518663784896407891	300 45 0.900000 0.086000 0.078000 1000 39 0.900000 2.073000 2.017000 600 50 1.000000 0.053000 0.053000 1.200000 0.029000 0.035000
1518663785440356349	300 44 0.900000 0.086000 0.078000 1000 39 0.900000 2.077000 2.018000 600 50 1.000000 0.053000 0.053000 1.200000 0.029000 0.035000
1518663785972311099	300 45 0.900000 0.086000 0.078000 1000 39 0.900000 2.070000 2.012000 600 50 1.000000 0.053000 0.053000 1.200000 0.029000 0.035000
1518663786516362724	300 44 0.900000 0.087000 0.079000 1000 39 0.900000 2.074000 2.018000 600 50 1.000000 0.053000 0.053000 1.200000 0.029000 0.035000
1518663787048334016	300 44 0.900000 0.087000 0.079000 1000 39 0.900000 2.074000 2.015000 600 50 1.000000 0.053000 0.053000 1.200000 0.029000 0.035000
1518663787580366474	300 44 0.900000 0.088000 0.080000 1000 39 0.900000 2.071000 2.013000 600 50 1.000000 0.053000 0.053000 1.200000 0.029000 0.035000
1518663788120278683	300 45 0.900000 0.087000 0.079000 1000 39 0.900000 2.071000 2.013000 600 50 1.000000 0.053000 0.053000 1.200000 0.029000 0.035000
1518663788664289641	300 44 0.900000 0.087000 0.079000 1000 39 0.900000 2.078000 2.021000 600 50 1.000000 0.053000 0.053000 1.200000 0.029000 0.035000
1518663789196355683	300 44 0.900000 0.087000 0.079000 1000 39 0.900000 2.068000 2.010000 600 50 1.000000 0.053000 0.053000 1.200000 0.028000 0.033000
1518663789728316641	300 44 0.900000 0.087000 0.079000 1000 39 0.900000 2.070000 2.014000 600 50 1.000000 0.053000 0.053000 1.200000 0.029000 0.035000
1518663790268348683	300 44 0.900000 0.086000 0.078000 1000 39 0.900000 2.073000 2.017000 600 50 1.000000 0.052000 0.052000 1.200000 0.029000 0.035000
1518663790800388183	300 44 0.900000 0.086000 0.078000 1000 39 0.900000 2.068000 2.012000 600 50 1.000000 0.053000 0.053000 1.200000 0.028000 0.033000
1518663791344337850	300 44 0.900000 0.087000 0.079000 1000 39 0.900000 2.074000 2.015000 600 50 1.000000 0.053000 0.053000 1.200000 0.029000 0.035000
1518663791876358642	300 44 0.900000 0.087000 0.079000 1000 39 0.900000 2.078000 2.019000 600 50 1.000000 0.053000 0.053000 1.200000 0.029000 0.035000
1518663792408376308	300 44 0.900000 0.086000 0.078000 1000 39 0.900000 2.078000 2.019000 600 50 1.000000 0.053000 0.053000 1.200000 0.029000 0.035000
1518663792952390975	300 44 0.900000 0.086000 0.078000 1000 39 0.900000 2.074000 2.015000 600 50 1.000000 0.053000 0.053000 1.200000 0.029000 0.035000
1518663793496375475	300 44 0.900000 0.087000 0.079000 1000 39 0.900000 2.079000 2.020000 600 50 1.000000 0.053000 0.053000 1.200000 0.029000 0.035000
1518663794040442225	300 44 0.900000 0.087000 0.079000 1000 39 0.900000 2.077000 2.018000 600 50 1.000000 0.053000 0.053000 1.200000 0.029000 0.035000
1518663794572337267	300 44 0.900000 0.086000 0.078000 1000 39 0.900000 2.091000 2.034000 600 50 1.000000 0.053000 0.053000 1.200000 0.028000 0.033000
1518663795116360892	300 44 0.900000 0.086000 0.078000 1000 39 0.900000 2.085000 2.028000 600 50 1.000000 0.053000 0.053000 1.200000 0.027000 0.032000
1518663795648396517	300 44 0.900000 0.086000 0.078000 1000 39 0.900000 2.083000 2.026000 600 50 1.000000 0.053000 0.053000 1.200000 0.027000 0.032000
1518663796192345600	300 44 0.900000 0.087000 0.079000 1000 39 0.900000 2.081000 2.022000 600 50 1.000000 0.053000 0.053000 1.200000 0.027000 0.032000
1518663796724303476	300 44 0.900000 0.087000 0.079000 1000 39 0.900000 2.083000 2.026000 600 50 1.000000 0.053000 0.053000 1.200000 0.028000 0.033000
1518663797268347392	300 44 0.900000 0.086000 0.078000 1000 39 0.900000 2.077000 2.018000 600 50 1.000000 0.053000 0.053000 1.200000 0.027000 0.032000
1518663797812351267	300 44 0.900000 0.087000 0.079000 1000 39 0.900000 2.088000 2.031000 600 50 1.000000 0.053000 0.053000 1.200000 0.027000 0.032000
1518663798356330851	300 44 0.900000 0.086000 0.078000 1000 39 0.900000 2.078000 2.021000 600 50 1.000000 0.053000 0.053000 1.200000 0.028000 0.033000
1518663798900355934	300 44 0.900000 0.086000 0.078000 1000 39 0.900000 2.079000 2.022000 600 50 1.000000 0.053000 0.053000 1.200000 0.028000 0.033000
1518663799444375768	300 44 0.900000 0.087000 0.079000 1000 39 0.900000 2.077000 2.020000 600 50 1.000000 0.053000 0.053000 1.200000 0.027000 0.032000
1518663799976370143	300 44 0.900000 0.088000 0.080000 1000 39 0.900000 2.081000 2.022000 600 50 1.000000 0.053000 0.053000 1.200000 0.028000 0.033000
1518663800496299684	300 44 0.900000 0.087000 0.079000 1000 39 0.900000 2.065000 2.007000 600 50 1.000000 0.053000 0.053000 1.200000 0.027000 0.032000
1518663801036344934	300 44 0.900000 0.088000 0.080000 1000 39 0.900000 2.071000 2.015000 600 50 1.000000 0.053000 0.053000 1.200000 0.027000 0.032000
1518663801580331434	300 44 0.900000 0.087000 0.079000 1000 39 0.900000 2.074000 2.015000 600 50 1.000000 0.053000 0.053000 1.200000 0.028000 0.033000
1518663802112311976	300 44 0.900000 0.087000 0.079000 1000 39 0.900000 2.064000 2.008000 600 50 1.000000 0.053000 0.053000 1.200000 0.028000 0.033000
1518663802656306893	300 44 0.900000 0.087000 0.079000 1000 39 0.900000 2.074000 2.015000 600 50 1.000000 0.053000 0.053000 1.200000 0.028000 0.033000
1518663803188332518	300 44 0.900000 0.087000 0.079000 1000 39 0.900000 2.072000 2.013000 600 50 1.000000 0.053000 0.053000 1.200000 0.028000 0.033000
1518663803732315643	300 44 0.900000 0.086000 0.078000 1000 39 0.900000 2.076000 2.017000 600 50 1.000000 0.053000 0.053000 1.200000 0.028000 0.033000
1518663804276446851	300 44 0.900000 0.087000 0.079000 1000 39 0.900000 2.040000 1.982000 600 50 1.000000 0.053000 0.053000 1.200000 0.034000 0.041000
1518663804808387518	300 44 0.900000 0.086000 0.078000 1000 39 0.900000 2.081000 2.024000 600 50 1.000000 0.052000 0.052000 1.200000 0.028000 0.033000
1518663805340370227	300 44 0.900000 0.086000 0.078000 1000 39 0.900000 2.072000 2.016000 600 50 1.000000 0.053000 0.053000 1.200000 0.028000 0.033000
1518663805872383185	300 44 0.900000 0.086000 0.078000 1000 39 0.900000 2.064000 2.006000 600 50 1.000000 0.053000 0.053000 1.200000 0.028000 0.033000
1518663806404297102	300 44 0.900000 0.086000 0.078000 1000 39 0.900000 2.065000 2.009000 600 50 1.000000 0.053000 0.053000 1.200000 0.028000 0.033000
1518663806936394727	300 44 0.900000 0.086000 0.078000 1000 39 0.900000 2.071000 2.013000 600 50 1.000000 0.053000 0.053000 1.200000 0.028000 0.033000
1518663807480361768	300 44 0.900000 0.087000 0.079000 1000 39 0.900000 2.069000 2.013000 600 50 1.000000 0.053000 0.053000 1.200000 0.028000 0.033000
1518663808024356435	300 44 0.900000 0.087000 0.079000 1000 39 0.900000 2.071000 2.013000 600 50 1.000000 0.053000 0.053000 1.200000 0.027000 0.032000
1518663808568375435	300 44 0.900000 0.086000 0.078000 1000 38 0.900000 2.075000 2.016000 600 50 1.000000 0.053000 0.053000 1.200000 0.026000 0.031000
1518663809108343685	300 44 0.900000 0.086000 0.078000 1000 39 0.900000 2.076000 2.017000 600 50 1.000000 0.053000 0.053000 1.200000 0.026000 0.031000
1518663809640278435	300 44 0.900000 0.086000 0.078000 1000 39 0.900000 2.083000 2.024000 600 50 1.000000 0.053000 0.053000 1.200000 0.026000 0.031000
1518663810172266269	300 44 0.900000 0.086000 0.078000 1000 39 0.900000 2.076000 2.017000 600 50 1.000000 0.053000 0.053000 1.200000 0.026000 0.031000
1518663810704381561	300 44 0.900000 0.086000 0.078000 1000 39 0.900000 2.077000 2.018000 600 50 1.000000 0.053000 0.053000 1.200000 0.026000 0.031000
1518663811248395019	300 44 0.900000 0.086000 0.078000 1000 39 0.900000 2.079000 2.020000 600 50 1.000000 0.052000 0.052000 1.200000 0.026000 0.031000
1518663811780408352	300 44 0.900000 0.086000 0.078000 1000 39 0.900000 2.080000 2.023000 600 50 1.000000 0.053000 0.053000 1.200000 0.026000 0.031000
1518663812308303811	300 44 0.900000 0.087000 0.079000 1000 38 0.900000 2.077000 2.020000 600 50 1.000000 0.053000 0.053000 1.200000 0.026000 0.031000
1518663812840293602	300 44 0.900000 0.087000 0.079000 1000 38 0.900000 2.084000 2.027000 600 50 1.000000 0.053000 0.053000 1.200000 0.026000 0.031000
1518663813384356228	300 44 0.900000 0.087000 0.079000 1000 39 0.900000 2.085000 2.028000 600 50 1.000000 0.053000 0.053000 1.200000 0.026000 0.031000
1518663813899449769	300 41 0.900000 0.086000 0.078000 1000 38 0.900000 1.648000 1.600000 600 49 1.000000 0.053000 0.053000 1.200000 0.026000 0.031000
1518663814410025686	300 40 0.900000 0.092000 0.083000 1000 37 0.900000 1.616000 1.569000 600 49 1.000000 0.053000 0.053000 1.200000 0.026000 0.031000
1518663814920250478	300 40 0.900000 0.086000 0.078000 1000 37 0.900000 1.615000 1.568000 600 49 1.000000 0.053000 0.053000 1.200000 0.027000 0.032000
1518663815430386894	300 40 0.900000 0.086000 0.078000 1000 37 0.900000 1.614000 1.567000 600 49 1.000000 0.053000 0.053000 1.200000 0.026000 0.031000
1518663815940687478	300 40 0.900000 0.086000 0.078000 1000 37 0.900000 1.615000 1.568000 600 48 1.000000 0.053000 0.053000 1.200000 0.027000 0.032000
1518663816450650436	300 39 0.900000 0.085000 0.077000 1000 37 0.900000 1.586000 1.540000 600 48 1.000000 0.053000 0.053000 1.200000 0.027000 0.032000
1518663816959204061	300 38 0.900000 0.085000 0.077000 1000 36 0.900000 1.124000 1.088000 600 44 1.000000 0.053000 0.053000 1.200000 0.026000 0.031000
1518663817467679311	300 38 0.900000 0.085000 0.077000 1000 36 0.900000 0.688000 0.664000 600 42 1.000000 0.052000 0.052000 1.200000 0.026000 0.031000
1518663817976180478	300 37 0.900000 0.086000 0.078000 1000 36 0.900000 0.673000 0.650000 600 41 1.000000 0.053000 0.053000 1.200000 0.027000 0.032000
1518663818484564561	300 37 0.900000 0.086000 0.078000 1000 35 0.900000 0.673000 0.650000 600 40 1.000000 0.052000 0.052000 1.200000 0.026000 0.031000
1518663818992997895	300 36 0.900000 0.086000 0.078000 1000 35 0.900000 0.109000 0.105000 600 39 1.000000 0.052000 0.052000 1.200000 0.026000 0.031000
1518663819501489728	300 35 0.900000 0.086000 0.078000 1000 34 0.900000 0.115000 0.112000 600 39 1.000000 0.052000 0.052000 1.200000 0.026000 0.031000
1518663820009814520	300 35 0.900000 0.085000 0.077000 1000 34 0.900000 0.120000 0.117000 600 38 1.000000 0.052000 0.052000 1.200000 0.026000 0.031000
1518663820518159437	300 34 0.900000 0.085000 0.077000 1000 33 0.900000 0.125000 0.121000 600 38 1.000000 0.052000 0.052000 1.200000 0.026000 0.031000
1518663821026582603	300 34 0.900000 0.084000 0.076000 1000 33 0.900000 0.110000 0.107000 600 37 1.000000 0.052000 0.052000 1.200000 0.026000 0.031000
1518663821534822187	300 34 0.900000 0.085000 0.077000 1000 33 0.900000 0.126000 0.122000 600 37 1.000000 0.052000 0.052000 1.200000 0.026000 0.031000
1518663822043435354	300 33 0.900000 0.085000 0.077000 1000 32 0.900000 0.115000 0.112000 600 37 1.000000 0.052000 0.052000 1.200000 0.026000 0.031000
1518663822551882062	300 33 0.900000 0.084000 0.076000 1000 32 0.900000 0.114000 0.111000 600 37 1.000000 0.052000 0.052000 1.200000 0.026000 0.031000
1518663823060155604	300 33 0.900000 0.084000 0.076000 1000 32 0.900000 0.130000 0.126000 600 36 1.000000 0.051000 0.051000 1.200000 0.026000 0.031000
1518663823568522520	300 33 0.900000 0.084000 0.076000 1000 32 0.900000 0.110000 0.107000 600 36 1.000000 0.052000 0.052000 1.200000 0.026000 0.031000
1518663824078196645	300 33 0.900000 0.085000 0.077000 1000 32 0.900000 0.118000 0.115000 600 36 1.000000 0.052000 0.052000 1.200000 0.026000 0.031000
1518663824586864854	300 33 0.900000 0.085000 0.077000 1000 32 0.900000 0.223000 0.217000 600 36 1.000000 0.052000 0.052000 1.200000 0.031000 0.037000
1518663825095472187	300 32 0.900000 0.085000 0.077000 1000 31 0.900000 0.110000 0.107000 600 36 1.000000 0.051000 0.051000 1.200000 0.027000 0.032000
1518663825603828479	300 32 0.900000 0.084000 0.076000 1000 31 0.900000 0.122000 0.119000 600 36 1.000000 0.052000 0.052000 1.200000 0.026000 0.031000
1518663826112121729	300 32 0.900000 0.084000 0.076000 1000 31 0.900000 0.121000 0.118000 600 36 1.000000 0.051000 0.051000 1.200000 0.026000 0.031000
1518663826620603312	300 32 0.900000 0.084000 0.076000 1000 31 0.900000 0.109000 0.106000 600 36 1.000000 0.051000 0.051000 1.200000 0.026000 0.031000
1518663827129040354	300 32 0.900000 0.084000 0.076000 1000 31 0.900000 0.126000 0.122000 600 36 1.000000 0.051000 0.051000 1.200000 0.026000 0.031000
1518663827637536313	300 32 0.900000 0.084000 0.076000 1000 31 0.900000 0.113000 0.110000 600 35 1.000000 0.051000 0.051000 1.200000 0.027000 0.032000
1518663828145959646	300 32 0.900000 0.084000 0.076000 1000 31 0.900000 0.117000 0.114000 600 35 1.000000 0.051000 0.051000 1.200000 0.026000 0.031000
1518663828654586646	300 32 0.900000 0.085000 0.077000 1000 31 0.900000 0.125000 0.122000 600 35 1.000000 0.051000 0.051000 1.200000 0.026000 0.031000
1518663829163098771	300 32 0.900000 0.084000 0.076000 1000 31 0.900000 0.106000 0.103000 600 35 1.000000 0.051000 0.051000 1.200000 0.026000 0.031000
1518663829671525813	300 32 0.900000 0.084000 0.076000 1000 31 0.900000 0.103000 0.100000 600 35 1.000000 0.052000 0.052000 1.200000 0.026000 0.031000
1518663830179981980	300 32 0.900000 0.084000 0.076000 1000 31 0.900000 0.104000 0.101000 600 35 1.000000 0.051000 0.051000 1.200000 0.026000 0.031000
1518663830688281105	300 32 0.900000 0.084000 0.076000 1000 31 0.900000 0.110000 0.107000 600 35 1.000000 0.051000 0.051000 1.200000 0.027000 0.032000
1518663831196791146	300 32 0.900000 0.084000 0.076000 1000 31 0.900000 0.126000 0.122000 600 35 1.000000 0.051000 0.051000 1.200000 0.026000 0.031000
1518663831705057396	300 32 0.900000 0.084000 0.076000 1000 31 0.900000 0.112000 0.109000 600 35 1.000000 0.051000 0.051000 1.200000 0.026000 0.031000
1518663832213338605	300 32 0.900000 0.084000 0.076000 1000 30 0.900000 0.114000 0.111000 600 35 1.000000 0.051000 0.051000 1.200000 0.026000 0.031000
1518663832721860771	300 32 0.900000 0.084000 0.076000 1000 31 0.900000 0.125000 0.122000 600 35 1.000000 0.051000 0.051000 1.200000 0.026000 0.031000
1518663833230379730	300 31 0.900000 0.084000 0.076000 1000 31 0.900000 0.108000 0.105000 600 35 1.000000 0.051000 0.051000 1.200000 0.027000 0.032000
1518663833738998688	300 31 0.900000 0.084000 0.076000 1000 30 0.900000 0.121000 0.118000 600 35 1.000000 0.051000 0.051000 1.200000 0.027000 0.032000
1518663834247630063	300 32 0.900000 0.084000 0.076000 1000 30 0.900000 0.118000 0.115000 600 35 1.000000 0.052000 0.052000 1.200000 0.026000 0.031000
1518663834756100063	300 32 0.900000 0.084000 0.076000 1000 30 0.900000 0.108000 0.105000 600 35 1.000000 0.051000 0.051000 1.200000 0.027000 0.032000
1518663835264565355	300 31 0.900000 0.084000 0.076000 1000 30 0.900000 0.127000 0.123000 600 35 1.000000 0.051000 0.051000 1.200000 0.026000 0.031000
1518663835772921897	300 31 0.900000 0.084000 0.076000 1000 30 0.900000 0.105000 0.102000 600 35 1.000000 0.051000 0.051000 1.200000 0.026000 0.031000
1518663836281365772	300 31 0.900000 0.084000 0.076000 1000 30 0.900000 0.102000 0.099000 600 35 1.000000 0.051000 0.051000 1.200000 0.026000 0.031000
1518663836789531772	300 31 0.900000 0.084000 0.076000 1000 30 0.900000 0.102000 0.099000 600 35 1.000000 0.051000 0.051000 1.200000 0.026000 0.031000
1518663837297990189	300 31 0.900000 0.084000 0.076000 1000 30 0.900000 0.103000 0.100000 600 35 1.000000 0.051000 0.051000 1.200000 0.026000 0.031000
1518663837806383939	300 31 0.900000 0.083000 0.075000 1000 30 0.900000 0.121000 0.117000 600 35 1.000000 0.051000 0.051000 1.200000 0.027000 0.032000
1518663838314536064	300 31 0.900000 0.084000 0.076000 1000 30 0.900000 0.119000 0.116000 600 35 1.000000 0.051000 0.051000 1.200000 0.026000 0.031000
1518663838823143022	300 31 0.900000 0.084000 0.076000 1000 30 0.900000 0.107000 0.104000 600 35 1.000000 0.051000 0.051000 1.200000 0.026000 0.031000
1518663839331493647	300 31 0.900000 0.083000 0.075000 1000 30 0.900000 0.125000 0.122000 600 35 1.000000 0.052000 0.052000 1.200000 0.026000 0.031000
1518663839840175397	300 31 0.900000 0.084000 0.076000 1000 30 0.900000 0.112000 0.109000 600 35 1.000000 0.051000 0.051000 1.200000 0.026000 0.031000
1518663840348482856	300 31 0.900000 0.084000 0.076000 1000 30 0.900000 0.119000 0.116000 600 35 1.000000 0.051000 0.051000 1.200000 0.027000 0.032000
1518663840857010856	300 31 0.900000 0.084000 0.076000 1000 30 0.900000 0.126000 0.122000 600 34 1.000000 0.051000 0.051000 1.200000 0.027000 0.032000
1518663841365310981	300 31 0.900000 0.085000 0.077000 1000 30 0.900000 0.105000 0.102000 600 34 1.000000 0.051000 0.051000 1.200000 0.026000 0.031000
1518663841873602898	300 31 0.900000 0.084000 0.076000 1000 30 0.900000 0.103000 0.100000 600 35 1.000000 0.052000 0.052000 1.200000 0.026000 0.031000
1518663842381969773	300 31 0.900000 0.084000 0.076000 1000 30 0.900000 0.103000 0.100000 600 34 1.000000 0.051000 0.051000 1.200000 0.026000 0.031000
1518663842890433314	300 31 0.900000 0.084000 0.076000 1000 30 0.900000 0.104000 0.101000 600 34 1.000000 0.051000 0.051000 1.200000 0.026000 0.031000
1518663843398873273	300 31 0.900000 0.084000 0.076000 1000 30 0.900000 0.102000 0.099000 600 34 1.000000 0.051000 0.051000 1.200000 0.026000 0.031000
1518663843907374981	300 31 0.900000 0.084000 0.076000 1000 30 0.900000 0.100000 0.097000 600 34 1.000000 0.051000 0.051000 1.200000 0.026000 0.031000
1518663844416093148	300 31 0.900000 0.084000 0.076000 1000 30 0.900000 0.210000 0.204000 600 35 1.000000 0.051000 0.051000 1.200000 0.030000 0.036000
1518663844924650398	300 31 0.900000 0.084000 0.076000 1000 30 0.900000 0.126000 0.122000 600 34 1.000000 0.051000 0.051000 1.200000 0.027000 0.032000
1518663845433290523	300 31 0.900000 0.084000 0.076000 1000 30 0.900000 0.108000 0.105000 600 35 1.000000 0.051000 0.051000 1.200000 0.026000 0.031000
1518663845941643606	300 31 0.900000 0.084000 0.076000 1000 30 0.900000 0.119000 0.116000 600 34 1.000000 0.051000 0.051000 1.200000 0.026000 0.031000
1518663846449999148	300 31 0.900000 0.084000 0.076000 1000 30 0.900000 0.117000 0.114000 600 35 1.000000 0.051000 0.051000 1.200000 0.026000 0.031000
1518663846958255107	300 31 0.900000 0.084000 0.076000 1000 30 0.900000 0.106000 0.103000 600 34 1.000000 0.051000 0.051000 1.200000 0.026000 0.031000
1518663847466738690	300 31 0.900000 0.084000 0.076000 1000 30 0.900000 0.106000 0.103000 600 34 1.000000 0.051000 0.051000 1.200000 0.026000 0.031000
1518663847975144773	300 31 0.900000 0.084000 0.076000 1000 30 0.900000 0.104000 0.101000 600 34 1.000000 0.051000 0.051000 1.200000 0.026000 0.031000
1518663848483322398	300 31 0.900000 0.084000 0.076000 1000 30 0.900000 0.102000 0.099000 600 34 1.000000 0.051000 0.051000 1.200000 0.026000 0.031000
1518663848991482815	300 31 0.900000 0.084000 0.076000 1000 30 0.900000 0.100000 0.097000 600 34 1.000000 0.051000 0.051000 1.200000 0.026000 0.031000
1518663849499906898	300 31 0.900000 0.084000 0.076000 1000 30 0.900000 0.103000 0.100000 600 34 1.000000 0.051000 0.051000 1.200000 0.026000 0.031000
1518663850008146732	300 31 0.900000 0.084000 0.076000 1000 30 0.900000 0.104000 0.101000 600 34 1.000000 0.052000 0.052000 1.200000 0.026000 0.031000
1518663850516627899	300 31 0.900000 0.083000 0.075000 1000 30 0.900000 0.103000 0.100000 600 34 1.000000 0.051000 0.051000 1.200000 0.026000 0.031000
1518663851024966607	300 31 0.900000 0.084000 0.076000 1000 30 0.900000 0.101000 0.098000 600 34 1.000000 0.051000 0.051000 1.200000 0.026000 0.031000
1518663851533471607	300 31 0.900000 0.084000 0.076000 1000 30 0.900000 0.101000 0.098000 600 34 1.000000 0.051000 0.051000 1.200000 0.026000 0.031000
1518663852041973899	300 31 0.900000 0.084000 0.076000 1000 30 0.900000 0.113000 0.110000 600 34 1.000000 0.051000 0.051000 1.200000 0.026000 0.031000
1518663852550173732	300 31 0.900000 0.084000 0.076000 1000 30 0.900000 0.116000 0.113000 600 34 1.000000 0.051000 0.051000 1.200000 0.026000 0.031000
1518663853058596649	300 31 0.900000 0.084000 0.076000 1000 30 0.900000 0.122000 0.119000 600 34 1.000000 0.051000 0.051000 1.200000 0.026000 0.031000
1518663853567110232	300 31 0.900000 0.083000 0.075000 1000 30 0.900000 0.103000 0.100000 600 34 1.000000 0.051000 0.051000 1.200000 0.026000 0.031000
1518663854075459149	300 31 0.900000 0.084000 0.076000 1000 30 0.900000 0.102000 0.099000 600 34 1.000000 0.051000 0.051000 1.200000 0.026000 0.031000
1518663854584050607	300 31 0.900000 0.084000 0.076000 1000 30 0.900000 0.210000 0.204000 600 35 1.000000 0.051000 0.051000 1.200000 0.030000 0.036000
1518663855092321191	300 31 0.900000 0.084000 0.076000 1000 30 0.900000 0.104000 0.101000 600 34 1.000000 0.051000 0.051000 1.200000 0.026000 0.031000
1518663855600515233	300 31 0.900000 0.084000 0.076000 1000 30 0.900000 0.103000 0.100000 600 34 1.000000 0.051000 0.051000 1.200000 0.026000 0.031000
1518663856108711649	300 31 0.900000 0.085000 0.077000 1000 30 0.900000 0.100000 0.097000 600 34 1.000000 0.051000 0.051000 1.200000 0.026000 0.031000
1518663856616729816	300 31 0.900000 0.084000 0.076000 1000 30 0.900000 0.103000 0.100000 600 35 1.000000 0.051000 0.051000 1.200000 0.026000 0.031000
1518663857124797566	300 31 0.900000 0.084000 0.076000 1000 30 0.900000 0.103000 0.100000 600 34 1.000000 0.051000 0.051000 1.200000 0.026000 0.031000
1518663857633115358	300 31 0.900000 0.084000 0.076000 1000 30 0.900000 0.103000 0.100000 600 34 1.000000 0.052000 0.052000 1.200000 0.026000 0.031000
1518663858141207900	300 31 0.900000 0.084000 0.076000 1000 30 0.900000 0.125000 0.122000 600 34 1.000000 0.051000 0.051000 1.200000 0.026000 0.031000
1518663858649625941	300 31 0.900000 0.084000 0.076000 1000 30 0.900000 0.102000 0.099000 600 34 1.000000 0.051000 0.051000 1.200000 0.026000 0.031000
1518663859157894941	300 31 0.900000 0.084000 0.076000 1000 30 0.900000 0.111000 0.108000 600 34 1.000000 0.051000 0.051000 1.200000 0.026000 0.031000
1518663859666454441	300 31 0.900000 0.084000 0.076000 1000 30 0.900000 0.123000 0.120000 600 34 1.000000 0.051000 0.051000 1.200000 0.026000 0.031000
1518663860174941191	300 31 0.900000 0.084000 0.076000 1000 30 0.900000 0.107000 0.104000 600 34 1.000000 0.051000 0.051000 1.200000 0.027000 0.032000
1518663860683362691	300 31 0.900000 0.084000 0.076000 1000 30 0.900000 0.119000 0.116000 600 34 1.000000 0.051000 0.051000 1.200000 0.026000 0.031000
1518663861191483733	300 31 0.900000 0.084000 0.076000 1000 30 0.900000 0.117000 0.114000 600 34 1.000000 0.051000 0.051000 1.200000 0.026000 0.031000
1518663861699961775	300 31 0.900000 0.084000 0.076000 1000 30 0.900000 0.107000 0.104000 600 34 1.000000 0.051000 0.051000 1.200000 0.026000 0.031000
1518663862208058358	300 31 0.900000 0.084000 0.076000 1000 30 0.900000 0.127000 0.123000 600 34 1.000000 0.051000 0.051000 1.200000 0.026000 0.031000
1518663862716363525	300 31 0.900000 0.084000 0.076000 1000 30 0.900000 0.113000 0.110000 600 34 1.000000 0.051000 0.051000 1.200000 0.026000 0.031000
1518663863224749608	300 31 0.900000 0.084000 0.076000 1000 30 0.900000 0.114000 0.111000 600 34 1.000000 0.051000 0.051000 1.200000 0.026000 0.031000
1518663863733257192	300 31 0.900000 0.084000 0.076000 1000 30 0.900000 0.123000 0.120000 600 34 1.000000 0.051000 0.051000 1.200000 0.026000 0.031000
1518663864241478275	300 31 0.900000 0.084000 0.076000 1000 30 0.900000 0.106000 0.103000 600 34 1.000000 0.051000 0.051000 1.200000 0.027000 0.032000
1518663864750221275	300 31 0.900000 0.084000 0.076000 1000 30 0.900000 0.227000 0.221000 600 34 1.000000 0.051000 0.051000 1.200000 0.030000 0.036000
1518663865258777900	300 31 0.900000 0.084000 0.076000 1000 30 0.900000 0.103000 0.100000 600 34 1.000000 0.051000 0.051000 1.200000 0.026000 0.031000
1518663865767383067	300 31 0.900000 0.084000 0.076000 1000 30 0.900000 0.107000 0.104000 600 34 1.000000 0.051000 0.051000 1.200000 0.026000 0.031000
1518663866275794359	300 31 0.900000 0.084000 0.076000 1000 30 0.900000 0.124000 0.121000 600 34 1.000000 0.051000 0.051000 1.200000 0.026000 0.031000
1518663866784204192	300 31 0.900000 0.084000 0.076000 1000 30 0.900000 0.112000 0.109000 600 34 1.000000 0.051000 0.051000 1.200000 0.027000 0.032000
1518663867292567567	300 31 0.900000 0.084000 0.076000 1000 30 0.900000 0.115000 0.112000 600 34 1.000000 0.051000 0.051000 1.200000 0.026000 0.031000
1518663867801089317	300 31 0.900000 0.084000 0.076000 1000 30 0.900000 0.125000 0.122000 600 34 1.000000 0.051000 0.051000 1.200000 0.026000 0.031000
1518663868309582401	300 31 0.900000 0.084000 0.076000 1000 30 0.900000 0.105000 0.102000 600 34 1.000000 0.051000 0.051000 1.200000 0.027000 0.032000
1518663868818182984	300 31 0.900000 0.084000 0.076000 1000 30 0.900000 0.118000 0.115000 600 34 1.000000 0.051000 0.051000 1.200000 0.026000 0.031000
1518663869326444776	300 31 0.900000 0.084000 0.076000 1000 30 0.900000 0.120000 0.117000 600 34 1.000000 0.051000 0.051000 1.200000 0.026000 0.031000
1518663869834856734	300 31 0.900000 0.084000 0.076000 1000 30 0.900000 0.109000 0.106000 600 34 1.000000 0.051000 0.051000 1.200000 0.027000 0.032000
1518663870343155526	300 31 0.900000 0.084000 0.076000 1000 30 0.900000 0.124000 0.121000 600 34 1.000000 0.051000 0.051000 1.200000 0.026000 0.031000
1518663870851440901	300 31 0.900000 0.084000 0.076000 1000 30 0.900000 0.111000 0.108000 600 34 1.000000 0.051000 0.051000 1.200000 0.026000 0.031000
1518663871359546943	300 31 0.900000 0.084000 0.076000 1000 30 0.900000 0.103000 0.100000 600 34 1.000000 0.051000 0.051000 1.200000 0.026000 0.031000
1518663871867724984	300 31 0.900000 0.084000 0.076000 1000 30 0.900000 0.104000 0.101000 600 34 1.000000 0.051000 0.051000 1.200000 0.026000 0.031000
1518663872376168776	300 31 0.900000 0.084000 0.076000 1000 30 0.900000 0.103000 0.100000 600 34 1.000000 0.051000 0.051000 1.200000 0.026000 0.031000
1518663872884652235	300 31 0.900000 0.084000 0.076000 1000 30 0.900000 0.123000 0.120000 600 34 1.000000 0.051000 0.051000 1.200000 0.026000 0.031000
1518663873392934110	300 31 0.900000 0.074000 0.067000 1000 30 0.900000 0.116000 0.113000 600 34 1.000000 0.051000 0.051000 1.200000 0.026000 0.031000
1518663873901457235	300 31 0.900000 0.037000 0.033000 1000 30 0.900000 0.108000 0.105000 600 34 1.000000 0.051000 0.051000 1.200000 0.025000 0.030000
1518663874410132360	300 31 0.900000 0.037000 0.033000 1000 30 0.900000 0.126000 0.122000 600 34 1.000000 0.051000 0.051000 1.200000 0.024000 0.028000
1518663874918571527	300 31 0.900000 0.038000 0.034000 1000 30 0.900000 0.209000 0.203000 600 34 1.000000 0.051000 0.051000 1.200000 0.029000 0.035000
1518663875427037068	300 31 0.900000 0.037000 0.033000 1000 30 0.900000 0.112000 0.109000 600 34 1.000000 0.051000 0.051000 1.200000 0.025000 0.030000
1518663875935410527	300 30 0.900000 0.014000 0.012000 1000 29 0.900000 0.121000 0.118000 600 34 1.000000 0.051000 0.051000 1.200000 0.023000 0.027000
