#Timestamp	CPU(0) Frequency(MHz)	CPU(0) Temperature(C)	A7 Voltage(V)	A7 Current(A)	A7 Power(W)	CPU(4) Frequency(MHz)	CPU(4) Temperature(C)	A15 Voltage(V)	A15 Current(A)	A15 Power(W)	GPU Frequency(MHz)	GPU Temperature(C)	GPU Voltage(V)	GPU Current(A)	GPU Power(W)	RAM Voltage(V)	RAM Current(A)	RAM Power(W)
1517206911269629968	1300 36 1.200000 0.068000 0.083000 1500 34 1.000000 1.033000 1.132000 600 40 1.000000 0.052000 0.052000 1.200000 0.050000 0.060000
1517206911775667760	1300 37 1.200000 0.069000 0.084000 1500 34 1.000000 1.146000 1.252000 600 41 1.000000 0.051000 0.051000 1.200000 0.051000 0.061000
1517206912281637051	1300 37 1.200000 0.070000 0.085000 1500 34 1.000000 1.117000 1.220000 600 41 1.000000 0.052000 0.052000 1.200000 0.052000 0.062000
1517206912787664176	1300 38 1.200000 0.070000 0.085000 1500 35 1.000000 1.147000 1.253000 600 41 1.000000 0.052000 0.052000 1.200000 0.053000 0.064000
1517206913293704801	1300 38 1.200000 0.070000 0.085000 1500 35 1.000000 1.126000 1.230000 600 42 1.000000 0.052000 0.052000 1.200000 0.052000 0.062000
1517206913799681385	1300 38 1.200000 0.070000 0.085000 1500 35 1.000000 1.127000 1.231000 600 42 1.000000 0.052000 0.052000 1.200000 0.054000 0.065000
1517206914305789718	1300 38 1.200000 0.070000 0.085000 1500 35 1.000000 1.132000 1.237000 600 42 1.000000 0.052000 0.052000 1.200000 0.052000 0.062000
1517206914811837843	1300 38 1.200000 0.070000 0.085000 1500 35 1.000000 1.150000 1.256000 600 42 1.000000 0.052000 0.052000 1.200000 0.053000 0.064000
1517206915349070760	1300 46 1.200000 0.084000 0.102000 1500 38 1.000000 1.259000 1.378000 600 49 1.000000 0.052000 0.052000 1.200000 0.076000 0.092000
1517206915856728927	1300 44 1.200000 0.268000 0.324000 1500 39 1.000000 2.110000 2.316000 600 47 1.000000 0.052000 0.052000 1.200000 0.190000 0.231000
1517206916413323802	1300 46 1.200000 0.073000 0.089000 1500 39 1.000000 1.224000 1.340000 600 49 1.000000 0.053000 0.053000 1.200000 0.106000 0.128000
1517206916973286344	1300 48 1.200000 0.478000 0.576000 1500 41 1.100000 2.562000 2.820000 600 52 1.000000 0.053000 0.053000 1.200000 0.237000 0.287000
1517206917525290177	1300 50 1.200000 0.473000 0.570000 1500 42 1.100000 2.555000 2.813000 600 53 1.000000 0.053000 0.053000 1.200000 0.237000 0.288000
1517206918089328302	1300 51 1.200000 0.477000 0.575000 1500 43 1.100000 2.575000 2.835000 600 54 1.000000 0.053000 0.053000 1.200000 0.235000 0.285000
1517206918645307677	1300 52 1.200000 0.483000 0.582000 1500 44 1.100000 2.615000 2.879000 600 55 1.000000 0.053000 0.053000 1.200000 0.221000 0.268000
1517206919209284261	1300 52 1.200000 0.496000 0.598000 1500 44 1.100000 2.684000 2.955000 600 56 1.000000 0.053000 0.053000 1.200000 0.214000 0.260000
1517206919773449427	1300 54 1.200000 0.500000 0.603000 1500 45 1.100000 2.692000 2.966000 600 57 1.000000 0.053000 0.053000 1.200000 0.198000 0.240000
1517206920333159219	1300 54 1.200000 0.506000 0.610000 1500 45 1.100000 2.735000 3.011000 600 58 1.000000 0.053000 0.053000 1.200000 0.199000 0.241000
1517206920882131636	1300 54 1.200000 0.499000 0.602000 1500 46 1.100000 2.761000 3.042000 600 58 1.000000 0.053000 0.053000 1.200000 0.200000 0.243000
1517206921421258761	1300 56 1.200000 0.507000 0.611000 1500 46 1.100000 2.763000 3.044000 600 59 1.000000 0.053000 0.053000 1.200000 0.187000 0.227000
1517206921977078344	1300 56 1.200000 0.521000 0.628000 1500 47 1.100000 2.883000 3.177000 600 60 1.000000 0.053000 0.053000 1.200000 0.179000 0.217000
1517206922488982053	1300 56 1.200000 0.511000 0.616000 1500 47 1.100000 2.956000 3.257000 600 60 1.000000 0.053000 0.053000 1.200000 0.176000 0.213000
1517206922995858303	1300 55 1.200000 0.326000 0.394000 1500 46 1.100000 2.840000 3.129000 600 61 1.000000 0.054000 0.054000 1.200000 0.126000 0.152000
1517206923501986636	1300 52 1.200000 0.098000 0.119000 1500 45 1.100000 2.509000 2.762000 600 56 1.000000 0.053000 0.053000 1.200000 0.071000 0.085000
1517206924017025011	1300 48 1.200000 0.074000 0.090000 1500 44 1.000000 1.804000 1.978000 600 54 1.000000 0.054000 0.054000 1.200000 0.036000 0.043000
1517206924581152594	1300 54 1.200000 0.490000 0.591000 1500 46 1.100000 2.681000 2.951000 600 58 1.000000 0.053000 0.053000 1.200000 0.211000 0.256000
1517206925100083678	1300 56 1.200000 0.498000 0.601000 1500 46 1.100000 2.852000 3.142000 600 60 1.000000 0.053000 0.053000 1.200000 0.177000 0.215000
1517206925634033053	1300 55 1.200000 0.503000 0.607000 1500 47 1.100000 2.811000 3.097000 600 60 1.000000 0.053000 0.053000 1.200000 0.179000 0.217000
1517206926201268303	1300 56 1.200000 0.529000 0.637000 1500 47 1.100000 2.810000 3.096000 600 60 1.000000 0.054000 0.054000 1.200000 0.187000 0.227000
1517206926765088011	1300 57 1.200000 0.503000 0.607000 1500 48 1.100000 2.791000 3.075000 600 61 1.000000 0.054000 0.054000 1.200000 0.202000 0.245000
1517206927321055428	1300 57 1.200000 0.516000 0.622000 1500 48 1.100000 2.906000 3.202000 600 61 1.000000 0.054000 0.054000 1.200000 0.172000 0.209000
1517206927877005095	1300 58 1.200000 0.529000 0.637000 1500 48 1.100000 2.992000 3.300000 600 60 1.000000 0.054000 0.054000 1.200000 0.146000 0.177000
1517206928428979220	1300 56 1.200000 0.555000 0.669000 1500 48 1.100000 2.845000 3.135000 600 62 1.000000 0.054000 0.054000 1.200000 0.167000 0.202000
1517206928985098928	1300 58 1.200000 0.504000 0.607000 1500 49 1.100000 2.929000 3.227000 600 61 1.000000 0.054000 0.054000 1.200000 0.176000 0.214000
1517206929544963803	1300 58 1.200000 0.521000 0.628000 1500 49 1.100000 2.835000 3.124000 600 62 1.000000 0.054000 0.054000 1.200000 0.177000 0.215000
1517206930097140053	1300 57 1.200000 0.514000 0.619000 1500 49 1.100000 2.998000 3.306000 600 62 1.000000 0.054000 0.054000 1.200000 0.169000 0.205000
1517206930665059054	1300 58 1.200000 0.521000 0.628000 1500 49 1.100000 2.732000 3.010000 600 62 1.000000 0.054000 0.054000 1.200000 0.170000 0.206000
1517206931217846637	1300 58 1.200000 0.529000 0.637000 1500 49 1.100000 2.997000 3.305000 600 63 1.000000 0.054000 0.054000 1.200000 0.142000 0.172000
1517206931776964012	1300 59 1.200000 0.542000 0.653000 1500 49 1.100000 3.062000 3.377000 600 64 1.000000 0.054000 0.054000 1.200000 0.137000 0.166000
1517206932337063429	1300 58 1.200000 0.534000 0.644000 1500 50 1.100000 3.101000 3.420000 600 64 1.000000 0.054000 0.054000 1.200000 0.123000 0.149000
1517206932892934345	1300 59 1.200000 0.561000 0.676000 1500 50 1.100000 2.935000 3.234000 600 64 1.000000 0.054000 0.054000 1.200000 0.133000 0.161000
1517206933457048262	1300 59 1.200000 0.547000 0.659000 1500 50 1.100000 2.975000 3.278000 600 63 1.000000 0.054000 0.054000 1.200000 0.150000 0.182000
1517206933977576721	1300 59 1.200000 0.565000 0.681000 1500 50 1.100000 2.929000 3.227000 600 64 1.000000 0.054000 0.054000 1.200000 0.158000 0.191000
1517206934548872846	1300 60 1.200000 0.542000 0.653000 1500 50 1.100000 2.863000 3.155000 600 63 1.000000 0.055000 0.055000 1.200000 0.161000 0.195000
1517206935108970137	1300 58 1.200000 0.548000 0.660000 1500 50 1.100000 3.075000 3.391000 600 63 1.000000 0.054000 0.054000 1.200000 0.148000 0.179000
1517206935665061012	1300 59 1.200000 0.525000 0.633000 1500 50 1.100000 2.822000 3.109000 600 63 1.000000 0.054000 0.054000 1.200000 0.174000 0.211000
1517206936217221804	1300 59 1.200000 0.534000 0.644000 1500 50 1.100000 2.878000 3.171000 600 63 1.000000 0.054000 0.054000 1.200000 0.161000 0.195000
1517206936768978554	1300 60 1.200000 0.545000 0.657000 1500 50 1.100000 2.941000 3.240000 600 62 1.000000 0.055000 0.055000 1.200000 0.147000 0.178000
1517206937325051804	1300 60 1.200000 0.544000 0.656000 1500 50 1.100000 3.015000 3.325000 600 64 1.000000 0.055000 0.055000 1.200000 0.141000 0.171000
1517206937881215138	1300 60 1.200000 0.548000 0.660000 1500 51 1.100000 3.123000 3.444000 600 65 1.000000 0.055000 0.055000 1.200000 0.127000 0.154000
1517206938449052763	1300 59 1.200000 0.551000 0.664000 1500 51 1.100000 2.992000 3.300000 600 65 1.000000 0.055000 0.055000 1.200000 0.139000 0.168000
1517206939005019846	1300 59 1.200000 0.551000 0.664000 1500 51 1.100000 2.982000 3.289000 600 65 1.000000 0.055000 0.055000 1.200000 0.138000 0.167000
1517206939569037680	1300 60 1.200000 0.571000 0.688000 1500 51 1.100000 3.033000 3.345000 600 65 1.000000 0.054000 0.054000 1.200000 0.120000 0.145000
1517206940129135971	1300 61 1.200000 0.590000 0.711000 1500 51 1.100000 3.091000 3.409000 600 65 1.000000 0.054000 0.054000 1.200000 0.105000 0.127000
1517206940697049846	1300 60 1.200000 0.575000 0.693000 1500 51 1.100000 2.925000 3.223000 600 63 1.000000 0.055000 0.055000 1.200000 0.113000 0.136000
1517206941261043930	1300 60 1.200000 0.576000 0.694000 1500 51 1.100000 2.864000 3.156000 600 64 1.000000 0.055000 0.055000 1.200000 0.177000 0.215000
1517206941821067013	1300 60 1.200000 0.561000 0.676000 1500 51 1.100000 2.897000 3.192000 600 64 1.000000 0.055000 0.055000 1.200000 0.156000 0.189000
1517206942389120305	1300 61 1.200000 0.573000 0.691000 1500 51 1.100000 3.035000 3.347000 600 65 1.000000 0.055000 0.055000 1.200000 0.155000 0.188000
1517206942948858722	1300 60 1.200000 0.585000 0.705000 1500 51 1.100000 3.023000 3.334000 600 64 1.000000 0.054000 0.054000 1.200000 0.124000 0.150000
1517206943508827388	1300 61 1.200000 0.574000 0.692000 1500 51 1.100000 2.977000 3.283000 600 64 1.000000 0.055000 0.055000 1.200000 0.150000 0.182000
1517206944064942388	1300 61 1.200000 0.579000 0.698000 1500 51 1.100000 2.970000 3.275000 600 65 1.000000 0.055000 0.055000 1.200000 0.150000 0.182000
1517206944620907680	1300 61 1.200000 0.586000 0.706000 1500 51 1.100000 2.949000 3.252000 600 64 1.000000 0.055000 0.055000 1.200000 0.124000 0.150000
1517206945176793930	1300 61 1.200000 0.592000 0.713000 1500 52 1.100000 3.043000 3.356000 600 65 1.000000 0.055000 0.055000 1.200000 0.122000 0.147000
1517206945736818014	1300 61 1.200000 0.591000 0.712000 1500 52 1.100000 3.083000 3.400000 600 65 1.000000 0.055000 0.055000 1.200000 0.113000 0.136000
1517206946292820305	1300 62 1.200000 0.551000 0.664000 1500 52 1.100000 3.132000 3.454000 600 66 1.000000 0.055000 0.055000 1.200000 0.134000 0.162000
1517206946848930514	1300 61 1.200000 0.566000 0.682000 1500 52 1.100000 3.149000 3.473000 600 65 1.000000 0.055000 0.055000 1.200000 0.111000 0.134000
1517206947404897764	1300 61 1.200000 0.573000 0.691000 1500 52 1.100000 3.046000 3.359000 600 65 1.000000 0.055000 0.055000 1.200000 0.111000 0.134000
1517206947964846222	1300 62 1.200000 0.579000 0.698000 1500 52 1.100000 3.083000 3.400000 600 66 1.000000 0.055000 0.055000 1.200000 0.127000 0.154000
1517206948524867347	1300 62 1.200000 0.560000 0.675000 1500 52 1.100000 3.135000 3.457000 600 66 1.000000 0.055000 0.055000 1.200000 0.123000 0.149000
1517206949084852764	1300 62 1.200000 0.565000 0.681000 1500 52 1.100000 3.012000 3.322000 600 66 1.000000 0.055000 0.055000 1.200000 0.132000 0.159000
1517206949636900097	1300 62 1.200000 0.555000 0.669000 1500 52 1.100000 3.115000 3.435000 600 66 1.000000 0.055000 0.055000 1.200000 0.116000 0.140000
1517206950201121473	1300 62 1.200000 0.571000 0.688000 1500 52 1.100000 3.036000 3.348000 600 66 1.000000 0.055000 0.055000 1.200000 0.130000 0.157000
1517206950752861264	1300 62 1.200000 0.565000 0.681000 1500 52 1.100000 3.119000 3.440000 600 66 1.000000 0.055000 0.055000 1.200000 0.124000 0.150000
1517206951308818056	1300 62 1.200000 0.577000 0.695000 1500 52 1.100000 3.112000 3.432000 600 66 1.000000 0.055000 0.055000 1.200000 0.112000 0.135000
1517206951872836014	1300 62 1.200000 0.569000 0.686000 1500 52 1.100000 3.173000 3.499000 600 66 1.000000 0.055000 0.055000 1.200000 0.116000 0.140000
1517206952436799139	1300 62 1.200000 0.568000 0.685000 1500 52 1.100000 3.126000 3.447000 600 67 1.000000 0.055000 0.055000 1.200000 0.120000 0.145000
1517206952996823056	1300 62 1.200000 0.584000 0.703000 1500 52 1.100000 3.195000 3.524000 600 67 1.000000 0.055000 0.055000 1.200000 0.099000 0.119000
1517206953552785390	1300 62 1.200000 0.589000 0.710000 1500 53 1.100000 3.218000 3.555000 600 67 1.000000 0.055000 0.055000 1.200000 0.085000 0.102000
1517206954100820556	1300 63 1.200000 0.587000 0.707000 1500 52 1.100000 3.219000 3.556000 600 67 1.000000 0.055000 0.055000 1.200000 0.088000 0.106000
1517206954664935681	1300 61 1.200000 0.601000 0.724000 1500 52 1.100000 3.220000 3.558000 600 67 1.000000 0.055000 0.055000 1.200000 0.077000 0.093000
1517206955212773181	1300 62 1.200000 0.572000 0.689000 1500 52 1.100000 3.084000 3.401000 600 67 1.000000 0.055000 0.055000 1.200000 0.106000 0.128000
1517206955772884598	1300 62 1.200000 0.572000 0.689000 1500 52 1.100000 3.163000 3.495000 600 65 1.000000 0.055000 0.055000 1.200000 0.095000 0.115000
1517206956328890390	1300 62 1.200000 0.590000 0.710000 1500 52 1.100000 3.055000 3.369000 600 66 1.000000 0.055000 0.055000 1.200000 0.115000 0.139000
1517206956882130265	1300 62 1.200000 0.571000 0.688000 1500 52 1.100000 2.997000 3.305000 600 66 1.000000 0.055000 0.055000 1.200000 0.137000 0.166000
1517206957444879307	1300 61 1.200000 0.561000 0.676000 1500 52 1.100000 3.069000 3.385000 600 66 1.000000 0.055000 0.055000 1.200000 0.134000 0.162000
1517206958000916557	1300 61 1.200000 0.575000 0.693000 1500 52 1.100000 2.970000 3.272000 600 66 1.000000 0.055000 0.055000 1.200000 0.128000 0.155000
1517206958564981849	1300 62 1.200000 0.545000 0.657000 1500 52 1.100000 3.086000 3.403000 600 66 1.000000 0.055000 0.055000 1.200000 0.134000 0.162000
1517206959120906474	1300 62 1.200000 0.537000 0.647000 1500 52 1.100000 3.131000 3.453000 600 66 1.000000 0.055000 0.055000 1.200000 0.135000 0.164000
1517206959676840807	1300 61 1.200000 0.559000 0.674000 1500 52 1.100000 3.103000 3.422000 600 67 1.000000 0.055000 0.055000 1.200000 0.127000 0.154000
1517206960236944390	1300 61 1.200000 0.546000 0.658000 1500 52 1.100000 3.052000 3.366000 600 67 1.000000 0.055000 0.055000 1.200000 0.156000 0.189000
1517206960792851390	1300 62 1.200000 0.541000 0.652000 1500 52 1.100000 3.127000 3.449000 600 67 1.000000 0.055000 0.055000 1.200000 0.123000 0.149000
1517206961357012766	1300 62 1.200000 0.553000 0.666000 1500 53 1.100000 3.167000 3.493000 600 67 1.000000 0.055000 0.055000 1.200000 0.123000 0.149000
1517206961912929432	1300 62 1.200000 0.535000 0.645000 1500 53 1.100000 3.138000 3.461000 600 67 1.000000 0.055000 0.055000 1.200000 0.133000 0.161000
1517206962468910182	1300 62 1.200000 0.570000 0.687000 1500 52 1.100000 3.017000 3.327000 600 67 1.000000 0.055000 0.055000 1.200000 0.135000 0.163000
1517206963024873099	1300 62 1.200000 0.541000 0.652000 1500 53 1.100000 3.142000 3.465000 600 67 1.000000 0.055000 0.055000 1.200000 0.132000 0.160000
1517206963572846099	1300 62 1.200000 0.557000 0.671000 1500 53 1.100000 3.043000 3.353000 600 67 1.000000 0.055000 0.055000 1.200000 0.151000 0.183000
1517206964128937099	1300 63 1.200000 0.556000 0.670000 1500 53 1.100000 3.140000 3.463000 600 67 1.000000 0.055000 0.055000 1.200000 0.120000 0.145000
1517206964684764891	1300 63 1.200000 0.557000 0.671000 1500 53 1.100000 3.169000 3.495000 600 67 1.000000 0.055000 0.055000 1.200000 0.115000 0.139000
1517206965236789058	1300 62 1.200000 0.546000 0.658000 1500 53 1.100000 3.195000 3.524000 600 67 1.000000 0.055000 0.055000 1.200000 0.108000 0.130000
1517206965796783974	1300 63 1.200000 0.551000 0.664000 1500 53 1.100000 3.178000 3.511000 600 68 1.000000 0.055000 0.055000 1.200000 0.106000 0.128000
1517206966352885224	1300 62 1.200000 0.575000 0.693000 1500 53 1.100000 3.045000 3.358000 600 67 1.000000 0.055000 0.055000 1.200000 0.143000 0.173000
1517206966908874058	1300 63 1.200000 0.557000 0.671000 1500 53 1.100000 3.147000 3.471000 600 68 1.000000 0.055000 0.055000 1.200000 0.127000 0.154000
1517206967460811183	1300 63 1.200000 0.567000 0.683000 1500 53 1.100000 3.182000 3.509000 600 67 1.000000 0.055000 0.055000 1.200000 0.105000 0.127000
1517206968016875183	1300 63 1.200000 0.589000 0.710000 1500 53 1.100000 3.154000 3.478000 600 68 1.000000 0.055000 0.055000 1.200000 0.105000 0.127000
1517206968572877100	1300 63 1.200000 0.562000 0.677000 1500 53 1.100000 3.158000 3.483000 600 68 1.000000 0.055000 0.055000 1.200000 0.124000 0.150000
1517206969120931975	1300 63 1.200000 0.584000 0.704000 1500 53 1.100000 3.171000 3.503000 600 67 1.000000 0.055000 0.055000 1.200000 0.106000 0.128000
1517206969680804767	1300 63 1.200000 0.588000 0.709000 1500 53 1.100000 3.235000 3.574000 600 68 1.000000 0.055000 0.055000 1.200000 0.092000 0.111000
1517206970224827433	1300 63 1.200000 0.592000 0.713000 1500 53 1.100000 3.235000 3.574000 600 68 1.000000 0.055000 0.055000 1.200000 0.080000 0.096000
1517206970768914225	1300 63 1.200000 0.583000 0.703000 1500 53 1.100000 3.156000 3.481000 600 68 1.000000 0.055000 0.055000 1.200000 0.101000 0.122000
1517206971328786850	1300 63 1.200000 0.587000 0.707000 1500 53 1.100000 3.200000 3.529000 600 68 1.000000 0.055000 0.055000 1.200000 0.097000 0.117000
1517206971884920725	1300 63 1.200000 0.598000 0.721000 1500 53 1.100000 3.215000 3.546000 600 68 1.000000 0.055000 0.055000 1.200000 0.097000 0.117000
1517206972440904684	1300 63 1.200000 0.588000 0.709000 1500 53 1.100000 3.054000 3.368000 600 68 1.000000 0.055000 0.055000 1.200000 0.121000 0.146000
1517206973004845642	1300 63 1.200000 0.597000 0.719000 1500 53 1.100000 3.154000 3.478000 600 68 1.000000 0.055000 0.055000 1.200000 0.094000 0.113000
1517206973552773684	1300 63 1.200000 0.593000 0.715000 1500 53 1.100000 3.202000 3.531000 600 68 1.000000 0.055000 0.055000 1.200000 0.094000 0.113000
1517206974100861892	1300 63 1.200000 0.612000 0.737000 1500 53 1.100000 3.207000 3.537000 600 68 1.000000 0.055000 0.055000 1.200000 0.082000 0.099000
1517206974652819642	1300 63 1.200000 0.597000 0.719000 1500 54 1.100000 3.042000 3.355000 600 67 1.000000 0.055000 0.055000 1.200000 0.121000 0.146000
1517206975208838017	1300 64 1.200000 0.606000 0.730000 1500 54 1.100000 3.137000 3.460000 600 67 1.000000 0.055000 0.055000 1.200000 0.106000 0.128000
1517206975768787309	1300 63 1.200000 0.606000 0.730000 1500 54 1.100000 3.192000 3.520000 600 68 1.000000 0.055000 0.055000 1.200000 0.090000 0.109000
1517206976316878184	1300 64 1.200000 0.606000 0.730000 1500 53 1.100000 3.092000 3.410000 600 66 1.000000 0.055000 0.055000 1.200000 0.105000 0.127000
1517206976880863892	1300 63 1.200000 0.617000 0.743000 1500 54 1.100000 3.087000 3.404000 600 67 1.000000 0.055000 0.055000 1.200000 0.103000 0.124000
1517206977445313142	1300 64 1.200000 0.618000 0.744000 1500 54 1.100000 3.180000 3.507000 600 67 1.000000 0.055000 0.055000 1.200000 0.088000 0.106000
1517206978000898351	1300 63 1.200000 0.625000 0.753000 1500 53 1.100000 3.042000 3.355000 600 68 1.000000 0.055000 0.055000 1.200000 0.113000 0.137000
1517206978564800434	1300 62 1.200000 0.598000 0.721000 1500 53 1.100000 3.067000 3.382000 600 68 1.000000 0.055000 0.055000 1.200000 0.114000 0.138000
1517206979124963809	1300 62 1.200000 0.602000 0.725000 1500 53 1.100000 3.075000 3.391000 600 68 1.000000 0.055000 0.055000 1.200000 0.117000 0.141000
1517206979680930726	1300 62 1.200000 0.590000 0.711000 1500 53 1.100000 2.978000 3.281000 600 66 1.000000 0.055000 0.055000 1.200000 0.136000 0.165000
1517206980232790268	1300 63 1.200000 0.592000 0.713000 1500 53 1.100000 3.041000 3.354000 600 67 1.000000 0.055000 0.055000 1.200000 0.150000 0.182000
1517206980784775601	1300 63 1.200000 0.607000 0.731000 1500 54 1.100000 3.094000 3.412000 600 67 1.000000 0.055000 0.055000 1.200000 0.120000 0.145000
1517206981336903393	1300 63 1.200000 0.612000 0.737000 1500 54 1.100000 2.970000 3.275000 600 67 1.000000 0.055000 0.055000 1.200000 0.112000 0.135000
1517206981892893226	1300 63 1.200000 0.614000 0.739000 1500 54 1.100000 2.989000 3.296000 600 67 1.000000 0.055000 0.055000 1.200000 0.120000 0.145000
1517206982452820518	1300 63 1.200000 0.600000 0.723000 1500 54 1.100000 3.062000 3.377000 600 67 1.000000 0.055000 0.055000 1.200000 0.129000 0.156000
1517206983000951560	1300 63 1.200000 0.620000 0.747000 1500 54 1.100000 3.040000 3.353000 600 67 1.000000 0.055000 0.055000 1.200000 0.112000 0.135000
1517206983552821393	1300 63 1.200000 0.607000 0.732000 1500 54 1.100000 3.019000 3.329000 600 68 1.000000 0.055000 0.055000 1.200000 0.128000 0.155000
1517206984108802768	1300 63 1.200000 0.618000 0.744000 1500 54 1.100000 3.111000 3.431000 600 68 1.000000 0.055000 0.055000 1.200000 0.111000 0.134000
1517206984656861935	1300 63 1.200000 0.614000 0.739000 1500 54 1.100000 3.148000 3.472000 600 67 1.000000 0.055000 0.055000 1.200000 0.099000 0.119000
1517206985212916185	1300 63 1.200000 0.617000 0.743000 1500 54 1.100000 3.107000 3.427000 600 67 1.000000 0.055000 0.055000 1.200000 0.100000 0.121000
1517206985772830935	1300 63 1.200000 0.591000 0.712000 1500 54 1.100000 3.130000 3.452000 600 68 1.000000 0.055000 0.055000 1.200000 0.119000 0.144000
1517206986332909810	1300 63 1.200000 0.594000 0.715000 1500 54 1.100000 3.087000 3.404000 600 68 1.000000 0.055000 0.055000 1.200000 0.121000 0.146000
1517206986888900477	1300 63 1.200000 0.604000 0.728000 1500 54 1.100000 3.137000 3.460000 600 68 1.000000 0.055000 0.055000 1.200000 0.102000 0.123000
1517206987448849310	1300 63 1.200000 0.613000 0.738000 1500 54 1.100000 3.064000 3.379000 600 68 1.000000 0.055000 0.055000 1.200000 0.115000 0.139000
1517206987992727644	1300 63 1.200000 0.606000 0.730000 1500 54 1.100000 3.088000 3.406000 600 68 1.000000 0.055000 0.055000 1.200000 0.117000 0.141000
1517206988548832269	1300 63 1.200000 0.588000 0.709000 1500 54 1.100000 3.134000 3.456000 600 68 1.000000 0.055000 0.055000 1.200000 0.111000 0.134000
1517206989108793644	1300 63 1.200000 0.582000 0.701000 1500 54 1.100000 3.142000 3.465000 600 68 1.000000 0.055000 0.055000 1.200000 0.108000 0.130000
1517206989664799811	1300 63 1.200000 0.608000 0.732000 1500 54 1.100000 3.203000 3.532000 600 68 1.000000 0.055000 0.055000 1.200000 0.090000 0.108000
1517206990220947352	1300 64 1.200000 0.589000 0.710000 1500 54 1.100000 3.123000 3.444000 600 68 1.000000 0.055000 0.055000 1.200000 0.118000 0.143000
1517206990776712727	1300 63 1.200000 0.601000 0.724000 1500 54 1.100000 3.072000 3.388000 600 68 1.000000 0.055000 0.055000 1.200000 0.111000 0.134000
1517206991328786019	1300 64 1.200000 0.609000 0.733000 1500 54 1.100000 3.180000 3.507000 600 68 1.000000 0.055000 0.055000 1.200000 0.082000 0.099000
1517206991884893686	1300 64 1.200000 0.618000 0.744000 1500 54 1.100000 3.180000 3.507000 600 68 1.000000 0.055000 0.055000 1.200000 0.095000 0.115000
1517206992440815853	1300 64 1.200000 0.620000 0.747000 1500 54 1.100000 3.190000 3.518000 600 68 1.000000 0.055000 0.055000 1.200000 0.080000 0.096000
1517206993001322644	1300 64 1.200000 0.620000 0.747000 1500 54 1.100000 3.192000 3.520000 600 68 1.000000 0.055000 0.055000 1.200000 0.091000 0.110000
1517206993552960478	1300 63 1.200000 0.570000 0.687000 1500 54 1.100000 3.182000 3.509000 600 68 1.000000 0.055000 0.055000 1.200000 0.097000 0.117000
1517206994104986561	1300 63 1.200000 0.562000 0.677000 1500 54 1.100000 3.183000 3.510000 600 68 1.000000 0.055000 0.055000 1.200000 0.120000 0.145000
1517206994653077353	1300 64 1.200000 0.562000 0.677000 1500 54 1.100000 3.231000 3.570000 600 69 1.000000 0.055000 0.055000 1.200000 0.107000 0.129000
1517206995212929103	1300 64 1.200000 0.577000 0.695000 1500 54 1.100000 3.207000 3.543000 600 68 1.000000 0.055000 0.055000 1.200000 0.100000 0.121000
1517206995768943561	1300 64 1.200000 0.583000 0.702000 1500 54 1.100000 3.235000 3.574000 600 69 1.000000 0.055000 0.055000 1.200000 0.095000 0.115000
1517206996328941853	1300 64 1.200000 0.560000 0.675000 1500 54 1.100000 3.243000 3.583000 600 69 1.000000 0.055000 0.055000 1.200000 0.094000 0.113000
1517206996881023061	1300 64 1.200000 0.540000 0.651000 1500 54 1.100000 3.244000 3.584000 600 68 1.000000 0.055000 0.055000 1.200000 0.112000 0.135000
1517206997441058020	1300 64 1.200000 0.553000 0.666000 1500 54 1.100000 3.231000 3.570000 600 69 1.000000 0.055000 0.055000 1.200000 0.109000 0.132000
1517206998001002478	1300 64 1.200000 0.552000 0.665000 1500 54 1.100000 3.220000 3.558000 600 69 1.000000 0.055000 0.055000 1.200000 0.113000 0.137000
1517206998552796937	1300 64 1.200000 0.564000 0.680000 1500 54 1.100000 3.202000 3.538000 600 69 1.000000 0.055000 0.055000 1.200000 0.105000 0.127000
1517206999092860020	1300 64 1.200000 0.558000 0.672000 1500 54 1.100000 3.242000 3.582000 600 69 1.000000 0.055000 0.055000 1.200000 0.104000 0.126000
1517206999644928853	1300 64 1.200000 0.555000 0.669000 1500 54 1.100000 3.224000 3.562000 600 69 1.000000 0.055000 0.055000 1.200000 0.105000 0.127000
1517207000196936770	1300 64 1.200000 0.557000 0.671000 1500 54 1.100000 3.246000 3.586000 600 69 1.000000 0.055000 0.055000 1.200000 0.098000 0.118000
1517207000749014770	1300 64 1.200000 0.563000 0.678000 1500 54 1.100000 3.236000 3.575000 600 69 1.000000 0.055000 0.055000 1.200000 0.103000 0.124000
1517207001303881020	1300 64 1.200000 0.563000 0.678000 1500 54 1.100000 3.217000 3.554000 600 69 1.000000 0.055000 0.055000 1.200000 0.101000 0.122000
1517207001857000229	1300 64 1.200000 0.564000 0.680000 1500 54 1.100000 3.180000 3.513000 600 68 1.000000 0.055000 0.055000 1.200000 0.105000 0.127000
1517207002412910229	1300 64 1.200000 0.593000 0.714000 1500 54 1.100000 3.247000 3.587000 600 69 1.000000 0.055000 0.055000 1.200000 0.092000 0.111000
1517207002965167021	1300 64 1.200000 0.567000 0.683000 1500 54 1.100000 3.248000 3.589000 600 69 1.000000 0.055000 0.055000 1.200000 0.101000 0.122000
1517207003479382187	1300 64 1.200000 0.579000 0.698000 1500 54 1.100000 3.230000 3.569000 600 69 1.000000 0.055000 0.055000 1.200000 0.097000 0.117000
1517207003989058646	1300 64 1.200000 0.454000 0.547000 1500 54 1.100000 3.108000 3.428000 600 68 1.000000 0.055000 0.055000 1.200000 0.120000 0.145000
1517207004512941937	1300 64 1.200000 0.473000 0.570000 1500 54 1.100000 3.200000 3.529000 600 69 1.000000 0.055000 0.055000 1.200000 0.091000 0.110000
1517207005032673812	1300 64 1.200000 0.460000 0.554000 1500 54 1.100000 3.212000 3.549000 600 69 1.000000 0.055000 0.055000 1.200000 0.095000 0.115000
1517207005553086562	1300 63 1.200000 0.476000 0.574000 1500 54 1.100000 3.117000 3.438000 600 68 1.000000 0.055000 0.055000 1.200000 0.113000 0.136000
1517207006072799604	1300 64 1.200000 0.456000 0.550000 1500 54 1.100000 3.225000 3.563000 600 69 1.000000 0.055000 0.055000 1.200000 0.097000 0.117000
1517207006592843896	1300 63 1.200000 0.480000 0.578000 1500 53 1.100000 3.198000 3.527000 600 68 1.000000 0.055000 0.055000 1.200000 0.080000 0.096000
1517207007112874813	1300 63 1.200000 0.439000 0.529000 1500 54 1.100000 3.234000 3.573000 600 69 1.000000 0.055000 0.055000 1.200000 0.088000 0.106000
1517207007632955313	1300 63 1.200000 0.474000 0.571000 1500 54 1.100000 3.200000 3.536000 600 68 1.000000 0.055000 0.055000 1.200000 0.084000 0.101000
1517207008152903146	1300 63 1.200000 0.476000 0.574000 1500 53 1.100000 3.244000 3.584000 600 69 1.000000 0.055000 0.055000 1.200000 0.070000 0.084000
1517207008672852646	1300 63 1.200000 0.460000 0.555000 1500 53 1.100000 3.195000 3.530000 600 69 1.000000 0.055000 0.055000 1.200000 0.085000 0.102000
1517207009192782896	1300 64 1.200000 0.471000 0.568000 1500 54 1.100000 3.240000 3.580000 600 69 1.000000 0.055000 0.055000 1.200000 0.074000 0.089000
1517207009712923355	1300 63 1.200000 0.482000 0.581000 1500 53 1.100000 3.228000 3.566000 600 69 1.000000 0.055000 0.055000 1.200000 0.080000 0.096000
1517207010232982771	1300 63 1.200000 0.466000 0.562000 1500 54 1.100000 3.235000 3.574000 600 69 1.000000 0.055000 0.055000 1.200000 0.085000 0.103000
1517207010752820188	1300 63 1.200000 0.483000 0.582000 1500 54 1.100000 3.255000 3.596000 600 69 1.000000 0.055000 0.055000 1.200000 0.075000 0.090000
1517207011272842771	1300 63 1.200000 0.471000 0.568000 1500 53 1.100000 3.274000 3.617000 600 68 1.000000 0.055000 0.055000 1.200000 0.070000 0.084000
1517207011792956188	1300 63 1.200000 0.484000 0.583000 1500 54 1.100000 3.232000 3.571000 600 68 1.000000 0.055000 0.055000 1.200000 0.070000 0.084000
1517207012312914063	1300 63 1.200000 0.458000 0.552000 1500 53 1.100000 3.206000 3.536000 600 69 1.000000 0.055000 0.055000 1.200000 0.093000 0.112000
1517207012840792688	1300 63 1.200000 0.480000 0.579000 1500 54 1.100000 3.263000 3.605000 600 69 1.000000 0.055000 0.055000 1.200000 0.072000 0.087000
1517207013352775480	1300 64 1.200000 0.480000 0.579000 1500 53 1.100000 3.272000 3.615000 600 69 1.000000 0.055000 0.055000 1.200000 0.063000 0.076000
1517207013876866022	1300 63 1.200000 0.482000 0.581000 1500 53 1.100000 3.218000 3.555000 600 69 1.000000 0.055000 0.055000 1.200000 0.071000 0.085000
1517207014388854189	1300 63 1.200000 0.482000 0.581000 1500 54 1.100000 3.240000 3.580000 600 69 1.000000 0.055000 0.055000 1.200000 0.075000 0.090000
1517207014900828022	1300 64 1.200000 0.480000 0.579000 1500 53 1.100000 3.236000 3.575000 600 69 1.000000 0.055000 0.055000 1.200000 0.085000 0.102000
1517207015428936147	1300 63 1.200000 0.470000 0.567000 1500 54 1.100000 3.271000 3.614000 600 69 1.000000 0.055000 0.055000 1.200000 0.068000 0.082000
1517207015940815397	1300 64 1.200000 0.488000 0.589000 1500 54 1.100000 3.223000 3.561000 600 69 1.000000 0.055000 0.055000 1.200000 0.077000 0.093000
1517207016464957647	1300 63 1.200000 0.480000 0.579000 1500 54 1.100000 3.253000 3.594000 600 69 1.000000 0.055000 0.055000 1.200000 0.066000 0.079000
1517207016976847314	1300 64 1.200000 0.477000 0.575000 1500 54 1.100000 3.258000 3.600000 600 69 1.000000 0.055000 0.055000 1.200000 0.075000 0.090000
1517207017496882397	1300 64 1.200000 0.485000 0.585000 1500 54 1.100000 3.245000 3.585000 600 69 1.000000 0.055000 0.055000 1.200000 0.070000 0.084000
1517207018008871189	1300 63 1.200000 0.484000 0.584000 1500 54 1.100000 3.249000 3.590000 600 69 1.000000 0.055000 0.055000 1.200000 0.064000 0.077000
1517207018520835939	1300 64 1.200000 0.473000 0.570000 1500 54 1.100000 3.241000 3.581000 600 69 1.000000 0.055000 0.055000 1.200000 0.073000 0.088000
1517207019032737772	1300 63 1.200000 0.486000 0.586000 1500 54 1.100000 3.231000 3.570000 600 69 1.000000 0.055000 0.055000 1.200000 0.067000 0.081000
1517207019556883147	1300 64 1.200000 0.488000 0.588000 1500 54 1.100000 3.264000 3.606000 600 69 1.000000 0.055000 0.055000 1.200000 0.057000 0.068000
1517207020068922689	1300 64 1.200000 0.495000 0.596000 1500 54 1.100000 3.255000 3.596000 600 69 1.000000 0.055000 0.055000 1.200000 0.056000 0.067000
1517207020580810814	1300 64 1.200000 0.485000 0.585000 1500 54 1.100000 3.257000 3.598000 600 69 1.000000 0.055000 0.055000 1.200000 0.060000 0.072000
1517207021104775981	1300 64 1.200000 0.479000 0.578000 1500 54 1.100000 3.271000 3.614000 600 69 1.000000 0.055000 0.055000 1.200000 0.061000 0.073000
1517207021628773481	1300 63 1.200000 0.490000 0.591000 1500 53 1.100000 3.266000 3.608000 600 69 1.000000 0.055000 0.055000 1.200000 0.051000 0.061000
1517207022153173981	1300 64 1.200000 0.482000 0.581000 1500 54 1.100000 3.259000 3.601000 600 68 1.000000 0.055000 0.055000 1.200000 0.067000 0.081000
1517207022664925773	1300 63 1.200000 0.495000 0.597000 1500 54 1.100000 3.120000 3.441000 600 68 1.000000 0.055000 0.055000 1.200000 0.090000 0.108000
1517207023176884815	1300 64 1.200000 0.497000 0.599000 1500 54 1.100000 3.100000 3.419000 600 68 1.000000 0.055000 0.055000 1.200000 0.094000 0.113000
1517207023692794940	1300 64 1.200000 0.487000 0.587000 1500 54 1.100000 3.171000 3.497000 600 68 1.000000 0.055000 0.055000 1.200000 0.089000 0.107000
1517207024204807273	1300 64 1.200000 0.488000 0.589000 1500 54 1.100000 3.149000 3.473000 600 68 1.000000 0.055000 0.055000 1.200000 0.081000 0.098000
1517207024728781106	1300 63 1.200000 0.482000 0.581000 1500 54 1.100000 3.212000 3.549000 600 68 1.000000 0.055000 0.055000 1.200000 0.086000 0.104000
1517207025252927481	1300 63 1.200000 0.493000 0.595000 1500 54 1.100000 3.150000 3.474000 600 67 1.000000 0.055000 0.055000 1.200000 0.080000 0.096000
1517207025768891773	1300 63 1.200000 0.489000 0.590000 1500 54 1.100000 3.154000 3.478000 600 68 1.000000 0.055000 0.055000 1.200000 0.089000 0.107000
1517207026284779440	1300 63 1.200000 0.492000 0.593000 1500 54 1.100000 3.212000 3.542000 600 68 1.000000 0.055000 0.055000 1.200000 0.085000 0.102000
1517207026816778773	1300 63 1.200000 0.475000 0.573000 1500 54 1.100000 3.172000 3.498000 600 67 1.000000 0.055000 0.055000 1.200000 0.097000 0.117000
1517207027340802982	1300 63 1.200000 0.474000 0.572000 1500 54 1.100000 3.124000 3.445000 600 68 1.000000 0.055000 0.055000 1.200000 0.109000 0.132000
1517207027861020023	1300 64 1.200000 0.492000 0.593000 1500 54 1.100000 3.204000 3.540000 600 68 1.000000 0.055000 0.055000 1.200000 0.078000 0.094000
1517207028372915607	1300 64 1.200000 0.486000 0.586000 1500 54 1.100000 3.212000 3.542000 600 68 1.000000 0.055000 0.055000 1.200000 0.071000 0.085000
1517207028885019315	1300 63 1.200000 0.493000 0.595000 1500 54 1.100000 3.196000 3.525000 600 68 1.000000 0.055000 0.055000 1.200000 0.078000 0.094000
1517207029396974107	1300 63 1.200000 0.496000 0.598000 1500 54 1.100000 3.124000 3.445000 600 68 1.000000 0.055000 0.055000 1.200000 0.089000 0.107000
1517207029908964274	1300 63 1.200000 0.497000 0.599000 1500 54 1.100000 3.158000 3.483000 600 68 1.000000 0.055000 0.055000 1.200000 0.081000 0.098000
1517207030421077065	1300 63 1.200000 0.488000 0.588000 1500 54 1.100000 3.167000 3.493000 600 69 1.000000 0.055000 0.055000 1.200000 0.086000 0.104000
1517207030932771566	1300 63 1.200000 0.494000 0.595000 1500 54 1.100000 3.223000 3.561000 600 69 1.000000 0.055000 0.055000 1.200000 0.062000 0.075000
1517207031456872232	1300 63 1.200000 0.498000 0.600000 1500 54 1.100000 3.226000 3.564000 600 69 1.000000 0.055000 0.055000 1.200000 0.061000 0.073000
1517207031980791232	1300 62 1.200000 0.495000 0.596000 1500 54 1.100000 3.244000 3.584000 600 69 1.000000 0.055000 0.055000 1.200000 0.064000 0.077000
1517207032516896399	1300 63 1.200000 0.491000 0.592000 1500 54 1.100000 3.213000 3.543000 600 68 1.000000 0.055000 0.055000 1.200000 0.073000 0.088000
1517207033036731274	1300 63 1.200000 0.497000 0.599000 1500 54 1.100000 3.181000 3.508000 600 68 1.000000 0.055000 0.055000 1.200000 0.077000 0.093000
1517207033560754066	1300 63 1.200000 0.503000 0.606000 1500 54 1.100000 3.197000 3.532000 600 69 1.000000 0.055000 0.055000 1.200000 0.067000 0.081000
1517207034084996483	1300 63 1.200000 0.487000 0.587000 1500 54 1.100000 3.242000 3.582000 600 68 1.000000 0.055000 0.055000 1.200000 0.070000 0.084000
1517207034596678358	1300 63 1.200000 0.498000 0.600000 1500 54 1.100000 3.215000 3.552000 600 69 1.000000 0.055000 0.055000 1.200000 0.063000 0.076000
1517207035120883774	1300 63 1.200000 0.493000 0.594000 1500 54 1.100000 3.234000 3.573000 600 69 1.000000 0.055000 0.055000 1.200000 0.060000 0.072000
1517207035657198399	1300 63 1.200000 0.498000 0.600000 1500 54 1.100000 3.218000 3.555000 600 69 1.000000 0.055000 0.055000 1.200000 0.065000 0.078000
1517207036168807691	1300 63 1.200000 0.497000 0.599000 1500 54 1.100000 3.229000 3.568000 600 69 1.000000 0.055000 0.055000 1.200000 0.061000 0.073000
1517207036692646816	1300 63 1.200000 0.496000 0.598000 1500 54 1.100000 3.254000 3.595000 600 69 1.000000 0.055000 0.055000 1.200000 0.058000 0.070000
1517207037204873066	1300 63 1.200000 0.496000 0.598000 1500 54 1.100000 3.277000 3.621000 600 69 1.000000 0.055000 0.055000 1.200000 0.048000 0.057000
1517207037728660983	1300 63 1.200000 0.497000 0.599000 1500 54 1.100000 3.228000 3.566000 600 69 1.000000 0.055000 0.055000 1.200000 0.065000 0.078000
1517207038236855400	1300 63 1.200000 0.497000 0.599000 1500 54 1.100000 3.275000 3.618000 600 69 1.000000 0.055000 0.055000 1.200000 0.049000 0.059000
1517207038756850941	1300 63 1.200000 0.499000 0.601000 1500 54 1.100000 3.206000 3.542000 600 69 1.000000 0.055000 0.055000 1.200000 0.065000 0.078000
1517207039276803858	1300 63 1.200000 0.498000 0.600000 1500 54 1.100000 3.203000 3.539000 600 69 1.000000 0.055000 0.055000 1.200000 0.068000 0.082000
1517207039796865067	1300 63 1.200000 0.494000 0.595000 1500 54 1.100000 3.226000 3.564000 600 69 1.000000 0.055000 0.055000 1.200000 0.071000 0.085000
1517207040316719567	1300 63 1.200000 0.497000 0.599000 1500 54 1.100000 3.249000 3.590000 600 69 1.000000 0.055000 0.055000 1.200000 0.064000 0.077000
1517207040836723650	1300 64 1.200000 0.499000 0.601000 1500 54 1.100000 3.263000 3.605000 600 69 1.000000 0.055000 0.055000 1.200000 0.048000 0.057000
1517207041356700275	1300 63 1.200000 0.449000 0.541000 1500 53 1.100000 3.212000 3.549000 600 69 1.000000 0.055000 0.055000 1.200000 0.114000 0.138000
1517207041876848650	1300 63 1.200000 0.449000 0.541000 1500 53 1.100000 3.244000 3.584000 600 69 1.000000 0.055000 0.055000 1.200000 0.084000 0.101000
1517207042396727234	1300 63 1.200000 0.459000 0.554000 1500 53 1.100000 3.271000 3.614000 600 69 1.000000 0.055000 0.055000 1.200000 0.076000 0.091000
1517207042916946942	1300 62 1.200000 0.461000 0.556000 1500 53 1.100000 3.137000 3.460000 600 69 1.000000 0.055000 0.055000 1.200000 0.107000 0.129000
1517207043440780650	1300 62 1.200000 0.461000 0.556000 1500 53 1.100000 3.200000 3.536000 600 69 1.000000 0.055000 0.055000 1.200000 0.088000 0.106000
1517207043964862109	1300 63 1.200000 0.476000 0.574000 1500 53 1.100000 3.161000 3.492000 600 69 1.000000 0.055000 0.055000 1.200000 0.094000 0.113000
1517207044517014067	1300 63 1.200000 0.455000 0.549000 1500 53 1.100000 3.235000 3.574000 600 69 1.000000 0.055000 0.055000 1.200000 0.084000 0.101000
1517207045068770359	1300 64 1.200000 0.573000 0.691000 1500 54 1.100000 3.251000 3.592000 600 69 1.000000 0.055000 0.055000 1.200000 0.086000 0.104000
1517207045624734484	1300 63 1.200000 0.588000 0.709000 1500 54 1.100000 3.154000 3.485000 600 69 1.000000 0.055000 0.055000 1.200000 0.104000 0.126000
1517207046180770942	1300 64 1.200000 0.579000 0.698000 1500 54 1.100000 3.242000 3.582000 600 69 1.000000 0.055000 0.055000 1.200000 0.088000 0.106000
1517207046736885776	1300 64 1.200000 0.597000 0.719000 1500 54 1.100000 3.243000 3.583000 600 69 1.000000 0.055000 0.055000 1.200000 0.085000 0.102000
1517207047296725567	1300 64 1.200000 0.582000 0.701000 1500 54 1.100000 3.244000 3.584000 600 69 1.000000 0.055000 0.055000 1.200000 0.092000 0.111000
1517207047856845609	1300 64 1.200000 0.577000 0.695000 1500 54 1.100000 3.267000 3.610000 600 69 1.000000 0.055000 0.055000 1.200000 0.085000 0.102000
1517207048408734443	1300 64 1.200000 0.584000 0.704000 1500 54 1.100000 3.263000 3.605000 600 69 1.000000 0.055000 0.055000 1.200000 0.087000 0.105000
1517207048964974443	1300 64 1.200000 0.565000 0.681000 1500 54 1.100000 3.107000 3.427000 600 69 1.000000 0.055000 0.055000 1.200000 0.121000 0.146000
1517207049524887693	1300 64 1.200000 0.587000 0.707000 1500 54 1.100000 3.214000 3.551000 600 69 1.000000 0.055000 0.055000 1.200000 0.092000 0.111000
1517207050088830109	1300 64 1.200000 0.580000 0.699000 1500 54 1.100000 3.236000 3.575000 600 69 1.000000 0.055000 0.055000 1.200000 0.093000 0.112000
1517207050656848443	1300 64 1.200000 0.568000 0.685000 1500 54 1.100000 3.210000 3.547000 600 69 1.000000 0.055000 0.055000 1.200000 0.093000 0.112000
1517207051216909068	1300 64 1.200000 0.576000 0.694000 1500 54 1.100000 3.136000 3.459000 600 68 1.000000 0.055000 0.055000 1.200000 0.115000 0.139000
1517207051776869901	1300 64 1.200000 0.594000 0.716000 1500 54 1.100000 3.190000 3.524000 600 69 1.000000 0.055000 0.055000 1.200000 0.110000 0.133000
1517207052328916818	1300 64 1.200000 0.572000 0.689000 1500 54 1.100000 3.204000 3.540000 600 68 1.000000 0.055000 0.055000 1.200000 0.092000 0.111000
1517207052864759943	1300 64 1.200000 0.588000 0.709000 1500 54 1.100000 3.228000 3.560000 600 69 1.000000 0.055000 0.055000 1.200000 0.096000 0.116000
1517207053428904652	1300 65 1.200000 0.562000 0.677000 1500 54 1.100000 3.242000 3.575000 600 69 1.000000 0.055000 0.055000 1.200000 0.100000 0.121000
1517207053978636110	1300 64 1.200000 0.601000 0.724000 1500 55 1.100000 3.223000 3.554000 600 69 1.000000 0.055000 0.055000 1.200000 0.104000 0.125000
1517207054525002652	1300 64 1.200000 0.591000 0.712000 1500 54 1.100000 3.179000 3.506000 600 69 1.000000 0.055000 0.055000 1.200000 0.102000 0.123000
1517207055077122902	1300 64 1.200000 0.592000 0.713000 1500 55 1.100000 3.094000 3.412000 600 68 1.000000 0.055000 0.055000 1.200000 0.107000 0.129000
1517207055632951318	1300 64 1.200000 0.597000 0.719000 1500 54 1.100000 3.025000 3.336000 600 68 1.000000 0.055000 0.055000 1.200000 0.105000 0.127000
1517207056188855777	1300 64 1.200000 0.599000 0.721000 1500 55 1.100000 3.112000 3.432000 600 69 1.000000 0.055000 0.055000 1.200000 0.108000 0.130000
1517207056744843235	1300 64 1.200000 0.598000 0.720000 1500 55 1.100000 3.197000 3.532000 600 69 1.000000 0.055000 0.055000 1.200000 0.087000 0.105000
1517207057304833944	1300 64 1.200000 0.582000 0.701000 1500 55 1.100000 3.234000 3.573000 600 68 1.000000 0.055000 0.055000 1.200000 0.108000 0.130000
1517207057856853277	1300 64 1.200000 0.612000 0.737000 1500 55 1.100000 3.074000 3.390000 600 68 1.000000 0.055000 0.055000 1.200000 0.114000 0.138000
1517207058408785194	1300 65 1.200000 0.622000 0.749000 1500 55 1.100000 3.183000 3.517000 600 69 1.000000 0.055000 0.055000 1.200000 0.093000 0.112000
1517207058961029652	1300 64 1.200000 0.595000 0.716000 1500 55 1.100000 3.235000 3.574000 600 69 1.000000 0.055000 0.055000 1.200000 0.085000 0.102000
1517207059500759152	1300 65 1.200000 0.593000 0.715000 1500 55 1.100000 3.213000 3.550000 600 69 1.000000 0.055000 0.055000 1.200000 0.096000 0.116000
1517207060044724277	1300 64 1.200000 0.607000 0.731000 1500 55 1.100000 3.195000 3.530000 600 69 1.000000 0.055000 0.055000 1.200000 0.083000 0.100000
1517207060596921486	1300 65 1.200000 0.605000 0.729000 1500 55 1.100000 3.236000 3.575000 600 69 1.000000 0.055000 0.055000 1.200000 0.086000 0.104000
1517207061156834069	1300 65 1.200000 0.605000 0.729000 1500 55 1.100000 3.208000 3.544000 600 69 1.000000 0.055000 0.055000 1.200000 0.083000 0.100000
1517207061712833444	1300 64 1.200000 0.614000 0.739000 1500 55 1.100000 3.253000 3.594000 600 69 1.000000 0.055000 0.055000 1.200000 0.069000 0.083000
1517207062256878069	1300 65 1.200000 0.598000 0.720000 1500 55 1.100000 3.191000 3.526000 600 69 1.000000 0.055000 0.055000 1.200000 0.099000 0.119000
1517207062820813903	1300 65 1.200000 0.620000 0.747000 1500 55 1.100000 3.214000 3.551000 600 69 1.000000 0.055000 0.055000 1.200000 0.078000 0.094000
1517207063372736194	1300 65 1.200000 0.620000 0.747000 1500 55 1.100000 3.213000 3.550000 600 69 1.000000 0.055000 0.055000 1.200000 0.075000 0.090000
1517207063936859778	1300 65 1.200000 0.621000 0.748000 1500 55 1.100000 3.234000 3.573000 600 69 1.000000 0.055000 0.055000 1.200000 0.073000 0.088000
1517207064492803195	1300 65 1.200000 0.620000 0.747000 1500 55 1.100000 3.224000 3.562000 600 69 1.000000 0.055000 0.055000 1.200000 0.077000 0.093000
1517207065048925361	1300 64 1.200000 0.585000 0.705000 1500 55 1.100000 3.250000 3.591000 600 69 1.000000 0.055000 0.055000 1.200000 0.080000 0.096000
1517207065596709111	1300 65 1.200000 0.587000 0.707000 1500 55 1.100000 3.168000 3.500000 600 69 1.000000 0.055000 0.055000 1.200000 0.094000 0.113000
1517207066160808361	1300 64 1.200000 0.605000 0.729000 1500 55 1.100000 3.232000 3.564000 600 69 1.000000 0.055000 0.055000 1.200000 0.086000 0.104000
1517207066708868611	1300 65 1.200000 0.596000 0.718000 1500 55 1.100000 3.214000 3.551000 600 69 1.000000 0.055000 0.055000 1.200000 0.098000 0.118000
1517207067248881153	1300 65 1.200000 0.611000 0.736000 1500 55 1.100000 3.126000 3.447000 600 69 1.000000 0.055000 0.055000 1.200000 0.104000 0.126000
1517207067788773195	1300 64 1.200000 0.604000 0.728000 1500 55 1.100000 3.226000 3.564000 600 69 1.000000 0.055000 0.055000 1.200000 0.093000 0.112000
1517207068344863862	1300 65 1.200000 0.617000 0.744000 1500 55 1.100000 3.225000 3.563000 600 69 1.000000 0.055000 0.055000 1.200000 0.078000 0.094000
1517207068896842445	1300 65 1.200000 0.608000 0.733000 1500 55 1.100000 3.266000 3.608000 600 69 1.000000 0.055000 0.055000 1.200000 0.077000 0.093000
1517207069456811112	1300 65 1.200000 0.609000 0.733000 1500 55 1.100000 3.112000 3.432000 600 69 1.000000 0.055000 0.055000 1.200000 0.110000 0.133000
1517207070020872404	1300 64 1.200000 0.618000 0.744000 1500 55 1.100000 3.200000 3.529000 600 69 1.000000 0.055000 0.055000 1.200000 0.092000 0.111000
1517207070580847820	1300 65 1.200000 0.605000 0.729000 1500 55 1.100000 3.220000 3.551000 600 68 1.000000 0.055000 0.055000 1.200000 0.088000 0.106000
1517207071140759070	1300 65 1.200000 0.620000 0.747000 1500 55 1.100000 3.203000 3.532000 600 69 1.000000 0.056000 0.056000 1.200000 0.080000 0.096000
1517207071700820487	1300 65 1.200000 0.608000 0.732000 1500 55 1.100000 3.240000 3.580000 600 69 1.000000 0.055000 0.055000 1.200000 0.076000 0.091000
1517207072256688987	1300 65 1.200000 0.606000 0.730000 1500 55 1.100000 3.217000 3.554000 600 69 1.000000 0.055000 0.055000 1.200000 0.083000 0.100000
1517207072804793029	1300 65 1.200000 0.607000 0.731000 1500 55 1.100000 3.278000 3.622000 600 69 1.000000 0.055000 0.055000 1.200000 0.075000 0.090000
1517207073360699071	1300 65 1.200000 0.621000 0.748000 1500 55 1.100000 3.254000 3.595000 600 69 1.000000 0.055000 0.055000 1.200000 0.065000 0.078000
1517207073916828529	1300 65 1.200000 0.611000 0.736000 1500 55 1.100000 3.271000 3.614000 600 69 1.000000 0.055000 0.055000 1.200000 0.073000 0.088000
1517207074476839071	1300 65 1.200000 0.628000 0.756000 1500 55 1.100000 3.223000 3.554000 600 69 1.000000 0.055000 0.055000 1.200000 0.074000 0.089000
1517207075028737987	1300 65 1.200000 0.613000 0.738000 1500 55 1.100000 3.208000 3.544000 600 69 1.000000 0.055000 0.055000 1.200000 0.086000 0.104000
1517207075580782529	1300 65 1.200000 0.617000 0.743000 1500 55 1.100000 3.217000 3.548000 600 69 1.000000 0.055000 0.055000 1.200000 0.071000 0.085000
1517207076140845613	1300 65 1.200000 0.614000 0.739000 1500 55 1.100000 3.188000 3.516000 600 69 1.000000 0.055000 0.055000 1.200000 0.065000 0.078000
1517207076692697238	1300 65 1.200000 0.619000 0.745000 1500 55 1.100000 3.192000 3.520000 600 69 1.000000 0.055000 0.055000 1.200000 0.082000 0.099000
1517207077248754321	1300 65 1.200000 0.625000 0.753000 1500 55 1.100000 3.252000 3.593000 600 69 1.000000 0.055000 0.055000 1.200000 0.058000 0.070000
1517207077812807238	1300 65 1.200000 0.584000 0.704000 1500 55 1.100000 3.267000 3.603000 600 70 1.000000 0.055000 0.055000 1.200000 0.092000 0.111000
1517207078372729446	1300 65 1.200000 0.600000 0.723000 1500 55 1.100000 3.282000 3.626000 600 69 1.000000 0.055000 0.055000 1.200000 0.073000 0.088000
1517207078936837446	1300 64 1.200000 0.612000 0.737000 1500 55 1.100000 3.227000 3.565000 600 69 1.000000 0.055000 0.055000 1.200000 0.066000 0.079000
1517207079496786863	1300 64 1.200000 0.594000 0.715000 1500 55 1.100000 3.207000 3.537000 600 69 1.000000 0.055000 0.055000 1.200000 0.092000 0.111000
1517207080056811155	1300 64 1.200000 0.602000 0.725000 1500 55 1.100000 3.186000 3.514000 600 69 1.000000 0.055000 0.055000 1.200000 0.096000 0.116000
1517207080612826946	1300 65 1.200000 0.604000 0.727000 1500 55 1.100000 3.181000 3.508000 600 69 1.000000 0.055000 0.055000 1.200000 0.106000 0.128000
1517207081180813530	1300 64 1.200000 0.612000 0.737000 1500 55 1.100000 3.243000 3.577000 600 69 1.000000 0.055000 0.055000 1.200000 0.076000 0.091000
1517207081740821447	1300 65 1.200000 0.608000 0.732000 1500 55 1.100000 3.243000 3.583000 600 69 1.000000 0.055000 0.055000 1.200000 0.077000 0.093000
1517207082300801488	1300 64 1.200000 0.597000 0.719000 1500 55 1.100000 3.260000 3.602000 600 69 1.000000 0.055000 0.055000 1.200000 0.070000 0.084000
1517207082856797947	1300 65 1.200000 0.613000 0.738000 1500 55 1.100000 3.246000 3.586000 600 69 1.000000 0.055000 0.055000 1.200000 0.081000 0.098000
1517207083408764322	1300 65 1.200000 0.613000 0.738000 1500 55 1.100000 3.243000 3.583000 600 70 1.000000 0.055000 0.055000 1.200000 0.072000 0.087000
1517207083964757613	1300 65 1.200000 0.597000 0.719000 1500 55 1.100000 3.270000 3.613000 600 70 1.000000 0.055000 0.055000 1.200000 0.076000 0.091000
1517207084520747155	1300 64 1.200000 0.616000 0.742000 1500 55 1.100000 3.280000 3.624000 600 70 1.000000 0.055000 0.055000 1.200000 0.056000 0.067000
1517207085068712405	1300 65 1.200000 0.617000 0.743000 1500 55 1.100000 3.248000 3.582000 600 70 1.000000 0.055000 0.055000 1.200000 0.072000 0.087000
1517207085620819572	1300 65 1.200000 0.625000 0.753000 1500 55 1.100000 3.263000 3.605000 600 70 1.000000 0.055000 0.055000 1.200000 0.055000 0.066000
1517207086180748364	1300 65 1.200000 0.620000 0.747000 1500 55 1.100000 3.272000 3.615000 600 70 1.000000 0.055000 0.055000 1.200000 0.063000 0.076000
1517207086744729905	1300 65 1.200000 0.623000 0.750000 1500 55 1.100000 3.245000 3.585000 600 70 1.000000 0.055000 0.055000 1.200000 0.058000 0.070000
1517207087308795989	1300 65 1.200000 0.603000 0.726000 1500 55 1.100000 3.213000 3.550000 600 69 1.000000 0.055000 0.055000 1.200000 0.079000 0.095000
1517207087864838697	1300 65 1.200000 0.625000 0.753000 1500 55 1.100000 3.271000 3.607000 600 69 1.000000 0.055000 0.055000 1.200000 0.063000 0.076000
1517207088412765031	1300 65 1.200000 0.606000 0.730000 1500 55 1.100000 3.280000 3.624000 600 70 1.000000 0.055000 0.055000 1.200000 0.073000 0.088000
1517207088964814489	1300 65 1.200000 0.608000 0.732000 1500 55 1.100000 3.272000 3.609000 600 70 1.000000 0.055000 0.055000 1.200000 0.059000 0.071000
1517207089524674614	1300 65 1.200000 0.622000 0.749000 1500 55 1.100000 3.226000 3.558000 600 70 1.000000 0.055000 0.055000 1.200000 0.073000 0.088000
1517207090076668948	1300 65 1.200000 0.627000 0.755000 1500 55 1.100000 3.269000 3.605000 600 70 1.000000 0.055000 0.055000 1.200000 0.055000 0.066000
1517207090632748031	1300 65 1.200000 0.621000 0.748000 1500 55 1.100000 3.271000 3.607000 600 70 1.000000 0.055000 0.055000 1.200000 0.058000 0.070000
1517207091188800989	1300 65 1.200000 0.622000 0.749000 1500 55 1.100000 3.227000 3.565000 600 70 1.000000 0.055000 0.055000 1.200000 0.047000 0.056000
1517207091748730989	1300 65 1.200000 0.629000 0.757000 1500 55 1.100000 3.258000 3.600000 600 70 1.000000 0.055000 0.055000 1.200000 0.050000 0.060000
1517207092304729281	1300 65 1.200000 0.629000 0.757000 1500 55 1.100000 3.278000 3.622000 600 70 1.000000 0.055000 0.055000 1.200000 0.056000 0.067000
1517207092856647323	1300 65 1.200000 0.629000 0.757000 1500 55 1.100000 3.268000 3.611000 600 70 1.000000 0.055000 0.055000 1.200000 0.052000 0.062000
1517207093412694906	1300 65 1.200000 0.626000 0.754000 1500 55 1.100000 3.274000 3.617000 600 70 1.000000 0.055000 0.055000 1.200000 0.054000 0.065000
1517207093968772573	1300 65 1.200000 0.620000 0.747000 1500 55 1.100000 3.285000 3.629000 600 70 1.000000 0.055000 0.055000 1.200000 0.056000 0.067000
1517207094516763365	1300 65 1.200000 0.633000 0.762000 1500 55 1.100000 3.263000 3.605000 600 70 1.000000 0.055000 0.055000 1.200000 0.051000 0.061000
1517207095068747115	1300 65 1.200000 0.622000 0.749000 1500 55 1.100000 3.262000 3.604000 600 70 1.000000 0.055000 0.055000 1.200000 0.050000 0.060000
1517207095612922698	1300 65 1.200000 0.627000 0.755000 1500 55 1.100000 3.273000 3.616000 600 70 1.000000 0.055000 0.055000 1.200000 0.052000 0.062000
1517207096164803032	1300 65 1.200000 0.627000 0.755000 1500 55 1.100000 3.225000 3.563000 600 69 1.000000 0.055000 0.055000 1.200000 0.047000 0.056000
1517207096724732198	1300 65 1.200000 0.634000 0.763000 1500 55 1.100000 3.255000 3.596000 600 70 1.000000 0.055000 0.055000 1.200000 0.052000 0.062000
1517207097280778157	1300 65 1.200000 0.623000 0.750000 1500 55 1.100000 3.177000 3.504000 600 70 1.000000 0.055000 0.055000 1.200000 0.075000 0.090000
1517207097840675032	1300 65 1.200000 0.614000 0.739000 1500 55 1.100000 3.131000 3.453000 600 69 1.000000 0.055000 0.055000 1.200000 0.082000 0.099000
1517207098392801532	1300 65 1.200000 0.626000 0.754000 1500 55 1.100000 3.189000 3.523000 600 70 1.000000 0.056000 0.056000 1.200000 0.071000 0.085000
1517207098940970532	1300 65 1.200000 0.633000 0.762000 1500 55 1.100000 3.253000 3.594000 600 70 1.000000 0.055000 0.055000 1.200000 0.059000 0.071000
1517207099500786199	1300 65 1.200000 0.627000 0.755000 1500 55 1.100000 3.243000 3.583000 600 70 1.000000 0.055000 0.055000 1.200000 0.059000 0.071000
1517207100060866240	1300 65 1.200000 0.621000 0.748000 1500 55 1.100000 3.241000 3.574000 600 70 1.000000 0.055000 0.055000 1.200000 0.063000 0.076000
1517207100620769282	1300 65 1.200000 0.616000 0.742000 1500 55 1.100000 3.151000 3.475000 600 69 1.000000 0.055000 0.055000 1.200000 0.082000 0.099000
1517207101176815407	1300 65 1.200000 0.613000 0.738000 1500 55 1.100000 3.206000 3.542000 600 68 1.000000 0.055000 0.055000 1.200000 0.081000 0.098000
1517207101736748324	1300 65 1.200000 0.628000 0.756000 1500 55 1.100000 3.152000 3.476000 600 69 1.000000 0.055000 0.055000 1.200000 0.076000 0.091000
1517207102292656449	1300 65 1.200000 0.622000 0.749000 1500 55 1.100000 3.223000 3.554000 600 69 1.000000 0.055000 0.055000 1.200000 0.075000 0.090000
1517207102848795824	1300 65 1.200000 0.621000 0.748000 1500 55 1.100000 3.120000 3.441000 600 69 1.000000 0.055000 0.055000 1.200000 0.088000 0.106000
1517207103412993782	1300 65 1.200000 0.627000 0.755000 1500 55 1.100000 3.154000 3.478000 600 69 1.000000 0.055000 0.055000 1.200000 0.093000 0.112000
1517207103968783783	1300 65 1.200000 0.632000 0.761000 1500 55 1.100000 3.171000 3.497000 600 69 1.000000 0.055000 0.055000 1.200000 0.085000 0.102000
1517207104528834533	1300 65 1.200000 0.630000 0.759000 1500 55 1.100000 3.200000 3.529000 600 69 1.000000 0.055000 0.055000 1.200000 0.092000 0.111000
1517207105088870324	1300 65 1.200000 0.636000 0.766000 1500 55 1.100000 3.208000 3.538000 600 69 1.000000 0.055000 0.055000 1.200000 0.082000 0.099000
1517207105648793408	1300 65 1.200000 0.636000 0.766000 1500 55 1.100000 3.231000 3.570000 600 70 1.000000 0.056000 0.056000 1.200000 0.068000 0.082000
1517207106204786116	1300 65 1.200000 0.625000 0.753000 1500 55 1.100000 3.203000 3.532000 600 69 1.000000 0.055000 0.055000 1.200000 0.078000 0.094000
1517207106764895325	1300 65 1.200000 0.613000 0.738000 1500 55 1.100000 3.255000 3.590000 600 69 1.000000 0.055000 0.055000 1.200000 0.070000 0.084000
1517207107324787408	1300 65 1.200000 0.577000 0.695000 1500 55 1.100000 3.191000 3.526000 600 70 1.000000 0.055000 0.055000 1.200000 0.098000 0.118000
1517207107880903491	1300 65 1.200000 0.594000 0.715000 1500 55 1.100000 3.254000 3.595000 600 70 1.000000 0.055000 0.055000 1.200000 0.087000 0.105000
1517207108436756283	1300 65 1.200000 0.592000 0.713000 1500 55 1.100000 3.228000 3.566000 600 69 1.000000 0.055000 0.055000 1.200000 0.090000 0.108000
1517207108996836408	1300 65 1.200000 0.579000 0.697000 1500 55 1.100000 3.202000 3.531000 600 69 1.000000 0.055000 0.055000 1.200000 0.107000 0.129000
1517207109548662992	1300 65 1.200000 0.613000 0.738000 1500 55 1.100000 3.215000 3.552000 600 70 1.000000 0.055000 0.055000 1.200000 0.082000 0.099000
1517207110104802658	1300 65 1.200000 0.613000 0.738000 1500 55 1.100000 3.220000 3.558000 600 69 1.000000 0.056000 0.056000 1.200000 0.078000 0.094000
1517207110652870117	1300 65 1.200000 0.610000 0.735000 1500 55 1.100000 3.245000 3.585000 600 70 1.000000 0.056000 0.056000 1.200000 0.088000 0.106000
1517207111212812742	1300 65 1.200000 0.600000 0.723000 1500 55 1.100000 3.160000 3.485000 600 69 1.000000 0.055000 0.055000 1.200000 0.100000 0.121000
1517207111764723408	1300 65 1.200000 0.599000 0.721000 1500 55 1.100000 3.200000 3.536000 600 70 1.000000 0.055000 0.055000 1.200000 0.093000 0.112000
1517207112320760867	1300 65 1.200000 0.621000 0.748000 1500 55 1.100000 3.235000 3.574000 600 70 1.000000 0.055000 0.055000 1.200000 0.069000 0.083000
1517207112872782909	1300 65 1.200000 0.622000 0.749000 1500 55 1.100000 3.261000 3.603000 600 70 1.000000 0.055000 0.055000 1.200000 0.068000 0.082000
1517207113436715117	1300 65 1.200000 0.629000 0.757000 1500 55 1.100000 3.279000 3.623000 600 70 1.000000 0.055000 0.055000 1.200000 0.053000 0.064000
1517207113988838742	1300 65 1.200000 0.612000 0.737000 1500 55 1.100000 3.260000 3.602000 600 70 1.000000 0.055000 0.055000 1.200000 0.065000 0.078000
1517207114540719200	1300 65 1.200000 0.628000 0.756000 1500 55 1.100000 3.241000 3.581000 600 69 1.000000 0.055000 0.055000 1.200000 0.070000 0.084000
1517207115100744451	1300 65 1.200000 0.621000 0.748000 1500 55 1.100000 3.258000 3.600000 600 69 1.000000 0.056000 0.056000 1.200000 0.068000 0.082000
1517207115644659034	1300 65 1.200000 0.614000 0.739000 1500 55 1.100000 3.272000 3.615000 600 70 1.000000 0.055000 0.055000 1.200000 0.076000 0.091000
1517207116196771409	1300 65 1.200000 0.616000 0.742000 1500 55 1.100000 3.282000 3.626000 600 70 1.000000 0.055000 0.055000 1.200000 0.060000 0.072000
1517207116748741326	1300 65 1.200000 0.618000 0.744000 1500 55 1.100000 3.240000 3.580000 600 70 1.000000 0.055000 0.055000 1.200000 0.068000 0.082000
1517207117308833242	1300 65 1.200000 0.630000 0.759000 1500 55 1.100000 3.262000 3.604000 600 70 1.000000 0.055000 0.055000 1.200000 0.052000 0.062000
1517207117860684576	1300 65 1.200000 0.626000 0.754000 1500 55 1.100000 3.248000 3.589000 600 70 1.000000 0.056000 0.056000 1.200000 0.065000 0.078000
1517207118420668201	1300 65 1.200000 0.622000 0.749000 1500 55 1.100000 3.291000 3.636000 600 70 1.000000 0.056000 0.056000 1.200000 0.055000 0.066000
1517207118968677826	1300 65 1.200000 0.628000 0.756000 1500 55 1.100000 3.269000 3.612000 600 70 1.000000 0.055000 0.055000 1.200000 0.060000 0.072000
1517207119528564618	1300 65 1.200000 0.625000 0.753000 1500 55 1.100000 3.228000 3.566000 600 69 1.000000 0.055000 0.055000 1.200000 0.054000 0.065000
1517207120076740493	1300 65 1.200000 0.619000 0.745000 1500 55 1.100000 3.210000 3.547000 600 70 1.000000 0.055000 0.055000 1.200000 0.080000 0.096000
1517207120632746785	1300 65 1.200000 0.629000 0.757000 1500 55 1.100000 3.281000 3.625000 600 70 1.000000 0.055000 0.055000 1.200000 0.048000 0.057000
1517207121176694160	1300 65 1.200000 0.631000 0.760000 1500 55 1.100000 3.180000 3.507000 600 70 1.000000 0.055000 0.055000 1.200000 0.062000 0.074000
1517207121732649326	1300 65 1.200000 0.630000 0.759000 1500 55 1.100000 3.245000 3.585000 600 70 1.000000 0.055000 0.055000 1.200000 0.048000 0.057000
1517207122288681868	1300 65 1.200000 0.625000 0.753000 1500 55 1.100000 3.252000 3.593000 600 70 1.000000 0.056000 0.056000 1.200000 0.062000 0.074000
1517207122852748451	1300 65 1.200000 0.623000 0.750000 1500 55 1.100000 3.282000 3.626000 600 69 1.000000 0.055000 0.055000 1.200000 0.053000 0.063000
1517207123416723077	1300 65 1.200000 0.631000 0.760000 1500 55 1.100000 3.280000 3.624000 600 70 1.000000 0.055000 0.055000 1.200000 0.057000 0.068000
1517207123972751910	1300 65 1.200000 0.637000 0.767000 1500 55 1.100000 3.271000 3.614000 600 70 1.000000 0.055000 0.055000 1.200000 0.047000 0.056000
1517207124528634035	1300 65 1.200000 0.626000 0.754000 1500 55 1.100000 3.271000 3.614000 600 70 1.000000 0.055000 0.055000 1.200000 0.049000 0.059000
1517207125084621535	1300 65 1.200000 0.629000 0.757000 1500 55 1.100000 3.278000 3.622000 600 70 1.000000 0.055000 0.055000 1.200000 0.048000 0.057000
1517207125636674535	1300 65 1.200000 0.615000 0.741000 1500 55 1.100000 3.280000 3.624000 600 70 1.000000 0.056000 0.056000 1.200000 0.059000 0.071000
1517207126188697494	1300 65 1.200000 0.623000 0.750000 1500 55 1.100000 3.271000 3.614000 600 70 1.000000 0.056000 0.056000 1.200000 0.046000 0.055000
1517207126740809285	1300 65 1.200000 0.621000 0.748000 1500 55 1.100000 3.282000 3.626000 600 69 1.000000 0.055000 0.055000 1.200000 0.055000 0.066000
1517207127292693410	1300 65 1.200000 0.631000 0.760000 1500 55 1.100000 3.163000 3.488000 600 70 1.000000 0.055000 0.055000 1.200000 0.074000 0.089000
1517207127856821577	1300 65 1.200000 0.625000 0.753000 1500 55 1.100000 3.252000 3.593000 600 70 1.000000 0.055000 0.055000 1.200000 0.072000 0.086000
1517207128416954327	1300 65 1.200000 0.622000 0.749000 1500 55 1.100000 3.258000 3.600000 600 70 1.000000 0.055000 0.055000 1.200000 0.062000 0.074000
1517207128972807244	1300 65 1.200000 0.604000 0.727000 1500 55 1.100000 3.284000 3.628000 600 70 1.000000 0.055000 0.055000 1.200000 0.067000 0.080000
1517207129524654911	1300 65 1.200000 0.618000 0.744000 1500 55 1.100000 3.246000 3.586000 600 70 1.000000 0.055000 0.055000 1.200000 0.065000 0.078000
1517207130076577119	1300 65 1.200000 0.625000 0.753000 1500 55 1.100000 3.261000 3.603000 600 69 1.000000 0.055000 0.055000 1.200000 0.069000 0.083000
1517207130640762077	1300 65 1.200000 0.620000 0.747000 1500 55 1.100000 3.215000 3.546000 600 69 1.000000 0.056000 0.056000 1.200000 0.067000 0.080000
1517207131204852327	1300 65 1.200000 0.620000 0.747000 1500 55 1.100000 3.240000 3.580000 600 70 1.000000 0.055000 0.055000 1.200000 0.062000 0.074000
1517207131752638453	1300 65 1.200000 0.615000 0.741000 1500 55 1.100000 3.285000 3.629000 600 69 1.000000 0.055000 0.055000 1.200000 0.059000 0.071000
1517207132308616661	1300 65 1.200000 0.598000 0.721000 1500 55 1.100000 3.243000 3.583000 600 70 1.000000 0.055000 0.055000 1.200000 0.071000 0.085000
1517207132868676286	1300 65 1.200000 0.617000 0.743000 1500 55 1.100000 3.283000 3.627000 600 70 1.000000 0.055000 0.055000 1.200000 0.059000 0.071000
1517207133424751369	1300 65 1.200000 0.620000 0.747000 1500 55 1.100000 3.271000 3.614000 600 70 1.000000 0.055000 0.055000 1.200000 0.061000 0.073000
1517207133980739286	1300 65 1.200000 0.613000 0.738000 1500 55 1.100000 3.249000 3.590000 600 70 1.000000 0.055000 0.055000 1.200000 0.066000 0.079000
1517207134528679453	1300 65 1.200000 0.619000 0.745000 1500 55 1.100000 3.254000 3.595000 600 70 1.000000 0.055000 0.055000 1.200000 0.062000 0.074000
1517207135092688036	1300 65 1.200000 0.629000 0.757000 1500 55 1.100000 3.271000 3.607000 600 70 1.000000 0.055000 0.055000 1.200000 0.061000 0.073000
1517207135652786786	1300 65 1.200000 0.623000 0.750000 1500 55 1.100000 3.257000 3.592000 600 70 1.000000 0.055000 0.055000 1.200000 0.063000 0.076000
1517207136208814911	1300 65 1.200000 0.623000 0.750000 1500 55 1.100000 3.252000 3.593000 600 70 1.000000 0.055000 0.055000 1.200000 0.065000 0.078000
1517207136768814953	1300 65 1.200000 0.622000 0.749000 1500 55 1.100000 3.238000 3.577000 600 70 1.000000 0.055000 0.055000 1.200000 0.078000 0.094000
1517207137324779078	1300 65 1.200000 0.628000 0.756000 1500 55 1.100000 3.201000 3.530000 600 70 1.000000 0.055000 0.055000 1.200000 0.067000 0.080000
1517207137884852203	1300 65 1.200000 0.611000 0.736000 1500 55 1.100000 3.183000 3.510000 600 70 1.000000 0.055000 0.055000 1.200000 0.092000 0.111000
1517207138444780120	1300 65 1.200000 0.625000 0.753000 1500 55 1.100000 3.224000 3.562000 600 70 1.000000 0.055000 0.055000 1.200000 0.089000 0.107000
1517207139004807287	1300 65 1.200000 0.626000 0.754000 1500 55 1.100000 3.263000 3.605000 600 70 1.000000 0.056000 0.056000 1.200000 0.067000 0.080000
1517207139572847078	1300 65 1.200000 0.625000 0.753000 1500 55 1.100000 3.276000 3.619000 600 70 1.000000 0.056000 0.056000 1.200000 0.069000 0.083000
1517207140132628704	1300 65 1.200000 0.626000 0.754000 1500 55 1.100000 3.278000 3.622000 600 70 1.000000 0.055000 0.055000 1.200000 0.055000 0.066000
1517207140684684745	1300 65 1.200000 0.632000 0.761000 1500 55 1.100000 3.283000 3.627000 600 70 1.000000 0.055000 0.055000 1.200000 0.047000 0.056000
1517207141240641537	1300 65 1.200000 0.622000 0.749000 1500 55 1.100000 3.228000 3.566000 600 70 1.000000 0.056000 0.056000 1.200000 0.048000 0.057000
1517207141796650329	1300 65 1.200000 0.623000 0.750000 1500 55 1.100000 3.203000 3.539000 600 70 1.000000 0.055000 0.055000 1.200000 0.071000 0.085000
1517207142348669495	1300 65 1.200000 0.631000 0.760000 1500 55 1.100000 3.245000 3.585000 600 70 1.000000 0.056000 0.056000 1.200000 0.042000 0.050000
1517207142896749537	1300 65 1.200000 0.633000 0.762000 1500 55 1.100000 3.261000 3.603000 600 70 1.000000 0.055000 0.055000 1.200000 0.054000 0.065000
1517207143460833454	1300 65 1.200000 0.633000 0.762000 1500 55 1.100000 3.272000 3.615000 600 70 1.000000 0.055000 0.055000 1.200000 0.049000 0.059000
1517207144020650912	1300 65 1.200000 0.635000 0.765000 1500 55 1.100000 3.278000 3.622000 600 70 1.000000 0.056000 0.056000 1.200000 0.049000 0.059000
1517207144576625121	1300 65 1.200000 0.635000 0.765000 1500 55 1.100000 3.285000 3.629000 600 70 1.000000 0.055000 0.055000 1.200000 0.041000 0.049000
1517207145136734079	1300 65 1.200000 0.632000 0.761000 1500 55 1.100000 3.290000 3.635000 600 70 1.000000 0.055000 0.055000 1.200000 0.046000 0.055000
1517207145696833121	1300 65 1.200000 0.633000 0.762000 1500 55 1.100000 3.262000 3.604000 600 70 1.000000 0.055000 0.055000 1.200000 0.046000 0.055000
1517207146236831413	1300 65 1.200000 0.628000 0.756000 1500 55 1.100000 3.274000 3.617000 600 70 1.000000 0.056000 0.056000 1.200000 0.054000 0.065000
1517207146796711038	1300 65 1.200000 0.637000 0.767000 1500 55 1.100000 3.258000 3.600000 600 70 1.000000 0.055000 0.055000 1.200000 0.047000 0.056000
1517207147352663371	1300 65 1.200000 0.629000 0.757000 1500 55 1.100000 3.268000 3.611000 600 70 1.000000 0.055000 0.055000 1.200000 0.053000 0.063000
1517207147908688621	1300 65 1.200000 0.629000 0.757000 1500 55 1.100000 3.269000 3.612000 600 70 1.000000 0.055000 0.055000 1.200000 0.049000 0.059000
1517207148464708705	1300 65 1.200000 0.632000 0.761000 1500 55 1.100000 3.269000 3.612000 600 70 1.000000 0.055000 0.055000 1.200000 0.057000 0.068000
1517207149020663996	1300 65 1.200000 0.637000 0.767000 1500 55 1.100000 3.283000 3.627000 600 70 1.000000 0.055000 0.055000 1.200000 0.040000 0.048000
1517207149588676121	1300 65 1.200000 0.626000 0.754000 1500 55 1.100000 3.285000 3.629000 600 70 1.000000 0.055000 0.055000 1.200000 0.048000 0.057000
1517207150152662580	1300 65 1.200000 0.621000 0.748000 1500 55 1.100000 3.294000 3.639000 600 70 1.000000 0.055000 0.055000 1.200000 0.047000 0.056000
1517207150688608330	1300 65 1.200000 0.622000 0.749000 1500 55 1.100000 3.288000 3.633000 600 70 1.000000 0.055000 0.055000 1.200000 0.053000 0.063000
1517207151236721663	1300 65 1.200000 0.629000 0.757000 1500 55 1.100000 3.287000 3.632000 600 70 1.000000 0.055000 0.055000 1.200000 0.055000 0.066000
1517207151780640997	1300 65 1.200000 0.626000 0.754000 1500 55 1.100000 3.281000 3.625000 600 70 1.000000 0.056000 0.056000 1.200000 0.050000 0.060000
1517207152330205747	1300 65 1.200000 0.625000 0.753000 1500 55 1.100000 3.252000 3.586000 600 69 1.000000 0.055000 0.055000 1.200000 0.055000 0.066000
1517207152888637413	1300 65 1.200000 0.601000 0.724000 1500 55 1.100000 3.264000 3.606000 600 70 1.000000 0.055000 0.055000 1.200000 0.064000 0.077000
1517207153448802913	1300 65 1.200000 0.625000 0.753000 1500 55 1.100000 3.284000 3.628000 600 70 1.000000 0.056000 0.056000 1.200000 0.055000 0.066000
1517207154000670497	1300 65 1.200000 0.628000 0.756000 1500 55 1.100000 3.281000 3.618000 600 70 1.000000 0.055000 0.055000 1.200000 0.053000 0.064000
1517207154564691414	1300 65 1.200000 0.632000 0.761000 1500 55 1.100000 3.285000 3.629000 600 70 1.000000 0.056000 0.056000 1.200000 0.052000 0.062000
1517207155112652664	1300 65 1.200000 0.627000 0.755000 1500 55 1.100000 3.215000 3.546000 600 70 1.000000 0.055000 0.055000 1.200000 0.075000 0.090000
1517207155664956164	1300 65 1.200000 0.636000 0.766000 1500 55 1.100000 3.274000 3.611000 600 70 1.000000 0.055000 0.055000 1.200000 0.051000 0.061000
1517207156224701289	1300 65 1.200000 0.631000 0.760000 1500 55 1.100000 3.287000 3.632000 600 70 1.000000 0.056000 0.056000 1.200000 0.054000 0.065000
1517207156780775747	1300 65 1.200000 0.625000 0.753000 1500 55 1.100000 3.278000 3.622000 600 70 1.000000 0.055000 0.055000 1.200000 0.051000 0.061000
1517207157340853081	1300 65 1.200000 0.621000 0.748000 1500 55 1.100000 3.271000 3.614000 600 70 1.000000 0.055000 0.055000 1.200000 0.061000 0.073000
1517207157896825872	1300 65 1.200000 0.623000 0.750000 1500 55 1.100000 3.266000 3.608000 600 70 1.000000 0.055000 0.055000 1.200000 0.056000 0.067000
1517207158448665747	1300 65 1.200000 0.628000 0.756000 1500 55 1.100000 3.206000 3.536000 600 70 1.000000 0.055000 0.055000 1.200000 0.068000 0.082000
1517207158996676914	1300 65 1.200000 0.629000 0.757000 1500 55 1.100000 3.264000 3.606000 600 70 1.000000 0.056000 0.056000 1.200000 0.054000 0.065000
1517207159552871581	1300 65 1.200000 0.615000 0.741000 1500 55 1.100000 3.262000 3.604000 600 70 1.000000 0.055000 0.055000 1.200000 0.064000 0.077000
1517207160104764789	1300 65 1.200000 0.628000 0.756000 1500 55 1.100000 3.261000 3.603000 600 70 1.000000 0.056000 0.056000 1.200000 0.071000 0.085000
1517207160664677539	1300 65 1.200000 0.629000 0.757000 1500 55 1.100000 3.265000 3.607000 600 70 1.000000 0.055000 0.055000 1.200000 0.066000 0.079000
1517207161224765248	1300 65 1.200000 0.635000 0.765000 1500 55 1.100000 3.266000 3.608000 600 70 1.000000 0.055000 0.055000 1.200000 0.049000 0.059000
1517207161776719998	1300 65 1.200000 0.635000 0.765000 1500 55 1.100000 3.266000 3.608000 600 70 1.000000 0.055000 0.055000 1.200000 0.050000 0.060000
1517207162336744915	1300 65 1.200000 0.636000 0.766000 1500 55 1.100000 3.266000 3.608000 600 70 1.000000 0.055000 0.055000 1.200000 0.050000 0.060000
1517207162892817581	1300 65 1.200000 0.632000 0.761000 1500 55 1.100000 3.232000 3.571000 600 70 1.000000 0.056000 0.056000 1.200000 0.060000 0.072000
1517207163444636081	1300 65 1.200000 0.633000 0.762000 1500 55 1.100000 3.189000 3.517000 600 70 1.000000 0.055000 0.055000 1.200000 0.055000 0.066000
1517207163996794081	1300 65 1.200000 0.635000 0.765000 1500 55 1.100000 3.269000 3.612000 600 70 1.000000 0.055000 0.055000 1.200000 0.042000 0.050000
1517207164564771498	1300 65 1.200000 0.638000 0.768000 1500 55 1.100000 3.252000 3.593000 600 70 1.000000 0.055000 0.055000 1.200000 0.052000 0.062000
1517207165124714290	1300 65 1.200000 0.631000 0.760000 1500 55 1.100000 3.277000 3.621000 600 70 1.000000 0.055000 0.055000 1.200000 0.053000 0.063000
1517207165680761582	1300 65 1.200000 0.632000 0.761000 1500 55 1.100000 3.258000 3.600000 600 70 1.000000 0.055000 0.055000 1.200000 0.060000 0.072000
1517207166244831207	1300 65 1.200000 0.634000 0.763000 1500 55 1.100000 3.253000 3.588000 600 69 1.000000 0.055000 0.055000 1.200000 0.061000 0.073000
1517207166812762873	1300 65 1.200000 0.637000 0.767000 1500 55 1.100000 3.243000 3.577000 600 69 1.000000 0.055000 0.055000 1.200000 0.051000 0.061000
1517207167372754373	1300 65 1.200000 0.631000 0.760000 1500 55 1.100000 3.264000 3.600000 600 70 1.000000 0.055000 0.055000 1.200000 0.052000 0.062000
1517207167932782040	1300 65 1.200000 0.633000 0.762000 1500 55 1.100000 3.254000 3.595000 600 70 1.000000 0.056000 0.056000 1.200000 0.050000 0.060000
1517207168488720790	1300 65 1.200000 0.627000 0.755000 1500 55 1.100000 3.251000 3.592000 600 69 1.000000 0.055000 0.055000 1.200000 0.058000 0.070000
1517207169048748790	1300 65 1.200000 0.634000 0.763000 1500 55 1.100000 3.265000 3.607000 600 70 1.000000 0.055000 0.055000 1.200000 0.045000 0.054000
1517207169604765707	1300 65 1.200000 0.633000 0.762000 1500 55 1.100000 3.280000 3.624000 600 70 1.000000 0.055000 0.055000 1.200000 0.042000 0.050000
1517207170160800624	1300 65 1.200000 0.633000 0.762000 1500 55 1.100000 3.284000 3.628000 600 70 1.000000 0.055000 0.055000 1.200000 0.038000 0.045000
1517207170712606291	1300 65 1.200000 0.634000 0.763000 1500 55 1.100000 3.265000 3.607000 600 70 1.000000 0.056000 0.056000 1.200000 0.049000 0.059000
1517207171264602541	1300 65 1.200000 0.633000 0.762000 1500 55 1.100000 3.282000 3.626000 600 70 1.000000 0.056000 0.056000 1.200000 0.045000 0.054000
1517207171824778082	1300 65 1.200000 0.635000 0.765000 1500 55 1.100000 3.282000 3.626000 600 70 1.000000 0.055000 0.055000 1.200000 0.054000 0.065000
1517207172384769291	1300 65 1.200000 0.634000 0.763000 1500 55 1.100000 3.239000 3.572000 600 70 1.000000 0.055000 0.055000 1.200000 0.061000 0.073000
1517207172944881874	1300 65 1.200000 0.610000 0.735000 1500 55 1.100000 3.271000 3.614000 600 70 1.000000 0.055000 0.055000 1.200000 0.062000 0.074000
1517207173500827041	1300 65 1.200000 0.631000 0.760000 1500 55 1.100000 3.223000 3.561000 600 70 1.000000 0.055000 0.055000 1.200000 0.044000 0.053000
1517207174056703333	1300 65 1.200000 0.618000 0.744000 1500 55 1.100000 3.231000 3.563000 600 69 1.000000 0.055000 0.055000 1.200000 0.050000 0.060000
1517207174612764249	1300 65 1.200000 0.638000 0.768000 1500 55 1.100000 3.257000 3.592000 600 70 1.000000 0.056000 0.056000 1.200000 0.044000 0.053000
1517207175168718666	1300 65 1.200000 0.623000 0.750000 1500 55 1.100000 3.263000 3.605000 600 70 1.000000 0.055000 0.055000 1.200000 0.047000 0.056000
1517207175728721166	1300 65 1.200000 0.630000 0.759000 1500 55 1.100000 3.262000 3.604000 600 70 1.000000 0.055000 0.055000 1.200000 0.055000 0.066000
1517207176292813833	1300 65 1.200000 0.635000 0.765000 1500 55 1.100000 3.277000 3.614000 600 70 1.000000 0.055000 0.055000 1.200000 0.041000 0.049000
1517207176836629125	1300 65 1.200000 0.635000 0.765000 1500 55 1.100000 3.260000 3.595000 600 70 1.000000 0.055000 0.055000 1.200000 0.045000 0.054000
1517207177388674500	1300 65 1.200000 0.636000 0.766000 1500 55 1.100000 3.280000 3.624000 600 70 1.000000 0.055000 0.055000 1.200000 0.044000 0.053000
1517207177952704208	1300 65 1.200000 0.636000 0.766000 1500 55 1.100000 3.283000 3.621000 600 70 1.000000 0.055000 0.055000 1.200000 0.043000 0.051000
1517207178512643250	1300 65 1.200000 0.629000 0.757000 1500 55 1.100000 3.251000 3.585000 600 70 1.000000 0.055000 0.055000 1.200000 0.047000 0.056000
1517207179060689208	1300 65 1.200000 0.627000 0.755000 1500 55 1.100000 3.288000 3.633000 600 70 1.000000 0.055000 0.055000 1.200000 0.042000 0.050000
1517207179604806000	1300 65 1.200000 0.631000 0.760000 1500 55 1.100000 3.284000 3.628000 600 69 1.000000 0.055000 0.055000 1.200000 0.055000 0.066000
1517207180160756958	1300 65 1.200000 0.626000 0.754000 1500 55 1.100000 3.134000 3.456000 600 70 1.000000 0.056000 0.056000 1.200000 0.088000 0.106000
1517207180712638125	1300 65 1.200000 0.621000 0.748000 1500 55 1.100000 3.215000 3.546000 600 70 1.000000 0.055000 0.055000 1.200000 0.070000 0.084000
1517207181272807458	1300 65 1.200000 0.625000 0.753000 1500 55 1.100000 3.279000 3.623000 600 70 1.000000 0.055000 0.055000 1.200000 0.057000 0.068000
1517207181824805292	1300 65 1.200000 0.625000 0.753000 1500 55 1.100000 3.289000 3.634000 600 70 1.000000 0.056000 0.056000 1.200000 0.060000 0.072000
1517207182384850375	1300 65 1.200000 0.633000 0.762000 1500 55 1.100000 3.289000 3.634000 600 70 1.000000 0.055000 0.055000 1.200000 0.055000 0.066000
1517207182936815792	1300 65 1.200000 0.617000 0.743000 1500 55 1.100000 3.236000 3.569000 600 69 1.000000 0.055000 0.055000 1.200000 0.063000 0.076000
1517207183441795917	1300 56 1.200000 0.633000 0.762000 1500 53 1.100000 2.742000 3.021000 600 60 1.000000 0.055000 0.055000 1.200000 0.063000 0.076000
1517207183946436375	1300 53 1.200000 0.540000 0.651000 1500 51 1.100000 0.242000 0.266000 600 55 1.000000 0.055000 0.055000 1.200000 0.035000 0.042000
1517207184451123875	1300 50 1.200000 0.442000 0.533000 1500 49 1.000000 0.413000 0.453000 600 53 1.000000 0.055000 0.055000 1.200000 0.030000 0.036000
1517207184955765126	1300 49 1.200000 0.357000 0.431000 1500 48 1.100000 0.219000 0.240000 600 51 1.000000 0.054000 0.054000 1.200000 0.028000 0.033000
1517207185460212501	1300 48 1.200000 0.356000 0.430000 1500 46 1.100000 0.207000 0.227000 600 50 1.000000 0.054000 0.054000 1.200000 0.028000 0.033000
1517207185964667834	1300 47 1.200000 0.354000 0.427000 1500 45 1.100000 0.210000 0.231000 600 49 1.000000 0.054000 0.054000 1.200000 0.031000 0.037000
1517207186469069126	1300 46 1.200000 0.355000 0.428000 1500 45 1.100000 0.198000 0.217000 600 48 1.000000 0.054000 0.054000 1.200000 0.025000 0.030000
1517207186973657251	1300 45 1.200000 0.355000 0.428000 1500 44 1.100000 0.200000 0.220000 600 47 1.000000 0.053000 0.053000 1.200000 0.026000 0.031000
1517207187478328501	1300 45 1.200000 0.355000 0.428000 1500 43 1.100000 0.211000 0.232000 600 47 1.000000 0.053000 0.053000 1.200000 0.026000 0.031000
1517207187982757668	1300 44 1.200000 0.349000 0.421000 1500 43 1.100000 0.212000 0.233000 600 46 1.000000 0.053000 0.053000 1.200000 0.032000 0.038000
1517207188487526168	1300 44 1.200000 0.353000 0.426000 1500 42 1.100000 0.344000 0.378000 600 46 1.000000 0.053000 0.053000 1.200000 0.026000 0.031000
1517207188992071959	1300 44 1.200000 0.355000 0.428000 1500 42 1.100000 0.201000 0.221000 600 45 1.000000 0.053000 0.053000 1.200000 0.026000 0.031000
1517207189496561668	1300 43 1.200000 0.355000 0.428000 1500 42 1.100000 0.210000 0.231000 600 45 1.000000 0.053000 0.053000 1.200000 0.028000 0.033000
1517207190001056084	1300 43 1.200000 0.353000 0.426000 1500 41 1.100000 0.192000 0.211000 600 45 1.000000 0.053000 0.053000 1.200000 0.027000 0.032000
1517207190505536751	1300 43 1.200000 0.353000 0.427000 1500 41 1.100000 0.188000 0.206000 600 44 1.000000 0.053000 0.053000 1.200000 0.027000 0.032000
1517207191009914293	1300 42 1.200000 0.352000 0.425000 1500 41 1.100000 0.193000 0.212000 600 44 1.000000 0.053000 0.053000 1.200000 0.029000 0.035000
1517207191514300376	1300 42 1.200000 0.354000 0.427000 1500 40 1.100000 0.194000 0.213000 600 44 1.000000 0.053000 0.053000 1.200000 0.025000 0.030000
1517207192018741460	1300 42 1.200000 0.354000 0.428000 1500 40 1.100000 0.192000 0.211000 600 44 1.000000 0.053000 0.053000 1.200000 0.027000 0.032000
1517207192523313210	1300 42 1.200000 0.354000 0.428000 1500 40 1.100000 0.189000 0.208000 600 43 1.000000 0.053000 0.053000 1.200000 0.027000 0.032000
1517207193027800168	1300 41 1.200000 0.353000 0.427000 1500 40 1.100000 0.190000 0.209000 600 43 1.000000 0.053000 0.053000 1.200000 0.026000 0.031000
1517207193532552543	1300 41 1.200000 0.353000 0.427000 1500 40 1.000000 0.295000 0.323000 600 43 1.000000 0.053000 0.053000 1.200000 0.027000 0.032000
1517207194037232293	1300 41 1.200000 0.353000 0.426000 1500 39 1.100000 0.213000 0.234000 600 43 1.000000 0.053000 0.053000 1.200000 0.025000 0.030000
1517207194541863668	1300 41 1.200000 0.357000 0.431000 1500 39 1.000000 0.403000 0.442000 600 43 1.000000 0.053000 0.053000 1.200000 0.027000 0.032000
1517207195046431543	1300 41 1.200000 0.351000 0.424000 1500 39 1.100000 0.192000 0.211000 600 42 1.000000 0.053000 0.053000 1.200000 0.035000 0.042000
1517207195550888335	1300 40 1.200000 0.353000 0.426000 1500 39 1.100000 0.188000 0.206000 600 42 1.000000 0.053000 0.053000 1.200000 0.025000 0.030000
1517207196055507877	1300 40 1.200000 0.353000 0.426000 1500 39 1.100000 0.188000 0.206000 600 42 1.000000 0.053000 0.053000 1.200000 0.027000 0.032000
1517207196560023210	1300 40 1.200000 0.351000 0.424000 1500 39 1.100000 0.192000 0.211000 600 42 1.000000 0.053000 0.053000 1.200000 0.027000 0.032000
1517207197064540044	1300 40 1.200000 0.353000 0.427000 1500 39 1.100000 0.189000 0.207000 600 42 1.000000 0.053000 0.053000 1.200000 0.025000 0.030000
1517207197569119544	1300 40 1.200000 0.353000 0.426000 1500 38 1.100000 0.206000 0.226000 600 42 1.000000 0.053000 0.053000 1.200000 0.026000 0.031000
1517207198073672169	1300 40 1.200000 0.352000 0.425000 1500 38 1.100000 0.205000 0.225000 600 41 1.000000 0.052000 0.052000 1.200000 0.025000 0.030000
1517207198578467919	1300 40 1.200000 0.353000 0.426000 1500 38 1.100000 0.315000 0.346000 600 41 1.000000 0.053000 0.053000 1.200000 0.030000 0.036000
1517207199083088461	1300 39 1.200000 0.351000 0.424000 1500 38 1.100000 0.191000 0.210000 600 41 1.000000 0.053000 0.053000 1.200000 0.027000 0.032000
1517207199587768336	1300 39 1.200000 0.213000 0.260000 1500 38 1.100000 0.188000 0.206000 600 41 1.000000 0.052000 0.052000 1.200000 0.024000 0.028000
1517207200092244752	1300 38 1.200000 0.213000 0.259000 1500 37 1.100000 0.195000 0.214000 600 41 1.000000 0.052000 0.052000 1.200000 0.024000 0.028000
1517207200596711877	1300 38 1.200000 0.213000 0.260000 1500 37 1.100000 0.205000 0.225000 600 41 1.000000 0.053000 0.053000 1.200000 0.024000 0.028000
1517207201101168377	1300 38 1.200000 0.211000 0.257000 1500 37 1.100000 0.190000 0.209000 600 41 1.000000 0.052000 0.052000 1.200000 0.029000 0.035000
1517207201605633294	1300 38 1.200000 0.213000 0.260000 1500 37 1.100000 0.206000 0.226000 600 41 1.000000 0.052000 0.052000 1.200000 0.023000 0.027000
1517207202110063878	1300 38 1.200000 0.212000 0.258000 1500 37 1.100000 0.189000 0.207000 600 40 1.000000 0.053000 0.053000 1.200000 0.024000 0.028000
1517207202614470586	1300 38 1.200000 0.213000 0.259000 1500 36 1.100000 0.185000 0.203000 600 40 1.000000 0.052000 0.052000 1.200000 0.024000 0.028000
1517207203118865169	1300 38 1.200000 0.213000 0.259000 1500 36 1.100000 0.209000 0.230000 600 40 1.000000 0.052000 0.052000 1.200000 0.023000 0.027000
1517207203623787128	1300 38 1.200000 0.214000 0.261000 1500 36 1.000000 0.294000 0.322000 600 40 1.000000 0.052000 0.052000 1.200000 0.027000 0.032000
1517207204128389169	1300 37 1.200000 0.212000 0.258000 1500 36 1.100000 0.199000 0.219000 600 40 1.000000 0.052000 0.052000 1.200000 0.023000 0.027000
1517207204633115211	1300 38 1.200000 0.212000 0.258000 1500 36 1.000000 0.400000 0.438000 600 40 1.000000 0.052000 0.052000 1.200000 0.032000 0.038000
1517207205137673086	1300 37 1.200000 0.213000 0.260000 1500 36 1.100000 0.188000 0.206000 600 40 1.000000 0.052000 0.052000 1.200000 0.029000 0.035000
1517207205642083586	1300 37 1.200000 0.213000 0.260000 1500 36 1.100000 0.206000 0.226000 600 40 1.000000 0.052000 0.052000 1.200000 0.023000 0.027000
1517207206146545420	1300 37 1.200000 0.213000 0.260000 1500 36 1.100000 0.186000 0.204000 600 40 1.000000 0.052000 0.052000 1.200000 0.024000 0.028000
1517207206650948128	1300 37 1.200000 0.213000 0.260000 1500 36 1.100000 0.191000 0.210000 600 40 1.000000 0.052000 0.052000 1.200000 0.024000 0.028000
1517207207155543337	1300 37 1.200000 0.212000 0.258000 1500 36 1.100000 0.202000 0.222000 600 39 1.000000 0.052000 0.052000 1.200000 0.024000 0.028000
1517207207659951503	1300 37 1.200000 0.213000 0.260000 1500 36 1.100000 0.181000 0.199000 600 39 1.000000 0.052000 0.052000 1.200000 0.024000 0.028000
1517207208164326170	1300 37 1.200000 0.212000 0.258000 1500 36 1.100000 0.207000 0.227000 600 39 1.000000 0.052000 0.052000 1.200000 0.023000 0.027000
1517207208669034878	1300 37 1.200000 0.214000 0.261000 1500 35 1.100000 0.307000 0.337000 600 39 1.000000 0.052000 0.052000 1.200000 0.030000 0.036000
1517207209173640753	1300 37 1.200000 0.213000 0.260000 1500 35 1.100000 0.181000 0.199000 600 39 1.000000 0.052000 0.052000 1.200000 0.023000 0.027000
1517207209678125462	1300 37 1.200000 0.212000 0.258000 1500 35 1.100000 0.179000 0.197000 600 39 1.000000 0.052000 0.052000 1.200000 0.023000 0.027000
1517207210182556837	1300 37 1.200000 0.212000 0.258000 1500 35 1.100000 0.180000 0.198000 600 39 1.000000 0.052000 0.052000 1.200000 0.024000 0.028000
1517207210686991337	1300 37 1.200000 0.211000 0.257000 1500 35 1.100000 0.203000 0.223000 600 39 1.000000 0.052000 0.052000 1.200000 0.025000 0.030000
1517207211191698004	1300 36 1.200000 0.212000 0.258000 1500 35 1.100000 0.195000 0.214000 600 39 1.000000 0.052000 0.052000 1.200000 0.024000 0.028000
1517207211696231170	1300 36 1.200000 0.213000 0.259000 1500 35 1.100000 0.179000 0.197000 600 39 1.000000 0.052000 0.052000 1.200000 0.024000 0.028000
1517207212200658170	1300 36 1.200000 0.211000 0.257000 1500 35 1.100000 0.203000 0.223000 600 39 1.000000 0.052000 0.052000 1.200000 0.026000 0.031000
1517207212705040504	1300 36 1.200000 0.212000 0.258000 1500 35 1.100000 0.184000 0.202000 600 39 1.000000 0.052000 0.052000 1.200000 0.023000 0.027000
1517207213209497254	1300 36 1.200000 0.212000 0.258000 1500 35 1.100000 0.189000 0.208000 600 39 1.000000 0.052000 0.052000 1.200000 0.023000 0.027000
1517207213714326587	1300 36 1.200000 0.213000 0.259000 1500 35 1.100000 0.327000 0.359000 600 39 1.000000 0.052000 0.052000 1.200000 0.024000 0.028000
1517207214218880462	1300 36 1.200000 0.212000 0.258000 1500 35 1.100000 0.180000 0.198000 600 38 1.000000 0.052000 0.052000 1.200000 0.024000 0.028000
1517207214724218962	1300 36 1.200000 0.208000 0.253000 1500 34 1.000000 0.638000 0.700000 600 39 1.000000 0.052000 0.052000 1.200000 0.025000 0.030000
1517207215229439296	1300 35 1.200000 0.069000 0.084000 1500 34 1.100000 0.182000 0.200000 600 39 1.000000 0.052000 0.052000 1.200000 0.023000 0.027000
