#Timestamp	CPU(0) Frequency(MHz)	CPU(0) Temperature(C)	A7 Voltage(V)	A7 Current(A)	A7 Power(W)	CPU(4) Frequency(MHz)	CPU(4) Temperature(C)	A15 Voltage(V)	A15 Current(A)	A15 Power(W)	GPU Frequency(MHz)	GPU Temperature(C)	GPU Voltage(V)	GPU Current(A)	GPU Power(W)	RAM Voltage(V)	RAM Current(A)	RAM Power(W)
1517284880777624179	700 28 0.900000 0.030000 0.029000 500 27 0.900000 0.288000 0.262000 600 32 1.000000 0.051000 0.051000 1.200000 0.036000 0.043000
1517284881291284013	700 28 0.900000 0.028000 0.027000 500 28 0.900000 0.280000 0.255000 600 32 1.000000 0.051000 0.051000 1.200000 0.025000 0.030000
1517284881804544346	700 29 0.900000 0.028000 0.027000 500 28 0.900000 0.276000 0.251000 600 32 1.000000 0.051000 0.051000 1.200000 0.026000 0.031000
1517284882317826513	700 29 0.900000 0.028000 0.027000 500 28 0.900000 0.272000 0.247000 600 32 1.000000 0.051000 0.051000 1.200000 0.026000 0.031000
1517284882830858263	700 29 0.900000 0.028000 0.027000 500 28 0.900000 0.271000 0.246000 600 32 1.000000 0.051000 0.051000 1.200000 0.027000 0.032000
1517284883343955888	700 29 0.900000 0.028000 0.027000 500 28 0.900000 0.272000 0.247000 600 32 1.000000 0.051000 0.051000 1.200000 0.027000 0.032000
1517284883856894888	700 29 0.900000 0.028000 0.027000 500 28 0.900000 0.274000 0.249000 600 32 1.000000 0.051000 0.051000 1.200000 0.027000 0.032000
1517284884370274513	700 29 0.900000 0.028000 0.027000 500 27 0.900000 0.272000 0.247000 600 32 1.000000 0.051000 0.051000 1.200000 0.027000 0.032000
1517284884883418388	700 28 0.900000 0.028000 0.027000 500 28 0.900000 0.272000 0.247000 600 32 1.000000 0.051000 0.051000 1.200000 0.027000 0.032000
1517284885396485263	700 29 0.900000 0.028000 0.027000 500 28 0.900000 0.272000 0.247000 600 32 1.000000 0.051000 0.051000 1.200000 0.027000 0.032000
1517284885909641472	700 28 0.900000 0.028000 0.027000 500 28 0.900000 0.273000 0.248000 600 32 1.000000 0.051000 0.051000 1.200000 0.028000 0.033000
1517284886422985638	700 29 0.900000 0.028000 0.027000 500 28 0.900000 0.273000 0.248000 600 32 1.000000 0.051000 0.051000 1.200000 0.027000 0.032000
1517284886936099847	700 28 0.900000 0.028000 0.027000 500 28 0.900000 0.273000 0.248000 600 32 1.000000 0.051000 0.051000 1.200000 0.028000 0.033000
1517284887449566222	700 29 0.900000 0.028000 0.027000 500 28 0.900000 0.279000 0.254000 600 32 1.000000 0.051000 0.051000 1.200000 0.027000 0.032000
1517284887962825180	700 29 0.900000 0.028000 0.027000 500 27 0.900000 0.279000 0.253000 600 32 1.000000 0.051000 0.051000 1.200000 0.027000 0.032000
1517284888475959889	700 29 0.900000 0.028000 0.027000 500 27 0.900000 0.279000 0.254000 600 32 1.000000 0.051000 0.051000 1.200000 0.027000 0.032000
1517284888989125472	700 29 0.900000 0.028000 0.027000 500 27 0.900000 0.281000 0.255000 600 32 1.000000 0.051000 0.051000 1.200000 0.027000 0.032000
1517284889502409889	700 28 0.900000 0.028000 0.027000 500 28 0.900000 0.274000 0.249000 600 32 1.000000 0.051000 0.051000 1.200000 0.026000 0.031000
1517284890015559930	700 29 0.900000 0.028000 0.027000 500 27 0.900000 0.271000 0.246000 600 32 1.000000 0.051000 0.051000 1.200000 0.027000 0.032000
1517284890528724264	700 29 0.900000 0.028000 0.027000 500 27 0.900000 0.271000 0.246000 600 32 1.000000 0.051000 0.051000 1.200000 0.027000 0.032000
1517284891041931805	700 28 0.900000 0.028000 0.027000 500 27 0.900000 0.272000 0.247000 600 32 1.000000 0.051000 0.051000 1.200000 0.027000 0.032000
1517284891555148347	700 28 0.900000 0.028000 0.027000 500 27 0.900000 0.273000 0.248000 600 32 1.000000 0.051000 0.051000 1.200000 0.027000 0.032000
1517284892068168389	700 29 0.900000 0.028000 0.027000 500 27 0.900000 0.271000 0.246000 600 32 1.000000 0.051000 0.051000 1.200000 0.027000 0.032000
1517284892581193847	700 28 0.900000 0.028000 0.027000 500 27 0.900000 0.270000 0.245000 600 32 1.000000 0.051000 0.051000 1.200000 0.027000 0.032000
1517284893094390014	700 28 0.900000 0.028000 0.027000 500 27 0.900000 0.272000 0.247000 600 32 1.000000 0.051000 0.051000 1.200000 0.027000 0.032000
1517284893607626889	700 28 0.900000 0.028000 0.027000 500 27 0.900000 0.272000 0.247000 600 32 1.000000 0.051000 0.051000 1.200000 0.027000 0.032000
1517284894120738056	700 28 0.900000 0.028000 0.027000 500 27 0.900000 0.273000 0.248000 600 32 1.000000 0.051000 0.051000 1.200000 0.027000 0.032000
1517284894634154848	700 28 0.900000 0.028000 0.027000 500 27 0.900000 0.278000 0.253000 600 32 1.000000 0.051000 0.051000 1.200000 0.027000 0.032000
1517284895147402639	700 28 0.900000 0.028000 0.027000 500 27 0.900000 0.278000 0.252000 600 32 1.000000 0.051000 0.051000 1.200000 0.026000 0.031000
1517284895660394098	700 28 0.900000 0.028000 0.027000 500 27 0.900000 0.281000 0.255000 600 32 1.000000 0.051000 0.051000 1.200000 0.026000 0.031000
1517284896173755264	700 28 0.900000 0.028000 0.027000 500 27 0.900000 0.282000 0.256000 600 32 1.000000 0.051000 0.051000 1.200000 0.026000 0.031000
1517284896687658889	700 28 0.900000 0.028000 0.027000 500 27 0.900000 0.272000 0.247000 600 32 1.000000 0.051000 0.051000 1.200000 0.027000 0.032000
1517284897200670140	700 28 0.900000 0.030000 0.029000 500 27 0.900000 0.277000 0.252000 600 32 1.000000 0.051000 0.051000 1.200000 0.027000 0.032000
1517284897713928473	700 28 0.900000 0.028000 0.027000 500 28 0.900000 0.280000 0.255000 600 32 1.000000 0.051000 0.051000 1.200000 0.026000 0.031000
1517284898227053348	700 28 0.900000 0.029000 0.028000 500 27 0.900000 0.281000 0.255000 600 32 1.000000 0.051000 0.051000 1.200000 0.027000 0.032000
1517284898739935390	700 28 0.900000 0.028000 0.027000 500 27 0.900000 0.280000 0.255000 600 32 1.000000 0.051000 0.051000 1.200000 0.027000 0.032000
1517284899253200140	700 28 0.900000 0.029000 0.028000 500 27 0.900000 0.280000 0.255000 600 32 1.000000 0.051000 0.051000 1.200000 0.027000 0.032000
1517284899766634098	700 28 0.900000 0.028000 0.027000 500 27 0.900000 0.279000 0.254000 600 32 1.000000 0.051000 0.051000 1.200000 0.026000 0.031000
1517284900279728140	700 28 0.900000 0.028000 0.027000 500 27 0.900000 0.278000 0.253000 600 32 1.000000 0.051000 0.051000 1.200000 0.027000 0.032000
1517284900792925723	700 28 0.900000 0.028000 0.027000 500 27 0.900000 0.278000 0.253000 600 32 1.000000 0.051000 0.051000 1.200000 0.027000 0.032000
1517284901306236807	700 28 0.900000 0.028000 0.027000 500 27 0.900000 0.281000 0.255000 600 32 1.000000 0.051000 0.051000 1.200000 0.028000 0.033000
1517284901819422848	700 28 0.900000 0.028000 0.027000 500 27 0.900000 0.281000 0.255000 600 31 1.000000 0.051000 0.051000 1.200000 0.028000 0.033000
1517284902332364474	700 28 0.900000 0.028000 0.027000 500 27 0.900000 0.281000 0.255000 600 32 1.000000 0.051000 0.051000 1.200000 0.027000 0.032000
1517284902845483765	700 28 0.900000 0.028000 0.027000 500 27 0.900000 0.281000 0.255000 600 32 1.000000 0.051000 0.051000 1.200000 0.025000 0.030000
1517284903358678182	700 28 0.900000 0.028000 0.027000 500 27 0.900000 0.282000 0.256000 600 32 1.000000 0.051000 0.051000 1.200000 0.026000 0.031000
1517284903871677515	700 28 0.900000 0.028000 0.027000 500 27 0.900000 0.283000 0.257000 600 32 1.000000 0.051000 0.051000 1.200000 0.027000 0.032000
1517284904384967182	700 28 0.900000 0.028000 0.027000 500 27 0.900000 0.283000 0.257000 600 32 1.000000 0.051000 0.051000 1.200000 0.026000 0.031000
1517284904898341015	700 28 0.900000 0.028000 0.027000 500 27 0.900000 0.273000 0.248000 600 32 1.000000 0.051000 0.051000 1.200000 0.026000 0.031000
1517284905411482099	700 28 0.900000 0.028000 0.027000 500 27 0.900000 0.271000 0.246000 600 32 1.000000 0.051000 0.051000 1.200000 0.026000 0.031000
1517284905924711974	700 28 0.900000 0.028000 0.027000 500 27 0.900000 0.278000 0.253000 600 32 1.000000 0.051000 0.051000 1.200000 0.026000 0.031000
1517284906437859349	700 28 0.900000 0.029000 0.028000 500 27 0.900000 0.279000 0.254000 600 32 1.000000 0.051000 0.051000 1.200000 0.026000 0.031000
1517284906950973057	700 28 0.900000 0.028000 0.027000 500 27 0.900000 0.279000 0.253000 600 32 1.000000 0.051000 0.051000 1.200000 0.027000 0.032000
1517284907463957974	700 28 0.900000 0.028000 0.027000 500 27 0.900000 0.278000 0.253000 600 32 1.000000 0.051000 0.051000 1.200000 0.027000 0.032000
1517284907977391141	700 28 0.900000 0.028000 0.027000 500 27 0.900000 0.279000 0.253000 600 32 1.000000 0.051000 0.051000 1.200000 0.027000 0.032000
1517284908490569183	700 28 0.900000 0.028000 0.027000 500 27 0.900000 0.282000 0.256000 600 32 1.000000 0.051000 0.051000 1.200000 0.027000 0.032000
1517284909003643558	700 28 0.900000 0.028000 0.027000 500 27 0.900000 0.283000 0.257000 600 32 1.000000 0.051000 0.051000 1.200000 0.027000 0.032000
1517284909516942974	700 28 0.900000 0.028000 0.027000 500 27 0.900000 0.283000 0.257000 600 32 1.000000 0.051000 0.051000 1.200000 0.027000 0.032000
1517284910030351933	700 28 0.900000 0.028000 0.027000 500 27 0.900000 0.283000 0.257000 600 32 1.000000 0.051000 0.051000 1.200000 0.028000 0.033000
1517284910543384641	700 28 0.900000 0.028000 0.027000 500 27 0.900000 0.281000 0.255000 600 32 1.000000 0.051000 0.051000 1.200000 0.026000 0.031000
1517284911056577850	700 28 0.900000 0.028000 0.027000 500 27 0.900000 0.281000 0.255000 600 32 1.000000 0.051000 0.051000 1.200000 0.026000 0.031000
1517284911569610600	700 28 0.900000 0.028000 0.027000 500 27 0.900000 0.280000 0.255000 600 32 1.000000 0.051000 0.051000 1.200000 0.026000 0.031000
1517284912082820683	700 28 0.900000 0.028000 0.027000 500 27 0.900000 0.277000 0.252000 600 32 1.000000 0.051000 0.051000 1.200000 0.026000 0.031000
1517284912596050808	700 28 0.900000 0.028000 0.027000 500 27 0.900000 0.272000 0.247000 600 32 1.000000 0.051000 0.051000 1.200000 0.026000 0.031000
1517284913109085475	700 28 0.900000 0.028000 0.027000 500 27 0.900000 0.271000 0.246000 600 32 1.000000 0.051000 0.051000 1.200000 0.025000 0.030000
1517284913622235808	700 28 0.900000 0.028000 0.027000 500 27 0.900000 0.272000 0.247000 600 32 1.000000 0.051000 0.051000 1.200000 0.026000 0.031000
1517284914135552100	700 28 0.900000 0.028000 0.027000 500 27 0.900000 0.273000 0.248000 600 32 1.000000 0.051000 0.051000 1.200000 0.025000 0.030000
1517284914648690642	700 28 0.900000 0.028000 0.027000 500 27 0.900000 0.273000 0.248000 600 32 1.000000 0.051000 0.051000 1.200000 0.026000 0.031000
1517284915162017642	700 28 0.900000 0.028000 0.027000 500 27 0.900000 0.272000 0.247000 600 32 1.000000 0.051000 0.051000 1.200000 0.026000 0.031000
1517284915675402767	700 28 0.900000 0.028000 0.027000 500 27 0.900000 0.282000 0.256000 600 32 1.000000 0.051000 0.051000 1.200000 0.027000 0.032000
1517284916188745225	700 28 0.900000 0.028000 0.027000 500 27 0.900000 0.282000 0.256000 600 32 1.000000 0.051000 0.051000 1.200000 0.027000 0.032000
1517284916701946100	700 28 0.900000 0.028000 0.027000 500 27 0.900000 0.283000 0.257000 600 32 1.000000 0.051000 0.051000 1.200000 0.027000 0.032000
1517284917215364559	700 28 0.900000 0.028000 0.027000 500 27 0.900000 0.282000 0.256000 600 31 1.000000 0.051000 0.051000 1.200000 0.027000 0.032000
1517284917728577434	700 28 0.900000 0.028000 0.027000 500 27 0.900000 0.281000 0.255000 600 32 1.000000 0.051000 0.051000 1.200000 0.027000 0.032000
1517284918241729142	700 28 0.900000 0.028000 0.027000 500 27 0.900000 0.278000 0.253000 600 32 1.000000 0.051000 0.051000 1.200000 0.026000 0.031000
1517284918754932809	700 28 0.900000 0.028000 0.027000 500 27 0.900000 0.279000 0.254000 600 32 1.000000 0.051000 0.051000 1.200000 0.027000 0.032000
1517284919268188726	700 28 0.900000 0.028000 0.027000 500 27 0.900000 0.281000 0.255000 600 32 1.000000 0.051000 0.051000 1.200000 0.026000 0.031000
1517284919781223476	700 28 0.900000 0.028000 0.027000 500 27 0.900000 0.274000 0.249000 600 32 1.000000 0.051000 0.051000 1.200000 0.026000 0.031000
1517284920294547267	700 28 0.900000 0.028000 0.027000 500 27 0.900000 0.272000 0.247000 600 32 1.000000 0.051000 0.051000 1.200000 0.026000 0.031000
1517284920807675476	700 28 0.900000 0.028000 0.027000 500 27 0.900000 0.272000 0.247000 600 32 1.000000 0.051000 0.051000 1.200000 0.026000 0.031000
1517284921320799434	700 28 0.900000 0.028000 0.027000 500 27 0.900000 0.273000 0.248000 600 32 1.000000 0.051000 0.051000 1.200000 0.026000 0.031000
1517284921834012642	700 28 0.900000 0.028000 0.027000 500 27 0.900000 0.274000 0.249000 600 32 1.000000 0.051000 0.051000 1.200000 0.026000 0.031000
1517284922347335601	700 28 0.900000 0.028000 0.027000 500 27 0.900000 0.272000 0.247000 600 32 1.000000 0.051000 0.051000 1.200000 0.026000 0.031000
1517284922860566476	700 28 0.900000 0.028000 0.027000 500 27 0.900000 0.271000 0.246000 600 32 1.000000 0.051000 0.051000 1.200000 0.026000 0.031000
1517284923373776393	700 28 0.900000 0.028000 0.027000 500 27 0.900000 0.273000 0.248000 600 32 1.000000 0.051000 0.051000 1.200000 0.026000 0.031000
1517284923886748809	700 28 0.900000 0.028000 0.027000 500 27 0.900000 0.273000 0.248000 600 32 1.000000 0.051000 0.051000 1.200000 0.026000 0.031000
1517284924399779934	700 28 0.900000 0.028000 0.027000 500 27 0.900000 0.273000 0.248000 600 32 1.000000 0.051000 0.051000 1.200000 0.026000 0.031000
1517284924912828726	700 28 0.900000 0.028000 0.027000 500 27 0.900000 0.279000 0.254000 600 32 1.000000 0.051000 0.051000 1.200000 0.027000 0.032000
1517284925426030018	700 28 0.900000 0.029000 0.028000 500 27 0.900000 0.278000 0.253000 600 31 1.000000 0.051000 0.051000 1.200000 0.027000 0.032000
1517284925939179768	700 28 0.900000 0.028000 0.027000 500 27 0.900000 0.278000 0.253000 600 32 1.000000 0.051000 0.051000 1.200000 0.025000 0.030000
1517284926452148518	700 28 0.900000 0.028000 0.027000 500 27 0.900000 0.280000 0.255000 600 32 1.000000 0.051000 0.051000 1.200000 0.027000 0.032000
1517284926965427976	700 28 0.900000 0.028000 0.027000 500 27 0.900000 0.283000 0.257000 600 32 1.000000 0.051000 0.051000 1.200000 0.028000 0.033000
1517284927478874768	700 28 0.900000 0.028000 0.027000 500 27 0.900000 0.274000 0.249000 600 32 1.000000 0.051000 0.051000 1.200000 0.026000 0.031000
1517284927992028893	700 28 0.900000 0.028000 0.027000 500 27 0.900000 0.272000 0.247000 600 32 1.000000 0.051000 0.051000 1.200000 0.027000 0.032000
1517284928505195477	700 28 0.900000 0.028000 0.027000 500 27 0.900000 0.272000 0.247000 600 32 1.000000 0.051000 0.051000 1.200000 0.027000 0.032000
1517284929018467185	700 28 0.900000 0.028000 0.027000 500 27 0.900000 0.273000 0.248000 600 32 1.000000 0.051000 0.051000 1.200000 0.027000 0.032000
1517284929531512477	700 28 0.900000 0.028000 0.027000 500 27 0.900000 0.273000 0.248000 600 32 1.000000 0.051000 0.051000 1.200000 0.027000 0.032000
1517284930044674768	700 28 0.900000 0.028000 0.027000 500 27 0.900000 0.272000 0.247000 600 32 1.000000 0.051000 0.051000 1.200000 0.027000 0.032000
1517284930557809352	700 28 0.900000 0.028000 0.027000 500 27 0.900000 0.271000 0.246000 600 32 1.000000 0.051000 0.051000 1.200000 0.028000 0.033000
1517284931070774644	700 28 0.900000 0.028000 0.027000 500 27 0.900000 0.272000 0.247000 600 32 1.000000 0.051000 0.051000 1.200000 0.027000 0.032000
1517284931583987144	700 28 0.900000 0.028000 0.027000 500 27 0.900000 0.273000 0.248000 600 32 1.000000 0.051000 0.051000 1.200000 0.028000 0.033000
1517284932097094810	700 28 0.900000 0.028000 0.027000 500 27 0.900000 0.276000 0.251000 600 32 1.000000 0.051000 0.051000 1.200000 0.026000 0.031000
1517284932610391727	700 28 0.900000 0.028000 0.027000 500 27 0.900000 0.273000 0.248000 600 32 1.000000 0.051000 0.051000 1.200000 0.027000 0.032000
1517284933123651352	700 28 0.900000 0.028000 0.027000 500 27 0.900000 0.272000 0.247000 600 32 1.000000 0.051000 0.051000 1.200000 0.028000 0.033000
1517284933636660227	700 28 0.900000 0.028000 0.027000 500 27 0.900000 0.272000 0.247000 600 32 1.000000 0.051000 0.051000 1.200000 0.026000 0.031000
1517284934150169144	700 28 0.900000 0.028000 0.027000 500 27 0.900000 0.283000 0.257000 600 32 1.000000 0.051000 0.051000 1.200000 0.026000 0.031000
1517284934663299686	700 28 0.900000 0.028000 0.027000 500 27 0.900000 0.283000 0.257000 600 31 1.000000 0.051000 0.051000 1.200000 0.026000 0.031000
1517284935176416852	700 28 0.900000 0.028000 0.027000 500 27 0.900000 0.283000 0.257000 600 32 1.000000 0.051000 0.051000 1.200000 0.026000 0.031000
1517284935689648936	700 28 0.900000 0.028000 0.027000 500 27 0.900000 0.280000 0.254000 600 32 1.000000 0.051000 0.051000 1.200000 0.027000 0.032000
1517284936203155436	700 28 0.900000 0.028000 0.027000 500 27 0.900000 0.280000 0.254000 600 32 1.000000 0.051000 0.051000 1.200000 0.027000 0.032000
1517284936716435061	700 28 0.900000 0.028000 0.027000 500 27 0.900000 0.280000 0.254000 600 32 1.000000 0.051000 0.051000 1.200000 0.027000 0.032000
1517284937229465269	700 28 0.900000 0.028000 0.027000 500 27 0.900000 0.280000 0.254000 600 32 1.000000 0.051000 0.051000 1.200000 0.026000 0.031000
1517284937742591769	700 28 0.900000 0.029000 0.028000 500 27 0.900000 0.279000 0.253000 600 32 1.000000 0.051000 0.051000 1.200000 0.027000 0.032000
1517284938255776519	700 28 0.900000 0.028000 0.027000 500 27 0.900000 0.278000 0.252000 600 32 1.000000 0.051000 0.051000 1.200000 0.027000 0.032000
1517284938768922853	700 28 0.900000 0.028000 0.027000 500 27 0.900000 0.279000 0.253000 600 32 1.000000 0.051000 0.051000 1.200000 0.028000 0.033000
1517284939282131311	700 28 0.900000 0.028000 0.027000 500 27 0.900000 0.282000 0.256000 600 32 1.000000 0.051000 0.051000 1.200000 0.028000 0.033000
1517284939795581478	700 28 0.900000 0.028000 0.027000 500 27 0.900000 0.283000 0.257000 600 32 1.000000 0.051000 0.051000 1.200000 0.027000 0.032000
1517284940308715811	700 28 0.900000 0.028000 0.027000 500 27 0.900000 0.283000 0.257000 600 32 1.000000 0.051000 0.051000 1.200000 0.027000 0.032000
1517284940821769895	700 28 0.900000 0.028000 0.027000 500 27 0.900000 0.281000 0.255000 600 32 1.000000 0.051000 0.051000 1.200000 0.026000 0.031000
1517284941335251145	700 28 0.900000 0.028000 0.027000 500 27 0.900000 0.282000 0.256000 600 32 1.000000 0.051000 0.051000 1.200000 0.026000 0.031000
1517284941848372603	700 28 0.900000 0.028000 0.027000 500 27 0.900000 0.284000 0.258000 600 32 1.000000 0.051000 0.051000 1.200000 0.026000 0.031000
1517284942361558812	700 28 0.900000 0.028000 0.027000 500 27 0.900000 0.283000 0.257000 600 32 1.000000 0.051000 0.051000 1.200000 0.026000 0.031000
1517284942874803978	700 28 0.900000 0.028000 0.027000 500 27 0.900000 0.273000 0.248000 600 32 1.000000 0.051000 0.051000 1.200000 0.026000 0.031000
1517284943387989770	700 28 0.900000 0.028000 0.027000 500 27 0.900000 0.277000 0.252000 600 32 1.000000 0.051000 0.051000 1.200000 0.027000 0.032000
1517284943901153437	700 28 0.900000 0.028000 0.027000 500 27 0.900000 0.278000 0.252000 600 31 1.000000 0.051000 0.051000 1.200000 0.027000 0.032000
1517284944414502437	700 28 0.900000 0.028000 0.027000 500 27 0.900000 0.280000 0.254000 600 32 1.000000 0.051000 0.051000 1.200000 0.027000 0.032000
1517284944927959354	700 28 0.900000 0.028000 0.027000 500 27 0.900000 0.280000 0.254000 600 31 1.000000 0.051000 0.051000 1.200000 0.027000 0.032000
1517284945441095770	700 28 0.900000 0.028000 0.027000 500 27 0.900000 0.280000 0.254000 600 32 1.000000 0.051000 0.051000 1.200000 0.027000 0.032000
1517284945954371104	700 28 0.900000 0.028000 0.027000 500 27 0.900000 0.280000 0.254000 600 31 1.000000 0.051000 0.051000 1.200000 0.027000 0.032000
1517284946467374562	700 28 0.900000 0.028000 0.027000 500 27 0.900000 0.283000 0.257000 600 32 1.000000 0.051000 0.051000 1.200000 0.028000 0.033000
1517284946980639354	700 28 0.900000 0.028000 0.027000 500 27 0.900000 0.283000 0.257000 600 32 1.000000 0.051000 0.051000 1.200000 0.027000 0.032000
1517284947493846396	700 28 0.900000 0.028000 0.027000 500 27 0.900000 0.283000 0.257000 600 32 1.000000 0.051000 0.051000 1.200000 0.027000 0.032000
1517284948007270396	700 28 0.900000 0.028000 0.027000 500 27 0.900000 0.281000 0.255000 600 32 1.000000 0.051000 0.051000 1.200000 0.026000 0.031000
1517284948520341146	700 28 0.900000 0.028000 0.027000 500 27 0.900000 0.283000 0.257000 600 32 1.000000 0.051000 0.051000 1.200000 0.026000 0.031000
1517284949033548687	700 28 0.900000 0.028000 0.027000 500 27 0.900000 0.280000 0.254000 600 32 1.000000 0.051000 0.051000 1.200000 0.026000 0.031000
1517284949546730979	700 28 0.900000 0.028000 0.027000 500 27 0.900000 0.280000 0.254000 600 32 1.000000 0.051000 0.051000 1.200000 0.027000 0.032000
1517284950059751521	700 28 0.900000 0.028000 0.027000 500 27 0.900000 0.277000 0.252000 600 32 1.000000 0.051000 0.051000 1.200000 0.026000 0.031000
1517284950573033646	700 28 0.900000 0.028000 0.027000 500 27 0.900000 0.272000 0.247000 600 32 1.000000 0.051000 0.051000 1.200000 0.026000 0.031000
1517284951086325146	700 28 0.900000 0.028000 0.027000 500 27 0.900000 0.272000 0.247000 600 32 1.000000 0.051000 0.051000 1.200000 0.026000 0.031000
1517284951599416479	700 28 0.900000 0.028000 0.027000 500 27 0.900000 0.272000 0.247000 600 32 1.000000 0.051000 0.051000 1.200000 0.026000 0.031000
1517284952112622854	700 28 0.900000 0.028000 0.027000 500 27 0.900000 0.273000 0.248000 600 32 1.000000 0.051000 0.051000 1.200000 0.027000 0.032000
1517284952625867771	700 28 0.900000 0.028000 0.027000 500 27 0.900000 0.282000 0.256000 600 32 1.000000 0.051000 0.051000 1.200000 0.027000 0.032000
1517284953138971188	700 28 0.900000 0.028000 0.027000 500 27 0.900000 0.282000 0.256000 600 32 1.000000 0.051000 0.051000 1.200000 0.027000 0.032000
1517284953652196313	700 28 0.900000 0.028000 0.027000 500 27 0.900000 0.281000 0.255000 600 32 1.000000 0.051000 0.051000 1.200000 0.027000 0.032000
1517284954165136438	700 28 0.900000 0.028000 0.027000 500 27 0.900000 0.282000 0.256000 600 32 1.000000 0.051000 0.051000 1.200000 0.027000 0.032000
1517284954678337938	700 28 0.900000 0.028000 0.027000 500 27 0.900000 0.283000 0.257000 600 32 1.000000 0.051000 0.051000 1.200000 0.027000 0.032000
1517284955191538605	700 28 0.900000 0.028000 0.027000 500 27 0.900000 0.280000 0.254000 600 32 1.000000 0.051000 0.051000 1.200000 0.027000 0.032000
1517284955704833605	700 28 0.900000 0.028000 0.027000 500 27 0.900000 0.278000 0.253000 600 32 1.000000 0.051000 0.051000 1.200000 0.027000 0.032000
1517284956217989897	700 28 0.900000 0.028000 0.027000 500 27 0.900000 0.278000 0.252000 600 32 1.000000 0.051000 0.051000 1.200000 0.026000 0.031000
1517284956731253147	700 28 0.900000 0.028000 0.027000 500 27 0.900000 0.279000 0.253000 600 32 1.000000 0.051000 0.051000 1.200000 0.026000 0.031000
1517284957244455563	700 28 0.900000 0.028000 0.027000 500 27 0.900000 0.280000 0.254000 600 32 1.000000 0.051000 0.051000 1.200000 0.025000 0.030000
1517284957757490813	700 28 0.900000 0.028000 0.027000 500 27 0.900000 0.273000 0.248000 600 32 1.000000 0.051000 0.051000 1.200000 0.026000 0.031000
1517284958270825939	700 28 0.900000 0.028000 0.027000 500 27 0.900000 0.271000 0.246000 600 32 1.000000 0.051000 0.051000 1.200000 0.026000 0.031000
1517284958784026439	700 28 0.900000 0.028000 0.027000 500 27 0.900000 0.271000 0.246000 600 32 1.000000 0.051000 0.051000 1.200000 0.026000 0.031000
1517284959297315730	700 28 0.900000 0.028000 0.027000 500 27 0.900000 0.273000 0.248000 600 32 1.000000 0.051000 0.051000 1.200000 0.027000 0.032000
1517284959810534022	700 28 0.900000 0.028000 0.027000 500 27 0.900000 0.274000 0.249000 600 32 1.000000 0.051000 0.051000 1.200000 0.026000 0.031000
1517284960323639230	700 28 0.900000 0.028000 0.027000 500 27 0.900000 0.272000 0.247000 600 32 1.000000 0.051000 0.051000 1.200000 0.026000 0.031000
1517284960836729022	700 28 0.900000 0.028000 0.027000 500 27 0.900000 0.271000 0.246000 600 32 1.000000 0.051000 0.051000 1.200000 0.026000 0.031000
1517284961349821314	700 28 0.900000 0.028000 0.027000 500 27 0.900000 0.272000 0.247000 600 32 1.000000 0.051000 0.051000 1.200000 0.026000 0.031000
1517284961862938689	700 28 0.900000 0.028000 0.027000 500 27 0.900000 0.272000 0.247000 600 32 1.000000 0.051000 0.051000 1.200000 0.026000 0.031000
1517284962376256397	700 28 0.900000 0.028000 0.027000 500 27 0.900000 0.280000 0.254000 600 32 1.000000 0.051000 0.051000 1.200000 0.027000 0.032000
1517284962889462522	700 28 0.900000 0.028000 0.027000 500 27 0.900000 0.280000 0.254000 600 32 1.000000 0.051000 0.051000 1.200000 0.027000 0.032000
1517284963402786147	700 28 0.900000 0.028000 0.027000 500 27 0.900000 0.278000 0.252000 600 32 1.000000 0.051000 0.051000 1.200000 0.026000 0.031000
1517284963915914189	700 28 0.900000 0.028000 0.027000 500 27 0.900000 0.279000 0.253000 600 32 1.000000 0.051000 0.051000 1.200000 0.026000 0.031000
1517284964429233314	700 28 0.900000 0.028000 0.027000 500 27 0.900000 0.281000 0.255000 600 32 1.000000 0.051000 0.051000 1.200000 0.025000 0.030000
1517284964942516398	700 28 0.900000 0.028000 0.027000 500 27 0.900000 0.283000 0.257000 600 32 1.000000 0.051000 0.051000 1.200000 0.026000 0.031000
1517284965455488981	700 28 0.900000 0.028000 0.027000 500 27 0.900000 0.273000 0.248000 600 32 1.000000 0.051000 0.051000 1.200000 0.026000 0.031000
1517284965968656439	700 28 0.900000 0.028000 0.027000 500 27 0.900000 0.272000 0.247000 600 32 1.000000 0.051000 0.051000 1.200000 0.026000 0.031000
1517284966481933439	700 28 0.900000 0.028000 0.027000 500 27 0.900000 0.272000 0.247000 600 32 1.000000 0.051000 0.051000 1.200000 0.026000 0.031000
1517284966995105231	700 28 0.900000 0.028000 0.027000 500 27 0.900000 0.273000 0.248000 600 32 1.000000 0.051000 0.051000 1.200000 0.026000 0.031000
1517284967508294481	700 28 0.900000 0.029000 0.028000 500 27 0.900000 0.274000 0.249000 600 32 1.000000 0.051000 0.051000 1.200000 0.026000 0.031000
1517284968021621356	700 28 0.900000 0.028000 0.027000 500 27 0.900000 0.272000 0.247000 600 32 1.000000 0.051000 0.051000 1.200000 0.026000 0.031000
1517284968534570731	700 28 0.900000 0.028000 0.027000 500 27 0.900000 0.271000 0.246000 600 32 1.000000 0.051000 0.051000 1.200000 0.025000 0.030000
1517284969047732148	700 28 0.900000 0.028000 0.027000 500 27 0.900000 0.273000 0.248000 600 32 1.000000 0.051000 0.051000 1.200000 0.027000 0.032000
1517284969560855440	700 28 0.900000 0.028000 0.027000 500 27 0.900000 0.274000 0.249000 600 32 1.000000 0.051000 0.051000 1.200000 0.026000 0.031000
1517284970074197482	700 28 0.900000 0.028000 0.027000 500 27 0.900000 0.273000 0.248000 600 32 1.000000 0.051000 0.051000 1.200000 0.027000 0.032000
1517284970587377273	700 28 0.900000 0.028000 0.027000 500 27 0.900000 0.272000 0.247000 600 32 1.000000 0.051000 0.051000 1.200000 0.026000 0.031000
1517284971100524398	700 28 0.900000 0.028000 0.027000 500 27 0.900000 0.272000 0.247000 600 32 1.000000 0.051000 0.051000 1.200000 0.026000 0.031000
1517284971613930232	700 28 0.900000 0.028000 0.027000 500 27 0.900000 0.283000 0.257000 600 32 1.000000 0.051000 0.051000 1.200000 0.026000 0.031000
1517284972127178607	700 28 0.900000 0.028000 0.027000 500 27 0.900000 0.283000 0.257000 600 32 1.000000 0.051000 0.051000 1.200000 0.027000 0.032000
1517284972640244149	700 28 0.900000 0.028000 0.027000 500 27 0.900000 0.283000 0.257000 600 32 1.000000 0.051000 0.051000 1.200000 0.027000 0.032000
1517284973153548607	700 28 0.900000 0.028000 0.027000 500 27 0.900000 0.272000 0.247000 600 32 1.000000 0.051000 0.051000 1.200000 0.026000 0.031000
1517284973666811774	700 28 0.900000 0.028000 0.027000 500 27 0.900000 0.271000 0.246000 600 32 1.000000 0.051000 0.051000 1.200000 0.027000 0.032000
1517284974179914774	700 28 0.900000 0.028000 0.027000 500 27 0.900000 0.272000 0.247000 600 32 1.000000 0.051000 0.051000 1.200000 0.027000 0.032000
1517284974693055565	700 28 0.900000 0.028000 0.027000 500 27 0.900000 0.273000 0.248000 600 32 1.000000 0.051000 0.051000 1.200000 0.027000 0.032000
1517284975206439982	700 28 0.900000 0.028000 0.027000 500 27 0.900000 0.272000 0.247000 600 32 1.000000 0.051000 0.051000 1.200000 0.027000 0.032000
1517284975719733024	700 28 0.900000 0.028000 0.027000 500 27 0.900000 0.279000 0.254000 600 32 1.000000 0.051000 0.051000 1.200000 0.027000 0.032000
1517284976232751607	700 28 0.900000 0.028000 0.027000 500 27 0.900000 0.278000 0.253000 600 32 1.000000 0.051000 0.051000 1.200000 0.027000 0.032000
1517284976745956774	700 28 0.900000 0.028000 0.027000 500 27 0.900000 0.280000 0.254000 600 32 1.000000 0.051000 0.051000 1.200000 0.027000 0.032000
1517284977259192232	700 29 0.900000 0.028000 0.027000 500 27 0.900000 0.282000 0.256000 600 32 1.000000 0.051000 0.051000 1.200000 0.027000 0.032000
1517284977772267691	700 28 0.900000 0.028000 0.027000 500 27 0.900000 0.283000 0.257000 600 32 1.000000 0.051000 0.051000 1.200000 0.026000 0.031000
1517284978285439108	700 28 0.900000 0.028000 0.027000 500 27 0.900000 0.281000 0.255000 600 32 1.000000 0.051000 0.051000 1.200000 0.027000 0.032000
1517284978798773024	700 29 0.900000 0.028000 0.027000 500 27 0.900000 0.281000 0.255000 600 32 1.000000 0.051000 0.051000 1.200000 0.027000 0.032000
1517284979311798399	700 28 0.900000 0.028000 0.027000 500 27 0.900000 0.282000 0.256000 600 32 1.000000 0.051000 0.051000 1.200000 0.027000 0.032000
1517284979824872733	700 29 0.900000 0.028000 0.027000 500 28 0.900000 0.282000 0.256000 600 32 1.000000 0.051000 0.051000 1.200000 0.027000 0.032000
1517284980337238233	700 28 0.900000 0.028000 0.027000 500 27 0.900000 0.280000 0.254000 600 32 1.000000 0.051000 0.051000 1.200000 0.026000 0.031000
1517284980849543358	700 29 0.900000 0.028000 0.027000 500 27 0.900000 0.277000 0.252000 600 32 1.000000 0.051000 0.051000 1.200000 0.028000 0.033000
1517284981361624691	700 29 0.900000 0.028000 0.027000 500 27 0.900000 0.275000 0.250000 600 32 1.000000 0.051000 0.051000 1.200000 0.027000 0.032000
1517284981873860733	700 28 0.900000 0.028000 0.027000 500 27 0.900000 0.278000 0.252000 600 32 1.000000 0.051000 0.051000 1.200000 0.027000 0.032000
1517284982385834108	700 29 0.900000 0.028000 0.027000 500 27 0.900000 0.282000 0.256000 600 32 1.000000 0.051000 0.051000 1.200000 0.027000 0.032000
1517284982898111483	700 29 0.900000 0.028000 0.027000 500 28 0.900000 0.283000 0.257000 600 32 1.000000 0.051000 0.051000 1.200000 0.027000 0.032000
1517284983410157692	700 28 0.900000 0.028000 0.027000 500 28 0.900000 0.282000 0.256000 600 32 1.000000 0.051000 0.051000 1.200000 0.026000 0.031000
1517284983922250858	700 29 0.900000 0.028000 0.027000 500 27 0.900000 0.279000 0.254000 600 32 1.000000 0.051000 0.051000 1.200000 0.027000 0.032000
1517284984434448400	700 28 0.900000 0.028000 0.027000 500 28 0.900000 0.278000 0.253000 600 32 1.000000 0.051000 0.051000 1.200000 0.026000 0.031000
1517284984946650983	700 29 0.900000 0.028000 0.027000 500 27 0.900000 0.279000 0.254000 600 32 1.000000 0.051000 0.051000 1.200000 0.027000 0.032000
1517284985458736442	700 29 0.900000 0.028000 0.027000 500 28 0.900000 0.280000 0.255000 600 32 1.000000 0.051000 0.051000 1.200000 0.027000 0.032000
1517284985970837817	700 29 0.900000 0.028000 0.027000 500 27 0.900000 0.283000 0.257000 600 32 1.000000 0.051000 0.051000 1.200000 0.027000 0.032000
1517284986483125400	700 29 0.900000 0.028000 0.027000 500 27 0.900000 0.282000 0.256000 600 32 1.000000 0.051000 0.051000 1.200000 0.027000 0.032000
1517284986995333817	700 29 0.900000 0.028000 0.027000 500 27 0.900000 0.283000 0.257000 600 32 1.000000 0.051000 0.051000 1.200000 0.027000 0.032000
1517284987507526609	700 29 0.900000 0.028000 0.027000 500 27 0.900000 0.280000 0.255000 600 32 1.000000 0.051000 0.051000 1.200000 0.026000 0.031000
1517284988019761692	700 29 0.900000 0.028000 0.027000 500 27 0.900000 0.273000 0.248000 600 32 1.000000 0.051000 0.051000 1.200000 0.026000 0.031000
1517284988531861692	700 29 0.900000 0.028000 0.027000 500 27 0.900000 0.271000 0.246000 600 32 1.000000 0.051000 0.051000 1.200000 0.026000 0.031000
1517284989043772609	700 29 0.900000 0.028000 0.027000 500 27 0.900000 0.272000 0.247000 600 32 1.000000 0.051000 0.051000 1.200000 0.026000 0.031000
1517284989555917484	700 29 0.900000 0.028000 0.027000 500 27 0.900000 0.283000 0.257000 600 32 1.000000 0.051000 0.051000 1.200000 0.027000 0.032000
1517284990067883442	700 29 0.900000 0.028000 0.027000 500 28 0.900000 0.284000 0.258000 600 32 1.000000 0.051000 0.051000 1.200000 0.027000 0.032000
1517284990580038484	700 29 0.900000 0.028000 0.027000 500 27 0.900000 0.281000 0.255000 600 32 1.000000 0.051000 0.051000 1.200000 0.026000 0.031000
1517284991092130734	700 29 0.900000 0.029000 0.028000 500 28 0.900000 0.278000 0.252000 600 32 1.000000 0.051000 0.051000 1.200000 0.027000 0.032000
1517284991604443442	700 29 0.900000 0.028000 0.027000 500 28 0.900000 0.277000 0.252000 600 32 1.000000 0.051000 0.051000 1.200000 0.026000 0.031000
1517284992116539318	700 29 0.900000 0.028000 0.027000 500 27 0.900000 0.278000 0.252000 600 32 1.000000 0.051000 0.051000 1.200000 0.027000 0.032000
1517284992628863109	700 28 0.900000 0.028000 0.027000 500 27 0.900000 0.281000 0.255000 600 32 1.000000 0.051000 0.051000 1.200000 0.028000 0.033000
1517284993140919318	700 29 0.900000 0.028000 0.027000 500 27 0.900000 0.282000 0.256000 600 32 1.000000 0.051000 0.051000 1.200000 0.027000 0.032000
1517284993652993651	700 29 0.900000 0.029000 0.028000 500 28 0.900000 0.282000 0.256000 600 32 1.000000 0.051000 0.051000 1.200000 0.026000 0.031000
1517284994165386401	700 28 0.900000 0.028000 0.027000 500 28 0.900000 0.282000 0.256000 600 32 1.000000 0.051000 0.051000 1.200000 0.026000 0.031000
1517284994677426193	700 29 0.900000 0.028000 0.027000 500 27 0.900000 0.280000 0.254000 600 32 1.000000 0.051000 0.051000 1.200000 0.026000 0.031000
1517284995189624068	700 29 0.900000 0.028000 0.027000 500 27 0.900000 0.273000 0.248000 600 32 1.000000 0.051000 0.051000 1.200000 0.026000 0.031000
1517284995701909151	700 29 0.900000 0.028000 0.027000 500 28 0.900000 0.273000 0.248000 600 32 1.000000 0.051000 0.051000 1.200000 0.026000 0.031000
1517284996214067401	700 29 0.900000 0.028000 0.027000 500 28 0.900000 0.271000 0.246000 600 32 1.000000 0.051000 0.051000 1.200000 0.026000 0.031000
1517284996726178943	700 29 0.900000 0.028000 0.027000 500 27 0.900000 0.272000 0.247000 600 32 1.000000 0.051000 0.051000 1.200000 0.026000 0.031000
1517284997238260485	700 29 0.900000 0.028000 0.027000 500 28 0.900000 0.273000 0.248000 600 32 1.000000 0.051000 0.051000 1.200000 0.026000 0.031000
1517284997750191693	700 29 0.900000 0.029000 0.028000 500 28 0.900000 0.273000 0.248000 600 32 1.000000 0.051000 0.051000 1.200000 0.026000 0.031000
1517284998262126318	700 29 0.900000 0.028000 0.027000 500 27 0.900000 0.277000 0.252000 600 32 1.000000 0.051000 0.051000 1.200000 0.027000 0.032000
1517284998774155485	700 29 0.900000 0.028000 0.027000 500 27 0.900000 0.276000 0.251000 600 32 1.000000 0.051000 0.051000 1.200000 0.026000 0.031000
1517284999286100027	700 29 0.900000 0.028000 0.027000 500 27 0.900000 0.279000 0.253000 600 32 1.000000 0.051000 0.051000 1.200000 0.027000 0.032000
1517284999798389735	700 29 0.900000 0.028000 0.027000 500 27 0.900000 0.282000 0.256000 600 32 1.000000 0.051000 0.051000 1.200000 0.027000 0.032000
1517285000310486902	700 29 0.900000 0.028000 0.027000 500 28 0.900000 0.284000 0.258000 600 32 1.000000 0.051000 0.051000 1.200000 0.028000 0.033000
1517285000822303527	700 29 0.900000 0.028000 0.027000 500 27 0.900000 0.283000 0.257000 600 32 1.000000 0.051000 0.051000 1.200000 0.028000 0.033000
1517285001334310485	700 29 0.900000 0.029000 0.028000 500 28 0.900000 0.278000 0.253000 600 32 1.000000 0.051000 0.051000 1.200000 0.026000 0.031000
1517285001846098027	700 29 0.900000 0.028000 0.027000 500 28 0.900000 0.277000 0.252000 600 32 1.000000 0.051000 0.051000 1.200000 0.026000 0.031000
1517285002357902860	700 29 0.900000 0.028000 0.027000 500 28 0.900000 0.274000 0.249000 600 32 1.000000 0.051000 0.051000 1.200000 0.026000 0.031000
1517285002869602485	700 28 0.900000 0.028000 0.027000 500 28 0.900000 0.273000 0.248000 600 32 1.000000 0.051000 0.051000 1.200000 0.026000 0.031000
1517285003381579277	700 29 0.900000 0.028000 0.027000 500 28 0.900000 0.272000 0.247000 600 32 1.000000 0.051000 0.051000 1.200000 0.026000 0.031000
1517285003893520111	700 29 0.900000 0.029000 0.028000 500 28 0.900000 0.272000 0.247000 600 32 1.000000 0.051000 0.051000 1.200000 0.026000 0.031000
1517285004405406736	700 28 0.900000 0.028000 0.027000 500 28 0.900000 0.273000 0.248000 600 32 1.000000 0.051000 0.051000 1.200000 0.026000 0.031000
1517285004917428986	700 29 0.900000 0.028000 0.027000 500 28 0.900000 0.273000 0.248000 600 32 1.000000 0.051000 0.051000 1.200000 0.026000 0.031000
1517285005429467277	700 29 0.900000 0.028000 0.027000 500 27 0.900000 0.272000 0.247000 600 32 1.000000 0.051000 0.051000 1.200000 0.026000 0.031000
1517285005941456611	700 29 0.900000 0.028000 0.027000 500 28 0.900000 0.271000 0.246000 600 32 1.000000 0.051000 0.051000 1.200000 0.026000 0.031000
1517285006453295694	700 29 0.900000 0.028000 0.027000 500 27 0.900000 0.272000 0.247000 600 32 1.000000 0.051000 0.051000 1.200000 0.026000 0.031000
1517285006965268236	700 29 0.900000 0.028000 0.027000 500 27 0.900000 0.283000 0.257000 600 32 1.000000 0.051000 0.051000 1.200000 0.027000 0.032000
1517285007477137944	700 28 0.900000 0.028000 0.027000 500 28 0.900000 0.281000 0.255000 600 32 1.000000 0.051000 0.051000 1.200000 0.027000 0.032000
1517285007989103778	700 29 0.900000 0.028000 0.027000 500 28 0.900000 0.279000 0.254000 600 32 1.000000 0.051000 0.051000 1.200000 0.027000 0.032000
1517285008500972111	700 29 0.900000 0.028000 0.027000 500 28 0.900000 0.278000 0.253000 600 32 1.000000 0.051000 0.051000 1.200000 0.026000 0.031000
1517285009012875070	700 29 0.900000 0.028000 0.027000 500 27 0.900000 0.272000 0.247000 600 32 1.000000 0.051000 0.051000 1.200000 0.026000 0.031000
1517285009525068778	700 29 0.900000 0.028000 0.027000 500 28 0.900000 0.274000 0.249000 600 32 1.000000 0.051000 0.051000 1.200000 0.026000 0.031000
1517285010036979653	700 29 0.900000 0.028000 0.027000 500 28 0.900000 0.274000 0.249000 600 32 1.000000 0.051000 0.051000 1.200000 0.026000 0.031000
1517285010549231528	700 29 0.900000 0.028000 0.027000 500 28 0.900000 0.272000 0.247000 600 32 1.000000 0.051000 0.051000 1.200000 0.026000 0.031000
1517285011061316403	700 28 0.900000 0.028000 0.027000 500 28 0.900000 0.272000 0.247000 600 32 1.000000 0.051000 0.051000 1.200000 0.026000 0.031000
1517285011573342112	700 29 0.900000 0.028000 0.027000 500 28 0.900000 0.272000 0.247000 600 32 1.000000 0.051000 0.051000 1.200000 0.026000 0.031000
1517285012085428987	700 28 0.900000 0.028000 0.027000 500 28 0.900000 0.274000 0.249000 600 32 1.000000 0.051000 0.051000 1.200000 0.027000 0.032000
1517285012597451653	700 29 0.900000 0.028000 0.027000 500 28 0.900000 0.275000 0.250000 600 32 1.000000 0.051000 0.051000 1.200000 0.027000 0.032000
1517285013109529320	700 29 0.900000 0.028000 0.027000 500 28 0.900000 0.272000 0.247000 600 32 1.000000 0.051000 0.051000 1.200000 0.026000 0.031000
1517285013621316653	700 29 0.900000 0.028000 0.027000 500 28 0.900000 0.271000 0.246000 600 32 1.000000 0.051000 0.051000 1.200000 0.027000 0.032000
1517285014133400653	700 29 0.900000 0.028000 0.027000 500 27 0.900000 0.272000 0.247000 600 32 1.000000 0.051000 0.051000 1.200000 0.027000 0.032000
1517285014645408445	700 29 0.900000 0.028000 0.027000 500 27 0.900000 0.273000 0.248000 600 32 1.000000 0.051000 0.051000 1.200000 0.027000 0.032000
1517285015157297570	700 29 0.900000 0.028000 0.027000 500 28 0.900000 0.273000 0.248000 600 32 1.000000 0.051000 0.051000 1.200000 0.027000 0.032000
1517285015669103487	700 29 0.900000 0.028000 0.027000 500 28 0.900000 0.280000 0.254000 600 32 1.000000 0.051000 0.051000 1.200000 0.027000 0.032000
1517285016181147362	700 29 0.900000 0.028000 0.027000 500 28 0.900000 0.281000 0.255000 600 32 1.000000 0.051000 0.051000 1.200000 0.027000 0.032000
1517285016693080029	700 29 0.900000 0.028000 0.027000 500 28 0.900000 0.282000 0.256000 600 32 1.000000 0.051000 0.051000 1.200000 0.026000 0.031000
1517285017205183529	700 29 0.900000 0.028000 0.027000 500 28 0.900000 0.283000 0.257000 600 32 1.000000 0.051000 0.051000 1.200000 0.027000 0.032000
1517285017716948404	700 29 0.900000 0.028000 0.027000 500 28 0.900000 0.280000 0.255000 600 32 1.000000 0.051000 0.051000 1.200000 0.027000 0.032000
1517285018229052529	700 29 0.900000 0.028000 0.027000 500 28 0.900000 0.279000 0.253000 600 32 1.000000 0.051000 0.051000 1.200000 0.027000 0.032000
1517285018741148987	700 29 0.900000 0.028000 0.027000 500 28 0.900000 0.278000 0.253000 600 32 1.000000 0.051000 0.051000 1.200000 0.027000 0.032000
1517285019253152821	700 29 0.900000 0.028000 0.027000 500 28 0.900000 0.281000 0.255000 600 32 1.000000 0.051000 0.051000 1.200000 0.027000 0.032000
1517285019765242571	700 29 0.900000 0.028000 0.027000 500 28 0.900000 0.284000 0.258000 600 32 1.000000 0.051000 0.051000 1.200000 0.027000 0.032000
1517285020277204988	700 29 0.900000 0.028000 0.027000 500 28 0.900000 0.284000 0.258000 600 32 1.000000 0.051000 0.051000 1.200000 0.027000 0.032000
1517285020789189779	700 29 0.900000 0.028000 0.027000 500 28 0.900000 0.280000 0.254000 600 32 1.000000 0.051000 0.051000 1.200000 0.027000 0.032000
1517285021301133529	700 29 0.900000 0.028000 0.027000 500 28 0.900000 0.277000 0.252000 600 32 1.000000 0.051000 0.051000 1.200000 0.027000 0.032000
1517285021813119821	700 29 0.900000 0.028000 0.027000 500 28 0.900000 0.279000 0.254000 600 32 1.000000 0.051000 0.051000 1.200000 0.027000 0.032000
1517285022325071113	700 29 0.900000 0.028000 0.027000 500 28 0.900000 0.280000 0.255000 600 32 1.000000 0.051000 0.051000 1.200000 0.027000 0.032000
1517285022836838155	700 29 0.900000 0.028000 0.027000 500 28 0.900000 0.283000 0.257000 600 32 1.000000 0.051000 0.051000 1.200000 0.026000 0.031000
1517285023349039446	700 29 0.900000 0.029000 0.028000 500 28 0.900000 0.272000 0.247000 600 32 1.000000 0.051000 0.051000 1.200000 0.026000 0.031000
1517285023861085988	700 29 0.900000 0.028000 0.027000 500 28 0.900000 0.280000 0.254000 600 32 1.000000 0.051000 0.051000 1.200000 0.026000 0.031000
1517285024373065071	700 29 0.900000 0.028000 0.027000 500 28 0.900000 0.279000 0.254000 600 32 1.000000 0.051000 0.051000 1.200000 0.027000 0.032000
1517285024885124613	700 29 0.900000 0.029000 0.028000 500 28 0.900000 0.278000 0.252000 600 32 1.000000 0.051000 0.051000 1.200000 0.027000 0.032000
1517285025397096155	700 29 0.900000 0.029000 0.028000 500 28 0.900000 0.280000 0.254000 600 32 1.000000 0.051000 0.051000 1.200000 0.027000 0.032000
1517285025908992447	700 29 0.900000 0.028000 0.027000 500 28 0.900000 0.282000 0.256000 600 32 1.000000 0.051000 0.051000 1.200000 0.027000 0.032000
1517285026421226280	700 29 0.900000 0.028000 0.027000 500 28 0.900000 0.283000 0.257000 600 32 1.000000 0.051000 0.051000 1.200000 0.027000 0.032000
1517285026933239905	700 29 0.900000 0.028000 0.027000 500 28 0.900000 0.284000 0.258000 600 32 1.000000 0.051000 0.051000 1.200000 0.027000 0.032000
1517285027445556113	700 29 0.900000 0.028000 0.027000 500 28 0.900000 0.283000 0.257000 600 32 1.000000 0.051000 0.051000 1.200000 0.027000 0.032000
1517285027957548780	700 29 0.900000 0.028000 0.027000 500 28 0.900000 0.278000 0.252000 600 32 1.000000 0.051000 0.051000 1.200000 0.027000 0.032000
1517285028469563072	700 29 0.900000 0.028000 0.027000 500 28 0.900000 0.277000 0.252000 600 32 1.000000 0.051000 0.051000 1.200000 0.026000 0.031000
1517285028981615489	700 29 0.900000 0.028000 0.027000 500 27 0.900000 0.279000 0.254000 600 32 1.000000 0.051000 0.051000 1.200000 0.026000 0.031000
1517285029493882322	700 29 0.900000 0.028000 0.027000 500 28 0.900000 0.283000 0.257000 600 32 1.000000 0.051000 0.051000 1.200000 0.028000 0.033000
1517285030005739197	700 29 0.900000 0.028000 0.027000 500 28 0.900000 0.284000 0.258000 600 32 1.000000 0.051000 0.051000 1.200000 0.026000 0.031000
1517285030517571572	700 29 0.900000 0.028000 0.027000 500 28 0.900000 0.273000 0.248000 600 32 1.000000 0.051000 0.051000 1.200000 0.026000 0.031000
1517285031029491614	700 29 0.900000 0.028000 0.027000 500 28 0.900000 0.272000 0.247000 600 32 1.000000 0.051000 0.051000 1.200000 0.026000 0.031000
1517285031541353697	700 29 0.900000 0.028000 0.027000 500 28 0.900000 0.272000 0.247000 600 32 1.000000 0.051000 0.051000 1.200000 0.025000 0.030000
1517285032053365489	700 29 0.900000 0.028000 0.027000 500 28 0.900000 0.273000 0.248000 600 32 1.000000 0.051000 0.051000 1.200000 0.026000 0.031000
1517285032565641031	700 29 0.900000 0.028000 0.027000 500 28 0.900000 0.284000 0.258000 600 32 1.000000 0.051000 0.051000 1.200000 0.028000 0.033000
1517285033077433822	700 29 0.900000 0.028000 0.027000 500 28 0.900000 0.284000 0.258000 600 32 1.000000 0.051000 0.051000 1.200000 0.028000 0.033000
1517285033589551364	700 29 0.900000 0.029000 0.028000 500 28 0.900000 0.282000 0.256000 600 32 1.000000 0.051000 0.051000 1.200000 0.027000 0.032000
1517285034101471906	700 29 0.900000 0.029000 0.028000 500 28 0.900000 0.279000 0.253000 600 32 1.000000 0.051000 0.051000 1.200000 0.027000 0.032000
1517285034613590864	700 29 0.900000 0.028000 0.027000 500 28 0.900000 0.279000 0.253000 600 32 1.000000 0.051000 0.051000 1.200000 0.026000 0.031000
1517285035125511906	700 29 0.900000 0.028000 0.027000 500 28 0.900000 0.280000 0.255000 600 32 1.000000 0.051000 0.051000 1.200000 0.027000 0.032000
1517285035637617156	700 29 0.900000 0.028000 0.027000 500 28 0.900000 0.280000 0.254000 600 32 1.000000 0.051000 0.051000 1.200000 0.027000 0.032000
1517285036149401531	700 29 0.900000 0.029000 0.028000 500 28 0.900000 0.283000 0.257000 600 32 1.000000 0.051000 0.051000 1.200000 0.027000 0.032000
1517285036661390948	700 29 0.900000 0.029000 0.028000 500 28 0.900000 0.282000 0.256000 600 32 1.000000 0.051000 0.051000 1.200000 0.027000 0.032000
1517285037173300698	700 29 0.900000 0.028000 0.027000 500 28 0.900000 0.282000 0.256000 600 32 1.000000 0.051000 0.051000 1.200000 0.026000 0.031000
1517285037686569698	700 29 0.900000 0.029000 0.028000 500 28 0.900000 0.286000 0.260000 600 32 1.000000 0.051000 0.051000 1.200000 0.049000 0.059000
1517285038199963615	700 29 0.900000 0.031000 0.030000 500 28 0.900000 0.313000 0.284000 600 32 1.000000 0.051000 0.051000 1.200000 0.094000 0.114000
1517285038773350281	700 31 0.900000 0.089000 0.087000 500 29 0.900000 0.469000 0.426000 600 34 1.000000 0.051000 0.051000 1.200000 0.081000 0.098000
1517285039329425823	700 31 0.900000 0.204000 0.200000 500 29 0.900000 0.706000 0.641000 600 34 1.000000 0.051000 0.051000 1.200000 0.066000 0.079000
1517285039893435990	700 32 0.900000 0.205000 0.201000 500 29 0.900000 0.706000 0.641000 600 35 1.000000 0.051000 0.051000 1.200000 0.066000 0.079000
1517285040465271282	700 32 0.900000 0.202000 0.198000 500 30 0.900000 0.705000 0.640000 600 35 1.000000 0.051000 0.051000 1.200000 0.063000 0.076000
1517285041033319323	700 32 0.900000 0.203000 0.199000 500 30 0.900000 0.705000 0.640000 600 35 1.000000 0.051000 0.051000 1.200000 0.062000 0.075000
1517285041601418365	700 32 0.900000 0.203000 0.199000 500 30 0.900000 0.706000 0.641000 600 35 1.000000 0.051000 0.051000 1.200000 0.062000 0.075000
1517285042165287365	700 32 0.900000 0.202000 0.198000 500 30 0.900000 0.706000 0.641000 600 35 1.000000 0.051000 0.051000 1.200000 0.061000 0.073000
1517285042733415574	700 32 0.900000 0.203000 0.199000 500 30 0.900000 0.706000 0.641000 600 35 1.000000 0.051000 0.051000 1.200000 0.062000 0.075000
1517285043301346949	700 33 0.900000 0.203000 0.199000 500 30 0.900000 0.706000 0.641000 600 36 1.000000 0.051000 0.051000 1.200000 0.062000 0.075000
1517285043857348657	700 33 0.900000 0.203000 0.199000 500 30 0.900000 0.706000 0.641000 600 36 1.000000 0.051000 0.051000 1.200000 0.062000 0.075000
1517285044401252490	700 33 0.900000 0.203000 0.199000 500 30 0.900000 0.707000 0.643000 600 36 1.000000 0.051000 0.051000 1.200000 0.063000 0.076000
1517285044965321241	700 33 0.900000 0.203000 0.199000 500 30 0.900000 0.705000 0.640000 600 36 1.000000 0.051000 0.051000 1.200000 0.062000 0.075000
1517285045529375574	700 33 0.900000 0.203000 0.199000 500 31 0.900000 0.705000 0.640000 600 36 1.000000 0.051000 0.051000 1.200000 0.062000 0.075000
1517285046101340616	700 33 0.900000 0.203000 0.199000 500 31 0.900000 0.706000 0.641000 600 36 1.000000 0.051000 0.051000 1.200000 0.061000 0.073000
1517285046665255616	700 33 0.900000 0.203000 0.199000 500 31 0.900000 0.706000 0.641000 600 36 1.000000 0.051000 0.051000 1.200000 0.062000 0.075000
1517285047229400199	700 33 0.900000 0.203000 0.199000 500 31 0.900000 0.706000 0.641000 600 36 1.000000 0.051000 0.051000 1.200000 0.062000 0.075000
1517285047797342408	700 33 0.900000 0.203000 0.199000 500 31 0.900000 0.706000 0.641000 600 36 1.000000 0.052000 0.052000 1.200000 0.062000 0.075000
1517285048361354241	700 33 0.900000 0.203000 0.199000 500 31 0.900000 0.707000 0.641000 600 36 1.000000 0.051000 0.051000 1.200000 0.062000 0.075000
1517285048937317241	700 33 0.900000 0.203000 0.199000 500 31 0.900000 0.706000 0.641000 600 36 1.000000 0.051000 0.051000 1.200000 0.062000 0.075000
1517285049489384366	700 33 0.900000 0.203000 0.199000 500 31 0.900000 0.706000 0.641000 600 36 1.000000 0.051000 0.051000 1.200000 0.063000 0.076000
1517285050053256158	700 33 0.900000 0.203000 0.199000 500 31 0.900000 0.707000 0.643000 600 36 1.000000 0.051000 0.051000 1.200000 0.062000 0.075000
1517285050613358908	700 33 0.900000 0.203000 0.199000 500 31 0.900000 0.707000 0.641000 600 36 1.000000 0.051000 0.051000 1.200000 0.061000 0.073000
1517285051177272908	700 33 0.900000 0.203000 0.199000 500 31 0.900000 0.706000 0.641000 600 36 1.000000 0.051000 0.051000 1.200000 0.062000 0.075000
1517285051741343200	700 33 0.900000 0.203000 0.199000 500 31 0.900000 0.706000 0.641000 600 36 1.000000 0.051000 0.051000 1.200000 0.061000 0.073000
1517285052309353908	700 33 0.900000 0.203000 0.199000 500 31 0.900000 0.707000 0.641000 600 36 1.000000 0.052000 0.052000 1.200000 0.062000 0.075000
1517285052877224658	700 33 0.900000 0.203000 0.199000 500 31 0.900000 0.707000 0.641000 600 36 1.000000 0.051000 0.051000 1.200000 0.062000 0.075000
1517285053433270283	700 33 0.900000 0.203000 0.199000 500 31 0.900000 0.706000 0.641000 600 36 1.000000 0.052000 0.052000 1.200000 0.062000 0.074000
1517285054001316742	700 33 0.900000 0.203000 0.199000 500 31 0.900000 0.706000 0.641000 600 36 1.000000 0.052000 0.052000 1.200000 0.061000 0.073000
1517285054557334492	700 33 0.900000 0.203000 0.199000 500 31 0.900000 0.707000 0.641000 600 36 1.000000 0.051000 0.051000 1.200000 0.062000 0.075000
1517285055113259950	700 33 0.900000 0.203000 0.199000 500 31 0.900000 0.707000 0.641000 600 36 1.000000 0.051000 0.051000 1.200000 0.063000 0.076000
1517285055673252658	700 33 0.900000 0.203000 0.199000 500 31 0.900000 0.708000 0.642000 600 36 1.000000 0.051000 0.051000 1.200000 0.063000 0.076000
1517285056221314075	700 33 0.900000 0.203000 0.199000 500 31 0.900000 0.707000 0.641000 600 36 1.000000 0.051000 0.051000 1.200000 0.063000 0.076000
1517285056785405575	700 33 0.900000 0.203000 0.199000 500 31 0.900000 0.706000 0.642000 600 36 1.000000 0.051000 0.051000 1.200000 0.062000 0.074000
1517285057341390534	700 33 0.900000 0.203000 0.199000 500 31 0.900000 0.706000 0.641000 600 37 1.000000 0.051000 0.051000 1.200000 0.063000 0.076000
1517285057909310200	700 33 0.900000 0.203000 0.199000 500 31 0.900000 0.706000 0.641000 600 37 1.000000 0.052000 0.052000 1.200000 0.062000 0.075000
1517285058477347700	700 34 0.900000 0.203000 0.199000 500 31 0.900000 0.706000 0.641000 600 37 1.000000 0.051000 0.051000 1.200000 0.062000 0.075000
1517285059041373826	700 34 0.900000 0.203000 0.199000 500 31 0.900000 0.706000 0.641000 600 36 1.000000 0.051000 0.051000 1.200000 0.063000 0.076000
1517285059609305659	700 34 0.900000 0.203000 0.199000 500 31 0.900000 0.707000 0.641000 600 37 1.000000 0.051000 0.051000 1.200000 0.063000 0.076000
1517285060161350284	700 34 0.900000 0.203000 0.199000 500 31 0.900000 0.706000 0.641000 600 37 1.000000 0.051000 0.051000 1.200000 0.062000 0.074000
1517285060709331534	700 34 0.900000 0.203000 0.199000 500 31 0.900000 0.707000 0.641000 600 37 1.000000 0.051000 0.051000 1.200000 0.062000 0.075000
1517285061265310242	700 34 0.900000 0.203000 0.199000 500 31 0.900000 0.706000 0.641000 600 37 1.000000 0.052000 0.052000 1.200000 0.062000 0.075000
1517285061829338243	700 34 0.900000 0.203000 0.199000 500 31 0.900000 0.706000 0.641000 600 37 1.000000 0.051000 0.051000 1.200000 0.063000 0.076000
1517285062381387076	700 34 0.900000 0.203000 0.199000 500 31 0.900000 0.706000 0.641000 600 37 1.000000 0.052000 0.052000 1.200000 0.062000 0.075000
1517285062941252118	700 34 0.900000 0.203000 0.199000 500 32 0.900000 0.706000 0.641000 600 37 1.000000 0.051000 0.051000 1.200000 0.062000 0.074000
1517285063501350451	700 34 0.900000 0.203000 0.199000 500 32 0.900000 0.707000 0.641000 600 37 1.000000 0.052000 0.052000 1.200000 0.061000 0.073000
1517285064065294076	700 34 0.900000 0.203000 0.199000 500 31 0.900000 0.707000 0.641000 600 37 1.000000 0.051000 0.051000 1.200000 0.062000 0.075000
1517285064621345576	700 34 0.900000 0.203000 0.199000 500 31 0.900000 0.706000 0.641000 600 37 1.000000 0.052000 0.052000 1.200000 0.063000 0.076000
1517285065185315243	700 34 0.900000 0.203000 0.199000 500 32 0.900000 0.707000 0.641000 600 37 1.000000 0.052000 0.052000 1.200000 0.063000 0.076000
1517285065745343201	700 34 0.900000 0.203000 0.199000 500 31 0.900000 0.707000 0.641000 600 37 1.000000 0.052000 0.052000 1.200000 0.063000 0.076000
1517285066309336410	700 34 0.900000 0.203000 0.199000 500 32 0.900000 0.706000 0.641000 600 37 1.000000 0.051000 0.051000 1.200000 0.063000 0.076000
1517285066869333076	700 34 0.900000 0.203000 0.199000 500 32 0.900000 0.706000 0.641000 600 37 1.000000 0.052000 0.052000 1.200000 0.063000 0.076000
1517285067441322493	700 34 0.900000 0.203000 0.199000 500 32 0.900000 0.706000 0.641000 600 37 1.000000 0.052000 0.052000 1.200000 0.062000 0.075000
1517285068005251827	700 34 0.900000 0.203000 0.199000 500 32 0.900000 0.707000 0.641000 600 37 1.000000 0.052000 0.052000 1.200000 0.062000 0.075000
1517285068569346577	700 34 0.900000 0.203000 0.199000 500 32 0.900000 0.707000 0.641000 600 37 1.000000 0.051000 0.051000 1.200000 0.062000 0.075000
1517285069125317077	700 34 0.900000 0.203000 0.199000 500 32 0.900000 0.707000 0.641000 600 37 1.000000 0.052000 0.052000 1.200000 0.062000 0.075000
1517285069681332243	700 34 0.900000 0.203000 0.199000 500 32 0.900000 0.706000 0.641000 600 37 1.000000 0.052000 0.052000 1.200000 0.062000 0.075000
1517285070245307327	700 34 0.900000 0.203000 0.199000 500 32 0.900000 0.706000 0.641000 600 37 1.000000 0.052000 0.052000 1.200000 0.063000 0.076000
1517285070805357660	700 34 0.900000 0.203000 0.199000 500 32 0.900000 0.706000 0.641000 600 37 1.000000 0.052000 0.052000 1.200000 0.062000 0.075000
1517285071369361369	700 34 0.900000 0.203000 0.199000 500 32 0.900000 0.707000 0.641000 600 37 1.000000 0.052000 0.052000 1.200000 0.063000 0.076000
1517285071933259994	700 34 0.900000 0.203000 0.199000 500 32 0.900000 0.707000 0.641000 600 37 1.000000 0.052000 0.052000 1.200000 0.063000 0.076000
1517285072497347494	700 34 0.900000 0.203000 0.199000 500 32 0.900000 0.707000 0.641000 600 37 1.000000 0.052000 0.052000 1.200000 0.062000 0.075000
1517285073061345577	700 34 0.900000 0.203000 0.199000 500 32 0.900000 0.707000 0.641000 600 37 1.000000 0.052000 0.052000 1.200000 0.062000 0.074000
1517285073625337577	700 34 0.900000 0.203000 0.199000 500 32 0.900000 0.707000 0.641000 600 37 1.000000 0.051000 0.051000 1.200000 0.062000 0.075000
1517285074185262536	700 34 0.900000 0.203000 0.199000 500 32 0.900000 0.706000 0.641000 600 37 1.000000 0.052000 0.052000 1.200000 0.062000 0.075000
1517285074749349286	700 34 0.900000 0.204000 0.200000 500 32 0.900000 0.707000 0.641000 600 37 1.000000 0.052000 0.052000 1.200000 0.063000 0.076000
1517285075313402119	700 34 0.900000 0.203000 0.199000 500 32 0.900000 0.708000 0.642000 600 37 1.000000 0.052000 0.052000 1.200000 0.062000 0.075000
1517285075881253828	700 34 0.900000 0.203000 0.199000 500 32 0.900000 0.708000 0.642000 600 37 1.000000 0.052000 0.052000 1.200000 0.063000 0.076000
1517285076445401703	700 34 0.900000 0.203000 0.199000 500 32 0.900000 0.707000 0.641000 600 37 1.000000 0.052000 0.052000 1.200000 0.061000 0.073000
1517285077013359161	700 34 0.900000 0.203000 0.199000 500 32 0.900000 0.708000 0.642000 600 37 1.000000 0.051000 0.051000 1.200000 0.062000 0.075000
1517285077577341328	700 34 0.900000 0.203000 0.199000 500 32 0.900000 0.707000 0.641000 600 37 1.000000 0.052000 0.052000 1.200000 0.061000 0.073000
1517285078145369369	700 34 0.900000 0.203000 0.199000 500 32 0.900000 0.707000 0.641000 600 37 1.000000 0.051000 0.051000 1.200000 0.063000 0.076000
1517285078705330495	700 34 0.900000 0.203000 0.199000 500 32 0.900000 0.706000 0.641000 600 37 1.000000 0.052000 0.052000 1.200000 0.063000 0.076000
1517285079273419411	700 34 0.900000 0.203000 0.199000 500 32 0.900000 0.707000 0.641000 600 37 1.000000 0.052000 0.052000 1.200000 0.063000 0.076000
1517285079829317745	700 34 0.900000 0.203000 0.199000 500 32 0.900000 0.706000 0.641000 600 37 1.000000 0.052000 0.052000 1.200000 0.062000 0.075000
1517285080393416995	700 34 0.900000 0.203000 0.199000 500 32 0.900000 0.707000 0.641000 600 37 1.000000 0.052000 0.052000 1.200000 0.061000 0.073000
1517285080957334495	700 34 0.900000 0.203000 0.199000 500 32 0.900000 0.708000 0.642000 600 37 1.000000 0.052000 0.052000 1.200000 0.062000 0.075000
1517285081537310495	700 34 0.900000 0.203000 0.199000 500 32 0.900000 0.708000 0.642000 600 37 1.000000 0.052000 0.052000 1.200000 0.061000 0.073000
1517285082093390828	700 34 0.900000 0.203000 0.199000 500 32 0.900000 0.708000 0.642000 600 37 1.000000 0.052000 0.052000 1.200000 0.062000 0.075000
1517285082657276203	700 34 0.900000 0.203000 0.199000 500 32 0.900000 0.707000 0.641000 600 37 1.000000 0.052000 0.052000 1.200000 0.062000 0.075000
1517285083213239578	700 34 0.900000 0.203000 0.199000 500 32 0.900000 0.708000 0.642000 600 37 1.000000 0.052000 0.052000 1.200000 0.063000 0.076000
1517285083781359995	700 34 0.900000 0.203000 0.199000 500 32 0.900000 0.707000 0.641000 600 37 1.000000 0.051000 0.051000 1.200000 0.062000 0.075000
1517285084357395412	700 34 0.900000 0.203000 0.199000 500 32 0.900000 0.708000 0.642000 600 37 1.000000 0.052000 0.052000 1.200000 0.062000 0.075000
1517285084925325204	700 34 0.900000 0.203000 0.199000 500 32 0.900000 0.708000 0.642000 600 37 1.000000 0.052000 0.052000 1.200000 0.062000 0.075000
1517285085493218079	700 34 0.900000 0.203000 0.199000 500 32 0.900000 0.708000 0.642000 600 37 1.000000 0.051000 0.051000 1.200000 0.062000 0.074000
1517285086061322870	700 34 0.900000 0.203000 0.199000 500 32 0.900000 0.707000 0.641000 600 37 1.000000 0.052000 0.052000 1.200000 0.061000 0.073000
1517285086625350370	700 34 0.900000 0.203000 0.199000 500 32 0.900000 0.708000 0.642000 600 37 1.000000 0.052000 0.052000 1.200000 0.062000 0.074000
1517285087185371079	700 34 0.900000 0.203000 0.199000 500 32 0.900000 0.708000 0.642000 600 37 1.000000 0.052000 0.052000 1.200000 0.062000 0.075000
1517285087749326954	700 34 0.900000 0.203000 0.199000 500 32 0.900000 0.708000 0.642000 600 37 1.000000 0.051000 0.051000 1.200000 0.063000 0.076000
1517285088305788704	700 34 0.900000 0.203000 0.199000 500 32 0.900000 0.708000 0.642000 600 37 1.000000 0.051000 0.051000 1.200000 0.061000 0.073000
1517285088869381287	700 34 0.900000 0.203000 0.199000 500 32 0.900000 0.708000 0.642000 600 37 1.000000 0.052000 0.052000 1.200000 0.062000 0.075000
1517285089433327037	700 34 0.900000 0.203000 0.199000 500 32 0.900000 0.708000 0.642000 600 38 1.000000 0.052000 0.052000 1.200000 0.061000 0.073000
1517285090001325371	700 34 0.900000 0.203000 0.199000 500 32 0.900000 0.709000 0.645000 600 38 1.000000 0.052000 0.052000 1.200000 0.062000 0.074000
1517285090549272829	700 34 0.900000 0.203000 0.199000 500 32 0.900000 0.708000 0.644000 600 37 1.000000 0.052000 0.052000 1.200000 0.062000 0.074000
1517285091109338829	700 34 0.900000 0.204000 0.200000 500 32 0.900000 0.708000 0.642000 600 37 1.000000 0.052000 0.052000 1.200000 0.062000 0.074000
1517285091665225788	700 34 0.900000 0.203000 0.199000 500 32 0.900000 0.708000 0.642000 600 37 1.000000 0.052000 0.052000 1.200000 0.062000 0.075000
1517285092229323163	700 34 0.900000 0.204000 0.200000 500 32 0.900000 0.707000 0.641000 600 38 1.000000 0.052000 0.052000 1.200000 0.062000 0.074000
1517285092797342455	700 34 0.900000 0.203000 0.199000 500 32 0.900000 0.709000 0.643000 600 37 1.000000 0.052000 0.052000 1.200000 0.062000 0.075000
1517285093361329330	700 34 0.900000 0.203000 0.199000 500 32 0.900000 0.708000 0.642000 600 38 1.000000 0.052000 0.052000 1.200000 0.061000 0.073000
1517285093917348413	700 34 0.900000 0.203000 0.199000 500 32 0.900000 0.709000 0.643000 600 38 1.000000 0.051000 0.051000 1.200000 0.062000 0.075000
1517285094473332746	700 34 0.900000 0.204000 0.200000 500 32 0.900000 0.707000 0.641000 600 37 1.000000 0.052000 0.052000 1.200000 0.061000 0.073000
1517285095037331038	700 34 0.900000 0.204000 0.200000 500 32 0.900000 0.708000 0.642000 600 38 1.000000 0.052000 0.052000 1.200000 0.062000 0.075000
1517285095593315580	700 34 0.900000 0.203000 0.199000 500 32 0.900000 0.708000 0.642000 600 37 1.000000 0.052000 0.052000 1.200000 0.062000 0.075000
1517285096157342788	700 34 0.900000 0.203000 0.199000 500 32 0.900000 0.707000 0.643000 600 38 1.000000 0.052000 0.052000 1.200000 0.062000 0.075000
1517285096733353663	700 34 0.900000 0.204000 0.200000 500 32 0.900000 0.707000 0.643000 600 37 1.000000 0.052000 0.052000 1.200000 0.062000 0.075000
1517285097301427622	700 34 0.900000 0.203000 0.199000 500 32 0.900000 0.708000 0.644000 600 38 1.000000 0.052000 0.052000 1.200000 0.062000 0.075000
1517285097857350288	700 34 0.900000 0.204000 0.200000 500 32 0.900000 0.707000 0.641000 600 38 1.000000 0.052000 0.052000 1.200000 0.062000 0.075000
1517285098417435247	700 34 0.900000 0.203000 0.199000 500 32 0.900000 0.708000 0.642000 600 38 1.000000 0.051000 0.051000 1.200000 0.063000 0.076000
1517285098985374664	700 34 0.900000 0.203000 0.199000 500 32 0.900000 0.708000 0.642000 600 38 1.000000 0.052000 0.052000 1.200000 0.062000 0.075000
1517285099541377539	700 34 0.900000 0.204000 0.200000 500 32 0.900000 0.708000 0.642000 600 38 1.000000 0.051000 0.051000 1.200000 0.063000 0.076000
1517285100105470622	700 34 0.900000 0.203000 0.199000 500 32 0.900000 0.707000 0.641000 600 38 1.000000 0.052000 0.052000 1.200000 0.062000 0.074000
1517285100665434955	700 34 0.900000 0.203000 0.199000 500 32 0.900000 0.707000 0.641000 600 38 1.000000 0.051000 0.051000 1.200000 0.062000 0.075000
1517285101229361997	700 34 0.900000 0.203000 0.199000 500 32 0.900000 0.708000 0.642000 600 37 1.000000 0.052000 0.052000 1.200000 0.062000 0.074000
1517285101793370872	700 34 0.900000 0.204000 0.200000 500 32 0.900000 0.708000 0.642000 600 38 1.000000 0.052000 0.052000 1.200000 0.062000 0.075000
1517285102349289497	700 34 0.900000 0.203000 0.199000 500 32 0.900000 0.708000 0.642000 600 38 1.000000 0.052000 0.052000 1.200000 0.062000 0.075000
1517285102913415497	700 34 0.900000 0.203000 0.199000 500 32 0.900000 0.707000 0.641000 600 38 1.000000 0.052000 0.052000 1.200000 0.063000 0.076000
1517285103473311497	700 34 0.900000 0.203000 0.199000 500 32 0.900000 0.707000 0.641000 600 38 1.000000 0.052000 0.052000 1.200000 0.063000 0.076000
1517285104037301706	700 35 0.900000 0.204000 0.200000 500 32 0.900000 0.708000 0.642000 600 38 1.000000 0.052000 0.052000 1.200000 0.062000 0.075000
1517285104593388581	700 34 0.900000 0.203000 0.199000 500 32 0.900000 0.708000 0.642000 600 37 1.000000 0.052000 0.052000 1.200000 0.063000 0.076000
1517285105157355039	700 34 0.900000 0.203000 0.199000 500 32 0.900000 0.707000 0.641000 600 38 1.000000 0.052000 0.052000 1.200000 0.062000 0.075000
1517285105713351623	700 34 0.900000 0.204000 0.200000 500 32 0.900000 0.708000 0.642000 600 37 1.000000 0.052000 0.052000 1.200000 0.062000 0.075000
1517285106277336039	700 34 0.900000 0.203000 0.199000 500 32 0.900000 0.708000 0.642000 600 38 1.000000 0.052000 0.052000 1.200000 0.062000 0.075000
1517285106853370956	700 34 0.900000 0.204000 0.200000 500 32 0.900000 0.708000 0.644000 600 38 1.000000 0.052000 0.052000 1.200000 0.063000 0.076000
1517285107409343165	700 34 0.900000 0.203000 0.199000 500 32 0.900000 0.707000 0.641000 600 37 1.000000 0.052000 0.052000 1.200000 0.062000 0.075000
1517285107965341248	700 34 0.900000 0.203000 0.199000 500 32 0.900000 0.707000 0.641000 600 38 1.000000 0.052000 0.052000 1.200000 0.063000 0.076000
1517285108521316456	700 34 0.900000 0.204000 0.200000 500 32 0.900000 0.706000 0.641000 600 38 1.000000 0.052000 0.052000 1.200000 0.062000 0.075000
1517285109089263248	700 34 0.900000 0.203000 0.199000 500 32 0.900000 0.707000 0.641000 600 37 1.000000 0.052000 0.052000 1.200000 0.062000 0.075000
1517285109657383457	700 34 0.900000 0.204000 0.200000 500 32 0.900000 0.706000 0.641000 600 37 1.000000 0.052000 0.052000 1.200000 0.063000 0.076000
1517285110221344373	700 34 0.900000 0.203000 0.199000 500 32 0.900000 0.708000 0.642000 600 38 1.000000 0.052000 0.052000 1.200000 0.062000 0.075000
1517285110773161707	700 34 0.900000 0.204000 0.200000 500 32 0.900000 0.708000 0.642000 600 37 1.000000 0.052000 0.052000 1.200000 0.061000 0.073000
1517285111345352957	700 34 0.900000 0.203000 0.199000 500 32 0.900000 0.708000 0.642000 600 37 1.000000 0.052000 0.052000 1.200000 0.062000 0.075000
1517285111921344540	700 34 0.900000 0.203000 0.199000 500 32 0.900000 0.707000 0.641000 600 37 1.000000 0.052000 0.052000 1.200000 0.063000 0.076000
1517285112497346207	700 34 0.900000 0.203000 0.199000 500 32 0.900000 0.708000 0.642000 600 38 1.000000 0.052000 0.052000 1.200000 0.062000 0.075000
1517285113061245457	700 34 0.900000 0.203000 0.199000 500 32 0.900000 0.708000 0.642000 600 38 1.000000 0.052000 0.052000 1.200000 0.063000 0.076000
1517285113625219749	700 34 0.900000 0.203000 0.199000 500 32 0.900000 0.708000 0.642000 600 38 1.000000 0.052000 0.052000 1.200000 0.062000 0.075000
1517285114189331040	700 35 0.900000 0.203000 0.199000 500 32 0.900000 0.707000 0.641000 600 37 1.000000 0.052000 0.052000 1.200000 0.061000 0.073000
1517285114745272999	700 34 0.900000 0.203000 0.199000 500 32 0.900000 0.708000 0.642000 600 38 1.000000 0.051000 0.051000 1.200000 0.062000 0.075000
1517285115297800207	700 34 0.900000 0.203000 0.199000 500 32 0.900000 0.708000 0.642000 600 38 1.000000 0.051000 0.051000 1.200000 0.062000 0.075000
1517285115853325999	700 35 0.900000 0.203000 0.199000 500 32 0.900000 0.708000 0.644000 600 37 1.000000 0.052000 0.052000 1.200000 0.062000 0.075000
1517285116401421957	700 34 0.900000 0.203000 0.199000 500 32 0.900000 0.709000 0.643000 600 38 1.000000 0.052000 0.052000 1.200000 0.062000 0.075000
1517285116969402999	700 34 0.900000 0.203000 0.199000 500 32 0.900000 0.707000 0.641000 600 38 1.000000 0.052000 0.052000 1.200000 0.063000 0.076000
1517285117541358749	700 35 0.900000 0.203000 0.199000 500 32 0.900000 0.708000 0.642000 600 38 1.000000 0.051000 0.051000 1.200000 0.063000 0.076000
1517285118097315833	700 34 0.900000 0.203000 0.199000 500 32 0.900000 0.706000 0.641000 600 38 1.000000 0.052000 0.052000 1.200000 0.062000 0.075000
1517285118657371041	700 34 0.900000 0.203000 0.199000 500 32 0.900000 0.708000 0.642000 600 37 1.000000 0.052000 0.052000 1.200000 0.062000 0.075000
1517285119225370833	700 34 0.900000 0.203000 0.199000 500 32 0.900000 0.708000 0.642000 600 38 1.000000 0.052000 0.052000 1.200000 0.062000 0.075000
1517285119777412499	700 34 0.900000 0.203000 0.199000 500 32 0.900000 0.708000 0.642000 600 38 1.000000 0.052000 0.052000 1.200000 0.062000 0.075000
1517285120345395624	700 34 0.900000 0.203000 0.199000 500 32 0.900000 0.708000 0.642000 600 37 1.000000 0.052000 0.052000 1.200000 0.062000 0.075000
1517285120913377541	700 34 0.900000 0.203000 0.199000 500 32 0.900000 0.708000 0.642000 600 38 1.000000 0.052000 0.052000 1.200000 0.063000 0.076000
1517285121485363583	700 34 0.900000 0.203000 0.199000 500 32 0.900000 0.707000 0.641000 600 38 1.000000 0.052000 0.052000 1.200000 0.062000 0.075000
1517285122037255000	700 34 0.900000 0.204000 0.200000 500 32 0.900000 0.708000 0.642000 600 38 1.000000 0.051000 0.051000 1.200000 0.063000 0.076000
1517285122601351333	700 35 0.900000 0.203000 0.199000 500 32 0.900000 0.708000 0.642000 600 38 1.000000 0.051000 0.051000 1.200000 0.061000 0.073000
1517285123165292833	700 35 0.900000 0.203000 0.199000 500 32 0.900000 0.708000 0.642000 600 38 1.000000 0.051000 0.051000 1.200000 0.062000 0.075000
1517285123721320292	700 34 0.900000 0.203000 0.199000 500 32 0.900000 0.708000 0.642000 600 38 1.000000 0.051000 0.051000 1.200000 0.061000 0.073000
1517285124285311000	700 34 0.900000 0.203000 0.199000 500 32 0.900000 0.709000 0.643000 600 38 1.000000 0.052000 0.052000 1.200000 0.062000 0.075000
1517285124849354000	700 34 0.900000 0.203000 0.199000 500 32 0.900000 0.708000 0.642000 600 38 1.000000 0.051000 0.051000 1.200000 0.062000 0.075000
1517285125405301708	700 34 0.900000 0.203000 0.199000 500 32 0.900000 0.708000 0.642000 600 38 1.000000 0.051000 0.051000 1.200000 0.063000 0.076000
1517285125965334833	700 35 0.900000 0.203000 0.199000 500 32 0.900000 0.708000 0.642000 600 37 1.000000 0.051000 0.051000 1.200000 0.063000 0.076000
1517285126529269334	700 34 0.900000 0.204000 0.200000 500 32 0.900000 0.708000 0.642000 600 38 1.000000 0.052000 0.052000 1.200000 0.063000 0.076000
1517285127097301584	700 34 0.900000 0.203000 0.199000 500 32 0.900000 0.708000 0.642000 600 38 1.000000 0.052000 0.052000 1.200000 0.061000 0.073000
1517285127653373875	700 34 0.900000 0.203000 0.199000 500 32 0.900000 0.708000 0.642000 600 37 1.000000 0.052000 0.052000 1.200000 0.062000 0.075000
1517285128209355334	700 34 0.900000 0.203000 0.199000 500 32 0.900000 0.708000 0.642000 600 37 1.000000 0.052000 0.052000 1.200000 0.062000 0.075000
1517285128773371584	700 34 0.900000 0.203000 0.199000 500 32 0.900000 0.708000 0.642000 600 38 1.000000 0.051000 0.051000 1.200000 0.062000 0.075000
1517285129333345876	700 34 0.900000 0.203000 0.199000 500 32 0.900000 0.708000 0.642000 600 38 1.000000 0.052000 0.052000 1.200000 0.062000 0.075000
1517285129901254167	700 34 0.900000 0.203000 0.199000 500 32 0.900000 0.708000 0.642000 600 38 1.000000 0.051000 0.051000 1.200000 0.062000 0.075000
1517285130469339459	700 34 0.900000 0.203000 0.199000 500 32 0.900000 0.708000 0.642000 600 37 1.000000 0.052000 0.052000 1.200000 0.062000 0.075000
1517285131041442251	700 34 0.900000 0.204000 0.200000 500 32 0.900000 0.707000 0.641000 600 37 1.000000 0.052000 0.052000 1.200000 0.062000 0.075000
1517285131605317126	700 34 0.900000 0.203000 0.199000 500 32 0.900000 0.708000 0.642000 600 38 1.000000 0.052000 0.052000 1.200000 0.062000 0.075000
1517285132161325209	700 34 0.900000 0.204000 0.200000 500 32 0.900000 0.707000 0.641000 600 38 1.000000 0.051000 0.051000 1.200000 0.061000 0.073000
1517285132717357084	700 34 0.900000 0.203000 0.199000 500 32 0.900000 0.708000 0.642000 600 37 1.000000 0.052000 0.052000 1.200000 0.062000 0.075000
1517285133285363251	700 34 0.900000 0.203000 0.199000 500 32 0.900000 0.707000 0.641000 600 37 1.000000 0.052000 0.052000 1.200000 0.061000 0.073000
1517285133849319293	700 34 0.900000 0.203000 0.199000 500 32 0.900000 0.707000 0.641000 600 37 1.000000 0.052000 0.052000 1.200000 0.062000 0.075000
1517285134409323126	700 34 0.900000 0.203000 0.199000 500 32 0.900000 0.708000 0.642000 600 37 1.000000 0.052000 0.052000 1.200000 0.062000 0.075000
1517285134977379001	700 34 0.900000 0.203000 0.199000 500 32 0.900000 0.708000 0.642000 600 38 1.000000 0.052000 0.052000 1.200000 0.063000 0.076000
1517285135533334668	700 34 0.900000 0.203000 0.199000 500 32 0.900000 0.708000 0.642000 600 38 1.000000 0.052000 0.052000 1.200000 0.061000 0.073000
1517285136097271668	700 34 0.900000 0.203000 0.199000 500 32 0.900000 0.706000 0.641000 600 37 1.000000 0.052000 0.052000 1.200000 0.062000 0.075000
1517285136661410210	700 34 0.900000 0.203000 0.199000 500 32 0.900000 0.706000 0.641000 600 37 1.000000 0.052000 0.052000 1.200000 0.062000 0.075000
1517285137221269752	700 34 0.900000 0.204000 0.200000 500 32 0.900000 0.706000 0.641000 600 37 1.000000 0.052000 0.052000 1.200000 0.062000 0.075000
1517285137789244085	700 34 0.900000 0.203000 0.199000 500 32 0.900000 0.707000 0.641000 600 37 1.000000 0.052000 0.052000 1.200000 0.061000 0.073000
1517285138353219085	700 34 0.900000 0.203000 0.199000 500 32 0.900000 0.707000 0.641000 600 37 1.000000 0.052000 0.052000 1.200000 0.061000 0.073000
1517285138921339127	700 34 0.900000 0.203000 0.199000 500 32 0.900000 0.706000 0.641000 600 37 1.000000 0.052000 0.052000 1.200000 0.062000 0.075000
1517285139481320460	700 34 0.900000 0.203000 0.199000 500 32 0.900000 0.707000 0.641000 600 38 1.000000 0.052000 0.052000 1.200000 0.062000 0.075000
1517285140045327794	700 34 0.900000 0.203000 0.199000 500 32 0.900000 0.708000 0.642000 600 37 1.000000 0.051000 0.051000 1.200000 0.061000 0.073000
1517285140593253544	700 34 0.900000 0.203000 0.199000 500 32 0.900000 0.707000 0.641000 600 37 1.000000 0.052000 0.052000 1.200000 0.062000 0.075000
1517285141149377419	700 34 0.900000 0.203000 0.199000 500 32 0.900000 0.707000 0.641000 600 37 1.000000 0.052000 0.052000 1.200000 0.063000 0.076000
1517285141709349127	700 34 0.900000 0.203000 0.199000 500 32 0.900000 0.707000 0.641000 600 37 1.000000 0.052000 0.052000 1.200000 0.063000 0.076000
1517285142289396085	700 34 0.900000 0.203000 0.199000 500 32 0.900000 0.707000 0.641000 600 37 1.000000 0.052000 0.052000 1.200000 0.062000 0.075000
1517285142865325127	700 34 0.900000 0.203000 0.199000 500 32 0.900000 0.707000 0.641000 600 37 1.000000 0.052000 0.052000 1.200000 0.062000 0.075000
1517285143437297919	700 34 0.900000 0.203000 0.199000 500 32 0.900000 0.709000 0.645000 600 37 1.000000 0.052000 0.052000 1.200000 0.062000 0.075000
1517285144005318752	700 34 0.900000 0.203000 0.199000 500 32 0.900000 0.707000 0.641000 600 37 1.000000 0.052000 0.052000 1.200000 0.063000 0.076000
1517285144565322377	700 34 0.900000 0.203000 0.199000 500 32 0.900000 0.707000 0.643000 600 37 1.000000 0.052000 0.052000 1.200000 0.063000 0.076000
1517285145121397211	700 34 0.900000 0.203000 0.199000 500 32 0.900000 0.707000 0.643000 600 37 1.000000 0.051000 0.051000 1.200000 0.062000 0.074000
1517285145677359169	700 34 0.900000 0.204000 0.200000 500 32 0.900000 0.707000 0.641000 600 37 1.000000 0.052000 0.052000 1.200000 0.063000 0.076000
1517285146237273586	700 34 0.900000 0.203000 0.199000 500 32 0.900000 0.706000 0.641000 600 37 1.000000 0.052000 0.052000 1.200000 0.063000 0.076000
1517285146801414378	700 34 0.900000 0.203000 0.199000 500 32 0.900000 0.707000 0.641000 600 37 1.000000 0.051000 0.051000 1.200000 0.063000 0.076000
1517285147357337711	700 34 0.900000 0.203000 0.199000 500 32 0.900000 0.707000 0.641000 600 37 1.000000 0.052000 0.052000 1.200000 0.062000 0.075000
1517285147921383419	700 34 0.900000 0.203000 0.199000 500 32 0.900000 0.706000 0.641000 600 37 1.000000 0.052000 0.052000 1.200000 0.062000 0.075000
1517285148489362795	700 34 0.900000 0.203000 0.199000 500 32 0.900000 0.708000 0.642000 600 37 1.000000 0.051000 0.051000 1.200000 0.062000 0.075000
1517285149065334545	700 34 0.900000 0.203000 0.199000 500 32 0.900000 0.708000 0.642000 600 37 1.000000 0.052000 0.052000 1.200000 0.063000 0.076000
1517285149629370753	700 34 0.900000 0.203000 0.199000 500 32 0.900000 0.707000 0.641000 600 37 1.000000 0.052000 0.052000 1.200000 0.063000 0.076000
1517285150189335086	700 34 0.900000 0.204000 0.200000 500 32 0.900000 0.707000 0.641000 600 37 1.000000 0.052000 0.052000 1.200000 0.062000 0.075000
1517285150753355920	700 34 0.900000 0.203000 0.199000 500 32 0.900000 0.706000 0.641000 600 37 1.000000 0.052000 0.052000 1.200000 0.063000 0.076000
1517285151309253545	700 34 0.900000 0.204000 0.200000 500 32 0.900000 0.707000 0.641000 600 37 1.000000 0.052000 0.052000 1.200000 0.063000 0.076000
1517285151881343587	700 34 0.900000 0.203000 0.199000 500 32 0.900000 0.707000 0.641000 600 37 1.000000 0.052000 0.052000 1.200000 0.062000 0.075000
1517285152453352795	700 34 0.900000 0.203000 0.199000 500 32 0.900000 0.708000 0.642000 600 37 1.000000 0.052000 0.052000 1.200000 0.062000 0.075000
1517285153017277670	700 34 0.900000 0.203000 0.199000 500 32 0.900000 0.708000 0.642000 600 37 1.000000 0.052000 0.052000 1.200000 0.062000 0.075000
1517285153581337003	700 34 0.900000 0.203000 0.199000 500 32 0.900000 0.707000 0.641000 600 37 1.000000 0.052000 0.052000 1.200000 0.062000 0.074000
1517285154141324295	700 34 0.900000 0.203000 0.199000 500 32 0.900000 0.707000 0.641000 600 37 1.000000 0.051000 0.051000 1.200000 0.062000 0.075000
1517285154705337295	700 34 0.900000 0.203000 0.199000 500 32 0.900000 0.707000 0.641000 600 37 1.000000 0.052000 0.052000 1.200000 0.063000 0.076000
1517285155253308337	700 34 0.900000 0.203000 0.199000 500 32 0.900000 0.707000 0.641000 600 37 1.000000 0.052000 0.052000 1.200000 0.063000 0.076000
1517285155821331754	700 34 0.900000 0.203000 0.199000 500 32 0.900000 0.706000 0.641000 600 37 1.000000 0.052000 0.052000 1.200000 0.062000 0.075000
1517285156385381837	700 34 0.900000 0.203000 0.199000 500 32 0.900000 0.708000 0.642000 600 37 1.000000 0.052000 0.052000 1.200000 0.062000 0.075000
1517285156898959837	700 32 0.900000 0.116000 0.114000 500 31 0.900000 0.270000 0.245000 600 36 1.000000 0.052000 0.052000 1.200000 0.041000 0.049000
1517285157412383837	700 32 0.900000 0.030000 0.029000 500 31 0.900000 0.275000 0.250000 600 35 1.000000 0.051000 0.051000 1.200000 0.026000 0.031000
1517285157925276671	700 32 0.900000 0.028000 0.027000 500 31 0.900000 0.270000 0.245000 600 35 1.000000 0.051000 0.051000 1.200000 0.024000 0.028000
1517285158438396254	700 31 0.900000 0.029000 0.028000 500 30 0.900000 0.268000 0.244000 600 35 1.000000 0.051000 0.051000 1.200000 0.024000 0.028000
1517285158951362212	700 31 0.900000 0.029000 0.028000 500 30 0.900000 0.274000 0.249000 600 35 1.000000 0.052000 0.052000 1.200000 0.025000 0.030000
1517285159464380421	700 31 0.900000 0.029000 0.028000 500 30 0.900000 0.274000 0.249000 600 34 1.000000 0.051000 0.051000 1.200000 0.024000 0.028000
1517285159977195463	700 31 0.900000 0.029000 0.028000 500 30 0.900000 0.280000 0.255000 600 34 1.000000 0.051000 0.051000 1.200000 0.025000 0.030000
1517285160490109046	700 31 0.900000 0.028000 0.027000 500 30 0.900000 0.280000 0.254000 600 34 1.000000 0.051000 0.051000 1.200000 0.024000 0.028000
1517285161003059796	700 31 0.900000 0.029000 0.028000 500 30 0.900000 0.278000 0.252000 600 34 1.000000 0.051000 0.051000 1.200000 0.025000 0.030000
1517285161515973629	700 30 0.900000 0.028000 0.027000 500 30 0.900000 0.278000 0.253000 600 34 1.000000 0.051000 0.051000 1.200000 0.024000 0.028000
1517285162028809546	700 30 0.900000 0.028000 0.027000 500 29 0.900000 0.279000 0.254000 600 34 1.000000 0.051000 0.051000 1.200000 0.024000 0.028000
1517285162542209255	700 30 0.900000 0.028000 0.027000 500 29 0.900000 0.297000 0.270000 600 34 1.000000 0.051000 0.051000 1.200000 0.025000 0.030000
1517285163055063088	700 30 0.900000 0.029000 0.028000 500 29 0.900000 0.270000 0.245000 600 34 1.000000 0.051000 0.051000 1.200000 0.025000 0.030000
1517285163568028421	700 30 0.900000 0.028000 0.027000 500 29 0.900000 0.268000 0.244000 600 34 1.000000 0.051000 0.051000 1.200000 0.025000 0.030000
1517285164080792838	700 30 0.900000 0.029000 0.028000 500 29 0.900000 0.269000 0.245000 600 34 1.000000 0.051000 0.051000 1.200000 0.024000 0.028000
1517285164593546421	700 30 0.900000 0.028000 0.027000 500 29 0.900000 0.270000 0.245000 600 34 1.000000 0.051000 0.051000 1.200000 0.024000 0.028000
1517285165106453005	700 30 0.900000 0.029000 0.028000 500 29 0.900000 0.269000 0.245000 600 34 1.000000 0.051000 0.051000 1.200000 0.023000 0.027000
1517285165619175463	700 30 0.900000 0.028000 0.027000 500 29 0.900000 0.268000 0.244000 600 33 1.000000 0.051000 0.051000 1.200000 0.024000 0.028000
1517285166132049797	700 30 0.900000 0.028000 0.027000 500 29 0.900000 0.270000 0.245000 600 33 1.000000 0.051000 0.051000 1.200000 0.024000 0.028000
1517285166644809005	700 30 0.900000 0.028000 0.027000 500 29 0.900000 0.270000 0.245000 600 33 1.000000 0.051000 0.051000 1.200000 0.024000 0.028000
1517285167157988463	700 30 0.900000 0.029000 0.028000 500 29 0.900000 0.270000 0.245000 600 33 1.000000 0.051000 0.051000 1.200000 0.024000 0.028000
1517285167671957630	700 30 0.900000 0.032000 0.031000 500 29 0.900000 0.331000 0.301000 600 33 1.000000 0.051000 0.051000 1.200000 0.032000 0.038000
1517285168185140130	700 30 0.900000 0.037000 0.036000 500 29 0.900000 0.315000 0.286000 600 33 1.000000 0.051000 0.051000 1.200000 0.033000 0.039000
1517285168698239630	700 30 0.900000 0.030000 0.029000 500 29 0.900000 0.291000 0.265000 600 33 1.000000 0.051000 0.051000 1.200000 0.029000 0.035000
1517285169211258755	700 30 0.900000 0.028000 0.027000 500 29 0.900000 0.274000 0.249000 600 33 1.000000 0.051000 0.051000 1.200000 0.025000 0.030000
1517285169724180005	700 30 0.900000 0.029000 0.028000 500 29 0.900000 0.277000 0.252000 600 33 1.000000 0.051000 0.051000 1.200000 0.025000 0.030000
1517285170236981255	700 30 0.900000 0.028000 0.027000 500 29 0.900000 0.270000 0.245000 600 33 1.000000 0.051000 0.051000 1.200000 0.024000 0.028000
1517285170749976589	700 30 0.900000 0.028000 0.027000 500 29 0.900000 0.268000 0.244000 600 33 1.000000 0.051000 0.051000 1.200000 0.024000 0.028000
1517285171262868547	700 30 0.900000 0.028000 0.027000 500 29 0.900000 0.267000 0.243000 600 33 1.000000 0.051000 0.051000 1.200000 0.025000 0.030000
1517285171775776339	700 30 0.900000 0.028000 0.027000 500 29 0.900000 0.268000 0.244000 600 33 1.000000 0.051000 0.051000 1.200000 0.024000 0.028000
1517285172288579922	700 30 0.900000 0.028000 0.027000 500 29 0.900000 0.268000 0.244000 600 33 1.000000 0.051000 0.051000 1.200000 0.023000 0.027000
1517285172801481297	700 30 0.900000 0.028000 0.027000 500 29 0.900000 0.271000 0.246000 600 33 1.000000 0.051000 0.051000 1.200000 0.024000 0.028000
1517285173314470172	700 30 0.900000 0.028000 0.027000 500 29 0.900000 0.268000 0.244000 600 33 1.000000 0.051000 0.051000 1.200000 0.024000 0.028000
1517285173827412923	700 30 0.900000 0.028000 0.027000 500 29 0.900000 0.266000 0.242000 600 33 1.000000 0.051000 0.051000 1.200000 0.024000 0.028000
1517285174340309756	700 30 0.900000 0.028000 0.027000 500 29 0.900000 0.268000 0.244000 600 33 1.000000 0.051000 0.051000 1.200000 0.024000 0.028000
1517285174853256381	700 30 0.900000 0.028000 0.027000 500 29 0.900000 0.270000 0.245000 600 33 1.000000 0.051000 0.051000 1.200000 0.024000 0.028000
1517285175366349548	700 30 0.900000 0.028000 0.027000 500 29 0.900000 0.277000 0.252000 600 33 1.000000 0.051000 0.051000 1.200000 0.024000 0.028000
1517285175879238881	700 30 0.900000 0.028000 0.027000 500 29 0.900000 0.277000 0.252000 600 33 1.000000 0.051000 0.051000 1.200000 0.024000 0.028000
1517285176392082381	700 30 0.900000 0.029000 0.028000 500 29 0.900000 0.278000 0.252000 600 33 1.000000 0.051000 0.051000 1.200000 0.024000 0.028000
1517285176904984506	700 30 0.900000 0.028000 0.027000 500 29 0.900000 0.278000 0.252000 600 33 1.000000 0.051000 0.051000 1.200000 0.030000 0.036000
1517285177418373715	700 30 0.900000 0.032000 0.031000 500 29 0.900000 0.300000 0.273000 600 33 1.000000 0.051000 0.051000 1.200000 0.025000 0.030000
1517285177931933215	700 30 0.900000 0.028000 0.027000 500 29 0.900000 0.277000 0.252000 600 33 1.000000 0.051000 0.051000 1.200000 0.025000 0.030000
1517285178445218465	700 30 0.900000 0.033000 0.032000 500 29 0.900000 0.302000 0.275000 600 33 1.000000 0.051000 0.051000 1.200000 0.036000 0.043000
1517285178958190756	700 30 0.900000 0.035000 0.034000 500 29 0.900000 0.304000 0.276000 600 33 1.000000 0.051000 0.051000 1.200000 0.035000 0.042000
1517285179471261548	700 30 0.900000 0.029000 0.028000 500 29 0.900000 0.301000 0.273000 600 33 1.000000 0.051000 0.051000 1.200000 0.024000 0.028000
1517285179984020132	700 30 0.900000 0.029000 0.028000 500 29 0.900000 0.277000 0.252000 600 33 1.000000 0.051000 0.051000 1.200000 0.024000 0.028000
1517285180496804382	700 30 0.900000 0.029000 0.028000 500 29 0.900000 0.275000 0.250000 600 33 1.000000 0.051000 0.051000 1.200000 0.024000 0.028000
1517285181009578382	700 30 0.900000 0.028000 0.027000 500 29 0.900000 0.278000 0.252000 600 33 1.000000 0.051000 0.051000 1.200000 0.024000 0.028000
1517285181522683173	700 29 0.900000 0.028000 0.027000 500 28 0.900000 0.277000 0.252000 600 33 1.000000 0.051000 0.051000 1.200000 0.024000 0.028000
1517285182035418590	700 30 0.900000 0.028000 0.027000 500 28 0.900000 0.278000 0.252000 600 33 1.000000 0.051000 0.051000 1.200000 0.023000 0.027000
1517285182548159132	700 30 0.900000 0.028000 0.027000 500 29 0.900000 0.280000 0.254000 600 33 1.000000 0.051000 0.051000 1.200000 0.024000 0.028000
1517285183060762715	700 30 0.900000 0.028000 0.027000 500 29 0.900000 0.280000 0.254000 600 33 1.000000 0.051000 0.051000 1.200000 0.024000 0.028000
1517285183573796965	700 30 0.900000 0.028000 0.027000 500 28 0.900000 0.277000 0.252000 600 33 1.000000 0.051000 0.051000 1.200000 0.024000 0.028000
1517285184086776049	700 29 0.900000 0.028000 0.027000 500 28 0.900000 0.275000 0.250000 600 33 1.000000 0.051000 0.051000 1.200000 0.024000 0.028000
1517285184599548257	700 30 0.900000 0.028000 0.027000 500 28 0.900000 0.276000 0.251000 600 33 1.000000 0.051000 0.051000 1.200000 0.025000 0.030000
1517285185112598257	700 30 0.900000 0.028000 0.027000 500 28 0.900000 0.274000 0.249000 600 33 1.000000 0.051000 0.051000 1.200000 0.025000 0.030000
1517285185625290132	700 29 0.900000 0.028000 0.027000 500 29 0.900000 0.269000 0.245000 600 33 1.000000 0.051000 0.051000 1.200000 0.024000 0.028000
1517285186138283341	700 29 0.900000 0.028000 0.027000 500 28 0.900000 0.268000 0.244000 600 33 1.000000 0.051000 0.051000 1.200000 0.025000 0.030000
1517285186651388174	700 29 0.900000 0.028000 0.027000 500 28 0.900000 0.277000 0.252000 600 33 1.000000 0.051000 0.051000 1.200000 0.024000 0.028000
1517285187164240216	700 29 0.900000 0.028000 0.027000 500 28 0.900000 0.278000 0.253000 600 33 1.000000 0.051000 0.051000 1.200000 0.025000 0.030000
1517285187677403716	700 29 0.900000 0.029000 0.028000 500 28 0.900000 0.289000 0.263000 600 33 1.000000 0.051000 0.051000 1.200000 0.027000 0.032000
1517285188190359799	700 29 0.900000 0.029000 0.028000 500 28 0.900000 0.277000 0.252000 600 33 1.000000 0.051000 0.051000 1.200000 0.025000 0.030000
1517285188703062716	700 30 0.900000 0.028000 0.027000 500 29 0.900000 0.275000 0.250000 600 33 1.000000 0.051000 0.051000 1.200000 0.024000 0.028000
1517285189216098174	700 30 0.900000 0.030000 0.029000 500 29 0.900000 0.316000 0.287000 600 33 1.000000 0.051000 0.051000 1.200000 0.035000 0.042000
1517285189729269633	700 29 0.900000 0.036000 0.035000 500 28 0.900000 0.320000 0.291000 600 33 1.000000 0.051000 0.051000 1.200000 0.034000 0.041000
1517285190241510508	700 29 0.900000 0.028000 0.027000 500 28 0.900000 0.277000 0.252000 600 33 1.000000 0.051000 0.051000 1.200000 0.025000 0.030000
1517285190754430758	700 29 0.900000 0.029000 0.028000 500 28 0.900000 0.274000 0.249000 600 33 1.000000 0.051000 0.051000 1.200000 0.025000 0.030000
1517285191266355758	700 29 0.900000 0.028000 0.027000 500 28 0.900000 0.277000 0.252000 600 33 1.000000 0.051000 0.051000 1.200000 0.025000 0.030000
1517285191778561925	700 29 0.900000 0.028000 0.027000 500 28 0.900000 0.280000 0.255000 600 33 1.000000 0.051000 0.051000 1.200000 0.025000 0.030000
1517285192291379008	700 29 0.900000 0.028000 0.027000 500 28 0.900000 0.280000 0.255000 600 33 1.000000 0.051000 0.051000 1.200000 0.025000 0.030000
1517285192803828050	700 29 0.900000 0.028000 0.027000 500 28 0.900000 0.269000 0.244000 600 33 1.000000 0.051000 0.051000 1.200000 0.025000 0.030000
1517285193315675967	700 29 0.900000 0.028000 0.027000 500 28 0.900000 0.267000 0.243000 600 33 1.000000 0.051000 0.051000 1.200000 0.025000 0.030000
1517285193827692633	700 29 0.900000 0.028000 0.027000 500 28 0.900000 0.268000 0.244000 600 33 1.000000 0.051000 0.051000 1.200000 0.025000 0.030000
1517285194339960675	700 29 0.900000 0.028000 0.027000 500 28 0.900000 0.270000 0.245000 600 33 1.000000 0.051000 0.051000 1.200000 0.024000 0.028000
1517285194852736425	700 29 0.900000 0.029000 0.028000 500 28 0.900000 0.269000 0.245000 600 33 1.000000 0.051000 0.051000 1.200000 0.024000 0.028000
1517285195364939300	700 29 0.900000 0.028000 0.027000 500 28 0.900000 0.280000 0.255000 600 33 1.000000 0.051000 0.051000 1.200000 0.025000 0.030000
1517285195876923758	700 29 0.900000 0.028000 0.027000 500 28 0.900000 0.278000 0.252000 600 33 1.000000 0.051000 0.051000 1.200000 0.025000 0.030000
1517285196388886009	700 29 0.900000 0.028000 0.027000 500 28 0.900000 0.278000 0.253000 600 33 1.000000 0.051000 0.051000 1.200000 0.025000 0.030000
1517285196900551592	700 29 0.900000 0.028000 0.027000 500 28 0.900000 0.274000 0.249000 600 33 1.000000 0.051000 0.051000 1.200000 0.024000 0.028000
1517285197412384509	700 29 0.900000 0.028000 0.027000 500 28 0.900000 0.275000 0.250000 600 33 1.000000 0.051000 0.051000 1.200000 0.024000 0.028000
1517285197924444300	700 29 0.900000 0.028000 0.027000 500 28 0.900000 0.274000 0.249000 600 33 1.000000 0.051000 0.051000 1.200000 0.024000 0.028000
1517285198437481092	700 29 0.900000 0.028000 0.027000 500 28 0.900000 0.278000 0.253000 600 33 1.000000 0.051000 0.051000 1.200000 0.026000 0.031000
1517285198949387634	700 29 0.900000 0.028000 0.027000 500 28 0.900000 0.279000 0.253000 600 33 1.000000 0.051000 0.051000 1.200000 0.024000 0.028000
1517285199462628967	700 29 0.900000 0.029000 0.028000 500 28 0.900000 0.325000 0.295000 600 33 1.000000 0.051000 0.051000 1.200000 0.025000 0.030000
1517285199974807676	700 29 0.900000 0.030000 0.029000 500 28 0.900000 0.288000 0.262000 600 33 1.000000 0.051000 0.051000 1.200000 0.033000 0.039000
1517285200486762259	700 29 0.900000 0.028000 0.027000 500 28 0.900000 0.270000 0.245000 600 32 1.000000 0.051000 0.051000 1.200000 0.025000 0.030000
1517285200999673467	700 29 0.900000 0.028000 0.027000 500 28 0.900000 0.268000 0.243000 600 32 1.000000 0.051000 0.051000 1.200000 0.025000 0.030000
1517285201511551426	700 29 0.900000 0.028000 0.027000 500 28 0.900000 0.267000 0.242000 600 32 1.000000 0.051000 0.051000 1.200000 0.024000 0.028000
1517285202023391218	700 29 0.900000 0.028000 0.027000 500 28 0.900000 0.268000 0.244000 600 32 1.000000 0.051000 0.051000 1.200000 0.024000 0.028000
1517285202536047343	700 29 0.900000 0.028000 0.027000 500 28 0.900000 0.272000 0.247000 600 33 1.000000 0.051000 0.051000 1.200000 0.024000 0.028000
1517285203048008134	700 29 0.900000 0.028000 0.027000 500 28 0.900000 0.267000 0.243000 600 32 1.000000 0.051000 0.051000 1.200000 0.024000 0.028000
1517285203559779676	700 29 0.900000 0.028000 0.027000 500 28 0.900000 0.269000 0.245000 600 32 1.000000 0.051000 0.051000 1.200000 0.024000 0.028000
1517285204071592634	700 29 0.900000 0.029000 0.028000 500 28 0.900000 0.275000 0.250000 600 32 1.000000 0.051000 0.051000 1.200000 0.025000 0.030000
1517285204583323218	700 29 0.900000 0.028000 0.027000 500 28 0.900000 0.273000 0.248000 600 32 1.000000 0.051000 0.051000 1.200000 0.025000 0.030000
1517285205095031718	700 29 0.900000 0.028000 0.027000 500 28 0.900000 0.274000 0.249000 600 32 1.000000 0.051000 0.051000 1.200000 0.024000 0.028000
1517285205606693385	700 29 0.900000 0.028000 0.027000 500 28 0.900000 0.278000 0.253000 600 32 1.000000 0.051000 0.051000 1.200000 0.025000 0.030000
1517285206118362885	700 29 0.900000 0.028000 0.027000 500 28 0.900000 0.280000 0.255000 600 32 1.000000 0.051000 0.051000 1.200000 0.025000 0.030000
1517285206629924760	700 29 0.900000 0.028000 0.027000 500 28 0.900000 0.277000 0.252000 600 32 1.000000 0.051000 0.051000 1.200000 0.025000 0.030000
1517285207141370093	700 29 0.900000 0.028000 0.027000 500 28 0.900000 0.270000 0.245000 600 32 1.000000 0.051000 0.051000 1.200000 0.024000 0.028000
1517285207653148052	700 29 0.900000 0.028000 0.027000 500 28 0.900000 0.270000 0.245000 600 32 1.000000 0.051000 0.051000 1.200000 0.025000 0.030000
1517285208164814427	700 29 0.900000 0.028000 0.027000 500 28 0.900000 0.267000 0.243000 600 32 1.000000 0.051000 0.051000 1.200000 0.025000 0.030000
1517285208676497885	700 29 0.900000 0.028000 0.027000 500 28 0.900000 0.280000 0.255000 600 32 1.000000 0.051000 0.051000 1.200000 0.027000 0.032000
1517285209188146218	700 29 0.900000 0.028000 0.027000 500 28 0.900000 0.267000 0.242000 600 32 1.000000 0.052000 0.052000 1.200000 0.024000 0.028000
1517285209699814218	700 29 0.900000 0.028000 0.027000 500 28 0.900000 0.267000 0.243000 600 32 1.000000 0.051000 0.051000 1.200000 0.024000 0.028000
1517285210211817010	700 29 0.900000 0.030000 0.029000 500 28 0.900000 0.290000 0.264000 600 32 1.000000 0.051000 0.051000 1.200000 0.031000 0.037000
1517285210723585302	700 29 0.900000 0.028000 0.027000 500 28 0.900000 0.267000 0.243000 600 32 1.000000 0.051000 0.051000 1.200000 0.024000 0.028000
1517285211235425510	700 29 0.900000 0.028000 0.027000 500 28 0.900000 0.266000 0.242000 600 32 1.000000 0.051000 0.051000 1.200000 0.024000 0.028000
1517285211747004802	700 29 0.900000 0.028000 0.027000 500 28 0.900000 0.267000 0.242000 600 32 1.000000 0.051000 0.051000 1.200000 0.024000 0.028000
1517285212258690885	700 29 0.900000 0.028000 0.027000 500 28 0.900000 0.268000 0.244000 600 32 1.000000 0.051000 0.051000 1.200000 0.023000 0.027000
1517285212770838094	700 29 0.900000 0.028000 0.027000 500 28 0.900000 0.276000 0.251000 600 32 1.000000 0.051000 0.051000 1.200000 0.024000 0.028000
1517285213282612052	700 29 0.900000 0.028000 0.027000 500 28 0.900000 0.274000 0.249000 600 32 1.000000 0.051000 0.051000 1.200000 0.024000 0.028000
1517285213794315177	700 29 0.900000 0.029000 0.028000 500 28 0.900000 0.270000 0.245000 600 32 1.000000 0.051000 0.051000 1.200000 0.025000 0.030000
1517285214305893469	700 29 0.900000 0.029000 0.028000 500 28 0.900000 0.268000 0.244000 600 32 1.000000 0.051000 0.051000 1.200000 0.025000 0.030000
1517285214817390761	700 29 0.900000 0.028000 0.027000 500 28 0.900000 0.269000 0.245000 600 32 1.000000 0.051000 0.051000 1.200000 0.024000 0.028000
1517285215329160511	700 29 0.900000 0.028000 0.027000 500 28 0.900000 0.268000 0.244000 600 32 1.000000 0.051000 0.051000 1.200000 0.024000 0.028000
1517285215840892553	700 29 0.900000 0.028000 0.027000 500 28 0.900000 0.277000 0.252000 600 32 1.000000 0.051000 0.051000 1.200000 0.024000 0.028000
1517285216352844678	700 29 0.900000 0.028000 0.027000 500 28 0.900000 0.273000 0.248000 600 32 1.000000 0.051000 0.051000 1.200000 0.024000 0.028000
1517285216864523011	700 29 0.900000 0.028000 0.027000 500 28 0.900000 0.274000 0.249000 600 32 1.000000 0.051000 0.051000 1.200000 0.024000 0.028000
1517285217376189553	700 29 0.900000 0.028000 0.027000 500 28 0.900000 0.277000 0.252000 600 32 1.000000 0.051000 0.051000 1.200000 0.024000 0.028000
1517285217888042844	700 29 0.900000 0.028000 0.027000 500 28 0.900000 0.278000 0.253000 600 32 1.000000 0.051000 0.051000 1.200000 0.023000 0.027000
1517285218399549595	700 29 0.900000 0.028000 0.027000 500 28 0.900000 0.278000 0.253000 600 32 1.000000 0.051000 0.051000 1.200000 0.024000 0.028000
1517285218911288053	700 29 0.900000 0.028000 0.027000 500 28 0.900000 0.274000 0.249000 600 32 1.000000 0.051000 0.051000 1.200000 0.024000 0.028000
1517285219423076511	700 29 0.900000 0.028000 0.027000 500 28 0.900000 0.282000 0.256000 600 32 1.000000 0.051000 0.051000 1.200000 0.024000 0.028000
1517285219934722678	700 29 0.900000 0.028000 0.027000 500 28 0.900000 0.275000 0.250000 600 32 1.000000 0.051000 0.051000 1.200000 0.024000 0.028000
1517285220446747720	700 29 0.900000 0.029000 0.028000 500 28 0.900000 0.323000 0.293000 600 32 1.000000 0.051000 0.051000 1.200000 0.032000 0.038000
1517285220958633803	700 29 0.900000 0.029000 0.028000 500 28 0.900000 0.289000 0.263000 600 32 1.000000 0.051000 0.051000 1.200000 0.034000 0.041000
1517285221470498262	700 29 0.900000 0.028000 0.027000 500 28 0.900000 0.278000 0.253000 600 32 1.000000 0.051000 0.051000 1.200000 0.025000 0.030000
1517285221983597345	700 29 0.900000 0.028000 0.027000 500 28 0.900000 0.276000 0.251000 600 32 1.000000 0.051000 0.051000 1.200000 0.027000 0.032000
1517285222496534470	700 28 0.900000 0.053000 0.052000 500 27 0.900000 0.194000 0.176000 600 31 1.000000 0.051000 0.051000 1.200000 0.035000 0.042000
1517285223009409387	700 28 0.900000 0.028000 0.027000 500 27 0.900000 0.064000 0.058000 600 31 1.000000 0.051000 0.051000 1.200000 0.022000 0.026000
