#Timestamp	CPU(0) Frequency(MHz)	CPU(0) Temperature(C)	A7 Voltage(V)	A7 Current(A)	A7 Power(W)	CPU(4) Frequency(MHz)	CPU(4) Temperature(C)	A15 Voltage(V)	A15 Current(A)	A15 Power(W)	GPU Frequency(MHz)	GPU Temperature(C)	GPU Voltage(V)	GPU Current(A)	GPU Power(W)	RAM Voltage(V)	RAM Current(A)	RAM Power(W)
1538265326934439788	700 42 0.900000 0.152000 0.149000 1400 34 1.000000 2.032000 2.180000 600 47 1.000000 0.051000 0.051000 1.200000 0.035000 0.042000
1538265327494446955	700 44 0.900000 0.260000 0.252000 1400 35 1.000000 3.209000 3.465000 600 50 1.000000 0.051000 0.051000 1.200000 0.029000 0.035000
1538265328050389747	700 45 0.900000 0.261000 0.253000 1400 36 1.000000 3.226000 3.477000 600 51 1.000000 0.051000 0.051000 1.200000 0.029000 0.035000
1538265328602417080	700 46 0.900000 0.261000 0.253000 1400 37 1.000000 3.225000 3.476000 600 52 1.000000 0.051000 0.051000 1.200000 0.030000 0.036000
1538265329162422622	700 47 0.900000 0.261000 0.253000 1400 38 1.000000 3.228000 3.486000 600 53 1.000000 0.051000 0.051000 1.200000 0.030000 0.036000
1538265329710407622	700 47 0.900000 0.262000 0.254000 1400 38 1.000000 3.225000 3.483000 600 53 1.000000 0.052000 0.052000 1.200000 0.030000 0.036000
1538265330262435455	700 48 0.900000 0.261000 0.253000 1400 39 1.000000 3.232000 3.490000 600 54 1.000000 0.052000 0.052000 1.200000 0.030000 0.036000
1538265330810431872	700 48 0.900000 0.262000 0.254000 1400 39 1.000000 3.234000 3.492000 600 54 1.000000 0.052000 0.052000 1.200000 0.030000 0.036000
1538265331370400955	700 48 0.900000 0.262000 0.254000 1400 39 1.000000 3.237000 3.495000 600 54 1.000000 0.052000 0.052000 1.200000 0.030000 0.036000
1538265331926420372	700 48 0.900000 0.262000 0.254000 1400 39 1.000000 3.243000 3.502000 600 55 1.000000 0.052000 0.052000 1.200000 0.030000 0.036000
1538265332482426914	700 49 0.900000 0.262000 0.254000 1400 39 1.000000 3.244000 3.503000 600 55 1.000000 0.052000 0.052000 1.200000 0.030000 0.036000
1538265333030379539	700 49 0.900000 0.262000 0.254000 1400 40 1.000000 3.238000 3.497000 600 55 1.000000 0.052000 0.052000 1.200000 0.030000 0.036000
1538265333590441622	700 49 0.900000 0.262000 0.254000 1400 40 1.000000 3.237000 3.495000 600 55 1.000000 0.052000 0.052000 1.200000 0.029000 0.035000
1538265334150417331	700 49 0.900000 0.262000 0.254000 1400 40 1.000000 3.237000 3.495000 600 55 1.000000 0.052000 0.052000 1.200000 0.029000 0.035000
1538265334710425122	700 49 0.900000 0.262000 0.254000 1400 40 1.000000 3.274000 3.535000 600 56 1.000000 0.052000 0.052000 1.200000 0.030000 0.036000
1538265335266407831	700 49 0.900000 0.262000 0.254000 1400 40 1.000000 3.271000 3.532000 600 56 1.000000 0.052000 0.052000 1.200000 0.030000 0.036000
1538265335826489039	700 49 0.900000 0.262000 0.254000 1400 40 1.000000 3.271000 3.526000 600 56 1.000000 0.052000 0.052000 1.200000 0.030000 0.036000
1538265336374381581	700 49 0.900000 0.262000 0.254000 1400 40 1.000000 3.277000 3.539000 600 56 1.000000 0.052000 0.052000 1.200000 0.030000 0.036000
1538265336926422331	700 50 0.900000 0.262000 0.254000 1400 40 1.000000 3.280000 3.542000 600 56 1.000000 0.052000 0.052000 1.200000 0.030000 0.036000
1538265337482426581	700 50 0.900000 0.262000 0.254000 1400 40 1.000000 3.280000 3.542000 600 56 1.000000 0.052000 0.052000 1.200000 0.030000 0.036000
1538265338046385373	700 50 0.900000 0.262000 0.254000 1400 40 1.000000 3.280000 3.542000 600 56 1.000000 0.052000 0.052000 1.200000 0.029000 0.035000
1538265338606414248	700 50 0.900000 0.262000 0.254000 1400 40 1.000000 3.274000 3.535000 600 56 1.000000 0.052000 0.052000 1.200000 0.029000 0.035000
1538265339158449790	700 50 0.900000 0.262000 0.254000 1400 40 1.000000 3.266000 3.527000 600 56 1.000000 0.052000 0.052000 1.200000 0.029000 0.035000
1538265339710452540	700 50 0.900000 0.262000 0.254000 1400 41 1.000000 3.268000 3.529000 600 56 1.000000 0.052000 0.052000 1.200000 0.029000 0.035000
1538265340266385706	700 50 0.900000 0.262000 0.254000 1400 40 1.000000 3.279000 3.541000 600 56 1.000000 0.052000 0.052000 1.200000 0.029000 0.035000
1538265340826438290	700 50 0.900000 0.262000 0.254000 1400 41 1.000000 3.275000 3.530000 600 56 1.000000 0.052000 0.052000 1.200000 0.030000 0.036000
1538265341382436707	700 50 0.900000 0.262000 0.254000 1400 41 1.000000 3.272000 3.533000 600 56 1.000000 0.052000 0.052000 1.200000 0.030000 0.036000
1538265341934406415	700 50 0.900000 0.262000 0.254000 1400 41 1.000000 3.261000 3.521000 600 56 1.000000 0.052000 0.052000 1.200000 0.029000 0.035000
1538265342474417582	700 50 0.900000 0.262000 0.254000 1400 41 1.000000 3.260000 3.520000 600 56 1.000000 0.052000 0.052000 1.200000 0.029000 0.035000
1538265343038411873	700 50 0.900000 0.262000 0.254000 1400 41 1.000000 3.259000 3.519000 600 56 1.000000 0.052000 0.052000 1.200000 0.030000 0.036000
1538265343590439707	700 50 0.900000 0.262000 0.254000 1400 41 1.000000 3.258000 3.512000 600 56 1.000000 0.052000 0.052000 1.200000 0.029000 0.035000
1538265344142415207	700 50 0.900000 0.262000 0.254000 1400 41 1.000000 3.259000 3.519000 600 56 1.000000 0.052000 0.052000 1.200000 0.029000 0.035000
1538265344702442207	700 50 0.900000 0.262000 0.254000 1400 41 1.000000 3.260000 3.520000 600 56 1.000000 0.052000 0.052000 1.200000 0.029000 0.035000
1538265345258381207	700 50 0.900000 0.262000 0.254000 1400 41 1.000000 3.251000 3.511000 600 56 1.000000 0.052000 0.052000 1.200000 0.029000 0.035000
1538265345810446749	700 50 0.900000 0.262000 0.254000 1400 41 1.000000 3.254000 3.514000 600 56 1.000000 0.052000 0.052000 1.200000 0.029000 0.035000
1538265346370447791	700 50 0.900000 0.262000 0.254000 1400 41 1.000000 3.255000 3.515000 600 56 1.000000 0.052000 0.052000 1.200000 0.030000 0.036000
1538265346934428957	700 50 0.900000 0.262000 0.254000 1400 41 1.000000 3.257000 3.517000 600 56 1.000000 0.052000 0.052000 1.200000 0.030000 0.036000
1538265347494373749	700 50 0.900000 0.262000 0.254000 1400 41 1.000000 3.260000 3.514000 600 56 1.000000 0.052000 0.052000 1.200000 0.029000 0.035000
1538265348046435791	700 50 0.900000 0.262000 0.254000 1400 41 1.000000 3.260000 3.514000 600 56 1.000000 0.052000 0.052000 1.200000 0.029000 0.035000
1538265348606439082	700 50 0.900000 0.262000 0.254000 1400 41 1.000000 3.258000 3.512000 600 56 1.000000 0.052000 0.052000 1.200000 0.029000 0.035000
1538265349170473666	700 50 0.900000 0.262000 0.254000 1400 41 1.000000 3.261000 3.521000 600 56 1.000000 0.052000 0.052000 1.200000 0.029000 0.035000
1538265349734369749	700 50 0.900000 0.262000 0.254000 1400 41 1.000000 3.262000 3.522000 600 56 1.000000 0.052000 0.052000 1.200000 0.029000 0.035000
1538265350286441166	700 50 0.900000 0.263000 0.255000 1400 41 1.000000 3.255000 3.515000 600 56 1.000000 0.052000 0.052000 1.200000 0.029000 0.035000
1538265350838393874	700 50 0.900000 0.262000 0.254000 1400 41 1.000000 3.260000 3.520000 600 56 1.000000 0.052000 0.052000 1.200000 0.030000 0.036000
1538265351390419124	700 50 0.900000 0.262000 0.254000 1400 41 1.000000 3.259000 3.519000 600 56 1.000000 0.052000 0.052000 1.200000 0.030000 0.036000
1538265351946351083	700 50 0.900000 0.262000 0.254000 1400 41 1.000000 3.254000 3.514000 600 56 1.000000 0.052000 0.052000 1.200000 0.030000 0.036000
1538265352502372500	700 50 0.900000 0.263000 0.255000 1400 41 1.000000 3.262000 3.522000 600 56 1.000000 0.052000 0.052000 1.200000 0.030000 0.036000
1538265353062449833	700 50 0.900000 0.262000 0.254000 1400 41 1.000000 3.261000 3.521000 600 56 1.000000 0.052000 0.052000 1.200000 0.030000 0.036000
1538265353622408250	700 50 0.900000 0.262000 0.254000 1400 41 1.000000 3.261000 3.521000 600 56 1.000000 0.052000 0.052000 1.200000 0.030000 0.036000
1538265354174367375	700 50 0.900000 0.262000 0.254000 1400 41 1.000000 3.263000 3.524000 600 56 1.000000 0.052000 0.052000 1.200000 0.030000 0.036000
1538265354722423000	700 50 0.900000 0.262000 0.254000 1400 41 1.000000 3.263000 3.517000 600 56 1.000000 0.052000 0.052000 1.200000 0.030000 0.036000
1538265355282435000	700 50 0.900000 0.262000 0.254000 1400 41 1.000000 3.260000 3.520000 600 56 1.000000 0.052000 0.052000 1.200000 0.030000 0.036000
1538265355842429250	700 50 0.900000 0.262000 0.254000 1400 41 1.000000 3.262000 3.522000 600 56 1.000000 0.052000 0.052000 1.200000 0.030000 0.036000
1538265356402399792	700 50 0.900000 0.262000 0.254000 1400 41 1.000000 3.261000 3.521000 600 56 1.000000 0.052000 0.052000 1.200000 0.030000 0.036000
1538265356966382875	700 50 0.900000 0.264000 0.256000 1400 41 1.000000 3.261000 3.521000 600 56 1.000000 0.052000 0.052000 1.200000 0.029000 0.035000
1538265357526435917	700 50 0.900000 0.263000 0.255000 1400 41 1.000000 3.267000 3.528000 600 56 1.000000 0.052000 0.052000 1.200000 0.029000 0.035000
1538265358078437417	700 50 0.900000 0.264000 0.256000 1400 41 1.000000 3.266000 3.527000 600 56 1.000000 0.052000 0.052000 1.200000 0.029000 0.035000
1538265358626437959	700 50 0.900000 0.264000 0.256000 1400 41 1.000000 3.267000 3.528000 600 56 1.000000 0.052000 0.052000 1.200000 0.029000 0.035000
1538265359178428667	700 50 0.900000 0.263000 0.255000 1400 41 1.000000 3.263000 3.517000 600 56 1.000000 0.052000 0.052000 1.200000 0.029000 0.035000
1538265359738420667	700 50 0.900000 0.264000 0.256000 1400 41 1.000000 3.251000 3.511000 600 57 1.000000 0.052000 0.052000 1.200000 0.029000 0.035000
1538265360298367709	700 50 0.900000 0.263000 0.255000 1400 41 1.000000 3.263000 3.524000 600 56 1.000000 0.052000 0.052000 1.200000 0.029000 0.035000
1538265360846439251	700 50 0.900000 0.264000 0.256000 1400 41 1.000000 3.264000 3.525000 600 56 1.000000 0.052000 0.052000 1.200000 0.029000 0.035000
1538265361402435751	700 50 0.900000 0.264000 0.256000 1400 41 1.000000 3.266000 3.527000 600 56 1.000000 0.052000 0.052000 1.200000 0.029000 0.035000
1538265361950456667	700 50 0.900000 0.263000 0.255000 1400 41 1.000000 3.254000 3.514000 600 56 1.000000 0.052000 0.052000 1.200000 0.029000 0.035000
1538265362514450876	700 50 0.900000 0.263000 0.255000 1400 41 1.000000 3.264000 3.525000 600 57 1.000000 0.052000 0.052000 1.200000 0.029000 0.035000
1538265363070375001	700 50 0.900000 0.263000 0.255000 1400 41 1.000000 3.251000 3.511000 600 56 1.000000 0.052000 0.052000 1.200000 0.029000 0.035000
1538265363630433918	700 50 0.900000 0.263000 0.255000 1400 41 1.000000 3.265000 3.526000 600 56 1.000000 0.052000 0.052000 1.200000 0.029000 0.035000
1538265364186472334	700 50 0.900000 0.264000 0.256000 1400 41 1.000000 3.266000 3.527000 600 56 1.000000 0.052000 0.052000 1.200000 0.029000 0.035000
1538265364738417709	700 50 0.900000 0.263000 0.255000 1400 41 1.000000 3.270000 3.531000 600 56 1.000000 0.052000 0.052000 1.200000 0.029000 0.035000
1538265365294410376	700 50 0.900000 0.264000 0.256000 1400 41 1.000000 3.269000 3.530000 600 56 1.000000 0.052000 0.052000 1.200000 0.029000 0.035000
1538265365854428001	700 50 0.900000 0.263000 0.255000 1400 41 1.000000 3.266000 3.527000 600 56 1.000000 0.052000 0.052000 1.200000 0.029000 0.035000
1538265366414465876	700 50 0.900000 0.263000 0.255000 1400 41 1.000000 3.267000 3.528000 600 56 1.000000 0.052000 0.052000 1.200000 0.029000 0.035000
1538265366974428001	700 50 0.900000 0.264000 0.256000 1400 41 1.000000 3.269000 3.530000 600 56 1.000000 0.052000 0.052000 1.200000 0.029000 0.035000
1538265367538361918	700 50 0.900000 0.264000 0.256000 1400 41 1.000000 3.277000 3.539000 600 56 1.000000 0.052000 0.052000 1.200000 0.029000 0.035000
1538265368086381501	700 50 0.900000 0.264000 0.256000 1400 41 1.000000 3.276000 3.538000 600 56 1.000000 0.052000 0.052000 1.200000 0.029000 0.035000
1538265368654429335	700 50 0.900000 0.264000 0.256000 1400 41 1.000000 3.277000 3.539000 600 56 1.000000 0.052000 0.052000 1.200000 0.029000 0.035000
1538265369206423002	700 50 0.900000 0.264000 0.256000 1400 41 1.000000 3.271000 3.532000 600 56 1.000000 0.053000 0.053000 1.200000 0.029000 0.035000
1538265369770394793	700 50 0.900000 0.264000 0.256000 1400 41 1.000000 3.269000 3.530000 600 56 1.000000 0.052000 0.052000 1.200000 0.029000 0.035000
1538265370334396210	700 50 0.900000 0.263000 0.255000 1400 41 1.000000 3.261000 3.521000 600 56 1.000000 0.052000 0.052000 1.200000 0.029000 0.035000
1538265370894461377	700 50 0.900000 0.264000 0.256000 1400 41 1.000000 3.263000 3.524000 600 56 1.000000 0.052000 0.052000 1.200000 0.029000 0.035000
1538265371450450335	700 50 0.900000 0.264000 0.256000 1400 41 1.000000 3.271000 3.532000 600 56 1.000000 0.052000 0.052000 1.200000 0.029000 0.035000
1538265372014413794	700 50 0.900000 0.263000 0.255000 1400 41 1.000000 3.271000 3.532000 600 56 1.000000 0.052000 0.052000 1.200000 0.029000 0.035000
1538265372570452252	700 50 0.900000 0.264000 0.256000 1400 41 1.000000 3.276000 3.538000 600 56 1.000000 0.052000 0.052000 1.200000 0.029000 0.035000
1538265373122398085	700 50 0.900000 0.264000 0.256000 1400 41 1.000000 3.280000 3.542000 600 56 1.000000 0.052000 0.052000 1.200000 0.029000 0.035000
1538265373682433835	700 50 0.900000 0.264000 0.256000 1400 41 1.000000 3.279000 3.541000 600 56 1.000000 0.052000 0.052000 1.200000 0.029000 0.035000
1538265374230492127	700 50 0.900000 0.264000 0.256000 1400 41 1.000000 3.277000 3.539000 600 57 1.000000 0.052000 0.052000 1.200000 0.029000 0.035000
1538265374786435711	700 50 0.900000 0.264000 0.256000 1400 41 1.000000 3.272000 3.533000 600 56 1.000000 0.052000 0.052000 1.200000 0.029000 0.035000
1538265375342380919	700 50 0.900000 0.264000 0.256000 1400 41 1.000000 3.271000 3.526000 600 56 1.000000 0.052000 0.052000 1.200000 0.029000 0.035000
1538265375902419669	700 50 0.900000 0.264000 0.256000 1400 41 1.000000 3.274000 3.535000 600 56 1.000000 0.052000 0.052000 1.200000 0.029000 0.035000
1538265376454435461	700 50 0.900000 0.264000 0.256000 1400 41 1.000000 3.265000 3.526000 600 56 1.000000 0.052000 0.052000 1.200000 0.029000 0.035000
1538265377006432836	700 50 0.900000 0.264000 0.256000 1400 41 1.000000 3.277000 3.539000 600 56 1.000000 0.052000 0.052000 1.200000 0.029000 0.035000
1538265377566456628	700 50 0.900000 0.264000 0.256000 1400 41 1.000000 3.278000 3.540000 600 56 1.000000 0.052000 0.052000 1.200000 0.029000 0.035000
1538265378126402461	700 50 0.900000 0.263000 0.255000 1400 41 1.000000 3.281000 3.543000 600 57 1.000000 0.052000 0.052000 1.200000 0.029000 0.035000
1538265378686432044	700 50 0.900000 0.264000 0.256000 1400 41 1.000000 3.306000 3.570000 600 56 1.000000 0.052000 0.052000 1.200000 0.029000 0.035000
1538265379234497503	700 50 0.900000 0.264000 0.256000 1400 41 1.000000 3.298000 3.561000 600 57 1.000000 0.052000 0.052000 1.200000 0.029000 0.035000
1538265379782373211	700 50 0.900000 0.264000 0.256000 1400 41 1.000000 3.296000 3.559000 600 56 1.000000 0.052000 0.052000 1.200000 0.029000 0.035000
1538265380334370461	700 50 0.900000 0.264000 0.256000 1400 41 1.000000 3.297000 3.560000 600 57 1.000000 0.052000 0.052000 1.200000 0.029000 0.035000
1538265380886464211	700 50 0.900000 0.263000 0.255000 1400 41 1.000000 3.289000 3.552000 600 56 1.000000 0.052000 0.052000 1.200000 0.029000 0.035000
1538265381434469045	700 50 0.900000 0.263000 0.255000 1400 41 1.000000 3.296000 3.559000 600 56 1.000000 0.052000 0.052000 1.200000 0.029000 0.035000
1538265381994441045	700 50 0.900000 0.263000 0.255000 1400 41 1.000000 3.297000 3.560000 600 56 1.000000 0.052000 0.052000 1.200000 0.029000 0.035000
1538265382546366461	700 50 0.900000 0.264000 0.256000 1400 41 1.000000 3.296000 3.559000 600 57 1.000000 0.052000 0.052000 1.200000 0.029000 0.035000
1538265383098429920	700 50 0.900000 0.264000 0.256000 1400 41 1.000000 3.305000 3.569000 600 56 1.000000 0.052000 0.052000 1.200000 0.029000 0.035000
1538265383658462712	700 50 0.900000 0.263000 0.255000 1400 41 1.000000 3.307000 3.571000 600 56 1.000000 0.052000 0.052000 1.200000 0.029000 0.035000
1538265384214371253	700 50 0.900000 0.264000 0.256000 1400 41 1.000000 3.306000 3.570000 600 56 1.000000 0.052000 0.052000 1.200000 0.029000 0.035000
1538265384770388003	700 50 0.900000 0.264000 0.256000 1400 41 1.000000 3.305000 3.569000 600 56 1.000000 0.052000 0.052000 1.200000 0.029000 0.035000
1538265385330386795	700 50 0.900000 0.263000 0.255000 1400 41 1.000000 3.305000 3.569000 600 56 1.000000 0.052000 0.052000 1.200000 0.029000 0.035000
1538265385870383795	700 50 0.900000 0.264000 0.256000 1400 41 1.000000 3.262000 3.522000 600 56 1.000000 0.052000 0.052000 1.200000 0.029000 0.035000
1538265386434418712	700 50 0.900000 0.263000 0.255000 1400 41 1.000000 3.235000 3.487000 600 56 1.000000 0.052000 0.052000 1.200000 0.029000 0.035000
1538265386990463545	700 50 0.900000 0.263000 0.255000 1400 41 1.000000 3.233000 3.491000 600 56 1.000000 0.052000 0.052000 1.200000 0.030000 0.036000
1538265387534427795	700 50 0.900000 0.263000 0.255000 1400 41 1.000000 3.226000 3.477000 600 56 1.000000 0.052000 0.052000 1.200000 0.030000 0.036000
1538265388094430295	700 50 0.900000 0.263000 0.255000 1400 41 1.000000 3.226000 3.477000 600 56 1.000000 0.052000 0.052000 1.200000 0.031000 0.037000
1538265388654413254	700 50 0.900000 0.263000 0.255000 1400 40 1.000000 3.236000 3.488000 600 56 1.000000 0.052000 0.052000 1.200000 0.030000 0.036000
1538265389210380046	700 50 0.900000 0.263000 0.255000 1400 41 1.000000 3.234000 3.492000 600 56 1.000000 0.052000 0.052000 1.200000 0.030000 0.036000
1538265389762393421	700 50 0.900000 0.263000 0.255000 1400 41 1.000000 3.232000 3.484000 600 56 1.000000 0.052000 0.052000 1.200000 0.030000 0.036000
1538265390318423171	700 50 0.900000 0.263000 0.255000 1400 40 1.000000 3.236000 3.494000 600 56 1.000000 0.052000 0.052000 1.200000 0.030000 0.036000
1538265390874426046	700 50 0.900000 0.263000 0.255000 1400 40 1.000000 3.235000 3.487000 600 56 1.000000 0.052000 0.052000 1.200000 0.030000 0.036000
1538265391430397504	700 50 0.900000 0.263000 0.255000 1400 40 1.000000 3.235000 3.493000 600 56 1.000000 0.052000 0.052000 1.200000 0.030000 0.036000
1538265391978382713	700 50 0.900000 0.263000 0.255000 1400 40 1.000000 3.233000 3.491000 600 56 1.000000 0.052000 0.052000 1.200000 0.030000 0.036000
1538265392534427129	700 50 0.900000 0.263000 0.255000 1400 40 1.000000 3.233000 3.485000 600 56 1.000000 0.052000 0.052000 1.200000 0.030000 0.036000
1538265393094406629	700 50 0.900000 0.263000 0.255000 1400 40 1.000000 3.223000 3.474000 600 56 1.000000 0.052000 0.052000 1.200000 0.030000 0.036000
1538265393650423421	700 50 0.900000 0.263000 0.255000 1400 40 1.000000 3.251000 3.504000 600 56 1.000000 0.052000 0.052000 1.200000 0.030000 0.036000
1538265394210425880	700 50 0.900000 0.263000 0.255000 1400 40 1.000000 3.249000 3.508000 600 56 1.000000 0.052000 0.052000 1.200000 0.030000 0.036000
1538265394766404755	700 50 0.900000 0.263000 0.255000 1400 40 1.000000 3.251000 3.511000 600 56 1.000000 0.052000 0.052000 1.200000 0.030000 0.036000
1538265395326392505	700 50 0.900000 0.263000 0.255000 1400 40 1.000000 3.250000 3.503000 600 56 1.000000 0.052000 0.052000 1.200000 0.030000 0.036000
1538265395890429671	700 50 0.900000 0.263000 0.255000 1400 40 1.000000 3.251000 3.511000 600 56 1.000000 0.052000 0.052000 1.200000 0.031000 0.037000
1538265396442399755	700 50 0.900000 0.263000 0.255000 1400 40 1.000000 3.248000 3.501000 600 56 1.000000 0.052000 0.052000 1.200000 0.030000 0.036000
1538265397002432047	700 50 0.900000 0.262000 0.254000 1400 40 1.000000 3.249000 3.502000 600 56 1.000000 0.052000 0.052000 1.200000 0.031000 0.037000
1538265397554414963	700 50 0.900000 0.263000 0.255000 1400 40 1.000000 3.235000 3.487000 600 56 1.000000 0.052000 0.052000 1.200000 0.030000 0.036000
1538265398118426672	700 50 0.900000 0.263000 0.255000 1400 40 1.000000 3.245000 3.498000 600 56 1.000000 0.052000 0.052000 1.200000 0.030000 0.036000
1538265398678439172	700 50 0.900000 0.263000 0.255000 1400 40 1.000000 3.240000 3.492000 600 56 1.000000 0.052000 0.052000 1.200000 0.030000 0.036000
1538265399242410922	700 50 0.900000 0.263000 0.255000 1400 40 1.000000 3.238000 3.497000 600 56 1.000000 0.052000 0.052000 1.200000 0.030000 0.036000
1538265399802410339	700 50 0.900000 0.263000 0.255000 1400 40 1.000000 3.234000 3.486000 600 56 1.000000 0.052000 0.052000 1.200000 0.031000 0.037000
1538265400362420755	700 49 0.900000 0.263000 0.255000 1400 40 1.000000 3.244000 3.503000 600 56 1.000000 0.052000 0.052000 1.200000 0.030000 0.036000
1538265400914444047	700 50 0.900000 0.263000 0.255000 1400 40 1.000000 3.241000 3.500000 600 56 1.000000 0.052000 0.052000 1.200000 0.030000 0.036000
1538265401466427172	700 50 0.900000 0.263000 0.255000 1400 40 1.000000 3.246000 3.505000 600 56 1.000000 0.052000 0.052000 1.200000 0.030000 0.036000
1538265402018427589	700 50 0.900000 0.263000 0.255000 1400 40 1.000000 3.237000 3.489000 600 56 1.000000 0.052000 0.052000 1.200000 0.030000 0.036000
1538265402578436964	700 50 0.900000 0.263000 0.255000 1400 40 1.000000 3.246000 3.499000 600 56 1.000000 0.052000 0.052000 1.200000 0.031000 0.037000
1538265403138425756	700 50 0.900000 0.263000 0.255000 1400 40 1.000000 3.240000 3.499000 600 56 1.000000 0.052000 0.052000 1.200000 0.030000 0.036000
1538265403702433214	700 50 0.900000 0.263000 0.255000 1400 40 1.000000 3.254000 3.507000 600 56 1.000000 0.052000 0.052000 1.200000 0.030000 0.036000
1538265404262368797	700 49 0.900000 0.263000 0.255000 1400 40 1.000000 3.253000 3.513000 600 56 1.000000 0.052000 0.052000 1.200000 0.031000 0.037000
1538265404814419547	700 50 0.900000 0.263000 0.255000 1400 40 1.000000 3.250000 3.510000 600 56 1.000000 0.052000 0.052000 1.200000 0.030000 0.036000
1538265405374434214	700 50 0.900000 0.263000 0.255000 1400 40 1.000000 3.248000 3.507000 600 56 1.000000 0.052000 0.052000 1.200000 0.031000 0.037000
1538265405926372089	700 50 0.900000 0.263000 0.255000 1400 40 1.000000 3.248000 3.507000 600 56 1.000000 0.052000 0.052000 1.200000 0.030000 0.036000
1538265406474451756	700 50 0.900000 0.263000 0.255000 1400 40 1.000000 3.254000 3.514000 600 56 1.000000 0.052000 0.052000 1.200000 0.031000 0.037000
1538265407034391256	700 49 0.900000 0.263000 0.255000 1400 40 1.000000 3.251000 3.511000 600 56 1.000000 0.052000 0.052000 1.200000 0.030000 0.036000
1538265407594382589	700 50 0.900000 0.262000 0.254000 1400 40 1.000000 3.245000 3.498000 600 56 1.000000 0.052000 0.052000 1.200000 0.031000 0.037000
1538265408146463965	700 50 0.900000 0.263000 0.255000 1400 40 1.000000 3.250000 3.510000 600 56 1.000000 0.052000 0.052000 1.200000 0.030000 0.036000
1538265408698464173	700 49 0.900000 0.263000 0.255000 1400 40 1.000000 3.251000 3.504000 600 56 1.000000 0.052000 0.052000 1.200000 0.030000 0.036000
1538265409258441965	700 49 0.900000 0.263000 0.255000 1400 40 1.000000 3.253000 3.513000 600 56 1.000000 0.052000 0.052000 1.200000 0.030000 0.036000
1538265409810435798	700 50 0.900000 0.263000 0.255000 1400 40 1.000000 3.246000 3.505000 600 56 1.000000 0.052000 0.052000 1.200000 0.030000 0.036000
1538265410374422131	700 50 0.900000 0.263000 0.255000 1400 40 1.000000 3.244000 3.497000 600 56 1.000000 0.052000 0.052000 1.200000 0.030000 0.036000
1538265410926428507	700 50 0.900000 0.262000 0.254000 1400 40 1.000000 3.251000 3.511000 600 56 1.000000 0.052000 0.052000 1.200000 0.030000 0.036000
1538265411474387215	700 50 0.900000 0.263000 0.255000 1400 40 1.000000 3.242000 3.501000 600 56 1.000000 0.052000 0.052000 1.200000 0.030000 0.036000
1538265412030470382	700 49 0.900000 0.262000 0.254000 1400 40 1.000000 3.243000 3.502000 600 56 1.000000 0.052000 0.052000 1.200000 0.031000 0.037000
1538265412582388798	700 50 0.900000 0.263000 0.255000 1400 40 1.000000 3.242000 3.501000 600 56 1.000000 0.052000 0.052000 1.200000 0.030000 0.036000
1538265413142411548	700 49 0.900000 0.263000 0.255000 1400 40 1.000000 3.244000 3.503000 600 56 1.000000 0.052000 0.052000 1.200000 0.031000 0.037000
1538265413686435215	700 49 0.900000 0.263000 0.255000 1400 40 1.000000 3.251000 3.511000 600 56 1.000000 0.052000 0.052000 1.200000 0.030000 0.036000
1538265414242435215	700 49 0.900000 0.263000 0.255000 1400 40 1.000000 3.252000 3.512000 600 56 1.000000 0.052000 0.052000 1.200000 0.030000 0.036000
1538265414802439590	700 49 0.900000 0.263000 0.255000 1400 40 1.000000 3.251000 3.511000 600 56 1.000000 0.052000 0.052000 1.200000 0.030000 0.036000
1538265415350445757	700 49 0.900000 0.262000 0.254000 1400 40 1.000000 3.237000 3.495000 600 56 1.000000 0.052000 0.052000 1.200000 0.031000 0.037000
1538265415906449632	700 49 0.900000 0.262000 0.254000 1400 40 1.000000 3.229000 3.480000 600 56 1.000000 0.052000 0.052000 1.200000 0.031000 0.037000
1538265416466430549	700 49 0.900000 0.262000 0.254000 1400 40 1.000000 3.229000 3.487000 600 56 1.000000 0.052000 0.052000 1.200000 0.031000 0.037000
1538265417026411466	700 49 0.900000 0.262000 0.254000 1400 40 1.000000 3.236000 3.494000 600 56 1.000000 0.052000 0.052000 1.200000 0.031000 0.037000
1538265417582431299	700 49 0.900000 0.262000 0.254000 1400 40 1.000000 3.224000 3.475000 600 56 1.000000 0.052000 0.052000 1.200000 0.031000 0.037000
1538265418138391257	700 49 0.900000 0.262000 0.254000 1400 40 1.000000 3.228000 3.479000 600 56 1.000000 0.052000 0.052000 1.200000 0.031000 0.037000
1538265418698408049	700 49 0.900000 0.262000 0.254000 1400 40 1.000000 3.227000 3.485000 600 56 1.000000 0.052000 0.052000 1.200000 0.031000 0.037000
1538265419246368508	700 49 0.900000 0.263000 0.255000 1400 40 1.000000 3.237000 3.495000 600 56 1.000000 0.052000 0.052000 1.200000 0.030000 0.036000
1538265419806462758	700 49 0.900000 0.262000 0.254000 1400 40 1.000000 3.236000 3.488000 600 56 1.000000 0.052000 0.052000 1.200000 0.031000 0.037000
1538265420358409633	700 49 0.900000 0.263000 0.255000 1400 40 1.000000 3.239000 3.498000 600 56 1.000000 0.052000 0.052000 1.200000 0.031000 0.037000
1538265420922446716	700 49 0.900000 0.262000 0.254000 1400 40 1.000000 3.236000 3.494000 600 56 1.000000 0.052000 0.052000 1.200000 0.031000 0.037000
1538265421494401216	700 49 0.900000 0.262000 0.254000 1400 40 1.000000 3.235000 3.493000 600 56 1.000000 0.052000 0.052000 1.200000 0.031000 0.037000
1538265422046431633	700 49 0.900000 0.262000 0.254000 1400 40 1.000000 3.228000 3.486000 600 56 1.000000 0.052000 0.052000 1.200000 0.031000 0.037000
1538265422602459758	700 49 0.900000 0.262000 0.254000 1400 40 1.000000 3.256000 3.516000 600 56 1.000000 0.052000 0.052000 1.200000 0.031000 0.037000
1538265423158443466	700 49 0.900000 0.262000 0.254000 1400 40 1.000000 3.251000 3.511000 600 56 1.000000 0.052000 0.052000 1.200000 0.031000 0.037000
1538265423718408508	700 49 0.900000 0.262000 0.254000 1400 40 1.000000 3.260000 3.520000 600 56 1.000000 0.052000 0.052000 1.200000 0.031000 0.037000
1538265424274439425	700 50 0.900000 0.263000 0.255000 1400 40 1.000000 3.264000 3.525000 600 56 1.000000 0.052000 0.052000 1.200000 0.030000 0.036000
1538265424838424758	700 49 0.900000 0.262000 0.254000 1400 40 1.000000 3.265000 3.526000 600 56 1.000000 0.052000 0.052000 1.200000 0.031000 0.037000
1538265425390385800	700 49 0.900000 0.262000 0.254000 1400 40 1.000000 3.265000 3.526000 600 56 1.000000 0.052000 0.052000 1.200000 0.030000 0.036000
1538265425942451550	700 49 0.900000 0.262000 0.254000 1400 40 1.000000 3.263000 3.524000 600 56 1.000000 0.052000 0.052000 1.200000 0.030000 0.036000
1538265426494390342	700 49 0.900000 0.263000 0.255000 1400 40 1.000000 3.266000 3.527000 600 56 1.000000 0.052000 0.052000 1.200000 0.031000 0.037000
1538265427050435842	700 49 0.900000 0.262000 0.254000 1400 40 1.000000 3.266000 3.527000 600 56 1.000000 0.052000 0.052000 1.200000 0.030000 0.036000
1538265427610399050	700 49 0.900000 0.262000 0.254000 1400 40 1.000000 3.257000 3.517000 600 56 1.000000 0.052000 0.052000 1.200000 0.031000 0.037000
1538265428170415675	700 49 0.900000 0.262000 0.254000 1400 40 1.000000 3.262000 3.522000 600 56 1.000000 0.052000 0.052000 1.200000 0.031000 0.037000
1538265428722411175	700 49 0.900000 0.262000 0.254000 1400 40 1.000000 3.261000 3.521000 600 56 1.000000 0.052000 0.052000 1.200000 0.031000 0.037000
1538265429278382675	700 49 0.900000 0.262000 0.254000 1400 40 1.000000 3.267000 3.528000 600 56 1.000000 0.052000 0.052000 1.200000 0.031000 0.037000
1538265429838441967	700 49 0.900000 0.262000 0.254000 1400 40 1.000000 3.268000 3.529000 600 56 1.000000 0.052000 0.052000 1.200000 0.031000 0.037000
1538265430390431426	700 49 0.900000 0.263000 0.255000 1400 40 1.000000 3.270000 3.531000 600 56 1.000000 0.052000 0.052000 1.200000 0.031000 0.037000
1538265430946440634	700 49 0.900000 0.262000 0.254000 1400 40 1.000000 3.269000 3.530000 600 56 1.000000 0.052000 0.052000 1.200000 0.031000 0.037000
1538265431506376426	700 49 0.900000 0.262000 0.254000 1400 40 1.000000 3.270000 3.531000 600 56 1.000000 0.052000 0.052000 1.200000 0.031000 0.037000
1538265432050445759	700 49 0.900000 0.263000 0.255000 1400 40 1.000000 3.271000 3.532000 600 55 1.000000 0.052000 0.052000 1.200000 0.031000 0.037000
1538265432598538634	700 49 0.900000 0.262000 0.254000 1400 40 1.000000 3.268000 3.529000 600 56 1.000000 0.052000 0.052000 1.200000 0.030000 0.036000
1538265433146374926	700 49 0.900000 0.263000 0.255000 1400 40 1.000000 3.267000 3.528000 600 56 1.000000 0.052000 0.052000 1.200000 0.031000 0.037000
1538265433706436218	700 49 0.900000 0.262000 0.254000 1400 40 1.000000 3.261000 3.515000 600 56 1.000000 0.052000 0.052000 1.200000 0.031000 0.037000
1538265434262418926	700 49 0.900000 0.262000 0.254000 1400 40 1.000000 3.264000 3.525000 600 56 1.000000 0.052000 0.052000 1.200000 0.031000 0.037000
1538265434810369051	700 49 0.900000 0.262000 0.254000 1400 40 1.000000 3.267000 3.528000 600 56 1.000000 0.052000 0.052000 1.200000 0.031000 0.037000
1538265435370415759	700 49 0.900000 0.262000 0.254000 1400 40 1.000000 3.268000 3.529000 600 56 1.000000 0.052000 0.052000 1.200000 0.031000 0.037000
1538265435918433343	700 49 0.900000 0.262000 0.254000 1400 40 1.000000 3.267000 3.528000 600 56 1.000000 0.052000 0.052000 1.200000 0.031000 0.037000
1538265436474414176	700 49 0.900000 0.262000 0.254000 1400 40 1.000000 3.254000 3.514000 600 56 1.000000 0.052000 0.052000 1.200000 0.031000 0.037000
1538265437026397135	700 49 0.900000 0.263000 0.255000 1400 40 1.000000 3.265000 3.526000 600 56 1.000000 0.052000 0.052000 1.200000 0.031000 0.037000
1538265437582432801	700 49 0.900000 0.262000 0.254000 1400 40 1.000000 3.225000 3.483000 600 55 1.000000 0.052000 0.052000 1.200000 0.031000 0.037000
1538265438130419885	700 49 0.900000 0.262000 0.254000 1400 40 1.000000 3.218000 3.475000 600 55 1.000000 0.052000 0.052000 1.200000 0.031000 0.037000
1538265438690452885	700 49 0.900000 0.263000 0.255000 1400 40 1.000000 3.214000 3.471000 600 55 1.000000 0.052000 0.052000 1.200000 0.031000 0.037000
1538265439250455135	700 49 0.900000 0.262000 0.254000 1400 40 1.000000 3.214000 3.464000 600 55 1.000000 0.052000 0.052000 1.200000 0.031000 0.037000
1538265439810455593	700 49 0.900000 0.263000 0.255000 1400 40 1.000000 3.223000 3.480000 600 55 1.000000 0.052000 0.052000 1.200000 0.031000 0.037000
1538265440374385760	700 49 0.900000 0.262000 0.254000 1400 40 1.000000 3.224000 3.481000 600 55 1.000000 0.052000 0.052000 1.200000 0.031000 0.037000
1538265440918443010	700 49 0.900000 0.262000 0.254000 1400 40 1.000000 3.225000 3.476000 600 55 1.000000 0.052000 0.052000 1.200000 0.031000 0.037000
1538265441478403844	700 49 0.900000 0.262000 0.254000 1400 40 1.000000 3.217000 3.467000 600 55 1.000000 0.052000 0.052000 1.200000 0.032000 0.038000
1538265442038453552	700 49 0.900000 0.262000 0.254000 1400 40 1.000000 3.212000 3.462000 600 55 1.000000 0.052000 0.052000 1.200000 0.031000 0.037000
1538265442574434885	700 49 0.900000 0.262000 0.254000 1400 40 1.000000 3.223000 3.474000 600 55 1.000000 0.052000 0.052000 1.200000 0.031000 0.037000
1538265443134438927	700 49 0.900000 0.262000 0.254000 1400 40 1.000000 3.217000 3.467000 600 55 1.000000 0.052000 0.052000 1.200000 0.031000 0.037000
1538265443686375594	700 49 0.900000 0.262000 0.254000 1400 40 1.000000 3.217000 3.467000 600 55 1.000000 0.052000 0.052000 1.200000 0.031000 0.037000
1538265444242437511	700 49 0.900000 0.262000 0.254000 1400 40 1.000000 3.220000 3.471000 600 55 1.000000 0.052000 0.052000 1.200000 0.031000 0.037000
1538265444802424636	700 49 0.900000 0.262000 0.254000 1400 40 1.000000 3.245000 3.504000 600 55 1.000000 0.052000 0.052000 1.200000 0.031000 0.037000
1538265445358430052	700 49 0.900000 0.263000 0.255000 1400 40 1.000000 3.257000 3.517000 600 55 1.000000 0.052000 0.052000 1.200000 0.030000 0.036000
1538265445918447802	700 49 0.900000 0.263000 0.255000 1400 40 1.000000 3.256000 3.516000 600 55 1.000000 0.052000 0.052000 1.200000 0.030000 0.036000
1538265446482438511	700 49 0.900000 0.262000 0.254000 1400 40 1.000000 3.254000 3.507000 600 55 1.000000 0.052000 0.052000 1.200000 0.030000 0.036000
1538265447034394219	700 49 0.900000 0.263000 0.255000 1400 40 1.000000 3.247000 3.506000 600 55 1.000000 0.052000 0.052000 1.200000 0.031000 0.037000
1538265447590368886	700 49 0.900000 0.262000 0.254000 1400 40 1.000000 3.255000 3.515000 600 55 1.000000 0.052000 0.052000 1.200000 0.030000 0.036000
1538265448142440969	700 49 0.900000 0.263000 0.255000 1400 40 1.000000 3.246000 3.499000 600 55 1.000000 0.052000 0.052000 1.200000 0.031000 0.037000
1538265448702434344	700 49 0.900000 0.263000 0.255000 1400 40 1.000000 3.249000 3.508000 600 55 1.000000 0.051000 0.051000 1.200000 0.030000 0.036000
1538265449258417636	700 49 0.900000 0.262000 0.254000 1400 40 1.000000 3.246000 3.505000 600 55 1.000000 0.052000 0.052000 1.200000 0.030000 0.036000
1538265449814414678	700 49 0.900000 0.263000 0.255000 1400 40 1.000000 3.250000 3.510000 600 55 1.000000 0.052000 0.052000 1.200000 0.030000 0.036000
1538265450374426928	700 49 0.900000 0.263000 0.255000 1400 40 1.000000 3.257000 3.517000 600 55 1.000000 0.052000 0.052000 1.200000 0.030000 0.036000
1538265450934396845	700 49 0.900000 0.263000 0.255000 1400 40 1.000000 3.256000 3.516000 600 55 1.000000 0.052000 0.052000 1.200000 0.030000 0.036000
1538265451494395386	700 49 0.900000 0.263000 0.255000 1400 40 1.000000 3.255000 3.508000 600 55 1.000000 0.052000 0.052000 1.200000 0.030000 0.036000
1538265452042449345	700 49 0.900000 0.263000 0.255000 1400 40 1.000000 3.278000 3.540000 600 55 1.000000 0.052000 0.052000 1.200000 0.030000 0.036000
1538265452598393053	700 49 0.900000 0.262000 0.254000 1400 40 1.000000 3.280000 3.542000 600 55 1.000000 0.052000 0.052000 1.200000 0.030000 0.036000
1538265453154426345	700 49 0.900000 0.263000 0.255000 1400 40 1.000000 3.288000 3.551000 600 55 1.000000 0.052000 0.052000 1.200000 0.030000 0.036000
1538265453714432637	700 49 0.900000 0.262000 0.254000 1400 40 1.000000 3.281000 3.543000 600 55 1.000000 0.052000 0.052000 1.200000 0.030000 0.036000
1538265454278417887	700 49 0.900000 0.263000 0.255000 1400 40 1.000000 3.275000 3.537000 600 55 1.000000 0.052000 0.052000 1.200000 0.031000 0.037000
1538265454838439720	700 49 0.900000 0.262000 0.254000 1400 40 1.000000 3.272000 3.533000 600 55 1.000000 0.052000 0.052000 1.200000 0.030000 0.036000
1538265455398408137	700 49 0.900000 0.263000 0.255000 1400 40 1.000000 3.291000 3.554000 600 55 1.000000 0.052000 0.052000 1.200000 0.030000 0.036000
1538265455958429095	700 49 0.900000 0.263000 0.255000 1400 40 1.000000 3.292000 3.555000 600 56 1.000000 0.052000 0.052000 1.200000 0.030000 0.036000
1538265456506449262	700 49 0.900000 0.263000 0.255000 1400 40 1.000000 3.291000 3.554000 600 56 1.000000 0.052000 0.052000 1.200000 0.030000 0.036000
1538265457058446970	700 49 0.900000 0.263000 0.255000 1400 40 1.000000 3.290000 3.546000 600 56 1.000000 0.052000 0.052000 1.200000 0.030000 0.036000
1538265457622440179	700 49 0.900000 0.263000 0.255000 1400 40 1.000000 3.286000 3.548000 600 55 1.000000 0.052000 0.052000 1.200000 0.030000 0.036000
1538265458182362846	700 49 0.900000 0.263000 0.255000 1400 40 1.000000 3.285000 3.547000 600 56 1.000000 0.052000 0.052000 1.200000 0.030000 0.036000
1538265458742430512	700 49 0.900000 0.263000 0.255000 1400 40 1.000000 3.278000 3.540000 600 56 1.000000 0.052000 0.052000 1.200000 0.031000 0.037000
1538265459302444096	700 49 0.900000 0.263000 0.255000 1400 40 1.000000 3.271000 3.532000 600 55 1.000000 0.052000 0.052000 1.200000 0.030000 0.036000
1538265459858375679	700 49 0.900000 0.263000 0.255000 1400 40 1.000000 3.259000 3.519000 600 55 1.000000 0.052000 0.052000 1.200000 0.031000 0.037000
1538265460418419971	700 49 0.900000 0.263000 0.255000 1400 40 1.000000 3.264000 3.525000 600 55 1.000000 0.052000 0.052000 1.200000 0.030000 0.036000
1538265460978416638	700 49 0.900000 0.263000 0.255000 1400 40 1.000000 3.264000 3.525000 600 55 1.000000 0.052000 0.052000 1.200000 0.030000 0.036000
1538265461534449846	700 49 0.900000 0.263000 0.255000 1400 40 1.000000 3.264000 3.525000 600 55 1.000000 0.052000 0.052000 1.200000 0.030000 0.036000
1538265462086422638	700 49 0.900000 0.263000 0.255000 1400 40 1.000000 3.263000 3.524000 600 55 1.000000 0.052000 0.052000 1.200000 0.030000 0.036000
1538265462650429221	700 49 0.900000 0.263000 0.255000 1400 40 1.000000 3.260000 3.520000 600 55 1.000000 0.052000 0.052000 1.200000 0.030000 0.036000
1538265463210420846	700 49 0.900000 0.263000 0.255000 1400 40 1.000000 3.253000 3.513000 600 55 1.000000 0.052000 0.052000 1.200000 0.030000 0.036000
1538265463770424346	700 49 0.900000 0.263000 0.255000 1400 40 1.000000 3.248000 3.507000 600 55 1.000000 0.052000 0.052000 1.200000 0.030000 0.036000
1538265464322435805	700 49 0.900000 0.263000 0.255000 1400 40 1.000000 3.259000 3.519000 600 55 1.000000 0.052000 0.052000 1.200000 0.030000 0.036000
1538265464878443221	700 49 0.900000 0.263000 0.255000 1400 40 1.000000 3.263000 3.524000 600 55 1.000000 0.052000 0.052000 1.200000 0.030000 0.036000
1538265465430467763	700 49 0.900000 0.263000 0.255000 1400 40 1.000000 3.263000 3.524000 600 55 1.000000 0.052000 0.052000 1.200000 0.030000 0.036000
1538265465986436138	700 49 0.900000 0.262000 0.254000 1400 40 1.000000 3.263000 3.524000 600 55 1.000000 0.052000 0.052000 1.200000 0.030000 0.036000
1538265466538432472	700 49 0.900000 0.263000 0.255000 1400 40 1.000000 3.242000 3.501000 600 55 1.000000 0.052000 0.052000 1.200000 0.030000 0.036000
1538265467098433805	700 49 0.900000 0.263000 0.255000 1400 40 1.000000 3.257000 3.517000 600 55 1.000000 0.052000 0.052000 1.200000 0.030000 0.036000
1538265467650442847	700 49 0.900000 0.262000 0.254000 1400 40 1.000000 3.256000 3.516000 600 55 1.000000 0.052000 0.052000 1.200000 0.030000 0.036000
1538265468210424097	700 49 0.900000 0.263000 0.255000 1400 40 1.000000 3.258000 3.518000 600 55 1.000000 0.052000 0.052000 1.200000 0.030000 0.036000
1538265468770433097	700 49 0.900000 0.262000 0.254000 1400 40 1.000000 3.251000 3.511000 600 55 1.000000 0.052000 0.052000 1.200000 0.030000 0.036000
1538265469322435639	700 49 0.900000 0.263000 0.255000 1400 40 1.000000 3.249000 3.508000 600 55 1.000000 0.052000 0.052000 1.200000 0.030000 0.036000
1538265469878459222	700 49 0.900000 0.263000 0.255000 1400 40 1.000000 3.247000 3.506000 600 55 1.000000 0.052000 0.052000 1.200000 0.030000 0.036000
1538265470438459305	700 49 0.900000 0.263000 0.255000 1400 40 1.000000 3.257000 3.517000 600 55 1.000000 0.052000 0.052000 1.200000 0.030000 0.036000
1538265470994427305	700 49 0.900000 0.263000 0.255000 1400 40 1.000000 3.257000 3.517000 600 55 1.000000 0.052000 0.052000 1.200000 0.030000 0.036000
1538265471546376805	700 49 0.900000 0.262000 0.254000 1400 40 1.000000 3.255000 3.508000 600 55 1.000000 0.052000 0.052000 1.200000 0.030000 0.036000
1538265472098411847	700 49 0.900000 0.263000 0.255000 1400 40 1.000000 3.254000 3.507000 600 55 1.000000 0.052000 0.052000 1.200000 0.030000 0.036000
1538265472658435597	700 49 0.900000 0.262000 0.254000 1400 40 1.000000 3.258000 3.518000 600 55 1.000000 0.052000 0.052000 1.200000 0.030000 0.036000
1538265473214430681	700 49 0.900000 0.263000 0.255000 1400 40 1.000000 3.256000 3.509000 600 55 1.000000 0.052000 0.052000 1.200000 0.030000 0.036000
1538265473774449431	700 49 0.900000 0.262000 0.254000 1400 40 1.000000 3.268000 3.529000 600 55 1.000000 0.052000 0.052000 1.200000 0.030000 0.036000
1538265474322421639	700 49 0.900000 0.262000 0.254000 1400 40 1.000000 3.273000 3.534000 600 55 1.000000 0.052000 0.052000 1.200000 0.031000 0.037000
1538265474882448306	700 49 0.900000 0.262000 0.254000 1400 40 1.000000 3.263000 3.524000 600 55 1.000000 0.052000 0.052000 1.200000 0.030000 0.036000
1538265475434419223	700 49 0.900000 0.262000 0.254000 1400 40 1.000000 3.260000 3.520000 600 55 1.000000 0.052000 0.052000 1.200000 0.029000 0.035000
1538265475990435681	700 49 0.900000 0.262000 0.254000 1400 40 1.000000 3.256000 3.516000 600 55 1.000000 0.052000 0.052000 1.200000 0.029000 0.035000
1538265476554448973	700 49 0.900000 0.262000 0.254000 1400 40 1.000000 3.266000 3.527000 600 55 1.000000 0.052000 0.052000 1.200000 0.029000 0.035000
1538265477114393848	700 49 0.900000 0.262000 0.254000 1400 40 1.000000 3.269000 3.530000 600 55 1.000000 0.052000 0.052000 1.200000 0.029000 0.035000
1538265477670425931	700 49 0.900000 0.262000 0.254000 1400 40 1.000000 3.270000 3.531000 600 55 1.000000 0.052000 0.052000 1.200000 0.029000 0.035000
1538265478234397223	700 49 0.900000 0.262000 0.254000 1400 40 1.000000 3.261000 3.521000 600 55 1.000000 0.052000 0.052000 1.200000 0.029000 0.035000
1538265478782445015	700 49 0.900000 0.262000 0.254000 1400 40 1.000000 3.261000 3.515000 600 55 1.000000 0.052000 0.052000 1.200000 0.029000 0.035000
1538265479342467640	700 49 0.900000 0.262000 0.254000 1400 40 1.000000 3.265000 3.526000 600 55 1.000000 0.052000 0.052000 1.200000 0.029000 0.035000
1538265479902429931	700 49 0.900000 0.262000 0.254000 1400 40 1.000000 3.268000 3.522000 600 55 1.000000 0.052000 0.052000 1.200000 0.029000 0.035000
1538265480454421640	700 49 0.900000 0.262000 0.254000 1400 40 1.000000 3.270000 3.531000 600 55 1.000000 0.052000 0.052000 1.200000 0.029000 0.035000
1538265481018444890	700 49 0.900000 0.262000 0.254000 1400 40 1.000000 3.269000 3.530000 600 55 1.000000 0.052000 0.052000 1.200000 0.029000 0.035000
1538265481570417807	700 49 0.900000 0.262000 0.254000 1400 40 1.000000 3.255000 3.508000 600 55 1.000000 0.052000 0.052000 1.200000 0.029000 0.035000
1538265482110417307	700 49 0.900000 0.262000 0.254000 1400 40 1.000000 3.246000 3.505000 600 55 1.000000 0.052000 0.052000 1.200000 0.029000 0.035000
1538265482666452973	700 49 0.900000 0.262000 0.254000 1400 40 1.000000 3.243000 3.495000 600 55 1.000000 0.052000 0.052000 1.200000 0.030000 0.036000
1538265483226434598	700 49 0.900000 0.262000 0.254000 1400 40 1.000000 3.245000 3.498000 600 55 1.000000 0.052000 0.052000 1.200000 0.029000 0.035000
1538265483778435182	700 49 0.900000 0.262000 0.254000 1400 40 1.000000 3.249000 3.502000 600 55 1.000000 0.052000 0.052000 1.200000 0.029000 0.035000
1538265484322447890	700 49 0.900000 0.262000 0.254000 1400 40 1.000000 3.247000 3.506000 600 55 1.000000 0.052000 0.052000 1.200000 0.029000 0.035000
1538265484870434557	700 49 0.900000 0.262000 0.254000 1400 40 1.000000 3.248000 3.507000 600 55 1.000000 0.052000 0.052000 1.200000 0.029000 0.035000
1538265485426431182	700 49 0.900000 0.262000 0.254000 1400 40 1.000000 3.250000 3.510000 600 55 1.000000 0.052000 0.052000 1.200000 0.029000 0.035000
1538265485982428890	700 49 0.900000 0.262000 0.254000 1400 39 1.000000 3.242000 3.494000 600 55 1.000000 0.052000 0.052000 1.200000 0.029000 0.035000
1538265486534429641	700 49 0.900000 0.262000 0.254000 1400 40 1.000000 3.251000 3.504000 600 55 1.000000 0.052000 0.052000 1.200000 0.029000 0.035000
1538265487098399182	700 49 0.900000 0.262000 0.254000 1400 39 1.000000 3.251000 3.511000 600 55 1.000000 0.052000 0.052000 1.200000 0.029000 0.035000
1538265487658399849	700 49 0.900000 0.262000 0.254000 1400 40 1.000000 3.249000 3.502000 600 55 1.000000 0.052000 0.052000 1.200000 0.030000 0.036000
1538265488206444724	700 49 0.900000 0.262000 0.254000 1400 40 1.000000 3.250000 3.510000 600 55 1.000000 0.052000 0.052000 1.200000 0.030000 0.036000
1538265488766435099	700 49 0.900000 0.262000 0.254000 1400 39 1.000000 3.246000 3.505000 600 55 1.000000 0.052000 0.052000 1.200000 0.029000 0.035000
1538265489314485474	700 49 0.900000 0.262000 0.254000 1400 39 1.000000 3.247000 3.506000 600 55 1.000000 0.052000 0.052000 1.200000 0.029000 0.035000
1538265489862408433	700 49 0.900000 0.262000 0.254000 1400 40 1.000000 3.247000 3.506000 600 55 1.000000 0.052000 0.052000 1.200000 0.030000 0.036000
1538265490414443974	700 49 0.900000 0.262000 0.254000 1400 39 1.000000 3.247000 3.500000 600 55 1.000000 0.052000 0.052000 1.200000 0.029000 0.035000
1538265490974434433	700 49 0.900000 0.262000 0.254000 1400 39 1.000000 3.254000 3.514000 600 55 1.000000 0.052000 0.052000 1.200000 0.029000 0.035000
1538265491534418641	700 49 0.900000 0.262000 0.254000 1400 40 1.000000 3.260000 3.514000 600 55 1.000000 0.052000 0.052000 1.200000 0.029000 0.035000
1538265492082428933	700 49 0.900000 0.262000 0.254000 1400 40 1.000000 3.260000 3.514000 600 55 1.000000 0.052000 0.052000 1.200000 0.029000 0.035000
1538265492646415225	700 49 0.900000 0.262000 0.254000 1400 40 1.000000 3.262000 3.516000 600 55 1.000000 0.052000 0.052000 1.200000 0.029000 0.035000
1538265493206398600	700 49 0.900000 0.262000 0.254000 1400 40 1.000000 3.254000 3.514000 600 55 1.000000 0.052000 0.052000 1.200000 0.029000 0.035000
1538265493762427266	700 49 0.900000 0.262000 0.254000 1400 40 1.000000 3.260000 3.520000 600 55 1.000000 0.052000 0.052000 1.200000 0.029000 0.035000
1538265494322456308	700 49 0.900000 0.262000 0.254000 1400 39 1.000000 3.254000 3.514000 600 55 1.000000 0.052000 0.052000 1.200000 0.030000 0.036000
1538265494878382267	700 49 0.900000 0.262000 0.254000 1400 40 1.000000 3.249000 3.508000 600 55 1.000000 0.052000 0.052000 1.200000 0.030000 0.036000
1538265495434369600	700 49 0.900000 0.262000 0.254000 1400 39 1.000000 3.252000 3.512000 600 55 1.000000 0.052000 0.052000 1.200000 0.029000 0.035000
1538265495994406433	700 49 0.900000 0.262000 0.254000 1400 40 1.000000 3.253000 3.513000 600 55 1.000000 0.052000 0.052000 1.200000 0.029000 0.035000
1538265496546394392	700 49 0.900000 0.262000 0.254000 1400 39 1.000000 3.274000 3.535000 600 55 1.000000 0.052000 0.052000 1.200000 0.029000 0.035000
1538265497110429308	700 49 0.900000 0.262000 0.254000 1400 40 1.000000 3.274000 3.535000 600 55 1.000000 0.052000 0.052000 1.200000 0.029000 0.035000
1538265497670424350	700 49 0.900000 0.262000 0.254000 1400 40 1.000000 3.276000 3.538000 600 55 1.000000 0.052000 0.052000 1.200000 0.029000 0.035000
1538265498222405684	700 49 0.900000 0.262000 0.254000 1400 40 1.000000 3.275000 3.537000 600 55 1.000000 0.052000 0.052000 1.200000 0.029000 0.035000
1538265498770415309	700 49 0.900000 0.262000 0.254000 1400 40 1.000000 3.271000 3.526000 600 55 1.000000 0.052000 0.052000 1.200000 0.029000 0.035000
1538265499322371809	700 49 0.900000 0.262000 0.254000 1400 40 1.000000 3.272000 3.533000 600 55 1.000000 0.052000 0.052000 1.200000 0.030000 0.036000
1538265499882437559	700 49 0.900000 0.262000 0.254000 1400 40 1.000000 3.261000 3.521000 600 55 1.000000 0.052000 0.052000 1.200000 0.029000 0.035000
1538265500442435309	700 49 0.900000 0.262000 0.254000 1400 40 1.000000 3.265000 3.526000 600 55 1.000000 0.052000 0.052000 1.200000 0.029000 0.035000
1538265501010425934	700 49 0.900000 0.262000 0.254000 1400 40 1.000000 3.271000 3.532000 600 55 1.000000 0.052000 0.052000 1.200000 0.029000 0.035000
1538265501550433726	700 49 0.900000 0.262000 0.254000 1400 40 1.000000 3.273000 3.534000 600 55 1.000000 0.052000 0.052000 1.200000 0.029000 0.035000
1538265502114445267	700 49 0.900000 0.262000 0.254000 1400 40 1.000000 3.276000 3.538000 600 55 1.000000 0.052000 0.052000 1.200000 0.029000 0.035000
1538265502674442892	700 49 0.900000 0.262000 0.254000 1400 40 1.000000 3.275000 3.537000 600 55 1.000000 0.052000 0.052000 1.200000 0.029000 0.035000
1538265503222446101	700 49 0.900000 0.262000 0.254000 1400 40 1.000000 3.265000 3.526000 600 55 1.000000 0.052000 0.052000 1.200000 0.029000 0.035000
1538265503774431768	700 49 0.900000 0.262000 0.254000 1400 40 1.000000 3.257000 3.517000 600 55 1.000000 0.052000 0.052000 1.200000 0.029000 0.035000
1538265504334440393	700 49 0.900000 0.262000 0.254000 1400 40 1.000000 3.256000 3.516000 600 55 1.000000 0.052000 0.052000 1.200000 0.030000 0.036000
1538265504894419351	700 49 0.900000 0.262000 0.254000 1400 40 1.000000 3.251000 3.511000 600 55 1.000000 0.052000 0.052000 1.200000 0.031000 0.037000
1538265505450455934	700 49 0.900000 0.262000 0.254000 1400 40 1.000000 3.257000 3.517000 600 55 1.000000 0.052000 0.052000 1.200000 0.031000 0.037000
1538265506014451226	700 49 0.900000 0.262000 0.254000 1400 40 1.000000 3.247000 3.506000 600 55 1.000000 0.052000 0.052000 1.200000 0.031000 0.037000
1538265506574405560	700 49 0.900000 0.262000 0.254000 1400 40 1.000000 3.257000 3.517000 600 55 1.000000 0.052000 0.052000 1.200000 0.030000 0.036000
1538265507130454560	700 49 0.900000 0.262000 0.254000 1400 40 1.000000 3.257000 3.511000 600 55 1.000000 0.052000 0.052000 1.200000 0.031000 0.037000
1538265507690407226	700 49 0.900000 0.262000 0.254000 1400 40 1.000000 3.257000 3.511000 600 55 1.000000 0.052000 0.052000 1.200000 0.031000 0.037000
1538265508234466393	700 49 0.900000 0.262000 0.254000 1400 40 1.000000 3.254000 3.514000 600 55 1.000000 0.052000 0.052000 1.200000 0.031000 0.037000
1538265508794411810	700 49 0.900000 0.262000 0.254000 1400 40 1.000000 3.255000 3.515000 600 55 1.000000 0.052000 0.052000 1.200000 0.031000 0.037000
1538265509346481102	700 49 0.900000 0.262000 0.254000 1400 40 1.000000 3.257000 3.517000 600 55 1.000000 0.052000 0.052000 1.200000 0.031000 0.037000
1538265509898448685	700 49 0.900000 0.262000 0.254000 1400 40 1.000000 3.257000 3.517000 600 55 1.000000 0.051000 0.051000 1.200000 0.031000 0.037000
1538265510404039727	700 48 0.900000 0.262000 0.254000 1400 39 1.000000 2.901000 3.124000 600 48 1.000000 0.052000 0.052000 1.200000 0.031000 0.037000
1538265510909589602	700 39 0.900000 0.262000 0.254000 1400 37 1.000000 0.626000 0.671000 600 43 1.000000 0.052000 0.052000 1.200000 0.031000 0.037000
1538265511415023769	700 37 0.900000 0.262000 0.255000 1400 35 1.000000 0.174000 0.187000 600 40 1.000000 0.052000 0.052000 1.200000 0.030000 0.036000
1538265511920377310	700 35 0.900000 0.261000 0.254000 1400 34 1.000000 0.167000 0.179000 600 38 1.000000 0.051000 0.051000 1.200000 0.030000 0.036000
1538265512425710519	700 34 0.900000 0.261000 0.254000 1400 33 1.000000 0.163000 0.175000 600 37 1.000000 0.051000 0.051000 1.200000 0.031000 0.037000
1538265512931084310	700 33 0.900000 0.261000 0.254000 1400 32 1.000000 0.163000 0.175000 600 36 1.000000 0.051000 0.051000 1.200000 0.030000 0.036000
1538265513436406435	700 32 0.900000 0.261000 0.254000 1400 31 1.000000 0.166000 0.178000 600 35 1.000000 0.051000 0.051000 1.200000 0.030000 0.036000
1538265513941827810	700 32 0.900000 0.260000 0.253000 1400 31 1.000000 0.189000 0.203000 600 34 1.000000 0.051000 0.051000 1.200000 0.030000 0.036000
1538265514447070894	700 31 0.900000 0.260000 0.253000 1400 30 1.000000 0.163000 0.175000 600 34 1.000000 0.051000 0.051000 1.200000 0.031000 0.037000
1538265514952799519	700 31 0.900000 0.260000 0.253000 1400 29 1.000000 0.159000 0.171000 600 33 1.000000 0.050000 0.050000 1.200000 0.031000 0.037000
1538265515458305727	700 30 0.900000 0.260000 0.253000 1400 29 1.000000 0.166000 0.178000 600 33 1.000000 0.050000 0.050000 1.200000 0.031000 0.037000
1538265515963760269	700 30 0.900000 0.260000 0.253000 1400 29 1.000000 0.180000 0.193000 600 32 1.000000 0.051000 0.051000 1.200000 0.031000 0.037000
1538265516469114769	700 30 0.900000 0.260000 0.253000 1400 28 1.000000 0.170000 0.182000 600 32 1.000000 0.050000 0.050000 1.200000 0.031000 0.037000
1538265516974490853	700 29 0.900000 0.260000 0.253000 1400 28 1.000000 0.172000 0.185000 600 32 1.000000 0.050000 0.050000 1.200000 0.031000 0.037000
1538265517479955353	700 29 0.900000 0.260000 0.253000 1400 28 1.000000 0.177000 0.190000 600 32 1.000000 0.050000 0.050000 1.200000 0.031000 0.037000
1538265517985282144	700 29 0.900000 0.260000 0.253000 1400 27 1.000000 0.163000 0.175000 600 31 1.000000 0.050000 0.050000 1.200000 0.031000 0.037000
1538265518490630853	700 29 0.900000 0.260000 0.253000 1400 27 1.000000 0.186000 0.200000 600 31 1.000000 0.050000 0.050000 1.200000 0.031000 0.037000
1538265518995950728	700 28 0.900000 0.260000 0.253000 1400 27 1.000000 0.160000 0.172000 600 31 1.000000 0.050000 0.050000 1.200000 0.031000 0.037000
1538265519501389103	700 28 0.900000 0.260000 0.253000 1400 27 1.000000 0.181000 0.194000 600 31 1.000000 0.050000 0.050000 1.200000 0.031000 0.037000
1538265520006631603	700 28 0.900000 0.260000 0.253000 1400 27 1.000000 0.158000 0.170000 600 30 1.000000 0.050000 0.050000 1.200000 0.031000 0.037000
1538265520511995145	700 28 0.900000 0.260000 0.253000 1400 27 1.000000 0.181000 0.194000 600 30 1.000000 0.050000 0.050000 1.200000 0.031000 0.037000
1538265521017416061	700 28 0.900000 0.259000 0.252000 1400 26 1.000000 0.170000 0.182000 600 30 1.000000 0.051000 0.051000 1.200000 0.031000 0.037000
1538265521522763978	700 28 0.900000 0.259000 0.252000 1400 26 1.000000 0.170000 0.182000 600 30 1.000000 0.050000 0.050000 1.200000 0.031000 0.037000
1538265522028095436	700 27 0.900000 0.259000 0.252000 1400 26 1.000000 0.171000 0.183000 600 30 1.000000 0.050000 0.050000 1.200000 0.031000 0.037000
1538265522533475312	700 27 0.900000 0.259000 0.252000 1400 26 1.000000 0.161000 0.173000 600 30 1.000000 0.050000 0.050000 1.200000 0.031000 0.037000
1538265523038838478	700 27 0.900000 0.259000 0.252000 1400 26 1.000000 0.181000 0.194000 600 29 1.000000 0.050000 0.050000 1.200000 0.031000 0.037000
1538265523544196770	700 27 0.900000 0.259000 0.252000 1400 26 1.000000 0.160000 0.172000 600 29 1.000000 0.050000 0.050000 1.200000 0.031000 0.037000
1538265524049535770	700 27 0.900000 0.259000 0.252000 1400 25 1.000000 0.183000 0.196000 600 29 1.000000 0.050000 0.050000 1.200000 0.031000 0.037000
1538265524554818645	700 27 0.900000 0.259000 0.252000 1400 25 1.000000 0.156000 0.167000 600 29 1.000000 0.050000 0.050000 1.200000 0.031000 0.037000
1538265525060119728	700 27 0.900000 0.259000 0.252000 1400 25 1.000000 0.181000 0.194000 600 29 1.000000 0.050000 0.050000 1.200000 0.031000 0.037000
1538265525565415729	700 27 0.900000 0.259000 0.252000 1400 25 1.000000 0.163000 0.175000 600 29 1.000000 0.050000 0.050000 1.200000 0.031000 0.037000
1538265526070667562	700 27 0.900000 0.259000 0.252000 1400 25 1.000000 0.159000 0.171000 600 29 1.000000 0.050000 0.050000 1.200000 0.031000 0.037000
1538265526576050020	700 26 0.900000 0.259000 0.252000 1400 25 1.000000 0.157000 0.168000 600 29 1.000000 0.050000 0.050000 1.200000 0.031000 0.037000
1538265527081357729	700 26 0.900000 0.259000 0.252000 1400 25 1.000000 0.164000 0.176000 600 29 1.000000 0.050000 0.050000 1.200000 0.031000 0.037000
1538265527586859270	700 26 0.900000 0.259000 0.252000 1400 25 1.000000 0.177000 0.190000 600 28 1.000000 0.050000 0.050000 1.200000 0.031000 0.037000
1538265528092131062	700 26 0.900000 0.259000 0.252000 1400 25 1.000000 0.158000 0.170000 600 28 1.000000 0.050000 0.050000 1.200000 0.031000 0.037000
1538265528597588479	700 26 0.900000 0.259000 0.252000 1400 24 1.000000 0.182000 0.195000 600 28 1.000000 0.050000 0.050000 1.200000 0.031000 0.037000
1538265529102896437	700 26 0.900000 0.259000 0.252000 1400 25 1.000000 0.160000 0.172000 600 28 1.000000 0.050000 0.050000 1.200000 0.031000 0.037000
1538265529608312062	700 26 0.900000 0.259000 0.252000 1400 24 1.000000 0.181000 0.194000 600 28 1.000000 0.050000 0.050000 1.200000 0.031000 0.037000
1538265530113806396	700 26 0.900000 0.259000 0.252000 1400 24 1.000000 0.157000 0.168000 600 28 1.000000 0.050000 0.050000 1.200000 0.031000 0.037000
1538265530619266229	700 26 0.900000 0.259000 0.252000 1400 24 1.000000 0.179000 0.192000 600 28 1.000000 0.050000 0.050000 1.200000 0.031000 0.037000
1538265531124742729	700 26 0.900000 0.259000 0.252000 1400 24 1.000000 0.160000 0.172000 600 28 1.000000 0.050000 0.050000 1.200000 0.031000 0.037000
1538265531630305979	700 26 0.900000 0.259000 0.252000 1400 24 1.000000 0.158000 0.170000 600 28 1.000000 0.050000 0.050000 1.200000 0.031000 0.037000
1538265532135615188	700 26 0.900000 0.259000 0.252000 1400 24 1.000000 0.152000 0.163000 600 28 1.000000 0.050000 0.050000 1.200000 0.031000 0.037000
1538265532641055479	700 26 0.900000 0.259000 0.252000 1400 24 1.000000 0.153000 0.164000 600 28 1.000000 0.050000 0.050000 1.200000 0.031000 0.037000
1538265533146468479	700 26 0.900000 0.259000 0.252000 1400 24 1.000000 0.180000 0.193000 600 28 1.000000 0.050000 0.050000 1.200000 0.031000 0.037000
1538265533651924021	700 25 0.900000 0.214000 0.210000 1400 24 1.000000 0.158000 0.170000 600 28 1.000000 0.050000 0.050000 1.200000 0.030000 0.036000
1538265534157360313	700 25 0.900000 0.204000 0.201000 1400 24 1.000000 0.178000 0.191000 600 28 1.000000 0.050000 0.050000 1.200000 0.028000 0.033000
1538265534662834480	700 25 0.900000 0.098000 0.096000 1400 23 1.000000 0.149000 0.160000 600 27 1.000000 0.050000 0.050000 1.200000 0.025000 0.030000
1538265535168278521	700 24 0.900000 0.045000 0.044000 1400 23 1.000000 0.172000 0.185000 600 27 1.000000 0.050000 0.050000 1.200000 0.022000 0.026000
