#Timestamp	CPU(0) Frequency(MHz)	CPU(0) Temperature(C)	A7 Voltage(V)	A7 Current(A)	A7 Power(W)	CPU(4) Frequency(MHz)	CPU(4) Temperature(C)	A15 Voltage(V)	A15 Current(A)	A15 Power(W)	GPU Frequency(MHz)	GPU Temperature(C)	GPU Voltage(V)	GPU Current(A)	GPU Power(W)	RAM Voltage(V)	RAM Current(A)	RAM Power(W)
1518170786294138704	1300 51 1.200000 0.083000 0.101000 1500 48 1.000000 0.830000 0.908000 600 54 1.000000 0.055000 0.055000 1.200000 0.041000 0.049000
1518170786800428204	1300 50 1.200000 0.086000 0.105000 1500 48 1.000000 0.942000 1.029000 600 55 1.000000 0.054000 0.054000 1.200000 0.037000 0.044000
1518170787306455954	1300 50 1.200000 0.086000 0.105000 1500 47 1.000000 0.942000 1.029000 600 54 1.000000 0.054000 0.054000 1.200000 0.040000 0.048000
1518170787865154746	1300 60 1.200000 0.223000 0.271000 1500 50 1.000000 0.936000 1.023000 600 64 1.000000 0.054000 0.054000 1.200000 0.043000 0.051000
1518170788413074746	1300 62 1.200000 0.631000 0.760000 1500 52 1.100000 3.610000 3.992000 600 67 1.000000 0.055000 0.055000 1.200000 0.036000 0.043000
1518170788969074829	1300 64 1.200000 0.632000 0.761000 1500 54 1.100000 3.620000 4.003000 600 69 1.000000 0.055000 0.055000 1.200000 0.036000 0.043000
1518170789529025913	1300 65 1.200000 0.633000 0.762000 1500 55 1.100000 3.620000 4.003000 600 70 1.000000 0.055000 0.055000 1.200000 0.036000 0.043000
1518170790081090038	1300 66 1.200000 0.634000 0.763000 1500 55 1.100000 3.632000 4.016000 600 71 1.000000 0.055000 0.055000 1.200000 0.036000 0.043000
1518170790637066496	1300 66 1.200000 0.634000 0.763000 1500 56 1.100000 3.627000 4.011000 600 71 1.000000 0.055000 0.055000 1.200000 0.037000 0.044000
1518170791193052871	1300 67 1.200000 0.634000 0.763000 1500 56 1.100000 3.640000 4.025000 600 72 1.000000 0.055000 0.055000 1.200000 0.036000 0.043000
1518170791741076288	1300 67 1.200000 0.635000 0.765000 1500 57 1.100000 3.638000 4.023000 600 72 1.000000 0.056000 0.056000 1.200000 0.037000 0.044000
1518170792293046538	1300 68 1.200000 0.635000 0.765000 1500 57 1.100000 3.645000 4.031000 600 73 1.000000 0.056000 0.056000 1.200000 0.037000 0.044000
1518170792841054497	1300 68 1.200000 0.635000 0.765000 1500 57 1.100000 3.642000 4.028000 600 73 1.000000 0.056000 0.056000 1.200000 0.037000 0.044000
1518170793397064872	1300 68 1.200000 0.636000 0.766000 1500 58 1.100000 3.646000 4.032000 600 73 1.000000 0.056000 0.056000 1.200000 0.036000 0.043000
1518170793945037955	1300 68 1.200000 0.637000 0.767000 1500 58 1.100000 3.661000 4.049000 600 73 1.000000 0.056000 0.056000 1.200000 0.036000 0.043000
1518170794513060788	1300 68 1.200000 0.636000 0.766000 1500 58 1.100000 3.659000 4.046000 600 74 1.000000 0.056000 0.056000 1.200000 0.036000 0.043000
1518170795057069122	1300 69 1.200000 0.637000 0.767000 1500 58 1.100000 3.662000 4.050000 600 74 1.000000 0.056000 0.056000 1.200000 0.036000 0.043000
1518170795605082080	1300 69 1.200000 0.637000 0.767000 1500 58 1.100000 3.655000 4.042000 600 74 1.000000 0.056000 0.056000 1.200000 0.037000 0.044000
1518170796161062539	1300 69 1.200000 0.637000 0.767000 1500 58 1.100000 3.665000 4.053000 600 74 1.000000 0.056000 0.056000 1.200000 0.036000 0.043000
1518170796721059747	1300 69 1.200000 0.637000 0.767000 1500 58 1.100000 3.653000 4.040000 600 74 1.000000 0.057000 0.057000 1.200000 0.036000 0.043000
1518170797289052872	1300 69 1.200000 0.637000 0.767000 1500 59 1.100000 3.664000 4.052000 600 74 1.000000 0.057000 0.057000 1.200000 0.036000 0.043000
1518170797835707080	1300 69 1.200000 0.637000 0.767000 1500 59 1.100000 3.665000 4.053000 600 74 1.000000 0.056000 0.056000 1.200000 0.036000 0.043000
1518170798397012539	1300 69 1.200000 0.637000 0.767000 1500 59 1.100000 3.662000 4.050000 600 74 1.000000 0.056000 0.056000 1.200000 0.037000 0.044000
1518170798953018997	1300 69 1.200000 0.638000 0.768000 1500 59 1.100000 3.670000 4.062000 600 74 1.000000 0.057000 0.057000 1.200000 0.035000 0.042000
1518170799501087747	1300 69 1.200000 0.638000 0.768000 1500 59 1.100000 3.670000 4.059000 600 75 1.000000 0.056000 0.056000 1.200000 0.035000 0.042000
1518170800065058372	1300 70 1.200000 0.637000 0.767000 1500 59 1.100000 3.669000 4.057000 600 75 1.000000 0.057000 0.057000 1.200000 0.036000 0.043000
1518170800617061997	1300 70 1.200000 0.638000 0.768000 1500 59 1.100000 3.665000 4.053000 600 75 1.000000 0.056000 0.056000 1.200000 0.036000 0.043000
1518170801189024039	1300 70 1.200000 0.638000 0.768000 1500 59 1.100000 3.663000 4.054000 600 75 1.000000 0.057000 0.057000 1.200000 0.036000 0.043000
1518170801741022289	1300 70 1.200000 0.638000 0.768000 1500 59 1.100000 3.701000 4.093000 600 75 1.000000 0.056000 0.056000 1.200000 0.035000 0.042000
1518170802301061331	1300 70 1.200000 0.638000 0.768000 1500 59 1.100000 3.702000 4.098000 600 75 1.000000 0.057000 0.057000 1.200000 0.036000 0.043000
1518170802848538831	1300 70 1.200000 0.638000 0.768000 1500 59 1.100000 3.709000 4.105000 600 75 1.000000 0.057000 0.057000 1.200000 0.036000 0.043000
1518170803413055998	1300 70 1.200000 0.638000 0.768000 1500 59 1.100000 3.701000 4.093000 600 75 1.000000 0.057000 0.057000 1.200000 0.036000 0.043000
1518170803977071956	1300 70 1.200000 0.641000 0.772000 1500 59 1.100000 3.711000 4.104000 600 75 1.000000 0.057000 0.057000 1.200000 0.034000 0.041000
1518170804517084665	1300 70 1.200000 0.642000 0.773000 1500 59 1.100000 3.713000 4.106000 600 75 1.000000 0.056000 0.056000 1.200000 0.034000 0.041000
1518170805061076206	1300 70 1.200000 0.641000 0.772000 1500 59 1.100000 3.712000 4.109000 600 75 1.000000 0.057000 0.057000 1.200000 0.034000 0.041000
1518170805609077040	1300 70 1.200000 0.641000 0.772000 1500 59 1.100000 3.711000 4.104000 600 75 1.000000 0.057000 0.057000 1.200000 0.034000 0.041000
1518170806157035790	1300 70 1.200000 0.641000 0.772000 1500 59 1.100000 3.712000 4.109000 600 75 1.000000 0.057000 0.057000 1.200000 0.034000 0.041000
1518170806701045290	1300 70 1.200000 0.641000 0.772000 1500 59 1.100000 3.712000 4.109000 600 75 1.000000 0.057000 0.057000 1.200000 0.034000 0.041000
1518170807261022707	1300 70 1.200000 0.641000 0.772000 1500 59 1.100000 3.713000 4.110000 600 75 1.000000 0.057000 0.057000 1.200000 0.034000 0.041000
1518170807813024248	1300 70 1.200000 0.641000 0.772000 1500 59 1.100000 3.702000 4.098000 600 75 1.000000 0.057000 0.057000 1.200000 0.034000 0.041000
1518170808377034415	1300 70 1.200000 0.642000 0.773000 1500 59 1.100000 3.689000 4.080000 600 75 1.000000 0.057000 0.057000 1.200000 0.034000 0.041000
1518170808937059040	1300 70 1.200000 0.642000 0.773000 1500 59 1.100000 3.658000 4.045000 600 75 1.000000 0.057000 0.057000 1.200000 0.034000 0.041000
1518170809497047874	1300 70 1.200000 0.641000 0.772000 1500 59 1.100000 3.660000 4.047000 600 75 1.000000 0.057000 0.057000 1.200000 0.034000 0.041000
1518170810053047249	1300 70 1.200000 0.641000 0.772000 1500 59 1.100000 3.671000 4.060000 600 75 1.000000 0.056000 0.056000 1.200000 0.034000 0.041000
1518170810589049040	1300 70 1.200000 0.641000 0.772000 1500 60 1.100000 3.671000 4.063000 600 75 1.000000 0.057000 0.057000 1.200000 0.034000 0.041000
1518170811149096082	1300 70 1.200000 0.642000 0.773000 1500 59 1.100000 3.672000 4.064000 600 75 1.000000 0.057000 0.057000 1.200000 0.034000 0.041000
1518170811705060957	1300 70 1.200000 0.641000 0.772000 1500 59 1.100000 3.672000 4.061000 600 75 1.000000 0.057000 0.057000 1.200000 0.035000 0.042000
1518170812253069624	1300 70 1.200000 0.641000 0.772000 1500 59 1.100000 3.672000 4.061000 600 75 1.000000 0.057000 0.057000 1.200000 0.035000 0.042000
1518170812801033374	1300 70 1.200000 0.641000 0.772000 1500 59 1.100000 3.671000 4.060000 600 75 1.000000 0.057000 0.057000 1.200000 0.034000 0.041000
1518170813337020707	1300 70 1.200000 0.641000 0.772000 1500 59 1.100000 3.672000 4.064000 600 75 1.000000 0.057000 0.057000 1.200000 0.034000 0.041000
1518170813885034291	1300 70 1.200000 0.641000 0.772000 1500 59 1.100000 3.671000 4.063000 600 75 1.000000 0.057000 0.057000 1.200000 0.034000 0.041000
1518170814445054999	1300 70 1.200000 0.642000 0.773000 1500 59 1.100000 3.672000 4.061000 600 75 1.000000 0.057000 0.057000 1.200000 0.034000 0.041000
1518170814984862749	1300 70 1.200000 0.642000 0.773000 1500 59 1.100000 3.667000 4.059000 600 75 1.000000 0.057000 0.057000 1.200000 0.034000 0.041000
1518170815525106041	1300 70 1.200000 0.642000 0.773000 1500 60 1.100000 3.679000 4.068000 600 75 1.000000 0.057000 0.057000 1.200000 0.034000 0.041000
1518170816065081749	1300 70 1.200000 0.641000 0.772000 1500 60 1.100000 3.672000 4.064000 600 75 1.000000 0.057000 0.057000 1.200000 0.035000 0.042000
1518170816617095874	1300 70 1.200000 0.641000 0.772000 1500 60 1.100000 3.674000 4.063000 600 75 1.000000 0.057000 0.057000 1.200000 0.034000 0.041000
1518170817181042499	1300 70 1.200000 0.641000 0.772000 1500 60 1.100000 3.683000 4.073000 600 75 1.000000 0.057000 0.057000 1.200000 0.035000 0.042000
1518170817749035916	1300 70 1.200000 0.642000 0.773000 1500 60 1.100000 3.685000 4.079000 600 75 1.000000 0.057000 0.057000 1.200000 0.034000 0.041000
1518170818301045416	1300 70 1.200000 0.642000 0.773000 1500 60 1.100000 3.683000 4.073000 600 75 1.000000 0.057000 0.057000 1.200000 0.034000 0.041000
1518170818853077208	1300 70 1.200000 0.641000 0.772000 1500 59 1.100000 3.678000 4.067000 600 75 1.000000 0.057000 0.057000 1.200000 0.034000 0.041000
1518170819405077208	1300 70 1.200000 0.642000 0.773000 1500 59 1.100000 3.681000 4.071000 600 75 1.000000 0.057000 0.057000 1.200000 0.034000 0.041000
1518170819965032458	1300 70 1.200000 0.641000 0.772000 1500 60 1.100000 3.672000 4.061000 600 75 1.000000 0.057000 0.057000 1.200000 0.038000 0.045000
1518170820529081625	1300 70 1.200000 0.641000 0.772000 1500 60 1.100000 3.678000 4.067000 600 75 1.000000 0.057000 0.057000 1.200000 0.039000 0.047000
1518170821077036792	1300 70 1.200000 0.641000 0.772000 1500 60 1.100000 3.680000 4.070000 600 75 1.000000 0.057000 0.057000 1.200000 0.039000 0.047000
1518170821625060917	1300 70 1.200000 0.641000 0.772000 1500 60 1.100000 3.682000 4.072000 600 75 1.000000 0.057000 0.057000 1.200000 0.039000 0.047000
1518170822189058833	1300 70 1.200000 0.641000 0.772000 1500 60 1.100000 3.699000 4.091000 600 75 1.000000 0.057000 0.057000 1.200000 0.039000 0.047000
1518170822737063375	1300 70 1.200000 0.641000 0.772000 1500 60 1.100000 3.695000 4.090000 600 75 1.000000 0.057000 0.057000 1.200000 0.039000 0.047000
1518170823301037209	1300 70 1.200000 0.641000 0.772000 1500 60 1.100000 3.692000 4.087000 600 76 1.000000 0.057000 0.057000 1.200000 0.039000 0.047000
1518170823849080959	1300 70 1.200000 0.641000 0.772000 1500 60 1.100000 3.687000 4.077000 600 76 1.000000 0.057000 0.057000 1.200000 0.038000 0.045000
1518170824393057209	1300 70 1.200000 0.641000 0.772000 1500 60 1.100000 3.683000 4.073000 600 76 1.000000 0.057000 0.057000 1.200000 0.039000 0.047000
1518170824953072792	1300 70 1.200000 0.641000 0.772000 1500 60 1.100000 3.686000 4.076000 600 76 1.000000 0.057000 0.057000 1.200000 0.039000 0.047000
1518170825509102709	1300 70 1.200000 0.641000 0.772000 1500 60 1.100000 3.689000 4.080000 600 75 1.000000 0.056000 0.056000 1.200000 0.039000 0.047000
1518170826057019542	1300 70 1.200000 0.641000 0.772000 1500 60 1.100000 3.685000 4.079000 600 75 1.000000 0.057000 0.057000 1.200000 0.039000 0.047000
1518170826609077251	1300 70 1.200000 0.641000 0.772000 1500 60 1.100000 3.678000 4.067000 600 76 1.000000 0.057000 0.057000 1.200000 0.039000 0.047000
1518170827157094834	1300 70 1.200000 0.641000 0.772000 1500 60 1.100000 3.689000 4.083000 600 76 1.000000 0.057000 0.057000 1.200000 0.038000 0.045000
1518170827713043209	1300 70 1.200000 0.641000 0.772000 1500 60 1.100000 3.695000 4.086000 600 76 1.000000 0.057000 0.057000 1.200000 0.038000 0.045000
1518170828265065667	1300 70 1.200000 0.641000 0.772000 1500 60 1.100000 3.689000 4.080000 600 76 1.000000 0.057000 0.057000 1.200000 0.039000 0.047000
1518170828817051001	1300 70 1.200000 0.641000 0.772000 1500 60 1.100000 3.682000 4.075000 600 76 1.000000 0.056000 0.056000 1.200000 0.039000 0.047000
1518170829365094668	1300 70 1.200000 0.641000 0.772000 1500 60 1.100000 3.668000 4.056000 600 76 1.000000 0.057000 0.057000 1.200000 0.039000 0.047000
1518170829913024793	1300 70 1.200000 0.641000 0.772000 1500 60 1.100000 3.666000 4.054000 600 75 1.000000 0.057000 0.057000 1.200000 0.039000 0.047000
1518170830473001834	1300 70 1.200000 0.641000 0.772000 1500 60 1.100000 3.661000 4.049000 600 76 1.000000 0.057000 0.057000 1.200000 0.039000 0.047000
1518170831025008626	1300 70 1.200000 0.641000 0.772000 1500 60 1.100000 3.659000 4.046000 600 75 1.000000 0.057000 0.057000 1.200000 0.039000 0.047000
1518170831569069918	1300 70 1.200000 0.641000 0.772000 1500 60 1.100000 3.660000 4.047000 600 76 1.000000 0.057000 0.057000 1.200000 0.039000 0.047000
1518170832129041293	1300 70 1.200000 0.641000 0.772000 1500 60 1.100000 3.666000 4.054000 600 75 1.000000 0.057000 0.057000 1.200000 0.039000 0.047000
1518170832685067501	1300 70 1.200000 0.641000 0.772000 1500 60 1.100000 3.666000 4.054000 600 75 1.000000 0.057000 0.057000 1.200000 0.039000 0.047000
1518170833233051876	1300 70 1.200000 0.641000 0.772000 1500 60 1.100000 3.666000 4.054000 600 75 1.000000 0.057000 0.057000 1.200000 0.039000 0.047000
1518170833785047710	1300 70 1.200000 0.642000 0.773000 1500 60 1.100000 3.675000 4.064000 600 76 1.000000 0.057000 0.057000 1.200000 0.039000 0.047000
1518170834353069043	1300 70 1.200000 0.641000 0.772000 1500 60 1.100000 3.673000 4.062000 600 76 1.000000 0.057000 0.057000 1.200000 0.039000 0.047000
1518170834909043960	1300 70 1.200000 0.641000 0.772000 1500 60 1.100000 3.674000 4.063000 600 75 1.000000 0.057000 0.057000 1.200000 0.038000 0.045000
1518170835473074793	1300 70 1.200000 0.642000 0.773000 1500 60 1.100000 3.668000 4.056000 600 76 1.000000 0.057000 0.057000 1.200000 0.038000 0.045000
1518170836033014293	1300 70 1.200000 0.639000 0.769000 1500 60 1.100000 3.678000 4.067000 600 76 1.000000 0.057000 0.057000 1.200000 0.033000 0.039000
1518170836589065252	1300 70 1.200000 0.639000 0.769000 1500 60 1.100000 3.708000 4.101000 600 76 1.000000 0.057000 0.057000 1.200000 0.033000 0.039000
1518170837157059460	1300 70 1.200000 0.639000 0.769000 1500 60 1.100000 3.700000 4.092000 600 76 1.000000 0.057000 0.057000 1.200000 0.033000 0.039000
1518170837713043794	1300 71 1.200000 0.639000 0.769000 1500 60 1.100000 3.699000 4.091000 600 76 1.000000 0.057000 0.057000 1.200000 0.033000 0.039000
1518170838273042835	1300 70 1.200000 0.639000 0.769000 1500 60 1.100000 3.711000 4.104000 600 76 1.000000 0.057000 0.057000 1.200000 0.033000 0.039000
1518170838837043127	1300 71 1.200000 0.639000 0.769000 1500 60 1.100000 3.712000 4.105000 600 76 1.000000 0.057000 0.057000 1.200000 0.032000 0.038000
1518170839393022669	1300 71 1.200000 0.640000 0.771000 1500 60 1.100000 3.711000 4.104000 600 76 1.000000 0.057000 0.057000 1.200000 0.033000 0.039000
1518170839941044502	1300 71 1.200000 0.639000 0.769000 1500 60 1.100000 3.712000 4.105000 600 76 1.000000 0.057000 0.057000 1.200000 0.033000 0.039000
1518170840497079336	1300 71 1.200000 0.639000 0.769000 1500 60 1.100000 3.709000 4.102000 600 76 1.000000 0.057000 0.057000 1.200000 0.032000 0.038000
1518170841053059544	1300 71 1.200000 0.639000 0.769000 1500 60 1.100000 3.701000 4.093000 600 76 1.000000 0.057000 0.057000 1.200000 0.033000 0.039000
1518170841609080127	1300 71 1.200000 0.639000 0.769000 1500 60 1.100000 3.710000 4.103000 600 76 1.000000 0.057000 0.057000 1.200000 0.032000 0.038000
1518170842159693752	1300 71 1.200000 0.639000 0.769000 1500 60 1.100000 3.702000 4.094000 600 76 1.000000 0.057000 0.057000 1.200000 0.033000 0.039000
1518170842721008794	1300 71 1.200000 0.639000 0.769000 1500 60 1.100000 3.709000 4.102000 600 76 1.000000 0.057000 0.057000 1.200000 0.033000 0.039000
1518170843269029419	1300 71 1.200000 0.640000 0.771000 1500 60 1.100000 3.692000 4.083000 600 76 1.000000 0.057000 0.057000 1.200000 0.033000 0.039000
1518170843817054836	1300 70 1.200000 0.639000 0.769000 1500 60 1.100000 3.691000 4.082000 600 76 1.000000 0.057000 0.057000 1.200000 0.032000 0.038000
1518170844377061628	1300 70 1.200000 0.639000 0.769000 1500 60 1.100000 3.691000 4.082000 600 76 1.000000 0.057000 0.057000 1.200000 0.033000 0.039000
1518170844925038586	1300 71 1.200000 0.639000 0.769000 1500 60 1.100000 3.691000 4.082000 600 76 1.000000 0.057000 0.057000 1.200000 0.032000 0.038000
1518170845485070336	1300 71 1.200000 0.639000 0.769000 1500 60 1.100000 3.692000 4.083000 600 76 1.000000 0.057000 0.057000 1.200000 0.033000 0.039000
1518170846041080128	1300 70 1.200000 0.640000 0.771000 1500 60 1.100000 3.694000 4.089000 600 76 1.000000 0.057000 0.057000 1.200000 0.032000 0.038000
1518170846585088753	1300 71 1.200000 0.639000 0.769000 1500 60 1.100000 3.692000 4.083000 600 76 1.000000 0.057000 0.057000 1.200000 0.033000 0.039000
1518170847137064211	1300 70 1.200000 0.639000 0.769000 1500 60 1.100000 3.691000 4.082000 600 76 1.000000 0.057000 0.057000 1.200000 0.033000 0.039000
1518170847685088878	1300 71 1.200000 0.639000 0.769000 1500 60 1.100000 3.684000 4.078000 600 76 1.000000 0.057000 0.057000 1.200000 0.032000 0.038000
1518170848227838461	1300 70 1.200000 0.639000 0.769000 1500 60 1.100000 3.685000 4.075000 600 76 1.000000 0.057000 0.057000 1.200000 0.033000 0.039000
1518170848793086878	1300 71 1.200000 0.639000 0.769000 1500 60 1.100000 3.684000 4.074000 600 76 1.000000 0.057000 0.057000 1.200000 0.033000 0.039000
1518170849365102962	1300 70 1.200000 0.639000 0.769000 1500 60 1.100000 3.671000 4.060000 600 76 1.000000 0.057000 0.057000 1.200000 0.033000 0.039000
1518170849929072962	1300 70 1.200000 0.640000 0.771000 1500 60 1.100000 3.673000 4.062000 600 76 1.000000 0.057000 0.057000 1.200000 0.033000 0.039000
1518170850493057295	1300 70 1.200000 0.639000 0.769000 1500 60 1.100000 3.673000 4.062000 600 76 1.000000 0.057000 0.057000 1.200000 0.033000 0.039000
1518170851053053295	1300 70 1.200000 0.639000 0.769000 1500 60 1.100000 3.675000 4.064000 600 76 1.000000 0.057000 0.057000 1.200000 0.033000 0.039000
1518170851605029587	1300 70 1.200000 0.639000 0.769000 1500 60 1.100000 3.672000 4.061000 600 76 1.000000 0.057000 0.057000 1.200000 0.033000 0.039000
1518170852165070379	1300 71 1.200000 0.638000 0.768000 1500 60 1.100000 3.671000 4.060000 600 76 1.000000 0.057000 0.057000 1.200000 0.034000 0.041000
1518170852713029629	1300 70 1.200000 0.638000 0.768000 1500 60 1.100000 3.673000 4.062000 600 76 1.000000 0.056000 0.056000 1.200000 0.034000 0.041000
1518170853277050545	1300 70 1.200000 0.638000 0.768000 1500 60 1.100000 3.672000 4.061000 600 76 1.000000 0.057000 0.057000 1.200000 0.034000 0.041000
1518170853829105837	1300 70 1.200000 0.638000 0.768000 1500 60 1.100000 3.674000 4.067000 600 76 1.000000 0.057000 0.057000 1.200000 0.034000 0.041000
1518170854381051837	1300 71 1.200000 0.638000 0.768000 1500 60 1.100000 3.673000 4.062000 600 76 1.000000 0.057000 0.057000 1.200000 0.035000 0.042000
1518170854937101421	1300 71 1.200000 0.638000 0.768000 1500 60 1.100000 3.667000 4.055000 600 76 1.000000 0.057000 0.057000 1.200000 0.035000 0.042000
1518170855477070212	1300 70 1.200000 0.638000 0.768000 1500 60 1.100000 3.662000 4.050000 600 76 1.000000 0.057000 0.057000 1.200000 0.034000 0.041000
1518170856037087879	1300 71 1.200000 0.638000 0.768000 1500 60 1.100000 3.674000 4.063000 600 75 1.000000 0.057000 0.057000 1.200000 0.034000 0.041000
1518170856589089421	1300 71 1.200000 0.639000 0.769000 1500 60 1.100000 3.715000 4.112000 600 76 1.000000 0.057000 0.057000 1.200000 0.034000 0.041000
1518170857157182838	1300 71 1.200000 0.638000 0.768000 1500 60 1.100000 3.742000 4.142000 600 76 1.000000 0.057000 0.057000 1.200000 0.035000 0.042000
1518170857705122088	1300 71 1.200000 0.638000 0.768000 1500 60 1.100000 3.730000 4.125000 600 76 1.000000 0.057000 0.057000 1.200000 0.036000 0.043000
1518170858261080796	1300 71 1.200000 0.638000 0.768000 1500 60 1.100000 3.734000 4.129000 600 76 1.000000 0.057000 0.057000 1.200000 0.035000 0.042000
1518170858817079254	1300 71 1.200000 0.638000 0.768000 1500 60 1.100000 3.736000 4.135000 600 76 1.000000 0.057000 0.057000 1.200000 0.034000 0.041000
1518170859369060921	1300 71 1.200000 0.638000 0.768000 1500 60 1.100000 3.741000 4.141000 600 76 1.000000 0.057000 0.057000 1.200000 0.034000 0.041000
1518170859921057755	1300 71 1.200000 0.638000 0.768000 1500 60 1.100000 3.736000 4.135000 600 76 1.000000 0.057000 0.057000 1.200000 0.034000 0.041000
1518170860477060963	1300 71 1.200000 0.638000 0.768000 1500 60 1.100000 3.733000 4.128000 600 76 1.000000 0.057000 0.057000 1.200000 0.034000 0.041000
1518170861037089838	1300 71 1.200000 0.638000 0.768000 1500 60 1.100000 3.736000 4.132000 600 76 1.000000 0.057000 0.057000 1.200000 0.034000 0.041000
1518170861609021296	1300 71 1.200000 0.638000 0.768000 1500 60 1.100000 3.743000 4.143000 600 76 1.000000 0.057000 0.057000 1.200000 0.034000 0.041000
1518170862169020671	1300 71 1.200000 0.639000 0.769000 1500 60 1.100000 3.740000 4.140000 600 76 1.000000 0.057000 0.057000 1.200000 0.034000 0.041000
1518170862733053338	1300 71 1.200000 0.638000 0.768000 1500 60 1.100000 3.738000 4.137000 600 76 1.000000 0.057000 0.057000 1.200000 0.034000 0.041000
1518170863293059880	1300 71 1.200000 0.639000 0.769000 1500 60 1.100000 3.733000 4.132000 600 76 1.000000 0.057000 0.057000 1.200000 0.034000 0.041000
1518170863845055588	1300 71 1.200000 0.638000 0.768000 1500 60 1.100000 3.686000 4.080000 600 76 1.000000 0.057000 0.057000 1.200000 0.034000 0.041000
1518170864409094297	1300 71 1.200000 0.639000 0.769000 1500 60 1.100000 3.667000 4.055000 600 76 1.000000 0.057000 0.057000 1.200000 0.034000 0.041000
1518170864969020005	1300 71 1.200000 0.639000 0.769000 1500 60 1.100000 3.663000 4.051000 600 76 1.000000 0.057000 0.057000 1.200000 0.034000 0.041000
1518170865529039505	1300 71 1.200000 0.638000 0.768000 1500 60 1.100000 3.657000 4.044000 600 76 1.000000 0.057000 0.057000 1.200000 0.034000 0.041000
1518170866077074297	1300 71 1.200000 0.639000 0.769000 1500 60 1.100000 3.659000 4.046000 600 76 1.000000 0.057000 0.057000 1.200000 0.034000 0.041000
1518170866629034797	1300 71 1.200000 0.638000 0.768000 1500 60 1.100000 3.657000 4.044000 600 76 1.000000 0.057000 0.057000 1.200000 0.034000 0.041000
1518170867181094380	1300 71 1.200000 0.639000 0.769000 1500 60 1.100000 3.649000 4.035000 600 76 1.000000 0.057000 0.057000 1.200000 0.034000 0.041000
1518170867733080797	1300 71 1.200000 0.639000 0.769000 1500 60 1.100000 3.649000 4.035000 600 76 1.000000 0.057000 0.057000 1.200000 0.036000 0.043000
1518170868293054381	1300 70 1.200000 0.637000 0.767000 1500 60 1.100000 3.665000 4.053000 600 76 1.000000 0.057000 0.057000 1.200000 0.035000 0.042000
1518170868841070881	1300 70 1.200000 0.638000 0.768000 1500 60 1.100000 3.651000 4.038000 600 76 1.000000 0.057000 0.057000 1.200000 0.036000 0.043000
1518170869393034089	1300 70 1.200000 0.638000 0.768000 1500 60 1.100000 3.665000 4.053000 600 76 1.000000 0.057000 0.057000 1.200000 0.035000 0.042000
1518170869949039172	1300 71 1.200000 0.638000 0.768000 1500 60 1.100000 3.669000 4.057000 600 76 1.000000 0.057000 0.057000 1.200000 0.035000 0.042000
1518170870509073589	1300 71 1.200000 0.638000 0.768000 1500 60 1.100000 3.707000 4.103000 600 76 1.000000 0.057000 0.057000 1.200000 0.035000 0.042000
1518170871061102464	1300 71 1.200000 0.638000 0.768000 1500 60 1.100000 3.714000 4.107000 600 76 1.000000 0.056000 0.056000 1.200000 0.036000 0.043000
1518170871617086839	1300 71 1.200000 0.637000 0.767000 1500 60 1.100000 3.711000 4.104000 600 76 1.000000 0.057000 0.057000 1.200000 0.035000 0.042000
1518170872173107006	1300 71 1.200000 0.638000 0.768000 1500 60 1.100000 3.704000 4.100000 600 76 1.000000 0.057000 0.057000 1.200000 0.036000 0.043000
1518170872729091631	1300 71 1.200000 0.638000 0.768000 1500 60 1.100000 3.715000 4.112000 600 76 1.000000 0.057000 0.057000 1.200000 0.036000 0.043000
1518170873289059381	1300 71 1.200000 0.638000 0.768000 1500 60 1.100000 3.705000 4.101000 600 76 1.000000 0.057000 0.057000 1.200000 0.036000 0.043000
1518170873837065090	1300 71 1.200000 0.638000 0.768000 1500 60 1.100000 3.706000 4.102000 600 76 1.000000 0.057000 0.057000 1.200000 0.035000 0.042000
1518170874385083256	1300 71 1.200000 0.638000 0.768000 1500 60 1.100000 3.708000 4.101000 600 76 1.000000 0.057000 0.057000 1.200000 0.036000 0.043000
1518170874941060715	1300 71 1.200000 0.638000 0.768000 1500 60 1.100000 3.716000 4.113000 600 76 1.000000 0.057000 0.057000 1.200000 0.036000 0.043000
1518170875489065965	1300 71 1.200000 0.638000 0.768000 1500 60 1.100000 3.715000 4.112000 600 76 1.000000 0.057000 0.057000 1.200000 0.035000 0.042000
1518170876049062590	1300 71 1.200000 0.638000 0.768000 1500 60 1.100000 3.717000 4.114000 600 76 1.000000 0.057000 0.057000 1.200000 0.035000 0.042000
1518170876593075673	1300 71 1.200000 0.638000 0.768000 1500 60 1.100000 3.718000 4.115000 600 76 1.000000 0.057000 0.057000 1.200000 0.035000 0.042000
1518170877145048173	1300 71 1.200000 0.638000 0.768000 1500 60 1.100000 3.732000 4.131000 600 76 1.000000 0.057000 0.057000 1.200000 0.035000 0.042000
1518170877717049090	1300 71 1.200000 0.638000 0.768000 1500 60 1.100000 3.708000 4.104000 600 76 1.000000 0.057000 0.057000 1.200000 0.035000 0.042000
1518170878257086132	1300 71 1.200000 0.637000 0.767000 1500 60 1.100000 3.698000 4.093000 600 76 1.000000 0.057000 0.057000 1.200000 0.035000 0.042000
1518170878805072132	1300 71 1.200000 0.637000 0.767000 1500 60 1.100000 3.706000 4.102000 600 76 1.000000 0.057000 0.057000 1.200000 0.036000 0.043000
1518170879361059924	1300 71 1.200000 0.638000 0.768000 1500 60 1.100000 3.705000 4.101000 600 76 1.000000 0.057000 0.057000 1.200000 0.036000 0.043000
1518170879913046382	1300 71 1.200000 0.638000 0.768000 1500 60 1.100000 3.691000 4.085000 600 76 1.000000 0.057000 0.057000 1.200000 0.036000 0.043000
1518170880473049049	1300 71 1.200000 0.638000 0.768000 1500 60 1.100000 3.704000 4.100000 600 76 1.000000 0.057000 0.057000 1.200000 0.036000 0.043000
1518170881021073007	1300 71 1.200000 0.638000 0.768000 1500 60 1.100000 3.708000 4.104000 600 76 1.000000 0.057000 0.057000 1.200000 0.035000 0.042000
1518170881581096799	1300 71 1.200000 0.638000 0.768000 1500 60 1.100000 3.706000 4.102000 600 76 1.000000 0.057000 0.057000 1.200000 0.035000 0.042000
1518170882141092757	1300 71 1.200000 0.638000 0.768000 1500 60 1.100000 3.707000 4.103000 600 76 1.000000 0.057000 0.057000 1.200000 0.035000 0.042000
1518170882689039591	1300 71 1.200000 0.638000 0.768000 1500 60 1.100000 3.706000 4.102000 600 76 1.000000 0.057000 0.057000 1.200000 0.036000 0.043000
1518170883241072507	1300 71 1.200000 0.638000 0.768000 1500 60 1.100000 3.706000 4.098000 600 76 1.000000 0.057000 0.057000 1.200000 0.035000 0.042000
1518170883797057882	1300 71 1.200000 0.638000 0.768000 1500 60 1.100000 3.692000 4.083000 600 76 1.000000 0.057000 0.057000 1.200000 0.036000 0.043000
1518170884349050716	1300 71 1.200000 0.637000 0.767000 1500 60 1.100000 3.682000 4.072000 600 76 1.000000 0.057000 0.057000 1.200000 0.035000 0.042000
1518170884901105758	1300 71 1.200000 0.637000 0.767000 1500 60 1.100000 3.678000 4.067000 600 76 1.000000 0.057000 0.057000 1.200000 0.036000 0.043000
1518170885457026966	1300 71 1.200000 0.637000 0.767000 1500 60 1.100000 3.677000 4.066000 600 76 1.000000 0.057000 0.057000 1.200000 0.036000 0.043000
1518170886021047258	1300 71 1.200000 0.637000 0.767000 1500 60 1.100000 3.669000 4.061000 600 76 1.000000 0.057000 0.057000 1.200000 0.036000 0.043000
1518170886581049591	1300 71 1.200000 0.637000 0.767000 1500 60 1.100000 3.679000 4.072000 600 76 1.000000 0.057000 0.057000 1.200000 0.036000 0.043000
1518170887141051008	1300 71 1.200000 0.637000 0.767000 1500 60 1.100000 3.678000 4.067000 600 76 1.000000 0.057000 0.057000 1.200000 0.036000 0.043000
1518170887705110466	1300 71 1.200000 0.637000 0.767000 1500 60 1.100000 3.680000 4.073000 600 76 1.000000 0.057000 0.057000 1.200000 0.036000 0.043000
1518170888273032466	1300 71 1.200000 0.637000 0.767000 1500 60 1.100000 3.679000 4.068000 600 76 1.000000 0.057000 0.057000 1.200000 0.036000 0.043000
1518170888833056925	1300 71 1.200000 0.637000 0.767000 1500 60 1.100000 3.678000 4.067000 600 76 1.000000 0.057000 0.057000 1.200000 0.036000 0.043000
1518170889381037091	1300 71 1.200000 0.637000 0.767000 1500 60 1.100000 3.665000 4.053000 600 76 1.000000 0.057000 0.057000 1.200000 0.035000 0.042000
1518170889933037966	1300 71 1.200000 0.637000 0.767000 1500 60 1.100000 3.665000 4.053000 600 76 1.000000 0.057000 0.057000 1.200000 0.036000 0.043000
1518170890489044508	1300 71 1.200000 0.637000 0.767000 1500 60 1.100000 3.678000 4.067000 600 76 1.000000 0.057000 0.057000 1.200000 0.036000 0.043000
1518170891053044842	1300 71 1.200000 0.637000 0.767000 1500 60 1.100000 3.689000 4.080000 600 76 1.000000 0.057000 0.057000 1.200000 0.036000 0.043000
1518170891601080592	1300 71 1.200000 0.637000 0.767000 1500 60 1.100000 3.692000 4.083000 600 76 1.000000 0.057000 0.057000 1.200000 0.036000 0.043000
1518170892145099175	1300 71 1.200000 0.637000 0.767000 1500 60 1.100000 3.694000 4.085000 600 76 1.000000 0.057000 0.057000 1.200000 0.036000 0.043000
1518170892705018967	1300 71 1.200000 0.637000 0.767000 1500 60 1.100000 3.702000 4.094000 600 76 1.000000 0.057000 0.057000 1.200000 0.035000 0.042000
1518170893265036842	1300 71 1.200000 0.637000 0.767000 1500 60 1.100000 3.698000 4.089000 600 76 1.000000 0.057000 0.057000 1.200000 0.035000 0.042000
1518170893825048550	1300 71 1.200000 0.637000 0.767000 1500 60 1.100000 3.692000 4.083000 600 76 1.000000 0.057000 0.057000 1.200000 0.036000 0.043000
1518170894381063259	1300 71 1.200000 0.637000 0.767000 1500 60 1.100000 3.698000 4.089000 600 76 1.000000 0.057000 0.057000 1.200000 0.035000 0.042000
1518170894929057759	1300 71 1.200000 0.637000 0.767000 1500 60 1.100000 3.697000 4.088000 600 76 1.000000 0.057000 0.057000 1.200000 0.036000 0.043000
1518170895481077092	1300 71 1.200000 0.637000 0.767000 1500 60 1.100000 3.693000 4.088000 600 76 1.000000 0.057000 0.057000 1.200000 0.036000 0.043000
1518170896041047384	1300 71 1.200000 0.637000 0.767000 1500 60 1.100000 3.701000 4.093000 600 76 1.000000 0.057000 0.057000 1.200000 0.035000 0.042000
1518170896589054092	1300 71 1.200000 0.637000 0.767000 1500 60 1.100000 3.701000 4.093000 600 76 1.000000 0.057000 0.057000 1.200000 0.035000 0.042000
1518170897153021967	1300 71 1.200000 0.637000 0.767000 1500 60 1.100000 3.697000 4.088000 600 76 1.000000 0.057000 0.057000 1.200000 0.036000 0.043000
1518170897697047051	1300 71 1.200000 0.637000 0.767000 1500 60 1.100000 3.680000 4.070000 600 76 1.000000 0.057000 0.057000 1.200000 0.035000 0.042000
1518170898261073634	1300 71 1.200000 0.637000 0.767000 1500 60 1.100000 3.678000 4.067000 600 76 1.000000 0.057000 0.057000 1.200000 0.036000 0.043000
1518170898817000759	1300 71 1.200000 0.637000 0.767000 1500 60 1.100000 3.681000 4.071000 600 76 1.000000 0.057000 0.057000 1.200000 0.035000 0.042000
1518170899385046259	1300 71 1.200000 0.637000 0.767000 1500 60 1.100000 3.670000 4.059000 600 76 1.000000 0.057000 0.057000 1.200000 0.035000 0.042000
1518170899939114509	1300 71 1.200000 0.639000 0.769000 1500 60 1.100000 3.666000 4.054000 600 76 1.000000 0.057000 0.057000 1.200000 0.035000 0.042000
1518170900493043926	1300 71 1.200000 0.639000 0.769000 1500 60 1.100000 3.673000 4.062000 600 76 1.000000 0.057000 0.057000 1.200000 0.035000 0.042000
1518170901057082343	1300 71 1.200000 0.639000 0.769000 1500 60 1.100000 3.666000 4.058000 600 76 1.000000 0.057000 0.057000 1.200000 0.035000 0.042000
1518170901629075510	1300 71 1.200000 0.639000 0.769000 1500 60 1.100000 3.680000 4.070000 600 76 1.000000 0.057000 0.057000 1.200000 0.034000 0.041000
1518170902189058385	1300 71 1.200000 0.639000 0.769000 1500 60 1.100000 3.679000 4.068000 600 76 1.000000 0.057000 0.057000 1.200000 0.034000 0.041000
1518170902729074510	1300 71 1.200000 0.639000 0.769000 1500 60 1.100000 3.669000 4.057000 600 76 1.000000 0.057000 0.057000 1.200000 0.035000 0.042000
1518170903285006260	1300 71 1.200000 0.639000 0.769000 1500 60 1.100000 3.672000 4.061000 600 76 1.000000 0.057000 0.057000 1.200000 0.034000 0.041000
1518170903849056801	1300 71 1.200000 0.639000 0.769000 1500 60 1.100000 3.667000 4.055000 600 76 1.000000 0.057000 0.057000 1.200000 0.035000 0.042000
1518170904413077468	1300 71 1.200000 0.639000 0.769000 1500 60 1.100000 3.671000 4.060000 600 76 1.000000 0.057000 0.057000 1.200000 0.035000 0.042000
1518170904977018802	1300 71 1.200000 0.639000 0.769000 1500 60 1.100000 3.677000 4.066000 600 76 1.000000 0.057000 0.057000 1.200000 0.035000 0.042000
1518170905537077385	1300 71 1.200000 0.638000 0.768000 1500 60 1.100000 3.689000 4.083000 600 76 1.000000 0.057000 0.057000 1.200000 0.035000 0.042000
1518170906085021218	1300 71 1.200000 0.639000 0.769000 1500 60 1.100000 3.701000 4.093000 600 76 1.000000 0.057000 0.057000 1.200000 0.034000 0.041000
1518170906633082260	1300 71 1.200000 0.639000 0.769000 1500 60 1.100000 3.703000 4.099000 600 76 1.000000 0.057000 0.057000 1.200000 0.034000 0.041000
1518170907173043052	1300 71 1.200000 0.639000 0.769000 1500 60 1.100000 3.705000 4.101000 600 76 1.000000 0.057000 0.057000 1.200000 0.034000 0.041000
1518170907717058260	1300 71 1.200000 0.639000 0.769000 1500 60 1.100000 3.702000 4.098000 600 76 1.000000 0.057000 0.057000 1.200000 0.035000 0.042000
1518170908269052677	1300 71 1.200000 0.639000 0.769000 1500 60 1.100000 3.702000 4.098000 600 76 1.000000 0.057000 0.057000 1.200000 0.034000 0.041000
1518170908825056302	1300 71 1.200000 0.639000 0.769000 1500 60 1.100000 3.697000 4.092000 600 76 1.000000 0.057000 0.057000 1.200000 0.034000 0.041000
1518170909381041885	1300 71 1.200000 0.639000 0.769000 1500 60 1.100000 3.703000 4.099000 600 76 1.000000 0.057000 0.057000 1.200000 0.035000 0.042000
1518170909941036927	1300 71 1.200000 0.639000 0.769000 1500 60 1.100000 3.689000 4.083000 600 76 1.000000 0.057000 0.057000 1.200000 0.035000 0.042000
1518170910501064719	1300 71 1.200000 0.639000 0.769000 1500 60 1.100000 3.700000 4.092000 600 76 1.000000 0.057000 0.057000 1.200000 0.035000 0.042000
1518170911069061302	1300 71 1.200000 0.639000 0.769000 1500 60 1.100000 3.692000 4.083000 600 76 1.000000 0.057000 0.057000 1.200000 0.035000 0.042000
1518170911633029802	1300 71 1.200000 0.639000 0.769000 1500 60 1.100000 3.674000 4.063000 600 76 1.000000 0.057000 0.057000 1.200000 0.034000 0.041000
1518170912193101552	1300 71 1.200000 0.639000 0.769000 1500 60 1.100000 3.671000 4.060000 600 76 1.000000 0.057000 0.057000 1.200000 0.034000 0.041000
1518170912753081719	1300 71 1.200000 0.639000 0.769000 1500 60 1.100000 3.672000 4.061000 600 76 1.000000 0.057000 0.057000 1.200000 0.034000 0.041000
1518170913305037219	1300 71 1.200000 0.639000 0.769000 1500 60 1.100000 3.672000 4.061000 600 76 1.000000 0.057000 0.057000 1.200000 0.034000 0.041000
1518170913865063886	1300 71 1.200000 0.639000 0.769000 1500 60 1.100000 3.674000 4.063000 600 76 1.000000 0.057000 0.057000 1.200000 0.035000 0.042000
1518170914429052594	1300 71 1.200000 0.639000 0.769000 1500 60 1.100000 3.672000 4.061000 600 76 1.000000 0.057000 0.057000 1.200000 0.034000 0.041000
1518170914985057261	1300 71 1.200000 0.639000 0.769000 1500 60 1.100000 3.669000 4.057000 600 76 1.000000 0.057000 0.057000 1.200000 0.034000 0.041000
1518170915549071011	1300 71 1.200000 0.639000 0.769000 1500 60 1.100000 3.661000 4.049000 600 76 1.000000 0.057000 0.057000 1.200000 0.035000 0.042000
1518170916105061886	1300 71 1.200000 0.640000 0.771000 1500 60 1.100000 3.672000 4.061000 600 76 1.000000 0.057000 0.057000 1.200000 0.035000 0.042000
1518170916661072845	1300 71 1.200000 0.640000 0.771000 1500 60 1.100000 3.671000 4.060000 600 76 1.000000 0.057000 0.057000 1.200000 0.035000 0.042000
1518170917217071220	1300 71 1.200000 0.641000 0.772000 1500 60 1.100000 3.672000 4.061000 600 76 1.000000 0.057000 0.057000 1.200000 0.035000 0.042000
1518170917765063053	1300 71 1.200000 0.640000 0.771000 1500 60 1.100000 3.678000 4.067000 600 76 1.000000 0.057000 0.057000 1.200000 0.035000 0.042000
1518170918313066762	1300 71 1.200000 0.640000 0.771000 1500 60 1.100000 3.695000 4.090000 600 76 1.000000 0.057000 0.057000 1.200000 0.035000 0.042000
1518170918853082762	1300 71 1.200000 0.641000 0.772000 1500 60 1.100000 3.710000 4.106000 600 76 1.000000 0.057000 0.057000 1.200000 0.035000 0.042000
1518170919409039053	1300 71 1.200000 0.640000 0.771000 1500 60 1.100000 3.711000 4.108000 600 76 1.000000 0.057000 0.057000 1.200000 0.035000 0.042000
1518170919961043053	1300 71 1.200000 0.641000 0.772000 1500 60 1.100000 3.710000 4.103000 600 76 1.000000 0.057000 0.057000 1.200000 0.035000 0.042000
1518170920521065970	1300 71 1.200000 0.641000 0.772000 1500 60 1.100000 3.711000 4.108000 600 76 1.000000 0.057000 0.057000 1.200000 0.035000 0.042000
1518170921065076137	1300 71 1.200000 0.640000 0.771000 1500 60 1.100000 3.701000 4.097000 600 76 1.000000 0.057000 0.057000 1.200000 0.036000 0.043000
1518170921617067179	1300 71 1.200000 0.641000 0.772000 1500 60 1.100000 3.700000 4.095000 600 76 1.000000 0.057000 0.057000 1.200000 0.035000 0.042000
1518170922173089679	1300 71 1.200000 0.641000 0.772000 1500 60 1.100000 3.712000 4.109000 600 76 1.000000 0.057000 0.057000 1.200000 0.035000 0.042000
1518170922737046012	1300 71 1.200000 0.641000 0.772000 1500 60 1.100000 3.710000 4.106000 600 76 1.000000 0.057000 0.057000 1.200000 0.035000 0.042000
1518170923289061054	1300 71 1.200000 0.640000 0.771000 1500 60 1.100000 3.709000 4.105000 600 76 1.000000 0.057000 0.057000 1.200000 0.035000 0.042000
1518170923845068887	1300 71 1.200000 0.641000 0.772000 1500 60 1.100000 3.692000 4.087000 600 76 1.000000 0.057000 0.057000 1.200000 0.035000 0.042000
1518170924401090179	1300 71 1.200000 0.641000 0.772000 1500 60 1.100000 3.700000 4.095000 600 76 1.000000 0.057000 0.057000 1.200000 0.035000 0.042000
1518170924965044887	1300 71 1.200000 0.641000 0.772000 1500 60 1.100000 3.694000 4.085000 600 76 1.000000 0.057000 0.057000 1.200000 0.035000 0.042000
1518170925513045846	1300 71 1.200000 0.641000 0.772000 1500 60 1.100000 3.680000 4.070000 600 76 1.000000 0.057000 0.057000 1.200000 0.035000 0.042000
1518170926061064679	1300 71 1.200000 0.641000 0.772000 1500 60 1.100000 3.682000 4.072000 600 76 1.000000 0.057000 0.057000 1.200000 0.035000 0.042000
1518170926621032762	1300 71 1.200000 0.640000 0.771000 1500 60 1.100000 3.682000 4.072000 600 76 1.000000 0.057000 0.057000 1.200000 0.035000 0.042000
1518170927173088429	1300 71 1.200000 0.641000 0.772000 1500 60 1.100000 3.691000 4.085000 600 76 1.000000 0.057000 0.057000 1.200000 0.035000 0.042000
1518170927725040638	1300 71 1.200000 0.641000 0.772000 1500 60 1.100000 3.685000 4.075000 600 76 1.000000 0.057000 0.057000 1.200000 0.035000 0.042000
1518170928281106221	1300 71 1.200000 0.640000 0.771000 1500 60 1.100000 3.675000 4.068000 600 76 1.000000 0.057000 0.057000 1.200000 0.035000 0.042000
1518170928829065721	1300 71 1.200000 0.640000 0.771000 1500 60 1.100000 3.681000 4.071000 600 76 1.000000 0.057000 0.057000 1.200000 0.035000 0.042000
1518170929381069888	1300 71 1.200000 0.641000 0.772000 1500 60 1.100000 3.685000 4.075000 600 76 1.000000 0.057000 0.057000 1.200000 0.035000 0.042000
1518170929945046680	1300 71 1.200000 0.641000 0.772000 1500 60 1.100000 3.685000 4.075000 600 76 1.000000 0.057000 0.057000 1.200000 0.035000 0.042000
1518170930497028930	1300 71 1.200000 0.641000 0.772000 1500 60 1.100000 3.692000 4.083000 600 76 1.000000 0.057000 0.057000 1.200000 0.036000 0.043000
1518170931053046888	1300 71 1.200000 0.641000 0.772000 1500 60 1.100000 3.686000 4.076000 600 76 1.000000 0.057000 0.057000 1.200000 0.035000 0.042000
1518170931609089930	1300 71 1.200000 0.638000 0.768000 1500 60 1.100000 3.681000 4.071000 600 76 1.000000 0.057000 0.057000 1.200000 0.036000 0.043000
1518170932157101346	1300 71 1.200000 0.638000 0.768000 1500 60 1.100000 3.700000 4.092000 600 76 1.000000 0.057000 0.057000 1.200000 0.035000 0.042000
1518170932717050680	1300 71 1.200000 0.638000 0.768000 1500 60 1.100000 3.706000 4.098000 600 76 1.000000 0.057000 0.057000 1.200000 0.035000 0.042000
1518170933265092805	1300 71 1.200000 0.638000 0.768000 1500 60 1.100000 3.706000 4.098000 600 76 1.000000 0.057000 0.057000 1.200000 0.035000 0.042000
1518170933817063888	1300 71 1.200000 0.638000 0.768000 1500 60 1.100000 3.697000 4.088000 600 76 1.000000 0.057000 0.057000 1.200000 0.035000 0.042000
1518170934365058097	1300 71 1.200000 0.638000 0.768000 1500 60 1.100000 3.699000 4.091000 600 76 1.000000 0.057000 0.057000 1.200000 0.035000 0.042000
1518170934924994847	1300 71 1.200000 0.638000 0.768000 1500 60 1.100000 3.697000 4.088000 600 76 1.000000 0.057000 0.057000 1.200000 0.036000 0.043000
1518170935469072764	1300 71 1.200000 0.638000 0.768000 1500 60 1.100000 3.691000 4.082000 600 76 1.000000 0.057000 0.057000 1.200000 0.035000 0.042000
1518170936025055680	1300 71 1.200000 0.638000 0.768000 1500 60 1.100000 3.695000 4.086000 600 76 1.000000 0.057000 0.057000 1.200000 0.036000 0.043000
1518170936589060305	1300 71 1.200000 0.638000 0.768000 1500 60 1.100000 3.702000 4.094000 600 76 1.000000 0.057000 0.057000 1.200000 0.035000 0.042000
1518170937153053972	1300 71 1.200000 0.638000 0.768000 1500 60 1.100000 3.692000 4.083000 600 76 1.000000 0.057000 0.057000 1.200000 0.035000 0.042000
1518170937701065014	1300 71 1.200000 0.638000 0.768000 1500 60 1.100000 3.695000 4.090000 600 76 1.000000 0.057000 0.057000 1.200000 0.035000 0.042000
1518170938206938431	1300 70 1.200000 0.638000 0.768000 1500 60 1.100000 3.305000 3.645000 600 75 1.000000 0.057000 0.057000 1.200000 0.035000 0.042000
1518170938712739597	1300 68 1.200000 0.638000 0.768000 1500 59 1.100000 2.710000 2.983000 600 67 1.000000 0.057000 0.057000 1.200000 0.036000 0.043000
1518170939218252139	1300 59 1.200000 0.638000 0.768000 1500 57 1.000000 1.430000 1.565000 600 61 1.000000 0.057000 0.057000 1.200000 0.035000 0.042000
1518170939723847264	1300 56 1.200000 0.634000 0.763000 1500 55 1.100000 0.245000 0.269000 600 58 1.000000 0.056000 0.056000 1.200000 0.035000 0.042000
1518170940229264806	1300 55 1.200000 0.633000 0.762000 1500 54 1.100000 0.257000 0.282000 600 56 1.000000 0.056000 0.056000 1.200000 0.035000 0.042000
1518170940734740514	1300 53 1.200000 0.632000 0.762000 1500 52 1.100000 0.246000 0.270000 600 55 1.000000 0.055000 0.055000 1.200000 0.035000 0.042000
1518170941240211306	1300 53 1.200000 0.630000 0.759000 1500 51 1.100000 0.237000 0.260000 600 53 1.000000 0.055000 0.055000 1.200000 0.034000 0.041000
1518170941745640681	1300 52 1.200000 0.630000 0.759000 1500 50 1.100000 0.251000 0.276000 600 52 1.000000 0.055000 0.055000 1.200000 0.035000 0.042000
1518170942251133431	1300 51 1.200000 0.629000 0.758000 1500 50 1.100000 0.222000 0.244000 600 52 1.000000 0.055000 0.055000 1.200000 0.035000 0.042000
1518170942756698473	1300 50 1.200000 0.628000 0.757000 1500 49 1.100000 0.219000 0.240000 600 51 1.000000 0.055000 0.055000 1.200000 0.034000 0.041000
1518170943262081848	1300 50 1.200000 0.628000 0.757000 1500 49 1.100000 0.214000 0.235000 600 50 1.000000 0.054000 0.054000 1.200000 0.035000 0.042000
1518170943767508556	1300 49 1.200000 0.628000 0.757000 1500 48 1.100000 0.210000 0.231000 600 50 1.000000 0.054000 0.054000 1.200000 0.034000 0.041000
1518170944272774265	1300 49 1.200000 0.627000 0.756000 1500 48 1.100000 0.210000 0.231000 600 49 1.000000 0.054000 0.054000 1.200000 0.035000 0.042000
1518170944778219140	1300 48 1.200000 0.627000 0.756000 1500 47 1.100000 0.219000 0.240000 600 49 1.000000 0.054000 0.054000 1.200000 0.034000 0.041000
1518170945283634640	1300 48 1.200000 0.626000 0.754000 1500 47 1.100000 0.244000 0.268000 600 49 1.000000 0.054000 0.054000 1.200000 0.035000 0.042000
1518170945789009515	1300 48 1.200000 0.627000 0.756000 1500 47 1.100000 0.212000 0.233000 600 48 1.000000 0.054000 0.054000 1.200000 0.034000 0.041000
1518170946294375598	1300 47 1.200000 0.626000 0.754000 1500 46 1.100000 0.239000 0.262000 600 48 1.000000 0.054000 0.054000 1.200000 0.035000 0.042000
1518170946799762515	1300 47 1.200000 0.626000 0.754000 1500 46 1.100000 0.216000 0.237000 600 48 1.000000 0.053000 0.053000 1.200000 0.035000 0.042000
1518170947305465432	1300 45 1.200000 0.546000 0.659000 1500 44 1.100000 0.281000 0.309000 600 48 1.000000 0.053000 0.053000 1.200000 0.030000 0.036000
1518170947810967515	1300 44 1.200000 0.073000 0.089000 1500 43 1.100000 0.195000 0.214000 600 47 1.000000 0.053000 0.053000 1.200000 0.023000 0.027000
