#Timestamp	CPU(0) Frequency(MHz)	CPU(0) Temperature(C)	A7 Voltage(V)	A7 Current(A)	A7 Power(W)	CPU(4) Frequency(MHz)	CPU(4) Temperature(C)	A15 Voltage(V)	A15 Current(A)	A15 Power(W)	GPU Frequency(MHz)	GPU Temperature(C)	GPU Voltage(V)	GPU Current(A)	GPU Power(W)	RAM Voltage(V)	RAM Current(A)	RAM Power(W)
1517712269340129086	800 38 1.000000 0.178000 0.181000 800 36 0.900000 1.031000 0.948000 600 41 1.000000 0.052000 0.052000 1.200000 0.042000 0.050000
1517712269903979170	800 39 1.000000 0.229000 0.233000 800 36 0.900000 1.220000 1.119000 600 43 1.000000 0.052000 0.052000 1.200000 0.042000 0.050000
1517712270416015128	800 40 1.000000 0.137000 0.140000 800 37 0.900000 1.218000 1.118000 600 43 1.000000 0.052000 0.052000 1.200000 0.044000 0.053000
1517712270956075420	800 39 1.000000 0.200000 0.204000 800 37 0.900000 0.983000 0.904000 600 42 1.000000 0.052000 0.052000 1.200000 0.038000 0.045000
1517712271515955253	800 40 1.000000 0.224000 0.228000 800 37 0.900000 1.219000 1.119000 600 44 1.000000 0.052000 0.052000 1.200000 0.044000 0.053000
1517712272079998587	800 40 1.000000 0.141000 0.144000 800 37 0.900000 1.007000 0.924000 600 44 1.000000 0.053000 0.053000 1.200000 0.042000 0.050000
1517712272639962712	800 40 1.000000 0.223000 0.227000 800 37 0.900000 1.007000 0.926000 600 44 1.000000 0.052000 0.052000 1.200000 0.038000 0.045000
1517712273162121587	800 40 1.000000 0.228000 0.232000 800 37 0.900000 1.211000 1.111000 600 44 1.000000 0.053000 0.053000 1.200000 0.044000 0.053000
1517712273713993837	800 40 1.000000 0.144000 0.147000 800 37 0.900000 0.967000 0.887000 600 44 1.000000 0.052000 0.052000 1.200000 0.039000 0.047000
1517712274269769795	800 40 1.000000 0.231000 0.235000 800 37 0.900000 1.065000 0.979000 600 44 1.000000 0.052000 0.052000 1.200000 0.037000 0.044000
1517712274784815462	800 41 1.000000 0.204000 0.208000 800 38 0.900000 1.189000 1.091000 600 44 1.000000 0.052000 0.052000 1.200000 0.045000 0.054000
1517712275339222170	800 40 1.000000 0.145000 0.148000 800 38 0.900000 1.002000 0.919000 600 44 1.000000 0.053000 0.053000 1.200000 0.039000 0.047000
1517712275889659254	800 40 1.000000 0.213000 0.217000 800 37 0.900000 1.113000 1.021000 600 44 1.000000 0.052000 0.052000 1.200000 0.038000 0.045000
1517712276398329462	800 40 1.000000 0.161000 0.164000 800 37 0.900000 1.199000 1.100000 600 44 1.000000 0.053000 0.053000 1.200000 0.046000 0.055000
1517712276932696712	800 41 1.000000 0.195000 0.199000 800 38 0.900000 1.116000 1.024000 600 44 1.000000 0.053000 0.053000 1.200000 0.040000 0.048000
1517712277479257587	800 41 1.000000 0.228000 0.232000 800 37 0.900000 1.175000 1.078000 600 44 1.000000 0.052000 0.052000 1.200000 0.037000 0.044000
1517712277987927796	800 41 1.000000 0.193000 0.197000 800 38 0.900000 0.943000 0.867000 600 44 1.000000 0.053000 0.053000 1.200000 0.046000 0.055000
1517712278509494671	800 41 1.000000 0.145000 0.148000 800 38 0.900000 1.129000 1.036000 600 44 1.000000 0.052000 0.052000 1.200000 0.041000 0.049000
1517712279053260837	800 41 1.000000 0.223000 0.227000 800 37 0.900000 1.165000 1.069000 600 44 1.000000 0.053000 0.053000 1.200000 0.037000 0.044000
1517712279561374004	800 41 1.000000 0.226000 0.230000 800 38 0.900000 1.019000 0.934000 600 44 1.000000 0.052000 0.052000 1.200000 0.046000 0.055000
1517712280109997838	800 41 1.000000 0.145000 0.148000 800 37 0.900000 1.097000 1.007000 600 44 1.000000 0.052000 0.052000 1.200000 0.040000 0.048000
1517712280663931838	800 41 1.000000 0.225000 0.229000 800 38 0.900000 1.178000 1.081000 600 44 1.000000 0.052000 0.052000 1.200000 0.038000 0.045000
1517712281172856296	800 41 1.000000 0.227000 0.231000 800 38 0.900000 1.211000 1.111000 600 44 1.000000 0.053000 0.053000 1.200000 0.038000 0.045000
1517712281726212088	800 41 1.000000 0.143000 0.146000 800 38 0.900000 1.139000 1.045000 600 44 1.000000 0.052000 0.052000 1.200000 0.039000 0.047000
1517712282281270546	800 41 1.000000 0.231000 0.235000 800 38 0.900000 1.165000 1.069000 600 44 1.000000 0.052000 0.052000 1.200000 0.037000 0.044000
1517712282789948088	800 40 1.000000 0.233000 0.237000 800 38 0.900000 1.209000 1.109000 600 44 1.000000 0.053000 0.053000 1.200000 0.038000 0.045000
1517712283321109963	800 41 1.000000 0.137000 0.140000 800 38 0.900000 0.952000 0.872000 600 45 1.000000 0.052000 0.052000 1.200000 0.044000 0.053000
1517712283865125130	800 41 1.000000 0.195000 0.199000 800 38 0.900000 1.175000 1.078000 600 44 1.000000 0.052000 0.052000 1.200000 0.040000 0.048000
1517712284373751213	800 40 1.000000 0.226000 0.230000 800 38 0.900000 1.196000 1.097000 600 44 1.000000 0.053000 0.053000 1.200000 0.038000 0.045000
1517712284886123796	800 41 1.000000 0.187000 0.190000 800 38 0.900000 0.962000 0.883000 600 44 1.000000 0.052000 0.052000 1.200000 0.047000 0.056000
1517712285425056255	800 41 1.000000 0.143000 0.146000 800 38 0.900000 1.070000 0.984000 600 44 1.000000 0.052000 0.052000 1.200000 0.041000 0.049000
1517712285933637588	800 41 1.000000 0.213000 0.217000 800 38 0.900000 1.202000 1.103000 600 44 1.000000 0.052000 0.052000 1.200000 0.037000 0.044000
1517712286443067880	800 41 1.000000 0.137000 0.140000 800 38 0.900000 1.027000 0.941000 600 44 1.000000 0.053000 0.053000 1.200000 0.042000 0.050000
1517712286977385880	800 41 1.000000 0.227000 0.231000 800 37 0.900000 1.235000 1.133000 600 44 1.000000 0.052000 0.052000 1.200000 0.037000 0.044000
1517712287486205630	800 40 1.000000 0.236000 0.240000 800 38 0.900000 1.152000 1.057000 600 44 1.000000 0.053000 0.053000 1.200000 0.044000 0.053000
1517712287994356339	800 41 1.000000 0.138000 0.141000 800 38 0.900000 0.887000 0.814000 600 45 1.000000 0.053000 0.053000 1.200000 0.044000 0.053000
1517712288531487339	800 41 1.000000 0.198000 0.202000 800 38 0.900000 1.216000 1.116000 600 44 1.000000 0.052000 0.052000 1.200000 0.039000 0.047000
1517712289040150339	800 41 1.000000 0.168000 0.171000 800 38 0.900000 1.160000 1.064000 600 44 1.000000 0.052000 0.052000 1.200000 0.041000 0.049000
1517712289588329380	800 41 1.000000 0.185000 0.189000 800 38 0.900000 0.845000 0.774000 600 44 1.000000 0.053000 0.053000 1.200000 0.045000 0.054000
1517712290137929297	800 41 1.000000 0.227000 0.231000 800 38 0.900000 1.189000 1.090000 600 44 1.000000 0.053000 0.053000 1.200000 0.038000 0.045000
1517712290646401005	800 40 1.000000 0.204000 0.208000 800 38 0.900000 1.221000 1.120000 600 44 1.000000 0.053000 0.053000 1.200000 0.041000 0.049000
1517712291177050131	800 41 1.000000 0.142000 0.145000 800 38 0.900000 0.848000 0.780000 600 45 1.000000 0.053000 0.053000 1.200000 0.044000 0.053000
1517712291733509839	800 41 1.000000 0.229000 0.233000 800 38 0.900000 1.220000 1.119000 600 44 1.000000 0.053000 0.053000 1.200000 0.038000 0.045000
1517712292242207672	800 41 1.000000 0.223000 0.227000 800 38 0.900000 1.168000 1.071000 600 45 1.000000 0.053000 0.053000 1.200000 0.040000 0.048000
1517712292783570881	800 41 1.000000 0.148000 0.151000 800 38 0.900000 0.881000 0.810000 600 45 1.000000 0.052000 0.052000 1.200000 0.044000 0.053000
1517712293332988922	800 41 1.000000 0.223000 0.227000 800 38 0.900000 1.213000 1.113000 600 44 1.000000 0.053000 0.053000 1.200000 0.038000 0.045000
1517712293844432964	800 41 1.000000 0.204000 0.208000 800 38 0.900000 1.205000 1.106000 600 45 1.000000 0.053000 0.053000 1.200000 0.036000 0.043000
1517712294406669089	800 41 1.000000 0.135000 0.138000 800 38 0.900000 0.936000 0.861000 600 44 1.000000 0.053000 0.053000 1.200000 0.042000 0.050000
1517712294968007548	800 41 1.000000 0.227000 0.231000 800 38 0.900000 0.984000 0.905000 600 44 1.000000 0.052000 0.052000 1.200000 0.040000 0.048000
1517712295476260714	800 41 1.000000 0.225000 0.229000 800 38 0.900000 1.177000 1.080000 600 45 1.000000 0.053000 0.053000 1.200000 0.036000 0.043000
1517712296026848839	800 41 1.000000 0.142000 0.145000 800 38 0.900000 0.988000 0.906000 600 45 1.000000 0.052000 0.052000 1.200000 0.043000 0.051000
1517712296576375131	800 41 1.000000 0.237000 0.241000 800 38 0.900000 1.042000 0.956000 600 44 1.000000 0.052000 0.052000 1.200000 0.038000 0.045000
1517712297085278215	800 41 1.000000 0.231000 0.235000 800 38 0.900000 1.209000 1.109000 600 45 1.000000 0.052000 0.052000 1.200000 0.036000 0.043000
1517712297619813215	800 41 1.000000 0.149000 0.152000 800 38 0.900000 1.017000 0.933000 600 45 1.000000 0.052000 0.052000 1.200000 0.046000 0.055000
1517712298165977756	800 41 1.000000 0.196000 0.200000 800 38 0.900000 1.047000 0.961000 600 44 1.000000 0.052000 0.052000 1.200000 0.039000 0.047000
1517712298674799506	800 41 1.000000 0.227000 0.231000 800 38 0.900000 1.201000 1.102000 600 44 1.000000 0.053000 0.053000 1.200000 0.035000 0.042000
1517712299218229923	800 41 1.000000 0.184000 0.187000 800 38 0.900000 1.023000 0.941000 600 45 1.000000 0.052000 0.052000 1.200000 0.044000 0.053000
1517712299773101673	800 41 1.000000 0.156000 0.159000 800 38 0.900000 1.073000 0.987000 600 44 1.000000 0.052000 0.052000 1.200000 0.039000 0.047000
1517712300281529215	800 41 1.000000 0.221000 0.225000 800 38 0.900000 1.212000 1.112000 600 45 1.000000 0.053000 0.053000 1.200000 0.037000 0.044000
1517712300819995590	800 41 1.000000 0.234000 0.238000 800 38 0.900000 0.968000 0.890000 600 45 1.000000 0.053000 0.053000 1.200000 0.044000 0.053000
1517712301371652840	800 41 1.000000 0.224000 0.228000 800 38 0.900000 1.101000 1.010000 600 44 1.000000 0.053000 0.053000 1.200000 0.039000 0.047000
1517712301880836340	800 41 1.000000 0.223000 0.227000 800 38 0.900000 1.182000 1.085000 600 45 1.000000 0.052000 0.052000 1.200000 0.036000 0.043000
1517712302428484382	800 41 1.000000 0.127000 0.129000 800 38 0.900000 0.982000 0.903000 600 45 1.000000 0.053000 0.053000 1.200000 0.048000 0.057000
1517712302970565840	800 41 1.000000 0.234000 0.238000 800 38 0.900000 1.138000 1.044000 600 44 1.000000 0.052000 0.052000 1.200000 0.039000 0.047000
1517712303479414715	800 41 1.000000 0.224000 0.228000 800 38 0.900000 1.166000 1.070000 600 44 1.000000 0.053000 0.053000 1.200000 0.036000 0.043000
1517712304018473715	800 41 1.000000 0.145000 0.148000 800 38 0.900000 0.992000 0.910000 600 45 1.000000 0.053000 0.053000 1.200000 0.044000 0.053000
1517712304560856507	800 41 1.000000 0.234000 0.238000 800 38 0.900000 1.103000 1.012000 600 44 1.000000 0.053000 0.053000 1.200000 0.039000 0.047000
1517712305069453799	800 41 1.000000 0.231000 0.235000 800 38 0.900000 1.161000 1.065000 600 45 1.000000 0.052000 0.052000 1.200000 0.037000 0.044000
1517712305611267466	800 41 1.000000 0.155000 0.158000 800 38 0.900000 1.011000 0.927000 600 45 1.000000 0.052000 0.052000 1.200000 0.046000 0.055000
1517712306160740591	800 41 1.000000 0.211000 0.215000 800 38 0.900000 1.133000 1.042000 600 44 1.000000 0.053000 0.053000 1.200000 0.039000 0.047000
1517712306669382174	800 41 1.000000 0.231000 0.235000 800 38 0.900000 1.157000 1.062000 600 45 1.000000 0.052000 0.052000 1.200000 0.037000 0.044000
1517712307204247216	800 41 1.000000 0.190000 0.194000 800 38 0.900000 0.972000 0.894000 600 45 1.000000 0.053000 0.053000 1.200000 0.045000 0.054000
1517712307748825299	800 41 1.000000 0.231000 0.235000 800 38 0.900000 1.101000 1.010000 600 45 1.000000 0.053000 0.053000 1.200000 0.039000 0.047000
1517712308257555466	800 41 1.000000 0.213000 0.217000 800 38 0.900000 1.158000 1.063000 600 44 1.000000 0.053000 0.053000 1.200000 0.035000 0.042000
1517712308792380758	800 41 1.000000 0.145000 0.148000 800 38 0.900000 0.951000 0.873000 600 45 1.000000 0.053000 0.053000 1.200000 0.047000 0.056000
1517712309341117758	800 41 1.000000 0.211000 0.215000 800 38 0.900000 1.096000 1.008000 600 44 1.000000 0.053000 0.053000 1.200000 0.039000 0.047000
1517712309850082341	800 41 1.000000 0.225000 0.229000 800 38 0.900000 1.210000 1.110000 600 45 1.000000 0.052000 0.052000 1.200000 0.035000 0.042000
1517712310399182383	800 41 1.000000 0.146000 0.149000 800 38 0.900000 0.993000 0.910000 600 45 1.000000 0.052000 0.052000 1.200000 0.045000 0.054000
1517712310950843591	800 41 1.000000 0.234000 0.238000 800 38 0.900000 1.169000 1.073000 600 44 1.000000 0.053000 0.053000 1.200000 0.038000 0.045000
1517712311459582883	800 41 1.000000 0.232000 0.236000 800 38 0.900000 1.183000 1.085000 600 44 1.000000 0.052000 0.052000 1.200000 0.049000 0.059000
1517712311986827550	800 41 1.000000 0.140000 0.143000 800 38 0.900000 0.988000 0.906000 600 45 1.000000 0.052000 0.052000 1.200000 0.038000 0.045000
1517712312519542383	800 41 1.000000 0.228000 0.232000 800 38 0.900000 1.093000 1.005000 600 45 1.000000 0.053000 0.053000 1.200000 0.038000 0.045000
1517712313028376591	800 41 1.000000 0.226000 0.230000 800 38 0.900000 1.241000 1.139000 600 44 1.000000 0.053000 0.053000 1.200000 0.045000 0.054000
1517712313549376342	800 41 1.000000 0.167000 0.170000 800 38 0.900000 1.049000 0.962000 600 45 1.000000 0.052000 0.052000 1.200000 0.040000 0.048000
1517712314079813883	800 41 1.000000 0.233000 0.237000 800 38 0.900000 0.977000 0.898000 600 45 1.000000 0.053000 0.053000 1.200000 0.037000 0.044000
1517712314588722467	800 41 1.000000 0.210000 0.214000 800 38 0.900000 1.208000 1.107000 600 44 1.000000 0.053000 0.053000 1.200000 0.042000 0.050000
1517712315097132425	800 41 1.000000 0.137000 0.140000 800 38 0.900000 0.882000 0.809000 600 45 1.000000 0.052000 0.052000 1.200000 0.044000 0.053000
1517712315625346717	800 41 1.000000 0.224000 0.228000 800 38 0.900000 1.215000 1.114000 600 45 1.000000 0.053000 0.053000 1.200000 0.037000 0.044000
1517712316134129300	800 41 1.000000 0.223000 0.227000 800 38 0.900000 1.192000 1.093000 600 44 1.000000 0.053000 0.053000 1.200000 0.039000 0.047000
1517712316643238217	800 42 1.000000 0.141000 0.144000 800 38 0.900000 0.855000 0.786000 600 45 1.000000 0.052000 0.052000 1.200000 0.046000 0.055000
1517712317172175217	800 41 1.000000 0.197000 0.201000 800 38 0.900000 1.172000 1.075000 600 45 1.000000 0.053000 0.053000 1.200000 0.039000 0.047000
1517712317680839092	800 41 1.000000 0.235000 0.239000 800 38 0.900000 1.243000 1.141000 600 44 1.000000 0.053000 0.053000 1.200000 0.038000 0.045000
1517712318240055675	800 41 1.000000 0.221000 0.225000 800 38 0.900000 0.841000 0.773000 600 45 1.000000 0.052000 0.052000 1.200000 0.046000 0.055000
1517712318784060134	800 41 1.000000 0.137000 0.140000 800 38 0.900000 1.188000 1.090000 600 45 1.000000 0.053000 0.053000 1.200000 0.039000 0.047000
1517712319298572717	800 40 1.000000 0.233000 0.237000 800 38 0.900000 1.148000 1.053000 600 44 1.000000 0.053000 0.053000 1.200000 0.041000 0.049000
1517712319852000717	800 41 1.000000 0.200000 0.204000 800 38 0.900000 1.017000 0.933000 600 45 1.000000 0.052000 0.052000 1.200000 0.046000 0.055000
1517712320411986384	800 41 1.000000 0.190000 0.194000 800 38 0.900000 0.914000 0.839000 600 45 1.000000 0.053000 0.053000 1.200000 0.042000 0.050000
1517712320936907426	800 41 1.000000 0.236000 0.240000 800 38 0.900000 1.218000 1.118000 600 45 1.000000 0.052000 0.052000 1.200000 0.037000 0.044000
1517712321445509342	800 40 1.000000 0.226000 0.230000 800 38 0.900000 1.237000 1.135000 600 44 1.000000 0.053000 0.053000 1.200000 0.039000 0.047000
1517712321953928009	800 41 1.000000 0.139000 0.142000 800 38 0.900000 0.882000 0.812000 600 45 1.000000 0.053000 0.053000 1.200000 0.044000 0.053000
1517712322474314384	800 41 1.000000 0.237000 0.241000 800 38 0.900000 1.210000 1.110000 600 45 1.000000 0.053000 0.053000 1.200000 0.038000 0.045000
1517712322982911759	800 41 1.000000 0.223000 0.227000 800 38 0.900000 1.209000 1.109000 600 44 1.000000 0.053000 0.053000 1.200000 0.037000 0.044000
1517712323507260634	800 41 1.000000 0.147000 0.150000 800 38 0.900000 0.880000 0.809000 600 45 1.000000 0.052000 0.052000 1.200000 0.046000 0.055000
1517712324062086843	800 41 1.000000 0.211000 0.215000 800 38 0.900000 1.226000 1.125000 600 44 1.000000 0.053000 0.053000 1.200000 0.034000 0.041000
1517712324570343385	800 41 1.000000 0.224000 0.228000 800 38 0.900000 1.208000 1.108000 600 45 1.000000 0.053000 0.053000 1.200000 0.039000 0.047000
1517712325119233010	800 41 1.000000 0.186000 0.190000 800 38 0.900000 0.888000 0.816000 600 45 1.000000 0.053000 0.053000 1.200000 0.046000 0.055000
1517712325682452510	800 41 1.000000 0.175000 0.178000 800 38 0.900000 1.221000 1.120000 600 44 1.000000 0.053000 0.053000 1.200000 0.038000 0.045000
1517712326191355385	800 42 1.000000 0.224000 0.228000 800 38 0.900000 1.229000 1.128000 600 45 1.000000 0.052000 0.052000 1.200000 0.038000 0.045000
1517712326743408301	800 41 1.000000 0.173000 0.176000 800 38 0.900000 0.871000 0.798000 600 45 1.000000 0.052000 0.052000 1.200000 0.045000 0.054000
1517712327296606302	800 41 1.000000 0.227000 0.231000 800 38 0.900000 1.171000 1.074000 600 44 1.000000 0.053000 0.053000 1.200000 0.036000 0.043000
1517712327809507677	800 41 1.000000 0.210000 0.214000 800 38 0.900000 1.269000 1.163000 600 45 1.000000 0.053000 0.053000 1.200000 0.040000 0.048000
1517712328364005427	800 41 1.000000 0.143000 0.146000 800 38 0.900000 0.838000 0.769000 600 45 1.000000 0.053000 0.053000 1.200000 0.043000 0.051000
1517712328927924010	800 41 1.000000 0.226000 0.230000 800 38 0.900000 1.211000 1.111000 600 44 1.000000 0.052000 0.052000 1.200000 0.037000 0.044000
1517712329445025177	800 41 1.000000 0.224000 0.228000 800 38 0.900000 1.210000 1.110000 600 45 1.000000 0.052000 0.052000 1.200000 0.042000 0.050000
1517712329995945344	800 41 1.000000 0.138000 0.141000 800 38 0.900000 0.920000 0.846000 600 45 1.000000 0.053000 0.053000 1.200000 0.041000 0.049000
1517712330559963552	800 41 1.000000 0.226000 0.230000 800 38 0.900000 1.010000 0.929000 600 44 1.000000 0.052000 0.052000 1.200000 0.038000 0.045000
1517712331070532802	800 42 1.000000 0.215000 0.219000 800 38 0.900000 1.214000 1.114000 600 45 1.000000 0.053000 0.053000 1.200000 0.036000 0.043000
1517712331627828094	800 41 1.000000 0.237000 0.241000 800 38 0.900000 1.017000 0.935000 600 45 1.000000 0.053000 0.053000 1.200000 0.045000 0.054000
1517712332188006052	800 41 1.000000 0.145000 0.148000 800 38 0.900000 1.060000 0.975000 600 45 1.000000 0.053000 0.053000 1.200000 0.037000 0.044000
1517712332712409011	800 41 1.000000 0.217000 0.221000 800 38 0.900000 1.205000 1.106000 600 45 1.000000 0.052000 0.052000 1.200000 0.036000 0.043000
1517712333260799969	800 41 1.000000 0.155000 0.158000 800 38 0.900000 0.936000 0.861000 600 45 1.000000 0.052000 0.052000 1.200000 0.046000 0.055000
1517712333814438636	800 41 1.000000 0.224000 0.228000 800 38 0.900000 1.157000 1.062000 600 44 1.000000 0.053000 0.053000 1.200000 0.037000 0.044000
1517712334322504677	800 41 1.000000 0.229000 0.233000 800 38 0.900000 1.212000 1.112000 600 45 1.000000 0.053000 0.053000 1.200000 0.035000 0.042000
1517712334870847344	800 41 1.000000 0.147000 0.150000 800 38 0.900000 0.854000 0.785000 600 45 1.000000 0.052000 0.052000 1.200000 0.046000 0.055000
1517712335435924594	800 41 1.000000 0.219000 0.223000 800 38 0.900000 1.208000 1.108000 600 44 1.000000 0.053000 0.053000 1.200000 0.035000 0.042000
1517712335954204469	800 42 1.000000 0.219000 0.223000 800 38 0.900000 1.200000 1.101000 600 45 1.000000 0.053000 0.053000 1.200000 0.037000 0.044000
1517712336510706719	800 41 1.000000 0.143000 0.146000 800 38 0.900000 0.863000 0.793000 600 45 1.000000 0.052000 0.052000 1.200000 0.045000 0.054000
1517712337066287136	800 41 1.000000 0.223000 0.227000 800 38 0.900000 1.207000 1.108000 600 44 1.000000 0.052000 0.052000 1.200000 0.038000 0.045000
1517712337580494553	800 41 1.000000 0.223000 0.227000 800 38 0.900000 1.212000 1.112000 600 45 1.000000 0.053000 0.053000 1.200000 0.038000 0.045000
1517712338130519219	800 41 1.000000 0.151000 0.154000 800 38 0.900000 0.876000 0.804000 600 45 1.000000 0.052000 0.052000 1.200000 0.048000 0.057000
1517712338692038303	800 41 1.000000 0.218000 0.222000 800 38 0.900000 1.218000 1.118000 600 44 1.000000 0.053000 0.053000 1.200000 0.038000 0.045000
1517712339200263386	800 42 1.000000 0.140000 0.143000 800 38 0.900000 1.215000 1.115000 600 45 1.000000 0.052000 0.052000 1.200000 0.038000 0.045000
1517712339742420345	800 41 1.000000 0.211000 0.215000 800 38 0.900000 0.856000 0.787000 600 45 1.000000 0.052000 0.052000 1.200000 0.047000 0.056000
1517712340300606136	800 41 1.000000 0.219000 0.223000 800 38 0.900000 1.209000 1.109000 600 44 1.000000 0.053000 0.053000 1.200000 0.038000 0.045000
1517712340808851803	800 42 1.000000 0.233000 0.237000 800 38 0.900000 1.182000 1.085000 600 45 1.000000 0.053000 0.053000 1.200000 0.036000 0.043000
1517712341351091220	800 41 1.000000 0.184000 0.188000 800 38 0.900000 0.900000 0.828000 600 45 1.000000 0.053000 0.053000 1.200000 0.044000 0.053000
1517712341899183512	800 41 1.000000 0.165000 0.168000 800 38 0.900000 0.848000 0.780000 600 44 1.000000 0.053000 0.053000 1.200000 0.044000 0.053000
1517712342408014387	800 41 1.000000 0.208000 0.212000 800 38 0.900000 1.228000 1.127000 600 44 1.000000 0.052000 0.052000 1.200000 0.037000 0.044000
1517712342931525512	800 41 1.000000 0.237000 0.241000 800 38 0.900000 1.188000 1.090000 600 45 1.000000 0.053000 0.053000 1.200000 0.039000 0.047000
1517712343458786220	800 41 1.000000 0.135000 0.138000 800 38 0.900000 0.834000 0.767000 600 44 1.000000 0.053000 0.053000 1.200000 0.046000 0.055000
1517712343967554929	800 41 1.000000 0.225000 0.229000 800 38 0.900000 1.214000 1.114000 600 43 1.000000 0.053000 0.053000 1.200000 0.037000 0.044000
1517712344524008554	800 41 1.000000 0.154000 0.157000 800 38 0.900000 0.918000 0.841000 600 45 1.000000 0.052000 0.052000 1.200000 0.047000 0.056000
1517712345033566804	800 41 1.000000 0.200000 0.204000 800 38 0.900000 1.002000 0.919000 600 45 1.000000 0.053000 0.053000 1.200000 0.045000 0.054000
1517712345543677679	800 41 1.000000 0.200000 0.204000 800 38 0.900000 1.242000 1.140000 600 44 1.000000 0.053000 0.053000 1.200000 0.039000 0.047000
1517712346091292304	800 41 1.000000 0.134000 0.137000 800 38 0.900000 1.209000 1.109000 600 45 1.000000 0.053000 0.053000 1.200000 0.042000 0.050000
1517712346604075762	800 41 1.000000 0.224000 0.228000 800 38 0.900000 1.247000 1.144000 600 45 1.000000 0.053000 0.053000 1.200000 0.039000 0.047000
1517712347160061262	800 41 1.000000 0.201000 0.205000 800 38 0.900000 1.216000 1.116000 600 44 1.000000 0.053000 0.053000 1.200000 0.038000 0.045000
1517712347668631679	800 40 1.000000 0.232000 0.236000 800 38 0.900000 1.225000 1.124000 600 44 1.000000 0.053000 0.053000 1.200000 0.036000 0.043000
1517712348177398137	800 42 1.000000 0.149000 0.152000 800 38 0.900000 0.891000 0.819000 600 44 1.000000 0.053000 0.053000 1.200000 0.046000 0.055000
1517712348705071804	800 41 1.000000 0.220000 0.224000 800 38 0.900000 1.152000 1.057000 600 44 1.000000 0.053000 0.053000 1.200000 0.038000 0.045000
1517712349213568429	800 41 1.000000 0.220000 0.224000 800 38 0.900000 1.187000 1.088000 600 45 1.000000 0.052000 0.052000 1.200000 0.038000 0.045000
1517712349764728013	800 41 1.000000 0.134000 0.136000 800 38 0.900000 0.864000 0.793000 600 45 1.000000 0.052000 0.052000 1.200000 0.047000 0.056000
1517712350314003638	800 41 1.000000 0.227000 0.231000 800 38 0.900000 1.213000 1.113000 600 44 1.000000 0.053000 0.053000 1.200000 0.037000 0.044000
1517712350822764263	800 41 1.000000 0.228000 0.232000 800 38 0.900000 1.218000 1.118000 600 44 1.000000 0.053000 0.053000 1.200000 0.036000 0.043000
1517712351363846096	800 41 1.000000 0.144000 0.147000 800 38 0.900000 0.910000 0.835000 600 45 1.000000 0.052000 0.052000 1.200000 0.036000 0.043000
1517712351913177013	800 41 1.000000 0.230000 0.234000 800 38 0.900000 1.217000 1.117000 600 44 1.000000 0.053000 0.053000 1.200000 0.037000 0.044000
1517712352421626888	800 41 1.000000 0.221000 0.225000 800 38 0.900000 1.196000 1.097000 600 45 1.000000 0.053000 0.053000 1.200000 0.038000 0.045000
1517712352966638721	800 41 1.000000 0.215000 0.219000 800 38 0.900000 1.196000 1.097000 600 45 1.000000 0.052000 0.052000 1.200000 0.036000 0.043000
1517712353520048930	800 41 1.000000 0.199000 0.203000 800 38 0.900000 1.189000 1.091000 600 44 1.000000 0.053000 0.053000 1.200000 0.037000 0.044000
1517712354028297263	800 41 1.000000 0.217000 0.221000 800 38 0.900000 1.200000 1.101000 600 45 1.000000 0.053000 0.053000 1.200000 0.038000 0.045000
1517712354577490763	800 41 1.000000 0.179000 0.182000 800 38 0.900000 0.812000 0.747000 600 45 1.000000 0.053000 0.053000 1.200000 0.048000 0.057000
1517712355124597888	800 41 1.000000 0.170000 0.173000 800 38 0.900000 1.208000 1.108000 600 44 1.000000 0.052000 0.052000 1.200000 0.038000 0.045000
1517712355633428763	800 41 1.000000 0.231000 0.235000 800 38 0.900000 1.212000 1.112000 600 44 1.000000 0.053000 0.053000 1.200000 0.039000 0.047000
1517712356167921180	800 41 1.000000 0.227000 0.231000 800 38 0.900000 0.880000 0.809000 600 45 1.000000 0.053000 0.053000 1.200000 0.049000 0.059000
1517712356715636430	800 41 1.000000 0.132000 0.135000 800 38 0.900000 1.201000 1.102000 600 44 1.000000 0.052000 0.052000 1.200000 0.037000 0.044000
1517712357231997513	800 41 1.000000 0.215000 0.219000 800 38 0.900000 1.212000 1.112000 600 45 1.000000 0.052000 0.052000 1.200000 0.038000 0.045000
1517712357779629847	800 41 1.000000 0.237000 0.241000 800 38 0.900000 0.945000 0.869000 600 45 1.000000 0.053000 0.053000 1.200000 0.048000 0.058000
1517712358328056555	800 41 1.000000 0.225000 0.229000 800 38 0.900000 1.222000 1.121000 600 44 1.000000 0.052000 0.052000 1.200000 0.038000 0.045000
1517712358838694930	800 41 1.000000 0.225000 0.229000 800 38 0.900000 1.204000 1.105000 600 45 1.000000 0.053000 0.053000 1.200000 0.038000 0.045000
1517712359392282555	800 41 1.000000 0.152000 0.155000 800 38 0.900000 0.815000 0.749000 600 45 1.000000 0.053000 0.053000 1.200000 0.048000 0.057000
1517712359946489680	800 41 1.000000 0.231000 0.235000 800 38 0.900000 1.223000 1.122000 600 44 1.000000 0.053000 0.053000 1.200000 0.038000 0.045000
1517712360454615014	800 42 1.000000 0.227000 0.231000 800 38 0.900000 1.220000 1.119000 600 45 1.000000 0.052000 0.052000 1.200000 0.040000 0.048000
1517712360999301931	800 41 1.000000 0.153000 0.156000 800 38 0.900000 0.888000 0.816000 600 45 1.000000 0.053000 0.053000 1.200000 0.045000 0.054000
1517712361559961514	800 41 1.000000 0.218000 0.222000 800 38 0.900000 1.201000 1.104000 600 44 1.000000 0.053000 0.053000 1.200000 0.038000 0.045000
1517712362071904389	800 42 1.000000 0.228000 0.232000 800 38 0.900000 1.289000 1.183000 600 45 1.000000 0.052000 0.052000 1.200000 0.039000 0.047000
1517712362636015847	800 41 1.000000 0.143000 0.146000 800 38 0.900000 0.882000 0.811000 600 45 1.000000 0.053000 0.053000 1.200000 0.045000 0.054000
1517712363204240556	800 41 1.000000 0.219000 0.223000 800 38 0.900000 1.200000 1.101000 600 44 1.000000 0.053000 0.053000 1.200000 0.037000 0.044000
1517712363713757973	800 42 1.000000 0.226000 0.230000 800 38 0.900000 1.267000 1.163000 600 45 1.000000 0.052000 0.052000 1.200000 0.042000 0.050000
1517712364273504473	800 41 1.000000 0.154000 0.157000 800 38 0.900000 0.903000 0.830000 600 45 1.000000 0.053000 0.053000 1.200000 0.041000 0.049000
1517712364835997306	800 41 1.000000 0.224000 0.228000 800 38 0.900000 1.215000 1.115000 600 44 1.000000 0.053000 0.053000 1.200000 0.039000 0.047000
1517712365354150723	800 41 1.000000 0.226000 0.230000 800 38 0.900000 1.201000 1.102000 600 45 1.000000 0.053000 0.053000 1.200000 0.036000 0.043000
1517712365912009389	800 41 1.000000 0.152000 0.155000 800 38 0.900000 1.035000 0.952000 600 45 1.000000 0.052000 0.052000 1.200000 0.044000 0.053000
1517712366472956723	800 41 1.000000 0.208000 0.212000 800 38 0.900000 1.130000 1.039000 600 45 1.000000 0.052000 0.052000 1.200000 0.038000 0.045000
1517712366981363223	800 42 1.000000 0.219000 0.223000 800 38 0.900000 1.163000 1.067000 600 45 1.000000 0.052000 0.052000 1.200000 0.036000 0.043000
1517712367529429598	800 41 1.000000 0.175000 0.178000 800 38 0.900000 0.976000 0.895000 600 45 1.000000 0.053000 0.053000 1.200000 0.046000 0.055000
1517712368076457973	800 41 1.000000 0.187000 0.191000 800 38 0.900000 1.129000 1.038000 600 45 1.000000 0.053000 0.053000 1.200000 0.038000 0.045000
1517712368585158223	800 42 1.000000 0.223000 0.227000 800 38 0.900000 1.180000 1.083000 600 44 1.000000 0.052000 0.052000 1.200000 0.038000 0.045000
1517712369110266557	800 41 1.000000 0.223000 0.227000 800 38 0.900000 1.011000 0.930000 600 45 1.000000 0.053000 0.053000 1.200000 0.045000 0.054000
1517712369633595265	800 41 1.000000 0.132000 0.135000 800 38 0.900000 1.070000 0.984000 600 45 1.000000 0.053000 0.053000 1.200000 0.038000 0.045000
1517712370142388557	800 40 1.000000 0.218000 0.222000 800 38 0.900000 1.206000 1.107000 600 44 1.000000 0.052000 0.052000 1.200000 0.036000 0.043000
1517712370708072057	800 41 1.000000 0.143000 0.146000 800 38 0.900000 1.206000 1.107000 600 45 1.000000 0.053000 0.053000 1.200000 0.045000 0.054000
1517712371249472182	800 41 1.000000 0.196000 0.200000 800 38 0.900000 0.843000 0.775000 600 45 1.000000 0.053000 0.053000 1.200000 0.042000 0.050000
1517712371760861515	800 41 1.000000 0.226000 0.230000 800 38 0.900000 1.193000 1.095000 600 44 1.000000 0.053000 0.053000 1.200000 0.038000 0.045000
1517712372311374682	800 42 1.000000 0.231000 0.235000 800 38 0.900000 1.216000 1.116000 600 45 1.000000 0.053000 0.053000 1.200000 0.038000 0.045000
1517712372819796224	800 42 1.000000 0.159000 0.162000 800 38 0.900000 0.921000 0.845000 600 45 1.000000 0.052000 0.052000 1.200000 0.048000 0.057000
1517712373328289599	800 41 1.000000 0.185000 0.189000 800 38 0.900000 0.957000 0.878000 600 45 1.000000 0.053000 0.053000 1.200000 0.040000 0.048000
1517712373836970349	800 41 1.000000 0.230000 0.234000 800 38 0.900000 1.220000 1.119000 600 43 1.000000 0.053000 0.053000 1.200000 0.037000 0.044000
1517712374387099515	800 41 1.000000 0.214000 0.218000 800 38 0.900000 1.144000 1.050000 600 45 1.000000 0.053000 0.053000 1.200000 0.041000 0.049000
1517712374899210474	800 41 1.000000 0.150000 0.153000 800 38 0.900000 0.856000 0.787000 600 45 1.000000 0.052000 0.052000 1.200000 0.046000 0.055000
1517712375410880474	800 41 1.000000 0.180000 0.183000 800 38 0.900000 1.156000 1.063000 600 44 1.000000 0.053000 0.053000 1.200000 0.037000 0.044000
1517712375936035307	800 41 1.000000 0.204000 0.208000 800 38 0.900000 1.187000 1.089000 600 44 1.000000 0.052000 0.052000 1.200000 0.037000 0.044000
1517712376496031266	800 41 1.000000 0.207000 0.211000 800 38 0.900000 0.963000 0.885000 600 45 1.000000 0.053000 0.053000 1.200000 0.046000 0.055000
1517712377046104266	800 41 1.000000 0.209000 0.213000 800 38 0.900000 0.982000 0.903000 600 45 1.000000 0.053000 0.053000 1.200000 0.039000 0.047000
1517712377554935433	800 40 1.000000 0.228000 0.232000 800 38 0.900000 1.206000 1.107000 600 44 1.000000 0.052000 0.052000 1.200000 0.037000 0.044000
1517712378068629891	800 41 1.000000 0.144000 0.147000 800 38 0.900000 1.226000 1.125000 600 45 1.000000 0.053000 0.053000 1.200000 0.045000 0.054000
1517712378604589141	800 41 1.000000 0.222000 0.226000 800 38 0.900000 0.857000 0.789000 600 45 1.000000 0.053000 0.053000 1.200000 0.043000 0.052000
1517712379113498766	800 42 1.000000 0.210000 0.214000 800 38 0.900000 1.201000 1.102000 600 45 1.000000 0.052000 0.052000 1.200000 0.037000 0.044000
1517712379648952099	800 41 1.000000 0.158000 0.161000 800 38 0.900000 1.257000 1.153000 600 45 1.000000 0.052000 0.052000 1.200000 0.045000 0.054000
1517712380203413308	800 41 1.000000 0.184000 0.188000 800 38 0.900000 0.835000 0.769000 600 45 1.000000 0.053000 0.053000 1.200000 0.042000 0.050000
1517712380711872933	800 42 1.000000 0.222000 0.226000 800 38 0.900000 1.237000 1.135000 600 45 1.000000 0.052000 0.052000 1.200000 0.038000 0.045000
1517712381251552308	800 41 1.000000 0.207000 0.211000 800 38 0.900000 1.214000 1.114000 600 45 1.000000 0.053000 0.053000 1.200000 0.042000 0.050000
1517712381816044058	800 41 1.000000 0.144000 0.147000 800 38 0.900000 0.871000 0.802000 600 44 1.000000 0.053000 0.053000 1.200000 0.041000 0.049000
1517712382331932225	800 42 1.000000 0.206000 0.210000 800 38 0.900000 1.206000 1.107000 600 45 1.000000 0.052000 0.052000 1.200000 0.037000 0.044000
1517712382871564016	800 41 1.000000 0.231000 0.235000 800 38 0.900000 1.127000 1.034000 600 45 1.000000 0.053000 0.053000 1.200000 0.046000 0.055000
1517712383434096225	800 41 1.000000 0.229000 0.233000 800 38 0.900000 0.949000 0.874000 600 45 1.000000 0.053000 0.053000 1.200000 0.040000 0.048000
1517712383942548308	800 42 1.000000 0.225000 0.229000 800 38 0.900000 1.221000 1.120000 600 45 1.000000 0.052000 0.052000 1.200000 0.038000 0.045000
1517712384501781683	800 41 1.000000 0.137000 0.140000 800 38 0.900000 1.039000 0.955000 600 45 1.000000 0.052000 0.052000 1.200000 0.045000 0.054000
1517712385060131558	800 41 1.000000 0.218000 0.222000 800 38 0.900000 1.093000 1.005000 600 44 1.000000 0.052000 0.052000 1.200000 0.039000 0.047000
1517712385568397683	800 42 1.000000 0.226000 0.230000 800 38 0.900000 1.170000 1.074000 600 45 1.000000 0.052000 0.052000 1.200000 0.038000 0.045000
1517712386116607059	800 41 1.000000 0.135000 0.137000 800 38 0.900000 0.988000 0.908000 600 45 1.000000 0.053000 0.053000 1.200000 0.047000 0.056000
1517712386672244475	800 41 1.000000 0.229000 0.233000 800 38 0.900000 1.152000 1.059000 600 45 1.000000 0.052000 0.052000 1.200000 0.039000 0.047000
1517712387180469142	800 42 1.000000 0.224000 0.228000 800 38 0.900000 1.207000 1.110000 600 45 1.000000 0.052000 0.052000 1.200000 0.040000 0.048000
1517712387740008559	800 41 1.000000 0.144000 0.147000 800 38 0.900000 0.863000 0.793000 600 45 1.000000 0.053000 0.053000 1.200000 0.047000 0.056000
1517712388295425100	800 41 1.000000 0.221000 0.225000 800 38 0.900000 1.226000 1.125000 600 45 1.000000 0.053000 0.053000 1.200000 0.039000 0.047000
1517712388806231226	800 41 1.000000 0.224000 0.228000 800 38 0.900000 1.223000 1.122000 600 45 1.000000 0.053000 0.053000 1.200000 0.041000 0.049000
1517712389347302767	800 41 1.000000 0.160000 0.163000 800 38 0.900000 0.919000 0.842000 600 45 1.000000 0.052000 0.052000 1.200000 0.049000 0.059000
1517712389894963059	800 41 1.000000 0.228000 0.232000 800 38 0.900000 1.221000 1.120000 600 45 1.000000 0.052000 0.052000 1.200000 0.039000 0.047000
1517712390403521017	800 42 1.000000 0.215000 0.219000 800 38 0.900000 1.215000 1.115000 600 45 1.000000 0.053000 0.053000 1.200000 0.038000 0.045000
1517712390960172309	800 42 1.000000 0.204000 0.208000 800 38 0.900000 0.866000 0.794000 600 45 1.000000 0.052000 0.052000 1.200000 0.048000 0.058000
1517712391517752559	800 41 1.000000 0.196000 0.200000 800 38 0.900000 1.215000 1.115000 600 45 1.000000 0.052000 0.052000 1.200000 0.047000 0.056000
1517712392026079268	800 42 1.000000 0.237000 0.241000 800 38 0.900000 1.218000 1.118000 600 45 1.000000 0.053000 0.053000 1.200000 0.041000 0.049000
1517712392574025934	800 42 1.000000 0.178000 0.181000 800 38 0.900000 0.854000 0.785000 600 45 1.000000 0.053000 0.053000 1.200000 0.049000 0.059000
1517712393128005726	800 41 1.000000 0.169000 0.172000 800 38 0.900000 1.208000 1.108000 600 45 1.000000 0.052000 0.052000 1.200000 0.041000 0.049000
1517712393636544351	800 42 1.000000 0.227000 0.231000 800 38 0.900000 1.211000 1.111000 600 45 1.000000 0.053000 0.053000 1.200000 0.041000 0.049000
1517712394187957560	800 41 1.000000 0.214000 0.218000 800 38 0.900000 0.886000 0.812000 600 45 1.000000 0.053000 0.053000 1.200000 0.047000 0.056000
1517712394736002518	800 41 1.000000 0.145000 0.148000 800 38 0.900000 1.218000 1.118000 600 45 1.000000 0.052000 0.052000 1.200000 0.042000 0.050000
1517712395244802893	800 41 1.000000 0.232000 0.236000 800 38 0.900000 1.224000 1.123000 600 45 1.000000 0.053000 0.053000 1.200000 0.043000 0.051000
1517712395777473351	800 42 1.000000 0.229000 0.234000 800 38 0.900000 0.823000 0.757000 600 45 1.000000 0.053000 0.053000 1.200000 0.047000 0.056000
1517712396320363685	800 41 1.000000 0.231000 0.235000 800 38 0.900000 1.217000 1.117000 600 45 1.000000 0.053000 0.053000 1.200000 0.041000 0.049000
1517712396828891185	800 41 1.000000 0.229000 0.233000 800 38 0.900000 1.250000 1.147000 600 44 1.000000 0.053000 0.053000 1.200000 0.041000 0.049000
1517712397343964643	800 42 1.000000 0.135000 0.138000 800 38 0.900000 0.861000 0.792000 600 45 1.000000 0.053000 0.053000 1.200000 0.049000 0.059000
1517712397878846227	800 41 1.000000 0.221000 0.225000 800 38 0.900000 1.226000 1.125000 600 45 1.000000 0.053000 0.053000 1.200000 0.042000 0.050000
1517712398387668352	800 41 1.000000 0.220000 0.224000 800 38 0.900000 1.209000 1.109000 600 44 1.000000 0.053000 0.053000 1.200000 0.043000 0.051000
1517712398896122227	800 42 1.000000 0.181000 0.184000 800 38 0.900000 0.880000 0.807000 600 45 1.000000 0.052000 0.052000 1.200000 0.049000 0.059000
1517712399410626810	800 41 1.000000 0.149000 0.152000 800 38 0.900000 1.128000 1.037000 600 45 1.000000 0.052000 0.052000 1.200000 0.041000 0.049000
1517712399919178685	800 40 1.000000 0.218000 0.222000 800 38 0.900000 1.209000 1.109000 600 44 1.000000 0.053000 0.053000 1.200000 0.040000 0.048000
1517712400488037310	800 41 1.000000 0.225000 0.229000 800 38 0.900000 1.056000 0.969000 600 45 1.000000 0.053000 0.053000 1.200000 0.048000 0.057000
1517712401012788310	800 41 1.000000 0.148000 0.151000 800 38 0.900000 0.836000 0.769000 600 45 1.000000 0.053000 0.053000 1.200000 0.044000 0.053000
1517712401521616394	800 41 1.000000 0.157000 0.160000 800 38 0.900000 1.161000 1.065000 600 44 1.000000 0.052000 0.052000 1.200000 0.044000 0.053000
1517712402071813519	800 42 1.000000 0.212000 0.216000 800 38 0.900000 1.215000 1.115000 600 45 1.000000 0.053000 0.053000 1.200000 0.042000 0.050000
1517712402589349186	800 41 1.000000 0.141000 0.144000 800 38 0.900000 0.920000 0.846000 600 45 1.000000 0.053000 0.053000 1.200000 0.049000 0.059000
1517712403117503061	800 41 1.000000 0.230000 0.234000 800 38 0.900000 1.059000 0.974000 600 45 1.000000 0.052000 0.052000 1.200000 0.040000 0.048000
1517712403626154477	800 41 1.000000 0.197000 0.201000 800 38 0.900000 1.233000 1.131000 600 44 1.000000 0.053000 0.053000 1.200000 0.038000 0.045000
1517712404134299394	800 41 1.000000 0.180000 0.183000 800 38 0.900000 1.062000 0.977000 600 45 1.000000 0.052000 0.052000 1.200000 0.047000 0.056000
1517712404654993561	800 41 1.000000 0.224000 0.228000 800 38 0.900000 1.183000 1.085000 600 45 1.000000 0.052000 0.052000 1.200000 0.041000 0.049000
1517712405163950894	800 41 1.000000 0.226000 0.230000 800 38 0.900000 1.163000 1.067000 600 44 1.000000 0.053000 0.053000 1.200000 0.045000 0.054000
1517712405680909436	800 41 1.000000 0.143000 0.146000 800 38 0.900000 0.825000 0.759000 600 45 1.000000 0.053000 0.053000 1.200000 0.042000 0.050000
1517712406237998311	800 41 1.000000 0.216000 0.220000 800 38 0.900000 1.220000 1.119000 600 45 1.000000 0.052000 0.052000 1.200000 0.039000 0.047000
1517712406746508353	800 42 1.000000 0.228000 0.232000 800 38 0.900000 1.203000 1.104000 600 45 1.000000 0.052000 0.052000 1.200000 0.047000 0.056000
1517712407307958394	800 41 1.000000 0.146000 0.149000 800 38 0.900000 0.865000 0.794000 600 45 1.000000 0.053000 0.053000 1.200000 0.041000 0.049000
1517712407871382353	800 41 1.000000 0.151000 0.154000 800 38 0.900000 0.959000 0.882000 600 44 1.000000 0.053000 0.053000 1.200000 0.038000 0.045000
1517712408379618270	800 42 1.000000 0.226000 0.230000 800 38 0.900000 1.212000 1.112000 600 45 1.000000 0.053000 0.053000 1.200000 0.037000 0.044000
1517712408943038270	800 41 1.000000 0.135000 0.138000 800 38 0.900000 1.058000 0.973000 600 45 1.000000 0.053000 0.053000 1.200000 0.044000 0.053000
1517712409503696978	800 41 1.000000 0.223000 0.227000 800 38 0.900000 1.099000 1.011000 600 45 1.000000 0.053000 0.053000 1.200000 0.039000 0.047000
1517712410013615103	800 42 1.000000 0.231000 0.235000 800 38 0.900000 1.191000 1.093000 600 45 1.000000 0.052000 0.052000 1.200000 0.038000 0.045000
1517712410568000853	800 41 1.000000 0.145000 0.148000 800 38 0.900000 0.991000 0.911000 600 45 1.000000 0.053000 0.053000 1.200000 0.046000 0.055000
1517712411131536187	800 41 1.000000 0.213000 0.217000 800 38 0.900000 1.189000 1.091000 600 45 1.000000 0.053000 0.053000 1.200000 0.037000 0.044000
1517712411639878395	800 42 1.000000 0.224000 0.228000 800 38 0.900000 1.213000 1.113000 600 45 1.000000 0.052000 0.052000 1.200000 0.039000 0.047000
1517712412195082312	800 41 1.000000 0.139000 0.142000 800 38 0.900000 0.789000 0.724000 600 45 1.000000 0.053000 0.053000 1.200000 0.046000 0.055000
1517712412759918562	800 41 1.000000 0.200000 0.204000 800 38 0.900000 1.191000 1.093000 600 45 1.000000 0.052000 0.052000 1.200000 0.039000 0.047000
1517712413276222520	800 42 1.000000 0.236000 0.240000 800 38 0.900000 1.225000 1.124000 600 45 1.000000 0.053000 0.053000 1.200000 0.041000 0.049000
1517712413831471770	800 41 1.000000 0.152000 0.155000 800 38 0.900000 0.857000 0.786000 600 45 1.000000 0.052000 0.052000 1.200000 0.049000 0.059000
1517712414382877062	800 41 1.000000 0.203000 0.207000 800 38 0.900000 1.186000 1.088000 600 45 1.000000 0.053000 0.053000 1.200000 0.039000 0.047000
1517712414891097145	800 42 1.000000 0.162000 0.165000 800 38 0.900000 1.216000 1.116000 600 45 1.000000 0.053000 0.053000 1.200000 0.041000 0.049000
1517712415445177604	800 42 1.000000 0.198000 0.202000 800 38 0.900000 0.807000 0.740000 600 45 1.000000 0.053000 0.053000 1.200000 0.045000 0.054000
1517712416001349229	800 41 1.000000 0.229000 0.233000 800 38 0.900000 1.220000 1.119000 600 45 1.000000 0.053000 0.053000 1.200000 0.039000 0.047000
1517712416509836479	800 42 1.000000 0.178000 0.181000 800 38 0.900000 1.205000 1.106000 600 45 1.000000 0.053000 0.053000 1.200000 0.042000 0.050000
1517712417064507271	800 42 1.000000 0.170000 0.173000 800 38 0.900000 0.862000 0.791000 600 45 1.000000 0.052000 0.052000 1.200000 0.044000 0.053000
1517712417624206521	800 41 1.000000 0.227000 0.231000 800 38 0.900000 0.910000 0.837000 600 45 1.000000 0.053000 0.053000 1.200000 0.044000 0.053000
1517712418136532687	800 42 1.000000 0.228000 0.232000 800 38 0.900000 1.150000 1.055000 600 45 1.000000 0.053000 0.053000 1.200000 0.037000 0.044000
1517712418707252729	800 41 1.000000 0.207000 0.211000 800 38 0.900000 1.228000 1.127000 600 45 1.000000 0.053000 0.053000 1.200000 0.043000 0.051000
1517712419263966562	800 41 1.000000 0.157000 0.160000 800 38 0.900000 0.861000 0.792000 600 45 1.000000 0.053000 0.053000 1.200000 0.040000 0.048000
1517712419797981979	800 42 1.000000 0.213000 0.217000 800 38 0.900000 1.234000 1.132000 600 45 1.000000 0.052000 0.052000 1.200000 0.037000 0.044000
1517712420349250313	800 41 1.000000 0.203000 0.207000 800 38 0.900000 1.129000 1.036000 600 45 1.000000 0.053000 0.053000 1.200000 0.047000 0.056000
1517712420907456104	800 41 1.000000 0.145000 0.148000 800 38 0.900000 1.040000 0.956000 600 45 1.000000 0.053000 0.053000 1.200000 0.039000 0.047000
1517712421415759729	800 42 1.000000 0.208000 0.212000 800 38 0.900000 1.214000 1.114000 600 45 1.000000 0.053000 0.053000 1.200000 0.040000 0.048000
1517712421971803438	800 41 1.000000 0.138000 0.141000 800 38 0.900000 0.975000 0.897000 600 45 1.000000 0.053000 0.053000 1.200000 0.046000 0.055000
1517712422536023063	800 41 1.000000 0.226000 0.230000 800 38 0.900000 1.124000 1.034000 600 45 1.000000 0.053000 0.053000 1.200000 0.039000 0.047000
1517712423044821313	800 41 1.000000 0.223000 0.227000 800 38 0.900000 1.174000 1.080000 600 45 1.000000 0.053000 0.053000 1.200000 0.039000 0.047000
1517712423592237146	800 42 1.000000 0.143000 0.146000 800 38 0.900000 0.987000 0.906000 600 45 1.000000 0.053000 0.053000 1.200000 0.048000 0.057000
1517712424147250771	800 41 1.000000 0.186000 0.189000 800 38 0.900000 1.134000 1.041000 600 45 1.000000 0.052000 0.052000 1.200000 0.038000 0.045000
1517712424665526980	800 42 1.000000 0.221000 0.225000 800 38 0.900000 1.148000 1.052000 600 45 1.000000 0.052000 0.052000 1.200000 0.050000 0.060000
1517712425207568063	800 42 1.000000 0.147000 0.150000 800 38 0.900000 0.808000 0.744000 600 45 1.000000 0.053000 0.053000 1.200000 0.049000 0.059000
1517712425731718355	800 41 1.000000 0.223000 0.227000 800 38 0.900000 1.166000 1.072000 600 45 1.000000 0.052000 0.052000 1.200000 0.040000 0.048000
1517712426240426063	800 40 1.000000 0.227000 0.231000 800 38 0.900000 1.183000 1.088000 600 44 1.000000 0.053000 0.053000 1.200000 0.040000 0.048000
1517712426791994938	800 41 1.000000 0.172000 0.175000 800 38 0.900000 1.042000 0.955000 600 45 1.000000 0.053000 0.053000 1.200000 0.048000 0.058000
1517712427316078438	800 42 1.000000 0.149000 0.152000 800 38 0.900000 0.870000 0.801000 600 45 1.000000 0.053000 0.053000 1.200000 0.041000 0.049000
1517712427825366355	800 41 1.000000 0.213000 0.217000 800 38 0.900000 1.155000 1.060000 600 44 1.000000 0.053000 0.053000 1.200000 0.038000 0.045000
1517712428372646022	800 41 1.000000 0.139000 0.142000 800 38 0.900000 1.228000 1.127000 600 45 1.000000 0.053000 0.053000 1.200000 0.041000 0.049000
1517712428883367189	800 42 1.000000 0.189000 0.193000 800 38 0.900000 0.873000 0.801000 600 45 1.000000 0.052000 0.052000 1.200000 0.047000 0.056000
1517712429394889939	800 41 1.000000 0.228000 0.232000 800 38 0.900000 1.162000 1.066000 600 45 1.000000 0.052000 0.052000 1.200000 0.041000 0.049000
1517712429903363855	800 41 1.000000 0.213000 0.217000 800 38 0.900000 1.046000 0.960000 600 44 1.000000 0.052000 0.052000 1.200000 0.038000 0.045000
1517712430445239480	800 42 1.000000 0.134000 0.137000 800 38 0.900000 0.859000 0.790000 600 45 1.000000 0.053000 0.053000 1.200000 0.043000 0.051000
1517712430995990939	800 41 1.000000 0.161000 0.164000 800 38 0.900000 1.250000 1.147000 600 44 1.000000 0.052000 0.052000 1.200000 0.046000 0.055000
1517712431541106689	800 41 1.000000 0.214000 0.218000 800 38 0.900000 1.240000 1.138000 600 45 1.000000 0.053000 0.053000 1.200000 0.038000 0.045000
1517712432049615106	800 40 1.000000 0.223000 0.227000 800 38 0.900000 1.045000 0.958000 600 44 1.000000 0.052000 0.052000 1.200000 0.039000 0.047000
1517712432591378814	800 42 1.000000 0.173000 0.176000 800 38 0.900000 0.872000 0.802000 600 45 1.000000 0.053000 0.053000 1.200000 0.043000 0.051000
1517712433143986564	800 41 1.000000 0.144000 0.147000 800 38 0.900000 1.171000 1.074000 600 45 1.000000 0.052000 0.052000 1.200000 0.036000 0.043000
1517712433682136606	800 41 1.000000 0.231000 0.235000 800 38 0.900000 1.225000 1.124000 600 45 1.000000 0.053000 0.053000 1.200000 0.040000 0.048000
1517712434190724273	800 40 1.000000 0.144000 0.147000 800 38 0.900000 0.886000 0.816000 600 44 1.000000 0.053000 0.053000 1.200000 0.047000 0.056000
1517712434748038106	800 41 1.000000 0.179000 0.182000 800 38 0.900000 0.965000 0.887000 600 45 1.000000 0.052000 0.052000 1.200000 0.040000 0.048000
1517712435305016773	800 41 1.000000 0.144000 0.147000 800 38 0.900000 0.846000 0.778000 600 45 1.000000 0.053000 0.053000 1.200000 0.042000 0.050000
1517712435815127273	800 40 1.000000 0.224000 0.228000 800 38 0.900000 1.223000 1.122000 600 44 1.000000 0.053000 0.053000 1.200000 0.038000 0.045000
1517712436332214898	800 41 1.000000 0.222000 0.226000 800 38 0.900000 1.213000 1.113000 600 45 1.000000 0.052000 0.052000 1.200000 0.043000 0.051000
1517712436887639106	800 41 1.000000 0.146000 0.149000 800 38 0.900000 0.812000 0.747000 600 45 1.000000 0.053000 0.053000 1.200000 0.044000 0.053000
1517712437396848440	800 41 1.000000 0.226000 0.230000 800 38 0.900000 1.175000 1.078000 600 44 1.000000 0.053000 0.053000 1.200000 0.038000 0.045000
1517712437928866106	800 42 1.000000 0.227000 0.231000 800 38 0.900000 1.214000 1.114000 600 45 1.000000 0.053000 0.053000 1.200000 0.044000 0.053000
1517712438480688940	800 41 1.000000 0.158000 0.161000 800 38 0.900000 0.856000 0.788000 600 45 1.000000 0.052000 0.052000 1.200000 0.044000 0.053000
1517712438993022315	800 41 1.000000 0.203000 0.207000 800 38 0.900000 1.203000 1.104000 600 44 1.000000 0.053000 0.053000 1.200000 0.037000 0.044000
1517712439504033273	800 42 1.000000 0.222000 0.226000 800 38 0.900000 1.218000 1.118000 600 45 1.000000 0.053000 0.053000 1.200000 0.043000 0.051000
1517712440064015232	800 41 1.000000 0.169000 0.172000 800 38 0.900000 0.824000 0.758000 600 45 1.000000 0.053000 0.053000 1.200000 0.044000 0.053000
1517712440572783357	800 41 1.000000 0.198000 0.202000 800 38 0.900000 1.196000 1.097000 600 43 1.000000 0.053000 0.053000 1.200000 0.038000 0.045000
1517712441127991773	800 41 1.000000 0.190000 0.193000 800 38 0.900000 1.178000 1.081000 600 45 1.000000 0.053000 0.053000 1.200000 0.044000 0.053000
1517712441676362440	800 41 1.000000 0.151000 0.154000 800 38 0.900000 0.866000 0.796000 600 45 1.000000 0.053000 0.053000 1.200000 0.042000 0.050000
1517712442185144357	800 41 1.000000 0.228000 0.232000 800 38 0.900000 1.182000 1.085000 600 44 1.000000 0.052000 0.052000 1.200000 0.039000 0.047000
1517712442712027940	800 42 1.000000 0.226000 0.230000 800 38 0.900000 1.249000 1.146000 600 45 1.000000 0.052000 0.052000 1.200000 0.042000 0.050000
1517712443252181440	800 41 1.000000 0.146000 0.149000 800 38 0.900000 0.877000 0.806000 600 45 1.000000 0.053000 0.053000 1.200000 0.043000 0.052000
1517712443760749149	800 41 1.000000 0.225000 0.229000 800 38 0.900000 1.152000 1.057000 600 44 1.000000 0.052000 0.052000 1.200000 0.039000 0.047000
1517712444301571399	800 42 1.000000 0.229000 0.233000 800 38 0.900000 1.238000 1.136000 600 45 1.000000 0.053000 0.053000 1.200000 0.041000 0.049000
1517712444857078024	800 41 1.000000 0.152000 0.155000 800 38 0.900000 0.866000 0.796000 600 45 1.000000 0.052000 0.052000 1.200000 0.042000 0.050000
1517712445366956857	800 40 1.000000 0.221000 0.225000 800 38 0.900000 1.194000 1.098000 600 45 1.000000 0.053000 0.053000 1.200000 0.037000 0.044000
1517712445899587191	800 42 1.000000 0.225000 0.229000 800 38 0.900000 1.193000 1.095000 600 45 1.000000 0.053000 0.053000 1.200000 0.043000 0.051000
1517712446442015107	800 41 1.000000 0.198000 0.202000 800 38 0.900000 0.854000 0.785000 600 45 1.000000 0.053000 0.053000 1.200000 0.041000 0.049000
1517712446952177816	800 40 1.000000 0.218000 0.222000 800 38 0.900000 1.152000 1.057000 600 44 1.000000 0.053000 0.053000 1.200000 0.037000 0.044000
1517712447496082399	800 41 1.000000 0.186000 0.190000 800 38 0.900000 1.252000 1.149000 600 45 1.000000 0.052000 0.052000 1.200000 0.043000 0.051000
1517712448046325941	800 41 1.000000 0.169000 0.172000 800 38 0.900000 0.877000 0.806000 600 45 1.000000 0.052000 0.052000 1.200000 0.043000 0.051000
1517712448555019816	800 41 1.000000 0.220000 0.224000 800 38 0.900000 1.195000 1.097000 600 44 1.000000 0.053000 0.053000 1.200000 0.039000 0.047000
1517712449089020066	800 42 1.000000 0.223000 0.227000 800 38 0.900000 1.217000 1.117000 600 45 1.000000 0.053000 0.053000 1.200000 0.044000 0.053000
1517712449632343358	800 41 1.000000 0.152000 0.155000 800 38 0.900000 0.874000 0.802000 600 45 1.000000 0.052000 0.052000 1.200000 0.041000 0.049000
1517712450142360483	800 40 1.000000 0.208000 0.212000 800 38 0.900000 1.150000 1.055000 600 44 1.000000 0.052000 0.052000 1.200000 0.037000 0.044000
1517712450678327941	800 41 1.000000 0.223000 0.227000 800 38 0.900000 1.286000 1.180000 600 45 1.000000 0.053000 0.053000 1.200000 0.044000 0.053000
1517712451228754691	800 41 1.000000 0.141000 0.144000 800 38 0.900000 0.873000 0.803000 600 45 1.000000 0.053000 0.053000 1.200000 0.044000 0.053000
1517712451745877983	800 40 1.000000 0.208000 0.212000 800 38 0.900000 1.168000 1.072000 600 43 1.000000 0.053000 0.053000 1.200000 0.037000 0.044000
1517712452279718441	800 41 1.000000 0.233000 0.237000 800 38 0.900000 1.282000 1.176000 600 45 1.000000 0.053000 0.053000 1.200000 0.042000 0.050000
1517712452815490858	800 41 1.000000 0.227000 0.231000 800 38 0.900000 0.887000 0.816000 600 45 1.000000 0.052000 0.052000 1.200000 0.042000 0.050000
1517712453330859442	800 41 1.000000 0.223000 0.227000 800 38 0.900000 1.133000 1.040000 600 43 1.000000 0.053000 0.053000 1.200000 0.038000 0.045000
1517712453868037067	800 41 1.000000 0.170000 0.173000 800 38 0.900000 1.236000 1.134000 600 45 1.000000 0.053000 0.053000 1.200000 0.043000 0.051000
1517712454420033650	800 41 1.000000 0.158000 0.161000 800 38 0.900000 0.800000 0.736000 600 45 1.000000 0.053000 0.053000 1.200000 0.045000 0.054000
1517712454969143525	800 41 1.000000 0.210000 0.214000 800 38 0.900000 1.201000 1.102000 600 44 1.000000 0.053000 0.053000 1.200000 0.038000 0.045000
1517712455477948650	800 41 1.000000 0.229000 0.233000 800 38 0.900000 1.202000 1.105000 600 44 1.000000 0.053000 0.053000 1.200000 0.041000 0.049000
1517712456040004192	800 41 1.000000 0.144000 0.147000 800 38 0.900000 1.011000 0.930000 600 44 1.000000 0.053000 0.053000 1.200000 0.047000 0.056000
1517712456554305775	800 41 1.000000 0.176000 0.179000 800 38 0.900000 0.889000 0.818000 600 45 1.000000 0.053000 0.053000 1.200000 0.040000 0.048000
1517712457066308109	800 40 1.000000 0.205000 0.209000 800 38 0.900000 1.198000 1.099000 600 44 1.000000 0.052000 0.052000 1.200000 0.039000 0.047000
1517712457615311900	800 41 1.000000 0.220000 0.224000 800 38 0.900000 1.239000 1.137000 600 45 1.000000 0.052000 0.052000 1.200000 0.042000 0.050000
1517712458125121525	800 41 1.000000 0.138000 0.141000 800 38 0.900000 0.868000 0.795000 600 45 1.000000 0.052000 0.052000 1.200000 0.048000 0.058000
1517712458633557276	800 41 1.000000 0.139000 0.142000 800 38 0.900000 1.030000 0.947000 600 44 1.000000 0.052000 0.052000 1.200000 0.039000 0.047000
1517712459142381234	800 40 1.000000 0.202000 0.206000 800 38 0.900000 1.249000 1.146000 600 44 1.000000 0.053000 0.053000 1.200000 0.039000 0.047000
1517712459680012067	800 41 1.000000 0.139000 0.142000 800 38 0.900000 1.222000 1.121000 600 45 1.000000 0.053000 0.053000 1.200000 0.044000 0.053000
1517712460216458359	800 41 1.000000 0.205000 0.209000 800 38 0.900000 0.870000 0.800000 600 45 1.000000 0.053000 0.053000 1.200000 0.041000 0.049000
1517712460726018692	800 41 1.000000 0.222000 0.226000 800 38 0.900000 1.194000 1.096000 600 44 1.000000 0.053000 0.053000 1.200000 0.039000 0.047000
1517712461278950234	800 41 1.000000 0.213000 0.217000 800 38 0.900000 1.208000 1.108000 600 45 1.000000 0.053000 0.053000 1.200000 0.038000 0.045000
1517712461797387568	800 41 1.000000 0.139000 0.142000 800 38 0.900000 0.997000 0.917000 600 45 1.000000 0.053000 0.053000 1.200000 0.046000 0.055000
1517712462312175859	800 41 1.000000 0.222000 0.226000 800 38 0.900000 0.931000 0.856000 600 45 1.000000 0.053000 0.053000 1.200000 0.037000 0.044000
1517712462820851193	800 40 1.000000 0.219000 0.223000 800 38 0.900000 1.221000 1.120000 600 44 1.000000 0.053000 0.053000 1.200000 0.038000 0.045000
1517712463341899901	800 41 1.000000 0.180000 0.183000 800 38 0.900000 1.216000 1.116000 600 45 1.000000 0.052000 0.052000 1.200000 0.043000 0.051000
1517712463874701359	800 41 1.000000 0.165000 0.168000 800 38 0.900000 0.871000 0.802000 600 45 1.000000 0.053000 0.053000 1.200000 0.040000 0.048000
1517712464383275943	800 41 1.000000 0.232000 0.236000 800 38 0.900000 1.200000 1.101000 600 44 1.000000 0.052000 0.052000 1.200000 0.036000 0.043000
1517712464892566693	800 42 1.000000 0.245000 0.250000 800 38 0.900000 1.212000 1.115000 600 45 1.000000 0.052000 0.052000 1.200000 0.043000 0.051000
1517712465426173360	800 41 1.000000 0.227000 0.231000 800 38 0.900000 0.859000 0.791000 600 45 1.000000 0.053000 0.053000 1.200000 0.042000 0.050000
1517712465934694818	800 40 1.000000 0.230000 0.234000 800 38 0.900000 1.211000 1.114000 600 44 1.000000 0.053000 0.053000 1.200000 0.036000 0.043000
1517712466449330443	800 41 1.000000 0.159000 0.162000 800 38 0.900000 1.208000 1.112000 600 45 1.000000 0.052000 0.052000 1.200000 0.040000 0.048000
1517712466997171860	800 41 1.000000 0.193000 0.197000 800 38 0.900000 1.233000 1.131000 600 44 1.000000 0.053000 0.053000 1.200000 0.045000 0.054000
1517712467506069693	800 40 1.000000 0.215000 0.219000 800 38 0.900000 1.236000 1.134000 600 44 1.000000 0.052000 0.052000 1.200000 0.038000 0.045000
1517712468023389943	800 41 1.000000 0.178000 0.181000 800 38 0.900000 0.878000 0.807000 600 45 1.000000 0.053000 0.053000 1.200000 0.041000 0.049000
1517712468562220985	800 41 1.000000 0.166000 0.169000 800 38 0.900000 1.224000 1.123000 600 45 1.000000 0.053000 0.053000 1.200000 0.045000 0.054000
1517712469070973235	800 40 1.000000 0.223000 0.227000 800 38 0.900000 1.206000 1.107000 600 44 1.000000 0.052000 0.052000 1.200000 0.038000 0.045000
1517712469595981735	800 41 1.000000 0.225000 0.229000 800 38 0.900000 0.875000 0.805000 600 45 1.000000 0.053000 0.053000 1.200000 0.039000 0.047000
1517712470143186610	800 41 1.000000 0.129000 0.131000 800 38 0.900000 1.216000 1.116000 600 44 1.000000 0.052000 0.052000 1.200000 0.046000 0.055000
1517712470651756944	800 40 1.000000 0.226000 0.230000 800 38 0.900000 1.209000 1.109000 600 44 1.000000 0.053000 0.053000 1.200000 0.037000 0.044000
1517712471167278235	800 41 1.000000 0.221000 0.225000 800 38 0.900000 0.887000 0.816000 600 45 1.000000 0.053000 0.053000 1.200000 0.039000 0.047000
1517712471712060444	800 41 1.000000 0.232000 0.236000 800 38 0.900000 1.167000 1.071000 600 44 1.000000 0.053000 0.053000 1.200000 0.046000 0.055000
1517712472220729110	800 41 1.000000 0.228000 0.232000 800 38 0.900000 1.196000 1.097000 600 44 1.000000 0.053000 0.053000 1.200000 0.038000 0.045000
1517712472742932402	800 41 1.000000 0.150000 0.153000 800 38 0.900000 0.926000 0.851000 600 45 1.000000 0.053000 0.053000 1.200000 0.047000 0.056000
1517712473278749652	800 41 1.000000 0.196000 0.200000 800 38 0.900000 1.103000 1.014000 600 45 1.000000 0.053000 0.053000 1.200000 0.037000 0.044000
1517712473787334402	800 41 1.000000 0.213000 0.217000 800 38 0.900000 1.180000 1.085000 600 45 1.000000 0.053000 0.053000 1.200000 0.038000 0.045000
1517712474323638652	800 41 1.000000 0.156000 0.159000 800 38 0.900000 1.173000 1.076000 600 45 1.000000 0.053000 0.053000 1.200000 0.035000 0.042000
1517712474832379652	800 39 1.000000 0.144000 0.147000 800 37 0.900000 1.144000 1.052000 600 42 1.000000 0.052000 0.052000 1.200000 0.039000 0.047000
1517712475340668611	800 37 1.000000 0.038000 0.038000 800 37 0.900000 0.228000 0.210000 600 41 1.000000 0.053000 0.053000 1.200000 0.035000 0.042000
