#Timestamp	CPU(0) Frequency(MHz)	CPU(0) Temperature(C)	A7 Voltage(V)	A7 Current(A)	A7 Power(W)	CPU(4) Frequency(MHz)	CPU(4) Temperature(C)	A15 Voltage(V)	A15 Current(A)	A15 Power(W)	GPU Frequency(MHz)	GPU Temperature(C)	GPU Voltage(V)	GPU Current(A)	GPU Power(W)	RAM Voltage(V)	RAM Current(A)	RAM Power(W)
1538154906114274458	900 58 1.000000 0.049000 0.053000 1800 45 1.200000 2.276000 2.765000 600 63 1.000000 0.053000 0.053000 1.200000 0.034000 0.041000
1538154906678211292	900 62 1.000000 0.366000 0.383000 1800 47 1.200000 4.944000 6.066000 600 69 1.000000 0.053000 0.053000 1.200000 0.031000 0.037000
1538154907238194708	900 64 1.000000 0.368000 0.384000 1800 49 1.200000 5.003000 6.138000 600 72 1.000000 0.053000 0.053000 1.200000 0.030000 0.036000
1538154907786189625	900 66 1.000000 0.369000 0.385000 1800 51 1.200000 5.021000 6.160000 600 74 1.000000 0.053000 0.053000 1.200000 0.030000 0.036000
1538154908346176417	900 67 1.000000 0.369000 0.385000 1800 52 1.200000 5.040000 6.184000 600 76 1.000000 0.054000 0.054000 1.200000 0.031000 0.037000
1538154908902213000	900 68 1.000000 0.370000 0.387000 1800 53 1.200000 5.053000 6.205000 600 77 1.000000 0.054000 0.054000 1.200000 0.031000 0.037000
1538154909450185500	900 69 1.000000 0.371000 0.388000 1800 53 1.200000 5.059000 6.207000 600 78 1.000000 0.054000 0.054000 1.200000 0.031000 0.037000
1538154910006173042	900 70 1.000000 0.371000 0.388000 1800 54 1.200000 5.069000 6.219000 600 78 1.000000 0.054000 0.054000 1.200000 0.031000 0.037000
1538154910566189626	900 70 1.000000 0.371000 0.388000 1800 54 1.200000 5.079000 6.231000 600 79 1.000000 0.055000 0.055000 1.200000 0.031000 0.037000
1538154911122177626	900 71 1.000000 0.372000 0.389000 1800 55 1.200000 5.079000 6.231000 600 79 1.000000 0.055000 0.055000 1.200000 0.031000 0.037000
1538154911686177167	900 71 1.000000 0.372000 0.389000 1800 55 1.200000 5.081000 6.239000 600 80 1.000000 0.055000 0.055000 1.200000 0.031000 0.037000
1538154912246187667	900 71 1.000000 0.372000 0.389000 1800 56 1.200000 5.066000 6.221000 600 80 1.000000 0.055000 0.055000 1.200000 0.031000 0.037000
1538154912806167667	900 72 1.000000 0.372000 0.389000 1800 56 1.200000 5.074000 6.230000 600 80 1.000000 0.055000 0.055000 1.200000 0.031000 0.037000
1538154913350175959	900 72 1.000000 0.372000 0.389000 1800 56 1.200000 5.074000 6.230000 600 81 1.000000 0.055000 0.055000 1.200000 0.031000 0.037000
1538154913906173501	900 72 1.000000 0.372000 0.389000 1800 56 1.200000 5.075000 6.232000 600 81 1.000000 0.055000 0.055000 1.200000 0.031000 0.037000
1538154914454201001	900 72 1.000000 0.372000 0.389000 1800 56 1.200000 5.079000 6.237000 600 81 1.000000 0.055000 0.055000 1.200000 0.031000 0.037000
1538154915010183501	900 73 1.000000 0.372000 0.389000 1800 57 1.200000 5.080000 6.233000 600 81 1.000000 0.055000 0.055000 1.200000 0.030000 0.036000
1538154915562165334	900 73 1.000000 0.372000 0.389000 1800 57 1.200000 5.082000 6.240000 600 81 1.000000 0.055000 0.055000 1.200000 0.031000 0.037000
1538154916122196668	900 73 1.000000 0.373000 0.390000 1800 57 1.200000 5.083000 6.241000 600 81 1.000000 0.055000 0.055000 1.200000 0.031000 0.037000
1538154916682205585	900 73 1.000000 0.373000 0.390000 1800 57 1.200000 5.082000 6.240000 600 82 1.000000 0.055000 0.055000 1.200000 0.031000 0.037000
1538154917242177710	900 73 1.000000 0.373000 0.390000 1800 57 1.200000 5.094000 6.255000 600 82 1.000000 0.055000 0.055000 1.200000 0.031000 0.037000
1538154917798204793	900 73 1.000000 0.373000 0.390000 1800 57 1.200000 5.085000 6.244000 600 82 1.000000 0.056000 0.056000 1.200000 0.030000 0.036000
1538154918342183293	900 73 1.000000 0.373000 0.390000 1800 57 1.200000 5.084000 6.243000 600 82 1.000000 0.055000 0.055000 1.200000 0.031000 0.037000
1538154918906146543	900 73 1.000000 0.373000 0.390000 1800 57 1.200000 5.082000 6.240000 600 82 1.000000 0.055000 0.055000 1.200000 0.030000 0.036000
1538154919470162585	900 73 1.000000 0.373000 0.390000 1800 57 1.200000 5.085000 6.244000 600 82 1.000000 0.055000 0.055000 1.200000 0.031000 0.037000
1538154920034124835	900 73 1.000000 0.373000 0.390000 1800 57 1.200000 5.079000 6.237000 600 82 1.000000 0.055000 0.055000 1.200000 0.031000 0.037000
1538154920586153960	900 73 1.000000 0.373000 0.390000 1800 57 1.200000 5.074000 6.230000 600 82 1.000000 0.055000 0.055000 1.200000 0.030000 0.036000
1538154921142172793	900 74 1.000000 0.373000 0.390000 1800 58 1.200000 5.085000 6.244000 600 82 1.000000 0.055000 0.055000 1.200000 0.031000 0.037000
1538154921698148960	900 74 1.000000 0.373000 0.390000 1800 58 1.200000 5.074000 6.230000 600 82 1.000000 0.055000 0.055000 1.200000 0.031000 0.037000
1538154922262133627	900 74 1.000000 0.373000 0.390000 1800 57 1.200000 5.089000 6.249000 600 82 1.000000 0.055000 0.055000 1.200000 0.031000 0.037000
1538154922814167419	900 74 1.000000 0.373000 0.390000 1800 58 1.200000 5.089000 6.249000 600 82 1.000000 0.055000 0.055000 1.200000 0.031000 0.037000
1538154923370158669	900 74 1.000000 0.373000 0.390000 1800 58 1.200000 5.079000 6.237000 600 82 1.000000 0.055000 0.055000 1.200000 0.031000 0.037000
1538154923926178877	900 74 1.000000 0.373000 0.390000 1800 58 1.200000 5.070000 6.225000 600 82 1.000000 0.056000 0.056000 1.200000 0.030000 0.036000
1538154924486171586	900 74 1.000000 0.373000 0.390000 1800 58 1.200000 5.072000 6.228000 600 82 1.000000 0.055000 0.055000 1.200000 0.031000 0.037000
1538154925050155919	900 74 1.000000 0.373000 0.390000 1800 58 1.200000 5.069000 6.224000 600 82 1.000000 0.055000 0.055000 1.200000 0.031000 0.037000
1538154925610135294	900 74 1.000000 0.373000 0.390000 1800 58 1.200000 5.067000 6.222000 600 82 1.000000 0.055000 0.055000 1.200000 0.030000 0.036000
1538154926158228044	900 74 1.000000 0.373000 0.390000 1800 58 1.200000 5.065000 6.219000 600 82 1.000000 0.055000 0.055000 1.200000 0.039000 0.047000
1538154926714210336	900 74 1.000000 0.373000 0.390000 1800 58 1.200000 5.059000 6.212000 600 82 1.000000 0.056000 0.056000 1.200000 0.030000 0.036000
1538154927270183503	900 74 1.000000 0.373000 0.390000 1800 58 1.200000 5.082000 6.240000 600 82 1.000000 0.055000 0.055000 1.200000 0.030000 0.036000
1538154927830173378	900 74 1.000000 0.373000 0.390000 1800 58 1.200000 5.079000 6.237000 600 83 1.000000 0.056000 0.056000 1.200000 0.031000 0.037000
1538154928394221836	900 74 1.000000 0.371000 0.388000 1800 58 1.200000 5.082000 6.240000 600 83 1.000000 0.055000 0.055000 1.200000 0.032000 0.038000
1538154928946199544	900 74 1.000000 0.373000 0.390000 1800 58 1.200000 5.127000 6.295000 600 83 1.000000 0.056000 0.056000 1.200000 0.031000 0.037000
1538154929502165086	900 74 1.000000 0.374000 0.391000 1800 58 1.200000 5.124000 6.292000 600 83 1.000000 0.055000 0.055000 1.200000 0.031000 0.037000
1538154930050170711	900 74 1.000000 0.373000 0.390000 1800 58 1.200000 5.119000 6.286000 600 83 1.000000 0.056000 0.056000 1.200000 0.031000 0.037000
1538154930610176961	900 74 1.000000 0.373000 0.390000 1800 58 1.200000 5.121000 6.288000 600 83 1.000000 0.055000 0.055000 1.200000 0.032000 0.038000
1538154931170206170	900 74 1.000000 0.373000 0.390000 1800 58 1.200000 5.112000 6.277000 600 83 1.000000 0.056000 0.056000 1.200000 0.032000 0.038000
1538154931714198920	900 74 1.000000 0.373000 0.390000 1800 58 1.200000 5.118000 6.284000 600 83 1.000000 0.055000 0.055000 1.200000 0.031000 0.037000
1538154932274174336	900 74 1.000000 0.373000 0.390000 1800 58 1.200000 5.122000 6.289000 600 83 1.000000 0.055000 0.055000 1.200000 0.032000 0.038000
1538154932830129628	900 74 1.000000 0.374000 0.391000 1800 58 1.200000 5.134000 6.304000 600 83 1.000000 0.055000 0.055000 1.200000 0.032000 0.038000
1538154933390134962	900 74 1.000000 0.374000 0.391000 1800 58 1.200000 5.131000 6.300000 600 83 1.000000 0.056000 0.056000 1.200000 0.031000 0.037000
1538154933938202503	900 74 1.000000 0.374000 0.391000 1800 58 1.200000 5.127000 6.295000 600 83 1.000000 0.056000 0.056000 1.200000 0.032000 0.038000
1538154934486189795	900 74 1.000000 0.374000 0.391000 1800 58 1.200000 5.115000 6.281000 600 83 1.000000 0.056000 0.056000 1.200000 0.032000 0.038000
1538154935046138503	900 74 1.000000 0.374000 0.391000 1800 58 1.200000 5.090000 6.250000 600 83 1.000000 0.055000 0.055000 1.200000 0.032000 0.038000
1538154935602210004	900 74 1.000000 0.374000 0.391000 1800 58 1.200000 5.082000 6.240000 600 83 1.000000 0.055000 0.055000 1.200000 0.032000 0.038000
1538154936162149545	900 74 1.000000 0.374000 0.391000 1800 58 1.200000 5.090000 6.250000 600 83 1.000000 0.055000 0.055000 1.200000 0.032000 0.038000
1538154936718299545	900 74 1.000000 0.374000 0.391000 1800 58 1.200000 5.084000 6.243000 600 83 1.000000 0.056000 0.056000 1.200000 0.032000 0.038000
1538154937274161504	900 74 1.000000 0.373000 0.390000 1800 58 1.200000 5.092000 6.252000 600 83 1.000000 0.055000 0.055000 1.200000 0.034000 0.041000
1538154937826174712	900 74 1.000000 0.374000 0.391000 1800 58 1.200000 5.101000 6.264000 600 83 1.000000 0.055000 0.055000 1.200000 0.032000 0.038000
1538154938386176587	900 74 1.000000 0.374000 0.391000 1800 58 1.200000 5.098000 6.260000 600 83 1.000000 0.055000 0.055000 1.200000 0.032000 0.038000
1538154938938200421	900 74 1.000000 0.374000 0.391000 1800 58 1.200000 5.101000 6.264000 600 83 1.000000 0.056000 0.056000 1.200000 0.032000 0.038000
1538154939498163796	900 74 1.000000 0.373000 0.390000 1800 58 1.200000 5.100000 6.262000 600 83 1.000000 0.056000 0.056000 1.200000 0.032000 0.038000
1538154940058150921	900 74 1.000000 0.373000 0.390000 1800 58 1.200000 5.098000 6.260000 600 83 1.000000 0.055000 0.055000 1.200000 0.032000 0.038000
1538154940606167921	900 74 1.000000 0.374000 0.391000 1800 58 1.200000 5.154000 6.329000 600 83 1.000000 0.056000 0.056000 1.200000 0.032000 0.038000
1538154941166141254	900 75 1.000000 0.373000 0.390000 1800 58 1.200000 5.154000 6.329000 600 83 1.000000 0.056000 0.056000 1.200000 0.032000 0.038000
1538154941722176963	900 75 1.000000 0.374000 0.391000 1800 58 1.200000 5.143000 6.315000 600 83 1.000000 0.056000 0.056000 1.200000 0.032000 0.038000
1538154942278183963	900 75 1.000000 0.374000 0.391000 1800 58 1.200000 5.150000 6.324000 600 84 1.000000 0.056000 0.056000 1.200000 0.032000 0.038000
1538154942834188796	900 75 1.000000 0.374000 0.391000 1800 58 1.200000 5.164000 6.341000 600 84 1.000000 0.056000 0.056000 1.200000 0.032000 0.038000
1538154943394166379	900 75 1.000000 0.374000 0.391000 1800 58 1.200000 5.167000 6.345000 600 84 1.000000 0.056000 0.056000 1.200000 0.032000 0.038000
1538154943946171713	900 75 1.000000 0.373000 0.390000 1800 59 1.200000 5.166000 6.343000 600 83 1.000000 0.056000 0.056000 1.200000 0.032000 0.038000
1538154944506171713	900 75 1.000000 0.374000 0.391000 1800 59 1.200000 5.165000 6.342000 600 84 1.000000 0.056000 0.056000 1.200000 0.032000 0.038000
1538154945058164838	900 75 1.000000 0.373000 0.390000 1800 59 1.200000 5.165000 6.342000 600 84 1.000000 0.056000 0.056000 1.200000 0.032000 0.038000
1538154945614198463	900 75 1.000000 0.374000 0.391000 1800 59 1.200000 5.163000 6.340000 600 84 1.000000 0.056000 0.056000 1.200000 0.032000 0.038000
1538154946174213380	900 75 1.000000 0.374000 0.391000 1800 59 1.200000 5.167000 6.345000 600 84 1.000000 0.056000 0.056000 1.200000 0.032000 0.038000
1538154946738162713	900 75 1.000000 0.374000 0.391000 1800 59 1.200000 5.167000 6.345000 600 84 1.000000 0.056000 0.056000 1.200000 0.032000 0.038000
1538154947290186463	900 75 1.000000 0.374000 0.391000 1800 59 1.200000 5.165000 6.342000 600 84 1.000000 0.056000 0.056000 1.200000 0.032000 0.038000
1538154947850126672	900 75 1.000000 0.374000 0.391000 1800 59 1.200000 5.170000 6.348000 600 84 1.000000 0.056000 0.056000 1.200000 0.031000 0.037000
1538154948410173797	900 75 1.000000 0.374000 0.391000 1800 59 1.200000 5.170000 6.348000 600 84 1.000000 0.056000 0.056000 1.200000 0.031000 0.037000
1538154948966154672	900 75 1.000000 0.374000 0.391000 1800 59 1.200000 5.166000 6.343000 600 84 1.000000 0.056000 0.056000 1.200000 0.032000 0.038000
1538154949526178380	900 75 1.000000 0.374000 0.391000 1800 59 1.200000 5.169000 6.347000 600 84 1.000000 0.055000 0.055000 1.200000 0.032000 0.038000
1538154950086186297	900 75 1.000000 0.374000 0.391000 1800 59 1.200000 5.168000 6.346000 600 84 1.000000 0.056000 0.056000 1.200000 0.032000 0.038000
1538154950642172839	900 75 1.000000 0.374000 0.391000 1800 59 1.200000 5.167000 6.345000 600 84 1.000000 0.056000 0.056000 1.200000 0.032000 0.038000
1538154951214165630	900 75 1.000000 0.374000 0.391000 1800 59 1.200000 5.167000 6.345000 600 84 1.000000 0.056000 0.056000 1.200000 0.032000 0.038000
1538154951762176839	900 75 1.000000 0.374000 0.391000 1800 59 1.200000 5.168000 6.346000 600 84 1.000000 0.056000 0.056000 1.200000 0.032000 0.038000
1538154952318138839	900 75 1.000000 0.374000 0.391000 1800 59 1.200000 5.123000 6.285000 600 84 1.000000 0.056000 0.056000 1.200000 0.034000 0.041000
1538154952870203589	900 75 1.000000 0.375000 0.392000 1800 59 1.200000 5.132000 6.302000 600 84 1.000000 0.056000 0.056000 1.200000 0.033000 0.039000
1538154953430207131	900 75 1.000000 0.375000 0.392000 1800 59 1.200000 5.132000 6.302000 600 84 1.000000 0.056000 0.056000 1.200000 0.033000 0.039000
1538154953990150672	900 75 1.000000 0.375000 0.392000 1800 59 1.200000 5.128000 6.297000 600 84 1.000000 0.056000 0.056000 1.200000 0.033000 0.039000
1538154954550125131	900 75 1.000000 0.375000 0.392000 1800 59 1.200000 5.114000 6.279000 600 84 1.000000 0.056000 0.056000 1.200000 0.033000 0.039000
1538154955110171173	900 75 1.000000 0.375000 0.392000 1800 59 1.200000 5.122000 6.289000 600 84 1.000000 0.056000 0.056000 1.200000 0.033000 0.039000
1538154955666172423	900 75 1.000000 0.375000 0.392000 1800 59 1.200000 5.129000 6.298000 600 84 1.000000 0.056000 0.056000 1.200000 0.034000 0.041000
1538154956226175256	900 75 1.000000 0.375000 0.392000 1800 59 1.200000 5.115000 6.281000 600 84 1.000000 0.055000 0.055000 1.200000 0.033000 0.039000
1538154956790178298	900 75 1.000000 0.375000 0.392000 1800 59 1.200000 5.129000 6.298000 600 84 1.000000 0.056000 0.056000 1.200000 0.033000 0.039000
1538154957342194714	900 75 1.000000 0.375000 0.392000 1800 59 1.200000 5.103000 6.266000 600 84 1.000000 0.056000 0.056000 1.200000 0.033000 0.039000
1538154957894177590	900 75 1.000000 0.375000 0.392000 1800 59 1.200000 5.089000 6.249000 600 83 1.000000 0.056000 0.056000 1.200000 0.033000 0.039000
1538154958454211298	900 75 1.000000 0.375000 0.392000 1800 58 1.200000 5.081000 6.239000 600 83 1.000000 0.056000 0.056000 1.200000 0.033000 0.039000
1538154959010170090	900 75 1.000000 0.375000 0.392000 1800 59 1.200000 5.096000 6.257000 600 83 1.000000 0.056000 0.056000 1.200000 0.034000 0.041000
1538154959570152381	900 75 1.000000 0.374000 0.391000 1800 58 1.200000 5.086000 6.245000 600 83 1.000000 0.056000 0.056000 1.200000 0.034000 0.041000
1538154960130168715	900 75 1.000000 0.375000 0.392000 1800 59 1.200000 5.081000 6.239000 600 83 1.000000 0.056000 0.056000 1.200000 0.033000 0.039000
1538154960690167507	900 75 1.000000 0.375000 0.392000 1800 59 1.200000 5.098000 6.260000 600 83 1.000000 0.056000 0.056000 1.200000 0.033000 0.039000
1538154961238174382	900 75 1.000000 0.374000 0.391000 1800 59 1.200000 5.098000 6.260000 600 83 1.000000 0.056000 0.056000 1.200000 0.033000 0.039000
1538154961794191132	900 75 1.000000 0.375000 0.392000 1800 59 1.200000 5.090000 6.250000 600 83 1.000000 0.056000 0.056000 1.200000 0.034000 0.041000
1538154962350152590	900 75 1.000000 0.375000 0.392000 1800 59 1.200000 5.101000 6.264000 600 83 1.000000 0.056000 0.056000 1.200000 0.034000 0.041000
1538154962910186423	900 75 1.000000 0.375000 0.392000 1800 59 1.200000 5.102000 6.265000 600 83 1.000000 0.056000 0.056000 1.200000 0.033000 0.039000
1538154963478217715	900 75 1.000000 0.374000 0.391000 1800 59 1.200000 5.146000 6.319000 600 84 1.000000 0.056000 0.056000 1.200000 0.033000 0.039000
1538154964042195215	900 75 1.000000 0.375000 0.392000 1800 59 1.200000 5.148000 6.321000 600 84 1.000000 0.056000 0.056000 1.200000 0.033000 0.039000
1538154964598170299	900 75 1.000000 0.375000 0.392000 1800 59 1.200000 5.142000 6.314000 600 84 1.000000 0.056000 0.056000 1.200000 0.034000 0.041000
1538154965150176257	900 75 1.000000 0.375000 0.392000 1800 59 1.200000 5.152000 6.326000 600 84 1.000000 0.056000 0.056000 1.200000 0.033000 0.039000
1538154965710184132	900 75 1.000000 0.375000 0.392000 1800 59 1.200000 5.157000 6.332000 600 84 1.000000 0.056000 0.056000 1.200000 0.033000 0.039000
1538154966270197049	900 75 1.000000 0.375000 0.392000 1800 59 1.200000 5.151000 6.325000 600 84 1.000000 0.056000 0.056000 1.200000 0.034000 0.041000
1538154966822228174	900 75 1.000000 0.375000 0.392000 1800 59 1.200000 5.151000 6.325000 600 84 1.000000 0.056000 0.056000 1.200000 0.034000 0.041000
1538154967382205549	900 75 1.000000 0.375000 0.392000 1800 59 1.200000 5.166000 6.343000 600 84 1.000000 0.056000 0.056000 1.200000 0.033000 0.039000
1538154967942204091	900 75 1.000000 0.375000 0.392000 1800 59 1.200000 5.162000 6.338000 600 84 1.000000 0.056000 0.056000 1.200000 0.033000 0.039000
1538154968498227216	900 75 1.000000 0.374000 0.391000 1800 59 1.200000 5.158000 6.334000 600 84 1.000000 0.056000 0.056000 1.200000 0.033000 0.039000
1538154969050199466	900 75 1.000000 0.375000 0.392000 1800 59 1.200000 5.136000 6.307000 600 84 1.000000 0.056000 0.056000 1.200000 0.032000 0.038000
1538154969602178674	900 75 1.000000 0.375000 0.392000 1800 59 1.200000 5.146000 6.319000 600 84 1.000000 0.055000 0.055000 1.200000 0.033000 0.039000
1538154970154199466	900 75 1.000000 0.375000 0.392000 1800 59 1.200000 5.144000 6.316000 600 84 1.000000 0.056000 0.056000 1.200000 0.033000 0.039000
1538154970710184424	900 75 1.000000 0.375000 0.392000 1800 59 1.200000 5.133000 6.303000 600 84 1.000000 0.056000 0.056000 1.200000 0.033000 0.039000
1538154971270190299	900 75 1.000000 0.375000 0.392000 1800 59 1.200000 5.131000 6.300000 600 84 1.000000 0.056000 0.056000 1.200000 0.033000 0.039000
1538154971830172008	900 75 1.000000 0.375000 0.392000 1800 59 1.200000 5.137000 6.308000 600 84 1.000000 0.056000 0.056000 1.200000 0.033000 0.039000
1538154972390183591	900 75 1.000000 0.375000 0.392000 1800 59 1.200000 5.148000 6.321000 600 84 1.000000 0.056000 0.056000 1.200000 0.033000 0.039000
1538154972946128008	900 75 1.000000 0.375000 0.392000 1800 59 1.200000 5.146000 6.319000 600 84 1.000000 0.056000 0.056000 1.200000 0.033000 0.039000
1538154973506172925	900 75 1.000000 0.375000 0.392000 1800 59 1.200000 5.146000 6.319000 600 84 1.000000 0.056000 0.056000 1.200000 0.033000 0.039000
1538154974066204466	900 75 1.000000 0.375000 0.392000 1800 59 1.200000 5.147000 6.320000 600 84 1.000000 0.056000 0.056000 1.200000 0.033000 0.039000
1538154974614181508	900 75 1.000000 0.375000 0.392000 1800 59 1.200000 5.164000 6.341000 600 84 1.000000 0.055000 0.055000 1.200000 0.033000 0.039000
1538154975174173258	900 75 1.000000 0.375000 0.392000 1800 59 1.200000 5.150000 6.324000 600 84 1.000000 0.056000 0.056000 1.200000 0.033000 0.039000
1538154975730162008	900 75 1.000000 0.373000 0.390000 1800 59 1.200000 5.104000 6.267000 600 84 1.000000 0.056000 0.056000 1.200000 0.032000 0.038000
1538154976278226550	900 75 1.000000 0.373000 0.390000 1800 59 1.200000 5.113000 6.278000 600 84 1.000000 0.056000 0.056000 1.200000 0.030000 0.036000
1538154976838183467	900 75 1.000000 0.373000 0.390000 1800 59 1.200000 5.117000 6.283000 600 84 1.000000 0.056000 0.056000 1.200000 0.030000 0.036000
1538154977398131009	900 75 1.000000 0.373000 0.390000 1800 59 1.200000 5.121000 6.288000 600 84 1.000000 0.056000 0.056000 1.200000 0.031000 0.037000
1538154977958158675	900 75 1.000000 0.373000 0.390000 1800 59 1.200000 5.123000 6.291000 600 84 1.000000 0.056000 0.056000 1.200000 0.031000 0.037000
1538154978506214925	900 75 1.000000 0.373000 0.390000 1800 59 1.200000 5.122000 6.289000 600 84 1.000000 0.056000 0.056000 1.200000 0.030000 0.036000
1538154979066181425	900 75 1.000000 0.373000 0.390000 1800 59 1.200000 5.125000 6.293000 600 84 1.000000 0.056000 0.056000 1.200000 0.030000 0.036000
1538154979626184967	900 75 1.000000 0.373000 0.390000 1800 59 1.200000 5.122000 6.289000 600 84 1.000000 0.056000 0.056000 1.200000 0.030000 0.036000
1538154980182144176	900 75 1.000000 0.373000 0.390000 1800 59 1.200000 5.106000 6.270000 600 84 1.000000 0.056000 0.056000 1.200000 0.031000 0.037000
1538154980742194092	900 75 1.000000 0.373000 0.390000 1800 59 1.200000 5.102000 6.265000 600 84 1.000000 0.056000 0.056000 1.200000 0.030000 0.036000
1538154981302182551	900 75 1.000000 0.373000 0.390000 1800 59 1.200000 5.104000 6.267000 600 84 1.000000 0.056000 0.056000 1.200000 0.030000 0.036000
1538154981854201134	900 75 1.000000 0.373000 0.390000 1800 59 1.200000 5.100000 6.262000 600 84 1.000000 0.056000 0.056000 1.200000 0.030000 0.036000
1538154982406187051	900 75 1.000000 0.373000 0.390000 1800 59 1.200000 5.119000 6.286000 600 84 1.000000 0.056000 0.056000 1.200000 0.030000 0.036000
1538154982958172551	900 75 1.000000 0.373000 0.390000 1800 59 1.200000 5.119000 6.286000 600 84 1.000000 0.056000 0.056000 1.200000 0.030000 0.036000
1538154983510180051	900 75 1.000000 0.373000 0.390000 1800 59 1.200000 5.119000 6.286000 600 84 1.000000 0.055000 0.055000 1.200000 0.030000 0.036000
1538154984074167926	900 75 1.000000 0.373000 0.390000 1800 59 1.200000 5.118000 6.284000 600 84 1.000000 0.056000 0.056000 1.200000 0.031000 0.037000
1538154984626160884	900 75 1.000000 0.373000 0.390000 1800 59 1.200000 5.122000 6.300000 600 84 1.000000 0.056000 0.056000 1.200000 0.031000 0.037000
1538154985190166259	900 75 1.000000 0.373000 0.390000 1800 59 1.200000 5.122000 6.289000 600 84 1.000000 0.055000 0.055000 1.200000 0.031000 0.037000
1538154985746184801	900 75 1.000000 0.373000 0.390000 1800 59 1.200000 5.128000 6.297000 600 84 1.000000 0.056000 0.056000 1.200000 0.030000 0.036000
1538154986298215010	900 75 1.000000 0.373000 0.390000 1800 59 1.200000 5.162000 6.349000 600 84 1.000000 0.056000 0.056000 1.200000 0.030000 0.036000
1538154986858186051	900 75 1.000000 0.373000 0.390000 1800 59 1.200000 5.144000 6.316000 600 84 1.000000 0.056000 0.056000 1.200000 0.030000 0.036000
1538154987414189010	900 75 1.000000 0.373000 0.390000 1800 59 1.200000 5.150000 6.324000 600 84 1.000000 0.056000 0.056000 1.200000 0.030000 0.036000
1538154987974171135	900 75 1.000000 0.373000 0.390000 1800 59 1.200000 5.149000 6.322000 600 84 1.000000 0.056000 0.056000 1.200000 0.030000 0.036000
1538154988530160718	900 75 1.000000 0.373000 0.390000 1800 59 1.200000 5.147000 6.320000 600 84 1.000000 0.056000 0.056000 1.200000 0.030000 0.036000
1538154989094208260	900 75 1.000000 0.373000 0.390000 1800 59 1.200000 5.129000 6.298000 600 84 1.000000 0.056000 0.056000 1.200000 0.030000 0.036000
1538154989650203302	900 75 1.000000 0.373000 0.390000 1800 59 1.200000 5.133000 6.303000 600 84 1.000000 0.056000 0.056000 1.200000 0.030000 0.036000
1538154990210162135	900 75 1.000000 0.373000 0.390000 1800 59 1.200000 5.143000 6.315000 600 84 1.000000 0.056000 0.056000 1.200000 0.030000 0.036000
1538154990774163427	900 75 1.000000 0.373000 0.390000 1800 59 1.200000 5.127000 6.295000 600 84 1.000000 0.056000 0.056000 1.200000 0.030000 0.036000
1538154991334210385	900 75 1.000000 0.373000 0.390000 1800 59 1.200000 5.126000 6.294000 600 84 1.000000 0.056000 0.056000 1.200000 0.030000 0.036000
1538154991894199052	900 75 1.000000 0.373000 0.390000 1800 59 1.200000 5.138000 6.309000 600 84 1.000000 0.055000 0.055000 1.200000 0.030000 0.036000
1538154992438192385	900 75 1.000000 0.373000 0.390000 1800 59 1.200000 5.136000 6.307000 600 84 1.000000 0.056000 0.056000 1.200000 0.030000 0.036000
1538154992998171010	900 75 1.000000 0.373000 0.390000 1800 59 1.200000 5.119000 6.286000 600 84 1.000000 0.056000 0.056000 1.200000 0.030000 0.036000
1538154993558196219	900 75 1.000000 0.373000 0.390000 1800 59 1.200000 5.117000 6.283000 600 84 1.000000 0.056000 0.056000 1.200000 0.030000 0.036000
1538154994110177011	900 75 1.000000 0.373000 0.390000 1800 59 1.200000 5.130000 6.299000 600 84 1.000000 0.056000 0.056000 1.200000 0.030000 0.036000
1538154994670181427	900 75 1.000000 0.373000 0.390000 1800 59 1.200000 5.122000 6.289000 600 84 1.000000 0.055000 0.055000 1.200000 0.030000 0.036000
1538154995234182386	900 75 1.000000 0.373000 0.390000 1800 59 1.200000 5.128000 6.297000 600 84 1.000000 0.056000 0.056000 1.200000 0.031000 0.037000
1538154995786177427	900 75 1.000000 0.373000 0.390000 1800 59 1.200000 5.134000 6.304000 600 84 1.000000 0.056000 0.056000 1.200000 0.030000 0.036000
1538154996350168761	900 75 1.000000 0.373000 0.390000 1800 59 1.200000 5.126000 6.294000 600 84 1.000000 0.056000 0.056000 1.200000 0.030000 0.036000
1538154996902192552	900 75 1.000000 0.373000 0.390000 1800 59 1.200000 5.133000 6.303000 600 84 1.000000 0.056000 0.056000 1.200000 0.030000 0.036000
1538154997466198719	900 75 1.000000 0.373000 0.390000 1800 59 1.200000 5.115000 6.281000 600 84 1.000000 0.056000 0.056000 1.200000 0.030000 0.036000
1538154998026152303	900 75 1.000000 0.373000 0.390000 1800 59 1.200000 5.126000 6.294000 600 84 1.000000 0.056000 0.056000 1.200000 0.029000 0.034000
1538154998578191261	900 75 1.000000 0.374000 0.391000 1800 59 1.200000 5.131000 6.300000 600 84 1.000000 0.056000 0.056000 1.200000 0.030000 0.036000
1538154999130159678	900 75 1.000000 0.374000 0.391000 1800 59 1.200000 5.121000 6.288000 600 84 1.000000 0.056000 0.056000 1.200000 0.031000 0.037000
1538154999690194511	900 75 1.000000 0.374000 0.391000 1800 59 1.200000 5.119000 6.286000 600 84 1.000000 0.056000 0.056000 1.200000 0.031000 0.037000
1538155000250156303	900 75 1.000000 0.374000 0.391000 1800 59 1.200000 5.123000 6.291000 600 84 1.000000 0.056000 0.056000 1.200000 0.031000 0.037000
1538155000810128761	900 75 1.000000 0.374000 0.391000 1800 59 1.200000 5.128000 6.297000 600 84 1.000000 0.056000 0.056000 1.200000 0.031000 0.037000
1538155001374161595	900 75 1.000000 0.374000 0.391000 1800 59 1.200000 5.118000 6.284000 600 84 1.000000 0.056000 0.056000 1.200000 0.032000 0.038000
1538155001938194095	900 75 1.000000 0.374000 0.391000 1800 59 1.200000 5.128000 6.297000 600 84 1.000000 0.056000 0.056000 1.200000 0.031000 0.037000
1538155002486165845	900 75 1.000000 0.374000 0.391000 1800 59 1.200000 5.130000 6.299000 600 84 1.000000 0.056000 0.056000 1.200000 0.031000 0.037000
1538155003042187887	900 75 1.000000 0.374000 0.391000 1800 59 1.200000 5.147000 6.320000 600 84 1.000000 0.056000 0.056000 1.200000 0.031000 0.037000
1538155003606134178	900 75 1.000000 0.374000 0.391000 1800 59 1.200000 5.170000 6.348000 600 84 1.000000 0.056000 0.056000 1.200000 0.031000 0.037000
1538155004162211095	900 75 1.000000 0.374000 0.391000 1800 59 1.200000 5.181000 6.362000 600 84 1.000000 0.056000 0.056000 1.200000 0.031000 0.037000
1538155004722150012	900 75 1.000000 0.374000 0.391000 1800 59 1.200000 5.173000 6.352000 600 84 1.000000 0.056000 0.056000 1.200000 0.031000 0.037000
1538155005282134303	900 75 1.000000 0.374000 0.391000 1800 59 1.200000 5.179000 6.359000 600 84 1.000000 0.056000 0.056000 1.200000 0.031000 0.037000
1538155005842176637	900 75 1.000000 0.374000 0.391000 1800 59 1.200000 5.180000 6.371000 600 84 1.000000 0.056000 0.056000 1.200000 0.031000 0.037000
1538155006398185470	900 75 1.000000 0.374000 0.391000 1800 59 1.200000 5.167000 6.345000 600 84 1.000000 0.056000 0.056000 1.200000 0.032000 0.038000
1538155006958173970	900 75 1.000000 0.374000 0.391000 1800 59 1.200000 5.187000 6.380000 600 84 1.000000 0.056000 0.056000 1.200000 0.032000 0.038000
1538155007510169012	900 75 1.000000 0.374000 0.391000 1800 59 1.200000 5.185000 6.367000 600 84 1.000000 0.056000 0.056000 1.200000 0.032000 0.038000
1538155008070227720	900 76 1.000000 0.374000 0.391000 1800 59 1.200000 5.185000 6.367000 600 84 1.000000 0.056000 0.056000 1.200000 0.032000 0.038000
1538155008618206387	900 75 1.000000 0.374000 0.391000 1800 59 1.200000 5.187000 6.380000 600 84 1.000000 0.056000 0.056000 1.200000 0.032000 0.038000
1538155009170197596	900 75 1.000000 0.374000 0.391000 1800 59 1.200000 5.171000 6.360000 600 84 1.000000 0.056000 0.056000 1.200000 0.031000 0.037000
1538155009726173512	900 75 1.000000 0.374000 0.391000 1800 59 1.200000 5.166000 6.354000 600 84 1.000000 0.056000 0.056000 1.200000 0.031000 0.037000
1538155010282164137	900 75 1.000000 0.374000 0.391000 1800 59 1.200000 5.167000 6.345000 600 84 1.000000 0.056000 0.056000 1.200000 0.031000 0.037000
1538155010842231721	900 75 1.000000 0.374000 0.391000 1800 59 1.200000 5.168000 6.346000 600 84 1.000000 0.056000 0.056000 1.200000 0.031000 0.037000
1538155011394189429	900 76 1.000000 0.374000 0.391000 1800 59 1.200000 5.159000 6.345000 600 84 1.000000 0.056000 0.056000 1.200000 0.032000 0.038000
1538155011954181054	900 75 1.000000 0.374000 0.391000 1800 59 1.200000 5.160000 6.346000 600 84 1.000000 0.056000 0.056000 1.200000 0.031000 0.037000
1538155012518181263	900 76 1.000000 0.374000 0.391000 1800 59 1.200000 5.181000 6.372000 600 84 1.000000 0.056000 0.056000 1.200000 0.031000 0.037000
1538155013070226471	900 75 1.000000 0.374000 0.391000 1800 59 1.200000 5.177000 6.367000 600 84 1.000000 0.056000 0.056000 1.200000 0.032000 0.038000
1538155013626208721	900 76 1.000000 0.374000 0.391000 1800 59 1.200000 5.182000 6.373000 600 85 1.000000 0.056000 0.056000 1.200000 0.032000 0.038000
1538155014186218680	900 76 1.000000 0.374000 0.391000 1800 59 1.200000 5.181000 6.372000 600 84 1.000000 0.056000 0.056000 1.200000 0.032000 0.038000
1538155014734190638	900 76 1.000000 0.374000 0.391000 1800 59 1.200000 5.176000 6.356000 600 84 1.000000 0.056000 0.056000 1.200000 0.031000 0.037000
1538155015294224346	900 75 1.000000 0.374000 0.391000 1800 59 1.200000 5.169000 6.347000 600 84 1.000000 0.056000 0.056000 1.200000 0.031000 0.037000
1538155015850247013	900 76 1.000000 0.374000 0.391000 1800 59 1.200000 5.165000 6.342000 600 84 1.000000 0.056000 0.056000 1.200000 0.031000 0.037000
1538155016402181721	900 76 1.000000 0.374000 0.391000 1800 59 1.200000 5.168000 6.346000 600 84 1.000000 0.056000 0.056000 1.200000 0.032000 0.038000
1538155016958202555	900 76 1.000000 0.374000 0.391000 1800 59 1.200000 5.169000 6.357000 600 84 1.000000 0.056000 0.056000 1.200000 0.031000 0.037000
1538155017522161222	900 76 1.000000 0.375000 0.392000 1800 59 1.200000 5.184000 6.376000 600 84 1.000000 0.056000 0.056000 1.200000 0.031000 0.037000
1538155018082195638	900 76 1.000000 0.374000 0.391000 1800 59 1.200000 5.180000 6.371000 600 84 1.000000 0.056000 0.056000 1.200000 0.031000 0.037000
1538155018646143888	900 76 1.000000 0.375000 0.392000 1800 59 1.200000 5.180000 6.371000 600 85 1.000000 0.056000 0.056000 1.200000 0.031000 0.037000
1538155019210193055	900 75 1.000000 0.374000 0.391000 1800 59 1.200000 5.182000 6.363000 600 84 1.000000 0.056000 0.056000 1.200000 0.031000 0.037000
1538155019770185430	900 76 1.000000 0.374000 0.391000 1800 59 1.200000 5.179000 6.370000 600 85 1.000000 0.056000 0.056000 1.200000 0.031000 0.037000
1538155020326202972	900 76 1.000000 0.374000 0.391000 1800 59 1.200000 5.195000 6.379000 600 84 1.000000 0.056000 0.056000 1.200000 0.031000 0.037000
1538155020866243222	900 76 1.000000 0.375000 0.392000 1800 59 1.200000 5.159000 6.335000 600 84 1.000000 0.056000 0.056000 1.200000 0.033000 0.039000
1538155021418250097	900 75 1.000000 0.375000 0.392000 1800 59 1.200000 5.148000 6.321000 600 84 1.000000 0.056000 0.056000 1.200000 0.033000 0.039000
1538155021982197430	900 76 1.000000 0.375000 0.392000 1800 59 1.200000 5.142000 6.314000 600 84 1.000000 0.056000 0.056000 1.200000 0.035000 0.042000
1538155022538216389	900 76 1.000000 0.375000 0.392000 1800 59 1.200000 5.157000 6.332000 600 84 1.000000 0.056000 0.056000 1.200000 0.032000 0.038000
1538155023090153639	900 75 1.000000 0.375000 0.392000 1800 59 1.200000 5.155000 6.330000 600 84 1.000000 0.056000 0.056000 1.200000 0.031000 0.037000
1538155023646188681	900 75 1.000000 0.375000 0.392000 1800 59 1.200000 5.155000 6.330000 600 84 1.000000 0.056000 0.056000 1.200000 0.032000 0.038000
1538155024194147847	900 75 1.000000 0.375000 0.392000 1800 59 1.200000 5.146000 6.319000 600 84 1.000000 0.056000 0.056000 1.200000 0.032000 0.038000
1538155024754182014	900 76 1.000000 0.375000 0.392000 1800 59 1.200000 5.147000 6.320000 600 84 1.000000 0.056000 0.056000 1.200000 0.032000 0.038000
1538155025314175098	900 75 1.000000 0.375000 0.392000 1800 59 1.200000 5.141000 6.323000 600 84 1.000000 0.056000 0.056000 1.200000 0.032000 0.038000
1538155025874159223	900 75 1.000000 0.375000 0.392000 1800 59 1.200000 5.137000 6.308000 600 84 1.000000 0.055000 0.055000 1.200000 0.033000 0.039000
1538155026434176639	900 75 1.000000 0.374000 0.391000 1800 59 1.200000 5.116000 6.282000 600 84 1.000000 0.056000 0.056000 1.200000 0.032000 0.038000
1538155026994173473	900 75 1.000000 0.375000 0.392000 1800 59 1.200000 5.116000 6.282000 600 84 1.000000 0.056000 0.056000 1.200000 0.031000 0.037000
1538155027554158514	900 75 1.000000 0.375000 0.392000 1800 59 1.200000 5.109000 6.273000 600 84 1.000000 0.056000 0.056000 1.200000 0.031000 0.037000
1538155028098164223	900 75 1.000000 0.375000 0.392000 1800 59 1.200000 5.112000 6.277000 600 84 1.000000 0.056000 0.056000 1.200000 0.032000 0.038000
1538155028658172556	900 75 1.000000 0.375000 0.392000 1800 59 1.200000 5.119000 6.286000 600 84 1.000000 0.056000 0.056000 1.200000 0.032000 0.038000
1538155029218171681	900 75 1.000000 0.375000 0.392000 1800 59 1.200000 5.106000 6.270000 600 84 1.000000 0.056000 0.056000 1.200000 0.031000 0.037000
1538155029770201640	900 75 1.000000 0.375000 0.392000 1800 59 1.200000 5.105000 6.268000 600 84 1.000000 0.056000 0.056000 1.200000 0.032000 0.038000
1538155030330142598	900 75 1.000000 0.375000 0.392000 1800 59 1.200000 5.104000 6.267000 600 84 1.000000 0.056000 0.056000 1.200000 0.032000 0.038000
1538155030866188723	900 75 1.000000 0.375000 0.392000 1800 59 1.200000 5.111000 6.276000 600 84 1.000000 0.056000 0.056000 1.200000 0.032000 0.038000
1538155031426163723	900 75 1.000000 0.375000 0.392000 1800 59 1.200000 5.110000 6.285000 600 84 1.000000 0.056000 0.056000 1.200000 0.031000 0.037000
1538155031978190890	900 75 1.000000 0.375000 0.392000 1800 59 1.200000 5.124000 6.292000 600 84 1.000000 0.056000 0.056000 1.200000 0.032000 0.038000
1538155032534181807	900 75 1.000000 0.375000 0.392000 1800 59 1.200000 5.096000 6.257000 600 84 1.000000 0.056000 0.056000 1.200000 0.031000 0.037000
1538155033094125390	900 75 1.000000 0.375000 0.392000 1800 59 1.200000 5.095000 6.256000 600 84 1.000000 0.056000 0.056000 1.200000 0.032000 0.038000
1538155033650154432	900 75 1.000000 0.375000 0.392000 1800 59 1.200000 5.086000 6.245000 600 84 1.000000 0.056000 0.056000 1.200000 0.031000 0.037000
1538155034210148849	900 75 1.000000 0.375000 0.392000 1800 59 1.200000 5.085000 6.244000 600 84 1.000000 0.056000 0.056000 1.200000 0.031000 0.037000
1538155034762112682	900 75 1.000000 0.375000 0.392000 1800 59 1.200000 5.089000 6.249000 600 84 1.000000 0.056000 0.056000 1.200000 0.031000 0.037000
1538155035322112307	900 75 1.000000 0.375000 0.392000 1800 59 1.200000 5.089000 6.249000 600 84 1.000000 0.056000 0.056000 1.200000 0.031000 0.037000
1538155035878153224	900 75 1.000000 0.375000 0.392000 1800 59 1.200000 5.080000 6.238000 600 84 1.000000 0.056000 0.056000 1.200000 0.031000 0.037000
1538155036434178849	900 75 1.000000 0.375000 0.392000 1800 59 1.200000 5.084000 6.243000 600 84 1.000000 0.056000 0.056000 1.200000 0.031000 0.037000
1538155036986222432	900 75 1.000000 0.375000 0.392000 1800 59 1.200000 5.080000 6.238000 600 84 1.000000 0.056000 0.056000 1.200000 0.032000 0.038000
1538155037534160557	900 75 1.000000 0.375000 0.392000 1800 59 1.200000 5.087000 6.246000 600 84 1.000000 0.056000 0.056000 1.200000 0.032000 0.038000
1538155038094147016	900 75 1.000000 0.375000 0.392000 1800 59 1.200000 5.109000 6.273000 600 84 1.000000 0.056000 0.056000 1.200000 0.031000 0.037000
1538155038646120141	900 75 1.000000 0.375000 0.392000 1800 59 1.200000 5.109000 6.273000 600 84 1.000000 0.056000 0.056000 1.200000 0.031000 0.037000
1538155039206130058	900 75 1.000000 0.375000 0.392000 1800 59 1.200000 5.109000 6.273000 600 84 1.000000 0.056000 0.056000 1.200000 0.031000 0.037000
1538155039770122558	900 75 1.000000 0.375000 0.392000 1800 59 1.200000 5.101000 6.264000 600 84 1.000000 0.056000 0.056000 1.200000 0.031000 0.037000
1538155040318124558	900 75 1.000000 0.375000 0.392000 1800 59 1.200000 5.094000 6.255000 600 84 1.000000 0.056000 0.056000 1.200000 0.031000 0.037000
1538155040882169974	900 75 1.000000 0.375000 0.392000 1800 59 1.200000 5.090000 6.250000 600 84 1.000000 0.056000 0.056000 1.200000 0.031000 0.037000
1538155041446134016	900 75 1.000000 0.375000 0.392000 1800 59 1.200000 5.090000 6.250000 600 84 1.000000 0.056000 0.056000 1.200000 0.031000 0.037000
1538155042006167808	900 75 1.000000 0.375000 0.392000 1800 59 1.200000 5.094000 6.255000 600 84 1.000000 0.056000 0.056000 1.200000 0.031000 0.037000
1538155042566158850	900 75 1.000000 0.375000 0.392000 1800 59 1.200000 5.109000 6.273000 600 84 1.000000 0.056000 0.056000 1.200000 0.031000 0.037000
1538155043114183391	900 75 1.000000 0.375000 0.392000 1800 59 1.200000 5.110000 6.275000 600 84 1.000000 0.056000 0.056000 1.200000 0.031000 0.037000
1538155043674166308	900 75 1.000000 0.375000 0.392000 1800 59 1.200000 5.145000 6.318000 600 84 1.000000 0.056000 0.056000 1.200000 0.031000 0.037000
1538155044238161100	900 75 1.000000 0.375000 0.392000 1800 59 1.200000 5.146000 6.319000 600 84 1.000000 0.056000 0.056000 1.200000 0.031000 0.037000
1538155044794186475	900 75 1.000000 0.375000 0.392000 1800 59 1.200000 5.139000 6.310000 600 84 1.000000 0.056000 0.056000 1.200000 0.031000 0.037000
1538155045354128808	900 75 1.000000 0.375000 0.392000 1800 59 1.200000 5.142000 6.314000 600 84 1.000000 0.056000 0.056000 1.200000 0.031000 0.037000
1538155045914206017	900 75 1.000000 0.375000 0.392000 1800 59 1.200000 5.136000 6.307000 600 84 1.000000 0.056000 0.056000 1.200000 0.031000 0.037000
1538155046486162350	900 75 1.000000 0.376000 0.393000 1800 59 1.200000 5.142000 6.314000 600 84 1.000000 0.056000 0.056000 1.200000 0.031000 0.037000
1538155047046177767	900 75 1.000000 0.376000 0.393000 1800 59 1.200000 5.147000 6.330000 600 84 1.000000 0.056000 0.056000 1.200000 0.031000 0.037000
1538155047598180892	900 75 1.000000 0.376000 0.393000 1800 59 1.200000 5.150000 6.324000 600 84 1.000000 0.056000 0.056000 1.200000 0.032000 0.038000
1538155048150154350	900 75 1.000000 0.376000 0.393000 1800 59 1.200000 5.150000 6.324000 600 84 1.000000 0.056000 0.056000 1.200000 0.032000 0.038000
1538155048655015017	900 75 1.000000 0.376000 0.393000 1800 59 1.200000 4.947000 6.074000 600 73 1.000000 0.056000 0.056000 1.200000 0.031000 0.037000
1538155049159811642	900 63 1.000000 0.376000 0.393000 1800 57 1.200000 3.431000 4.185000 600 69 1.000000 0.056000 0.056000 1.200000 0.032000 0.038000
1538155049664529892	900 56 1.000000 0.373000 0.390000 1800 54 1.200000 0.351000 0.422000 600 60 1.000000 0.055000 0.055000 1.200000 0.031000 0.037000
1538155050169113601	900 53 1.000000 0.372000 0.389000 1800 51 1.200000 0.319000 0.384000 600 56 1.000000 0.055000 0.055000 1.200000 0.031000 0.037000
1538155050673548601	900 50 1.000000 0.371000 0.388000 1800 49 1.200000 0.316000 0.380000 600 53 1.000000 0.055000 0.055000 1.200000 0.031000 0.037000
1538155051178049809	900 48 1.000000 0.370000 0.387000 1800 47 1.200000 0.331000 0.398000 600 51 1.000000 0.054000 0.054000 1.200000 0.031000 0.037000
1538155051682684226	900 47 1.000000 0.369000 0.386000 1800 45 1.200000 0.318000 0.383000 600 49 1.000000 0.053000 0.053000 1.200000 0.031000 0.037000
1538155052187272434	900 45 1.000000 0.368000 0.385000 1800 44 1.200000 0.311000 0.374000 600 48 1.000000 0.053000 0.053000 1.200000 0.031000 0.037000
1538155052691885351	900 44 1.000000 0.368000 0.385000 1800 43 1.200000 0.279000 0.336000 600 47 1.000000 0.053000 0.053000 1.200000 0.030000 0.036000
1538155053196349726	900 43 1.000000 0.367000 0.384000 1800 42 1.200000 0.272000 0.327000 600 46 1.000000 0.053000 0.053000 1.200000 0.031000 0.037000
1538155053700792309	900 43 1.000000 0.367000 0.384000 1800 41 1.200000 0.272000 0.327000 600 45 1.000000 0.053000 0.053000 1.200000 0.031000 0.037000
1538155054205454643	900 42 1.000000 0.366000 0.383000 1800 41 1.200000 0.278000 0.334000 600 44 1.000000 0.052000 0.052000 1.200000 0.031000 0.037000
1538155054709915726	900 41 1.000000 0.366000 0.383000 1800 40 1.200000 0.271000 0.326000 600 43 1.000000 0.052000 0.052000 1.200000 0.031000 0.037000
1538155055214477309	900 41 1.000000 0.366000 0.383000 1800 39 1.200000 0.262000 0.315000 600 43 1.000000 0.052000 0.052000 1.200000 0.031000 0.037000
1538155055718940601	900 40 1.000000 0.366000 0.383000 1800 39 1.200000 0.264000 0.317000 600 42 1.000000 0.052000 0.052000 1.200000 0.031000 0.037000
1538155056223524560	900 39 1.000000 0.365000 0.382000 1800 38 1.200000 0.264000 0.317000 600 42 1.000000 0.052000 0.052000 1.200000 0.031000 0.037000
1538155056728241018	900 39 1.000000 0.366000 0.383000 1800 38 1.200000 0.288000 0.346000 600 41 1.000000 0.052000 0.052000 1.200000 0.031000 0.037000
1538155057232618351	900 39 1.000000 0.365000 0.382000 1800 37 1.200000 0.271000 0.326000 600 41 1.000000 0.052000 0.052000 1.200000 0.032000 0.038000
1538155057737255018	900 38 1.000000 0.365000 0.382000 1800 37 1.200000 0.262000 0.315000 600 40 1.000000 0.051000 0.051000 1.200000 0.031000 0.037000
1538155058241714726	900 38 1.000000 0.365000 0.382000 1800 37 1.200000 0.261000 0.314000 600 40 1.000000 0.051000 0.051000 1.200000 0.031000 0.037000
1538155058746196393	900 38 1.000000 0.365000 0.382000 1800 36 1.200000 0.262000 0.315000 600 40 1.000000 0.051000 0.051000 1.200000 0.031000 0.037000
1538155059250668018	900 37 1.000000 0.364000 0.381000 1800 36 1.200000 0.260000 0.312000 600 39 1.000000 0.051000 0.051000 1.200000 0.031000 0.037000
1538155059755198727	900 37 1.000000 0.364000 0.381000 1800 36 1.200000 0.261000 0.314000 600 39 1.000000 0.051000 0.051000 1.200000 0.031000 0.037000
1538155060259652852	900 37 1.000000 0.364000 0.381000 1800 35 1.200000 0.286000 0.344000 600 39 1.000000 0.051000 0.051000 1.200000 0.031000 0.037000
1538155060764096602	900 37 1.000000 0.364000 0.381000 1800 35 1.200000 0.269000 0.324000 600 39 1.000000 0.051000 0.051000 1.200000 0.031000 0.037000
1538155061268588685	900 36 1.000000 0.364000 0.381000 1800 35 1.200000 0.268000 0.322000 600 38 1.000000 0.051000 0.051000 1.200000 0.031000 0.037000
1538155061773232685	900 36 1.000000 0.364000 0.381000 1800 35 1.200000 0.296000 0.356000 600 38 1.000000 0.051000 0.051000 1.200000 0.031000 0.037000
1538155062277696352	900 36 1.000000 0.364000 0.381000 1800 34 1.200000 0.255000 0.307000 600 38 1.000000 0.051000 0.051000 1.200000 0.031000 0.037000
1538155062782223435	900 36 1.000000 0.364000 0.381000 1800 34 1.200000 0.277000 0.333000 600 37 1.000000 0.051000 0.051000 1.200000 0.032000 0.038000
1538155063286704560	900 35 1.000000 0.364000 0.381000 1800 34 1.200000 0.276000 0.332000 600 37 1.000000 0.051000 0.051000 1.200000 0.031000 0.037000
1538155063791269644	900 35 1.000000 0.364000 0.381000 1800 34 1.200000 0.260000 0.312000 600 37 1.000000 0.051000 0.051000 1.200000 0.031000 0.037000
1538155064295791602	900 35 1.000000 0.364000 0.381000 1800 34 1.200000 0.287000 0.345000 600 37 1.000000 0.051000 0.051000 1.200000 0.031000 0.037000
1538155064800343852	900 35 1.000000 0.364000 0.381000 1800 33 1.200000 0.254000 0.306000 600 37 1.000000 0.051000 0.051000 1.200000 0.031000 0.037000
1538155065304839394	900 35 1.000000 0.363000 0.380000 1800 33 1.200000 0.274000 0.330000 600 37 1.000000 0.051000 0.051000 1.200000 0.031000 0.037000
1538155065809497311	900 35 1.000000 0.364000 0.381000 1800 33 1.200000 0.284000 0.342000 600 36 1.000000 0.051000 0.051000 1.200000 0.031000 0.037000
1538155066313947186	900 34 1.000000 0.335000 0.350000 1800 33 1.200000 0.257000 0.309000 600 36 1.000000 0.051000 0.051000 1.200000 0.031000 0.037000
1538155066818463186	900 33 1.000000 0.283000 0.296000 1800 32 1.200000 0.278000 0.334000 600 36 1.000000 0.051000 0.051000 1.200000 0.030000 0.036000
1538155067323107978	900 33 1.000000 0.124000 0.131000 1800 32 1.200000 0.243000 0.292000 600 36 1.000000 0.051000 0.051000 1.200000 0.025000 0.030000
1538155067827922061	900 32 1.000000 0.040000 0.042000 1800 31 1.200000 0.281000 0.338000 600 35 1.000000 0.051000 0.051000 1.200000 0.025000 0.030000
