#Timestamp	CPU(0) Frequency(MHz)	CPU(0) Temperature(C)	A7 Voltage(V)	A7 Current(A)	A7 Power(W)	CPU(4) Frequency(MHz)	CPU(4) Temperature(C)	A15 Voltage(V)	A15 Current(A)	A15 Power(W)	GPU Frequency(MHz)	GPU Temperature(C)	GPU Voltage(V)	GPU Current(A)	GPU Power(W)	RAM Voltage(V)	RAM Current(A)	RAM Power(W)
1518052705314761211	800 44 1.000000 0.040000 0.041000 900 43 0.900000 0.501000 0.473000 600 47 1.000000 0.053000 0.053000 1.200000 0.045000 0.054000
1518052705823875169	800 44 1.000000 0.042000 0.043000 900 42 0.900000 0.481000 0.453000 600 48 1.000000 0.053000 0.053000 1.200000 0.032000 0.038000
1518052706332777086	800 43 1.000000 0.042000 0.043000 900 43 0.900000 0.484000 0.456000 600 47 1.000000 0.053000 0.053000 1.200000 0.036000 0.043000
1518052706841662795	800 44 1.000000 0.041000 0.042000 900 42 0.900000 0.483000 0.454000 600 47 1.000000 0.053000 0.053000 1.200000 0.038000 0.045000
1518052707402023378	800 47 1.000000 0.041000 0.042000 900 43 0.900000 0.914000 0.860000 600 51 1.000000 0.053000 0.053000 1.200000 0.039000 0.047000
1518052707965940795	800 49 1.000000 0.311000 0.314000 900 45 0.900000 1.818000 1.719000 600 53 1.000000 0.053000 0.053000 1.200000 0.033000 0.039000
1518052708529964336	800 50 1.000000 0.312000 0.315000 900 45 0.900000 1.820000 1.721000 600 54 1.000000 0.053000 0.053000 1.200000 0.032000 0.038000
1518052709097974087	800 50 1.000000 0.313000 0.316000 900 46 0.900000 1.822000 1.723000 600 55 1.000000 0.053000 0.053000 1.200000 0.032000 0.038000
1518052709641947878	800 51 1.000000 0.313000 0.316000 900 46 0.900000 1.824000 1.725000 600 55 1.000000 0.054000 0.054000 1.200000 0.032000 0.038000
1518052710193982420	800 51 1.000000 0.313000 0.316000 900 47 0.900000 1.820000 1.721000 600 56 1.000000 0.054000 0.054000 1.200000 0.032000 0.038000
1518052710757914045	800 52 1.000000 0.313000 0.316000 900 47 0.900000 1.818000 1.719000 600 56 1.000000 0.054000 0.054000 1.200000 0.032000 0.038000
1518052711317947628	800 52 1.000000 0.313000 0.316000 900 47 0.900000 1.818000 1.719000 600 56 1.000000 0.054000 0.054000 1.200000 0.032000 0.038000
1518052711885963212	800 52 1.000000 0.314000 0.317000 900 48 0.900000 1.827000 1.728000 600 56 1.000000 0.054000 0.054000 1.200000 0.032000 0.038000
1518052712429914545	800 52 1.000000 0.314000 0.317000 900 48 0.900000 1.828000 1.729000 600 57 1.000000 0.054000 0.054000 1.200000 0.032000 0.038000
1518052712985968879	800 52 1.000000 0.314000 0.317000 900 48 0.900000 1.827000 1.728000 600 57 1.000000 0.054000 0.054000 1.200000 0.032000 0.038000
1518052713545988420	800 53 1.000000 0.314000 0.317000 900 48 0.900000 1.828000 1.729000 600 57 1.000000 0.054000 0.054000 1.200000 0.032000 0.038000
1518052714113923920	800 53 1.000000 0.313000 0.316000 900 48 0.900000 1.829000 1.730000 600 57 1.000000 0.054000 0.054000 1.200000 0.032000 0.038000
1518052714677924671	800 53 1.000000 0.313000 0.316000 900 48 0.900000 1.828000 1.729000 600 57 1.000000 0.054000 0.054000 1.200000 0.032000 0.038000
1518052715237911046	800 53 1.000000 0.314000 0.317000 900 49 0.900000 1.829000 1.730000 600 57 1.000000 0.054000 0.054000 1.200000 0.032000 0.038000
1518052715793972421	800 53 1.000000 0.314000 0.317000 900 49 0.900000 1.827000 1.728000 600 57 1.000000 0.054000 0.054000 1.200000 0.032000 0.038000
1518052716357962879	800 53 1.000000 0.314000 0.317000 900 49 0.900000 1.819000 1.718000 600 57 1.000000 0.054000 0.054000 1.200000 0.032000 0.038000
1518052716917939087	800 53 1.000000 0.314000 0.317000 900 49 0.900000 1.828000 1.727000 600 57 1.000000 0.054000 0.054000 1.200000 0.031000 0.037000
1518052717481906421	800 53 1.000000 0.315000 0.318000 900 49 0.900000 1.828000 1.729000 600 58 1.000000 0.054000 0.054000 1.200000 0.031000 0.037000
1518052718037978254	800 53 1.000000 0.314000 0.317000 900 49 0.900000 1.828000 1.727000 600 58 1.000000 0.054000 0.054000 1.200000 0.031000 0.037000
1518052718601956254	800 53 1.000000 0.314000 0.317000 900 49 0.900000 1.823000 1.722000 600 58 1.000000 0.054000 0.054000 1.200000 0.032000 0.038000
1518052719169924546	800 53 1.000000 0.314000 0.317000 900 49 0.900000 1.824000 1.723000 600 58 1.000000 0.054000 0.054000 1.200000 0.032000 0.038000
1518052719717937671	800 53 1.000000 0.314000 0.317000 900 49 0.900000 1.822000 1.721000 600 58 1.000000 0.054000 0.054000 1.200000 0.032000 0.038000
1518052720285933421	800 53 1.000000 0.314000 0.317000 900 49 0.900000 1.816000 1.716000 600 58 1.000000 0.054000 0.054000 1.200000 0.032000 0.038000
1518052720837947255	800 53 1.000000 0.314000 0.317000 900 49 0.900000 1.822000 1.721000 600 58 1.000000 0.054000 0.054000 1.200000 0.032000 0.038000
1518052721401947296	800 53 1.000000 0.314000 0.317000 900 49 0.900000 1.813000 1.713000 600 58 1.000000 0.054000 0.054000 1.200000 0.031000 0.037000
1518052721949914338	800 53 1.000000 0.314000 0.317000 900 49 0.900000 1.813000 1.713000 600 58 1.000000 0.054000 0.054000 1.200000 0.032000 0.038000
1518052722513916421	800 54 1.000000 0.314000 0.317000 900 49 0.900000 1.817000 1.718000 600 58 1.000000 0.054000 0.054000 1.200000 0.031000 0.037000
1518052723057887005	800 53 1.000000 0.314000 0.317000 900 49 0.900000 1.816000 1.717000 600 58 1.000000 0.055000 0.055000 1.200000 0.032000 0.038000
1518052723605992422	800 54 1.000000 0.314000 0.317000 900 49 0.900000 1.821000 1.722000 600 58 1.000000 0.054000 0.054000 1.200000 0.031000 0.037000
1518052724153914713	800 54 1.000000 0.314000 0.317000 900 49 0.900000 1.819000 1.718000 600 58 1.000000 0.054000 0.054000 1.200000 0.032000 0.038000
1518052724701912172	800 54 1.000000 0.314000 0.317000 900 49 0.900000 1.818000 1.719000 600 58 1.000000 0.054000 0.054000 1.200000 0.032000 0.038000
1518052725269974338	800 54 1.000000 0.314000 0.317000 900 49 0.900000 1.821000 1.720000 600 58 1.000000 0.054000 0.054000 1.200000 0.032000 0.038000
1518052725829933755	800 54 1.000000 0.314000 0.317000 900 49 0.900000 1.823000 1.722000 600 58 1.000000 0.054000 0.054000 1.200000 0.031000 0.037000
1518052726397917339	800 54 1.000000 0.314000 0.317000 900 49 0.900000 1.823000 1.722000 600 58 1.000000 0.054000 0.054000 1.200000 0.032000 0.038000
1518052726957911005	800 54 1.000000 0.314000 0.317000 900 49 0.900000 1.823000 1.724000 600 58 1.000000 0.054000 0.054000 1.200000 0.031000 0.037000
1518052727521927630	800 54 1.000000 0.314000 0.317000 900 49 0.900000 1.819000 1.718000 600 58 1.000000 0.054000 0.054000 1.200000 0.031000 0.037000
1518052728081881505	800 54 1.000000 0.314000 0.317000 900 49 0.900000 1.818000 1.718000 600 58 1.000000 0.054000 0.054000 1.200000 0.032000 0.038000
1518052728633932589	800 54 1.000000 0.314000 0.317000 900 49 0.900000 1.818000 1.719000 600 58 1.000000 0.055000 0.055000 1.200000 0.032000 0.038000
1518052729193936547	800 54 1.000000 0.314000 0.317000 900 49 0.900000 1.811000 1.711000 600 58 1.000000 0.055000 0.055000 1.200000 0.032000 0.038000
1518052729750008506	800 54 1.000000 0.314000 0.317000 900 49 0.900000 1.814000 1.714000 600 58 1.000000 0.054000 0.054000 1.200000 0.032000 0.038000
1518052730309952589	800 54 1.000000 0.314000 0.317000 900 49 0.900000 1.816000 1.717000 600 58 1.000000 0.054000 0.054000 1.200000 0.032000 0.038000
1518052730869877631	800 54 1.000000 0.315000 0.318000 900 49 0.900000 1.835000 1.735000 600 58 1.000000 0.055000 0.055000 1.200000 0.032000 0.038000
1518052731421918798	800 54 1.000000 0.314000 0.317000 900 49 0.900000 1.836000 1.736000 600 58 1.000000 0.054000 0.054000 1.200000 0.032000 0.038000
1518052731985944423	800 54 1.000000 0.315000 0.318000 900 49 0.900000 1.835000 1.734000 600 58 1.000000 0.055000 0.055000 1.200000 0.031000 0.037000
1518052732545932048	800 54 1.000000 0.314000 0.317000 900 49 0.900000 1.829000 1.730000 600 58 1.000000 0.054000 0.054000 1.200000 0.031000 0.037000
1518052733097952173	800 54 1.000000 0.314000 0.317000 900 50 0.900000 1.829000 1.730000 600 58 1.000000 0.054000 0.054000 1.200000 0.032000 0.038000
1518052733653884298	800 54 1.000000 0.314000 0.317000 900 49 0.900000 1.828000 1.729000 600 58 1.000000 0.055000 0.055000 1.200000 0.032000 0.038000
1518052734205961131	800 54 1.000000 0.315000 0.318000 900 49 0.900000 1.831000 1.732000 600 58 1.000000 0.055000 0.055000 1.200000 0.031000 0.037000
1518052734773987298	800 54 1.000000 0.315000 0.318000 900 50 0.900000 1.832000 1.733000 600 58 1.000000 0.054000 0.054000 1.200000 0.031000 0.037000
1518052735333966715	800 54 1.000000 0.315000 0.318000 900 50 0.900000 1.830000 1.729000 600 59 1.000000 0.054000 0.054000 1.200000 0.032000 0.038000
1518052735893971881	800 54 1.000000 0.314000 0.317000 900 50 0.900000 1.826000 1.727000 600 58 1.000000 0.055000 0.055000 1.200000 0.031000 0.037000
1518052736445902006	800 54 1.000000 0.315000 0.318000 900 50 0.900000 1.835000 1.735000 600 58 1.000000 0.054000 0.054000 1.200000 0.032000 0.038000
1518052737017954465	800 54 1.000000 0.315000 0.318000 900 50 0.900000 1.834000 1.734000 600 58 1.000000 0.054000 0.054000 1.200000 0.031000 0.037000
1518052737581975007	800 54 1.000000 0.315000 0.318000 900 50 0.900000 1.830000 1.731000 600 58 1.000000 0.054000 0.054000 1.200000 0.032000 0.038000
1518052738141917423	800 54 1.000000 0.315000 0.318000 900 50 0.900000 1.825000 1.724000 600 58 1.000000 0.054000 0.054000 1.200000 0.031000 0.037000
1518052738713935882	800 54 1.000000 0.315000 0.318000 900 50 0.900000 1.828000 1.729000 600 58 1.000000 0.055000 0.055000 1.200000 0.032000 0.038000
1518052739289964882	800 54 1.000000 0.315000 0.318000 900 50 0.900000 1.827000 1.728000 600 58 1.000000 0.054000 0.054000 1.200000 0.032000 0.038000
1518052739849954424	800 54 1.000000 0.315000 0.318000 900 50 0.900000 1.832000 1.733000 600 59 1.000000 0.054000 0.054000 1.200000 0.032000 0.038000
1518052740413934090	800 54 1.000000 0.315000 0.318000 900 50 0.900000 1.833000 1.732000 600 58 1.000000 0.055000 0.055000 1.200000 0.032000 0.038000
1518052740978008674	800 54 1.000000 0.315000 0.318000 900 50 0.900000 1.832000 1.731000 600 59 1.000000 0.054000 0.054000 1.200000 0.032000 0.038000
1518052741530011590	800 54 1.000000 0.315000 0.318000 900 50 0.900000 1.835000 1.735000 600 58 1.000000 0.055000 0.055000 1.200000 0.032000 0.038000
1518052742082039924	800 54 1.000000 0.315000 0.318000 900 50 0.900000 1.832000 1.733000 600 58 1.000000 0.054000 0.054000 1.200000 0.032000 0.038000
1518052742637965382	800 54 1.000000 0.315000 0.318000 900 50 0.900000 1.829000 1.730000 600 59 1.000000 0.055000 0.055000 1.200000 0.032000 0.038000
1518052743197957966	800 54 1.000000 0.315000 0.318000 900 50 0.900000 1.825000 1.726000 600 59 1.000000 0.055000 0.055000 1.200000 0.032000 0.038000
1518052743765979799	800 54 1.000000 0.315000 0.318000 900 50 0.900000 1.824000 1.725000 600 59 1.000000 0.054000 0.054000 1.200000 0.032000 0.038000
1518052744329969924	800 54 1.000000 0.315000 0.318000 900 50 0.900000 1.831000 1.730000 600 58 1.000000 0.054000 0.054000 1.200000 0.031000 0.037000
1518052744886002257	800 54 1.000000 0.315000 0.318000 900 50 0.900000 1.830000 1.731000 600 59 1.000000 0.054000 0.054000 1.200000 0.031000 0.037000
1518052745449963841	800 54 1.000000 0.315000 0.318000 900 50 0.900000 1.832000 1.733000 600 58 1.000000 0.054000 0.054000 1.200000 0.032000 0.038000
1518052746025931966	800 54 1.000000 0.315000 0.318000 900 50 0.900000 1.831000 1.732000 600 59 1.000000 0.054000 0.054000 1.200000 0.032000 0.038000
1518052746565972258	800 54 1.000000 0.315000 0.318000 900 50 0.900000 1.832000 1.733000 600 59 1.000000 0.055000 0.055000 1.200000 0.032000 0.038000
1518052747121877883	800 54 1.000000 0.315000 0.318000 900 50 0.900000 1.832000 1.733000 600 59 1.000000 0.054000 0.054000 1.200000 0.032000 0.038000
1518052747665990883	800 54 1.000000 0.315000 0.318000 900 50 0.900000 1.828000 1.727000 600 59 1.000000 0.055000 0.055000 1.200000 0.032000 0.038000
1518052748217966675	800 54 1.000000 0.315000 0.318000 900 50 0.900000 1.830000 1.729000 600 58 1.000000 0.055000 0.055000 1.200000 0.032000 0.038000
1518052748777945966	800 54 1.000000 0.315000 0.318000 900 50 0.900000 1.824000 1.725000 600 59 1.000000 0.055000 0.055000 1.200000 0.031000 0.037000
1518052749345925091	800 54 1.000000 0.315000 0.318000 900 50 0.900000 1.832000 1.733000 600 59 1.000000 0.055000 0.055000 1.200000 0.031000 0.037000
1518052749905903008	800 54 1.000000 0.315000 0.318000 900 50 0.900000 1.833000 1.734000 600 59 1.000000 0.054000 0.054000 1.200000 0.031000 0.037000
1518052750465914216	800 54 1.000000 0.315000 0.318000 900 50 0.900000 1.832000 1.733000 600 59 1.000000 0.054000 0.054000 1.200000 0.032000 0.038000
1518052751013974592	800 54 1.000000 0.315000 0.318000 900 50 0.900000 1.832000 1.733000 600 59 1.000000 0.055000 0.055000 1.200000 0.031000 0.037000
1518052751562153217	800 54 1.000000 0.315000 0.318000 900 50 0.900000 1.833000 1.734000 600 59 1.000000 0.055000 0.055000 1.200000 0.032000 0.038000
1518052752137950592	800 54 1.000000 0.315000 0.318000 900 50 0.900000 1.833000 1.734000 600 59 1.000000 0.055000 0.055000 1.200000 0.032000 0.038000
1518052752697955383	800 54 1.000000 0.315000 0.318000 900 50 0.900000 1.834000 1.734000 600 59 1.000000 0.054000 0.054000 1.200000 0.031000 0.037000
1518052753261998217	800 54 1.000000 0.315000 0.318000 900 50 0.900000 1.837000 1.737000 600 59 1.000000 0.054000 0.054000 1.200000 0.031000 0.037000
1518052753821974759	800 54 1.000000 0.315000 0.318000 900 50 0.900000 1.844000 1.744000 600 59 1.000000 0.054000 0.054000 1.200000 0.031000 0.037000
1518052754381963592	800 54 1.000000 0.315000 0.318000 900 50 0.900000 1.827000 1.728000 600 59 1.000000 0.055000 0.055000 1.200000 0.031000 0.037000
1518052754949949009	800 54 1.000000 0.315000 0.318000 900 50 0.900000 1.828000 1.729000 600 59 1.000000 0.055000 0.055000 1.200000 0.031000 0.037000
1518052755521897592	800 54 1.000000 0.315000 0.318000 900 50 0.900000 1.825000 1.726000 600 59 1.000000 0.055000 0.055000 1.200000 0.031000 0.037000
1518052756085863800	800 54 1.000000 0.315000 0.318000 900 50 0.900000 1.832000 1.733000 600 59 1.000000 0.055000 0.055000 1.200000 0.031000 0.037000
1518052756641954884	800 54 1.000000 0.315000 0.318000 900 50 0.900000 1.830000 1.731000 600 59 1.000000 0.055000 0.055000 1.200000 0.031000 0.037000
1518052757209959467	800 54 1.000000 0.315000 0.318000 900 50 0.900000 1.828000 1.729000 600 59 1.000000 0.054000 0.054000 1.200000 0.031000 0.037000
1518052757765969551	800 54 1.000000 0.315000 0.318000 900 50 0.900000 1.828000 1.729000 600 59 1.000000 0.054000 0.054000 1.200000 0.032000 0.038000
1518052758333951592	800 54 1.000000 0.315000 0.318000 900 50 0.900000 1.835000 1.735000 600 58 1.000000 0.054000 0.054000 1.200000 0.031000 0.037000
1518052758889879134	800 54 1.000000 0.315000 0.318000 900 50 0.900000 1.825000 1.726000 600 59 1.000000 0.055000 0.055000 1.200000 0.031000 0.037000
1518052759453986884	800 54 1.000000 0.315000 0.318000 900 50 0.900000 1.833000 1.734000 600 59 1.000000 0.054000 0.054000 1.200000 0.033000 0.039000
1518052760013955426	800 54 1.000000 0.315000 0.318000 900 50 0.900000 1.832000 1.733000 600 59 1.000000 0.054000 0.054000 1.200000 0.032000 0.038000
1518052760573991384	800 54 1.000000 0.316000 0.319000 900 50 0.900000 1.830000 1.731000 600 59 1.000000 0.055000 0.055000 1.200000 0.033000 0.039000
1518052761138028843	800 54 1.000000 0.315000 0.318000 900 50 0.900000 1.829000 1.730000 600 59 1.000000 0.055000 0.055000 1.200000 0.033000 0.039000
1518052761697945384	800 54 1.000000 0.316000 0.319000 900 50 0.900000 1.828000 1.729000 600 59 1.000000 0.055000 0.055000 1.200000 0.032000 0.038000
1518052762265944301	800 54 1.000000 0.315000 0.318000 900 50 0.900000 1.833000 1.734000 600 59 1.000000 0.054000 0.054000 1.200000 0.032000 0.038000
1518052762825982051	800 54 1.000000 0.316000 0.319000 900 50 0.900000 1.835000 1.735000 600 59 1.000000 0.054000 0.054000 1.200000 0.032000 0.038000
1518052763405932426	800 54 1.000000 0.316000 0.319000 900 50 0.900000 1.832000 1.733000 600 59 1.000000 0.055000 0.055000 1.200000 0.033000 0.039000
1518052763957962510	800 54 1.000000 0.315000 0.318000 900 50 0.900000 1.827000 1.728000 600 59 1.000000 0.055000 0.055000 1.200000 0.033000 0.039000
1518052764517972676	800 54 1.000000 0.316000 0.319000 900 50 0.900000 1.834000 1.734000 600 59 1.000000 0.054000 0.054000 1.200000 0.032000 0.038000
1518052765081971927	800 54 1.000000 0.316000 0.319000 900 50 0.900000 1.816000 1.716000 600 59 1.000000 0.054000 0.054000 1.200000 0.033000 0.039000
1518052765634020760	800 54 1.000000 0.316000 0.319000 900 50 0.900000 1.811000 1.711000 600 59 1.000000 0.055000 0.055000 1.200000 0.033000 0.039000
1518052766194102427	800 54 1.000000 0.316000 0.319000 900 50 0.900000 1.816000 1.716000 600 59 1.000000 0.055000 0.055000 1.200000 0.032000 0.038000
1518052766761921968	800 54 1.000000 0.316000 0.319000 900 50 0.900000 1.820000 1.721000 600 59 1.000000 0.055000 0.055000 1.200000 0.032000 0.038000
1518052767313909260	800 54 1.000000 0.316000 0.319000 900 50 0.900000 1.820000 1.721000 600 59 1.000000 0.054000 0.054000 1.200000 0.032000 0.038000
1518052767869857469	800 54 1.000000 0.316000 0.319000 900 50 0.900000 1.821000 1.722000 600 58 1.000000 0.054000 0.054000 1.200000 0.032000 0.038000
1518052768433910260	800 54 1.000000 0.316000 0.319000 900 50 0.900000 1.814000 1.716000 600 59 1.000000 0.054000 0.054000 1.200000 0.033000 0.039000
1518052768993956260	800 54 1.000000 0.316000 0.319000 900 50 0.900000 1.810000 1.710000 600 59 1.000000 0.055000 0.055000 1.200000 0.032000 0.038000
1518052769553972760	800 54 1.000000 0.316000 0.319000 900 50 0.900000 1.814000 1.714000 600 59 1.000000 0.055000 0.055000 1.200000 0.033000 0.039000
1518052770122007719	800 54 1.000000 0.316000 0.319000 900 50 0.900000 1.817000 1.717000 600 59 1.000000 0.054000 0.054000 1.200000 0.032000 0.038000
1518052770689936719	800 54 1.000000 0.316000 0.319000 900 50 0.900000 1.819000 1.720000 600 59 1.000000 0.055000 0.055000 1.200000 0.032000 0.038000
1518052771237961136	800 54 1.000000 0.315000 0.318000 900 50 0.900000 1.820000 1.721000 600 59 1.000000 0.055000 0.055000 1.200000 0.033000 0.039000
1518052771801967761	800 54 1.000000 0.315000 0.318000 900 50 0.900000 1.819000 1.720000 600 59 1.000000 0.054000 0.054000 1.200000 0.033000 0.039000
1518052772353935261	800 54 1.000000 0.316000 0.319000 900 50 0.900000 1.821000 1.722000 600 59 1.000000 0.054000 0.054000 1.200000 0.032000 0.038000
1518052772921929719	800 54 1.000000 0.315000 0.318000 900 50 0.900000 1.821000 1.722000 600 59 1.000000 0.054000 0.054000 1.200000 0.033000 0.039000
1518052773473946011	800 54 1.000000 0.316000 0.319000 900 50 0.900000 1.813000 1.715000 600 58 1.000000 0.055000 0.055000 1.200000 0.033000 0.039000
1518052774033941053	800 54 1.000000 0.316000 0.319000 900 50 0.900000 1.812000 1.714000 600 59 1.000000 0.055000 0.055000 1.200000 0.032000 0.038000
1518052774585954761	800 54 1.000000 0.315000 0.318000 900 50 0.900000 1.811000 1.713000 600 59 1.000000 0.055000 0.055000 1.200000 0.032000 0.038000
1518052775141932719	800 54 1.000000 0.316000 0.319000 900 50 0.900000 1.809000 1.711000 600 59 1.000000 0.055000 0.055000 1.200000 0.032000 0.038000
1518052775713970678	800 54 1.000000 0.315000 0.318000 900 50 0.900000 1.816000 1.717000 600 59 1.000000 0.054000 0.054000 1.200000 0.032000 0.038000
1518052776269919261	800 54 1.000000 0.315000 0.318000 900 50 0.900000 1.820000 1.721000 600 59 1.000000 0.054000 0.054000 1.200000 0.032000 0.038000
1518052776833911345	800 54 1.000000 0.315000 0.318000 900 50 0.900000 1.821000 1.722000 600 59 1.000000 0.054000 0.054000 1.200000 0.032000 0.038000
1518052777397912845	800 54 1.000000 0.316000 0.319000 900 50 0.900000 1.823000 1.724000 600 59 1.000000 0.054000 0.054000 1.200000 0.033000 0.039000
1518052777961960803	800 54 1.000000 0.315000 0.318000 900 50 0.900000 1.822000 1.723000 600 59 1.000000 0.055000 0.055000 1.200000 0.033000 0.039000
1518052778529925678	800 54 1.000000 0.315000 0.318000 900 50 0.900000 1.823000 1.724000 600 59 1.000000 0.054000 0.054000 1.200000 0.033000 0.039000
1518052779093946845	800 54 1.000000 0.316000 0.319000 900 50 0.900000 1.823000 1.724000 600 59 1.000000 0.054000 0.054000 1.200000 0.033000 0.039000
1518052779649963137	800 54 1.000000 0.316000 0.319000 900 50 0.900000 1.818000 1.719000 600 59 1.000000 0.054000 0.054000 1.200000 0.033000 0.039000
1518052780213947303	800 54 1.000000 0.316000 0.319000 900 50 0.900000 1.823000 1.722000 600 59 1.000000 0.054000 0.054000 1.200000 0.032000 0.038000
1518052780761952053	800 54 1.000000 0.316000 0.319000 900 50 0.900000 1.824000 1.723000 600 59 1.000000 0.055000 0.055000 1.200000 0.033000 0.039000
1518052781313899678	800 54 1.000000 0.316000 0.319000 900 50 0.900000 1.823000 1.722000 600 59 1.000000 0.054000 0.054000 1.200000 0.033000 0.039000
1518052781865973554	800 54 1.000000 0.316000 0.319000 900 50 0.900000 1.824000 1.723000 600 59 1.000000 0.055000 0.055000 1.200000 0.033000 0.039000
1518052782425913137	800 54 1.000000 0.316000 0.319000 900 50 0.900000 1.823000 1.722000 600 59 1.000000 0.055000 0.055000 1.200000 0.033000 0.039000
1518052782977942054	800 54 1.000000 0.315000 0.318000 900 50 0.900000 1.823000 1.724000 600 59 1.000000 0.055000 0.055000 1.200000 0.033000 0.039000
1518052783529894720	800 54 1.000000 0.315000 0.318000 900 50 0.900000 1.823000 1.722000 600 59 1.000000 0.054000 0.054000 1.200000 0.032000 0.038000
1518052784085944304	800 54 1.000000 0.316000 0.319000 900 50 0.900000 1.822000 1.721000 600 59 1.000000 0.055000 0.055000 1.200000 0.033000 0.039000
1518052784633979971	800 54 1.000000 0.316000 0.319000 900 50 0.900000 1.816000 1.716000 600 59 1.000000 0.054000 0.054000 1.200000 0.032000 0.038000
1518052785201879971	800 54 1.000000 0.315000 0.318000 900 50 0.900000 1.816000 1.717000 600 59 1.000000 0.055000 0.055000 1.200000 0.033000 0.039000
1518052785761966929	800 54 1.000000 0.315000 0.318000 900 50 0.900000 1.824000 1.725000 600 59 1.000000 0.055000 0.055000 1.200000 0.033000 0.039000
1518052786313978679	800 54 1.000000 0.315000 0.318000 900 50 0.900000 1.824000 1.725000 600 59 1.000000 0.054000 0.054000 1.200000 0.032000 0.038000
1518052786881956012	800 54 1.000000 0.315000 0.318000 900 50 0.900000 1.824000 1.725000 600 59 1.000000 0.054000 0.054000 1.200000 0.033000 0.039000
1518052787441970429	800 54 1.000000 0.315000 0.318000 900 50 0.900000 1.820000 1.721000 600 59 1.000000 0.054000 0.054000 1.200000 0.033000 0.039000
1518052788001947554	800 54 1.000000 0.315000 0.318000 900 50 0.900000 1.819000 1.720000 600 59 1.000000 0.055000 0.055000 1.200000 0.033000 0.039000
1518052788570004763	800 54 1.000000 0.315000 0.318000 900 50 0.900000 1.817000 1.718000 600 59 1.000000 0.055000 0.055000 1.200000 0.033000 0.039000
1518052789125928221	800 54 1.000000 0.315000 0.318000 900 50 0.900000 1.816000 1.717000 600 59 1.000000 0.054000 0.054000 1.200000 0.033000 0.039000
1518052789681902679	800 54 1.000000 0.315000 0.318000 900 50 0.900000 1.815000 1.716000 600 59 1.000000 0.054000 0.054000 1.200000 0.033000 0.039000
1518052790249964638	800 54 1.000000 0.315000 0.318000 900 50 0.900000 1.812000 1.712000 600 59 1.000000 0.055000 0.055000 1.200000 0.033000 0.039000
1518052790801892388	800 54 1.000000 0.315000 0.318000 900 50 0.900000 1.804000 1.706000 600 59 1.000000 0.054000 0.054000 1.200000 0.032000 0.038000
1518052791361906680	800 54 1.000000 0.315000 0.318000 900 50 0.900000 1.807000 1.709000 600 59 1.000000 0.055000 0.055000 1.200000 0.033000 0.039000
1518052791921917805	800 54 1.000000 0.315000 0.318000 900 50 0.900000 1.807000 1.709000 600 59 1.000000 0.054000 0.054000 1.200000 0.033000 0.039000
1518052792489908513	800 54 1.000000 0.315000 0.318000 900 50 0.900000 1.809000 1.711000 600 59 1.000000 0.054000 0.054000 1.200000 0.033000 0.039000
1518052793033975013	800 54 1.000000 0.315000 0.318000 900 50 0.900000 1.804000 1.706000 600 59 1.000000 0.054000 0.054000 1.200000 0.033000 0.039000
1518052793593935638	800 54 1.000000 0.315000 0.318000 900 50 0.900000 1.814000 1.716000 600 59 1.000000 0.054000 0.054000 1.200000 0.033000 0.039000
1518052794161937055	800 54 1.000000 0.315000 0.318000 900 50 0.900000 1.812000 1.712000 600 59 1.000000 0.055000 0.055000 1.200000 0.033000 0.039000
1518052794721890555	800 54 1.000000 0.315000 0.318000 900 50 0.900000 1.817000 1.718000 600 59 1.000000 0.055000 0.055000 1.200000 0.033000 0.039000
1518052795285963347	800 54 1.000000 0.315000 0.318000 900 50 0.900000 1.810000 1.712000 600 59 1.000000 0.055000 0.055000 1.200000 0.033000 0.039000
1518052795837880097	800 54 1.000000 0.315000 0.318000 900 50 0.900000 1.809000 1.709000 600 59 1.000000 0.054000 0.054000 1.200000 0.033000 0.039000
1518052796401937555	800 54 1.000000 0.315000 0.318000 900 50 0.900000 1.811000 1.713000 600 59 1.000000 0.054000 0.054000 1.200000 0.032000 0.038000
1518052796953975389	800 54 1.000000 0.315000 0.318000 900 50 0.900000 1.814000 1.714000 600 59 1.000000 0.055000 0.055000 1.200000 0.033000 0.039000
1518052797517955014	800 54 1.000000 0.315000 0.318000 900 50 0.900000 1.813000 1.715000 600 59 1.000000 0.055000 0.055000 1.200000 0.033000 0.039000
1518052798065888097	800 54 1.000000 0.315000 0.318000 900 50 0.900000 1.811000 1.713000 600 59 1.000000 0.054000 0.054000 1.200000 0.033000 0.039000
1518052798614024264	800 54 1.000000 0.315000 0.318000 900 50 0.900000 1.813000 1.715000 600 59 1.000000 0.055000 0.055000 1.200000 0.033000 0.039000
1518052799177890306	800 54 1.000000 0.315000 0.318000 900 50 0.900000 1.821000 1.722000 600 59 1.000000 0.055000 0.055000 1.200000 0.033000 0.039000
1518052799725971139	800 54 1.000000 0.315000 0.318000 900 50 0.900000 1.821000 1.722000 600 59 1.000000 0.055000 0.055000 1.200000 0.033000 0.039000
1518052800289872014	800 54 1.000000 0.315000 0.318000 900 50 0.900000 1.821000 1.720000 600 59 1.000000 0.054000 0.054000 1.200000 0.033000 0.039000
1518052800841922264	800 54 1.000000 0.315000 0.318000 900 50 0.900000 1.821000 1.722000 600 59 1.000000 0.055000 0.055000 1.200000 0.032000 0.038000
1518052801397959639	800 54 1.000000 0.315000 0.318000 900 50 0.900000 1.821000 1.720000 600 59 1.000000 0.055000 0.055000 1.200000 0.032000 0.038000
1518052801957971056	800 54 1.000000 0.315000 0.318000 900 50 0.900000 1.812000 1.712000 600 59 1.000000 0.055000 0.055000 1.200000 0.032000 0.038000
1518052802525948514	800 54 1.000000 0.315000 0.318000 900 50 0.900000 1.813000 1.715000 600 59 1.000000 0.055000 0.055000 1.200000 0.033000 0.039000
1518052803101953931	800 54 1.000000 0.315000 0.318000 900 50 0.900000 1.809000 1.709000 600 59 1.000000 0.055000 0.055000 1.200000 0.033000 0.039000
1518052803649962848	800 54 1.000000 0.315000 0.318000 900 50 0.900000 1.821000 1.722000 600 59 1.000000 0.055000 0.055000 1.200000 0.033000 0.039000
1518052804205958556	800 54 1.000000 0.315000 0.318000 900 50 0.900000 1.818000 1.718000 600 59 1.000000 0.055000 0.055000 1.200000 0.033000 0.039000
1518052804745983306	800 54 1.000000 0.315000 0.318000 900 50 0.900000 1.820000 1.721000 600 59 1.000000 0.055000 0.055000 1.200000 0.032000 0.038000
1518052805309896140	800 54 1.000000 0.315000 0.318000 900 50 0.900000 1.822000 1.723000 600 59 1.000000 0.055000 0.055000 1.200000 0.033000 0.039000
1518052805873958848	800 54 1.000000 0.315000 0.318000 900 50 0.900000 1.821000 1.720000 600 59 1.000000 0.055000 0.055000 1.200000 0.032000 0.038000
1518052806437939556	800 54 1.000000 0.315000 0.318000 900 50 0.900000 1.821000 1.722000 600 59 1.000000 0.054000 0.054000 1.200000 0.033000 0.039000
1518052807001936390	800 54 1.000000 0.315000 0.318000 900 50 0.900000 1.821000 1.722000 600 59 1.000000 0.055000 0.055000 1.200000 0.032000 0.038000
1518052807577942223	800 54 1.000000 0.315000 0.318000 900 50 0.900000 1.822000 1.723000 600 59 1.000000 0.055000 0.055000 1.200000 0.033000 0.039000
1518052808129961640	800 54 1.000000 0.315000 0.318000 900 50 0.900000 1.812000 1.714000 600 59 1.000000 0.055000 0.055000 1.200000 0.032000 0.038000
1518052808681932890	800 54 1.000000 0.315000 0.318000 900 50 0.900000 1.817000 1.718000 600 59 1.000000 0.055000 0.055000 1.200000 0.033000 0.039000
1518052809229936223	800 54 1.000000 0.315000 0.318000 900 50 0.900000 1.821000 1.722000 600 59 1.000000 0.055000 0.055000 1.200000 0.032000 0.038000
1518052809797964140	800 54 1.000000 0.315000 0.318000 900 50 0.900000 1.829000 1.730000 600 59 1.000000 0.055000 0.055000 1.200000 0.033000 0.039000
1518052810357959640	800 54 1.000000 0.315000 0.318000 900 50 0.900000 1.844000 1.744000 600 59 1.000000 0.055000 0.055000 1.200000 0.032000 0.038000
1518052810913955265	800 54 1.000000 0.315000 0.318000 900 50 0.900000 1.843000 1.743000 600 59 1.000000 0.055000 0.055000 1.200000 0.033000 0.039000
1518052811473987932	800 54 1.000000 0.315000 0.318000 900 50 0.900000 1.843000 1.743000 600 59 1.000000 0.054000 0.054000 1.200000 0.032000 0.038000
1518052812033960890	800 54 1.000000 0.315000 0.318000 900 50 0.900000 1.846000 1.746000 600 59 1.000000 0.055000 0.055000 1.200000 0.031000 0.037000
1518052812593917182	800 54 1.000000 0.315000 0.318000 900 50 0.900000 1.844000 1.744000 600 59 1.000000 0.055000 0.055000 1.200000 0.031000 0.037000
1518052813141990557	800 54 1.000000 0.315000 0.318000 900 50 0.900000 1.844000 1.744000 600 59 1.000000 0.055000 0.055000 1.200000 0.032000 0.038000
1518052813713982474	800 54 1.000000 0.315000 0.318000 900 50 0.900000 1.843000 1.743000 600 59 1.000000 0.055000 0.055000 1.200000 0.032000 0.038000
1518052814269970141	800 54 1.000000 0.315000 0.318000 900 50 0.900000 1.851000 1.751000 600 59 1.000000 0.055000 0.055000 1.200000 0.032000 0.038000
1518052814833961932	800 55 1.000000 0.315000 0.318000 900 50 0.900000 1.851000 1.751000 600 59 1.000000 0.055000 0.055000 1.200000 0.032000 0.038000
1518052815393909266	800 54 1.000000 0.315000 0.318000 900 50 0.900000 1.850000 1.750000 600 59 1.000000 0.055000 0.055000 1.200000 0.032000 0.038000
1518052815962004516	800 54 1.000000 0.315000 0.318000 900 50 0.900000 1.848000 1.748000 600 59 1.000000 0.055000 0.055000 1.200000 0.032000 0.038000
1518052816513959433	800 54 1.000000 0.315000 0.318000 900 50 0.900000 1.848000 1.748000 600 59 1.000000 0.055000 0.055000 1.200000 0.032000 0.038000
1518052817077958891	800 54 1.000000 0.315000 0.318000 900 50 0.900000 1.844000 1.744000 600 59 1.000000 0.055000 0.055000 1.200000 0.032000 0.038000
1518052817629969933	800 54 1.000000 0.315000 0.318000 900 50 0.900000 1.839000 1.739000 600 59 1.000000 0.055000 0.055000 1.200000 0.031000 0.037000
1518052818185957683	800 54 1.000000 0.315000 0.318000 900 50 0.900000 1.842000 1.742000 600 59 1.000000 0.054000 0.054000 1.200000 0.032000 0.038000
1518052818737961100	800 54 1.000000 0.315000 0.318000 900 50 0.900000 1.850000 1.750000 600 59 1.000000 0.055000 0.055000 1.200000 0.032000 0.038000
1518052819289943683	800 55 1.000000 0.315000 0.318000 900 50 0.900000 1.851000 1.751000 600 59 1.000000 0.055000 0.055000 1.200000 0.032000 0.038000
1518052819845990016	800 55 1.000000 0.315000 0.318000 900 50 0.900000 1.851000 1.751000 600 59 1.000000 0.055000 0.055000 1.200000 0.032000 0.038000
1518052820397919850	800 54 1.000000 0.315000 0.318000 900 50 0.900000 1.851000 1.751000 600 59 1.000000 0.055000 0.055000 1.200000 0.032000 0.038000
1518052820965913892	800 55 1.000000 0.315000 0.318000 900 50 0.900000 1.851000 1.751000 600 59 1.000000 0.055000 0.055000 1.200000 0.032000 0.038000
1518052821529943600	800 55 1.000000 0.315000 0.318000 900 50 0.900000 1.848000 1.748000 600 59 1.000000 0.055000 0.055000 1.200000 0.032000 0.038000
1518052822085938100	800 55 1.000000 0.315000 0.318000 900 50 0.900000 1.846000 1.746000 600 59 1.000000 0.055000 0.055000 1.200000 0.032000 0.038000
1518052822649942892	800 55 1.000000 0.315000 0.318000 900 50 0.900000 1.844000 1.744000 600 59 1.000000 0.055000 0.055000 1.200000 0.032000 0.038000
1518052823209955350	800 55 1.000000 0.315000 0.318000 900 50 0.900000 1.837000 1.737000 600 59 1.000000 0.054000 0.054000 1.200000 0.032000 0.038000
1518052823765970309	800 55 1.000000 0.315000 0.318000 900 50 0.900000 1.840000 1.740000 600 59 1.000000 0.055000 0.055000 1.200000 0.032000 0.038000
1518052824329956725	800 55 1.000000 0.315000 0.318000 900 50 0.900000 1.839000 1.739000 600 59 1.000000 0.055000 0.055000 1.200000 0.032000 0.038000
1518052824881991767	800 55 1.000000 0.315000 0.318000 900 50 0.900000 1.840000 1.740000 600 59 1.000000 0.054000 0.054000 1.200000 0.032000 0.038000
1518052825445998017	800 55 1.000000 0.315000 0.318000 900 50 0.900000 1.838000 1.738000 600 59 1.000000 0.054000 0.054000 1.200000 0.032000 0.038000
1518052826001954309	800 54 1.000000 0.315000 0.318000 900 50 0.900000 1.834000 1.734000 600 59 1.000000 0.055000 0.055000 1.200000 0.032000 0.038000
1518052826565936434	800 54 1.000000 0.315000 0.318000 900 50 0.900000 1.832000 1.733000 600 59 1.000000 0.055000 0.055000 1.200000 0.032000 0.038000
1518052827129931809	800 55 1.000000 0.315000 0.318000 900 50 0.900000 1.827000 1.728000 600 59 1.000000 0.055000 0.055000 1.200000 0.032000 0.038000
1518052827681965434	800 54 1.000000 0.315000 0.318000 900 50 0.900000 1.836000 1.736000 600 59 1.000000 0.054000 0.054000 1.200000 0.032000 0.038000
1518052828234005892	800 54 1.000000 0.315000 0.318000 900 50 0.900000 1.833000 1.734000 600 59 1.000000 0.054000 0.054000 1.200000 0.032000 0.038000
1518052828793959476	800 54 1.000000 0.315000 0.318000 900 50 0.900000 1.838000 1.738000 600 59 1.000000 0.054000 0.054000 1.200000 0.031000 0.037000
1518052829357968101	800 54 1.000000 0.315000 0.318000 900 50 0.900000 1.830000 1.731000 600 59 1.000000 0.055000 0.055000 1.200000 0.032000 0.038000
1518052829917934768	800 55 1.000000 0.315000 0.318000 900 50 0.900000 1.829000 1.730000 600 59 1.000000 0.054000 0.054000 1.200000 0.032000 0.038000
1518052830477940643	800 55 1.000000 0.315000 0.318000 900 50 0.900000 1.833000 1.734000 600 59 1.000000 0.055000 0.055000 1.200000 0.032000 0.038000
1518052831037951018	800 54 1.000000 0.315000 0.318000 900 50 0.900000 1.836000 1.736000 600 59 1.000000 0.055000 0.055000 1.200000 0.031000 0.037000
1518052831594002559	800 54 1.000000 0.315000 0.318000 900 50 0.900000 1.835000 1.735000 600 59 1.000000 0.055000 0.055000 1.200000 0.032000 0.038000
1518052832149957643	800 54 1.000000 0.315000 0.318000 900 50 0.900000 1.835000 1.735000 600 59 1.000000 0.055000 0.055000 1.200000 0.032000 0.038000
1518052832717897768	800 54 1.000000 0.315000 0.318000 900 50 0.900000 1.838000 1.738000 600 59 1.000000 0.054000 0.054000 1.200000 0.032000 0.038000
1518052833269950976	800 54 1.000000 0.315000 0.318000 900 50 0.900000 1.834000 1.734000 600 59 1.000000 0.054000 0.054000 1.200000 0.032000 0.038000
1518052833829927768	800 55 1.000000 0.315000 0.318000 900 50 0.900000 1.824000 1.725000 600 59 1.000000 0.054000 0.054000 1.200000 0.031000 0.037000
1518052834382011435	800 54 1.000000 0.315000 0.318000 900 50 0.900000 1.817000 1.718000 600 59 1.000000 0.054000 0.054000 1.200000 0.031000 0.037000
1518052834934015727	800 54 1.000000 0.315000 0.318000 900 50 0.900000 1.830000 1.731000 600 59 1.000000 0.055000 0.055000 1.200000 0.032000 0.038000
1518052835501886477	800 54 1.000000 0.315000 0.318000 900 50 0.900000 1.829000 1.730000 600 59 1.000000 0.055000 0.055000 1.200000 0.032000 0.038000
1518052836065918477	800 54 1.000000 0.315000 0.318000 900 50 0.900000 1.823000 1.724000 600 59 1.000000 0.055000 0.055000 1.200000 0.033000 0.039000
1518052836629937393	800 54 1.000000 0.315000 0.318000 900 50 0.900000 1.820000 1.721000 600 59 1.000000 0.055000 0.055000 1.200000 0.032000 0.038000
1518052837181943185	800 54 1.000000 0.315000 0.318000 900 50 0.900000 1.824000 1.725000 600 59 1.000000 0.055000 0.055000 1.200000 0.032000 0.038000
1518052837745925394	800 54 1.000000 0.315000 0.318000 900 50 0.900000 1.830000 1.731000 600 59 1.000000 0.055000 0.055000 1.200000 0.032000 0.038000
1518052838309948060	800 54 1.000000 0.315000 0.318000 900 50 0.900000 1.831000 1.732000 600 59 1.000000 0.054000 0.054000 1.200000 0.032000 0.038000
1518052838869925435	800 54 1.000000 0.315000 0.318000 900 50 0.900000 1.826000 1.727000 600 59 1.000000 0.055000 0.055000 1.200000 0.032000 0.038000
1518052839421930769	800 54 1.000000 0.315000 0.318000 900 50 0.900000 1.825000 1.724000 600 59 1.000000 0.055000 0.055000 1.200000 0.032000 0.038000
1518052839977917144	800 55 1.000000 0.315000 0.318000 900 50 0.900000 1.825000 1.726000 600 59 1.000000 0.054000 0.054000 1.200000 0.032000 0.038000
1518052840537956769	800 54 1.000000 0.315000 0.318000 900 50 0.900000 1.828000 1.729000 600 59 1.000000 0.054000 0.054000 1.200000 0.032000 0.038000
1518052841109951686	800 55 1.000000 0.315000 0.318000 900 50 0.900000 1.827000 1.728000 600 59 1.000000 0.055000 0.055000 1.200000 0.032000 0.038000
1518052841673955769	800 54 1.000000 0.315000 0.318000 900 50 0.900000 1.825000 1.726000 600 59 1.000000 0.055000 0.055000 1.200000 0.032000 0.038000
1518052842233975477	800 55 1.000000 0.315000 0.318000 900 50 0.900000 1.831000 1.732000 600 59 1.000000 0.055000 0.055000 1.200000 0.031000 0.037000
1518052842793964894	800 54 1.000000 0.315000 0.318000 900 50 0.900000 1.831000 1.732000 600 59 1.000000 0.055000 0.055000 1.200000 0.032000 0.038000
1518052843345980436	800 55 1.000000 0.315000 0.318000 900 50 0.900000 1.831000 1.732000 600 59 1.000000 0.055000 0.055000 1.200000 0.032000 0.038000
1518052843901958019	800 54 1.000000 0.315000 0.318000 900 50 0.900000 1.826000 1.727000 600 59 1.000000 0.055000 0.055000 1.200000 0.032000 0.038000
1518052844453914103	800 55 1.000000 0.315000 0.318000 900 50 0.900000 1.839000 1.739000 600 59 1.000000 0.055000 0.055000 1.200000 0.032000 0.038000
1518052845013983478	800 55 1.000000 0.315000 0.318000 900 50 0.900000 1.835000 1.735000 600 59 1.000000 0.055000 0.055000 1.200000 0.032000 0.038000
1518052845577647519	800 55 1.000000 0.315000 0.318000 900 50 0.900000 1.837000 1.737000 600 59 1.000000 0.055000 0.055000 1.200000 0.033000 0.039000
1518052846145965311	800 54 1.000000 0.315000 0.318000 900 50 0.900000 1.845000 1.745000 600 59 1.000000 0.055000 0.055000 1.200000 0.033000 0.039000
1518052846697993770	800 55 1.000000 0.315000 0.318000 900 50 0.900000 1.846000 1.746000 600 59 1.000000 0.055000 0.055000 1.200000 0.032000 0.038000
1518052847245990270	800 54 1.000000 0.315000 0.318000 900 50 0.900000 1.846000 1.746000 600 59 1.000000 0.055000 0.055000 1.200000 0.032000 0.038000
1518052847797992186	800 54 1.000000 0.315000 0.318000 900 50 0.900000 1.847000 1.747000 600 59 1.000000 0.055000 0.055000 1.200000 0.032000 0.038000
1518052848345986436	800 55 1.000000 0.315000 0.318000 900 50 0.900000 1.847000 1.747000 600 59 1.000000 0.054000 0.054000 1.200000 0.032000 0.038000
1518052848905960562	800 55 1.000000 0.315000 0.318000 900 50 0.900000 1.846000 1.746000 600 59 1.000000 0.055000 0.055000 1.200000 0.032000 0.038000
1518052849469964478	800 55 1.000000 0.315000 0.318000 900 50 0.900000 1.847000 1.747000 600 59 1.000000 0.055000 0.055000 1.200000 0.032000 0.038000
1518052850033976895	800 55 1.000000 0.315000 0.318000 900 50 0.900000 1.847000 1.747000 600 59 1.000000 0.055000 0.055000 1.200000 0.032000 0.038000
1518052850589972603	800 55 1.000000 0.315000 0.318000 900 50 0.900000 1.841000 1.741000 600 59 1.000000 0.055000 0.055000 1.200000 0.032000 0.038000
1518052851149925853	800 54 1.000000 0.315000 0.318000 900 50 0.900000 1.834000 1.733000 600 59 1.000000 0.054000 0.054000 1.200000 0.032000 0.038000
1518052851706013395	800 55 1.000000 0.315000 0.318000 900 50 0.900000 1.846000 1.746000 600 59 1.000000 0.055000 0.055000 1.200000 0.032000 0.038000
1518052852277966479	800 55 1.000000 0.315000 0.318000 900 50 0.900000 1.848000 1.748000 600 59 1.000000 0.055000 0.055000 1.200000 0.032000 0.038000
1518052852837950062	800 55 1.000000 0.315000 0.318000 900 50 0.900000 1.847000 1.747000 600 59 1.000000 0.055000 0.055000 1.200000 0.032000 0.038000
1518052853401919270	800 55 1.000000 0.315000 0.318000 900 50 0.900000 1.846000 1.746000 600 59 1.000000 0.054000 0.054000 1.200000 0.033000 0.039000
1518052853961911104	800 55 1.000000 0.315000 0.318000 900 50 0.900000 1.846000 1.746000 600 59 1.000000 0.055000 0.055000 1.200000 0.032000 0.038000
1518052854529919521	800 55 1.000000 0.315000 0.318000 900 50 0.900000 1.847000 1.747000 600 59 1.000000 0.055000 0.055000 1.200000 0.032000 0.038000
1518052855085957896	800 55 1.000000 0.315000 0.318000 900 50 0.900000 1.842000 1.742000 600 59 1.000000 0.055000 0.055000 1.200000 0.033000 0.039000
1518052855641968812	800 55 1.000000 0.315000 0.318000 900 50 0.900000 1.834000 1.734000 600 59 1.000000 0.055000 0.055000 1.200000 0.032000 0.038000
1518052856205927187	800 55 1.000000 0.315000 0.318000 900 50 0.900000 1.834000 1.734000 600 59 1.000000 0.054000 0.054000 1.200000 0.032000 0.038000
1518052856765969354	800 54 1.000000 0.315000 0.318000 900 50 0.900000 1.832000 1.733000 600 59 1.000000 0.054000 0.054000 1.200000 0.032000 0.038000
1518052857337990396	800 54 1.000000 0.315000 0.318000 900 50 0.900000 1.832000 1.733000 600 59 1.000000 0.055000 0.055000 1.200000 0.032000 0.038000
1518052857897962479	800 54 1.000000 0.315000 0.318000 900 50 0.900000 1.827000 1.728000 600 59 1.000000 0.055000 0.055000 1.200000 0.033000 0.039000
1518052858461999813	800 55 1.000000 0.315000 0.318000 900 50 0.900000 1.828000 1.729000 600 59 1.000000 0.054000 0.054000 1.200000 0.032000 0.038000
1518052859021975146	800 54 1.000000 0.315000 0.318000 900 50 0.900000 1.827000 1.728000 600 59 1.000000 0.054000 0.054000 1.200000 0.033000 0.039000
1518052859585941813	800 54 1.000000 0.315000 0.318000 900 50 0.900000 1.827000 1.728000 600 59 1.000000 0.054000 0.054000 1.200000 0.032000 0.038000
1518052860133944938	800 54 1.000000 0.315000 0.318000 900 50 0.900000 1.823000 1.724000 600 59 1.000000 0.055000 0.055000 1.200000 0.032000 0.038000
1518052860689988813	800 54 1.000000 0.315000 0.318000 900 50 0.900000 1.823000 1.724000 600 59 1.000000 0.055000 0.055000 1.200000 0.032000 0.038000
1518052861245960021	800 54 1.000000 0.315000 0.318000 900 50 0.900000 1.821000 1.722000 600 59 1.000000 0.055000 0.055000 1.200000 0.032000 0.038000
1518052861793944438	800 55 1.000000 0.315000 0.318000 900 50 0.900000 1.824000 1.725000 600 59 1.000000 0.055000 0.055000 1.200000 0.032000 0.038000
1518052862357961688	800 55 1.000000 0.315000 0.318000 900 50 0.900000 1.822000 1.723000 600 59 1.000000 0.054000 0.054000 1.200000 0.033000 0.039000
1518052862917947897	800 55 1.000000 0.315000 0.318000 900 50 0.900000 1.827000 1.728000 600 59 1.000000 0.055000 0.055000 1.200000 0.032000 0.038000
1518052863481967438	800 54 1.000000 0.315000 0.318000 900 50 0.900000 1.823000 1.724000 600 59 1.000000 0.055000 0.055000 1.200000 0.034000 0.041000
1518052864037972605	800 54 1.000000 0.315000 0.318000 900 50 0.900000 1.818000 1.719000 600 59 1.000000 0.054000 0.054000 1.200000 0.034000 0.041000
1518052864593924688	800 54 1.000000 0.315000 0.318000 900 50 0.900000 1.824000 1.725000 600 59 1.000000 0.055000 0.055000 1.200000 0.034000 0.041000
1518052865153914063	800 55 1.000000 0.315000 0.318000 900 50 0.900000 1.821000 1.722000 600 59 1.000000 0.054000 0.054000 1.200000 0.034000 0.041000
1518052865713938730	800 54 1.000000 0.315000 0.318000 900 50 0.900000 1.827000 1.728000 600 59 1.000000 0.055000 0.055000 1.200000 0.034000 0.041000
1518052866269976480	800 55 1.000000 0.315000 0.318000 900 50 0.900000 1.826000 1.727000 600 59 1.000000 0.055000 0.055000 1.200000 0.034000 0.041000
1518052866833976022	800 54 1.000000 0.315000 0.318000 900 50 0.900000 1.823000 1.724000 600 59 1.000000 0.055000 0.055000 1.200000 0.034000 0.041000
1518052867401933522	800 55 1.000000 0.315000 0.318000 900 50 0.900000 1.819000 1.720000 600 59 1.000000 0.054000 0.054000 1.200000 0.034000 0.041000
1518052867965909147	800 54 1.000000 0.315000 0.318000 900 50 0.900000 1.819000 1.720000 600 59 1.000000 0.055000 0.055000 1.200000 0.034000 0.041000
1518052868525993939	800 55 1.000000 0.315000 0.318000 900 50 0.900000 1.819000 1.720000 600 59 1.000000 0.055000 0.055000 1.200000 0.034000 0.041000
1518052869093946856	800 55 1.000000 0.315000 0.318000 900 50 0.900000 1.822000 1.723000 600 59 1.000000 0.054000 0.054000 1.200000 0.034000 0.041000
1518052869645930856	800 55 1.000000 0.315000 0.318000 900 50 0.900000 1.821000 1.722000 600 59 1.000000 0.055000 0.055000 1.200000 0.034000 0.041000
1518052870213870356	800 54 1.000000 0.315000 0.318000 900 50 0.900000 1.822000 1.723000 600 59 1.000000 0.054000 0.054000 1.200000 0.034000 0.041000
1518052870785936189	800 54 1.000000 0.315000 0.318000 900 50 0.900000 1.817000 1.717000 600 59 1.000000 0.055000 0.055000 1.200000 0.033000 0.039000
1518052871341951898	800 54 1.000000 0.315000 0.318000 900 50 0.900000 1.818000 1.719000 600 59 1.000000 0.055000 0.055000 1.200000 0.034000 0.041000
1518052871897994398	800 55 1.000000 0.315000 0.318000 900 50 0.900000 1.810000 1.712000 600 59 1.000000 0.055000 0.055000 1.200000 0.034000 0.041000
1518052872449947148	800 54 1.000000 0.314000 0.317000 900 50 0.900000 1.819000 1.718000 600 59 1.000000 0.055000 0.055000 1.200000 0.034000 0.041000
1518052873005946773	800 54 1.000000 0.315000 0.318000 900 50 0.900000 1.810000 1.712000 600 59 1.000000 0.055000 0.055000 1.200000 0.034000 0.041000
1518052873565903898	800 55 1.000000 0.315000 0.318000 900 50 0.900000 1.818000 1.719000 600 59 1.000000 0.055000 0.055000 1.200000 0.034000 0.041000
1518052874125946690	800 54 1.000000 0.315000 0.318000 900 50 0.900000 1.810000 1.712000 600 59 1.000000 0.055000 0.055000 1.200000 0.034000 0.041000
1518052874681921065	800 55 1.000000 0.315000 0.318000 900 50 0.900000 1.821000 1.722000 600 59 1.000000 0.054000 0.054000 1.200000 0.034000 0.041000
1518052875233964065	800 54 1.000000 0.315000 0.318000 900 50 0.900000 1.822000 1.723000 600 59 1.000000 0.055000 0.055000 1.200000 0.034000 0.041000
1518052875797921606	800 54 1.000000 0.315000 0.318000 900 50 0.900000 1.821000 1.722000 600 59 1.000000 0.055000 0.055000 1.200000 0.034000 0.041000
1518052876349953023	800 55 1.000000 0.315000 0.318000 900 50 0.900000 1.821000 1.722000 600 59 1.000000 0.054000 0.054000 1.200000 0.034000 0.041000
1518052876901962815	800 54 1.000000 0.315000 0.318000 900 50 0.900000 1.817000 1.718000 600 59 1.000000 0.054000 0.054000 1.200000 0.034000 0.041000
1518052877465887107	800 55 1.000000 0.315000 0.318000 900 50 0.900000 1.815000 1.716000 600 59 1.000000 0.055000 0.055000 1.200000 0.034000 0.041000
1518052878025931190	800 54 1.000000 0.315000 0.318000 900 50 0.900000 1.812000 1.714000 600 59 1.000000 0.055000 0.055000 1.200000 0.034000 0.041000
1518052878589942648	800 55 1.000000 0.315000 0.318000 900 50 0.900000 1.820000 1.721000 600 59 1.000000 0.055000 0.055000 1.200000 0.034000 0.041000
1518052879153939232	800 54 1.000000 0.315000 0.318000 900 50 0.900000 1.822000 1.723000 600 59 1.000000 0.054000 0.054000 1.200000 0.034000 0.041000
1518052879717885149	800 55 1.000000 0.315000 0.318000 900 50 0.900000 1.824000 1.723000 600 59 1.000000 0.055000 0.055000 1.200000 0.033000 0.039000
1518052880281966065	800 55 1.000000 0.315000 0.318000 900 50 0.900000 1.822000 1.723000 600 59 1.000000 0.055000 0.055000 1.200000 0.033000 0.039000
1518052880845976774	800 55 1.000000 0.315000 0.318000 900 50 0.900000 1.834000 1.734000 600 59 1.000000 0.055000 0.055000 1.200000 0.033000 0.039000
1518052881413981107	800 55 1.000000 0.315000 0.318000 900 50 0.900000 1.831000 1.732000 600 59 1.000000 0.055000 0.055000 1.200000 0.034000 0.041000
1518052881977983732	800 55 1.000000 0.315000 0.318000 900 50 0.900000 1.833000 1.734000 600 59 1.000000 0.054000 0.054000 1.200000 0.034000 0.041000
1518052882545986149	800 55 1.000000 0.315000 0.318000 900 50 0.900000 1.833000 1.734000 600 59 1.000000 0.055000 0.055000 1.200000 0.034000 0.041000
1518052883105928982	800 55 1.000000 0.315000 0.318000 900 50 0.900000 1.834000 1.734000 600 59 1.000000 0.055000 0.055000 1.200000 0.034000 0.041000
1518052883666015941	800 55 1.000000 0.315000 0.318000 900 50 0.900000 1.835000 1.735000 600 59 1.000000 0.055000 0.055000 1.200000 0.033000 0.039000
1518052884229992066	800 55 1.000000 0.315000 0.318000 900 50 0.900000 1.834000 1.734000 600 59 1.000000 0.055000 0.055000 1.200000 0.033000 0.039000
1518052884777938732	800 55 1.000000 0.315000 0.318000 900 50 0.900000 1.833000 1.734000 600 59 1.000000 0.055000 0.055000 1.200000 0.033000 0.039000
1518052885333961816	800 55 1.000000 0.315000 0.318000 900 50 0.900000 1.834000 1.734000 600 59 1.000000 0.054000 0.054000 1.200000 0.033000 0.039000
1518052885889907816	800 55 1.000000 0.315000 0.318000 900 50 0.900000 1.834000 1.733000 600 59 1.000000 0.055000 0.055000 1.200000 0.034000 0.041000
1518052886465935441	800 55 1.000000 0.315000 0.318000 900 50 0.900000 1.828000 1.729000 600 59 1.000000 0.055000 0.055000 1.200000 0.033000 0.039000
1518052887029952399	800 55 1.000000 0.315000 0.318000 900 50 0.900000 1.833000 1.734000 600 59 1.000000 0.054000 0.054000 1.200000 0.034000 0.041000
1518052887585908649	800 55 1.000000 0.315000 0.318000 900 50 0.900000 1.835000 1.735000 600 59 1.000000 0.055000 0.055000 1.200000 0.033000 0.039000
1518052888145948025	800 55 1.000000 0.315000 0.318000 900 50 0.900000 1.834000 1.734000 600 59 1.000000 0.055000 0.055000 1.200000 0.034000 0.041000
1518052888721870900	800 55 1.000000 0.315000 0.318000 900 50 0.900000 1.833000 1.734000 600 59 1.000000 0.054000 0.054000 1.200000 0.032000 0.038000
1518052889285943650	800 55 1.000000 0.315000 0.318000 900 50 0.900000 1.836000 1.736000 600 59 1.000000 0.055000 0.055000 1.200000 0.032000 0.038000
1518052889833992441	800 55 1.000000 0.316000 0.319000 900 50 0.900000 1.844000 1.744000 600 59 1.000000 0.055000 0.055000 1.200000 0.032000 0.038000
1518052890397945191	800 55 1.000000 0.315000 0.318000 900 50 0.900000 1.844000 1.744000 600 59 1.000000 0.055000 0.055000 1.200000 0.032000 0.038000
1518052890949969358	800 55 1.000000 0.316000 0.319000 900 50 0.900000 1.840000 1.740000 600 59 1.000000 0.055000 0.055000 1.200000 0.032000 0.038000
1518052891501971025	800 55 1.000000 0.316000 0.319000 900 50 0.900000 1.845000 1.745000 600 59 1.000000 0.055000 0.055000 1.200000 0.032000 0.038000
1518052892049972692	800 55 1.000000 0.316000 0.319000 900 50 0.900000 1.840000 1.740000 600 59 1.000000 0.054000 0.054000 1.200000 0.031000 0.037000
1518052892613875775	800 55 1.000000 0.316000 0.319000 900 50 0.900000 1.844000 1.744000 600 59 1.000000 0.055000 0.055000 1.200000 0.032000 0.038000
1518052893177900817	800 55 1.000000 0.316000 0.319000 900 50 0.900000 1.844000 1.744000 600 59 1.000000 0.054000 0.054000 1.200000 0.032000 0.038000
1518052893729964692	800 55 1.000000 0.316000 0.319000 900 50 0.900000 1.845000 1.745000 600 59 1.000000 0.055000 0.055000 1.200000 0.032000 0.038000
1518052894293935234	800 55 1.000000 0.316000 0.319000 900 50 0.900000 1.845000 1.745000 600 59 1.000000 0.055000 0.055000 1.200000 0.032000 0.038000
1518052894857946192	800 55 1.000000 0.316000 0.319000 900 50 0.900000 1.845000 1.745000 600 59 1.000000 0.055000 0.055000 1.200000 0.032000 0.038000
1518052895421954150	800 55 1.000000 0.315000 0.318000 900 50 0.900000 1.844000 1.744000 600 59 1.000000 0.055000 0.055000 1.200000 0.032000 0.038000
1518052895977900567	800 55 1.000000 0.316000 0.319000 900 50 0.900000 1.844000 1.744000 600 59 1.000000 0.055000 0.055000 1.200000 0.032000 0.038000
1518052896529937526	800 55 1.000000 0.316000 0.319000 900 50 0.900000 1.842000 1.742000 600 59 1.000000 0.055000 0.055000 1.200000 0.032000 0.038000
1518052897085900109	800 55 1.000000 0.316000 0.319000 900 50 0.900000 1.842000 1.742000 600 59 1.000000 0.055000 0.055000 1.200000 0.032000 0.038000
1518052897641954067	800 55 1.000000 0.316000 0.319000 900 50 0.900000 1.837000 1.737000 600 59 1.000000 0.055000 0.055000 1.200000 0.032000 0.038000
1518052898205957567	800 55 1.000000 0.316000 0.319000 900 50 0.900000 1.836000 1.736000 600 59 1.000000 0.055000 0.055000 1.200000 0.032000 0.038000
1518052898757980359	800 55 1.000000 0.316000 0.319000 900 50 0.900000 1.841000 1.741000 600 59 1.000000 0.055000 0.055000 1.200000 0.032000 0.038000
1518052899321997109	800 55 1.000000 0.316000 0.319000 900 50 0.900000 1.840000 1.740000 600 59 1.000000 0.055000 0.055000 1.200000 0.032000 0.038000
1518052899889944818	800 55 1.000000 0.316000 0.319000 900 50 0.900000 1.844000 1.744000 600 59 1.000000 0.055000 0.055000 1.200000 0.032000 0.038000
1518052900437991901	800 55 1.000000 0.316000 0.319000 900 50 0.900000 1.844000 1.744000 600 59 1.000000 0.054000 0.054000 1.200000 0.032000 0.038000
1518052901001979234	800 55 1.000000 0.315000 0.318000 900 50 0.900000 1.840000 1.740000 600 59 1.000000 0.055000 0.055000 1.200000 0.032000 0.038000
1518052901569970318	800 55 1.000000 0.316000 0.319000 900 50 0.900000 1.830000 1.731000 600 59 1.000000 0.055000 0.055000 1.200000 0.032000 0.038000
1518052902133943068	800 55 1.000000 0.316000 0.319000 900 50 0.900000 1.832000 1.733000 600 59 1.000000 0.055000 0.055000 1.200000 0.032000 0.038000
1518052902701919193	800 55 1.000000 0.316000 0.319000 900 50 0.900000 1.834000 1.734000 600 59 1.000000 0.055000 0.055000 1.200000 0.032000 0.038000
1518052903261923276	800 55 1.000000 0.316000 0.319000 900 50 0.900000 1.826000 1.727000 600 59 1.000000 0.055000 0.055000 1.200000 0.032000 0.038000
1518052903813944693	800 55 1.000000 0.316000 0.319000 900 50 0.900000 1.824000 1.725000 600 59 1.000000 0.055000 0.055000 1.200000 0.032000 0.038000
1518052904369874860	800 55 1.000000 0.315000 0.318000 900 50 0.900000 1.825000 1.726000 600 59 1.000000 0.054000 0.054000 1.200000 0.032000 0.038000
1518052904929954360	800 55 1.000000 0.315000 0.318000 900 50 0.900000 1.822000 1.723000 600 59 1.000000 0.055000 0.055000 1.200000 0.032000 0.038000
1518052905497896985	800 55 1.000000 0.316000 0.319000 900 50 0.900000 1.819000 1.720000 600 59 1.000000 0.055000 0.055000 1.200000 0.032000 0.038000
1518052906057933527	800 55 1.000000 0.315000 0.318000 900 50 0.900000 1.829000 1.730000 600 59 1.000000 0.054000 0.054000 1.200000 0.032000 0.038000
1518052906621889068	800 55 1.000000 0.316000 0.319000 900 50 0.900000 1.828000 1.729000 600 59 1.000000 0.054000 0.054000 1.200000 0.031000 0.037000
1518052907177844568	800 55 1.000000 0.316000 0.319000 900 50 0.900000 1.827000 1.728000 600 59 1.000000 0.055000 0.055000 1.200000 0.032000 0.038000
1518052907737940569	800 55 1.000000 0.316000 0.319000 900 50 0.900000 1.824000 1.725000 600 59 1.000000 0.055000 0.055000 1.200000 0.032000 0.038000
1518052908301938235	800 55 1.000000 0.316000 0.319000 900 50 0.900000 1.825000 1.726000 600 59 1.000000 0.055000 0.055000 1.200000 0.032000 0.038000
1518052908853951944	800 54 1.000000 0.316000 0.319000 900 50 0.900000 1.817000 1.718000 600 59 1.000000 0.054000 0.054000 1.200000 0.032000 0.038000
1518052909421885610	800 55 1.000000 0.316000 0.319000 900 50 0.900000 1.817000 1.718000 600 59 1.000000 0.055000 0.055000 1.200000 0.032000 0.038000
1518052909973934277	800 55 1.000000 0.316000 0.319000 900 50 0.900000 1.826000 1.727000 600 59 1.000000 0.055000 0.055000 1.200000 0.032000 0.038000
1518052910537895986	800 55 1.000000 0.315000 0.318000 900 50 0.900000 1.825000 1.726000 600 59 1.000000 0.054000 0.054000 1.200000 0.032000 0.038000
1518052911097952319	800 55 1.000000 0.316000 0.319000 900 50 0.900000 1.829000 1.730000 600 59 1.000000 0.055000 0.055000 1.200000 0.032000 0.038000
1518052911653951986	800 55 1.000000 0.316000 0.319000 900 50 0.900000 1.828000 1.729000 600 59 1.000000 0.055000 0.055000 1.200000 0.032000 0.038000
1518052912217938402	800 54 1.000000 0.316000 0.319000 900 50 0.900000 1.830000 1.731000 600 59 1.000000 0.054000 0.054000 1.200000 0.032000 0.038000
1518052912773902027	800 55 1.000000 0.316000 0.319000 900 50 0.900000 1.828000 1.729000 600 59 1.000000 0.055000 0.055000 1.200000 0.032000 0.038000
1518052913333921319	800 54 1.000000 0.316000 0.319000 900 50 0.900000 1.834000 1.734000 600 59 1.000000 0.054000 0.054000 1.200000 0.032000 0.038000
1518052913893972194	800 54 1.000000 0.316000 0.319000 900 50 0.900000 1.835000 1.735000 600 59 1.000000 0.055000 0.055000 1.200000 0.032000 0.038000
1518052914461924861	800 55 1.000000 0.316000 0.319000 900 50 0.900000 1.835000 1.735000 600 59 1.000000 0.055000 0.055000 1.200000 0.032000 0.038000
1518052915029904903	800 55 1.000000 0.316000 0.319000 900 50 0.900000 1.835000 1.735000 600 59 1.000000 0.055000 0.055000 1.200000 0.032000 0.038000
1518052915589924319	800 54 1.000000 0.316000 0.319000 900 50 0.900000 1.836000 1.736000 600 59 1.000000 0.055000 0.055000 1.200000 0.030000 0.036000
1518052916153928028	800 55 1.000000 0.316000 0.319000 900 50 0.900000 1.837000 1.737000 600 59 1.000000 0.055000 0.055000 1.200000 0.030000 0.036000
1518052916713916403	800 55 1.000000 0.316000 0.319000 900 50 0.900000 1.837000 1.737000 600 59 1.000000 0.055000 0.055000 1.200000 0.031000 0.037000
1518052917273900820	800 55 1.000000 0.316000 0.319000 900 50 0.900000 1.833000 1.734000 600 59 1.000000 0.054000 0.054000 1.200000 0.030000 0.036000
1518052917825917820	800 55 1.000000 0.316000 0.319000 900 50 0.900000 1.827000 1.728000 600 59 1.000000 0.054000 0.054000 1.200000 0.031000 0.037000
1518052918389938403	800 55 1.000000 0.316000 0.319000 900 50 0.900000 1.826000 1.727000 600 59 1.000000 0.055000 0.055000 1.200000 0.031000 0.037000
1518052918949883028	800 55 1.000000 0.316000 0.319000 900 50 0.900000 1.826000 1.727000 600 59 1.000000 0.055000 0.055000 1.200000 0.031000 0.037000
1518052919513926612	800 55 1.000000 0.316000 0.319000 900 50 0.900000 1.827000 1.728000 600 59 1.000000 0.055000 0.055000 1.200000 0.031000 0.037000
1518052920073944862	800 55 1.000000 0.316000 0.319000 900 50 0.900000 1.836000 1.736000 600 59 1.000000 0.054000 0.054000 1.200000 0.031000 0.037000
1518052920633909528	800 55 1.000000 0.316000 0.319000 900 50 0.900000 1.837000 1.737000 600 59 1.000000 0.055000 0.055000 1.200000 0.031000 0.037000
1518052921189878320	800 55 1.000000 0.315000 0.318000 900 50 0.900000 1.837000 1.737000 600 59 1.000000 0.055000 0.055000 1.200000 0.031000 0.037000
1518052921757967695	800 55 1.000000 0.316000 0.319000 900 50 0.900000 1.835000 1.735000 600 59 1.000000 0.054000 0.054000 1.200000 0.031000 0.037000
1518052922321945570	800 55 1.000000 0.316000 0.319000 900 50 0.900000 1.831000 1.732000 600 59 1.000000 0.055000 0.055000 1.200000 0.031000 0.037000
1518052922869968362	800 55 1.000000 0.316000 0.319000 900 50 0.900000 1.828000 1.729000 600 59 1.000000 0.055000 0.055000 1.200000 0.031000 0.037000
1518052923437940320	800 55 1.000000 0.316000 0.319000 900 50 0.900000 1.829000 1.730000 600 59 1.000000 0.054000 0.054000 1.200000 0.031000 0.037000
1518052923997923737	800 55 1.000000 0.316000 0.319000 900 50 0.900000 1.821000 1.722000 600 59 1.000000 0.055000 0.055000 1.200000 0.031000 0.037000
1518052924557936029	800 55 1.000000 0.316000 0.319000 900 50 0.900000 1.817000 1.718000 600 59 1.000000 0.054000 0.054000 1.200000 0.030000 0.036000
1518052925133906821	800 55 1.000000 0.316000 0.319000 900 50 0.900000 1.818000 1.719000 600 59 1.000000 0.055000 0.055000 1.200000 0.031000 0.037000
1518052925689981696	800 55 1.000000 0.316000 0.319000 900 50 0.900000 1.822000 1.723000 600 59 1.000000 0.055000 0.055000 1.200000 0.031000 0.037000
1518052926249894904	800 55 1.000000 0.316000 0.319000 900 50 0.900000 1.830000 1.731000 600 59 1.000000 0.055000 0.055000 1.200000 0.031000 0.037000
1518052926813920029	800 55 1.000000 0.316000 0.319000 900 50 0.900000 1.836000 1.736000 600 59 1.000000 0.054000 0.054000 1.200000 0.031000 0.037000
1518052927373926321	800 55 1.000000 0.316000 0.319000 900 50 0.900000 1.830000 1.731000 600 59 1.000000 0.055000 0.055000 1.200000 0.031000 0.037000
1518052927929942904	800 55 1.000000 0.316000 0.319000 900 50 0.900000 1.829000 1.730000 600 59 1.000000 0.055000 0.055000 1.200000 0.031000 0.037000
1518052928485934279	800 55 1.000000 0.316000 0.319000 900 50 0.900000 1.836000 1.736000 600 59 1.000000 0.055000 0.055000 1.200000 0.031000 0.037000
1518052929053951863	800 55 1.000000 0.316000 0.319000 900 50 0.900000 1.836000 1.736000 600 59 1.000000 0.055000 0.055000 1.200000 0.031000 0.037000
1518052929621938696	800 55 1.000000 0.316000 0.319000 900 50 0.900000 1.836000 1.736000 600 59 1.000000 0.055000 0.055000 1.200000 0.031000 0.037000
1518052930185965863	800 55 1.000000 0.316000 0.319000 900 50 0.900000 1.837000 1.737000 600 59 1.000000 0.054000 0.054000 1.200000 0.031000 0.037000
1518052930733905071	800 55 1.000000 0.316000 0.319000 900 50 0.900000 1.835000 1.735000 600 59 1.000000 0.055000 0.055000 1.200000 0.031000 0.037000
1518052931301974363	800 55 1.000000 0.316000 0.319000 900 50 0.900000 1.836000 1.736000 600 59 1.000000 0.054000 0.054000 1.200000 0.031000 0.037000
1518052931873911571	800 55 1.000000 0.316000 0.319000 900 50 0.900000 1.833000 1.734000 600 59 1.000000 0.055000 0.055000 1.200000 0.031000 0.037000
1518052932441983946	800 55 1.000000 0.316000 0.319000 900 50 0.900000 1.835000 1.735000 600 59 1.000000 0.055000 0.055000 1.200000 0.031000 0.037000
1518052933001948780	800 55 1.000000 0.316000 0.319000 900 50 0.900000 1.825000 1.726000 600 59 1.000000 0.055000 0.055000 1.200000 0.031000 0.037000
1518052933565921863	800 55 1.000000 0.316000 0.319000 900 50 0.900000 1.833000 1.734000 600 59 1.000000 0.055000 0.055000 1.200000 0.031000 0.037000
1518052934129942072	800 55 1.000000 0.316000 0.319000 900 50 0.900000 1.830000 1.731000 600 59 1.000000 0.055000 0.055000 1.200000 0.031000 0.037000
1518052934689962697	800 55 1.000000 0.316000 0.319000 900 50 0.900000 1.831000 1.732000 600 59 1.000000 0.055000 0.055000 1.200000 0.031000 0.037000
1518052935249903280	800 55 1.000000 0.316000 0.319000 900 50 0.900000 1.828000 1.729000 600 59 1.000000 0.055000 0.055000 1.200000 0.031000 0.037000
1518052935809907864	800 55 1.000000 0.316000 0.319000 900 50 0.900000 1.829000 1.730000 600 59 1.000000 0.055000 0.055000 1.200000 0.031000 0.037000
1518052936365963322	800 55 1.000000 0.316000 0.319000 900 50 0.900000 1.838000 1.738000 600 59 1.000000 0.054000 0.054000 1.200000 0.031000 0.037000
1518052936925970905	800 55 1.000000 0.316000 0.319000 900 50 0.900000 1.835000 1.735000 600 59 1.000000 0.055000 0.055000 1.200000 0.031000 0.037000
1518052937481911197	800 55 1.000000 0.316000 0.319000 900 50 0.900000 1.843000 1.743000 600 59 1.000000 0.055000 0.055000 1.200000 0.031000 0.037000
1518052938033926322	800 55 1.000000 0.316000 0.319000 900 50 0.900000 1.840000 1.740000 600 59 1.000000 0.055000 0.055000 1.200000 0.031000 0.037000
1518052938585972239	800 55 1.000000 0.316000 0.319000 900 50 0.900000 1.844000 1.744000 600 59 1.000000 0.055000 0.055000 1.200000 0.031000 0.037000
1518052939141967781	800 55 1.000000 0.316000 0.319000 900 50 0.900000 1.842000 1.742000 600 59 1.000000 0.054000 0.054000 1.200000 0.031000 0.037000
1518052939689964697	800 55 1.000000 0.316000 0.319000 900 50 0.900000 1.839000 1.739000 600 59 1.000000 0.055000 0.055000 1.200000 0.031000 0.037000
1518052940245946906	800 55 1.000000 0.316000 0.319000 900 50 0.900000 1.840000 1.740000 600 59 1.000000 0.055000 0.055000 1.200000 0.031000 0.037000
1518052940809939822	800 55 1.000000 0.315000 0.318000 900 50 0.900000 1.841000 1.741000 600 59 1.000000 0.055000 0.055000 1.200000 0.031000 0.037000
1518052941361915364	800 55 1.000000 0.316000 0.319000 900 50 0.900000 1.845000 1.745000 600 59 1.000000 0.054000 0.054000 1.200000 0.031000 0.037000
1518052941929909281	800 55 1.000000 0.316000 0.319000 900 50 0.900000 1.835000 1.735000 600 59 1.000000 0.054000 0.054000 1.200000 0.031000 0.037000
1518052942489932531	800 55 1.000000 0.316000 0.319000 900 50 0.900000 1.846000 1.746000 600 59 1.000000 0.055000 0.055000 1.200000 0.031000 0.037000
1518052943049945489	800 55 1.000000 0.316000 0.319000 900 50 0.900000 1.844000 1.744000 600 59 1.000000 0.055000 0.055000 1.200000 0.031000 0.037000
1518052943613933531	800 55 1.000000 0.316000 0.319000 900 50 0.900000 1.844000 1.744000 600 59 1.000000 0.054000 0.054000 1.200000 0.031000 0.037000
1518052944165884906	800 55 1.000000 0.316000 0.319000 900 50 0.900000 1.845000 1.745000 600 59 1.000000 0.055000 0.055000 1.200000 0.031000 0.037000
1518052944717942115	800 55 1.000000 0.316000 0.319000 900 50 0.900000 1.840000 1.740000 600 59 1.000000 0.054000 0.054000 1.200000 0.031000 0.037000
1518052945277913781	800 55 1.000000 0.316000 0.319000 900 50 0.900000 1.834000 1.733000 600 59 1.000000 0.055000 0.055000 1.200000 0.031000 0.037000
1518052945841884406	800 55 1.000000 0.316000 0.319000 900 50 0.900000 1.840000 1.740000 600 59 1.000000 0.055000 0.055000 1.200000 0.031000 0.037000
1518052946409904323	800 55 1.000000 0.316000 0.319000 900 50 0.900000 1.842000 1.742000 600 59 1.000000 0.055000 0.055000 1.200000 0.031000 0.037000
1518052946961996823	800 55 1.000000 0.316000 0.319000 900 50 0.900000 1.847000 1.747000 600 59 1.000000 0.054000 0.054000 1.200000 0.031000 0.037000
1518052947525977490	800 55 1.000000 0.316000 0.319000 900 50 0.900000 1.846000 1.746000 600 59 1.000000 0.055000 0.055000 1.200000 0.030000 0.036000
1518052948085959282	800 55 1.000000 0.316000 0.319000 900 50 0.900000 1.837000 1.737000 600 59 1.000000 0.055000 0.055000 1.200000 0.030000 0.036000
1518052948649915323	800 55 1.000000 0.316000 0.319000 900 50 0.900000 1.835000 1.735000 600 59 1.000000 0.055000 0.055000 1.200000 0.031000 0.037000
1518052949217960865	800 55 1.000000 0.316000 0.319000 900 50 0.900000 1.835000 1.735000 600 59 1.000000 0.054000 0.054000 1.200000 0.031000 0.037000
1518052949781901740	800 55 1.000000 0.316000 0.319000 900 50 0.900000 1.817000 1.718000 600 59 1.000000 0.055000 0.055000 1.200000 0.031000 0.037000
1518052950337891324	800 55 1.000000 0.316000 0.319000 900 50 0.900000 1.816000 1.717000 600 59 1.000000 0.055000 0.055000 1.200000 0.031000 0.037000
1518052950897936990	800 55 1.000000 0.316000 0.319000 900 50 0.900000 1.814000 1.716000 600 59 1.000000 0.054000 0.054000 1.200000 0.031000 0.037000
1518052951461937532	800 55 1.000000 0.316000 0.319000 900 50 0.900000 1.822000 1.723000 600 59 1.000000 0.054000 0.054000 1.200000 0.030000 0.036000
1518052952029958282	800 55 1.000000 0.315000 0.318000 900 50 0.900000 1.821000 1.722000 600 59 1.000000 0.054000 0.054000 1.200000 0.031000 0.037000
1518052952589951657	800 55 1.000000 0.316000 0.319000 900 50 0.900000 1.822000 1.723000 600 59 1.000000 0.055000 0.055000 1.200000 0.031000 0.037000
1518052953149923782	800 54 1.000000 0.316000 0.319000 900 50 0.900000 1.821000 1.722000 600 59 1.000000 0.054000 0.054000 1.200000 0.031000 0.037000
1518052953709926741	800 55 1.000000 0.316000 0.319000 900 50 0.900000 1.821000 1.722000 600 59 1.000000 0.055000 0.055000 1.200000 0.031000 0.037000
1518052954269943282	800 54 1.000000 0.316000 0.319000 900 50 0.900000 1.815000 1.716000 600 59 1.000000 0.055000 0.055000 1.200000 0.031000 0.037000
1518052954826151032	800 54 1.000000 0.316000 0.319000 900 50 0.900000 1.814000 1.716000 600 59 1.000000 0.054000 0.054000 1.200000 0.031000 0.037000
1518052955393876658	800 54 1.000000 0.316000 0.319000 900 50 0.900000 1.822000 1.723000 600 59 1.000000 0.054000 0.054000 1.200000 0.030000 0.036000
1518052955946003449	800 55 1.000000 0.316000 0.319000 900 50 0.900000 1.822000 1.723000 600 59 1.000000 0.055000 0.055000 1.200000 0.030000 0.036000
1518052956509952074	800 55 1.000000 0.316000 0.319000 900 50 0.900000 1.823000 1.724000 600 59 1.000000 0.054000 0.054000 1.200000 0.031000 0.037000
1518052957057934491	800 55 1.000000 0.316000 0.319000 900 50 0.900000 1.822000 1.723000 600 59 1.000000 0.055000 0.055000 1.200000 0.031000 0.037000
1518052957590559366	800 54 1.000000 0.316000 0.319000 900 50 0.900000 1.822000 1.723000 600 59 1.000000 0.055000 0.055000 1.200000 0.031000 0.037000
1518052958099059741	800 54 1.000000 0.316000 0.319000 900 50 0.900000 1.425000 1.343000 600 58 1.000000 0.055000 0.055000 1.200000 0.031000 0.037000
1518052958607535575	800 54 1.000000 0.316000 0.319000 900 50 0.900000 1.070000 1.007000 600 54 1.000000 0.055000 0.055000 1.200000 0.030000 0.036000
1518052959115712783	800 53 1.000000 0.316000 0.319000 900 49 0.900000 1.017000 0.958000 600 54 1.000000 0.055000 0.055000 1.200000 0.030000 0.036000
1518052959623855491	800 52 1.000000 0.316000 0.319000 900 49 0.900000 0.595000 0.559000 600 52 1.000000 0.054000 0.054000 1.200000 0.031000 0.037000
1518052960131963033	800 51 1.000000 0.316000 0.319000 900 49 0.900000 0.592000 0.556000 600 52 1.000000 0.055000 0.055000 1.200000 0.031000 0.037000
1518052960640096742	800 49 1.000000 0.316000 0.319000 900 48 0.900000 0.414000 0.390000 600 51 1.000000 0.054000 0.054000 1.200000 0.030000 0.036000
1518052961148322158	800 47 1.000000 0.315000 0.318000 900 47 0.900000 0.115000 0.109000 600 50 1.000000 0.054000 0.054000 1.200000 0.031000 0.037000
1518052961656440658	800 47 1.000000 0.315000 0.318000 900 47 0.900000 0.128000 0.121000 600 50 1.000000 0.054000 0.054000 1.200000 0.031000 0.037000
1518052962164518950	800 47 1.000000 0.315000 0.318000 900 46 0.900000 0.127000 0.120000 600 49 1.000000 0.054000 0.054000 1.200000 0.031000 0.037000
1518052962672634117	800 46 1.000000 0.315000 0.318000 900 46 0.900000 0.131000 0.124000 600 49 1.000000 0.054000 0.054000 1.200000 0.031000 0.037000
1518052963180767492	800 46 1.000000 0.315000 0.318000 900 46 0.900000 0.113000 0.107000 600 49 1.000000 0.053000 0.053000 1.200000 0.030000 0.036000
1518052963688815909	800 46 1.000000 0.315000 0.318000 900 45 0.900000 0.113000 0.107000 600 48 1.000000 0.053000 0.053000 1.200000 0.030000 0.036000
1518052964196889325	800 46 1.000000 0.314000 0.317000 900 45 0.900000 0.114000 0.108000 600 48 1.000000 0.054000 0.054000 1.200000 0.031000 0.037000
1518052964705077200	800 45 1.000000 0.314000 0.317000 900 45 0.900000 0.113000 0.107000 600 48 1.000000 0.053000 0.053000 1.200000 0.030000 0.036000
1518052965213147284	800 45 1.000000 0.314000 0.317000 900 45 0.900000 0.113000 0.107000 600 48 1.000000 0.054000 0.054000 1.200000 0.031000 0.037000
1518052965721213742	800 45 1.000000 0.314000 0.317000 900 44 0.900000 0.112000 0.106000 600 48 1.000000 0.053000 0.053000 1.200000 0.030000 0.036000
1518052966229387701	800 45 1.000000 0.314000 0.317000 900 45 0.900000 0.113000 0.107000 600 47 1.000000 0.053000 0.053000 1.200000 0.031000 0.037000
1518052966737793701	800 45 1.000000 0.133000 0.136000 900 44 0.900000 0.108000 0.102000 600 47 1.000000 0.053000 0.053000 1.200000 0.024000 0.028000
1518052967245968326	800 44 1.000000 0.037000 0.037000 900 43 0.900000 0.175000 0.165000 600 47 1.000000 0.053000 0.053000 1.200000 0.027000 0.032000
