#Timestamp	CPU(0) Frequency(MHz)	CPU(0) Temperature(C)	A7 Voltage(V)	A7 Current(A)	A7 Power(W)	CPU(4) Frequency(MHz)	CPU(4) Temperature(C)	A15 Voltage(V)	A15 Current(A)	A15 Power(W)	GPU Frequency(MHz)	GPU Temperature(C)	GPU Voltage(V)	GPU Current(A)	GPU Power(W)	RAM Voltage(V)	RAM Current(A)	RAM Power(W)
1517775196367854546	500 41 0.900000 0.052000 0.047000 1000 37 0.900000 0.169000 0.168000 600 44 1.000000 0.052000 0.052000 1.200000 0.034000 0.041000
1517775196876126463	500 42 0.900000 0.125000 0.114000 1000 38 0.900000 1.651000 1.603000 600 45 1.000000 0.053000 0.053000 1.200000 0.033000 0.039000
1517775197390430255	500 42 0.900000 0.125000 0.114000 1000 38 0.900000 1.654000 1.606000 600 46 1.000000 0.053000 0.053000 1.200000 0.039000 0.047000
1517775197916211755	500 42 0.900000 0.120000 0.109000 1000 38 0.900000 1.562000 1.516000 600 46 1.000000 0.052000 0.052000 1.200000 0.037000 0.044000
1517775198424534755	500 41 0.900000 0.123000 0.112000 1000 38 0.900000 1.294000 1.255000 600 45 1.000000 0.052000 0.052000 1.200000 0.041000 0.049000
1517775198987881380	500 42 0.900000 0.090000 0.082000 1000 38 0.900000 1.382000 1.340000 600 46 1.000000 0.052000 0.052000 1.200000 0.042000 0.050000
1517775199543847380	500 42 0.900000 0.133000 0.121000 1000 38 0.900000 1.551000 1.506000 600 47 1.000000 0.053000 0.053000 1.200000 0.036000 0.043000
1517775200056999047	500 42 0.900000 0.116000 0.105000 1000 38 0.900000 1.558000 1.512000 600 45 1.000000 0.053000 0.053000 1.200000 0.034000 0.041000
1517775200565595922	500 43 0.900000 0.114000 0.103000 1000 39 0.900000 1.586000 1.540000 600 47 1.000000 0.053000 0.053000 1.200000 0.034000 0.041000
1517775201086078838	500 43 0.900000 0.110000 0.100000 1000 39 0.900000 1.543000 1.498000 600 47 1.000000 0.053000 0.053000 1.200000 0.034000 0.041000
1517775201595976880	500 42 0.900000 0.130000 0.118000 1000 39 0.900000 1.614000 1.567000 600 46 1.000000 0.053000 0.053000 1.200000 0.036000 0.043000
1517775202155863463	500 43 0.900000 0.132000 0.120000 1000 39 0.900000 1.172000 1.134000 600 47 1.000000 0.053000 0.053000 1.200000 0.048000 0.057000
1517775202710983630	500 43 0.900000 0.095000 0.086000 1000 39 0.900000 1.599000 1.552000 600 47 1.000000 0.053000 0.053000 1.200000 0.038000 0.045000
1517775203227381297	500 43 0.900000 0.132000 0.120000 1000 39 0.900000 1.539000 1.492000 600 47 1.000000 0.053000 0.053000 1.200000 0.044000 0.053000
1517775203735649422	500 43 0.900000 0.130000 0.118000 1000 39 0.900000 1.594000 1.546000 600 46 1.000000 0.053000 0.053000 1.200000 0.036000 0.043000
1517775204303831089	500 42 0.900000 0.103000 0.093000 1000 39 0.900000 1.329000 1.286000 600 47 1.000000 0.052000 0.052000 1.200000 0.045000 0.054000
1517775204835733880	500 43 0.900000 0.091000 0.083000 1000 39 0.900000 1.214000 1.175000 600 47 1.000000 0.052000 0.052000 1.200000 0.047000 0.056000
1517775205346445756	500 42 0.900000 0.127000 0.115000 1000 39 0.900000 1.554000 1.507000 600 46 1.000000 0.053000 0.053000 1.200000 0.036000 0.043000
1517775205895825089	500 42 0.900000 0.130000 0.118000 1000 39 0.900000 1.645000 1.595000 600 47 1.000000 0.053000 0.053000 1.200000 0.037000 0.044000
1517775206439822547	500 43 0.900000 0.091000 0.082000 1000 39 0.900000 1.095000 1.062000 600 47 1.000000 0.052000 0.052000 1.200000 0.046000 0.055000
1517775206992116964	500 43 0.900000 0.097000 0.088000 1000 39 0.900000 1.669000 1.620000 600 47 1.000000 0.053000 0.053000 1.200000 0.036000 0.043000
1517775207500440714	500 43 0.900000 0.125000 0.114000 1000 39 0.900000 1.607000 1.560000 600 46 1.000000 0.053000 0.053000 1.200000 0.034000 0.041000
1517775208012211797	500 42 0.900000 0.128000 0.116000 1000 39 0.900000 1.217000 1.180000 600 47 1.000000 0.053000 0.053000 1.200000 0.042000 0.050000
1517775208519944714	500 43 0.900000 0.097000 0.088000 1000 39 0.900000 1.461000 1.417000 600 47 1.000000 0.053000 0.053000 1.200000 0.040000 0.048000
1517775209028281506	500 42 0.900000 0.116000 0.105000 1000 39 0.900000 1.635000 1.587000 600 46 1.000000 0.053000 0.053000 1.200000 0.036000 0.043000
1517775209587792339	500 43 0.900000 0.090000 0.082000 1000 39 0.900000 1.477000 1.434000 600 47 1.000000 0.053000 0.053000 1.200000 0.037000 0.044000
1517775210144478839	500 43 0.900000 0.104000 0.094000 1000 39 0.900000 1.122000 1.088000 600 47 1.000000 0.053000 0.053000 1.200000 0.048000 0.057000
1517775210661267881	500 42 0.900000 0.131000 0.119000 1000 39 0.900000 1.516000 1.472000 600 46 1.000000 0.053000 0.053000 1.200000 0.035000 0.042000
1517775211207825548	500 42 0.900000 0.119000 0.108000 1000 39 0.900000 1.560000 1.514000 600 47 1.000000 0.053000 0.053000 1.200000 0.034000 0.041000
1517775211755856298	500 43 0.900000 0.088000 0.080000 1000 39 0.900000 1.158000 1.123000 600 47 1.000000 0.053000 0.053000 1.200000 0.044000 0.053000
1517775212265210840	500 43 0.900000 0.120000 0.109000 1000 39 0.900000 1.564000 1.517000 600 47 1.000000 0.053000 0.053000 1.200000 0.041000 0.049000
1517775212773475006	500 41 0.900000 0.130000 0.118000 1000 39 0.900000 1.592000 1.545000 600 47 1.000000 0.052000 0.052000 1.200000 0.035000 0.042000
1517775213327833840	500 42 0.900000 0.130000 0.118000 1000 39 0.900000 1.394000 1.353000 600 47 1.000000 0.053000 0.053000 1.200000 0.037000 0.044000
1517775213855896507	500 43 0.900000 0.092000 0.083000 1000 39 0.900000 1.144000 1.107000 600 47 1.000000 0.053000 0.053000 1.200000 0.047000 0.056000
1517775214367927382	500 41 0.900000 0.128000 0.116000 1000 39 0.900000 1.600000 1.552000 600 46 1.000000 0.052000 0.052000 1.200000 0.035000 0.042000
1517775214876109548	500 43 0.900000 0.127000 0.115000 1000 39 0.900000 1.673000 1.624000 600 47 1.000000 0.053000 0.053000 1.200000 0.035000 0.042000
1517775215399426340	500 43 0.900000 0.109000 0.099000 1000 39 0.900000 1.122000 1.088000 600 47 1.000000 0.053000 0.053000 1.200000 0.044000 0.053000
1517775215913056840	500 42 0.900000 0.128000 0.116000 1000 38 0.900000 1.645000 1.597000 600 46 1.000000 0.053000 0.053000 1.200000 0.036000 0.043000
1517775216467848924	500 43 0.900000 0.134000 0.122000 1000 39 0.900000 1.636000 1.588000 600 47 1.000000 0.053000 0.053000 1.200000 0.035000 0.042000
1517775217035783632	500 43 0.900000 0.096000 0.087000 1000 39 0.900000 1.231000 1.194000 600 47 1.000000 0.053000 0.053000 1.200000 0.041000 0.049000
1517775217549632257	500 43 0.900000 0.134000 0.122000 1000 39 0.900000 1.476000 1.431000 600 47 1.000000 0.053000 0.053000 1.200000 0.045000 0.054000
1517775218058048965	500 43 0.900000 0.124000 0.113000 1000 39 0.900000 1.543000 1.498000 600 46 1.000000 0.053000 0.053000 1.200000 0.036000 0.043000
1517775218615812715	500 42 0.900000 0.114000 0.103000 1000 39 0.900000 1.475000 1.432000 600 47 1.000000 0.052000 0.052000 1.200000 0.037000 0.044000
1517775219175594674	500 43 0.900000 0.094000 0.085000 1000 39 0.900000 1.152000 1.117000 600 47 1.000000 0.053000 0.053000 1.200000 0.046000 0.055000
1517775219684992674	500 42 0.900000 0.127000 0.115000 1000 38 0.900000 1.479000 1.436000 600 46 1.000000 0.052000 0.052000 1.200000 0.037000 0.044000
1517775220193828549	500 42 0.900000 0.134000 0.122000 1000 39 0.900000 1.586000 1.540000 600 47 1.000000 0.053000 0.053000 1.200000 0.037000 0.044000
1517775220721481257	500 43 0.900000 0.089000 0.081000 1000 39 0.900000 1.080000 1.047000 600 47 1.000000 0.053000 0.053000 1.200000 0.048000 0.057000
1517775221238872049	500 42 0.900000 0.112000 0.102000 1000 38 0.900000 1.567000 1.521000 600 47 1.000000 0.053000 0.053000 1.200000 0.040000 0.048000
1517775221775919424	500 43 0.900000 0.105000 0.095000 1000 39 0.900000 1.611000 1.564000 600 47 1.000000 0.053000 0.053000 1.200000 0.045000 0.054000
1517775222331850091	500 43 0.900000 0.086000 0.078000 1000 39 0.900000 1.235000 1.197000 600 47 1.000000 0.053000 0.053000 1.200000 0.038000 0.045000
1517775222883832549	500 43 0.900000 0.127000 0.115000 1000 39 0.900000 1.460000 1.416000 600 47 1.000000 0.053000 0.053000 1.200000 0.039000 0.047000
1517775223392127591	500 42 0.900000 0.127000 0.115000 1000 39 0.900000 1.571000 1.525000 600 46 1.000000 0.052000 0.052000 1.200000 0.042000 0.050000
1517775223900055799	500 43 0.900000 0.093000 0.084000 1000 39 0.900000 1.357000 1.316000 600 47 1.000000 0.053000 0.053000 1.200000 0.044000 0.053000
1517775224408372841	500 43 0.900000 0.129000 0.117000 1000 39 0.900000 1.219000 1.179000 600 47 1.000000 0.053000 0.053000 1.200000 0.040000 0.048000
1517775224916561925	500 43 0.900000 0.127000 0.115000 1000 39 0.900000 1.601000 1.554000 600 46 1.000000 0.053000 0.053000 1.200000 0.040000 0.048000
1517775225475820716	500 43 0.900000 0.129000 0.117000 1000 39 0.900000 1.583000 1.537000 600 47 1.000000 0.053000 0.053000 1.200000 0.047000 0.056000
1517775226026617383	500 43 0.900000 0.090000 0.082000 1000 39 0.900000 1.226000 1.189000 600 47 1.000000 0.053000 0.053000 1.200000 0.035000 0.042000
1517775226535860966	500 43 0.900000 0.130000 0.118000 1000 39 0.900000 1.636000 1.588000 600 46 1.000000 0.053000 0.053000 1.200000 0.036000 0.043000
1517775227087788966	500 43 0.900000 0.129000 0.117000 1000 39 0.900000 1.644000 1.596000 600 47 1.000000 0.053000 0.053000 1.200000 0.048000 0.057000
1517775227651837883	500 43 0.900000 0.102000 0.093000 1000 39 0.900000 1.241000 1.203000 600 47 1.000000 0.053000 0.053000 1.200000 0.043000 0.051000
1517775228172750425	500 43 0.900000 0.129000 0.117000 1000 39 0.900000 1.452000 1.408000 600 47 1.000000 0.053000 0.053000 1.200000 0.038000 0.045000
1517775228681081508	500 42 0.900000 0.131000 0.119000 1000 39 0.900000 1.645000 1.597000 600 46 1.000000 0.053000 0.053000 1.200000 0.041000 0.049000
1517775229189915258	500 43 0.900000 0.078000 0.071000 1000 39 0.900000 1.549000 1.504000 600 47 1.000000 0.053000 0.053000 1.200000 0.042000 0.050000
1517775229697760092	500 43 0.900000 0.136000 0.124000 1000 39 0.900000 1.162000 1.124000 600 47 1.000000 0.053000 0.053000 1.200000 0.038000 0.045000
1517775230205922925	500 41 0.900000 0.131000 0.119000 1000 39 0.900000 1.602000 1.553000 600 47 1.000000 0.053000 0.053000 1.200000 0.036000 0.043000
1517775230759825384	500 43 0.900000 0.102000 0.093000 1000 39 0.900000 1.650000 1.602000 600 47 1.000000 0.053000 0.053000 1.200000 0.047000 0.056000
1517775231310435884	500 43 0.900000 0.093000 0.084000 1000 39 0.900000 1.260000 1.219000 600 47 1.000000 0.053000 0.053000 1.200000 0.041000 0.049000
1517775231826745717	500 42 0.900000 0.129000 0.117000 1000 39 0.900000 1.613000 1.566000 600 46 1.000000 0.053000 0.053000 1.200000 0.040000 0.048000
1517775232383887759	500 42 0.900000 0.132000 0.120000 1000 39 0.900000 1.526000 1.480000 600 47 1.000000 0.053000 0.053000 1.200000 0.044000 0.053000
1517775232942678467	500 43 0.900000 0.092000 0.083000 1000 39 0.900000 1.278000 1.239000 600 47 1.000000 0.053000 0.053000 1.200000 0.046000 0.055000
1517775233463401884	500 43 0.900000 0.114000 0.103000 1000 39 0.900000 1.292000 1.253000 600 47 1.000000 0.053000 0.053000 1.200000 0.037000 0.044000
1517775233971559301	500 42 0.900000 0.128000 0.116000 1000 39 0.900000 1.559000 1.513000 600 47 1.000000 0.053000 0.053000 1.200000 0.037000 0.044000
1517775234507861551	500 43 0.900000 0.091000 0.083000 1000 39 0.900000 1.251000 1.210000 600 47 1.000000 0.052000 0.052000 1.200000 0.048000 0.058000
1517775235083778676	500 42 0.900000 0.130000 0.118000 1000 39 0.900000 1.523000 1.478000 600 47 1.000000 0.053000 0.053000 1.200000 0.037000 0.044000
1517775235592751551	500 42 0.900000 0.136000 0.124000 1000 39 0.900000 1.595000 1.548000 600 46 1.000000 0.052000 0.052000 1.200000 0.038000 0.045000
1517775236100949384	500 43 0.900000 0.094000 0.085000 1000 39 0.900000 1.172000 1.136000 600 47 1.000000 0.053000 0.053000 1.200000 0.047000 0.056000
1517775236608772801	500 43 0.900000 0.111000 0.101000 1000 39 0.900000 1.530000 1.485000 600 47 1.000000 0.053000 0.053000 1.200000 0.036000 0.043000
1517775237124209051	500 42 0.900000 0.131000 0.119000 1000 39 0.900000 1.589000 1.542000 600 46 1.000000 0.053000 0.053000 1.200000 0.037000 0.044000
1517775237687851884	500 43 0.900000 0.126000 0.114000 1000 39 0.900000 1.342000 1.301000 600 47 1.000000 0.053000 0.053000 1.200000 0.042000 0.050000
1517775238213582051	500 43 0.900000 0.096000 0.087000 1000 39 0.900000 1.313000 1.273000 600 47 1.000000 0.053000 0.053000 1.200000 0.043000 0.052000
1517775238721565468	500 43 0.900000 0.126000 0.114000 1000 39 0.900000 1.639000 1.591000 600 47 1.000000 0.053000 0.053000 1.200000 0.037000 0.044000
1517775239229815385	500 41 0.900000 0.129000 0.117000 1000 39 0.900000 1.582000 1.536000 600 46 1.000000 0.053000 0.053000 1.200000 0.037000 0.044000
1517775239791804968	500 43 0.900000 0.132000 0.120000 1000 39 0.900000 1.232000 1.195000 600 47 1.000000 0.053000 0.053000 1.200000 0.045000 0.054000
1517775240315578885	500 43 0.900000 0.097000 0.088000 1000 39 0.900000 1.558000 1.512000 600 47 1.000000 0.053000 0.053000 1.200000 0.039000 0.047000
1517775240825326885	500 43 0.900000 0.117000 0.106000 1000 39 0.900000 1.608000 1.561000 600 46 1.000000 0.053000 0.053000 1.200000 0.035000 0.042000
1517775241387886385	500 43 0.900000 0.091000 0.083000 1000 39 0.900000 1.259000 1.221000 600 48 1.000000 0.053000 0.053000 1.200000 0.041000 0.049000
1517775241898218260	500 43 0.900000 0.093000 0.084000 1000 39 0.900000 1.222000 1.185000 600 47 1.000000 0.053000 0.053000 1.200000 0.048000 0.057000
1517775242451741927	500 42 0.900000 0.127000 0.115000 1000 39 0.900000 1.539000 1.494000 600 47 1.000000 0.053000 0.053000 1.200000 0.036000 0.043000
1517775242961795843	500 42 0.900000 0.132000 0.120000 1000 38 0.900000 1.613000 1.566000 600 46 1.000000 0.053000 0.053000 1.200000 0.038000 0.045000
1517775243511798427	500 43 0.900000 0.109000 0.099000 1000 39 0.900000 1.157000 1.122000 600 47 1.000000 0.053000 0.053000 1.200000 0.045000 0.054000
1517775244020841843	500 43 0.900000 0.085000 0.077000 1000 39 0.900000 1.293000 1.254000 600 48 1.000000 0.053000 0.053000 1.200000 0.043000 0.052000
1517775244528834594	500 42 0.900000 0.131000 0.119000 1000 39 0.900000 1.533000 1.488000 600 47 1.000000 0.053000 0.053000 1.200000 0.035000 0.042000
1517775245037345594	500 41 0.900000 0.129000 0.117000 1000 39 0.900000 1.600000 1.553000 600 47 1.000000 0.053000 0.053000 1.200000 0.037000 0.044000
1517775245580042052	500 43 0.900000 0.131000 0.119000 1000 39 0.900000 1.175000 1.139000 600 47 1.000000 0.053000 0.053000 1.200000 0.045000 0.054000
1517775246088139177	500 43 0.900000 0.092000 0.083000 1000 39 0.900000 1.369000 1.327000 600 47 1.000000 0.053000 0.053000 1.200000 0.046000 0.055000
1517775246598426427	500 43 0.900000 0.125000 0.114000 1000 39 0.900000 1.554000 1.508000 600 46 1.000000 0.053000 0.053000 1.200000 0.037000 0.044000
1517775247151860010	500 43 0.900000 0.096000 0.087000 1000 39 0.900000 1.599000 1.552000 600 47 1.000000 0.053000 0.053000 1.200000 0.038000 0.045000
1517775247697856927	500 43 0.900000 0.104000 0.094000 1000 39 0.900000 1.169000 1.131000 600 47 1.000000 0.053000 0.053000 1.200000 0.044000 0.053000
1517775248213143552	500 43 0.900000 0.128000 0.116000 1000 39 0.900000 1.625000 1.577000 600 47 1.000000 0.053000 0.053000 1.200000 0.034000 0.041000
1517775248721420302	500 42 0.900000 0.135000 0.123000 1000 39 0.900000 1.648000 1.600000 600 47 1.000000 0.053000 0.053000 1.200000 0.037000 0.044000
1517775249229380761	500 43 0.900000 0.095000 0.086000 1000 39 0.900000 1.150000 1.115000 600 47 1.000000 0.053000 0.053000 1.200000 0.043000 0.052000
1517775249744626261	500 43 0.900000 0.133000 0.121000 1000 39 0.900000 1.661000 1.611000 600 47 1.000000 0.053000 0.053000 1.200000 0.036000 0.043000
1517775250252726428	500 42 0.900000 0.129000 0.117000 1000 39 0.900000 1.551000 1.506000 600 46 1.000000 0.053000 0.053000 1.200000 0.034000 0.041000
1517775250762531594	500 43 0.900000 0.122000 0.111000 1000 39 0.900000 1.205000 1.168000 600 48 1.000000 0.053000 0.053000 1.200000 0.042000 0.050000
1517775251273947428	500 43 0.900000 0.096000 0.087000 1000 39 0.900000 1.396000 1.354000 600 47 1.000000 0.053000 0.053000 1.200000 0.041000 0.049000
1517775251782291678	500 42 0.900000 0.129000 0.117000 1000 39 0.900000 1.561000 1.515000 600 46 1.000000 0.053000 0.053000 1.200000 0.036000 0.043000
1517775252290193344	500 43 0.900000 0.126000 0.114000 1000 39 0.900000 1.569000 1.523000 600 47 1.000000 0.053000 0.053000 1.200000 0.039000 0.047000
1517775252809152636	500 43 0.900000 0.090000 0.082000 1000 39 0.900000 1.140000 1.103000 600 47 1.000000 0.053000 0.053000 1.200000 0.047000 0.056000
1517775253317757595	500 43 0.900000 0.090000 0.082000 1000 39 0.900000 1.679000 1.630000 600 46 1.000000 0.053000 0.053000 1.200000 0.041000 0.049000
1517775253855878720	500 43 0.900000 0.116000 0.105000 1000 39 0.900000 1.139000 1.104000 600 47 1.000000 0.053000 0.053000 1.200000 0.046000 0.055000
1517775254415780678	500 43 0.900000 0.131000 0.119000 1000 39 0.900000 1.637000 1.589000 600 47 1.000000 0.053000 0.053000 1.200000 0.037000 0.044000
1517775254924468220	500 41 0.900000 0.118000 0.107000 1000 39 0.900000 1.619000 1.572000 600 45 1.000000 0.053000 0.053000 1.200000 0.039000 0.047000
1517775255452323970	500 43 0.900000 0.094000 0.085000 1000 39 0.900000 1.268000 1.227000 600 48 1.000000 0.053000 0.053000 1.200000 0.046000 0.055000
1517775255974916053	500 43 0.900000 0.131000 0.119000 1000 39 0.900000 1.563000 1.517000 600 47 1.000000 0.053000 0.053000 1.200000 0.038000 0.045000
1517775256484527470	500 42 0.900000 0.121000 0.110000 1000 39 0.900000 1.488000 1.444000 600 46 1.000000 0.053000 0.053000 1.200000 0.039000 0.047000
1517775257007878595	500 43 0.900000 0.105000 0.095000 1000 39 0.900000 1.360000 1.319000 600 47 1.000000 0.053000 0.053000 1.200000 0.042000 0.050000
1517775257543844553	500 43 0.900000 0.085000 0.077000 1000 39 0.900000 1.336000 1.295000 600 47 1.000000 0.053000 0.053000 1.200000 0.043000 0.052000
1517775258107836720	500 43 0.900000 0.127000 0.115000 1000 39 0.900000 1.657000 1.608000 600 46 1.000000 0.053000 0.053000 1.200000 0.038000 0.045000
1517775258618712970	500 43 0.900000 0.134000 0.122000 1000 39 0.900000 1.644000 1.596000 600 48 1.000000 0.053000 0.053000 1.200000 0.038000 0.045000
1517775259137426262	500 43 0.900000 0.094000 0.085000 1000 39 0.900000 1.136000 1.099000 600 48 1.000000 0.053000 0.053000 1.200000 0.049000 0.059000
1517775259665133304	500 43 0.900000 0.135000 0.123000 1000 39 0.900000 1.648000 1.600000 600 47 1.000000 0.053000 0.053000 1.200000 0.035000 0.042000
1517775260173503262	500 43 0.900000 0.095000 0.086000 1000 39 0.900000 1.597000 1.550000 600 46 1.000000 0.053000 0.053000 1.200000 0.039000 0.047000
1517775260719869054	500 43 0.900000 0.106000 0.096000 1000 39 0.900000 1.160000 1.125000 600 47 1.000000 0.053000 0.053000 1.200000 0.044000 0.053000
1517775261283830304	500 43 0.900000 0.125000 0.114000 1000 39 0.900000 1.640000 1.592000 600 47 1.000000 0.053000 0.053000 1.200000 0.038000 0.045000
1517775261802155304	500 42 0.900000 0.133000 0.121000 1000 39 0.900000 1.448000 1.404000 600 46 1.000000 0.053000 0.053000 1.200000 0.037000 0.044000
1517775262310471179	500 43 0.900000 0.133000 0.121000 1000 39 0.900000 1.594000 1.547000 600 47 1.000000 0.053000 0.053000 1.200000 0.042000 0.050000
1517775262825448929	500 43 0.900000 0.109000 0.099000 1000 39 0.900000 1.435000 1.391000 600 48 1.000000 0.053000 0.053000 1.200000 0.035000 0.042000
1517775263342311012	500 42 0.900000 0.125000 0.114000 1000 39 0.900000 1.664000 1.615000 600 46 1.000000 0.053000 0.053000 1.200000 0.040000 0.048000
1517775263907859637	500 43 0.900000 0.114000 0.103000 1000 39 0.900000 1.550000 1.505000 600 47 1.000000 0.053000 0.053000 1.200000 0.042000 0.050000
1517775264463855513	500 43 0.900000 0.132000 0.120000 1000 39 0.900000 1.586000 1.540000 600 47 1.000000 0.053000 0.053000 1.200000 0.045000 0.054000
1517775264981907888	500 43 0.900000 0.095000 0.086000 1000 39 0.900000 1.205000 1.166000 600 47 1.000000 0.053000 0.053000 1.200000 0.038000 0.045000
1517775265490288013	500 41 0.900000 0.132000 0.120000 1000 39 0.900000 1.607000 1.560000 600 47 1.000000 0.053000 0.053000 1.200000 0.036000 0.043000
1517775266019895471	500 43 0.900000 0.094000 0.085000 1000 39 0.900000 1.635000 1.587000 600 47 1.000000 0.052000 0.052000 1.200000 0.045000 0.054000
1517775266567305054	500 43 0.900000 0.091000 0.083000 1000 39 0.900000 1.187000 1.151000 600 47 1.000000 0.053000 0.053000 1.200000 0.041000 0.049000
1517775267077943221	500 42 0.900000 0.115000 0.104000 1000 39 0.900000 1.227000 1.187000 600 46 1.000000 0.053000 0.053000 1.200000 0.037000 0.044000
1517775267611660971	500 43 0.900000 0.135000 0.123000 1000 39 0.900000 1.572000 1.524000 600 47 1.000000 0.053000 0.053000 1.200000 0.040000 0.048000
1517775268175834555	500 43 0.900000 0.101000 0.092000 1000 39 0.900000 1.576000 1.530000 600 47 1.000000 0.052000 0.052000 1.200000 0.046000 0.055000
1517775268694174638	500 42 0.900000 0.093000 0.084000 1000 39 0.900000 1.347000 1.306000 600 47 1.000000 0.053000 0.053000 1.200000 0.039000 0.047000
1517775269243698471	500 43 0.900000 0.114000 0.104000 1000 39 0.900000 1.072000 1.039000 600 47 1.000000 0.052000 0.052000 1.200000 0.037000 0.044000
1517775269751912180	500 43 0.900000 0.130000 0.118000 1000 39 0.900000 1.519000 1.474000 600 46 1.000000 0.052000 0.052000 1.200000 0.039000 0.047000
1517775270307339388	500 43 0.900000 0.135000 0.123000 1000 39 0.900000 1.656000 1.607000 600 47 1.000000 0.053000 0.053000 1.200000 0.048000 0.057000
1517775270823846055	500 43 0.900000 0.097000 0.088000 1000 39 0.900000 1.340000 1.299000 600 47 1.000000 0.053000 0.053000 1.200000 0.041000 0.049000
1517775271383888888	500 43 0.900000 0.096000 0.087000 1000 39 0.900000 1.175000 1.137000 600 47 1.000000 0.053000 0.053000 1.200000 0.037000 0.044000
1517775271891748263	500 43 0.900000 0.124000 0.113000 1000 39 0.900000 1.624000 1.576000 600 47 1.000000 0.053000 0.053000 1.200000 0.037000 0.044000
1517775272401502097	500 43 0.900000 0.088000 0.080000 1000 39 0.900000 1.208000 1.171000 600 48 1.000000 0.053000 0.053000 1.200000 0.045000 0.054000
1517775272919748389	500 43 0.900000 0.132000 0.120000 1000 39 0.900000 1.607000 1.560000 600 47 1.000000 0.053000 0.053000 1.200000 0.036000 0.043000
1517775273427837014	500 43 0.900000 0.133000 0.121000 1000 39 0.900000 1.642000 1.594000 600 46 1.000000 0.053000 0.053000 1.200000 0.039000 0.047000
1517775273935816889	500 43 0.900000 0.102000 0.093000 1000 39 0.900000 1.180000 1.142000 600 47 1.000000 0.053000 0.053000 1.200000 0.042000 0.050000
1517775274451952430	500 43 0.900000 0.094000 0.085000 1000 39 0.900000 1.588000 1.541000 600 47 1.000000 0.053000 0.053000 1.200000 0.038000 0.045000
1517775274960373097	500 42 0.900000 0.127000 0.115000 1000 39 0.900000 1.582000 1.536000 600 47 1.000000 0.053000 0.053000 1.200000 0.036000 0.043000
1517775275468962514	500 42 0.900000 0.089000 0.081000 1000 39 0.900000 1.460000 1.416000 600 47 1.000000 0.052000 0.052000 1.200000 0.042000 0.050000
1517775275982221514	500 43 0.900000 0.114000 0.104000 1000 39 0.900000 1.578000 1.532000 600 47 1.000000 0.053000 0.053000 1.200000 0.036000 0.043000
1517775276490486972	500 42 0.900000 0.123000 0.112000 1000 39 0.900000 1.447000 1.405000 600 46 1.000000 0.053000 0.053000 1.200000 0.042000 0.050000
1517775277043829514	500 43 0.900000 0.092000 0.083000 1000 39 0.900000 1.203000 1.166000 600 47 1.000000 0.053000 0.053000 1.200000 0.047000 0.056000
1517775277611850889	500 43 0.900000 0.105000 0.095000 1000 39 0.900000 1.624000 1.576000 600 47 1.000000 0.053000 0.053000 1.200000 0.034000 0.041000
1517775278120995514	500 43 0.900000 0.134000 0.122000 1000 39 0.900000 1.586000 1.540000 600 46 1.000000 0.053000 0.053000 1.200000 0.038000 0.045000
1517775278628893931	500 43 0.900000 0.095000 0.086000 1000 39 0.900000 1.175000 1.139000 600 48 1.000000 0.053000 0.053000 1.200000 0.047000 0.056000
1517775279140639848	500 43 0.900000 0.128000 0.116000 1000 39 0.900000 1.623000 1.575000 600 47 1.000000 0.053000 0.053000 1.200000 0.036000 0.043000
1517775279651235514	500 42 0.900000 0.128000 0.116000 1000 39 0.900000 1.613000 1.566000 600 46 1.000000 0.053000 0.053000 1.200000 0.036000 0.043000
1517775280159604014	500 43 0.900000 0.098000 0.089000 1000 39 0.900000 1.168000 1.130000 600 47 1.000000 0.053000 0.053000 1.200000 0.046000 0.055000
1517775280686649973	500 43 0.900000 0.114000 0.103000 1000 39 0.900000 1.580000 1.534000 600 47 1.000000 0.053000 0.053000 1.200000 0.042000 0.050000
1517775281195155056	500 42 0.900000 0.131000 0.119000 1000 39 0.900000 1.555000 1.509000 600 46 1.000000 0.053000 0.053000 1.200000 0.037000 0.044000
1517775281702942140	500 43 0.900000 0.131000 0.119000 1000 39 0.900000 1.234000 1.196000 600 47 1.000000 0.053000 0.053000 1.200000 0.044000 0.053000
1517775282218866931	500 43 0.900000 0.091000 0.083000 1000 39 0.900000 1.392000 1.350000 600 47 1.000000 0.053000 0.053000 1.200000 0.044000 0.053000
1517775282728161181	500 42 0.900000 0.128000 0.116000 1000 39 0.900000 1.612000 1.565000 600 47 1.000000 0.053000 0.053000 1.200000 0.036000 0.043000
1517775283243454056	500 43 0.900000 0.127000 0.115000 1000 39 0.900000 1.563000 1.517000 600 48 1.000000 0.053000 0.053000 1.200000 0.039000 0.047000
1517775283769033848	500 43 0.900000 0.094000 0.085000 1000 39 0.900000 1.207000 1.168000 600 47 1.000000 0.053000 0.053000 1.200000 0.046000 0.055000
1517775284285172557	500 42 0.900000 0.117000 0.106000 1000 39 0.900000 1.631000 1.583000 600 46 1.000000 0.053000 0.053000 1.200000 0.035000 0.042000
1517775284851784807	500 42 0.900000 0.107000 0.097000 1000 39 0.900000 1.629000 1.581000 600 47 1.000000 0.052000 0.052000 1.200000 0.037000 0.044000
1517775285391807598	500 43 0.900000 0.088000 0.080000 1000 39 0.900000 1.248000 1.210000 600 47 1.000000 0.053000 0.053000 1.200000 0.046000 0.055000
1517775285924547682	500 43 0.900000 0.121000 0.110000 1000 39 0.900000 1.646000 1.598000 600 47 1.000000 0.053000 0.053000 1.200000 0.038000 0.045000
1517775286432704515	500 43 0.900000 0.129000 0.117000 1000 39 0.900000 1.647000 1.599000 600 47 1.000000 0.053000 0.053000 1.200000 0.035000 0.042000
1517775286942715932	500 43 0.900000 0.093000 0.084000 1000 39 0.900000 1.137000 1.102000 600 47 1.000000 0.053000 0.053000 1.200000 0.044000 0.053000
1517775287468258682	500 43 0.900000 0.128000 0.116000 1000 39 0.900000 1.558000 1.512000 600 47 1.000000 0.053000 0.053000 1.200000 0.039000 0.047000
1517775287976433890	500 42 0.900000 0.132000 0.120000 1000 39 0.900000 1.609000 1.562000 600 46 1.000000 0.053000 0.053000 1.200000 0.035000 0.042000
1517775288494216599	500 43 0.900000 0.115000 0.104000 1000 39 0.900000 1.283000 1.244000 600 47 1.000000 0.053000 0.053000 1.200000 0.041000 0.049000
1517775289015483474	500 43 0.900000 0.092000 0.083000 1000 39 0.900000 1.452000 1.408000 600 47 1.000000 0.053000 0.053000 1.200000 0.038000 0.045000
1517775289523736224	500 43 0.900000 0.132000 0.120000 1000 39 0.900000 1.570000 1.524000 600 46 1.000000 0.053000 0.053000 1.200000 0.033000 0.039000
1517775290031853891	500 43 0.900000 0.133000 0.121000 1000 39 0.900000 1.549000 1.504000 600 47 1.000000 0.053000 0.053000 1.200000 0.040000 0.048000
1517775290548766349	500 43 0.900000 0.096000 0.087000 1000 39 0.900000 1.125000 1.089000 600 47 1.000000 0.053000 0.053000 1.200000 0.045000 0.054000
1517775291056899182	500 43 0.900000 0.132000 0.120000 1000 39 0.900000 1.557000 1.511000 600 46 1.000000 0.053000 0.053000 1.200000 0.036000 0.043000
1517775291571858682	500 43 0.900000 0.107000 0.097000 1000 39 0.900000 1.180000 1.144000 600 47 1.000000 0.053000 0.053000 1.200000 0.048000 0.058000
1517775292107201308	500 43 0.900000 0.127000 0.115000 1000 39 0.900000 1.624000 1.576000 600 47 1.000000 0.053000 0.053000 1.200000 0.039000 0.047000
1517775292616478433	500 42 0.900000 0.133000 0.121000 1000 39 0.900000 1.467000 1.424000 600 46 1.000000 0.053000 0.053000 1.200000 0.037000 0.044000
1517775293157027933	500 43 0.900000 0.095000 0.086000 1000 39 0.900000 1.414000 1.372000 600 47 1.000000 0.053000 0.053000 1.200000 0.038000 0.045000
1517775293719871891	500 43 0.900000 0.088000 0.080000 1000 39 0.900000 1.199000 1.160000 600 47 1.000000 0.053000 0.053000 1.200000 0.049000 0.059000
1517775294287870099	500 43 0.900000 0.097000 0.088000 1000 39 0.900000 1.210000 1.173000 600 47 1.000000 0.053000 0.053000 1.200000 0.043000 0.051000
1517775294847825100	500 42 0.900000 0.094000 0.085000 1000 39 0.900000 1.138000 1.103000 600 47 1.000000 0.053000 0.053000 1.200000 0.048000 0.057000
1517775295363776766	500 42 0.900000 0.132000 0.120000 1000 39 0.900000 1.617000 1.570000 600 46 1.000000 0.053000 0.053000 1.200000 0.038000 0.045000
1517775295874181141	500 43 0.900000 0.126000 0.114000 1000 39 0.900000 1.571000 1.525000 600 47 1.000000 0.053000 0.053000 1.200000 0.035000 0.042000
1517775296383106808	500 43 0.900000 0.121000 0.110000 1000 39 0.900000 1.541000 1.496000 600 47 1.000000 0.053000 0.053000 1.200000 0.038000 0.045000
1517775296935799433	500 43 0.900000 0.096000 0.087000 1000 39 0.900000 1.069000 1.036000 600 46 1.000000 0.053000 0.053000 1.200000 0.044000 0.053000
1517775297446948850	500 42 0.900000 0.127000 0.115000 1000 39 0.900000 1.595000 1.548000 600 46 1.000000 0.053000 0.053000 1.200000 0.036000 0.043000
1517775297971889100	500 42 0.900000 0.124000 0.113000 1000 39 0.900000 1.565000 1.518000 600 47 1.000000 0.053000 0.053000 1.200000 0.034000 0.041000
1517775298539856975	500 43 0.900000 0.087000 0.079000 1000 39 0.900000 1.317000 1.277000 600 47 1.000000 0.053000 0.053000 1.200000 0.042000 0.050000
1517775299074309975	500 43 0.900000 0.118000 0.107000 1000 39 0.900000 1.258000 1.220000 600 47 1.000000 0.053000 0.053000 1.200000 0.043000 0.051000
1517775299582578725	500 43 0.900000 0.129000 0.117000 1000 39 0.900000 1.622000 1.574000 600 46 1.000000 0.053000 0.053000 1.200000 0.035000 0.042000
1517775300139859517	500 42 0.900000 0.104000 0.094000 1000 39 0.900000 1.637000 1.589000 600 47 1.000000 0.053000 0.053000 1.200000 0.035000 0.042000
1517775300699859392	500 43 0.900000 0.095000 0.086000 1000 39 0.900000 1.153000 1.118000 600 47 1.000000 0.053000 0.053000 1.200000 0.044000 0.053000
1517775301211789309	500 42 0.900000 0.128000 0.116000 1000 39 0.900000 1.628000 1.580000 600 46 1.000000 0.053000 0.053000 1.200000 0.035000 0.042000
1517775301721052975	500 43 0.900000 0.130000 0.118000 1000 39 0.900000 1.588000 1.541000 600 47 1.000000 0.052000 0.052000 1.200000 0.033000 0.039000
1517775302242059600	500 43 0.900000 0.097000 0.088000 1000 39 0.900000 1.194000 1.158000 600 47 1.000000 0.053000 0.053000 1.200000 0.037000 0.044000
1517775302757623850	500 42 0.900000 0.126000 0.114000 1000 39 0.900000 1.596000 1.549000 600 46 1.000000 0.053000 0.053000 1.200000 0.035000 0.042000
1517775303303861851	500 42 0.900000 0.127000 0.115000 1000 39 0.900000 1.565000 1.519000 600 47 1.000000 0.053000 0.053000 1.200000 0.044000 0.053000
1517775303871849434	500 43 0.900000 0.097000 0.088000 1000 39 0.900000 1.258000 1.220000 600 47 1.000000 0.053000 0.053000 1.200000 0.042000 0.050000
1517775304403831267	500 43 0.900000 0.125000 0.114000 1000 39 0.900000 1.370000 1.326000 600 47 1.000000 0.053000 0.053000 1.200000 0.035000 0.042000
1517775304912136976	500 42 0.900000 0.132000 0.120000 1000 39 0.900000 1.646000 1.598000 600 46 1.000000 0.053000 0.053000 1.200000 0.039000 0.047000
1517775305420177642	500 43 0.900000 0.091000 0.083000 1000 39 0.900000 1.608000 1.561000 600 47 1.000000 0.053000 0.053000 1.200000 0.043000 0.051000
1517775305927938351	500 43 0.900000 0.134000 0.122000 1000 39 0.900000 1.143000 1.106000 600 47 1.000000 0.053000 0.053000 1.200000 0.036000 0.043000
1517775306436337268	500 42 0.900000 0.130000 0.118000 1000 39 0.900000 1.642000 1.594000 600 46 1.000000 0.053000 0.053000 1.200000 0.034000 0.041000
1517775306945252976	500 43 0.900000 0.115000 0.104000 1000 39 0.900000 1.610000 1.563000 600 47 1.000000 0.053000 0.053000 1.200000 0.047000 0.056000
1517775307465843393	500 43 0.900000 0.088000 0.080000 1000 39 0.900000 1.163000 1.125000 600 47 1.000000 0.053000 0.053000 1.200000 0.036000 0.043000
1517775307974112434	500 43 0.900000 0.114000 0.103000 1000 39 0.900000 1.662000 1.612000 600 46 1.000000 0.053000 0.053000 1.200000 0.037000 0.044000
1517775308482059559	500 43 0.900000 0.133000 0.121000 1000 39 0.900000 1.614000 1.567000 600 47 1.000000 0.053000 0.053000 1.200000 0.046000 0.055000
1517775309003989185	500 43 0.900000 0.133000 0.121000 1000 39 0.900000 1.576000 1.530000 600 47 1.000000 0.053000 0.053000 1.200000 0.037000 0.044000
1517775309512369226	500 41 0.900000 0.128000 0.116000 1000 39 0.900000 1.646000 1.593000 600 46 1.000000 0.053000 0.053000 1.200000 0.044000 0.053000
1517775310055842518	500 42 0.900000 0.098000 0.089000 1000 39 0.900000 1.505000 1.459000 600 46 1.000000 0.053000 0.053000 1.200000 0.040000 0.048000
1517775310615865643	500 43 0.900000 0.127000 0.115000 1000 39 0.900000 1.572000 1.526000 600 47 1.000000 0.053000 0.053000 1.200000 0.035000 0.042000
1517775311125061851	500 43 0.900000 0.128000 0.116000 1000 39 0.900000 1.594000 1.547000 600 46 1.000000 0.053000 0.053000 1.200000 0.035000 0.042000
1517775311654110143	500 43 0.900000 0.130000 0.118000 1000 39 0.900000 1.574000 1.528000 600 47 1.000000 0.053000 0.053000 1.200000 0.039000 0.047000
1517775312186506268	500 43 0.900000 0.095000 0.086000 1000 39 0.900000 1.166000 1.128000 600 47 1.000000 0.053000 0.053000 1.200000 0.041000 0.049000
1517775312696946727	500 42 0.900000 0.127000 0.115000 1000 38 0.900000 1.527000 1.482000 600 47 1.000000 0.053000 0.053000 1.200000 0.034000 0.041000
1517775313205789893	500 43 0.900000 0.092000 0.083000 1000 39 0.900000 1.146000 1.109000 600 47 1.000000 0.053000 0.053000 1.200000 0.048000 0.057000
1517775313741301477	500 43 0.900000 0.125000 0.114000 1000 39 0.900000 1.576000 1.530000 600 47 1.000000 0.053000 0.053000 1.200000 0.037000 0.044000
1517775314249431727	500 42 0.900000 0.133000 0.121000 1000 39 0.900000 1.588000 1.541000 600 46 1.000000 0.053000 0.053000 1.200000 0.036000 0.043000
1517775314787878977	500 42 0.900000 0.127000 0.115000 1000 39 0.900000 1.207000 1.168000 600 47 1.000000 0.053000 0.053000 1.200000 0.044000 0.053000
1517775315347807977	500 43 0.900000 0.097000 0.088000 1000 39 0.900000 1.582000 1.536000 600 47 1.000000 0.053000 0.053000 1.200000 0.036000 0.043000
1517775315885133810	500 43 0.900000 0.096000 0.087000 1000 39 0.900000 1.507000 1.461000 600 47 1.000000 0.053000 0.053000 1.200000 0.034000 0.041000
1517775316393346352	500 43 0.900000 0.131000 0.119000 1000 39 0.900000 1.554000 1.508000 600 46 1.000000 0.052000 0.052000 1.200000 0.034000 0.041000
1517775316947830685	500 42 0.900000 0.120000 0.109000 1000 39 0.900000 1.420000 1.377000 600 47 1.000000 0.053000 0.053000 1.200000 0.040000 0.048000
1517775317491044936	500 43 0.900000 0.096000 0.087000 1000 39 0.900000 1.223000 1.183000 600 47 1.000000 0.053000 0.053000 1.200000 0.044000 0.053000
1517775318006000227	500 42 0.900000 0.131000 0.119000 1000 38 0.900000 1.583000 1.537000 600 46 1.000000 0.053000 0.053000 1.200000 0.035000 0.042000
1517775318563873561	500 43 0.900000 0.132000 0.120000 1000 39 0.900000 1.594000 1.547000 600 47 1.000000 0.053000 0.053000 1.200000 0.036000 0.043000
1517775319071718769	500 43 0.900000 0.099000 0.090000 1000 39 0.900000 1.183000 1.147000 600 47 1.000000 0.053000 0.053000 1.200000 0.046000 0.055000
1517775319579507602	500 42 0.900000 0.083000 0.075000 1000 39 0.900000 1.441000 1.397000 600 47 1.000000 0.053000 0.053000 1.200000 0.040000 0.048000
1517775320088018019	500 43 0.900000 0.116000 0.105000 1000 39 0.900000 1.662000 1.613000 600 45 1.000000 0.053000 0.053000 1.200000 0.035000 0.042000
1517775320642444353	500 43 0.900000 0.095000 0.086000 1000 39 0.900000 1.137000 1.100000 600 47 1.000000 0.053000 0.053000 1.200000 0.043000 0.052000
1517775321191861228	500 43 0.900000 0.116000 0.105000 1000 39 0.900000 1.194000 1.158000 600 47 1.000000 0.053000 0.053000 1.200000 0.045000 0.054000
1517775321743870186	500 43 0.900000 0.093000 0.084000 1000 39 0.900000 1.401000 1.358000 600 46 1.000000 0.053000 0.053000 1.200000 0.039000 0.047000
1517775322252928019	500 42 0.900000 0.104000 0.094000 1000 38 0.900000 1.653000 1.605000 600 46 1.000000 0.053000 0.053000 1.200000 0.035000 0.042000
1517775322795938770	500 43 0.900000 0.123000 0.112000 1000 39 0.900000 1.612000 1.565000 600 47 1.000000 0.053000 0.053000 1.200000 0.033000 0.039000
1517775323303898811	500 43 0.900000 0.094000 0.085000 1000 39 0.900000 1.202000 1.163000 600 47 1.000000 0.053000 0.053000 1.200000 0.042000 0.050000
1517775323871892520	500 42 0.900000 0.116000 0.105000 1000 39 0.900000 1.329000 1.289000 600 47 1.000000 0.053000 0.053000 1.200000 0.042000 0.050000
1517775324384966061	500 42 0.900000 0.134000 0.122000 1000 39 0.900000 1.636000 1.586000 600 46 1.000000 0.053000 0.053000 1.200000 0.036000 0.043000
1517775324943827728	500 43 0.900000 0.132000 0.120000 1000 39 0.900000 1.563000 1.517000 600 47 1.000000 0.053000 0.053000 1.200000 0.036000 0.043000
1517775325462138103	500 43 0.900000 0.096000 0.087000 1000 39 0.900000 1.169000 1.133000 600 47 1.000000 0.053000 0.053000 1.200000 0.045000 0.054000
1517775325983499770	500 43 0.900000 0.119000 0.108000 1000 39 0.900000 1.525000 1.479000 600 47 1.000000 0.053000 0.053000 1.200000 0.035000 0.042000
1517775326491733437	500 43 0.900000 0.130000 0.118000 1000 39 0.900000 1.499000 1.455000 600 46 1.000000 0.053000 0.053000 1.200000 0.036000 0.043000
1517775326999888520	500 43 0.900000 0.124000 0.113000 1000 39 0.900000 1.322000 1.282000 600 47 1.000000 0.053000 0.053000 1.200000 0.042000 0.050000
1517775327528447478	500 43 0.900000 0.088000 0.080000 1000 39 0.900000 1.324000 1.284000 600 47 1.000000 0.053000 0.053000 1.200000 0.039000 0.047000
1517775328036844312	500 43 0.900000 0.127000 0.115000 1000 39 0.900000 1.599000 1.552000 600 46 1.000000 0.053000 0.053000 1.200000 0.035000 0.042000
1517775328546344895	500 43 0.900000 0.129000 0.117000 1000 39 0.900000 1.523000 1.478000 600 47 1.000000 0.053000 0.053000 1.200000 0.038000 0.045000
1517775329073139104	500 43 0.900000 0.129000 0.117000 1000 39 0.900000 1.230000 1.190000 600 47 1.000000 0.053000 0.053000 1.200000 0.042000 0.050000
1517775329581414520	500 43 0.900000 0.128000 0.116000 1000 39 0.900000 1.563000 1.517000 600 46 1.000000 0.053000 0.053000 1.200000 0.034000 0.041000
1517775330089378729	500 43 0.900000 0.110000 0.100000 1000 39 0.900000 1.187000 1.149000 600 47 1.000000 0.053000 0.053000 1.200000 0.043000 0.051000
1517775330609055270	500 43 0.900000 0.130000 0.118000 1000 39 0.900000 1.574000 1.528000 600 47 1.000000 0.053000 0.053000 1.200000 0.035000 0.042000
1517775331117366771	500 42 0.900000 0.132000 0.120000 1000 39 0.900000 1.667000 1.618000 600 46 1.000000 0.053000 0.053000 1.200000 0.034000 0.041000
1517775331625370562	500 43 0.900000 0.091000 0.083000 1000 39 0.900000 1.130000 1.096000 600 47 1.000000 0.053000 0.053000 1.200000 0.045000 0.054000
1517775332141140646	500 43 0.900000 0.129000 0.117000 1000 39 0.900000 1.614000 1.567000 600 47 1.000000 0.053000 0.053000 1.200000 0.035000 0.042000
1517775332649388354	500 43 0.900000 0.134000 0.122000 1000 39 0.900000 1.614000 1.567000 600 46 1.000000 0.053000 0.053000 1.200000 0.035000 0.042000
1517775333158214479	500 43 0.900000 0.096000 0.087000 1000 39 0.900000 1.200000 1.164000 600 47 1.000000 0.053000 0.053000 1.200000 0.045000 0.054000
1517775333666997312	500 43 0.900000 0.110000 0.100000 1000 39 0.900000 1.526000 1.480000 600 47 1.000000 0.053000 0.053000 1.200000 0.038000 0.045000
1517775334175298813	500 41 0.900000 0.127000 0.115000 1000 39 0.900000 1.653000 1.605000 600 47 1.000000 0.053000 0.053000 1.200000 0.034000 0.041000
1517775334695869938	500 43 0.900000 0.127000 0.115000 1000 39 0.900000 1.457000 1.414000 600 47 1.000000 0.053000 0.053000 1.200000 0.040000 0.048000
1517775335247939938	500 42 0.900000 0.130000 0.118000 1000 39 0.900000 1.236000 1.196000 600 47 1.000000 0.053000 0.053000 1.200000 0.047000 0.056000
1517775335756438438	500 41 0.900000 0.133000 0.121000 1000 38 0.900000 1.557000 1.511000 600 45 1.000000 0.053000 0.053000 1.200000 0.035000 0.042000
1517775336300763688	500 43 0.900000 0.091000 0.083000 1000 39 0.900000 1.603000 1.556000 600 47 1.000000 0.053000 0.053000 1.200000 0.036000 0.043000
1517775336829965563	500 43 0.900000 0.115000 0.104000 1000 39 0.900000 1.152000 1.115000 600 47 1.000000 0.053000 0.053000 1.200000 0.044000 0.053000
1517775337341634480	500 42 0.900000 0.132000 0.120000 1000 39 0.900000 1.593000 1.546000 600 46 1.000000 0.053000 0.053000 1.200000 0.036000 0.043000
1517775337903845688	500 43 0.900000 0.136000 0.124000 1000 39 0.900000 1.662000 1.613000 600 47 1.000000 0.053000 0.053000 1.200000 0.034000 0.041000
1517775338463860563	500 43 0.900000 0.092000 0.083000 1000 39 0.900000 1.211000 1.172000 600 47 1.000000 0.053000 0.053000 1.200000 0.042000 0.050000
1517775338996329938	500 43 0.900000 0.132000 0.120000 1000 39 0.900000 1.565000 1.518000 600 47 1.000000 0.053000 0.053000 1.200000 0.035000 0.042000
1517775339504620188	500 43 0.900000 0.129000 0.117000 1000 39 0.900000 1.635000 1.587000 600 46 1.000000 0.053000 0.053000 1.200000 0.035000 0.042000
1517775340012841313	500 43 0.900000 0.099000 0.090000 1000 39 0.900000 1.358000 1.317000 600 47 1.000000 0.053000 0.053000 1.200000 0.043000 0.051000
1517775340536562397	500 43 0.900000 0.089000 0.081000 1000 39 0.900000 1.304000 1.264000 600 47 1.000000 0.053000 0.053000 1.200000 0.042000 0.050000
1517775341044677397	500 41 0.900000 0.130000 0.118000 1000 39 0.900000 1.667000 1.618000 600 47 1.000000 0.053000 0.053000 1.200000 0.033000 0.039000
1517775341583879313	500 42 0.900000 0.087000 0.079000 1000 39 0.900000 1.612000 1.565000 600 47 1.000000 0.053000 0.053000 1.200000 0.041000 0.049000
1517775342139890605	500 42 0.900000 0.122000 0.111000 1000 38 0.900000 1.171000 1.133000 600 46 1.000000 0.053000 0.053000 1.200000 0.047000 0.056000
1517775342655407564	500 42 0.900000 0.126000 0.114000 1000 39 0.900000 1.606000 1.559000 600 45 1.000000 0.053000 0.053000 1.200000 0.036000 0.043000
1517775343163429897	500 43 0.900000 0.100000 0.091000 1000 39 0.900000 1.604000 1.557000 600 47 1.000000 0.053000 0.053000 1.200000 0.047000 0.056000
1517775343715822439	500 42 0.900000 0.094000 0.085000 1000 39 0.900000 1.159000 1.124000 600 46 1.000000 0.053000 0.053000 1.200000 0.039000 0.047000
1517775344251856480	500 42 0.900000 0.129000 0.117000 1000 39 0.900000 1.351000 1.310000 600 47 1.000000 0.053000 0.053000 1.200000 0.037000 0.044000
1517775344760066522	500 41 0.900000 0.133000 0.121000 1000 38 0.900000 1.644000 1.596000 600 47 1.000000 0.053000 0.053000 1.200000 0.042000 0.050000
1517775345299184814	500 43 0.900000 0.116000 0.105000 1000 39 0.900000 1.565000 1.519000 600 47 1.000000 0.053000 0.053000 1.200000 0.044000 0.053000
1517775345827884564	500 43 0.900000 0.095000 0.086000 1000 38 0.900000 1.182000 1.146000 600 47 1.000000 0.053000 0.053000 1.200000 0.037000 0.044000
1517775346352468856	500 43 0.900000 0.117000 0.106000 1000 38 0.900000 1.291000 1.249000 600 47 1.000000 0.053000 0.053000 1.200000 0.036000 0.043000
1517775346860767772	500 40 0.900000 0.130000 0.118000 1000 38 0.900000 1.517000 1.473000 600 47 1.000000 0.053000 0.053000 1.200000 0.043000 0.051000
1517775347368961647	500 43 0.900000 0.121000 0.110000 1000 39 0.900000 1.641000 1.591000 600 47 1.000000 0.053000 0.053000 1.200000 0.048000 0.057000
1517775347924525814	500 43 0.900000 0.111000 0.101000 1000 38 0.900000 1.382000 1.340000 600 47 1.000000 0.052000 0.052000 1.200000 0.041000 0.049000
1517775348491176523	500 42 0.900000 0.129000 0.117000 1000 38 0.900000 1.640000 1.592000 600 47 1.000000 0.052000 0.052000 1.200000 0.037000 0.044000
1517775349051820273	500 42 0.900000 0.131000 0.119000 1000 38 0.900000 1.626000 1.578000 600 47 1.000000 0.053000 0.053000 1.200000 0.038000 0.045000
1517775349560360148	500 40 0.900000 0.124000 0.113000 1000 38 0.900000 1.303000 1.263000 600 47 1.000000 0.052000 0.052000 1.200000 0.046000 0.055000
1517775350082674523	500 43 0.900000 0.090000 0.082000 1000 39 0.900000 1.132000 1.095000 600 47 1.000000 0.053000 0.053000 1.200000 0.046000 0.055000
1517775350635821606	500 43 0.900000 0.100000 0.091000 1000 39 0.900000 1.582000 1.536000 600 47 1.000000 0.053000 0.053000 1.200000 0.035000 0.042000
1517775351203857148	500 43 0.900000 0.132000 0.120000 1000 38 0.900000 1.542000 1.497000 600 46 1.000000 0.053000 0.053000 1.200000 0.036000 0.043000
1517775351718816606	500 42 0.900000 0.129000 0.117000 1000 38 0.900000 1.622000 1.574000 600 46 1.000000 0.053000 0.053000 1.200000 0.039000 0.047000
1517775352241872731	500 43 0.900000 0.122000 0.111000 1000 39 0.900000 1.194000 1.155000 600 47 1.000000 0.053000 0.053000 1.200000 0.047000 0.056000
1517775352787876481	500 43 0.900000 0.095000 0.086000 1000 38 0.900000 1.469000 1.424000 600 46 1.000000 0.053000 0.053000 1.200000 0.038000 0.045000
1517775353331035440	500 43 0.900000 0.109000 0.099000 1000 38 0.900000 1.608000 1.561000 600 47 1.000000 0.052000 0.052000 1.200000 0.035000 0.042000
1517775353845266148	500 42 0.900000 0.127000 0.115000 1000 38 0.900000 1.596000 1.549000 600 45 1.000000 0.053000 0.053000 1.200000 0.036000 0.043000
1517775354407843190	500 42 0.900000 0.091000 0.083000 1000 39 0.900000 1.209000 1.170000 600 47 1.000000 0.053000 0.053000 1.200000 0.044000 0.053000
1517775354947177940	500 43 0.900000 0.091000 0.083000 1000 38 0.900000 1.183000 1.145000 600 47 1.000000 0.053000 0.053000 1.200000 0.047000 0.056000
1517775355455186940	500 42 0.900000 0.117000 0.106000 1000 38 0.900000 1.428000 1.385000 600 47 1.000000 0.053000 0.053000 1.200000 0.034000 0.041000
1517775355963501232	500 41 0.900000 0.126000 0.114000 1000 38 0.900000 1.579000 1.533000 600 46 1.000000 0.053000 0.053000 1.200000 0.033000 0.039000
1517775356507859399	500 42 0.900000 0.089000 0.081000 1000 39 0.900000 1.300000 1.261000 600 46 1.000000 0.053000 0.053000 1.200000 0.042000 0.050000
1517775357075798440	500 42 0.900000 0.095000 0.086000 1000 38 0.900000 1.225000 1.185000 600 47 1.000000 0.053000 0.053000 1.200000 0.041000 0.049000
1517775357589151774	500 42 0.900000 0.132000 0.120000 1000 38 0.900000 1.602000 1.553000 600 45 1.000000 0.053000 0.053000 1.200000 0.035000 0.042000
1517775358147807232	500 42 0.900000 0.128000 0.116000 1000 39 0.900000 1.565000 1.519000 600 47 1.000000 0.053000 0.053000 1.200000 0.034000 0.041000
1517775358690692982	500 43 0.900000 0.115000 0.104000 1000 39 0.900000 1.152000 1.117000 600 47 1.000000 0.053000 0.053000 1.200000 0.046000 0.055000
1517775359203667316	500 43 0.900000 0.093000 0.084000 1000 39 0.900000 1.551000 1.506000 600 47 1.000000 0.053000 0.053000 1.200000 0.035000 0.042000
1517775359711838732	500 41 0.900000 0.126000 0.114000 1000 38 0.900000 1.598000 1.551000 600 46 1.000000 0.053000 0.053000 1.200000 0.034000 0.041000
1517775360279850357	500 43 0.900000 0.134000 0.122000 1000 39 0.900000 1.351000 1.310000 600 47 1.000000 0.053000 0.053000 1.200000 0.043000 0.051000
1517775360812112732	500 43 0.900000 0.123000 0.112000 1000 38 0.900000 1.190000 1.151000 600 47 1.000000 0.053000 0.053000 1.200000 0.041000 0.049000
1517775361324410357	500 42 0.900000 0.131000 0.119000 1000 38 0.900000 1.616000 1.567000 600 45 1.000000 0.053000 0.053000 1.200000 0.035000 0.042000
1517775361863765983	500 42 0.900000 0.126000 0.114000 1000 39 0.900000 1.579000 1.533000 600 47 1.000000 0.053000 0.053000 1.200000 0.038000 0.045000
1517775362419871483	500 43 0.900000 0.090000 0.082000 1000 38 0.900000 1.204000 1.165000 600 46 1.000000 0.053000 0.053000 1.200000 0.043000 0.052000
1517775362967483899	500 42 0.900000 0.133000 0.121000 1000 38 0.900000 1.649000 1.599000 600 47 1.000000 0.053000 0.053000 1.200000 0.035000 0.042000
1517775363475746566	500 42 0.900000 0.126000 0.114000 1000 39 0.900000 1.617000 1.570000 600 46 1.000000 0.053000 0.053000 1.200000 0.035000 0.042000
1517775364011829566	500 43 0.900000 0.091000 0.083000 1000 39 0.900000 1.271000 1.230000 600 46 1.000000 0.053000 0.053000 1.200000 0.047000 0.056000
1517775364583890358	500 42 0.900000 0.095000 0.086000 1000 38 0.900000 1.461000 1.417000 600 46 1.000000 0.053000 0.053000 1.200000 0.037000 0.044000
1517775365093169275	500 42 0.900000 0.117000 0.106000 1000 38 0.900000 1.611000 1.564000 600 45 1.000000 0.053000 0.053000 1.200000 0.033000 0.039000
1517775365601913150	500 43 0.900000 0.132000 0.120000 1000 39 0.900000 1.428000 1.386000 600 47 1.000000 0.053000 0.053000 1.200000 0.043000 0.051000
1517775366122510483	500 43 0.900000 0.093000 0.084000 1000 38 0.900000 1.217000 1.178000 600 47 1.000000 0.053000 0.053000 1.200000 0.041000 0.049000
1517775366640261108	500 42 0.900000 0.120000 0.109000 1000 38 0.900000 1.570000 1.524000 600 45 1.000000 0.053000 0.053000 1.200000 0.037000 0.044000
1517775367183866108	500 42 0.900000 0.098000 0.089000 1000 39 0.900000 1.607000 1.560000 600 46 1.000000 0.053000 0.053000 1.200000 0.038000 0.045000
1517775367739851192	500 43 0.900000 0.102000 0.093000 1000 39 0.900000 1.204000 1.165000 600 47 1.000000 0.053000 0.053000 1.200000 0.043000 0.052000
1517775368279685025	500 42 0.900000 0.130000 0.118000 1000 38 0.900000 1.613000 1.566000 600 46 1.000000 0.053000 0.053000 1.200000 0.034000 0.041000
1517775368788033192	500 42 0.900000 0.137000 0.124000 1000 39 0.900000 1.608000 1.561000 600 45 1.000000 0.053000 0.053000 1.200000 0.037000 0.044000
1517775369351819067	500 42 0.900000 0.093000 0.084000 1000 38 0.900000 1.253000 1.215000 600 47 1.000000 0.053000 0.053000 1.200000 0.046000 0.055000
1517775369891898525	500 43 0.900000 0.119000 0.108000 1000 39 0.900000 1.407000 1.364000 600 47 1.000000 0.053000 0.053000 1.200000 0.039000 0.047000
1517775370400779192	500 42 0.900000 0.135000 0.123000 1000 38 0.900000 1.615000 1.566000 600 46 1.000000 0.053000 0.053000 1.200000 0.036000 0.043000
1517775370959873734	500 43 0.900000 0.133000 0.121000 1000 39 0.900000 1.575000 1.529000 600 47 1.000000 0.053000 0.053000 1.200000 0.038000 0.045000
1517775371467818067	500 43 0.900000 0.093000 0.084000 1000 38 0.900000 1.162000 1.124000 600 47 1.000000 0.053000 0.053000 1.200000 0.049000 0.059000
1517775371983968775	500 42 0.900000 0.128000 0.116000 1000 38 0.900000 1.386000 1.345000 600 46 1.000000 0.053000 0.053000 1.200000 0.036000 0.043000
1517775372492238192	500 40 0.900000 0.130000 0.118000 1000 38 0.900000 1.585000 1.537000 600 46 1.000000 0.053000 0.053000 1.200000 0.035000 0.042000
1517775373028070525	500 42 0.900000 0.134000 0.122000 1000 38 0.900000 1.298000 1.260000 600 47 1.000000 0.053000 0.053000 1.200000 0.045000 0.054000
1517775373542180567	500 42 0.900000 0.132000 0.120000 1000 38 0.900000 1.157000 1.119000 600 47 1.000000 0.053000 0.053000 1.200000 0.045000 0.054000
1517775374064124526	500 42 0.900000 0.112000 0.102000 1000 38 0.900000 1.591000 1.543000 600 46 1.000000 0.053000 0.053000 1.200000 0.036000 0.043000
1517775374572333901	500 40 0.900000 0.130000 0.118000 1000 38 0.900000 1.630000 1.581000 600 45 1.000000 0.053000 0.053000 1.200000 0.033000 0.039000
1517775375092224651	500 43 0.900000 0.088000 0.080000 1000 38 0.900000 1.524000 1.479000 600 47 1.000000 0.053000 0.053000 1.200000 0.040000 0.048000
1517775375654250651	500 43 0.900000 0.092000 0.083000 1000 38 0.900000 1.199000 1.160000 600 47 1.000000 0.053000 0.053000 1.200000 0.047000 0.056000
1517775376215841443	500 42 0.900000 0.132000 0.120000 1000 38 0.900000 1.301000 1.261000 600 47 1.000000 0.053000 0.053000 1.200000 0.038000 0.045000
1517775376759928859	500 41 0.900000 0.130000 0.118000 1000 38 0.900000 1.565000 1.519000 600 46 1.000000 0.053000 0.053000 1.200000 0.035000 0.042000
1517775377268298734	500 41 0.900000 0.133000 0.121000 1000 38 0.900000 1.623000 1.575000 600 46 1.000000 0.053000 0.053000 1.200000 0.035000 0.042000
1517775377827839693	500 42 0.900000 0.094000 0.085000 1000 38 0.900000 1.195000 1.159000 600 47 1.000000 0.053000 0.053000 1.200000 0.046000 0.055000
1517775378379828151	500 42 0.900000 0.095000 0.086000 1000 38 0.900000 1.154000 1.117000 600 47 1.000000 0.053000 0.053000 1.200000 0.042000 0.050000
1517775378895945110	500 42 0.900000 0.135000 0.123000 1000 38 0.900000 1.611000 1.564000 600 47 1.000000 0.053000 0.053000 1.200000 0.035000 0.042000
1517775379404366610	500 42 0.900000 0.132000 0.120000 1000 38 0.900000 1.612000 1.565000 600 45 1.000000 0.053000 0.053000 1.200000 0.037000 0.044000
1517775379961806193	500 43 0.900000 0.097000 0.088000 1000 39 0.900000 1.382000 1.340000 600 47 1.000000 0.053000 0.053000 1.200000 0.042000 0.050000
1517775380472001485	500 42 0.900000 0.124000 0.113000 1000 38 0.900000 1.232000 1.192000 600 47 1.000000 0.052000 0.052000 1.200000 0.042000 0.050000
1517775380985238401	500 42 0.900000 0.118000 0.107000 1000 38 0.900000 1.631000 1.583000 600 45 1.000000 0.053000 0.053000 1.200000 0.035000 0.042000
1517775381551897027	500 42 0.900000 0.098000 0.089000 1000 38 0.900000 1.573000 1.527000 600 47 1.000000 0.053000 0.053000 1.200000 0.037000 0.044000
1517775382075641527	500 43 0.900000 0.106000 0.096000 1000 38 0.900000 1.174000 1.138000 600 47 1.000000 0.053000 0.053000 1.200000 0.044000 0.053000
1517775382583590610	500 42 0.900000 0.134000 0.122000 1000 38 0.900000 1.576000 1.530000 600 46 1.000000 0.052000 0.052000 1.200000 0.038000 0.045000
1517775383092036693	500 41 0.900000 0.134000 0.122000 1000 38 0.900000 1.505000 1.461000 600 45 1.000000 0.053000 0.053000 1.200000 0.035000 0.042000
1517775383659834568	500 42 0.900000 0.099000 0.090000 1000 38 0.900000 1.397000 1.356000 600 47 1.000000 0.053000 0.053000 1.200000 0.037000 0.044000
1517775384180915652	500 42 0.900000 0.114000 0.103000 1000 38 0.900000 1.189000 1.150000 600 47 1.000000 0.053000 0.053000 1.200000 0.036000 0.043000
1517775384691683777	500 42 0.900000 0.132000 0.120000 1000 38 0.900000 1.559000 1.513000 600 46 1.000000 0.053000 0.053000 1.200000 0.038000 0.045000
1517775385219894944	500 42 0.900000 0.134000 0.122000 1000 38 0.900000 1.597000 1.550000 600 47 1.000000 0.053000 0.053000 1.200000 0.048000 0.058000
1517775385777227194	500 43 0.900000 0.088000 0.080000 1000 38 0.900000 1.181000 1.146000 600 47 1.000000 0.053000 0.053000 1.200000 0.035000 0.042000
1517775386285231735	500 42 0.900000 0.132000 0.120000 1000 38 0.900000 1.653000 1.605000 600 47 1.000000 0.052000 0.052000 1.200000 0.037000 0.044000
1517775386793633902	500 42 0.900000 0.112000 0.102000 1000 38 0.900000 1.297000 1.255000 600 45 1.000000 0.053000 0.053000 1.200000 0.047000 0.056000
1517775387355837986	500 42 0.900000 0.087000 0.079000 1000 38 0.900000 1.263000 1.222000 600 47 1.000000 0.053000 0.053000 1.200000 0.042000 0.050000
1517775387882762611	500 43 0.900000 0.123000 0.112000 1000 38 0.900000 1.617000 1.570000 600 47 1.000000 0.052000 0.052000 1.200000 0.033000 0.039000
1517775388401364277	500 42 0.900000 0.128000 0.116000 1000 38 0.900000 1.607000 1.560000 600 46 1.000000 0.053000 0.053000 1.200000 0.041000 0.049000
1517775388951843902	500 43 0.900000 0.104000 0.094000 1000 39 0.900000 1.266000 1.225000 600 47 1.000000 0.052000 0.052000 1.200000 0.047000 0.056000
1517775389484472611	500 43 0.900000 0.088000 0.080000 1000 38 0.900000 1.584000 1.538000 600 47 1.000000 0.053000 0.053000 1.200000 0.035000 0.042000
1517775389995710861	500 42 0.900000 0.091000 0.083000 1000 38 0.900000 1.423000 1.380000 600 47 1.000000 0.053000 0.053000 1.200000 0.035000 0.042000
1517775390503865111	500 41 0.900000 0.133000 0.121000 1000 38 0.900000 1.268000 1.229000 600 47 1.000000 0.052000 0.052000 1.200000 0.044000 0.053000
1517775391011405944	500 38 0.900000 0.030000 0.027000 1000 37 0.900000 1.277000 1.238000 600 42 1.000000 0.053000 0.053000 1.200000 0.038000 0.045000
1517775391518731944	500 37 0.900000 0.021000 0.019000 1000 36 0.900000 0.118000 0.115000 600 41 1.000000 0.053000 0.053000 1.200000 0.023000 0.027000
