#Timestamp	CPU(0) Frequency(MHz)	CPU(0) Temperature(C)	A7 Voltage(V)	A7 Current(A)	A7 Power(W)	CPU(4) Frequency(MHz)	CPU(4) Temperature(C)	A15 Voltage(V)	A15 Current(A)	A15 Power(W)	GPU Frequency(MHz)	GPU Temperature(C)	GPU Voltage(V)	GPU Current(A)	GPU Power(W)	RAM Voltage(V)	RAM Current(A)	RAM Power(W)
1517164079179375945	1300 42 1.200000 0.070000 0.085000 1800 33 1.200000 1.306000 1.577000 600 36 1.000000 0.051000 0.051000 1.200000 0.041000 0.049000
1517164079684567820	1300 43 1.200000 0.068000 0.083000 1800 34 1.200000 1.325000 1.600000 600 37 1.000000 0.051000 0.051000 1.200000 0.033000 0.039000
1517164080189817695	1300 44 1.200000 0.069000 0.084000 1800 35 1.200000 1.325000 1.600000 600 38 1.000000 0.052000 0.052000 1.200000 0.032000 0.038000
1517164080695003362	1300 45 1.200000 0.068000 0.083000 1800 35 1.200000 1.325000 1.600000 600 39 1.000000 0.052000 0.052000 1.200000 0.032000 0.038000
1517164081200201404	1300 45 1.200000 0.069000 0.084000 1800 36 1.200000 1.325000 1.600000 600 39 1.000000 0.052000 0.052000 1.200000 0.032000 0.038000
1517164081705398112	1300 45 1.200000 0.069000 0.084000 1800 36 1.200000 1.349000 1.629000 600 40 1.000000 0.052000 0.052000 1.200000 0.033000 0.039000
1517164082210676987	1300 46 1.200000 0.069000 0.084000 1800 37 1.200000 1.351000 1.632000 600 40 1.000000 0.052000 0.052000 1.200000 0.032000 0.038000
1517164082715914529	1300 46 1.200000 0.069000 0.084000 1800 37 1.200000 1.340000 1.618000 600 40 1.000000 0.052000 0.052000 1.200000 0.032000 0.038000
1517164083221087404	1300 46 1.200000 0.069000 0.084000 1800 37 1.200000 1.359000 1.641000 600 40 1.000000 0.052000 0.052000 1.200000 0.032000 0.038000
1517164083726233321	1300 46 1.200000 0.070000 0.085000 1800 37 1.200000 1.331000 1.607000 600 41 1.000000 0.052000 0.052000 1.200000 0.032000 0.038000
1517164084231493446	1300 47 1.200000 0.069000 0.084000 1800 37 1.200000 1.334000 1.611000 600 41 1.000000 0.052000 0.052000 1.200000 0.033000 0.039000
1517164084736673654	1300 47 1.200000 0.070000 0.085000 1800 38 1.200000 1.339000 1.617000 600 41 1.000000 0.052000 0.052000 1.200000 0.032000 0.038000
1517164085241945488	1300 47 1.200000 0.070000 0.085000 1800 38 1.200000 1.337000 1.615000 600 41 1.000000 0.052000 0.052000 1.200000 0.033000 0.039000
1517164085747184196	1300 47 1.200000 0.070000 0.085000 1800 38 1.200000 1.333000 1.610000 600 41 1.000000 0.052000 0.052000 1.200000 0.031000 0.037000
1517164086252410946	1300 47 1.200000 0.070000 0.085000 1800 38 1.200000 1.337000 1.615000 600 41 1.000000 0.052000 0.052000 1.200000 0.031000 0.037000
1517164086757601029	1300 47 1.200000 0.070000 0.085000 1800 38 1.200000 1.338000 1.616000 600 41 1.000000 0.053000 0.053000 1.200000 0.032000 0.038000
1517164087262895613	1300 47 1.200000 0.069000 0.084000 1800 38 1.200000 1.340000 1.618000 600 42 1.000000 0.053000 0.053000 1.200000 0.032000 0.038000
1517164087768030488	1300 47 1.200000 0.071000 0.086000 1800 38 1.200000 1.379000 1.665000 600 42 1.000000 0.052000 0.052000 1.200000 0.032000 0.038000
1517164088273250363	1300 48 1.200000 0.070000 0.085000 1800 38 1.200000 1.349000 1.629000 600 42 1.000000 0.053000 0.053000 1.200000 0.031000 0.037000
1517164088778471196	1300 48 1.200000 0.070000 0.085000 1800 39 1.200000 1.360000 1.642000 600 42 1.000000 0.053000 0.053000 1.200000 0.032000 0.038000
1517164089283650363	1300 48 1.200000 0.070000 0.085000 1800 39 1.200000 1.342000 1.621000 600 42 1.000000 0.052000 0.052000 1.200000 0.031000 0.037000
1517164089788858822	1300 48 1.200000 0.070000 0.085000 1800 39 1.200000 1.343000 1.622000 600 42 1.000000 0.052000 0.052000 1.200000 0.033000 0.039000
1517164090294066613	1300 48 1.200000 0.071000 0.086000 1800 39 1.200000 1.340000 1.618000 600 42 1.000000 0.052000 0.052000 1.200000 0.032000 0.038000
1517164090799241780	1300 48 1.200000 0.071000 0.086000 1800 39 1.200000 1.335000 1.612000 600 42 1.000000 0.053000 0.053000 1.200000 0.032000 0.038000
1517164091304430822	1300 48 1.200000 0.070000 0.085000 1800 39 1.200000 1.338000 1.616000 600 42 1.000000 0.053000 0.053000 1.200000 0.031000 0.037000
1517164091809594572	1300 48 1.200000 0.070000 0.085000 1800 39 1.200000 1.344000 1.623000 600 42 1.000000 0.053000 0.053000 1.200000 0.032000 0.038000
1517164092314889363	1300 48 1.200000 0.070000 0.085000 1800 39 1.200000 1.342000 1.621000 600 42 1.000000 0.052000 0.052000 1.200000 0.033000 0.039000
1517164092820104530	1300 48 1.200000 0.070000 0.085000 1800 39 1.200000 1.355000 1.636000 600 42 1.000000 0.053000 0.053000 1.200000 0.032000 0.038000
1517164093325362655	1300 48 1.200000 0.071000 0.086000 1800 39 1.200000 1.345000 1.624000 600 42 1.000000 0.053000 0.053000 1.200000 0.033000 0.039000
1517164093830638280	1300 48 1.200000 0.070000 0.085000 1800 39 1.200000 1.368000 1.652000 600 42 1.000000 0.053000 0.053000 1.200000 0.031000 0.037000
1517164094335804989	1300 48 1.200000 0.071000 0.086000 1800 39 1.200000 1.345000 1.624000 600 42 1.000000 0.053000 0.053000 1.200000 0.033000 0.039000
1517164094841058155	1300 48 1.200000 0.070000 0.085000 1800 39 1.200000 1.344000 1.623000 600 43 1.000000 0.052000 0.052000 1.200000 0.033000 0.039000
1517164095346240781	1300 48 1.200000 0.070000 0.085000 1800 39 1.200000 1.343000 1.622000 600 43 1.000000 0.053000 0.053000 1.200000 0.032000 0.038000
1517164095851473864	1300 48 1.200000 0.071000 0.086000 1800 39 1.200000 1.347000 1.627000 600 43 1.000000 0.053000 0.053000 1.200000 0.032000 0.038000
1517164096356646489	1300 48 1.200000 0.071000 0.086000 1800 39 1.200000 1.355000 1.636000 600 43 1.000000 0.053000 0.053000 1.200000 0.032000 0.038000
1517164096861838989	1300 49 1.200000 0.071000 0.086000 1800 39 1.200000 1.351000 1.632000 600 43 1.000000 0.052000 0.052000 1.200000 0.031000 0.037000
1517164097367071489	1300 49 1.200000 0.071000 0.086000 1800 39 1.200000 1.378000 1.664000 600 43 1.000000 0.053000 0.053000 1.200000 0.032000 0.038000
1517164097872358364	1300 49 1.200000 0.071000 0.086000 1800 39 1.200000 1.340000 1.618000 600 43 1.000000 0.053000 0.053000 1.200000 0.033000 0.039000
1517164098377570573	1300 49 1.200000 0.070000 0.085000 1800 39 1.200000 1.370000 1.654000 600 43 1.000000 0.053000 0.053000 1.200000 0.031000 0.037000
1517164098882824073	1300 49 1.200000 0.070000 0.085000 1800 40 1.200000 1.348000 1.628000 600 43 1.000000 0.053000 0.053000 1.200000 0.031000 0.037000
1517164099388032781	1300 49 1.200000 0.071000 0.086000 1800 39 1.200000 1.346000 1.625000 600 43 1.000000 0.053000 0.053000 1.200000 0.033000 0.039000
1517164099893292073	1300 49 1.200000 0.071000 0.086000 1800 39 1.200000 1.357000 1.639000 600 43 1.000000 0.053000 0.053000 1.200000 0.032000 0.038000
1517164100398581073	1300 49 1.200000 0.071000 0.086000 1800 40 1.200000 1.349000 1.629000 600 43 1.000000 0.053000 0.053000 1.200000 0.033000 0.039000
1517164100903807865	1300 49 1.200000 0.071000 0.086000 1800 40 1.200000 1.371000 1.656000 600 43 1.000000 0.052000 0.052000 1.200000 0.031000 0.037000
1517164101409035323	1300 49 1.200000 0.071000 0.086000 1800 40 1.200000 1.349000 1.629000 600 43 1.000000 0.053000 0.053000 1.200000 0.032000 0.038000
1517164101914223573	1300 49 1.200000 0.071000 0.086000 1800 40 1.200000 1.372000 1.657000 600 43 1.000000 0.053000 0.053000 1.200000 0.033000 0.039000
1517164102419483656	1300 49 1.200000 0.070000 0.085000 1800 40 1.200000 1.346000 1.625000 600 43 1.000000 0.053000 0.053000 1.200000 0.031000 0.037000
1517164102924595990	1300 49 1.200000 0.071000 0.086000 1800 40 1.200000 1.369000 1.653000 600 43 1.000000 0.053000 0.053000 1.200000 0.032000 0.038000
1517164103429828948	1300 49 1.200000 0.071000 0.086000 1800 40 1.200000 1.363000 1.646000 600 43 1.000000 0.053000 0.053000 1.200000 0.033000 0.039000
1517164103935047948	1300 49 1.200000 0.071000 0.086000 1800 40 1.200000 1.358000 1.640000 600 43 1.000000 0.053000 0.053000 1.200000 0.031000 0.037000
1517164104440269990	1300 49 1.200000 0.071000 0.086000 1800 40 1.200000 1.372000 1.657000 600 43 1.000000 0.053000 0.053000 1.200000 0.032000 0.038000
1517164104945464365	1300 49 1.200000 0.071000 0.086000 1800 40 1.200000 1.343000 1.622000 600 43 1.000000 0.053000 0.053000 1.200000 0.032000 0.038000
1517164105450718948	1300 49 1.200000 0.071000 0.086000 1800 40 1.200000 1.370000 1.654000 600 43 1.000000 0.053000 0.053000 1.200000 0.032000 0.038000
1517164105955957990	1300 49 1.200000 0.071000 0.086000 1800 40 1.200000 1.349000 1.629000 600 43 1.000000 0.053000 0.053000 1.200000 0.033000 0.039000
1517164106461189865	1300 49 1.200000 0.071000 0.086000 1800 40 1.200000 1.365000 1.648000 600 43 1.000000 0.053000 0.053000 1.200000 0.031000 0.037000
1517164106966386365	1300 49 1.200000 0.071000 0.086000 1800 40 1.200000 1.363000 1.646000 600 43 1.000000 0.053000 0.053000 1.200000 0.031000 0.037000
1517164107471623074	1300 49 1.200000 0.070000 0.085000 1800 40 1.200000 1.350000 1.630000 600 43 1.000000 0.052000 0.052000 1.200000 0.031000 0.037000
1517164107976883490	1300 49 1.200000 0.071000 0.086000 1800 40 1.200000 1.373000 1.658000 600 43 1.000000 0.053000 0.053000 1.200000 0.031000 0.037000
1517164108482121574	1300 49 1.200000 0.071000 0.086000 1800 40 1.200000 1.349000 1.629000 600 43 1.000000 0.053000 0.053000 1.200000 0.031000 0.037000
1517164108987266865	1300 49 1.200000 0.071000 0.086000 1800 40 1.200000 1.374000 1.659000 600 43 1.000000 0.053000 0.053000 1.200000 0.031000 0.037000
1517164109492442657	1300 49 1.200000 0.070000 0.085000 1800 40 1.200000 1.348000 1.628000 600 43 1.000000 0.053000 0.053000 1.200000 0.031000 0.037000
1517164109997610616	1300 49 1.200000 0.071000 0.086000 1800 40 1.200000 1.341000 1.619000 600 43 1.000000 0.053000 0.053000 1.200000 0.033000 0.039000
1517164110502872532	1300 49 1.200000 0.071000 0.086000 1800 40 1.200000 1.347000 1.627000 600 43 1.000000 0.053000 0.053000 1.200000 0.031000 0.037000
1517164111009362866	1300 49 1.200000 0.071000 0.086000 1800 40 1.200000 1.353000 1.634000 600 43 1.000000 0.053000 0.053000 1.200000 0.033000 0.039000
1517164111514549907	1300 49 1.200000 0.073000 0.089000 1800 40 1.200000 1.366000 1.650000 600 43 1.000000 0.053000 0.053000 1.200000 0.032000 0.038000
1517164112019656158	1300 49 1.200000 0.071000 0.086000 1800 40 1.200000 1.344000 1.623000 600 44 1.000000 0.053000 0.053000 1.200000 0.031000 0.037000
1517164112524740241	1300 49 1.200000 0.071000 0.086000 1800 40 1.200000 1.371000 1.656000 600 43 1.000000 0.053000 0.053000 1.200000 0.033000 0.039000
1517164113029848991	1300 49 1.200000 0.071000 0.086000 1800 40 1.200000 1.349000 1.629000 600 44 1.000000 0.053000 0.053000 1.200000 0.033000 0.039000
1517164113534939866	1300 49 1.200000 0.071000 0.086000 1800 40 1.200000 1.380000 1.667000 600 44 1.000000 0.053000 0.053000 1.200000 0.033000 0.039000
1517164114040104199	1300 50 1.200000 0.071000 0.086000 1800 40 1.200000 1.363000 1.646000 600 43 1.000000 0.053000 0.053000 1.200000 0.033000 0.039000
1517164114545247866	1300 49 1.200000 0.071000 0.086000 1800 40 1.200000 1.354000 1.635000 600 44 1.000000 0.053000 0.053000 1.200000 0.031000 0.037000
1517164115050381158	1300 50 1.200000 0.071000 0.086000 1800 40 1.200000 1.348000 1.628000 600 44 1.000000 0.053000 0.053000 1.200000 0.034000 0.041000
1517164115555564283	1300 49 1.200000 0.071000 0.086000 1800 40 1.200000 1.349000 1.629000 600 44 1.000000 0.053000 0.053000 1.200000 0.033000 0.039000
1517164116060674450	1300 50 1.200000 0.071000 0.086000 1800 40 1.200000 1.348000 1.628000 600 44 1.000000 0.053000 0.053000 1.200000 0.031000 0.037000
1517164116565778366	1300 50 1.200000 0.071000 0.086000 1800 40 1.200000 1.347000 1.627000 600 44 1.000000 0.053000 0.053000 1.200000 0.032000 0.038000
1517164117071097366	1300 50 1.200000 0.071000 0.086000 1800 40 1.200000 1.364000 1.647000 600 44 1.000000 0.053000 0.053000 1.200000 0.032000 0.038000
1517164117576296783	1300 50 1.200000 0.071000 0.086000 1800 41 1.200000 1.363000 1.646000 600 44 1.000000 0.053000 0.053000 1.200000 0.031000 0.037000
1517164118081437742	1300 50 1.200000 0.071000 0.086000 1800 40 1.200000 1.356000 1.638000 600 44 1.000000 0.053000 0.053000 1.200000 0.031000 0.037000
1517164118586664492	1300 50 1.200000 0.071000 0.086000 1800 40 1.200000 1.376000 1.662000 600 44 1.000000 0.053000 0.053000 1.200000 0.033000 0.039000
1517164119091836408	1300 50 1.200000 0.071000 0.086000 1800 40 1.200000 1.348000 1.628000 600 44 1.000000 0.053000 0.053000 1.200000 0.030000 0.036000
1517164119596980242	1300 50 1.200000 0.071000 0.086000 1800 40 1.200000 1.374000 1.659000 600 44 1.000000 0.053000 0.053000 1.200000 0.033000 0.039000
1517164120102106283	1300 50 1.200000 0.071000 0.086000 1800 40 1.200000 1.348000 1.628000 600 44 1.000000 0.053000 0.053000 1.200000 0.030000 0.036000
1517164120607314325	1300 50 1.200000 0.071000 0.086000 1800 40 1.200000 1.353000 1.634000 600 44 1.000000 0.053000 0.053000 1.200000 0.032000 0.038000
1517164121112493617	1300 50 1.200000 0.071000 0.086000 1800 40 1.200000 1.346000 1.625000 600 44 1.000000 0.053000 0.053000 1.200000 0.034000 0.041000
1517164121617613367	1300 50 1.200000 0.071000 0.086000 1800 40 1.200000 1.343000 1.622000 600 44 1.000000 0.053000 0.053000 1.200000 0.034000 0.041000
1517164122122855325	1300 50 1.200000 0.071000 0.086000 1800 40 1.200000 1.346000 1.625000 600 44 1.000000 0.053000 0.053000 1.200000 0.031000 0.037000
1517164122628018409	1300 50 1.200000 0.071000 0.086000 1800 41 1.200000 1.349000 1.629000 600 44 1.000000 0.053000 0.053000 1.200000 0.034000 0.041000
1517164123134232617	1300 50 1.200000 0.071000 0.086000 1800 40 1.200000 1.379000 1.665000 600 44 1.000000 0.053000 0.053000 1.200000 0.034000 0.041000
1517164123640316951	1300 46 1.200000 0.071000 0.086000 1800 40 1.200000 1.321000 1.595000 600 45 1.000000 0.053000 0.053000 1.200000 0.031000 0.037000
1517164124195312826	1300 50 1.200000 0.076000 0.092000 1800 41 1.200000 1.229000 1.484000 600 53 1.000000 0.053000 0.053000 1.200000 0.110000 0.133000
1517164124747265909	1300 54 1.200000 0.479000 0.578000 1800 43 1.200000 3.475000 4.239000 600 58 1.000000 0.053000 0.053000 1.200000 0.098000 0.118000
1517164125303252534	1300 56 1.200000 0.478000 0.576000 1800 45 1.200000 3.523000 4.298000 600 61 1.000000 0.053000 0.053000 1.200000 0.093000 0.112000
1517164125851229867	1300 57 1.200000 0.480000 0.579000 1800 46 1.200000 3.544000 4.323000 600 62 1.000000 0.053000 0.053000 1.200000 0.093000 0.112000
1517164126407213201	1300 58 1.200000 0.481000 0.580000 1800 47 1.200000 3.552000 4.333000 600 63 1.000000 0.054000 0.054000 1.200000 0.093000 0.112000
1517164126963224868	1300 60 1.200000 0.481000 0.580000 1800 48 1.200000 3.560000 4.343000 600 65 1.000000 0.054000 0.054000 1.200000 0.093000 0.112000
1517164127519201659	1300 60 1.200000 0.481000 0.580000 1800 49 1.200000 3.567000 4.351000 600 65 1.000000 0.054000 0.054000 1.200000 0.093000 0.112000
1517164128079236701	1300 61 1.200000 0.482000 0.581000 1800 50 1.200000 3.572000 4.357000 600 66 1.000000 0.054000 0.054000 1.200000 0.093000 0.112000
1517164128639241743	1300 62 1.200000 0.483000 0.582000 1800 50 1.200000 3.576000 4.362000 600 67 1.000000 0.054000 0.054000 1.200000 0.094000 0.113000
1517164129195205118	1300 62 1.200000 0.483000 0.582000 1800 51 1.200000 3.578000 4.365000 600 67 1.000000 0.055000 0.055000 1.200000 0.094000 0.113000
1517164129755244076	1300 63 1.200000 0.484000 0.583000 1800 51 1.200000 3.584000 4.372000 600 68 1.000000 0.055000 0.055000 1.200000 0.094000 0.113000
1517164130315233576	1300 63 1.200000 0.484000 0.583000 1800 51 1.200000 3.582000 4.370000 600 68 1.000000 0.055000 0.055000 1.200000 0.093000 0.112000
1517164130871221493	1300 63 1.200000 0.484000 0.583000 1800 52 1.200000 3.591000 4.381000 600 69 1.000000 0.055000 0.055000 1.200000 0.093000 0.112000
1517164131427240035	1300 64 1.200000 0.485000 0.584000 1800 52 1.200000 3.595000 4.385000 600 69 1.000000 0.055000 0.055000 1.200000 0.093000 0.112000
1517164131983197952	1300 64 1.200000 0.485000 0.584000 1800 52 1.200000 3.595000 4.385000 600 69 1.000000 0.055000 0.055000 1.200000 0.093000 0.112000
1517164132539244160	1300 64 1.200000 0.485000 0.584000 1800 53 1.200000 3.600000 4.392000 600 69 1.000000 0.055000 0.055000 1.200000 0.093000 0.112000
1517164133083264160	1300 64 1.200000 0.485000 0.584000 1800 53 1.200000 3.602000 4.394000 600 70 1.000000 0.055000 0.055000 1.200000 0.094000 0.113000
1517164133635213535	1300 64 1.200000 0.485000 0.584000 1800 53 1.200000 3.602000 4.394000 600 70 1.000000 0.055000 0.055000 1.200000 0.093000 0.112000
1517164134195252452	1300 65 1.200000 0.486000 0.586000 1800 53 1.200000 3.602000 4.394000 600 70 1.000000 0.055000 0.055000 1.200000 0.094000 0.113000
1517164134755212494	1300 65 1.200000 0.485000 0.584000 1800 54 1.200000 3.604000 4.396000 600 70 1.000000 0.055000 0.055000 1.200000 0.094000 0.113000
1517164135315206202	1300 65 1.200000 0.486000 0.586000 1800 54 1.200000 3.603000 4.395000 600 70 1.000000 0.055000 0.055000 1.200000 0.094000 0.113000
1517164135875206202	1300 65 1.200000 0.486000 0.586000 1800 54 1.200000 3.603000 4.395000 600 71 1.000000 0.055000 0.055000 1.200000 0.093000 0.112000
1517164136431235077	1300 66 1.200000 0.486000 0.586000 1800 54 1.200000 3.607000 4.400000 600 71 1.000000 0.055000 0.055000 1.200000 0.093000 0.112000
1517164136987221869	1300 66 1.200000 0.486000 0.586000 1800 54 1.200000 3.602000 4.394000 600 71 1.000000 0.055000 0.055000 1.200000 0.093000 0.112000
1517164137547229036	1300 66 1.200000 0.486000 0.586000 1800 54 1.200000 3.607000 4.400000 600 71 1.000000 0.055000 0.055000 1.200000 0.093000 0.112000
1517164138111237869	1300 66 1.200000 0.486000 0.586000 1800 54 1.200000 3.610000 4.404000 600 71 1.000000 0.055000 0.055000 1.200000 0.093000 0.112000
1517164138671207411	1300 66 1.200000 0.486000 0.586000 1800 55 1.200000 3.610000 4.404000 600 71 1.000000 0.055000 0.055000 1.200000 0.094000 0.113000
1517164139235235327	1300 66 1.200000 0.487000 0.587000 1800 55 1.200000 3.608000 4.401000 600 72 1.000000 0.055000 0.055000 1.200000 0.093000 0.112000
1517164139799221286	1300 66 1.200000 0.487000 0.587000 1800 55 1.200000 3.608000 4.401000 600 72 1.000000 0.055000 0.055000 1.200000 0.094000 0.113000
1517164140355211036	1300 66 1.200000 0.487000 0.587000 1800 55 1.200000 3.612000 4.406000 600 72 1.000000 0.055000 0.055000 1.200000 0.093000 0.112000
1517164140915218994	1300 67 1.200000 0.487000 0.587000 1800 55 1.200000 3.617000 4.412000 600 72 1.000000 0.056000 0.056000 1.200000 0.093000 0.112000
1517164141483203869	1300 67 1.200000 0.488000 0.588000 1800 55 1.200000 3.613000 4.407000 600 72 1.000000 0.055000 0.055000 1.200000 0.093000 0.112000
1517164142047237244	1300 67 1.200000 0.488000 0.588000 1800 55 1.200000 3.617000 4.412000 600 72 1.000000 0.055000 0.055000 1.200000 0.093000 0.112000
1517164142603226453	1300 67 1.200000 0.487000 0.587000 1800 55 1.200000 3.617000 4.412000 600 72 1.000000 0.055000 0.055000 1.200000 0.093000 0.112000
1517164143163188953	1300 67 1.200000 0.488000 0.588000 1800 55 1.200000 3.618000 4.413000 600 72 1.000000 0.055000 0.055000 1.200000 0.094000 0.113000
1517164143719229411	1300 67 1.200000 0.488000 0.588000 1800 56 1.200000 3.621000 4.417000 600 73 1.000000 0.055000 0.055000 1.200000 0.094000 0.113000
1517164144267226411	1300 67 1.200000 0.487000 0.587000 1800 56 1.200000 3.615000 4.410000 600 73 1.000000 0.055000 0.055000 1.200000 0.095000 0.114000
1517164144823222870	1300 67 1.200000 0.488000 0.588000 1800 56 1.200000 3.615000 4.410000 600 73 1.000000 0.055000 0.055000 1.200000 0.095000 0.114000
1517164145383239328	1300 68 1.200000 0.488000 0.588000 1800 56 1.200000 3.625000 4.422000 600 73 1.000000 0.056000 0.056000 1.200000 0.094000 0.113000
1517164145935241953	1300 68 1.200000 0.488000 0.588000 1800 56 1.200000 3.622000 4.418000 600 73 1.000000 0.055000 0.055000 1.200000 0.093000 0.112000
1517164146495233578	1300 68 1.200000 0.488000 0.588000 1800 56 1.200000 3.623000 4.420000 600 73 1.000000 0.056000 0.056000 1.200000 0.094000 0.113000
1517164147055260620	1300 68 1.200000 0.488000 0.588000 1800 56 1.200000 3.622000 4.418000 600 73 1.000000 0.056000 0.056000 1.200000 0.093000 0.112000
1517164147611231495	1300 68 1.200000 0.488000 0.588000 1800 56 1.200000 3.626000 4.423000 600 73 1.000000 0.056000 0.056000 1.200000 0.094000 0.113000
1517164148171233328	1300 68 1.200000 0.488000 0.588000 1800 56 1.200000 3.625000 4.422000 600 73 1.000000 0.056000 0.056000 1.200000 0.093000 0.112000
1517164148719202662	1300 68 1.200000 0.488000 0.588000 1800 56 1.200000 3.622000 4.418000 600 73 1.000000 0.055000 0.055000 1.200000 0.093000 0.112000
1517164149279227787	1300 68 1.200000 0.488000 0.588000 1800 56 1.200000 3.626000 4.423000 600 73 1.000000 0.056000 0.056000 1.200000 0.095000 0.114000
1517164149827217912	1300 68 1.200000 0.488000 0.588000 1800 57 1.200000 3.626000 4.423000 600 73 1.000000 0.056000 0.056000 1.200000 0.096000 0.116000
1517164150375223287	1300 68 1.200000 0.488000 0.588000 1800 57 1.200000 3.628000 4.426000 600 74 1.000000 0.056000 0.056000 1.200000 0.094000 0.113000
1517164150935192245	1300 68 1.200000 0.489000 0.589000 1800 57 1.200000 3.634000 4.433000 600 74 1.000000 0.056000 0.056000 1.200000 0.093000 0.112000
1517164151495208662	1300 68 1.200000 0.488000 0.588000 1800 57 1.200000 3.633000 4.432000 600 74 1.000000 0.056000 0.056000 1.200000 0.094000 0.113000
1517164152047199162	1300 68 1.200000 0.489000 0.589000 1800 57 1.200000 3.632000 4.431000 600 74 1.000000 0.056000 0.056000 1.200000 0.095000 0.114000
1517164152611235912	1300 68 1.200000 0.488000 0.588000 1800 57 1.200000 3.629000 4.427000 600 74 1.000000 0.056000 0.056000 1.200000 0.095000 0.114000
1517164153175225037	1300 68 1.200000 0.489000 0.589000 1800 57 1.200000 3.629000 4.431000 600 74 1.000000 0.056000 0.056000 1.200000 0.094000 0.113000
1517164153739237912	1300 69 1.200000 0.489000 0.589000 1800 57 1.200000 3.630000 4.432000 600 74 1.000000 0.056000 0.056000 1.200000 0.095000 0.114000
1517164154303258538	1300 69 1.200000 0.489000 0.589000 1800 57 1.200000 3.631000 4.433000 600 74 1.000000 0.056000 0.056000 1.200000 0.095000 0.114000
1517164154863202621	1300 69 1.200000 0.489000 0.589000 1800 57 1.200000 3.640000 4.444000 600 74 1.000000 0.056000 0.056000 1.200000 0.095000 0.115000
1517164155427202621	1300 69 1.200000 0.489000 0.589000 1800 57 1.200000 3.640000 4.444000 600 74 1.000000 0.056000 0.056000 1.200000 0.094000 0.113000
1517164155987241621	1300 69 1.200000 0.489000 0.589000 1800 57 1.200000 3.641000 4.445000 600 74 1.000000 0.056000 0.056000 1.200000 0.095000 0.114000
1517164156547216913	1300 69 1.200000 0.489000 0.589000 1800 57 1.200000 3.642000 4.446000 600 74 1.000000 0.056000 0.056000 1.200000 0.094000 0.113000
1517164157107224371	1300 69 1.200000 0.489000 0.589000 1800 57 1.200000 3.639000 4.443000 600 74 1.000000 0.056000 0.056000 1.200000 0.094000 0.113000
1517164157671239538	1300 69 1.200000 0.489000 0.589000 1800 57 1.200000 3.640000 4.444000 600 75 1.000000 0.056000 0.056000 1.200000 0.095000 0.114000
1517164158227182080	1300 69 1.200000 0.489000 0.589000 1800 57 1.200000 3.641000 4.445000 600 75 1.000000 0.056000 0.056000 1.200000 0.095000 0.114000
1517164158791215830	1300 69 1.200000 0.490000 0.590000 1800 58 1.200000 3.640000 4.444000 600 75 1.000000 0.056000 0.056000 1.200000 0.093000 0.112000
1517164159351212663	1300 69 1.200000 0.489000 0.589000 1800 58 1.200000 3.643000 4.448000 600 75 1.000000 0.056000 0.056000 1.200000 0.093000 0.112000
1517164159911214372	1300 69 1.200000 0.490000 0.590000 1800 58 1.200000 3.643000 4.444000 600 75 1.000000 0.057000 0.057000 1.200000 0.094000 0.113000
1517164160471182330	1300 69 1.200000 0.489000 0.589000 1800 58 1.200000 3.643000 4.444000 600 75 1.000000 0.056000 0.056000 1.200000 0.094000 0.113000
1517164161019223788	1300 69 1.200000 0.490000 0.590000 1800 58 1.200000 3.644000 4.449000 600 75 1.000000 0.056000 0.056000 1.200000 0.094000 0.113000
1517164161579231830	1300 69 1.200000 0.490000 0.590000 1800 58 1.200000 3.645000 4.450000 600 75 1.000000 0.056000 0.056000 1.200000 0.094000 0.113000
1517164162139252372	1300 69 1.200000 0.490000 0.590000 1800 58 1.200000 3.647000 4.452000 600 75 1.000000 0.056000 0.056000 1.200000 0.094000 0.113000
1517164162699229914	1300 70 1.200000 0.490000 0.590000 1800 58 1.200000 3.646000 4.451000 600 75 1.000000 0.056000 0.056000 1.200000 0.095000 0.114000
1517164163259195914	1300 70 1.200000 0.490000 0.590000 1800 58 1.200000 3.644000 4.445000 600 75 1.000000 0.056000 0.056000 1.200000 0.095000 0.114000
1517164163819231372	1300 70 1.200000 0.490000 0.590000 1800 58 1.200000 3.639000 4.439000 600 75 1.000000 0.057000 0.057000 1.200000 0.094000 0.113000
1517164164379230830	1300 70 1.200000 0.490000 0.590000 1800 58 1.200000 3.648000 4.454000 600 75 1.000000 0.056000 0.056000 1.200000 0.093000 0.112000
1517164164935193580	1300 70 1.200000 0.490000 0.590000 1800 58 1.200000 3.651000 4.457000 600 75 1.000000 0.057000 0.057000 1.200000 0.094000 0.113000
1517164165495215831	1300 70 1.200000 0.490000 0.590000 1800 58 1.200000 3.647000 4.449000 600 75 1.000000 0.056000 0.056000 1.200000 0.093000 0.112000
1517164166055242747	1300 70 1.200000 0.490000 0.590000 1800 58 1.200000 3.648000 4.450000 600 75 1.000000 0.056000 0.056000 1.200000 0.094000 0.113000
1517164166611225622	1300 70 1.200000 0.490000 0.590000 1800 58 1.200000 3.648000 4.450000 600 75 1.000000 0.056000 0.056000 1.200000 0.095000 0.115000
1517164167116547539	1300 63 1.200000 0.490000 0.590000 1800 57 1.200000 3.649000 4.451000 600 73 1.000000 0.056000 0.056000 1.200000 0.094000 0.113000
1517164167621276789	1300 57 1.200000 0.083000 0.101000 1800 54 1.200000 1.378000 1.667000 600 73 1.000000 0.056000 0.056000 1.200000 0.035000 0.042000
1517164168125882789	1300 54 1.200000 0.079000 0.096000 1800 52 1.200000 1.387000 1.678000 600 71 1.000000 0.055000 0.055000 1.200000 0.028000 0.033000
1517164168630461289	1300 53 1.200000 0.077000 0.094000 1800 50 1.200000 1.368000 1.652000 600 69 1.000000 0.055000 0.055000 1.200000 0.027000 0.032000
1517164169134998748	1300 52 1.200000 0.076000 0.093000 1800 49 1.200000 1.367000 1.651000 600 68 1.000000 0.055000 0.055000 1.200000 0.027000 0.032000
1517164169639639539	1300 52 1.200000 0.075000 0.091000 1800 49 1.200000 1.457000 1.762000 600 59 1.000000 0.055000 0.055000 1.200000 0.028000 0.033000
1517164170144257331	1300 51 1.200000 0.077000 0.094000 1800 48 1.200000 1.392000 1.681000 600 57 1.000000 0.055000 0.055000 1.200000 0.034000 0.041000
1517164170648784539	1300 51 1.200000 0.075000 0.091000 1800 48 1.200000 1.357000 1.639000 600 56 1.000000 0.055000 0.055000 1.200000 0.027000 0.032000
1517164171153336498	1300 50 1.200000 0.075000 0.091000 1800 47 1.200000 1.357000 1.639000 600 55 1.000000 0.055000 0.055000 1.200000 0.026000 0.031000
1517164171657943873	1300 50 1.200000 0.075000 0.091000 1800 47 1.200000 1.375000 1.661000 600 54 1.000000 0.054000 0.054000 1.200000 0.029000 0.035000
1517164172162500331	1300 49 1.200000 0.075000 0.091000 1800 46 1.200000 1.356000 1.638000 600 54 1.000000 0.054000 0.054000 1.200000 0.027000 0.032000
1517164172667003540	1300 49 1.200000 0.075000 0.091000 1800 46 1.200000 1.371000 1.656000 600 53 1.000000 0.054000 0.054000 1.200000 0.028000 0.033000
1517164173171607123	1300 49 1.200000 0.074000 0.090000 1800 46 1.200000 1.364000 1.647000 600 53 1.000000 0.054000 0.054000 1.200000 0.029000 0.035000
1517164173676063373	1300 48 1.200000 0.074000 0.090000 1800 45 1.200000 1.344000 1.623000 600 53 1.000000 0.054000 0.054000 1.200000 0.027000 0.032000
1517164174180639248	1300 48 1.200000 0.074000 0.090000 1800 45 1.200000 1.371000 1.656000 600 52 1.000000 0.054000 0.054000 1.200000 0.027000 0.032000
1517164174685213582	1300 48 1.200000 0.073000 0.089000 1800 45 1.200000 1.358000 1.640000 600 52 1.000000 0.054000 0.054000 1.200000 0.029000 0.035000
1517164175190174748	1300 49 1.200000 0.078000 0.095000 1800 45 1.200000 1.414000 1.708000 600 52 1.000000 0.054000 0.054000 1.200000 0.032000 0.038000
1517164175694775457	1300 48 1.200000 0.076000 0.092000 1800 45 1.200000 1.454000 1.756000 600 52 1.000000 0.054000 0.054000 1.200000 0.031000 0.037000
1517164176199302957	1300 48 1.200000 0.073000 0.089000 1800 44 1.200000 1.356000 1.638000 600 52 1.000000 0.053000 0.053000 1.200000 0.026000 0.031000
1517164176704111415	1300 48 1.200000 0.075000 0.091000 1800 44 1.200000 1.368000 1.652000 600 51 1.000000 0.053000 0.053000 1.200000 0.031000 0.037000
1517164177210052624	1300 47 1.200000 0.074000 0.090000 1800 44 1.200000 1.373000 1.658000 600 51 1.000000 0.054000 0.054000 1.200000 0.031000 0.037000
1517164177714627999	1300 47 1.200000 0.074000 0.090000 1800 44 1.200000 1.361000 1.644000 600 51 1.000000 0.053000 0.053000 1.200000 0.028000 0.033000
1517164178219239957	1300 47 1.200000 0.074000 0.090000 1800 44 1.200000 1.410000 1.703000 600 51 1.000000 0.054000 0.054000 1.200000 0.034000 0.041000
1517164178723826624	1300 47 1.200000 0.074000 0.090000 1800 44 1.200000 1.353000 1.634000 600 51 1.000000 0.054000 0.054000 1.200000 0.028000 0.033000
1517164179228285541	1300 47 1.200000 0.073000 0.089000 1800 44 1.200000 1.373000 1.658000 600 51 1.000000 0.053000 0.053000 1.200000 0.028000 0.033000
1517164179732823041	1300 47 1.200000 0.075000 0.091000 1800 44 1.200000 1.434000 1.732000 600 51 1.000000 0.053000 0.053000 1.200000 0.034000 0.041000
1517164180237338082	1300 46 1.200000 0.073000 0.089000 1800 44 1.200000 1.349000 1.629000 600 50 1.000000 0.053000 0.053000 1.200000 0.027000 0.032000
1517164180741923499	1300 47 1.200000 0.073000 0.089000 1800 44 1.200000 1.362000 1.645000 600 51 1.000000 0.053000 0.053000 1.200000 0.029000 0.035000
1517164181246537832	1300 47 1.200000 0.073000 0.089000 1800 44 1.200000 1.363000 1.646000 600 50 1.000000 0.053000 0.053000 1.200000 0.034000 0.041000
1517164181751079707	1300 47 1.200000 0.074000 0.090000 1800 43 1.200000 1.398000 1.688000 600 50 1.000000 0.053000 0.053000 1.200000 0.034000 0.041000
1517164182255651458	1300 46 1.200000 0.073000 0.089000 1800 43 1.200000 1.373000 1.658000 600 50 1.000000 0.053000 0.053000 1.200000 0.030000 0.036000
1517164182760164708	1300 46 1.200000 0.072000 0.088000 1800 43 1.200000 1.336000 1.613000 600 50 1.000000 0.053000 0.053000 1.200000 0.027000 0.032000
1517164183264667499	1300 46 1.200000 0.073000 0.089000 1800 43 1.200000 1.366000 1.650000 600 50 1.000000 0.053000 0.053000 1.200000 0.027000 0.032000
1517164183769226624	1300 46 1.200000 0.073000 0.089000 1800 43 1.200000 1.347000 1.627000 600 50 1.000000 0.053000 0.053000 1.200000 0.027000 0.032000
1517164184273634874	1300 46 1.200000 0.072000 0.088000 1800 43 1.200000 1.346000 1.625000 600 50 1.000000 0.053000 0.053000 1.200000 0.027000 0.032000
1517164184778249500	1300 46 1.200000 0.073000 0.089000 1800 43 1.200000 1.356000 1.638000 600 50 1.000000 0.053000 0.053000 1.200000 0.027000 0.032000
1517164185282736916	1300 46 1.200000 0.073000 0.089000 1800 43 1.200000 1.336000 1.613000 600 50 1.000000 0.053000 0.053000 1.200000 0.028000 0.033000
1517164185787496166	1300 45 1.200000 0.072000 0.088000 1800 43 1.200000 1.354000 1.635000 600 49 1.000000 0.053000 0.053000 1.200000 0.036000 0.043000
1517164186292366291	1300 43 1.200000 0.073000 0.089000 1800 42 1.200000 0.337000 0.405000 600 47 1.000000 0.053000 0.053000 1.200000 0.030000 0.036000
