#Timestamp	CPU(0) Frequency(MHz)	CPU(0) Temperature(C)	A7 Voltage(V)	A7 Current(A)	A7 Power(W)	CPU(4) Frequency(MHz)	CPU(4) Temperature(C)	A15 Voltage(V)	A15 Current(A)	A15 Power(W)	GPU Frequency(MHz)	GPU Temperature(C)	GPU Voltage(V)	GPU Current(A)	GPU Power(W)	RAM Voltage(V)	RAM Current(A)	RAM Power(W)
1517690046947755521	900 43 1.000000 0.099000 0.105000 900 39 0.900000 0.796000 0.749000 600 46 1.000000 0.053000 0.053000 1.200000 0.049000 0.059000
1517690047455888146	900 42 1.000000 0.259000 0.271000 900 40 0.900000 1.415000 1.334000 600 46 1.000000 0.053000 0.053000 1.200000 0.039000 0.047000
1517690048019765396	900 44 1.000000 0.252000 0.264000 900 40 0.900000 1.149000 1.083000 600 47 1.000000 0.053000 0.053000 1.200000 0.046000 0.055000
1517690048539470062	900 44 1.000000 0.170000 0.179000 900 41 0.900000 1.066000 1.004000 600 48 1.000000 0.053000 0.053000 1.200000 0.040000 0.048000
1517690049047698396	900 44 1.000000 0.236000 0.248000 900 41 0.900000 1.356000 1.278000 600 47 1.000000 0.053000 0.053000 1.200000 0.038000 0.045000
1517690049604945687	900 45 1.000000 0.188000 0.198000 900 41 0.900000 1.444000 1.361000 600 48 1.000000 0.053000 0.053000 1.200000 0.041000 0.049000
1517690050112604813	900 44 1.000000 0.182000 0.192000 900 41 0.900000 0.988000 0.930000 600 48 1.000000 0.053000 0.053000 1.200000 0.048000 0.057000
1517690050647797938	900 44 1.000000 0.265000 0.278000 900 41 0.900000 1.265000 1.191000 600 48 1.000000 0.053000 0.053000 1.200000 0.037000 0.044000
1517690051155794188	900 43 1.000000 0.257000 0.270000 900 41 0.900000 1.431000 1.349000 600 46 1.000000 0.053000 0.053000 1.200000 0.040000 0.048000
1517690051665270063	900 45 1.000000 0.203000 0.213000 900 41 0.900000 1.381000 1.302000 600 49 1.000000 0.053000 0.053000 1.200000 0.046000 0.055000
1517690052172693563	900 45 1.000000 0.174000 0.183000 900 41 0.900000 1.091000 1.027000 600 49 1.000000 0.053000 0.053000 1.200000 0.047000 0.056000
1517690052743738188	900 44 1.000000 0.252000 0.265000 900 41 0.900000 1.420000 1.339000 600 48 1.000000 0.053000 0.053000 1.200000 0.037000 0.044000
1517690053251774563	900 44 1.000000 0.256000 0.269000 900 41 0.900000 1.347000 1.270000 600 47 1.000000 0.053000 0.053000 1.200000 0.039000 0.047000
1517690053804167063	900 45 1.000000 0.250000 0.262000 900 41 0.900000 1.425000 1.343000 600 48 1.000000 0.053000 0.053000 1.200000 0.047000 0.056000
1517690054371788396	900 45 1.000000 0.172000 0.181000 900 41 0.900000 1.007000 0.948000 600 48 1.000000 0.053000 0.053000 1.200000 0.046000 0.055000
1517690054889773438	900 45 1.000000 0.217000 0.228000 900 41 0.900000 1.356000 1.278000 600 48 1.000000 0.053000 0.053000 1.200000 0.039000 0.047000
1517690055397609730	900 43 1.000000 0.247000 0.259000 900 41 0.900000 1.372000 1.293000 600 47 1.000000 0.053000 0.053000 1.200000 0.039000 0.047000
1517690055934976563	900 45 1.000000 0.182000 0.192000 900 41 0.900000 1.406000 1.325000 600 49 1.000000 0.053000 0.053000 1.200000 0.046000 0.055000
1517690056442600272	900 45 1.000000 0.252000 0.264000 900 41 0.900000 1.058000 0.996000 600 48 1.000000 0.053000 0.053000 1.200000 0.045000 0.054000
1517690057003775022	900 45 1.000000 0.264000 0.277000 900 41 0.900000 1.398000 1.318000 600 48 1.000000 0.053000 0.053000 1.200000 0.038000 0.045000
1517690057513444855	900 45 1.000000 0.251000 0.263000 900 41 0.900000 1.380000 1.301000 600 49 1.000000 0.053000 0.053000 1.200000 0.038000 0.045000
1517690058021006813	900 45 1.000000 0.121000 0.128000 900 41 0.900000 1.131000 1.065000 600 48 1.000000 0.053000 0.053000 1.200000 0.049000 0.059000
1517690058528944689	900 44 1.000000 0.223000 0.235000 900 41 0.900000 1.080000 1.016000 600 48 1.000000 0.053000 0.053000 1.200000 0.038000 0.045000
1517690059036992522	900 43 1.000000 0.248000 0.260000 900 41 0.900000 1.364000 1.286000 600 47 1.000000 0.053000 0.053000 1.200000 0.036000 0.043000
1517690059570043147	900 45 1.000000 0.262000 0.275000 900 41 0.900000 1.407000 1.326000 600 49 1.000000 0.053000 0.053000 1.200000 0.042000 0.050000
1517690060123789647	900 45 1.000000 0.183000 0.193000 900 41 0.900000 1.042000 0.981000 600 48 1.000000 0.053000 0.053000 1.200000 0.046000 0.055000
1517690060647215064	900 45 1.000000 0.201000 0.212000 900 41 0.900000 1.089000 1.025000 600 48 1.000000 0.053000 0.053000 1.200000 0.038000 0.045000
1517690061155102481	900 45 1.000000 0.233000 0.245000 900 41 0.900000 1.366000 1.288000 600 47 1.000000 0.053000 0.053000 1.200000 0.036000 0.043000
1517690061679590856	900 45 1.000000 0.264000 0.277000 900 42 0.900000 1.422000 1.340000 600 49 1.000000 0.053000 0.053000 1.200000 0.042000 0.050000
1517690062239791731	900 45 1.000000 0.202000 0.212000 900 41 0.900000 1.122000 1.056000 600 48 1.000000 0.053000 0.053000 1.200000 0.048000 0.057000
1517690062747763856	900 45 1.000000 0.257000 0.270000 900 41 0.900000 1.011000 0.952000 600 48 1.000000 0.053000 0.053000 1.200000 0.041000 0.049000
1517690063256197897	900 44 1.000000 0.271000 0.284000 900 41 0.900000 1.438000 1.356000 600 47 1.000000 0.053000 0.053000 1.200000 0.039000 0.047000
1517690063763838523	900 45 1.000000 0.225000 0.236000 900 42 0.900000 1.375000 1.296000 600 49 1.000000 0.053000 0.053000 1.200000 0.038000 0.045000
1517690064323823398	900 45 1.000000 0.165000 0.174000 900 42 0.900000 1.170000 1.103000 600 48 1.000000 0.053000 0.053000 1.200000 0.048000 0.057000
1517690064836081981	900 45 1.000000 0.239000 0.251000 900 41 0.900000 1.022000 0.962000 600 49 1.000000 0.053000 0.053000 1.200000 0.042000 0.050000
1517690065344061231	900 43 1.000000 0.259000 0.271000 900 41 0.900000 1.420000 1.339000 600 47 1.000000 0.053000 0.053000 1.200000 0.036000 0.043000
1517690065866972606	900 45 1.000000 0.252000 0.264000 900 42 0.900000 1.372000 1.293000 600 49 1.000000 0.053000 0.053000 1.200000 0.038000 0.045000
1517690066416005606	900 45 1.000000 0.186000 0.196000 900 42 0.900000 1.291000 1.217000 600 48 1.000000 0.053000 0.053000 1.200000 0.047000 0.056000
1517690066952380606	900 45 1.000000 0.184000 0.194000 900 42 0.900000 1.001000 0.942000 600 49 1.000000 0.053000 0.053000 1.200000 0.043000 0.051000
1517690067460315940	900 43 1.000000 0.251000 0.264000 900 41 0.900000 1.414000 1.333000 600 48 1.000000 0.053000 0.053000 1.200000 0.036000 0.043000
1517690068002571565	900 45 1.000000 0.256000 0.269000 900 42 0.900000 1.023000 0.963000 600 49 1.000000 0.053000 0.053000 1.200000 0.037000 0.044000
1517690068547775981	900 45 1.000000 0.219000 0.230000 900 42 0.900000 1.194000 1.124000 600 48 1.000000 0.053000 0.053000 1.200000 0.044000 0.053000
1517690069094691398	900 45 1.000000 0.255000 0.268000 900 41 0.900000 1.417000 1.336000 600 48 1.000000 0.053000 0.053000 1.200000 0.039000 0.047000
1517690069602495815	900 44 1.000000 0.268000 0.281000 900 42 0.900000 1.365000 1.287000 600 47 1.000000 0.053000 0.053000 1.200000 0.036000 0.043000
1517690070154242857	900 45 1.000000 0.184000 0.194000 900 42 0.900000 1.083000 1.020000 600 49 1.000000 0.053000 0.053000 1.200000 0.040000 0.048000
1517690070661987023	900 45 1.000000 0.178000 0.187000 900 42 0.900000 1.263000 1.189000 600 49 1.000000 0.053000 0.053000 1.200000 0.045000 0.054000
1517690071170198023	900 44 1.000000 0.246000 0.258000 900 41 0.900000 1.457000 1.373000 600 48 1.000000 0.053000 0.053000 1.200000 0.037000 0.044000
1517690071716975982	900 46 1.000000 0.258000 0.270000 900 42 0.900000 1.377000 1.298000 600 49 1.000000 0.053000 0.053000 1.200000 0.035000 0.042000
1517690072225020107	900 45 1.000000 0.213000 0.224000 900 42 0.900000 1.024000 0.964000 600 49 1.000000 0.053000 0.053000 1.200000 0.041000 0.049000
1517690072733623899	900 45 1.000000 0.167000 0.176000 900 42 0.900000 1.425000 1.343000 600 48 1.000000 0.053000 0.053000 1.200000 0.047000 0.056000
1517690073241911232	900 43 1.000000 0.265000 0.278000 900 41 0.900000 1.373000 1.294000 600 47 1.000000 0.053000 0.053000 1.200000 0.037000 0.044000
1517690073770032482	900 45 1.000000 0.249000 0.261000 900 42 0.900000 1.286000 1.212000 600 49 1.000000 0.053000 0.053000 1.200000 0.037000 0.044000
1517690074327789857	900 45 1.000000 0.248000 0.260000 900 42 0.900000 1.028000 0.968000 600 48 1.000000 0.053000 0.053000 1.200000 0.044000 0.053000
1517690074854808149	900 45 1.000000 0.258000 0.271000 900 42 0.900000 1.431000 1.349000 600 49 1.000000 0.053000 0.053000 1.200000 0.046000 0.055000
1517690075362793941	900 45 1.000000 0.262000 0.275000 900 42 0.900000 1.360000 1.282000 600 48 1.000000 0.053000 0.053000 1.200000 0.036000 0.043000
1517690075902629732	900 46 1.000000 0.206000 0.217000 900 42 0.900000 1.288000 1.213000 600 49 1.000000 0.053000 0.053000 1.200000 0.048000 0.057000
1517690076412030191	900 45 1.000000 0.186000 0.196000 900 42 0.900000 1.000000 0.942000 600 49 1.000000 0.053000 0.053000 1.200000 0.041000 0.049000
1517690076975799649	900 45 1.000000 0.259000 0.271000 900 42 0.900000 1.435000 1.353000 600 49 1.000000 0.053000 0.053000 1.200000 0.037000 0.044000
1517690077483970316	900 44 1.000000 0.241000 0.253000 900 42 0.900000 1.366000 1.288000 600 48 1.000000 0.053000 0.053000 1.200000 0.039000 0.047000
1517690078038243358	900 46 1.000000 0.272000 0.286000 900 42 0.900000 1.229000 1.157000 600 49 1.000000 0.053000 0.053000 1.200000 0.049000 0.059000
1517690078591780024	900 45 1.000000 0.178000 0.187000 900 42 0.900000 1.071000 1.007000 600 48 1.000000 0.053000 0.053000 1.200000 0.040000 0.048000
1517690079127043858	900 45 1.000000 0.215000 0.226000 900 42 0.900000 1.409000 1.328000 600 49 1.000000 0.053000 0.053000 1.200000 0.038000 0.045000
1517690079634892899	900 44 1.000000 0.256000 0.269000 900 42 0.900000 1.426000 1.344000 600 48 1.000000 0.053000 0.053000 1.200000 0.041000 0.049000
1517690080176658691	900 46 1.000000 0.260000 0.273000 900 42 0.900000 1.181000 1.112000 600 49 1.000000 0.053000 0.053000 1.200000 0.046000 0.055000
1517690080739772358	900 45 1.000000 0.167000 0.176000 900 42 0.900000 1.069000 1.006000 600 49 1.000000 0.053000 0.053000 1.200000 0.041000 0.049000
1517690081247756275	900 46 1.000000 0.239000 0.252000 900 42 0.900000 1.385000 1.306000 600 49 1.000000 0.053000 0.053000 1.200000 0.037000 0.044000
1517690081755844525	900 45 1.000000 0.271000 0.284000 900 42 0.900000 1.402000 1.322000 600 48 1.000000 0.053000 0.053000 1.200000 0.041000 0.049000
1517690082317472525	900 46 1.000000 0.175000 0.184000 900 42 0.900000 1.171000 1.103000 600 49 1.000000 0.053000 0.053000 1.200000 0.046000 0.055000
1517690082887787400	900 45 1.000000 0.221000 0.232000 900 42 0.900000 1.088000 1.023000 600 49 1.000000 0.053000 0.053000 1.200000 0.037000 0.044000
1517690083401280400	900 45 1.000000 0.252000 0.264000 900 42 0.900000 1.376000 1.297000 600 49 1.000000 0.053000 0.053000 1.200000 0.037000 0.044000
1517690083909057692	900 44 1.000000 0.270000 0.283000 900 42 0.900000 1.416000 1.335000 600 48 1.000000 0.053000 0.053000 1.200000 0.042000 0.050000
1517690084438204692	900 46 1.000000 0.207000 0.218000 900 42 0.900000 1.086000 1.023000 600 49 1.000000 0.053000 0.053000 1.200000 0.047000 0.056000
1517690084999792108	900 45 1.000000 0.177000 0.186000 900 42 0.900000 1.075000 1.012000 600 49 1.000000 0.053000 0.053000 1.200000 0.042000 0.050000
1517690085507644442	900 45 1.000000 0.259000 0.272000 900 42 0.900000 1.400000 1.320000 600 49 1.000000 0.053000 0.053000 1.200000 0.039000 0.047000
1517690086015542817	900 43 1.000000 0.264000 0.277000 900 42 0.900000 1.451000 1.368000 600 47 1.000000 0.053000 0.053000 1.200000 0.040000 0.048000
1517690086535096150	900 45 1.000000 0.257000 0.270000 900 42 0.900000 1.187000 1.118000 600 49 1.000000 0.053000 0.053000 1.200000 0.049000 0.059000
1517690087091742984	900 45 1.000000 0.173000 0.182000 900 42 0.900000 1.000000 0.942000 600 49 1.000000 0.053000 0.053000 1.200000 0.042000 0.050000
1517690087599410567	900 45 1.000000 0.255000 0.267000 900 42 0.900000 1.412000 1.331000 600 49 1.000000 0.053000 0.053000 1.200000 0.037000 0.044000
1517690088107366900	900 45 1.000000 0.258000 0.271000 900 42 0.900000 1.407000 1.325000 600 47 1.000000 0.053000 0.053000 1.200000 0.036000 0.043000
1517690088615152817	900 46 1.000000 0.175000 0.184000 900 42 0.900000 1.402000 1.322000 600 49 1.000000 0.053000 0.053000 1.200000 0.046000 0.055000
1517690089167817651	900 45 1.000000 0.189000 0.199000 900 42 0.900000 1.005000 0.946000 600 49 1.000000 0.053000 0.053000 1.200000 0.044000 0.053000
1517690089675982401	900 45 1.000000 0.251000 0.264000 900 42 0.900000 1.291000 1.216000 600 49 1.000000 0.053000 0.053000 1.200000 0.037000 0.044000
1517690090184912442	900 45 1.000000 0.226000 0.237000 900 42 0.900000 1.458000 1.374000 600 47 1.000000 0.053000 0.053000 1.200000 0.037000 0.044000
1517690090699815317	900 45 1.000000 0.258000 0.271000 900 42 0.900000 1.408000 1.327000 600 49 1.000000 0.053000 0.053000 1.200000 0.045000 0.054000
1517690091225077442	900 45 1.000000 0.168000 0.177000 900 42 0.900000 1.072000 1.009000 600 49 1.000000 0.053000 0.053000 1.200000 0.048000 0.058000
1517690091773617443	900 45 1.000000 0.179000 0.189000 900 42 0.900000 1.005000 0.946000 600 49 1.000000 0.053000 0.053000 1.200000 0.037000 0.044000
1517690092331775359	900 45 1.000000 0.221000 0.232000 900 42 0.900000 1.354000 1.276000 600 49 1.000000 0.053000 0.053000 1.200000 0.040000 0.048000
1517690092839664276	900 43 1.000000 0.234000 0.246000 900 41 0.900000 1.460000 1.376000 600 47 1.000000 0.053000 0.053000 1.200000 0.039000 0.047000
1517690093375819901	900 45 1.000000 0.259000 0.272000 900 42 0.900000 1.395000 1.315000 600 49 1.000000 0.053000 0.053000 1.200000 0.044000 0.053000
1517690093887755193	900 45 1.000000 0.197000 0.207000 900 42 0.900000 1.060000 0.998000 600 49 1.000000 0.053000 0.053000 1.200000 0.045000 0.054000
1517690094405213151	900 45 1.000000 0.233000 0.245000 900 42 0.900000 1.060000 0.997000 600 48 1.000000 0.053000 0.053000 1.200000 0.036000 0.043000
1517690094913242610	900 44 1.000000 0.246000 0.258000 900 42 0.900000 1.341000 1.264000 600 47 1.000000 0.053000 0.053000 1.200000 0.035000 0.042000
1517690095442356026	900 45 1.000000 0.205000 0.215000 900 42 0.900000 1.408000 1.327000 600 49 1.000000 0.053000 0.053000 1.200000 0.042000 0.050000
1517690095949944610	900 45 1.000000 0.153000 0.161000 900 42 0.900000 0.990000 0.932000 600 49 1.000000 0.053000 0.053000 1.200000 0.044000 0.053000
1517690096507777943	900 45 1.000000 0.266000 0.279000 900 41 0.900000 1.192000 1.122000 600 48 1.000000 0.053000 0.053000 1.200000 0.034000 0.041000
1517690097015696443	900 44 1.000000 0.257000 0.269000 900 42 0.900000 1.391000 1.311000 600 48 1.000000 0.053000 0.053000 1.200000 0.037000 0.044000
1517690097575721193	900 45 1.000000 0.278000 0.292000 900 42 0.900000 1.398000 1.318000 600 49 1.000000 0.053000 0.053000 1.200000 0.043000 0.051000
1517690098087757360	900 45 1.000000 0.189000 0.199000 900 41 0.900000 1.039000 0.978000 600 49 1.000000 0.053000 0.053000 1.200000 0.042000 0.050000
1517690098615929652	900 45 1.000000 0.233000 0.244000 900 41 0.900000 1.293000 1.219000 600 48 1.000000 0.053000 0.053000 1.200000 0.036000 0.043000
1517690099160507402	900 45 1.000000 0.259000 0.271000 900 42 0.900000 1.388000 1.308000 600 49 1.000000 0.053000 0.053000 1.200000 0.035000 0.042000
1517690099668186943	900 45 1.000000 0.255000 0.269000 900 42 0.900000 1.523000 1.436000 600 49 1.000000 0.053000 0.053000 1.200000 0.045000 0.054000
1517690100231784277	900 45 1.000000 0.267000 0.280000 900 42 0.900000 1.147000 1.079000 600 48 1.000000 0.053000 0.053000 1.200000 0.040000 0.048000
1517690100743302735	900 44 1.000000 0.259000 0.272000 900 41 0.900000 1.389000 1.309000 600 48 1.000000 0.053000 0.053000 1.200000 0.037000 0.044000
1517690101283732735	900 45 1.000000 0.230000 0.241000 900 42 0.900000 1.379000 1.300000 600 49 1.000000 0.053000 0.053000 1.200000 0.035000 0.042000
1517690101830194235	900 45 1.000000 0.163000 0.172000 900 42 0.900000 1.232000 1.161000 600 49 1.000000 0.053000 0.053000 1.200000 0.048000 0.057000
1517690102348128277	900 45 1.000000 0.249000 0.262000 900 41 0.900000 1.017000 0.958000 600 49 1.000000 0.053000 0.053000 1.200000 0.037000 0.044000
1517690102855953194	900 45 1.000000 0.258000 0.271000 900 41 0.900000 1.363000 1.285000 600 47 1.000000 0.053000 0.053000 1.200000 0.036000 0.043000
1517690103398070611	900 45 1.000000 0.231000 0.242000 900 42 0.900000 1.426000 1.344000 600 49 1.000000 0.053000 0.053000 1.200000 0.040000 0.048000
1517690103906657111	900 45 1.000000 0.198000 0.209000 900 42 0.900000 1.104000 1.038000 600 49 1.000000 0.053000 0.053000 1.200000 0.048000 0.057000
1517690104467747652	900 45 1.000000 0.243000 0.255000 900 41 0.900000 1.110000 1.045000 600 48 1.000000 0.053000 0.053000 1.200000 0.037000 0.044000
1517690104975675236	900 45 1.000000 0.264000 0.277000 900 42 0.900000 1.391000 1.311000 600 48 1.000000 0.053000 0.053000 1.200000 0.036000 0.043000
1517690105543825736	900 45 1.000000 0.249000 0.261000 900 42 0.900000 1.043000 0.982000 600 49 1.000000 0.053000 0.053000 1.200000 0.042000 0.050000
1517690106051381736	900 45 1.000000 0.169000 0.177000 900 42 0.900000 1.447000 1.364000 600 49 1.000000 0.053000 0.053000 1.200000 0.046000 0.055000
1517690106611773486	900 45 1.000000 0.259000 0.272000 900 41 0.900000 1.376000 1.297000 600 48 1.000000 0.053000 0.053000 1.200000 0.036000 0.043000
1517690107119561069	900 45 1.000000 0.239000 0.251000 900 42 0.900000 1.227000 1.157000 600 48 1.000000 0.053000 0.053000 1.200000 0.037000 0.044000
1517690107635719028	900 45 1.000000 0.161000 0.170000 900 42 0.900000 1.049000 0.988000 600 48 1.000000 0.053000 0.053000 1.200000 0.043000 0.052000
1517690108195759444	900 45 1.000000 0.241000 0.253000 900 41 0.900000 1.410000 1.329000 600 48 1.000000 0.053000 0.053000 1.200000 0.045000 0.054000
1517690108703850986	900 45 1.000000 0.262000 0.275000 900 41 0.900000 1.422000 1.340000 600 48 1.000000 0.053000 0.053000 1.200000 0.035000 0.042000
1517690109267790570	900 45 1.000000 0.257000 0.270000 900 42 0.900000 1.115000 1.050000 600 49 1.000000 0.053000 0.053000 1.200000 0.038000 0.045000
1517690109775880820	900 45 1.000000 0.192000 0.202000 900 42 0.900000 1.138000 1.071000 600 49 1.000000 0.053000 0.053000 1.200000 0.046000 0.055000
1517690110339786986	900 45 1.000000 0.228000 0.239000 900 41 0.900000 1.332000 1.256000 600 49 1.000000 0.053000 0.053000 1.200000 0.040000 0.048000
1517690110853397945	900 45 1.000000 0.266000 0.279000 900 41 0.900000 1.420000 1.339000 600 48 1.000000 0.053000 0.053000 1.200000 0.036000 0.043000
1517690111404702987	900 45 1.000000 0.260000 0.273000 900 41 0.900000 0.986000 0.928000 600 49 1.000000 0.053000 0.053000 1.200000 0.037000 0.044000
1517690111912322195	900 45 1.000000 0.170000 0.179000 900 42 0.900000 1.119000 1.054000 600 49 1.000000 0.053000 0.053000 1.200000 0.046000 0.055000
1517690112479759528	900 45 1.000000 0.244000 0.257000 900 42 0.900000 1.431000 1.349000 600 48 1.000000 0.053000 0.053000 1.200000 0.038000 0.045000
1517690113038457862	900 45 1.000000 0.259000 0.272000 900 41 0.900000 1.441000 1.358000 600 48 1.000000 0.053000 0.053000 1.200000 0.036000 0.043000
1517690113546386737	900 43 1.000000 0.195000 0.206000 900 41 0.900000 1.065000 1.003000 600 47 1.000000 0.053000 0.053000 1.200000 0.037000 0.044000
1517690114083798654	900 45 1.000000 0.181000 0.191000 900 42 0.900000 1.007000 0.948000 600 48 1.000000 0.053000 0.053000 1.200000 0.045000 0.054000
1517690114627734737	900 44 1.000000 0.221000 0.232000 900 42 0.900000 1.298000 1.224000 600 48 1.000000 0.053000 0.053000 1.200000 0.049000 0.059000
1517690115195760695	900 45 1.000000 0.268000 0.281000 900 41 0.900000 1.394000 1.314000 600 48 1.000000 0.053000 0.053000 1.200000 0.044000 0.053000
1517690115748068612	900 45 1.000000 0.193000 0.204000 900 41 0.900000 1.176000 1.107000 600 49 1.000000 0.053000 0.053000 1.200000 0.037000 0.044000
1517690116309532279	900 45 1.000000 0.233000 0.245000 900 41 0.900000 1.386000 1.306000 600 48 1.000000 0.053000 0.053000 1.200000 0.037000 0.044000
1517690116817961487	900 44 1.000000 0.265000 0.278000 900 41 0.900000 1.373000 1.294000 600 47 1.000000 0.053000 0.053000 1.200000 0.043000 0.051000
1517690117326075487	900 44 1.000000 0.277000 0.291000 900 42 0.900000 1.342000 1.265000 600 48 1.000000 0.053000 0.053000 1.200000 0.046000 0.055000
1517690117887788029	900 45 1.000000 0.218000 0.229000 900 41 0.900000 0.997000 0.939000 600 49 1.000000 0.053000 0.053000 1.200000 0.044000 0.053000
1517690118421345904	900 45 1.000000 0.107000 0.113000 900 41 0.900000 1.428000 1.346000 600 49 1.000000 0.053000 0.053000 1.200000 0.037000 0.044000
1517690118929359862	900 45 1.000000 0.264000 0.277000 900 41 0.900000 1.375000 1.296000 600 47 1.000000 0.053000 0.053000 1.200000 0.038000 0.045000
1517690119466623529	900 45 1.000000 0.192000 0.202000 900 42 0.900000 1.226000 1.156000 600 49 1.000000 0.053000 0.053000 1.200000 0.049000 0.059000
1517690119974417571	900 45 1.000000 0.190000 0.200000 900 42 0.900000 0.995000 0.937000 600 49 1.000000 0.053000 0.053000 1.200000 0.042000 0.050000
1517690120515805696	900 44 1.000000 0.230000 0.242000 900 41 0.900000 1.408000 1.327000 600 48 1.000000 0.053000 0.053000 1.200000 0.037000 0.044000
1517690121025153154	900 46 1.000000 0.274000 0.287000 900 42 0.900000 1.423000 1.341000 600 49 1.000000 0.053000 0.053000 1.200000 0.042000 0.050000
1517690121540673071	900 45 1.000000 0.176000 0.185000 900 42 0.900000 1.122000 1.056000 600 48 1.000000 0.053000 0.053000 1.200000 0.048000 0.057000
1517690122099801238	900 45 1.000000 0.171000 0.180000 900 42 0.900000 1.042000 0.981000 600 48 1.000000 0.053000 0.053000 1.200000 0.037000 0.044000
1517690122612477988	900 44 1.000000 0.268000 0.281000 900 41 0.900000 1.401000 1.321000 600 48 1.000000 0.053000 0.053000 1.200000 0.038000 0.045000
1517690123159972655	900 45 1.000000 0.251000 0.263000 900 42 0.900000 1.389000 1.309000 600 49 1.000000 0.053000 0.053000 1.200000 0.042000 0.050000
1517690123667879863	900 45 1.000000 0.263000 0.276000 900 42 0.900000 1.064000 1.002000 600 49 1.000000 0.053000 0.053000 1.200000 0.048000 0.057000
1517690124235801905	900 45 1.000000 0.163000 0.171000 900 41 0.900000 1.077000 1.013000 600 48 1.000000 0.053000 0.053000 1.200000 0.038000 0.045000
1517690124743994988	900 44 1.000000 0.210000 0.221000 900 41 0.900000 1.386000 1.306000 600 48 1.000000 0.053000 0.053000 1.200000 0.036000 0.043000
1517690125307761780	900 45 1.000000 0.193000 0.203000 900 41 0.900000 1.427000 1.345000 600 49 1.000000 0.053000 0.053000 1.200000 0.043000 0.051000
1517690125821141697	900 45 1.000000 0.175000 0.184000 900 41 0.900000 1.013000 0.954000 600 49 1.000000 0.053000 0.053000 1.200000 0.045000 0.054000
1517690126328971530	900 44 1.000000 0.265000 0.278000 900 41 0.900000 1.216000 1.145000 600 48 1.000000 0.053000 0.053000 1.200000 0.037000 0.044000
1517690126836911655	900 43 1.000000 0.253000 0.265000 900 41 0.900000 1.391000 1.311000 600 47 1.000000 0.053000 0.053000 1.200000 0.036000 0.043000
1517690127388549822	900 45 1.000000 0.220000 0.231000 900 42 0.900000 1.384000 1.305000 600 49 1.000000 0.053000 0.053000 1.200000 0.045000 0.054000
1517690127899948947	900 45 1.000000 0.150000 0.159000 900 42 0.900000 1.058000 0.996000 600 49 1.000000 0.053000 0.053000 1.200000 0.042000 0.050000
1517690128435888697	900 45 1.000000 0.263000 0.276000 900 41 0.900000 1.403000 1.323000 600 48 1.000000 0.053000 0.053000 1.200000 0.039000 0.047000
1517690128956805530	900 45 1.000000 0.254000 0.266000 900 42 0.900000 1.356000 1.278000 600 49 1.000000 0.053000 0.053000 1.200000 0.037000 0.044000
1517690129464795614	900 45 1.000000 0.232000 0.243000 900 41 0.900000 1.377000 1.298000 600 48 1.000000 0.053000 0.053000 1.200000 0.049000 0.059000
1517690130003794530	900 45 1.000000 0.182000 0.192000 900 41 0.900000 1.029000 0.969000 600 48 1.000000 0.053000 0.053000 1.200000 0.036000 0.043000
1517690130512166030	900 43 1.000000 0.254000 0.266000 900 41 0.900000 1.392000 1.312000 600 47 1.000000 0.053000 0.053000 1.200000 0.036000 0.043000
1517690131024023364	900 45 1.000000 0.250000 0.262000 900 42 0.900000 1.405000 1.324000 600 49 1.000000 0.053000 0.053000 1.200000 0.039000 0.047000
1517690131531533072	900 45 1.000000 0.189000 0.199000 900 42 0.900000 1.042000 0.982000 600 49 1.000000 0.053000 0.053000 1.200000 0.046000 0.055000
1517690132055805447	900 45 1.000000 0.236000 0.249000 900 41 0.900000 1.121000 1.055000 600 48 1.000000 0.053000 0.053000 1.200000 0.035000 0.042000
1517690132594986281	900 45 1.000000 0.251000 0.264000 900 42 0.900000 1.417000 1.336000 600 49 1.000000 0.053000 0.053000 1.200000 0.035000 0.042000
1517690133102816322	900 45 1.000000 0.204000 0.215000 900 42 0.900000 1.387000 1.307000 600 49 1.000000 0.053000 0.053000 1.200000 0.043000 0.051000
1517690133611578323	900 45 1.000000 0.261000 0.274000 900 41 0.900000 1.435000 1.353000 600 48 1.000000 0.053000 0.053000 1.200000 0.037000 0.044000
1517690134119627573	900 43 1.000000 0.240000 0.253000 900 41 0.900000 1.409000 1.328000 600 47 1.000000 0.053000 0.053000 1.200000 0.039000 0.047000
1517690134677010281	900 45 1.000000 0.167000 0.176000 900 42 0.900000 1.155000 1.088000 600 49 1.000000 0.053000 0.053000 1.200000 0.047000 0.056000
1517690135215991031	900 44 1.000000 0.235000 0.247000 900 41 0.900000 1.093000 1.029000 600 48 1.000000 0.053000 0.053000 1.200000 0.035000 0.042000
1517690135742359781	900 45 1.000000 0.267000 0.280000 900 41 0.900000 1.373000 1.294000 600 49 1.000000 0.053000 0.053000 1.200000 0.038000 0.045000
1517690136250757198	900 43 1.000000 0.274000 0.287000 900 41 0.900000 1.416000 1.335000 600 47 1.000000 0.053000 0.053000 1.200000 0.042000 0.050000
1517690136792000906	900 45 1.000000 0.185000 0.194000 900 42 0.900000 1.213000 1.142000 600 48 1.000000 0.053000 0.053000 1.200000 0.049000 0.059000
1517690137313474156	900 45 1.000000 0.167000 0.176000 900 41 0.900000 0.969000 0.911000 600 49 1.000000 0.053000 0.053000 1.200000 0.041000 0.049000
1517690137869424448	900 45 1.000000 0.254000 0.267000 900 41 0.900000 1.347000 1.270000 600 48 1.000000 0.053000 0.053000 1.200000 0.040000 0.048000
1517690138430581073	900 45 1.000000 0.255000 0.268000 900 41 0.900000 1.037000 0.975000 600 48 1.000000 0.053000 0.053000 1.200000 0.041000 0.049000
1517690138945162156	900 44 1.000000 0.257000 0.270000 900 41 0.900000 1.320000 1.243000 600 47 1.000000 0.053000 0.053000 1.200000 0.038000 0.045000
1517690139479637073	900 45 1.000000 0.244000 0.256000 900 41 0.900000 1.430000 1.347000 600 49 1.000000 0.053000 0.053000 1.200000 0.039000 0.047000
1517690140031830782	900 45 1.000000 0.183000 0.193000 900 41 0.900000 1.395000 1.315000 600 49 1.000000 0.053000 0.053000 1.200000 0.044000 0.053000
1517690140599832448	900 45 1.000000 0.170000 0.179000 900 41 0.900000 1.185000 1.116000 600 49 1.000000 0.053000 0.053000 1.200000 0.046000 0.055000
1517690141147788657	900 45 1.000000 0.185000 0.195000 900 41 0.900000 1.022000 0.962000 600 49 1.000000 0.053000 0.053000 1.200000 0.041000 0.049000
1517690141688128698	900 45 1.000000 0.274000 0.287000 900 41 0.900000 1.093000 1.029000 600 49 1.000000 0.053000 0.053000 1.200000 0.036000 0.043000
1517690142197449032	900 43 1.000000 0.264000 0.277000 900 41 0.900000 1.344000 1.267000 600 47 1.000000 0.053000 0.053000 1.200000 0.038000 0.045000
1517690142759825449	900 45 1.000000 0.283000 0.297000 900 41 0.900000 1.058000 0.996000 600 49 1.000000 0.053000 0.053000 1.200000 0.042000 0.050000
1517690143323741657	900 45 1.000000 0.202000 0.212000 900 41 0.900000 1.139000 1.071000 600 48 1.000000 0.053000 0.053000 1.200000 0.044000 0.053000
1517690143831960324	900 45 1.000000 0.164000 0.172000 900 41 0.900000 1.329000 1.251000 600 48 1.000000 0.053000 0.053000 1.200000 0.043000 0.051000
1517690144391800157	900 45 1.000000 0.266000 0.279000 900 41 0.900000 1.397000 1.317000 600 48 1.000000 0.053000 0.053000 1.200000 0.039000 0.047000
1517690144899812782	900 44 1.000000 0.210000 0.221000 900 41 0.900000 1.167000 1.099000 600 47 1.000000 0.053000 0.053000 1.200000 0.038000 0.045000
1517690145446536449	900 45 1.000000 0.183000 0.193000 900 41 0.900000 1.083000 1.019000 600 49 1.000000 0.053000 0.053000 1.200000 0.045000 0.054000
1517690145954181116	900 45 1.000000 0.263000 0.276000 900 41 0.900000 1.436000 1.354000 600 48 1.000000 0.053000 0.053000 1.200000 0.044000 0.053000
1517690146464438366	900 45 1.000000 0.231000 0.243000 900 41 0.900000 1.403000 1.323000 600 48 1.000000 0.053000 0.053000 1.200000 0.038000 0.045000
1517690147002463574	900 45 1.000000 0.241000 0.252000 900 41 0.900000 1.016000 0.957000 600 49 1.000000 0.053000 0.053000 1.200000 0.037000 0.044000
1517690147543766116	900 45 1.000000 0.192000 0.202000 900 41 0.900000 1.099000 1.035000 600 48 1.000000 0.053000 0.053000 1.200000 0.048000 0.057000
1517690148082814991	900 45 1.000000 0.221000 0.232000 900 41 0.900000 1.370000 1.291000 600 49 1.000000 0.053000 0.053000 1.200000 0.040000 0.048000
1517690148599032283	900 45 1.000000 0.266000 0.279000 900 41 0.900000 1.453000 1.370000 600 48 1.000000 0.053000 0.053000 1.200000 0.038000 0.045000
1517690149145111574	900 45 1.000000 0.269000 0.282000 900 41 0.900000 1.042000 0.981000 600 49 1.000000 0.053000 0.053000 1.200000 0.035000 0.042000
1517690149652992658	900 45 1.000000 0.179000 0.189000 900 41 0.900000 1.176000 1.107000 600 48 1.000000 0.053000 0.053000 1.200000 0.047000 0.056000
1517690150161135616	900 44 1.000000 0.193000 0.202000 900 41 0.900000 1.420000 1.341000 600 48 1.000000 0.053000 0.053000 1.200000 0.038000 0.045000
1517690150669200908	900 43 1.000000 0.251000 0.263000 900 41 0.900000 1.347000 1.270000 600 47 1.000000 0.053000 0.053000 1.200000 0.037000 0.044000
1517690151213431116	900 45 1.000000 0.168000 0.177000 900 41 0.900000 1.031000 0.971000 600 48 1.000000 0.053000 0.053000 1.200000 0.040000 0.048000
1517690151720980908	900 45 1.000000 0.253000 0.266000 900 41 0.900000 1.320000 1.244000 600 48 1.000000 0.053000 0.053000 1.200000 0.045000 0.054000
1517690152260046658	900 44 1.000000 0.268000 0.281000 900 41 0.900000 1.434000 1.352000 600 48 1.000000 0.053000 0.053000 1.200000 0.036000 0.043000
1517690152779111991	900 45 1.000000 0.253000 0.265000 900 41 0.900000 1.380000 1.301000 600 49 1.000000 0.053000 0.053000 1.200000 0.036000 0.043000
1517690153327822658	900 45 1.000000 0.165000 0.174000 900 41 0.900000 1.033000 0.973000 600 48 1.000000 0.053000 0.053000 1.200000 0.044000 0.053000
1517690153866344242	900 45 1.000000 0.222000 0.233000 900 41 0.900000 1.450000 1.367000 600 48 1.000000 0.053000 0.053000 1.200000 0.045000 0.054000
1517690154412073742	900 44 1.000000 0.262000 0.275000 900 41 0.900000 1.356000 1.278000 600 47 1.000000 0.053000 0.053000 1.200000 0.037000 0.044000
1517690154922219367	900 45 1.000000 0.266000 0.279000 900 41 0.900000 1.214000 1.144000 600 49 1.000000 0.053000 0.053000 1.200000 0.036000 0.043000
1517690155430413033	900 45 1.000000 0.165000 0.174000 900 41 0.900000 1.015000 0.956000 600 48 1.000000 0.053000 0.053000 1.200000 0.040000 0.048000
1517690155938784200	900 44 1.000000 0.186000 0.196000 900 41 0.900000 1.396000 1.316000 600 47 1.000000 0.053000 0.053000 1.200000 0.038000 0.045000
1517690156446816492	900 43 1.000000 0.251000 0.263000 900 41 0.900000 1.383000 1.304000 600 47 1.000000 0.053000 0.053000 1.200000 0.042000 0.050000
1517690156983132867	900 45 1.000000 0.172000 0.181000 900 41 0.900000 1.157000 1.089000 600 49 1.000000 0.053000 0.053000 1.200000 0.047000 0.056000
1517690157500786742	900 45 1.000000 0.231000 0.243000 900 41 0.900000 1.110000 1.044000 600 48 1.000000 0.053000 0.053000 1.200000 0.036000 0.043000
1517690158011570950	900 44 1.000000 0.270000 0.283000 900 41 0.900000 1.391000 1.311000 600 47 1.000000 0.053000 0.053000 1.200000 0.038000 0.045000
1517690158566274534	900 45 1.000000 0.270000 0.283000 900 41 0.900000 1.371000 1.292000 600 48 1.000000 0.053000 0.053000 1.200000 0.046000 0.055000
1517690159074417034	900 45 1.000000 0.190000 0.200000 900 41 0.900000 1.097000 1.033000 600 48 1.000000 0.053000 0.053000 1.200000 0.042000 0.050000
1517690159635860992	900 44 1.000000 0.224000 0.235000 900 41 0.900000 1.209000 1.140000 600 48 1.000000 0.053000 0.053000 1.200000 0.039000 0.047000
1517690160153049617	900 43 1.000000 0.247000 0.260000 900 41 0.900000 1.412000 1.331000 600 48 1.000000 0.053000 0.053000 1.200000 0.039000 0.047000
1517690160687733534	900 45 1.000000 0.267000 0.280000 900 41 0.900000 1.453000 1.370000 600 49 1.000000 0.053000 0.053000 1.200000 0.047000 0.056000
1517690161197646451	900 44 1.000000 0.182000 0.192000 900 41 0.900000 1.072000 1.009000 600 48 1.000000 0.053000 0.053000 1.200000 0.043000 0.051000
1517690161767799659	900 44 1.000000 0.183000 0.193000 900 41 0.900000 1.134000 1.068000 600 48 1.000000 0.053000 0.053000 1.200000 0.039000 0.047000
1517690162276202659	900 44 1.000000 0.255000 0.268000 900 41 0.900000 1.416000 1.335000 600 47 1.000000 0.053000 0.053000 1.200000 0.039000 0.047000
1517690162788848326	900 45 1.000000 0.162000 0.171000 900 41 0.900000 1.465000 1.381000 600 48 1.000000 0.053000 0.053000 1.200000 0.045000 0.054000
1517690163347805909	900 45 1.000000 0.186000 0.196000 900 41 0.900000 1.123000 1.056000 600 48 1.000000 0.053000 0.053000 1.200000 0.046000 0.055000
1517690163915751493	900 44 1.000000 0.266000 0.279000 900 41 0.900000 1.083000 1.019000 600 48 1.000000 0.053000 0.053000 1.200000 0.038000 0.045000
1517690164461193035	900 44 1.000000 0.273000 0.286000 900 41 0.900000 1.451000 1.368000 600 48 1.000000 0.053000 0.053000 1.200000 0.039000 0.047000
1517690165018182868	900 44 1.000000 0.276000 0.289000 900 41 0.900000 1.461000 1.377000 600 48 1.000000 0.053000 0.053000 1.200000 0.041000 0.049000
1517690165526975368	900 43 1.000000 0.251000 0.264000 900 41 0.900000 1.403000 1.323000 600 48 1.000000 0.053000 0.053000 1.200000 0.046000 0.055000
1517690166068760618	900 45 1.000000 0.183000 0.193000 900 41 0.900000 1.159000 1.091000 600 48 1.000000 0.053000 0.053000 1.200000 0.047000 0.056000
1517690166611750951	900 45 1.000000 0.183000 0.193000 900 41 0.900000 0.940000 0.885000 600 48 1.000000 0.053000 0.053000 1.200000 0.038000 0.045000
1517690167159822952	900 44 1.000000 0.242000 0.254000 900 41 0.900000 1.297000 1.223000 600 47 1.000000 0.053000 0.053000 1.200000 0.039000 0.047000
1517690167672669910	900 44 1.000000 0.174000 0.183000 900 41 0.900000 0.952000 0.896000 600 48 1.000000 0.053000 0.053000 1.200000 0.038000 0.045000
1517690168180772368	900 44 1.000000 0.271000 0.284000 900 41 0.900000 1.442000 1.359000 600 46 1.000000 0.053000 0.053000 1.200000 0.047000 0.056000
1517690168706974618	900 45 1.000000 0.209000 0.220000 900 41 0.900000 1.076000 1.013000 600 48 1.000000 0.053000 0.053000 1.200000 0.045000 0.054000
1517690169216858285	900 44 1.000000 0.235000 0.247000 900 41 0.900000 1.177000 1.108000 600 48 1.000000 0.053000 0.053000 1.200000 0.036000 0.043000
1517690169787788535	900 44 1.000000 0.251000 0.264000 900 40 0.900000 1.431000 1.349000 600 48 1.000000 0.053000 0.053000 1.200000 0.038000 0.045000
1517690170295698285	900 44 1.000000 0.258000 0.271000 900 41 0.900000 1.395000 1.315000 600 48 1.000000 0.053000 0.053000 1.200000 0.037000 0.044000
1517690170839767410	900 44 1.000000 0.214000 0.225000 900 41 0.900000 1.047000 0.985000 600 48 1.000000 0.053000 0.053000 1.200000 0.046000 0.055000
1517690171391812244	900 44 1.000000 0.162000 0.171000 900 41 0.900000 1.052000 0.990000 600 48 1.000000 0.053000 0.053000 1.200000 0.045000 0.054000
1517690171899967369	900 44 1.000000 0.269000 0.282000 900 41 0.900000 1.179000 1.110000 600 48 1.000000 0.053000 0.053000 1.200000 0.036000 0.043000
1517690172461808827	900 44 1.000000 0.254000 0.266000 900 41 0.900000 1.431000 1.349000 600 48 1.000000 0.053000 0.053000 1.200000 0.036000 0.043000
1517690172973440119	900 45 1.000000 0.224000 0.235000 900 41 0.900000 1.424000 1.342000 600 48 1.000000 0.053000 0.053000 1.200000 0.048000 0.057000
1517690173481748161	900 44 1.000000 0.191000 0.201000 900 41 0.900000 1.052000 0.990000 600 47 1.000000 0.053000 0.053000 1.200000 0.042000 0.050000
1517690173989845161	900 44 1.000000 0.262000 0.275000 900 41 0.900000 1.409000 1.328000 600 47 1.000000 0.053000 0.053000 1.200000 0.037000 0.044000
1517690174499820702	900 44 1.000000 0.180000 0.190000 900 41 0.900000 0.993000 0.935000 600 48 1.000000 0.053000 0.053000 1.200000 0.042000 0.050000
1517690175067795827	900 44 1.000000 0.191000 0.201000 900 41 0.900000 1.378000 1.299000 600 47 1.000000 0.053000 0.053000 1.200000 0.036000 0.043000
1517690175576082661	900 44 1.000000 0.261000 0.274000 900 40 0.900000 1.072000 1.009000 600 47 1.000000 0.053000 0.053000 1.200000 0.036000 0.043000
1517690176135782953	900 45 1.000000 0.179000 0.189000 900 41 0.900000 1.303000 1.231000 600 48 1.000000 0.053000 0.053000 1.200000 0.046000 0.055000
1517690176644459203	900 45 1.000000 0.204000 0.215000 900 41 0.900000 1.431000 1.349000 600 48 1.000000 0.053000 0.053000 1.200000 0.043000 0.051000
1517690177152163369	900 44 1.000000 0.202000 0.213000 900 41 0.900000 1.084000 1.021000 600 47 1.000000 0.053000 0.053000 1.200000 0.046000 0.055000
1517690177660126828	900 43 1.000000 0.231000 0.242000 900 41 0.900000 1.366000 1.288000 600 47 1.000000 0.053000 0.053000 1.200000 0.041000 0.049000
1517690178212644119	900 45 1.000000 0.193000 0.204000 900 41 0.900000 1.205000 1.136000 600 48 1.000000 0.053000 0.053000 1.200000 0.047000 0.056000
1517690178720481703	900 44 1.000000 0.266000 0.279000 900 41 0.900000 1.018000 0.958000 600 48 1.000000 0.053000 0.053000 1.200000 0.038000 0.045000
1517690179235786786	900 44 1.000000 0.258000 0.270000 900 41 0.900000 1.389000 1.309000 600 47 1.000000 0.053000 0.053000 1.200000 0.038000 0.045000
1517690179778444870	900 45 1.000000 0.256000 0.269000 900 41 0.900000 1.005000 0.946000 600 48 1.000000 0.053000 0.053000 1.200000 0.043000 0.051000
1517690180285942828	900 44 1.000000 0.167000 0.176000 900 41 0.900000 1.408000 1.327000 600 48 1.000000 0.053000 0.053000 1.200000 0.044000 0.053000
1517690180793364870	900 44 1.000000 0.235000 0.246000 900 41 0.900000 1.346000 1.269000 600 47 1.000000 0.053000 0.053000 1.200000 0.036000 0.043000
1517690181301418870	900 44 1.000000 0.261000 0.274000 900 41 0.900000 1.291000 1.217000 600 46 1.000000 0.053000 0.053000 1.200000 0.037000 0.044000
1517690181838908287	900 44 1.000000 0.176000 0.185000 900 41 0.900000 1.090000 1.026000 600 48 1.000000 0.053000 0.053000 1.200000 0.047000 0.056000
1517690182346576120	900 44 1.000000 0.264000 0.277000 900 41 0.900000 1.406000 1.325000 600 47 1.000000 0.053000 0.053000 1.200000 0.040000 0.048000
1517690182887868912	900 43 1.000000 0.243000 0.255000 900 40 0.900000 1.411000 1.330000 600 48 1.000000 0.053000 0.053000 1.200000 0.037000 0.044000
1517690183407501078	900 45 1.000000 0.204000 0.214000 900 41 0.900000 1.060000 0.998000 600 48 1.000000 0.053000 0.053000 1.200000 0.038000 0.045000
1517690183915413037	900 45 1.000000 0.160000 0.168000 900 41 0.900000 1.074000 1.010000 600 47 1.000000 0.053000 0.053000 1.200000 0.049000 0.059000
1517690184479763370	900 44 1.000000 0.272000 0.285000 900 41 0.900000 1.344000 1.267000 600 47 1.000000 0.053000 0.053000 1.200000 0.040000 0.048000
1517690184987732454	900 44 1.000000 0.260000 0.273000 900 41 0.900000 1.410000 1.329000 600 47 1.000000 0.053000 0.053000 1.200000 0.039000 0.047000
1517690185514458954	900 45 1.000000 0.261000 0.274000 900 41 0.900000 0.994000 0.936000 600 48 1.000000 0.053000 0.053000 1.200000 0.038000 0.045000
1517690186067763120	900 44 1.000000 0.173000 0.182000 900 41 0.900000 1.063000 1.000000 600 48 1.000000 0.053000 0.053000 1.200000 0.048000 0.057000
1517690186575935995	900 44 1.000000 0.191000 0.201000 900 41 0.900000 1.404000 1.323000 600 47 1.000000 0.053000 0.053000 1.200000 0.045000 0.054000
1517690187120115621	900 44 1.000000 0.272000 0.285000 900 40 0.900000 1.354000 1.276000 600 48 1.000000 0.053000 0.053000 1.200000 0.036000 0.043000
1517690187633826496	900 43 1.000000 0.274000 0.287000 900 40 0.900000 1.454000 1.369000 600 48 1.000000 0.053000 0.053000 1.200000 0.037000 0.044000
1517690188150886662	900 45 1.000000 0.180000 0.190000 900 41 0.900000 1.165000 1.096000 600 48 1.000000 0.053000 0.053000 1.200000 0.043000 0.051000
1517690188699751079	900 44 1.000000 0.192000 0.202000 900 41 0.900000 1.083000 1.019000 600 48 1.000000 0.053000 0.053000 1.200000 0.045000 0.054000
1517690189230135746	900 44 1.000000 0.266000 0.279000 900 41 0.900000 1.284000 1.209000 600 48 1.000000 0.053000 0.053000 1.200000 0.050000 0.060000
1517690189739744163	900 44 1.000000 0.261000 0.274000 900 41 0.900000 1.380000 1.301000 600 48 1.000000 0.053000 0.053000 1.200000 0.044000 0.053000
1517690190306391704	900 44 1.000000 0.238000 0.251000 900 41 0.900000 1.418000 1.337000 600 47 1.000000 0.053000 0.053000 1.200000 0.036000 0.043000
1517690190820803454	900 44 1.000000 0.241000 0.253000 900 41 0.900000 1.424000 1.341000 600 47 1.000000 0.053000 0.053000 1.200000 0.037000 0.044000
1517690191335163954	900 44 1.000000 0.195000 0.205000 900 41 0.900000 1.020000 0.960000 600 48 1.000000 0.053000 0.053000 1.200000 0.041000 0.049000
1517690191880983413	900 44 1.000000 0.185000 0.195000 900 41 0.900000 1.111000 1.045000 600 48 1.000000 0.053000 0.053000 1.200000 0.044000 0.053000
1517690192391775038	900 44 1.000000 0.193000 0.203000 900 41 0.900000 1.290000 1.215000 600 48 1.000000 0.053000 0.053000 1.200000 0.046000 0.055000
1517690192943816455	900 44 1.000000 0.210000 0.221000 900 41 0.900000 1.331000 1.255000 600 48 1.000000 0.053000 0.053000 1.200000 0.039000 0.047000
1517690193501067455	900 44 1.000000 0.254000 0.266000 900 41 0.900000 1.431000 1.349000 600 47 1.000000 0.053000 0.053000 1.200000 0.036000 0.043000
1517690194010068871	900 44 1.000000 0.268000 0.281000 900 41 0.900000 1.357000 1.279000 600 46 1.000000 0.053000 0.053000 1.200000 0.039000 0.047000
1517690194527797121	900 44 1.000000 0.170000 0.179000 900 41 0.900000 1.065000 1.003000 600 47 1.000000 0.053000 0.053000 1.200000 0.042000 0.050000
1517690195073190580	900 44 1.000000 0.255000 0.268000 900 41 0.900000 1.213000 1.142000 600 48 1.000000 0.053000 0.053000 1.200000 0.048000 0.057000
1517690195635986288	900 44 1.000000 0.256000 0.269000 900 41 0.900000 1.347000 1.270000 600 47 1.000000 0.053000 0.053000 1.200000 0.039000 0.047000
1517690196144362288	900 44 1.000000 0.238000 0.249000 900 40 0.900000 1.382000 1.303000 600 48 1.000000 0.053000 0.053000 1.200000 0.045000 0.054000
1517690196692207122	900 44 1.000000 0.181000 0.191000 900 41 0.900000 1.099000 1.035000 600 48 1.000000 0.053000 0.053000 1.200000 0.045000 0.054000
1517690197200684580	900 44 1.000000 0.198000 0.208000 900 41 0.900000 1.081000 1.018000 600 48 1.000000 0.053000 0.053000 1.200000 0.037000 0.044000
1517690197740016455	900 44 1.000000 0.254000 0.267000 900 41 0.900000 1.359000 1.281000 600 47 1.000000 0.053000 0.053000 1.200000 0.036000 0.043000
1517690198253940789	900 42 1.000000 0.250000 0.263000 900 40 0.900000 1.406000 1.325000 600 46 1.000000 0.053000 0.053000 1.200000 0.044000 0.053000
1517690198811952580	900 44 1.000000 0.197000 0.207000 900 41 0.900000 1.017000 0.958000 600 48 1.000000 0.053000 0.053000 1.200000 0.043000 0.051000
1517690199321432039	900 44 1.000000 0.252000 0.264000 900 41 0.900000 1.311000 1.236000 600 48 1.000000 0.053000 0.053000 1.200000 0.046000 0.055000
1517690199879808955	900 44 1.000000 0.270000 0.283000 900 41 0.900000 1.396000 1.316000 600 47 1.000000 0.053000 0.053000 1.200000 0.036000 0.043000
1517690200387890580	900 44 1.000000 0.181000 0.190000 900 40 0.900000 1.343000 1.266000 600 47 1.000000 0.053000 0.053000 1.200000 0.036000 0.043000
1517690200932689164	900 44 1.000000 0.252000 0.264000 900 41 0.900000 1.453000 1.370000 600 48 1.000000 0.053000 0.053000 1.200000 0.038000 0.045000
1517690201487913164	900 44 1.000000 0.181000 0.191000 900 41 0.900000 1.422000 1.340000 600 47 1.000000 0.053000 0.053000 1.200000 0.048000 0.057000
1517690202024276997	900 44 1.000000 0.182000 0.192000 900 41 0.900000 1.070000 1.007000 600 48 1.000000 0.053000 0.053000 1.200000 0.042000 0.050000
1517690202531989414	900 44 1.000000 0.240000 0.252000 900 40 0.900000 1.352000 1.274000 600 47 1.000000 0.053000 0.053000 1.200000 0.036000 0.043000
1517690203074552664	900 44 1.000000 0.271000 0.284000 900 41 0.900000 1.359000 1.281000 600 48 1.000000 0.053000 0.053000 1.200000 0.040000 0.048000
1517690203582497123	900 44 1.000000 0.215000 0.226000 900 41 0.900000 1.396000 1.316000 600 47 1.000000 0.053000 0.053000 1.200000 0.047000 0.056000
1517690204135826498	900 44 1.000000 0.162000 0.171000 900 41 0.900000 1.064000 1.002000 600 47 1.000000 0.053000 0.053000 1.200000 0.038000 0.045000
1517690204650722373	900 43 1.000000 0.266000 0.279000 900 40 0.900000 1.423000 1.341000 600 47 1.000000 0.053000 0.053000 1.200000 0.037000 0.044000
1517690205201533414	900 44 1.000000 0.248000 0.260000 900 41 0.900000 1.357000 1.279000 600 48 1.000000 0.053000 0.053000 1.200000 0.041000 0.049000
1517690205709853748	900 44 1.000000 0.255000 0.268000 900 41 0.900000 1.341000 1.264000 600 47 1.000000 0.053000 0.053000 1.200000 0.049000 0.059000
1517690206271781873	900 44 1.000000 0.180000 0.190000 900 40 0.900000 1.070000 1.007000 600 47 1.000000 0.053000 0.053000 1.200000 0.039000 0.047000
1517690206779960290	900 44 1.000000 0.205000 0.215000 900 40 0.900000 1.428000 1.346000 600 47 1.000000 0.053000 0.053000 1.200000 0.038000 0.045000
1517690207343770748	900 44 1.000000 0.219000 0.230000 900 41 0.900000 1.383000 1.302000 600 48 1.000000 0.053000 0.053000 1.200000 0.041000 0.049000
1517690207869010081	900 44 1.000000 0.176000 0.185000 900 41 0.900000 1.312000 1.235000 600 47 1.000000 0.053000 0.053000 1.200000 0.046000 0.055000
1517690208435817706	900 44 1.000000 0.224000 0.235000 900 40 0.900000 0.994000 0.936000 600 48 1.000000 0.053000 0.053000 1.200000 0.038000 0.045000
1517690208956682790	900 44 1.000000 0.253000 0.266000 900 40 0.900000 1.413000 1.332000 600 47 1.000000 0.053000 0.053000 1.200000 0.038000 0.045000
1517690209481317915	900 44 1.000000 0.242000 0.254000 900 41 0.900000 1.367000 1.289000 600 48 1.000000 0.053000 0.053000 1.200000 0.042000 0.050000
1517690210047779540	900 44 1.000000 0.167000 0.176000 900 41 0.900000 1.314000 1.237000 600 47 1.000000 0.053000 0.053000 1.200000 0.049000 0.059000
1517690210556120373	900 44 1.000000 0.199000 0.209000 900 40 0.900000 1.088000 1.023000 600 48 1.000000 0.053000 0.053000 1.200000 0.041000 0.049000
1517690211115804040	900 44 1.000000 0.259000 0.272000 900 40 0.900000 1.424000 1.342000 600 47 1.000000 0.053000 0.053000 1.200000 0.036000 0.043000
1517690211623720998	900 42 1.000000 0.261000 0.274000 900 40 0.900000 1.366000 1.288000 600 46 1.000000 0.053000 0.053000 1.200000 0.041000 0.049000
1517690212135888165	900 44 1.000000 0.268000 0.282000 900 40 0.900000 1.428000 1.346000 600 48 1.000000 0.053000 0.053000 1.200000 0.047000 0.056000
1517690212705392832	900 44 1.000000 0.176000 0.185000 900 40 0.900000 1.068000 1.006000 600 47 1.000000 0.053000 0.053000 1.200000 0.043000 0.051000
1517690213261533832	900 44 1.000000 0.257000 0.270000 900 40 0.900000 1.110000 1.045000 600 47 1.000000 0.053000 0.053000 1.200000 0.037000 0.044000
1517690213811439707	900 44 1.000000 0.240000 0.252000 900 40 0.900000 1.359000 1.281000 600 47 1.000000 0.053000 0.053000 1.200000 0.036000 0.043000
1517690214325176707	900 42 1.000000 0.187000 0.197000 900 40 0.900000 1.331000 1.255000 600 46 1.000000 0.053000 0.053000 1.200000 0.041000 0.049000
1517690214840436291	900 44 1.000000 0.180000 0.190000 900 40 0.900000 1.316000 1.243000 600 48 1.000000 0.053000 0.053000 1.200000 0.048000 0.057000
1517690215392771041	900 44 1.000000 0.188000 0.198000 900 40 0.900000 1.122000 1.056000 600 48 1.000000 0.053000 0.053000 1.200000 0.045000 0.054000
1517690215929051249	900 44 1.000000 0.251000 0.264000 900 40 0.900000 0.989000 0.931000 600 47 1.000000 0.053000 0.053000 1.200000 0.040000 0.048000
1517690216463695707	900 44 1.000000 0.261000 0.274000 900 40 0.900000 1.213000 1.142000 600 47 1.000000 0.053000 0.053000 1.200000 0.039000 0.047000
1517690217019929291	900 44 1.000000 0.256000 0.268000 900 40 0.900000 1.334000 1.256000 600 47 1.000000 0.053000 0.053000 1.200000 0.036000 0.043000
1517690217528277249	900 43 1.000000 0.254000 0.267000 900 40 0.900000 1.380000 1.301000 600 46 1.000000 0.053000 0.053000 1.200000 0.039000 0.047000
1517690218039801874	900 44 1.000000 0.181000 0.190000 900 40 0.900000 1.100000 1.036000 600 48 1.000000 0.053000 0.053000 1.200000 0.049000 0.059000
1517690218603781374	900 44 1.000000 0.179000 0.189000 900 40 0.900000 1.391000 1.311000 600 47 1.000000 0.053000 0.053000 1.200000 0.046000 0.055000
1517690219115843624	900 44 1.000000 0.242000 0.254000 900 40 0.900000 1.094000 1.029000 600 47 1.000000 0.053000 0.053000 1.200000 0.045000 0.054000
1517690219656157666	900 44 1.000000 0.236000 0.248000 900 40 0.900000 1.421000 1.340000 600 47 1.000000 0.053000 0.053000 1.200000 0.042000 0.050000
1517690220164345458	900 42 1.000000 0.263000 0.276000 900 40 0.900000 1.355000 1.277000 600 46 1.000000 0.053000 0.053000 1.200000 0.038000 0.045000
1517690220674592833	900 44 1.000000 0.181000 0.190000 900 40 0.900000 1.142000 1.075000 600 48 1.000000 0.053000 0.053000 1.200000 0.047000 0.056000
1517690221207807333	900 44 1.000000 0.260000 0.273000 900 40 0.900000 1.370000 1.291000 600 47 1.000000 0.053000 0.053000 1.200000 0.044000 0.053000
1517690221729860250	900 44 1.000000 0.251000 0.263000 900 40 0.900000 1.399000 1.319000 600 47 1.000000 0.053000 0.053000 1.200000 0.039000 0.047000
1517690222237786000	900 42 1.000000 0.253000 0.265000 900 40 0.900000 1.121000 1.055000 600 46 1.000000 0.053000 0.053000 1.200000 0.039000 0.047000
1517690222745368041	900 44 1.000000 0.175000 0.184000 900 40 0.900000 1.063000 1.001000 600 48 1.000000 0.053000 0.053000 1.200000 0.048000 0.057000
1517690223303812792	900 44 1.000000 0.198000 0.208000 900 40 0.900000 1.398000 1.318000 600 47 1.000000 0.053000 0.053000 1.200000 0.045000 0.054000
1517690223811240958	900 44 1.000000 0.250000 0.262000 900 40 0.900000 1.388000 1.308000 600 47 1.000000 0.053000 0.053000 1.200000 0.038000 0.045000
1517690224319241583	900 42 1.000000 0.249000 0.261000 900 40 0.900000 1.349000 1.272000 600 46 1.000000 0.053000 0.053000 1.200000 0.038000 0.045000
1517690224829943125	900 44 1.000000 0.246000 0.258000 900 40 0.900000 1.048000 0.987000 600 48 1.000000 0.053000 0.053000 1.200000 0.046000 0.055000
1517690225391839000	900 44 1.000000 0.185000 0.195000 900 40 0.900000 1.324000 1.247000 600 47 1.000000 0.053000 0.053000 1.200000 0.044000 0.053000
1517690225951844542	900 44 1.000000 0.250000 0.262000 900 40 0.900000 1.428000 1.346000 600 47 1.000000 0.053000 0.053000 1.200000 0.038000 0.045000
1517690226459834834	900 43 1.000000 0.232000 0.243000 900 40 0.900000 1.427000 1.345000 600 47 1.000000 0.053000 0.053000 1.200000 0.039000 0.047000
1517690226997874417	900 44 1.000000 0.168000 0.177000 900 40 0.900000 1.015000 0.956000 600 48 1.000000 0.053000 0.053000 1.200000 0.043000 0.051000
1517690227547798792	900 43 1.000000 0.215000 0.226000 900 40 0.900000 1.159000 1.091000 600 47 1.000000 0.053000 0.053000 1.200000 0.050000 0.060000
1517690228068884500	900 44 1.000000 0.251000 0.263000 900 40 0.900000 1.324000 1.248000 600 47 1.000000 0.053000 0.053000 1.200000 0.043000 0.051000
1517690228623937375	900 44 1.000000 0.261000 0.274000 900 40 0.900000 1.425000 1.343000 600 47 1.000000 0.053000 0.053000 1.200000 0.038000 0.045000
1517690229131782834	900 43 1.000000 0.260000 0.273000 900 40 0.900000 1.400000 1.320000 600 46 1.000000 0.053000 0.053000 1.200000 0.038000 0.045000
1517690229692407542	900 44 1.000000 0.195000 0.206000 900 40 0.900000 1.029000 0.969000 600 47 1.000000 0.053000 0.053000 1.200000 0.047000 0.056000
1517690230200279584	900 40 1.000000 0.043000 0.045000 900 39 0.900000 0.625000 0.590000 600 44 1.000000 0.053000 0.053000 1.200000 0.028000 0.033000
1517690230708215626	900 39 1.000000 0.041000 0.043000 900 38 0.900000 0.104000 0.098000 600 42 1.000000 0.053000 0.053000 1.200000 0.024000 0.028000
