#Timestamp	CPU(0) Frequency(MHz)	CPU(0) Temperature(C)	A7 Voltage(V)	A7 Current(A)	A7 Power(W)	CPU(4) Frequency(MHz)	CPU(4) Temperature(C)	A15 Voltage(V)	A15 Current(A)	A15 Power(W)	GPU Frequency(MHz)	GPU Temperature(C)	GPU Voltage(V)	GPU Current(A)	GPU Power(W)	RAM Voltage(V)	RAM Current(A)	RAM Power(W)
1517280407886452771	200 45 0.900000 0.016000 0.014000 1500 42 1.000000 0.581000 0.636000 600 47 1.000000 0.052000 0.052000 1.200000 0.045000 0.054000
1517280408396674021	200 45 0.900000 0.019000 0.017000 1500 42 1.000000 0.869000 0.948000 600 47 1.000000 0.052000 0.052000 1.200000 0.034000 0.041000
1517280408905922146	200 45 0.900000 0.019000 0.017000 1500 42 1.000000 0.874000 0.954000 600 47 1.000000 0.052000 0.052000 1.200000 0.034000 0.041000
1517280409416211980	200 47 0.900000 0.018000 0.016000 1500 42 1.000000 0.890000 0.971000 600 50 1.000000 0.052000 0.052000 1.200000 0.032000 0.038000
1517280409932923980	200 49 0.900000 0.061000 0.055000 1500 44 1.100000 2.045000 2.249000 600 55 1.000000 0.052000 0.052000 1.200000 0.044000 0.053000
1517280410484882480	200 52 0.900000 0.050000 0.045000 1500 44 1.100000 2.581000 2.841000 600 57 1.000000 0.052000 0.052000 1.200000 0.047000 0.056000
1517280411044903438	200 52 0.900000 0.053000 0.048000 1500 45 1.100000 2.747000 3.027000 600 57 1.000000 0.052000 0.052000 1.200000 0.044000 0.053000
1517280411567773355	200 53 0.900000 0.060000 0.054000 1500 46 1.100000 2.779000 3.062000 600 58 1.000000 0.053000 0.053000 1.200000 0.038000 0.045000
1517280412079594813	200 52 0.900000 0.060000 0.054000 1500 46 1.100000 2.665000 2.936000 600 57 1.000000 0.053000 0.053000 1.200000 0.036000 0.043000
1517280412588336313	200 54 0.900000 0.060000 0.055000 1500 46 1.100000 2.393000 2.634000 600 59 1.000000 0.053000 0.053000 1.200000 0.037000 0.044000
1517280413096877188	200 54 0.900000 0.051000 0.046000 1500 47 1.100000 2.304000 2.534000 600 61 1.000000 0.053000 0.053000 1.200000 0.041000 0.049000
1517280413608462063	200 55 0.900000 0.052000 0.047000 1500 47 1.100000 2.147000 2.361000 600 61 1.000000 0.053000 0.053000 1.200000 0.050000 0.060000
1517280414120246522	200 55 0.900000 0.061000 0.055000 1500 47 1.100000 2.373000 2.610000 600 61 1.000000 0.053000 0.053000 1.200000 0.049000 0.059000
1517280414632875855	200 55 0.900000 0.061000 0.055000 1500 47 1.100000 2.962000 3.264000 600 60 1.000000 0.053000 0.053000 1.200000 0.044000 0.053000
1517280415146757189	200 53 0.900000 0.060000 0.055000 1500 47 1.100000 2.853000 3.144000 600 59 1.000000 0.053000 0.053000 1.200000 0.036000 0.043000
1517280415654958939	200 55 0.900000 0.061000 0.055000 1500 48 1.100000 2.813000 3.099000 600 61 1.000000 0.053000 0.053000 1.200000 0.035000 0.042000
1517280416174897439	200 55 0.900000 0.060000 0.054000 1500 48 1.100000 2.449000 2.698000 600 61 1.000000 0.053000 0.053000 1.200000 0.037000 0.044000
1517280416705950647	200 55 0.900000 0.052000 0.047000 1500 48 1.000000 2.064000 2.266000 600 61 1.000000 0.053000 0.053000 1.200000 0.045000 0.054000
1517280417232532856	200 55 0.900000 0.053000 0.048000 1500 48 1.100000 2.220000 2.442000 600 61 1.000000 0.053000 0.053000 1.200000 0.039000 0.047000
1517280417768067522	200 55 0.900000 0.052000 0.047000 1500 48 1.100000 2.408000 2.648000 600 61 1.000000 0.053000 0.053000 1.200000 0.036000 0.043000
1517280418276633647	200 55 0.900000 0.059000 0.054000 1500 48 1.100000 2.600000 2.865000 600 59 1.000000 0.053000 0.053000 1.200000 0.039000 0.047000
1517280418796868272	200 56 0.900000 0.061000 0.055000 1500 48 1.100000 2.777000 3.060000 600 62 1.000000 0.053000 0.053000 1.200000 0.046000 0.055000
1517280419319001647	200 56 0.900000 0.052000 0.047000 1500 48 1.100000 2.769000 3.051000 600 62 1.000000 0.053000 0.053000 1.200000 0.050000 0.060000
1517280419869945647	200 55 0.900000 0.049000 0.044000 1500 48 1.100000 2.116000 2.327000 600 61 1.000000 0.053000 0.053000 1.200000 0.046000 0.055000
1517280420414269731	200 55 0.900000 0.056000 0.051000 1500 48 1.000000 2.064000 2.266000 600 61 1.000000 0.053000 0.053000 1.200000 0.037000 0.044000
1517280420932555148	200 55 0.900000 0.060000 0.055000 1500 48 1.100000 2.424000 2.666000 600 61 1.000000 0.053000 0.053000 1.200000 0.036000 0.043000
1517280421443635481	200 55 0.900000 0.061000 0.055000 1500 48 1.100000 2.799000 3.081000 600 59 1.000000 0.053000 0.053000 1.200000 0.038000 0.045000
1517280421952279106	200 54 0.900000 0.060000 0.054000 1500 48 1.100000 2.744000 3.021000 600 60 1.000000 0.053000 0.053000 1.200000 0.043000 0.051000
1517280422467846148	200 56 0.900000 0.062000 0.056000 1500 48 1.100000 2.770000 3.049000 600 62 1.000000 0.053000 0.053000 1.200000 0.051000 0.061000
1517280422980580273	200 56 0.900000 0.055000 0.050000 1500 48 1.000000 2.175000 2.388000 600 61 1.000000 0.053000 0.053000 1.200000 0.036000 0.043000
1517280423488702690	200 56 0.900000 0.061000 0.055000 1500 48 1.100000 2.811000 3.097000 600 61 1.000000 0.053000 0.053000 1.200000 0.038000 0.045000
1517280423997034648	200 54 0.900000 0.061000 0.055000 1500 48 1.100000 2.830000 3.118000 600 60 1.000000 0.053000 0.053000 1.200000 0.045000 0.054000
1517280424508143065	200 55 0.900000 0.052000 0.047000 1500 48 1.100000 2.246000 2.472000 600 59 1.000000 0.053000 0.053000 1.200000 0.049000 0.059000
1517280425030886398	200 56 0.900000 0.061000 0.055000 1500 48 1.100000 2.714000 2.988000 600 62 1.000000 0.053000 0.053000 1.200000 0.050000 0.060000
1517280425559083856	200 56 0.900000 0.055000 0.050000 1500 48 1.000000 2.138000 2.347000 600 62 1.000000 0.053000 0.053000 1.200000 0.044000 0.053000
1517280426090277898	200 56 0.900000 0.061000 0.055000 1500 48 1.000000 2.095000 2.300000 600 61 1.000000 0.053000 0.053000 1.200000 0.036000 0.043000
1517280426609710815	200 56 0.900000 0.061000 0.055000 1500 48 1.100000 2.220000 2.442000 600 61 1.000000 0.053000 0.053000 1.200000 0.037000 0.044000
1517280427126992940	200 55 0.900000 0.061000 0.055000 1500 48 1.100000 2.758000 3.039000 600 61 1.000000 0.053000 0.053000 1.200000 0.036000 0.043000
1517280427635671773	200 54 0.900000 0.062000 0.056000 1500 48 1.100000 2.749000 3.029000 600 60 1.000000 0.053000 0.053000 1.200000 0.038000 0.045000
1517280428148828857	200 56 0.900000 0.056000 0.051000 1500 48 1.100000 2.796000 3.078000 600 62 1.000000 0.053000 0.053000 1.200000 0.053000 0.064000
1517280428667113440	200 56 0.900000 0.051000 0.046000 1500 48 1.100000 2.735000 3.011000 600 62 1.000000 0.053000 0.053000 1.200000 0.053000 0.064000
1517280429197646149	200 56 0.900000 0.053000 0.048000 1500 48 1.000000 2.144000 2.354000 600 62 1.000000 0.053000 0.053000 1.200000 0.044000 0.053000
1517280429706029815	200 56 0.900000 0.053000 0.048000 1500 49 1.000000 2.252000 2.472000 600 62 1.000000 0.053000 0.053000 1.200000 0.037000 0.044000
1517280430224617065	200 56 0.900000 0.056000 0.051000 1500 49 1.100000 2.225000 2.447000 600 61 1.000000 0.053000 0.053000 1.200000 0.038000 0.045000
1517280430739570565	200 54 0.900000 0.061000 0.055000 1500 48 1.100000 2.829000 3.117000 600 60 1.000000 0.053000 0.053000 1.200000 0.040000 0.048000
1517280431248429899	200 54 0.900000 0.061000 0.055000 1500 49 1.100000 2.788000 3.072000 600 61 1.000000 0.053000 0.053000 1.200000 0.041000 0.049000
1517280431756773691	200 56 0.900000 0.053000 0.048000 1500 49 1.100000 2.689000 2.963000 600 62 1.000000 0.053000 0.053000 1.200000 0.051000 0.061000
1517280432265930566	200 56 0.900000 0.052000 0.047000 1500 49 1.000000 2.688000 2.951000 600 62 1.000000 0.053000 0.053000 1.200000 0.046000 0.055000
1517280432774204274	200 56 0.900000 0.053000 0.048000 1500 49 1.100000 2.710000 2.983000 600 62 1.000000 0.053000 0.053000 1.200000 0.045000 0.054000
1517280433291481191	200 56 0.900000 0.061000 0.055000 1500 49 1.100000 2.549000 2.806000 600 62 1.000000 0.053000 0.053000 1.200000 0.038000 0.045000
1517280433803710399	200 55 0.900000 0.060000 0.055000 1500 48 1.100000 2.835000 3.124000 600 60 1.000000 0.053000 0.053000 1.200000 0.036000 0.043000
1517280434312502149	200 54 0.900000 0.052000 0.047000 1500 49 1.000000 2.091000 2.295000 600 60 1.000000 0.053000 0.053000 1.200000 0.051000 0.061000
1517280434837038774	200 55 0.900000 0.052000 0.047000 1500 49 1.100000 2.520000 2.774000 600 61 1.000000 0.053000 0.053000 1.200000 0.052000 0.062000
1517280435348880899	200 54 0.900000 0.051000 0.046000 1500 49 1.100000 2.619000 2.883000 600 60 1.000000 0.053000 0.053000 1.200000 0.040000 0.048000
1517280435900912899	200 55 0.900000 0.057000 0.052000 1500 49 1.100000 2.641000 2.910000 600 61 1.000000 0.053000 0.053000 1.200000 0.037000 0.044000
1517280436428404983	200 56 0.900000 0.061000 0.055000 1500 49 1.100000 2.872000 3.164000 600 62 1.000000 0.053000 0.053000 1.200000 0.036000 0.043000
1517280436939044191	200 56 0.900000 0.061000 0.055000 1500 49 1.100000 2.670000 2.939000 600 62 1.000000 0.053000 0.053000 1.200000 0.038000 0.045000
1517280437447743108	200 55 0.900000 0.060000 0.055000 1500 49 1.000000 2.245000 2.465000 600 60 1.000000 0.053000 0.053000 1.200000 0.039000 0.047000
1517280437959559483	200 56 0.900000 0.053000 0.048000 1500 49 1.100000 2.300000 2.530000 600 63 1.000000 0.053000 0.053000 1.200000 0.050000 0.060000
1517280438484720358	200 56 0.900000 0.052000 0.047000 1500 49 1.100000 2.199000 2.418000 600 62 1.000000 0.053000 0.053000 1.200000 0.050000 0.060000
1517280439011903858	200 56 0.900000 0.061000 0.055000 1500 49 1.100000 2.743000 3.022000 600 62 1.000000 0.053000 0.053000 1.200000 0.047000 0.056000
1517280439540989150	200 56 0.900000 0.059000 0.054000 1500 49 1.100000 2.706000 2.982000 600 62 1.000000 0.053000 0.053000 1.200000 0.037000 0.044000
1517280440067027192	200 56 0.900000 0.061000 0.055000 1500 49 1.100000 2.855000 3.146000 600 62 1.000000 0.053000 0.053000 1.200000 0.040000 0.048000
1517280440579161942	200 55 0.900000 0.062000 0.056000 1500 49 1.100000 2.599000 2.861000 600 60 1.000000 0.053000 0.053000 1.200000 0.038000 0.045000
1517280441087452317	200 56 0.900000 0.058000 0.053000 1500 49 1.000000 2.108000 2.314000 600 62 1.000000 0.053000 0.053000 1.200000 0.045000 0.054000
1517280441616636108	200 56 0.900000 0.052000 0.047000 1500 49 1.100000 1.818000 1.999000 600 63 1.000000 0.053000 0.053000 1.200000 0.053000 0.063000
1517280442133006275	200 56 0.900000 0.053000 0.048000 1500 49 1.100000 2.305000 2.535000 600 62 1.000000 0.053000 0.053000 1.200000 0.050000 0.060000
1517280442649375942	200 56 0.900000 0.050000 0.045000 1500 49 1.100000 2.739000 3.018000 600 62 1.000000 0.053000 0.053000 1.200000 0.042000 0.050000
1517280443173090942	200 56 0.900000 0.056000 0.051000 1500 49 1.100000 2.801000 3.086000 600 62 1.000000 0.053000 0.053000 1.200000 0.034000 0.041000
1517280443683260359	200 55 0.900000 0.060000 0.054000 1500 49 1.100000 2.715000 2.991000 600 60 1.000000 0.053000 0.053000 1.200000 0.036000 0.043000
1517280444191726692	200 57 0.900000 0.053000 0.048000 1500 49 1.100000 2.680000 2.950000 600 62 1.000000 0.053000 0.053000 1.200000 0.036000 0.043000
1517280444700036900	200 56 0.900000 0.054000 0.049000 1500 49 1.000000 2.233000 2.451000 600 63 1.000000 0.053000 0.053000 1.200000 0.041000 0.049000
1517280445208946901	200 56 0.900000 0.051000 0.046000 1500 49 1.000000 2.264000 2.485000 600 62 1.000000 0.053000 0.053000 1.200000 0.046000 0.055000
1517280445730034734	200 56 0.900000 0.052000 0.047000 1500 49 1.100000 2.077000 2.284000 600 62 1.000000 0.053000 0.053000 1.200000 0.049000 0.059000
1517280446251661942	200 56 0.900000 0.061000 0.055000 1500 49 1.100000 2.680000 2.953000 600 62 1.000000 0.053000 0.053000 1.200000 0.042000 0.050000
1517280446764321026	200 56 0.900000 0.061000 0.055000 1500 49 1.100000 2.770000 3.049000 600 60 1.000000 0.053000 0.053000 1.200000 0.036000 0.043000
1517280447272988692	200 54 0.900000 0.060000 0.055000 1500 49 1.100000 2.474000 2.723000 600 62 1.000000 0.053000 0.053000 1.200000 0.036000 0.043000
1517280447828050401	200 56 0.900000 0.060000 0.054000 1500 49 1.100000 2.719000 2.996000 600 62 1.000000 0.053000 0.053000 1.200000 0.035000 0.042000
1517280448345327609	200 56 0.900000 0.061000 0.055000 1500 49 1.100000 2.580000 2.840000 600 63 1.000000 0.053000 0.053000 1.200000 0.035000 0.042000
1517280448854260109	200 55 0.900000 0.061000 0.055000 1500 49 1.000000 2.212000 2.428000 600 61 1.000000 0.053000 0.053000 1.200000 0.043000 0.051000
1517280449401114776	200 54 0.900000 0.058000 0.053000 1500 48 1.000000 1.465000 1.608000 600 59 1.000000 0.053000 0.053000 1.200000 0.040000 0.048000
1517280449913747693	200 50 0.900000 0.041000 0.037000 1500 47 1.100000 1.480000 1.629000 600 55 1.000000 0.053000 0.053000 1.200000 0.031000 0.037000
1517280450421895693	200 48 0.900000 0.044000 0.040000 1500 47 1.100000 0.975000 1.072000 600 53 1.000000 0.053000 0.053000 1.200000 0.033000 0.039000
1517280450929489068	200 46 0.900000 0.029000 0.026000 1500 45 1.100000 0.241000 0.265000 600 50 1.000000 0.053000 0.053000 1.200000 0.036000 0.043000
1517280451437306776	200 47 0.900000 0.026000 0.023000 1500 45 1.000000 0.443000 0.486000 600 51 1.000000 0.053000 0.053000 1.200000 0.046000 0.055000
1517280451945221276	200 49 0.900000 0.048000 0.044000 1500 45 1.100000 1.118000 1.229000 600 54 1.000000 0.053000 0.053000 1.200000 0.036000 0.043000
1517280452453263985	200 45 0.900000 0.042000 0.038000 1500 45 1.100000 1.651000 1.817000 600 50 1.000000 0.053000 0.053000 1.200000 0.034000 0.041000
1517280452960572401	200 44 0.900000 0.025000 0.022000 1500 44 1.100000 0.220000 0.242000 600 48 1.000000 0.053000 0.053000 1.200000 0.036000 0.043000
1517280453468598901	200 49 0.900000 0.042000 0.038000 1500 44 1.000000 0.742000 0.814000 600 54 1.000000 0.052000 0.052000 1.200000 0.042000 0.050000
1517280453977693527	200 50 0.900000 0.045000 0.041000 1500 45 1.100000 1.296000 1.426000 600 52 1.000000 0.053000 0.053000 1.200000 0.038000 0.045000
1517280454515089152	200 53 0.900000 0.062000 0.056000 1500 46 1.100000 2.539000 2.797000 600 58 1.000000 0.053000 0.053000 1.200000 0.037000 0.044000
1517280455036775110	200 54 0.900000 0.055000 0.050000 1500 46 1.000000 2.306000 2.531000 600 59 1.000000 0.053000 0.053000 1.200000 0.042000 0.050000
1517280455568016277	200 54 0.900000 0.050000 0.045000 1500 47 1.000000 2.362000 2.593000 600 59 1.000000 0.053000 0.053000 1.200000 0.048000 0.057000
1517280456080593818	200 50 0.900000 0.044000 0.040000 1500 46 1.100000 2.067000 2.273000 600 55 1.000000 0.053000 0.053000 1.200000 0.039000 0.047000
1517280456589183985	200 54 0.900000 0.046000 0.042000 1500 47 1.100000 2.621000 2.888000 600 59 1.000000 0.053000 0.053000 1.200000 0.045000 0.054000
1517280457097686402	200 55 0.900000 0.050000 0.045000 1500 47 1.100000 2.708000 2.981000 600 61 1.000000 0.053000 0.053000 1.200000 0.050000 0.060000
1517280457609532069	200 55 0.900000 0.051000 0.046000 1500 47 1.100000 2.254000 2.479000 600 61 1.000000 0.053000 0.053000 1.200000 0.044000 0.053000
1517280458139071069	200 55 0.900000 0.055000 0.050000 1500 48 1.100000 2.276000 2.503000 600 61 1.000000 0.053000 0.053000 1.200000 0.037000 0.044000
1517280458665101777	200 55 0.900000 0.061000 0.055000 1500 48 1.100000 2.318000 2.549000 600 61 1.000000 0.053000 0.053000 1.200000 0.037000 0.044000
1517280459179645027	200 55 0.900000 0.060000 0.054000 1500 48 1.100000 2.812000 3.098000 600 60 1.000000 0.053000 0.053000 1.200000 0.039000 0.047000
1517280459688186861	200 54 0.900000 0.060000 0.054000 1500 48 1.100000 2.842000 3.131000 600 61 1.000000 0.053000 0.053000 1.200000 0.042000 0.050000
1517280460248895194	200 56 0.900000 0.061000 0.055000 1500 48 1.100000 2.857000 3.148000 600 62 1.000000 0.053000 0.053000 1.200000 0.052000 0.062000
1517280460807540194	200 55 0.900000 0.059000 0.054000 1500 48 1.100000 2.578000 2.840000 600 61 1.000000 0.053000 0.053000 1.200000 0.046000 0.055000
1517280461327424236	200 56 0.900000 0.050000 0.045000 1500 48 1.000000 2.313000 2.539000 600 62 1.000000 0.053000 0.053000 1.200000 0.045000 0.054000
1517280461842462111	200 56 0.900000 0.051000 0.046000 1500 49 1.100000 2.168000 2.384000 600 62 1.000000 0.053000 0.053000 1.200000 0.036000 0.043000
1517280462363819236	200 56 0.900000 0.051000 0.046000 1500 48 1.100000 2.119000 2.330000 600 62 1.000000 0.053000 0.053000 1.200000 0.038000 0.045000
1517280462878596944	200 55 0.900000 0.061000 0.055000 1500 49 1.100000 2.749000 3.026000 600 60 1.000000 0.053000 0.053000 1.200000 0.039000 0.047000
1517280463387439194	200 56 0.900000 0.062000 0.056000 1500 49 1.100000 2.650000 2.917000 600 60 1.000000 0.053000 0.053000 1.200000 0.040000 0.048000
1517280463952815694	200 55 0.900000 0.051000 0.046000 1500 49 1.100000 2.704000 2.979000 600 62 1.000000 0.053000 0.053000 1.200000 0.047000 0.056000
1517280464520915194	200 56 0.900000 0.051000 0.046000 1500 49 1.100000 2.556000 2.816000 600 62 1.000000 0.053000 0.053000 1.200000 0.047000 0.056000
1517280465054314361	200 56 0.900000 0.051000 0.046000 1500 49 1.100000 1.993000 2.192000 600 62 1.000000 0.053000 0.053000 1.200000 0.043000 0.051000
1517280465580744528	200 56 0.900000 0.055000 0.050000 1500 49 1.000000 2.221000 2.438000 600 62 1.000000 0.053000 0.053000 1.200000 0.038000 0.045000
1517280466115147153	200 56 0.900000 0.061000 0.055000 1500 49 1.100000 2.136000 2.349000 600 61 1.000000 0.053000 0.053000 1.200000 0.037000 0.044000
1517280466626017486	200 54 0.900000 0.061000 0.055000 1500 49 1.100000 2.875000 3.168000 600 59 1.000000 0.053000 0.053000 1.200000 0.037000 0.044000
1517280467148937861	200 56 0.900000 0.061000 0.055000 1500 49 1.100000 2.666000 2.937000 600 63 1.000000 0.053000 0.053000 1.200000 0.044000 0.053000
1517280467689412362	200 56 0.900000 0.062000 0.056000 1500 49 1.100000 2.742000 3.021000 600 62 1.000000 0.053000 0.053000 1.200000 0.051000 0.061000
1517280468225650112	200 56 0.900000 0.052000 0.047000 1500 49 1.100000 2.122000 2.336000 600 62 1.000000 0.053000 0.053000 1.200000 0.045000 0.054000
1517280468769687403	200 56 0.900000 0.051000 0.046000 1500 49 1.100000 2.609000 2.872000 600 61 1.000000 0.053000 0.053000 1.200000 0.038000 0.045000
1517280469282778570	200 56 0.900000 0.061000 0.055000 1500 49 1.100000 2.545000 2.802000 600 62 1.000000 0.053000 0.053000 1.200000 0.039000 0.047000
1517280469795133737	200 55 0.900000 0.063000 0.057000 1500 49 1.100000 2.643000 2.912000 600 61 1.000000 0.053000 0.053000 1.200000 0.039000 0.047000
1517280470303889570	200 55 0.900000 0.058000 0.053000 1500 49 1.100000 2.266000 2.492000 600 60 1.000000 0.053000 0.053000 1.200000 0.041000 0.049000
1517280470853284195	200 56 0.900000 0.053000 0.048000 1500 49 1.000000 2.246000 2.466000 600 62 1.000000 0.053000 0.053000 1.200000 0.048000 0.057000
1517280471361908487	200 55 0.900000 0.053000 0.048000 1500 49 1.000000 2.174000 2.387000 600 61 1.000000 0.053000 0.053000 1.200000 0.051000 0.061000
1517280471929141070	200 56 0.900000 0.053000 0.048000 1500 49 1.100000 1.981000 2.179000 600 61 1.000000 0.053000 0.053000 1.200000 0.050000 0.060000
1517280472437542487	200 55 0.900000 0.053000 0.048000 1500 49 1.100000 2.316000 2.547000 600 61 1.000000 0.053000 0.053000 1.200000 0.047000 0.056000
1517280473000934529	200 55 0.900000 0.053000 0.048000 1500 49 1.100000 2.701000 2.976000 600 60 1.000000 0.053000 0.053000 1.200000 0.041000 0.049000
1517280473519576529	200 56 0.900000 0.051000 0.046000 1500 49 1.100000 2.635000 2.901000 600 62 1.000000 0.053000 0.053000 1.200000 0.035000 0.042000
1517280474028094654	200 55 0.900000 0.058000 0.053000 1500 49 1.100000 2.586000 2.847000 600 60 1.000000 0.053000 0.053000 1.200000 0.036000 0.043000
1517280474539925362	200 55 0.900000 0.061000 0.055000 1500 49 1.100000 2.790000 3.074000 600 60 1.000000 0.053000 0.053000 1.200000 0.039000 0.047000
1517280475058897821	200 53 0.900000 0.061000 0.055000 1500 49 1.100000 2.346000 2.585000 600 59 1.000000 0.053000 0.053000 1.200000 0.038000 0.045000
1517280475624793029	200 56 0.900000 0.051000 0.046000 1500 49 1.100000 1.807000 1.987000 600 62 1.000000 0.053000 0.053000 1.200000 0.043000 0.051000
1517280476177015738	200 56 0.900000 0.051000 0.046000 1500 49 1.000000 2.286000 2.510000 600 63 1.000000 0.053000 0.053000 1.200000 0.045000 0.054000
1517280476685374154	200 57 0.900000 0.056000 0.051000 1500 49 1.100000 2.535000 2.788000 600 63 1.000000 0.053000 0.053000 1.200000 0.047000 0.056000
1517280477193803113	200 56 0.900000 0.061000 0.055000 1500 49 1.100000 2.909000 3.205000 600 62 1.000000 0.053000 0.053000 1.200000 0.043000 0.051000
1517280477723589238	200 56 0.900000 0.061000 0.055000 1500 49 1.100000 2.855000 3.143000 600 62 1.000000 0.053000 0.053000 1.200000 0.038000 0.045000
1517280478235056738	200 56 0.900000 0.061000 0.055000 1500 49 1.100000 2.805000 3.088000 600 61 1.000000 0.053000 0.053000 1.200000 0.037000 0.044000
1517280478743654946	200 56 0.900000 0.061000 0.055000 1500 49 1.100000 2.714000 2.988000 600 62 1.000000 0.053000 0.053000 1.200000 0.035000 0.042000
1517280479271934071	200 57 0.900000 0.059000 0.054000 1500 49 1.000000 1.938000 2.127000 600 63 1.000000 0.053000 0.053000 1.200000 0.046000 0.055000
1517280479797618613	200 57 0.900000 0.051000 0.046000 1500 49 1.000000 2.254000 2.474000 600 63 1.000000 0.053000 0.053000 1.200000 0.045000 0.054000
1517280480316219238	200 57 0.900000 0.053000 0.048000 1500 49 1.000000 2.402000 2.637000 600 63 1.000000 0.053000 0.053000 1.200000 0.047000 0.056000
1517280480849800280	200 56 0.900000 0.052000 0.047000 1500 49 1.100000 2.624000 2.889000 600 62 1.000000 0.053000 0.053000 1.200000 0.038000 0.045000
1517280481358034446	200 56 0.900000 0.060000 0.054000 1500 49 1.100000 2.707000 2.980000 600 60 1.000000 0.053000 0.053000 1.200000 0.036000 0.043000
1517280481868060197	200 57 0.900000 0.055000 0.050000 1500 49 1.100000 2.821000 3.108000 600 63 1.000000 0.053000 0.053000 1.200000 0.034000 0.041000
1517280482376105447	200 51 0.900000 0.044000 0.040000 1500 48 1.000000 0.908000 0.996000 600 56 1.000000 0.053000 0.053000 1.200000 0.040000 0.048000
1517280482887490530	200 54 0.900000 0.046000 0.042000 1500 48 1.100000 1.512000 1.664000 600 58 1.000000 0.053000 0.053000 1.200000 0.029000 0.035000
1517280483395267113	200 48 0.900000 0.046000 0.042000 1500 47 1.100000 1.137000 1.250000 600 53 1.000000 0.053000 0.053000 1.200000 0.033000 0.039000
1517280483902915322	200 46 0.900000 0.026000 0.023000 1500 45 1.100000 0.255000 0.280000 600 50 1.000000 0.053000 0.053000 1.200000 0.037000 0.044000
1517280484410885114	200 47 0.900000 0.030000 0.027000 1500 45 1.100000 0.424000 0.466000 600 51 1.000000 0.053000 0.053000 1.200000 0.043000 0.051000
1517280484919253530	200 52 0.900000 0.047000 0.043000 1500 46 1.000000 1.299000 1.426000 600 55 1.000000 0.053000 0.053000 1.200000 0.038000 0.045000
1517280485473002405	200 54 0.900000 0.053000 0.048000 1500 47 1.000000 2.371000 2.603000 600 58 1.000000 0.053000 0.053000 1.200000 0.048000 0.057000
1517280486032891864	200 55 0.900000 0.052000 0.047000 1500 47 1.100000 2.159000 2.374000 600 60 1.000000 0.053000 0.053000 1.200000 0.047000 0.056000
1517280486585045739	200 55 0.900000 0.049000 0.044000 1500 47 1.100000 2.675000 2.945000 600 60 1.000000 0.053000 0.053000 1.200000 0.043000 0.051000
1517280487124456197	200 55 0.900000 0.052000 0.047000 1500 48 1.000000 2.094000 2.299000 600 60 1.000000 0.053000 0.053000 1.200000 0.045000 0.054000
1517280487638827739	200 55 0.900000 0.053000 0.048000 1500 48 1.100000 2.300000 2.530000 600 61 1.000000 0.053000 0.053000 1.200000 0.050000 0.060000
1517280488148421489	200 54 0.900000 0.053000 0.048000 1500 48 1.100000 2.819000 3.106000 600 59 1.000000 0.053000 0.053000 1.200000 0.044000 0.053000
1517280488656563197	200 56 0.900000 0.051000 0.046000 1500 48 1.000000 1.949000 2.140000 600 62 1.000000 0.053000 0.053000 1.200000 0.044000 0.053000
1517280489188599281	200 56 0.900000 0.055000 0.050000 1500 48 1.000000 2.198000 2.413000 600 62 1.000000 0.053000 0.053000 1.200000 0.052000 0.062000
1517280489737882156	200 56 0.900000 0.061000 0.055000 1500 48 1.100000 2.427000 2.669000 600 61 1.000000 0.053000 0.053000 1.200000 0.047000 0.056000
1517280490264822114	200 56 0.900000 0.058000 0.053000 1500 49 1.100000 2.609000 2.872000 600 62 1.000000 0.053000 0.053000 1.200000 0.038000 0.045000
1517280490791683823	200 56 0.900000 0.061000 0.055000 1500 49 1.100000 2.851000 3.141000 600 61 1.000000 0.053000 0.053000 1.200000 0.038000 0.045000
1517280491305309031	200 55 0.900000 0.063000 0.057000 1500 49 1.100000 2.708000 2.984000 600 60 1.000000 0.053000 0.053000 1.200000 0.037000 0.044000
1517280491814073489	200 55 0.900000 0.053000 0.048000 1500 49 1.100000 2.280000 2.508000 600 61 1.000000 0.053000 0.053000 1.200000 0.043000 0.051000
1517280492322341198	200 56 0.900000 0.052000 0.047000 1500 49 1.000000 2.377000 2.609000 600 62 1.000000 0.053000 0.053000 1.200000 0.051000 0.061000
1517280492831221365	200 56 0.900000 0.053000 0.048000 1500 49 1.000000 2.171000 2.383000 600 62 1.000000 0.053000 0.053000 1.200000 0.051000 0.061000
1517280493340744948	200 56 0.900000 0.051000 0.046000 1500 49 1.100000 2.373000 2.610000 600 62 1.000000 0.053000 0.053000 1.200000 0.044000 0.053000
1517280493848915031	200 56 0.900000 0.057000 0.052000 1500 49 1.100000 2.672000 2.941000 600 62 1.000000 0.053000 0.053000 1.200000 0.040000 0.048000
1517280494357598948	200 54 0.900000 0.058000 0.053000 1500 49 1.100000 2.726000 3.004000 600 60 1.000000 0.053000 0.053000 1.200000 0.048000 0.057000
1517280494866787531	200 53 0.900000 0.052000 0.047000 1500 49 1.100000 2.685000 2.958000 600 59 1.000000 0.053000 0.053000 1.200000 0.049000 0.059000
1517280495375223240	200 56 0.900000 0.053000 0.048000 1500 49 1.100000 2.716000 2.993000 600 63 1.000000 0.053000 0.053000 1.200000 0.049000 0.059000
1517280495883508323	200 57 0.900000 0.052000 0.047000 1500 49 1.100000 2.451000 2.701000 600 63 1.000000 0.053000 0.053000 1.200000 0.049000 0.059000
1517280496432916532	200 56 0.900000 0.053000 0.048000 1500 49 1.100000 2.463000 2.709000 600 61 1.000000 0.053000 0.053000 1.200000 0.046000 0.055000
1517280496960755740	200 56 0.900000 0.053000 0.048000 1500 49 1.000000 2.072000 2.275000 600 62 1.000000 0.053000 0.053000 1.200000 0.039000 0.047000
1517280497468917573	200 56 0.900000 0.051000 0.046000 1500 49 1.000000 2.034000 2.233000 600 62 1.000000 0.053000 0.053000 1.200000 0.035000 0.042000
1517280497977027532	200 56 0.900000 0.055000 0.050000 1500 49 1.100000 2.204000 2.424000 600 62 1.000000 0.053000 0.053000 1.200000 0.037000 0.044000
1517280498485797157	200 55 0.900000 0.058000 0.053000 1500 49 1.100000 2.488000 2.741000 600 60 1.000000 0.053000 0.053000 1.200000 0.035000 0.042000
1517280499002469157	200 56 0.900000 0.061000 0.055000 1500 49 1.100000 2.595000 2.857000 600 62 1.000000 0.053000 0.053000 1.200000 0.045000 0.054000
1517280499533645032	200 56 0.900000 0.061000 0.055000 1500 49 1.100000 2.582000 2.845000 600 62 1.000000 0.053000 0.053000 1.200000 0.053000 0.064000
1517280500056727740	200 56 0.900000 0.062000 0.056000 1500 49 1.100000 2.500000 2.755000 600 62 1.000000 0.053000 0.053000 1.200000 0.048000 0.057000
1517280500564874490	200 52 0.900000 0.061000 0.055000 1500 48 1.000000 1.119000 1.227000 600 57 1.000000 0.053000 0.053000 1.200000 0.043000 0.051000
1517280501083208990	200 54 0.900000 0.038000 0.034000 1500 48 1.100000 1.245000 1.370000 600 59 1.000000 0.053000 0.053000 1.200000 0.047000 0.056000
1517280501594903866	200 50 0.900000 0.047000 0.043000 1500 47 1.100000 1.531000 1.685000 600 55 1.000000 0.053000 0.053000 1.200000 0.029000 0.035000
1517280502122186074	200 55 0.900000 0.035000 0.032000 1500 48 1.100000 2.609000 2.875000 600 61 1.000000 0.053000 0.053000 1.200000 0.048000 0.057000
1517280502649266907	200 56 0.900000 0.049000 0.044000 1500 48 1.000000 2.148000 2.358000 600 62 1.000000 0.053000 0.053000 1.200000 0.039000 0.047000
1517280503167094824	200 56 0.900000 0.061000 0.055000 1500 48 1.100000 2.140000 2.354000 600 62 1.000000 0.053000 0.053000 1.200000 0.038000 0.045000
1517280503693588241	200 56 0.900000 0.061000 0.055000 1500 49 1.100000 2.289000 2.517000 600 62 1.000000 0.053000 0.053000 1.200000 0.039000 0.047000
1517280504216231783	200 56 0.900000 0.060000 0.055000 1500 49 1.100000 2.872000 3.162000 600 62 1.000000 0.053000 0.053000 1.200000 0.039000 0.047000
1517280504732178824	200 54 0.900000 0.061000 0.055000 1500 49 1.000000 2.186000 2.400000 600 59 1.000000 0.053000 0.053000 1.200000 0.048000 0.057000
1517280505252398408	200 57 0.900000 0.060000 0.054000 1500 49 1.000000 1.966000 2.158000 600 63 1.000000 0.053000 0.053000 1.200000 0.049000 0.059000
1517280505794840949	200 56 0.900000 0.054000 0.049000 1500 49 1.100000 2.515000 2.766000 600 62 1.000000 0.053000 0.053000 1.200000 0.046000 0.055000
1517280506326207574	200 56 0.900000 0.053000 0.048000 1500 49 1.100000 2.606000 2.871000 600 62 1.000000 0.053000 0.053000 1.200000 0.038000 0.045000
1517280506880132783	200 56 0.900000 0.061000 0.055000 1500 49 1.100000 2.541000 2.797000 600 61 1.000000 0.053000 0.053000 1.200000 0.035000 0.042000
1517280507400968950	200 56 0.900000 0.062000 0.056000 1500 49 1.100000 2.770000 3.049000 600 62 1.000000 0.053000 0.053000 1.200000 0.038000 0.045000
1517280507912362450	200 54 0.900000 0.051000 0.046000 1500 49 1.000000 1.856000 2.037000 600 59 1.000000 0.053000 0.053000 1.200000 0.048000 0.057000
1517280508463742408	200 56 0.900000 0.050000 0.045000 1500 49 1.000000 1.859000 2.041000 600 63 1.000000 0.053000 0.053000 1.200000 0.048000 0.057000
1517280509002046825	200 57 0.900000 0.051000 0.046000 1500 49 1.100000 2.790000 3.071000 600 63 1.000000 0.053000 0.053000 1.200000 0.042000 0.050000
1517280509539530492	200 57 0.900000 0.061000 0.055000 1500 49 1.100000 2.886000 3.180000 600 63 1.000000 0.053000 0.053000 1.200000 0.038000 0.045000
1517280510076484367	200 56 0.900000 0.051000 0.046000 1500 49 1.100000 2.283000 2.511000 600 62 1.000000 0.053000 0.053000 1.200000 0.048000 0.057000
1517280510596799700	200 56 0.900000 0.051000 0.046000 1500 49 1.100000 2.813000 3.099000 600 62 1.000000 0.053000 0.053000 1.200000 0.040000 0.048000
1517280511107250117	200 56 0.900000 0.058000 0.053000 1500 49 1.100000 3.000000 3.306000 600 61 1.000000 0.053000 0.053000 1.200000 0.038000 0.045000
1517280511616310533	200 56 0.900000 0.057000 0.052000 1500 49 1.000000 2.118000 2.325000 600 62 1.000000 0.053000 0.053000 1.200000 0.048000 0.057000
1517280512135891950	200 57 0.900000 0.053000 0.048000 1500 49 1.100000 2.281000 2.509000 600 63 1.000000 0.053000 0.053000 1.200000 0.049000 0.059000
1517280512657604784	200 57 0.900000 0.053000 0.048000 1500 49 1.100000 2.875000 3.168000 600 63 1.000000 0.053000 0.053000 1.200000 0.042000 0.050000
1517280513171329159	200 57 0.900000 0.061000 0.055000 1500 49 1.100000 2.864000 3.156000 600 63 1.000000 0.053000 0.053000 1.200000 0.037000 0.044000
1517280513695956534	200 56 0.900000 0.063000 0.057000 1500 49 1.100000 2.819000 3.106000 600 62 1.000000 0.053000 0.053000 1.200000 0.039000 0.047000
1517280514205969700	200 54 0.900000 0.055000 0.050000 1500 49 1.100000 2.475000 2.724000 600 60 1.000000 0.053000 0.053000 1.200000 0.042000 0.050000
1517280514714221034	200 56 0.900000 0.053000 0.048000 1500 49 1.000000 1.993000 2.188000 600 63 1.000000 0.053000 0.053000 1.200000 0.045000 0.054000
1517280515230432534	200 57 0.900000 0.053000 0.048000 1500 49 1.000000 2.054000 2.255000 600 63 1.000000 0.053000 0.053000 1.200000 0.049000 0.059000
1517280515745076992	200 57 0.900000 0.051000 0.046000 1500 49 1.000000 2.253000 2.473000 600 63 1.000000 0.053000 0.053000 1.200000 0.048000 0.057000
1517280516261788284	200 57 0.900000 0.057000 0.052000 1500 49 1.100000 2.732000 3.007000 600 63 1.000000 0.053000 0.053000 1.200000 0.042000 0.050000
1517280516770196201	200 55 0.900000 0.061000 0.055000 1500 49 1.100000 2.801000 3.083000 600 62 1.000000 0.053000 0.053000 1.200000 0.038000 0.045000
1517280517279846992	200 55 0.900000 0.061000 0.055000 1500 49 1.100000 2.667000 2.936000 600 60 1.000000 0.053000 0.053000 1.200000 0.035000 0.042000
1517280517788604076	200 56 0.900000 0.061000 0.055000 1500 49 1.100000 2.613000 2.876000 600 60 1.000000 0.053000 0.053000 1.200000 0.038000 0.045000
1517280518321991118	200 57 0.900000 0.061000 0.055000 1500 49 1.100000 2.580000 2.838000 600 62 1.000000 0.053000 0.053000 1.200000 0.040000 0.048000
1517280518830998243	200 57 0.900000 0.062000 0.056000 1500 49 1.000000 2.139000 2.348000 600 63 1.000000 0.053000 0.053000 1.200000 0.045000 0.054000
1517280519388905076	200 56 0.900000 0.053000 0.048000 1500 49 1.100000 2.182000 2.400000 600 62 1.000000 0.053000 0.053000 1.200000 0.047000 0.056000
1517280519911451201	200 57 0.900000 0.052000 0.047000 1500 49 1.000000 2.062000 2.262000 600 62 1.000000 0.053000 0.053000 1.200000 0.047000 0.056000
1517280520423132826	200 56 0.900000 0.059000 0.054000 1500 49 1.100000 2.118000 2.329000 600 62 1.000000 0.053000 0.053000 1.200000 0.050000 0.060000
1517280520931569451	200 57 0.900000 0.062000 0.056000 1500 49 1.100000 2.747000 3.027000 600 62 1.000000 0.053000 0.053000 1.200000 0.043000 0.051000
1517280521445498868	200 55 0.900000 0.060000 0.054000 1500 49 1.100000 2.566000 2.825000 600 60 1.000000 0.053000 0.053000 1.200000 0.036000 0.043000
1517280521959101243	200 57 0.900000 0.061000 0.055000 1500 49 1.100000 2.675000 2.947000 600 63 1.000000 0.053000 0.053000 1.200000 0.038000 0.045000
1517280522483560243	200 57 0.900000 0.063000 0.057000 1500 49 1.100000 2.739000 3.015000 600 63 1.000000 0.053000 0.053000 1.200000 0.040000 0.048000
1517280523028632201	200 56 0.900000 0.052000 0.047000 1500 49 1.000000 2.122000 2.329000 600 62 1.000000 0.053000 0.053000 1.200000 0.047000 0.056000
1517280523537521035	200 57 0.900000 0.052000 0.047000 1500 49 1.000000 2.420000 2.657000 600 63 1.000000 0.053000 0.053000 1.200000 0.052000 0.062000
1517280524045691368	200 57 0.900000 0.052000 0.047000 1500 49 1.100000 2.423000 2.665000 600 63 1.000000 0.053000 0.053000 1.200000 0.050000 0.060000
1517280524556907535	200 55 0.900000 0.059000 0.054000 1500 49 1.100000 2.582000 2.845000 600 60 1.000000 0.053000 0.053000 1.200000 0.038000 0.045000
1517280525078416785	200 57 0.900000 0.059000 0.054000 1500 49 1.000000 2.113000 2.320000 600 64 1.000000 0.053000 0.053000 1.200000 0.049000 0.059000
1517280525629097743	200 57 0.900000 0.061000 0.055000 1500 50 1.000000 1.903000 2.089000 600 63 1.000000 0.053000 0.053000 1.200000 0.048000 0.057000
1517280526143496660	200 57 0.900000 0.060000 0.055000 1500 49 1.100000 2.646000 2.913000 600 63 1.000000 0.053000 0.053000 1.200000 0.045000 0.054000
1517280526653434035	200 57 0.900000 0.062000 0.056000 1500 50 1.100000 2.878000 3.171000 600 63 1.000000 0.053000 0.053000 1.200000 0.041000 0.049000
1517280527200534035	200 56 0.900000 0.062000 0.056000 1500 49 1.100000 2.652000 2.922000 600 62 1.000000 0.053000 0.053000 1.200000 0.041000 0.049000
1517280527709040744	200 57 0.900000 0.055000 0.050000 1500 50 1.100000 2.828000 3.116000 600 61 1.000000 0.053000 0.053000 1.200000 0.040000 0.048000
1517280528223129994	200 57 0.900000 0.053000 0.048000 1500 50 1.100000 2.492000 2.743000 600 64 1.000000 0.053000 0.053000 1.200000 0.042000 0.050000
1517280528744813619	200 57 0.900000 0.052000 0.047000 1500 50 1.100000 2.215000 2.436000 600 64 1.000000 0.053000 0.053000 1.200000 0.049000 0.059000
1517280529282380327	200 57 0.900000 0.048000 0.044000 1500 50 1.000000 2.321000 2.548000 600 63 1.000000 0.053000 0.053000 1.200000 0.050000 0.060000
1517280529800395286	200 57 0.900000 0.061000 0.055000 1500 50 1.100000 2.826000 3.111000 600 63 1.000000 0.053000 0.053000 1.200000 0.042000 0.050000
1517280530338330827	200 56 0.900000 0.061000 0.055000 1500 49 1.100000 2.881000 3.174000 600 62 1.000000 0.053000 0.053000 1.200000 0.039000 0.047000
1517280530849813911	200 55 0.900000 0.058000 0.053000 1500 49 1.100000 2.756000 3.037000 600 60 1.000000 0.053000 0.053000 1.200000 0.038000 0.045000
1517280531363329327	200 58 0.900000 0.063000 0.057000 1500 50 1.100000 2.719000 2.993000 600 64 1.000000 0.053000 0.053000 1.200000 0.041000 0.049000
1517280531896586828	200 57 0.900000 0.058000 0.053000 1500 50 1.000000 2.050000 2.250000 600 63 1.000000 0.053000 0.053000 1.200000 0.046000 0.055000
1517280532461015161	200 54 0.900000 0.060000 0.055000 1500 49 1.000000 1.841000 2.021000 600 60 1.000000 0.053000 0.053000 1.200000 0.045000 0.054000
1517280532999262703	200 56 0.900000 0.056000 0.051000 1500 49 1.100000 2.809000 3.095000 600 62 1.000000 0.053000 0.053000 1.200000 0.041000 0.049000
1517280533512145119	200 55 0.900000 0.054000 0.049000 1500 49 1.100000 2.791000 3.075000 600 60 1.000000 0.053000 0.053000 1.200000 0.049000 0.059000
1517280534021042494	200 55 0.900000 0.053000 0.048000 1500 50 1.100000 2.648000 2.915000 600 63 1.000000 0.053000 0.053000 1.200000 0.050000 0.060000
1517280534550955161	200 57 0.900000 0.052000 0.047000 1500 49 1.000000 1.986000 2.180000 600 63 1.000000 0.053000 0.053000 1.200000 0.041000 0.049000
1517280535060502953	200 57 0.900000 0.053000 0.048000 1500 49 1.100000 2.188000 2.406000 600 63 1.000000 0.053000 0.053000 1.200000 0.039000 0.047000
1517280535603200620	200 57 0.900000 0.061000 0.055000 1500 49 1.100000 2.162000 2.378000 600 62 1.000000 0.053000 0.053000 1.200000 0.039000 0.047000
1517280536129199578	200 57 0.900000 0.061000 0.055000 1500 49 1.100000 2.639000 2.908000 600 62 1.000000 0.053000 0.053000 1.200000 0.041000 0.049000
1517280536639395245	200 56 0.900000 0.061000 0.055000 1500 49 1.100000 2.828000 3.116000 600 61 1.000000 0.053000 0.053000 1.200000 0.050000 0.060000
1517280537150315161	200 56 0.900000 0.062000 0.056000 1500 50 1.100000 2.675000 2.947000 600 60 1.000000 0.053000 0.053000 1.200000 0.050000 0.060000
1517280537704897370	200 55 0.900000 0.062000 0.056000 1500 49 1.100000 2.559000 2.820000 600 61 1.000000 0.053000 0.053000 1.200000 0.044000 0.053000
1517280538250333120	200 56 0.900000 0.061000 0.055000 1500 49 1.100000 1.885000 2.073000 600 62 1.000000 0.053000 0.053000 1.200000 0.041000 0.049000
1517280538758330203	200 57 0.900000 0.061000 0.055000 1500 49 1.000000 2.187000 2.401000 600 63 1.000000 0.053000 0.053000 1.200000 0.037000 0.044000
1517280539267049745	200 55 0.900000 0.061000 0.055000 1500 49 1.100000 2.293000 2.522000 600 61 1.000000 0.053000 0.053000 1.200000 0.037000 0.044000
1517280539775621787	200 55 0.900000 0.050000 0.045000 1500 49 1.100000 2.564000 2.825000 600 62 1.000000 0.053000 0.053000 1.200000 0.036000 0.043000
1517280540332606995	200 56 0.900000 0.061000 0.055000 1500 49 1.100000 2.325000 2.559000 600 62 1.000000 0.053000 0.053000 1.200000 0.044000 0.053000
1517280540847277995	200 55 0.900000 0.063000 0.057000 1500 49 1.000000 2.095000 2.300000 600 61 1.000000 0.053000 0.053000 1.200000 0.046000 0.055000
1517280541355998829	200 53 0.900000 0.060000 0.055000 1500 49 1.000000 2.258000 2.479000 600 60 1.000000 0.053000 0.053000 1.200000 0.049000 0.059000
1517280541876097829	200 57 0.900000 0.055000 0.050000 1500 49 1.100000 2.061000 2.267000 600 63 1.000000 0.053000 0.053000 1.200000 0.050000 0.060000
1517280542399027204	200 57 0.900000 0.052000 0.047000 1500 49 1.100000 2.139000 2.352000 600 63 1.000000 0.053000 0.053000 1.200000 0.045000 0.054000
1517280542907063995	200 56 0.900000 0.054000 0.049000 1500 49 1.100000 2.582000 2.842000 600 62 1.000000 0.053000 0.053000 1.200000 0.045000 0.054000
1517280543468891996	200 56 0.900000 0.053000 0.048000 1500 49 1.100000 2.730000 3.005000 600 62 1.000000 0.053000 0.053000 1.200000 0.036000 0.043000
1517280543977257954	200 57 0.900000 0.054000 0.049000 1500 49 1.100000 2.807000 3.093000 600 63 1.000000 0.053000 0.053000 1.200000 0.039000 0.047000
1517280544488619204	200 53 0.900000 0.061000 0.055000 1500 49 1.100000 2.683000 2.956000 600 58 1.000000 0.053000 0.053000 1.200000 0.040000 0.048000
1517280545043652871	200 53 0.900000 0.048000 0.044000 1500 48 1.100000 1.331000 1.464000 600 58 1.000000 0.053000 0.053000 1.200000 0.039000 0.047000
1517280545551861787	200 50 0.900000 0.041000 0.037000 1500 47 1.100000 1.320000 1.453000 600 55 1.000000 0.053000 0.053000 1.200000 0.035000 0.042000
1517280546059450329	200 47 0.900000 0.028000 0.025000 1500 46 1.100000 0.441000 0.485000 600 51 1.000000 0.053000 0.053000 1.200000 0.034000 0.041000
1517280546604882538	200 49 0.900000 0.026000 0.023000 1500 45 1.100000 0.232000 0.255000 600 53 1.000000 0.053000 0.053000 1.200000 0.040000 0.048000
1517280547112895871	200 48 0.900000 0.047000 0.043000 1500 46 1.100000 1.464000 1.611000 600 53 1.000000 0.053000 0.053000 1.200000 0.036000 0.043000
1517280547621112913	200 47 0.900000 0.038000 0.034000 1500 45 1.100000 1.316000 1.447000 600 52 1.000000 0.053000 0.053000 1.200000 0.030000 0.036000
1517280548128448663	200 45 0.900000 0.024000 0.022000 1500 44 1.000000 0.240000 0.263000 600 49 1.000000 0.053000 0.053000 1.200000 0.036000 0.043000
1517280548685755788	200 48 0.900000 0.037000 0.033000 1500 44 1.100000 0.254000 0.279000 600 52 1.000000 0.052000 0.052000 1.200000 0.040000 0.048000
1517280549193767163	200 46 0.900000 0.040000 0.036000 1500 44 1.100000 1.574000 1.732000 600 51 1.000000 0.052000 0.052000 1.200000 0.031000 0.037000
1517280549701877163	200 46 0.900000 0.041000 0.037000 1500 44 1.100000 1.138000 1.252000 600 50 1.000000 0.053000 0.053000 1.200000 0.033000 0.039000
1517280550209171871	200 44 0.900000 0.025000 0.022000 1500 43 1.100000 0.222000 0.244000 600 48 1.000000 0.052000 0.052000 1.200000 0.036000 0.043000
1517280550717381080	200 47 0.900000 0.028000 0.025000 1500 43 1.000000 0.550000 0.603000 600 52 1.000000 0.052000 0.052000 1.200000 0.045000 0.054000
1517280551225338038	200 45 0.900000 0.043000 0.039000 1500 43 1.100000 1.135000 1.249000 600 50 1.000000 0.052000 0.052000 1.200000 0.032000 0.038000
1517280551733259788	200 45 0.900000 0.044000 0.040000 1500 43 1.100000 1.638000 1.803000 600 49 1.000000 0.052000 0.052000 1.200000 0.031000 0.037000
1517280552240590538	200 43 0.900000 0.031000 0.028000 1500 43 1.100000 0.243000 0.267000 600 47 1.000000 0.052000 0.052000 1.200000 0.036000 0.043000
1517280552748617747	200 47 0.900000 0.025000 0.022000 1500 43 1.000000 0.217000 0.238000 600 51 1.000000 0.052000 0.052000 1.200000 0.039000 0.047000
1517280553256952163	200 45 0.900000 0.045000 0.041000 1500 43 1.100000 1.371000 1.509000 600 49 1.000000 0.052000 0.052000 1.200000 0.033000 0.039000
1517280553764840247	200 50 0.900000 0.045000 0.041000 1500 44 1.100000 1.624000 1.788000 600 55 1.000000 0.052000 0.052000 1.200000 0.035000 0.042000
1517280554276125039	200 49 0.900000 0.059000 0.054000 1500 45 1.100000 2.733000 3.011000 600 54 1.000000 0.052000 0.052000 1.200000 0.036000 0.043000
1517280554812528705	200 53 0.900000 0.061000 0.055000 1500 45 1.100000 2.216000 2.437000 600 59 1.000000 0.052000 0.052000 1.200000 0.044000 0.053000
1517280555340721955	200 53 0.900000 0.052000 0.047000 1500 46 1.000000 2.325000 2.552000 600 59 1.000000 0.052000 0.052000 1.200000 0.047000 0.056000
1517280555858998539	200 54 0.900000 0.051000 0.046000 1500 46 1.000000 2.278000 2.501000 600 60 1.000000 0.053000 0.053000 1.200000 0.050000 0.060000
1517280556386112330	200 54 0.900000 0.053000 0.048000 1500 47 1.100000 2.788000 3.069000 600 60 1.000000 0.053000 0.053000 1.200000 0.042000 0.050000
1517280556936710497	200 54 0.900000 0.058000 0.053000 1500 47 1.100000 2.733000 3.009000 600 59 1.000000 0.053000 0.053000 1.200000 0.039000 0.047000
1517280557452131456	200 51 0.900000 0.056000 0.051000 1500 47 1.100000 2.715000 2.989000 600 57 1.000000 0.053000 0.053000 1.200000 0.039000 0.047000
1517280557983889039	200 55 0.900000 0.051000 0.046000 1500 48 1.100000 2.335000 2.568000 600 61 1.000000 0.053000 0.053000 1.200000 0.044000 0.053000
1517280558497767622	200 55 0.900000 0.053000 0.048000 1500 48 1.000000 2.391000 2.625000 600 62 1.000000 0.053000 0.053000 1.200000 0.052000 0.062000
1517280559008805914	200 56 0.900000 0.050000 0.045000 1500 48 1.100000 2.169000 2.385000 600 62 1.000000 0.053000 0.053000 1.200000 0.050000 0.060000
1517280559528442581	200 56 0.900000 0.061000 0.055000 1500 48 1.100000 2.460000 2.708000 600 62 1.000000 0.053000 0.053000 1.200000 0.044000 0.053000
1517280560046037706	200 56 0.900000 0.061000 0.055000 1500 48 1.100000 2.796000 3.081000 600 62 1.000000 0.053000 0.053000 1.200000 0.036000 0.043000
1517280560555575456	200 56 0.900000 0.061000 0.055000 1500 48 1.100000 2.877000 3.173000 600 60 1.000000 0.053000 0.053000 1.200000 0.037000 0.044000
1517280561066760331	200 56 0.900000 0.061000 0.055000 1500 49 1.100000 2.796000 3.081000 600 60 1.000000 0.053000 0.053000 1.200000 0.038000 0.045000
1517280561575256623	200 55 0.900000 0.061000 0.055000 1500 49 1.100000 2.701000 2.973000 600 61 1.000000 0.053000 0.053000 1.200000 0.042000 0.050000
1517280562098410623	200 56 0.900000 0.056000 0.051000 1500 49 1.000000 2.083000 2.287000 600 62 1.000000 0.053000 0.053000 1.200000 0.045000 0.054000
1517280562642129040	200 56 0.900000 0.051000 0.046000 1500 49 1.000000 1.967000 2.159000 600 61 1.000000 0.053000 0.053000 1.200000 0.046000 0.055000
1517280563171328831	200 56 0.900000 0.061000 0.055000 1500 49 1.100000 2.529000 2.784000 600 61 1.000000 0.053000 0.053000 1.200000 0.042000 0.050000
1517280563683523206	200 56 0.900000 0.061000 0.055000 1500 49 1.100000 2.647000 2.914000 600 60 1.000000 0.053000 0.053000 1.200000 0.037000 0.044000
1517280564191754248	200 56 0.900000 0.059000 0.054000 1500 49 1.100000 2.835000 3.124000 600 63 1.000000 0.053000 0.053000 1.200000 0.038000 0.045000
1517280564735416415	200 56 0.900000 0.053000 0.048000 1500 49 1.100000 2.410000 2.655000 600 62 1.000000 0.053000 0.053000 1.200000 0.038000 0.045000
1517280565251191165	200 56 0.900000 0.052000 0.047000 1500 49 1.100000 2.121000 2.333000 600 62 1.000000 0.053000 0.053000 1.200000 0.046000 0.055000
1517280565769635957	200 56 0.900000 0.053000 0.048000 1500 49 1.100000 2.199000 2.418000 600 62 1.000000 0.053000 0.053000 1.200000 0.049000 0.059000
1517280566279643040	200 56 0.900000 0.055000 0.050000 1500 49 1.100000 2.373000 2.610000 600 62 1.000000 0.053000 0.053000 1.200000 0.044000 0.053000
1517280566792203290	200 55 0.900000 0.060000 0.055000 1500 49 1.100000 2.506000 2.759000 600 60 1.000000 0.053000 0.053000 1.200000 0.043000 0.051000
1517280567310887540	200 55 0.900000 0.060000 0.055000 1500 49 1.100000 2.471000 2.723000 600 59 1.000000 0.053000 0.053000 1.200000 0.036000 0.043000
1517280567846281207	200 56 0.900000 0.053000 0.048000 1500 49 1.100000 2.024000 2.226000 600 62 1.000000 0.053000 0.053000 1.200000 0.051000 0.061000
1517280568354612582	200 56 0.900000 0.061000 0.055000 1500 49 1.100000 2.659000 2.930000 600 62 1.000000 0.053000 0.053000 1.200000 0.037000 0.044000
1517280568912982749	200 56 0.900000 0.053000 0.048000 1500 49 1.100000 2.167000 2.383000 600 62 1.000000 0.053000 0.053000 1.200000 0.051000 0.061000
1517280569480813915	200 55 0.900000 0.052000 0.047000 1500 49 1.100000 2.615000 2.881000 600 62 1.000000 0.053000 0.053000 1.200000 0.040000 0.048000
1517280570036885624	200 56 0.900000 0.050000 0.045000 1500 49 1.100000 2.316000 2.552000 600 61 1.000000 0.053000 0.053000 1.200000 0.044000 0.053000
1517280570604812749	200 55 0.900000 0.052000 0.047000 1500 49 1.100000 2.207000 2.429000 600 61 1.000000 0.053000 0.053000 1.200000 0.047000 0.056000
1517280571168800332	200 56 0.900000 0.051000 0.046000 1500 49 1.000000 2.197000 2.412000 600 61 1.000000 0.053000 0.053000 1.200000 0.038000 0.045000
1517280571676815291	200 55 0.900000 0.052000 0.047000 1500 49 1.100000 2.202000 2.422000 600 61 1.000000 0.053000 0.053000 1.200000 0.037000 0.044000
1517280572224900249	200 54 0.900000 0.058000 0.053000 1500 49 1.000000 2.078000 2.281000 600 60 1.000000 0.053000 0.053000 1.200000 0.037000 0.044000
1517280572772914791	200 56 0.900000 0.061000 0.055000 1500 49 1.100000 2.217000 2.438000 600 62 1.000000 0.053000 0.053000 1.200000 0.039000 0.047000
1517280573296191249	200 56 0.900000 0.061000 0.055000 1500 49 1.100000 2.790000 3.074000 600 62 1.000000 0.053000 0.053000 1.200000 0.042000 0.050000
1517280573807161208	200 54 0.900000 0.059000 0.054000 1500 49 1.100000 2.745000 3.024000 600 60 1.000000 0.053000 0.053000 1.200000 0.049000 0.059000
1517280574320240499	200 57 0.900000 0.062000 0.056000 1500 49 1.100000 2.769000 3.051000 600 63 1.000000 0.053000 0.053000 1.200000 0.049000 0.059000
1517280574852171666	200 56 0.900000 0.058000 0.053000 1500 49 1.100000 2.718000 2.992000 600 62 1.000000 0.053000 0.053000 1.200000 0.046000 0.055000
1517280575403517041	200 56 0.900000 0.051000 0.046000 1500 49 1.000000 1.974000 2.167000 600 62 1.000000 0.053000 0.053000 1.200000 0.037000 0.044000
1517280575920436874	200 52 0.900000 0.061000 0.055000 1500 48 1.100000 1.960000 2.159000 600 57 1.000000 0.053000 0.053000 1.200000 0.040000 0.048000
1517280576430324499	200 52 0.900000 0.053000 0.048000 1500 48 1.100000 1.380000 1.518000 600 58 1.000000 0.053000 0.053000 1.200000 0.040000 0.048000
1517280576938302916	200 49 0.900000 0.043000 0.039000 1500 47 1.100000 1.124000 1.236000 600 54 1.000000 0.053000 0.053000 1.200000 0.032000 0.038000
1517280577445696708	200 47 0.900000 0.028000 0.025000 1500 46 1.100000 0.772000 0.849000 600 51 1.000000 0.053000 0.053000 1.200000 0.033000 0.039000
1517280578000909125	200 49 0.900000 0.026000 0.023000 1500 45 1.100000 0.233000 0.256000 600 51 1.000000 0.053000 0.053000 1.200000 0.037000 0.044000
1517280578527949583	200 52 0.900000 0.038000 0.034000 1500 46 1.100000 1.354000 1.489000 600 58 1.000000 0.053000 0.053000 1.200000 0.040000 0.048000
1517280579052864833	200 54 0.900000 0.053000 0.048000 1500 46 1.100000 1.986000 2.184000 600 59 1.000000 0.053000 0.053000 1.200000 0.050000 0.060000
1517280579562507208	200 54 0.900000 0.051000 0.046000 1500 47 1.100000 2.460000 2.706000 600 60 1.000000 0.053000 0.053000 1.200000 0.042000 0.050000
1517280580070533583	200 55 0.900000 0.053000 0.048000 1500 47 1.100000 2.560000 2.818000 600 60 1.000000 0.053000 0.053000 1.200000 0.040000 0.048000
1517280580589499375	200 55 0.900000 0.053000 0.048000 1500 47 1.100000 2.687000 2.961000 600 60 1.000000 0.053000 0.053000 1.200000 0.039000 0.047000
1517280581101425583	200 55 0.900000 0.061000 0.055000 1500 48 1.100000 2.653000 2.923000 600 58 1.000000 0.053000 0.053000 1.200000 0.038000 0.045000
1517280581610070542	200 55 0.900000 0.059000 0.054000 1500 48 1.100000 2.336000 2.574000 600 61 1.000000 0.053000 0.053000 1.200000 0.044000 0.053000
1517280582120562292	200 56 0.900000 0.052000 0.047000 1500 48 1.000000 2.138000 2.347000 600 62 1.000000 0.053000 0.053000 1.200000 0.051000 0.061000
1517280582629503792	200 56 0.900000 0.053000 0.048000 1500 48 1.000000 2.117000 2.324000 600 62 1.000000 0.053000 0.053000 1.200000 0.046000 0.055000
1517280583170368917	200 55 0.900000 0.049000 0.044000 1500 48 1.100000 2.186000 2.404000 600 61 1.000000 0.053000 0.053000 1.200000 0.043000 0.051000
1517280583687271792	200 56 0.900000 0.061000 0.055000 1500 48 1.100000 2.634000 2.902000 600 61 1.000000 0.053000 0.053000 1.200000 0.036000 0.043000
1517280584195480459	200 52 0.900000 0.061000 0.055000 1500 48 1.100000 2.921000 3.218000 600 58 1.000000 0.053000 0.053000 1.200000 0.036000 0.043000
1517280584703525084	200 47 0.900000 0.028000 0.025000 1500 46 1.000000 1.473000 1.615000 600 52 1.000000 0.053000 0.053000 1.200000 0.041000 0.049000
