#Timestamp	CPU(0) Frequency(MHz)	CPU(0) Temperature(C)	A7 Voltage(V)	A7 Current(A)	A7 Power(W)	CPU(4) Frequency(MHz)	CPU(4) Temperature(C)	A15 Voltage(V)	A15 Current(A)	A15 Power(W)	GPU Frequency(MHz)	GPU Temperature(C)	GPU Voltage(V)	GPU Current(A)	GPU Power(W)	RAM Voltage(V)	RAM Current(A)	RAM Power(W)
1517192927077583259	600 37 0.900000 0.029000 0.028000 600 36 0.900000 0.340000 0.309000 600 41 1.000000 0.051000 0.051000 1.200000 0.039000 0.047000
1517192927589600718	600 37 0.900000 0.030000 0.028000 600 36 0.900000 0.318000 0.289000 600 41 1.000000 0.051000 0.051000 1.200000 0.033000 0.039000
1517192928101311843	600 37 0.900000 0.029000 0.027000 600 36 0.900000 0.319000 0.290000 600 41 1.000000 0.051000 0.051000 1.200000 0.034000 0.041000
1517192928613191051	600 37 0.900000 0.029000 0.027000 600 36 0.900000 0.318000 0.289000 600 41 1.000000 0.051000 0.051000 1.200000 0.033000 0.039000
1517192929128053718	600 37 0.900000 0.029000 0.027000 600 36 0.900000 0.321000 0.292000 600 41 1.000000 0.051000 0.051000 1.200000 0.033000 0.039000
1517192929643149093	600 37 0.900000 0.028000 0.026000 600 36 0.900000 0.324000 0.294000 600 41 1.000000 0.051000 0.051000 1.200000 0.034000 0.041000
1517192930157630926	600 38 0.900000 0.102000 0.097000 600 37 0.900000 0.553000 0.501000 600 42 1.000000 0.051000 0.051000 1.200000 0.043000 0.051000
1517192930671589801	600 39 0.900000 0.140000 0.133000 600 37 0.900000 0.868000 0.783000 600 42 1.000000 0.051000 0.051000 1.200000 0.040000 0.048000
1517192931241876051	600 39 0.900000 0.068000 0.064000 600 37 0.900000 0.943000 0.851000 600 43 1.000000 0.051000 0.051000 1.200000 0.037000 0.044000
1517192931754140843	600 39 0.900000 0.106000 0.100000 600 37 0.900000 0.779000 0.705000 600 43 1.000000 0.051000 0.051000 1.200000 0.045000 0.054000
1517192932293600801	600 40 0.900000 0.102000 0.097000 600 37 0.900000 0.929000 0.838000 600 43 1.000000 0.051000 0.051000 1.200000 0.036000 0.043000
1517192932849666552	600 40 0.900000 0.084000 0.079000 600 38 0.900000 0.567000 0.514000 600 43 1.000000 0.051000 0.051000 1.200000 0.043000 0.051000
1517192933383890593	600 40 0.900000 0.160000 0.152000 600 38 0.900000 0.903000 0.817000 600 44 1.000000 0.051000 0.051000 1.200000 0.039000 0.047000
1517192933945655760	600 40 0.900000 0.152000 0.144000 600 38 0.900000 0.555000 0.503000 600 43 1.000000 0.051000 0.051000 1.200000 0.041000 0.049000
1517192934487441302	600 40 0.900000 0.156000 0.148000 600 38 0.900000 0.926000 0.836000 600 44 1.000000 0.051000 0.051000 1.200000 0.038000 0.045000
1517192935049561718	600 40 0.900000 0.155000 0.147000 600 38 0.900000 0.598000 0.542000 600 43 1.000000 0.051000 0.051000 1.200000 0.041000 0.049000
1517192935581361177	600 40 0.900000 0.158000 0.150000 600 38 0.900000 0.951000 0.858000 600 44 1.000000 0.051000 0.051000 1.200000 0.038000 0.045000
1517192936133648885	600 40 0.900000 0.150000 0.142000 600 38 0.900000 0.615000 0.557000 600 44 1.000000 0.051000 0.051000 1.200000 0.040000 0.048000
1517192936680817177	600 40 0.900000 0.158000 0.150000 600 38 0.900000 0.928000 0.837000 600 44 1.000000 0.051000 0.051000 1.200000 0.038000 0.045000
1517192937253882969	600 40 0.900000 0.150000 0.142000 600 38 0.900000 0.901000 0.813000 600 44 1.000000 0.051000 0.051000 1.200000 0.040000 0.048000
1517192937792928927	600 40 0.900000 0.157000 0.149000 600 38 0.900000 0.838000 0.758000 600 44 1.000000 0.051000 0.051000 1.200000 0.038000 0.045000
1517192938361862719	600 40 0.900000 0.153000 0.145000 600 38 0.900000 0.945000 0.853000 600 44 1.000000 0.051000 0.051000 1.200000 0.040000 0.048000
1517192938889059511	600 40 0.900000 0.152000 0.144000 600 38 0.900000 0.883000 0.797000 600 44 1.000000 0.051000 0.051000 1.200000 0.039000 0.047000
1517192939457785677	600 40 0.900000 0.149000 0.141000 600 38 0.900000 0.838000 0.758000 600 44 1.000000 0.051000 0.051000 1.200000 0.040000 0.048000
1517192939976211969	600 40 0.900000 0.156000 0.148000 600 38 0.900000 0.934000 0.843000 600 44 1.000000 0.051000 0.051000 1.200000 0.040000 0.048000
1517192940517632594	600 40 0.900000 0.143000 0.135000 600 38 0.900000 0.889000 0.804000 600 44 1.000000 0.051000 0.051000 1.200000 0.040000 0.048000
1517192941031098844	600 40 0.900000 0.152000 0.144000 600 38 0.900000 0.947000 0.855000 600 44 1.000000 0.051000 0.051000 1.200000 0.040000 0.048000
1517192941557303469	600 39 0.900000 0.099000 0.094000 600 38 0.900000 0.932000 0.841000 600 43 1.000000 0.051000 0.051000 1.200000 0.036000 0.043000
1517192942113538553	600 40 0.900000 0.138000 0.131000 600 38 0.900000 0.845000 0.763000 600 44 1.000000 0.051000 0.051000 1.200000 0.044000 0.053000
1517192942625051428	600 39 0.900000 0.076000 0.072000 600 38 0.900000 0.864000 0.781000 600 43 1.000000 0.051000 0.051000 1.200000 0.037000 0.044000
1517192943136536719	600 40 0.900000 0.131000 0.124000 600 38 0.900000 0.517000 0.468000 600 44 1.000000 0.051000 0.051000 1.200000 0.043000 0.051000
1517192943651685011	600 40 0.900000 0.159000 0.151000 600 38 0.900000 0.905000 0.817000 600 44 1.000000 0.051000 0.051000 1.200000 0.039000 0.047000
1517192944209595178	600 40 0.900000 0.143000 0.135000 600 38 0.900000 0.568000 0.515000 600 44 1.000000 0.051000 0.051000 1.200000 0.042000 0.050000
1517192944750346053	600 40 0.900000 0.158000 0.150000 600 38 0.900000 0.900000 0.814000 600 44 1.000000 0.051000 0.051000 1.200000 0.039000 0.047000
1517192945309663636	600 40 0.900000 0.108000 0.102000 600 38 0.900000 0.558000 0.506000 600 44 1.000000 0.051000 0.051000 1.200000 0.042000 0.050000
1517192945877616136	600 40 0.900000 0.129000 0.122000 600 38 0.900000 0.903000 0.817000 600 44 1.000000 0.051000 0.051000 1.200000 0.040000 0.048000
1517192946391017553	600 40 0.900000 0.132000 0.125000 600 38 0.900000 0.714000 0.646000 600 44 1.000000 0.051000 0.051000 1.200000 0.040000 0.048000
1517192946902619387	600 40 0.900000 0.119000 0.113000 600 38 0.900000 0.923000 0.833000 600 44 1.000000 0.051000 0.051000 1.200000 0.038000 0.045000
1517192947453680137	600 40 0.900000 0.154000 0.146000 600 38 0.900000 0.865000 0.781000 600 44 1.000000 0.051000 0.051000 1.200000 0.039000 0.047000
1517192947988392303	600 40 0.900000 0.157000 0.149000 600 38 0.900000 0.939000 0.847000 600 44 1.000000 0.051000 0.051000 1.200000 0.042000 0.050000
1517192948561573345	600 40 0.900000 0.157000 0.149000 600 38 0.900000 0.952000 0.859000 600 44 1.000000 0.051000 0.051000 1.200000 0.041000 0.049000
1517192949096161803	600 40 0.900000 0.157000 0.149000 600 38 0.900000 0.920000 0.830000 600 44 1.000000 0.051000 0.051000 1.200000 0.042000 0.050000
1517192949669847845	600 40 0.900000 0.124000 0.117000 600 38 0.900000 0.900000 0.812000 600 44 1.000000 0.051000 0.051000 1.200000 0.038000 0.045000
1517192950221916012	600 40 0.900000 0.100000 0.095000 600 38 0.900000 0.800000 0.724000 600 44 1.000000 0.051000 0.051000 1.200000 0.034000 0.041000
1517192950769689262	600 40 0.900000 0.088000 0.083000 600 38 0.900000 0.806000 0.729000 600 43 1.000000 0.051000 0.051000 1.200000 0.039000 0.047000
1517192951329906512	600 40 0.900000 0.158000 0.150000 600 38 0.900000 0.918000 0.830000 600 44 1.000000 0.051000 0.051000 1.200000 0.040000 0.048000
1517192951901834262	600 40 0.900000 0.086000 0.081000 600 38 0.900000 0.807000 0.730000 600 44 1.000000 0.051000 0.051000 1.200000 0.040000 0.048000
1517192952433055137	600 40 0.900000 0.158000 0.150000 600 38 0.900000 0.901000 0.815000 600 44 1.000000 0.051000 0.051000 1.200000 0.039000 0.047000
1517192952985813804	600 40 0.900000 0.162000 0.153000 600 38 0.900000 0.777000 0.703000 600 44 1.000000 0.051000 0.051000 1.200000 0.040000 0.048000
1517192953497549262	600 40 0.900000 0.162000 0.154000 600 38 0.900000 0.914000 0.825000 600 44 1.000000 0.051000 0.051000 1.200000 0.039000 0.047000
1517192954036938429	600 40 0.900000 0.142000 0.135000 600 38 0.900000 0.719000 0.651000 600 44 1.000000 0.051000 0.051000 1.200000 0.040000 0.048000
1517192954570879179	600 40 0.900000 0.148000 0.140000 600 38 0.900000 0.862000 0.780000 600 44 1.000000 0.051000 0.051000 1.200000 0.038000 0.045000
1517192955110446429	600 40 0.900000 0.131000 0.124000 600 38 0.900000 0.788000 0.713000 600 44 1.000000 0.051000 0.051000 1.200000 0.037000 0.044000
1517192955622320721	600 40 0.900000 0.147000 0.139000 600 38 0.900000 0.907000 0.820000 600 44 1.000000 0.051000 0.051000 1.200000 0.040000 0.048000
1517192956170556013	600 40 0.900000 0.107000 0.101000 600 38 0.900000 0.776000 0.703000 600 44 1.000000 0.051000 0.051000 1.200000 0.039000 0.047000
1517192956681031013	600 40 0.900000 0.150000 0.142000 600 38 0.900000 0.899000 0.811000 600 44 1.000000 0.051000 0.051000 1.200000 0.038000 0.045000
1517192957230338054	600 40 0.900000 0.096000 0.091000 600 38 0.900000 0.775000 0.702000 600 44 1.000000 0.051000 0.051000 1.200000 0.038000 0.045000
1517192957744524555	600 41 0.900000 0.158000 0.150000 600 38 0.900000 0.903000 0.817000 600 44 1.000000 0.051000 0.051000 1.200000 0.038000 0.045000
1517192958300527013	600 40 0.900000 0.091000 0.086000 600 38 0.900000 0.780000 0.706000 600 44 1.000000 0.051000 0.051000 1.200000 0.039000 0.047000
1517192958821597555	600 40 0.900000 0.150000 0.142000 600 38 0.900000 0.895000 0.809000 600 44 1.000000 0.051000 0.051000 1.200000 0.040000 0.048000
1517192959391027138	600 40 0.900000 0.145000 0.137000 600 38 0.900000 0.819000 0.741000 600 44 1.000000 0.051000 0.051000 1.200000 0.038000 0.045000
1517192959905920305	600 40 0.900000 0.152000 0.144000 600 38 0.900000 0.953000 0.860000 600 44 1.000000 0.051000 0.051000 1.200000 0.040000 0.048000
1517192960465458722	600 40 0.900000 0.149000 0.141000 600 38 0.900000 0.864000 0.781000 600 44 1.000000 0.051000 0.051000 1.200000 0.040000 0.048000
1517192960978762097	600 40 0.900000 0.160000 0.152000 600 38 0.900000 0.939000 0.847000 600 44 1.000000 0.051000 0.051000 1.200000 0.040000 0.048000
1517192961519185347	600 40 0.900000 0.159000 0.151000 600 38 0.900000 0.899000 0.813000 600 44 1.000000 0.051000 0.051000 1.200000 0.039000 0.047000
1517192962030970305	600 40 0.900000 0.158000 0.150000 600 38 0.900000 0.947000 0.855000 600 44 1.000000 0.051000 0.051000 1.200000 0.040000 0.048000
1517192962578862805	600 40 0.900000 0.150000 0.142000 600 38 0.900000 0.858000 0.776000 600 44 1.000000 0.051000 0.051000 1.200000 0.038000 0.045000
1517192963090460680	600 40 0.900000 0.155000 0.147000 600 38 0.900000 0.940000 0.850000 600 44 1.000000 0.051000 0.051000 1.200000 0.040000 0.048000
1517192963648762305	600 40 0.900000 0.126000 0.119000 600 38 0.900000 0.871000 0.788000 600 44 1.000000 0.051000 0.051000 1.200000 0.039000 0.047000
1517192964159752430	600 41 0.900000 0.150000 0.142000 600 38 0.900000 0.933000 0.842000 600 44 1.000000 0.051000 0.051000 1.200000 0.040000 0.048000
1517192964722336805	600 40 0.900000 0.112000 0.106000 600 38 0.900000 0.863000 0.781000 600 44 1.000000 0.051000 0.051000 1.200000 0.039000 0.047000
1517192965235704764	600 40 0.900000 0.148000 0.140000 600 38 0.900000 0.887000 0.802000 600 44 1.000000 0.051000 0.051000 1.200000 0.038000 0.045000
1517192965793622680	600 40 0.900000 0.159000 0.151000 600 38 0.900000 0.568000 0.515000 600 44 1.000000 0.051000 0.051000 1.200000 0.044000 0.053000
1517192966304555431	600 41 0.900000 0.146000 0.138000 600 38 0.900000 0.865000 0.782000 600 44 1.000000 0.051000 0.051000 1.200000 0.038000 0.045000
1517192966853633306	600 40 0.900000 0.090000 0.085000 600 38 0.900000 0.496000 0.450000 600 44 1.000000 0.051000 0.051000 1.200000 0.044000 0.053000
1517192967409633639	600 40 0.900000 0.142000 0.135000 600 38 0.900000 0.912000 0.825000 600 44 1.000000 0.051000 0.051000 1.200000 0.038000 0.045000
1517192967973559097	600 40 0.900000 0.096000 0.091000 600 38 0.900000 0.561000 0.508000 600 44 1.000000 0.051000 0.051000 1.200000 0.042000 0.050000
1517192968498483931	600 40 0.900000 0.149000 0.141000 600 38 0.900000 0.909000 0.822000 600 44 1.000000 0.051000 0.051000 1.200000 0.038000 0.045000
1517192969044911098	600 40 0.900000 0.096000 0.091000 600 38 0.900000 0.568000 0.515000 600 44 1.000000 0.051000 0.051000 1.200000 0.042000 0.050000
1517192969556720848	600 40 0.900000 0.155000 0.147000 600 38 0.900000 0.910000 0.823000 600 44 1.000000 0.051000 0.051000 1.200000 0.038000 0.045000
1517192970113630973	600 40 0.900000 0.083000 0.079000 600 38 0.900000 0.575000 0.521000 600 44 1.000000 0.051000 0.051000 1.200000 0.041000 0.049000
1517192970624450264	600 40 0.900000 0.149000 0.141000 600 38 0.900000 0.912000 0.825000 600 44 1.000000 0.051000 0.051000 1.200000 0.038000 0.045000
1517192971169938389	600 40 0.900000 0.155000 0.147000 600 38 0.900000 0.534000 0.484000 600 44 1.000000 0.051000 0.051000 1.200000 0.042000 0.050000
1517192971680446140	600 40 0.900000 0.160000 0.152000 600 38 0.900000 0.912000 0.825000 600 44 1.000000 0.051000 0.051000 1.200000 0.036000 0.043000
1517192972219105681	600 40 0.900000 0.150000 0.142000 600 38 0.900000 0.580000 0.526000 600 44 1.000000 0.051000 0.051000 1.200000 0.041000 0.049000
1517192972729677056	600 40 0.900000 0.154000 0.146000 600 38 0.900000 0.902000 0.814000 600 44 1.000000 0.051000 0.051000 1.200000 0.037000 0.044000
1517192973277681681	600 40 0.900000 0.127000 0.120000 600 38 0.900000 0.537000 0.487000 600 44 1.000000 0.051000 0.051000 1.200000 0.042000 0.050000
1517192973829696723	600 40 0.900000 0.117000 0.111000 600 38 0.900000 0.953000 0.860000 600 44 1.000000 0.051000 0.051000 1.200000 0.037000 0.044000
1517192974385638640	600 40 0.900000 0.146000 0.138000 600 38 0.900000 0.616000 0.557000 600 44 1.000000 0.051000 0.051000 1.200000 0.040000 0.048000
1517192974919703098	600 40 0.900000 0.151000 0.143000 600 38 0.900000 0.888000 0.803000 600 44 1.000000 0.051000 0.051000 1.200000 0.038000 0.045000
1517192975474412307	600 40 0.900000 0.123000 0.117000 600 38 0.900000 0.900000 0.814000 600 44 1.000000 0.051000 0.051000 1.200000 0.041000 0.049000
1517192976005664182	600 40 0.900000 0.148000 0.140000 600 38 0.900000 0.920000 0.832000 600 44 1.000000 0.051000 0.051000 1.200000 0.039000 0.047000
1517192976565131723	600 40 0.900000 0.118000 0.112000 600 38 0.900000 0.784000 0.709000 600 44 1.000000 0.051000 0.051000 1.200000 0.039000 0.047000
1517192977075615015	600 40 0.900000 0.150000 0.142000 600 38 0.900000 0.886000 0.801000 600 44 1.000000 0.051000 0.051000 1.200000 0.039000 0.047000
1517192977621804890	600 40 0.900000 0.154000 0.146000 600 38 0.900000 0.914000 0.827000 600 44 1.000000 0.051000 0.051000 1.200000 0.041000 0.049000
1517192978132284474	600 40 0.900000 0.144000 0.136000 600 38 0.900000 0.935000 0.846000 600 44 1.000000 0.051000 0.051000 1.200000 0.039000 0.047000
1517192978693576015	600 40 0.900000 0.149000 0.141000 600 38 0.900000 0.899000 0.813000 600 44 1.000000 0.051000 0.051000 1.200000 0.040000 0.048000
1517192979205748724	600 40 0.900000 0.159000 0.151000 600 38 0.900000 0.888000 0.803000 600 44 1.000000 0.051000 0.051000 1.200000 0.037000 0.044000
1517192979776017765	600 40 0.900000 0.149000 0.141000 600 38 0.900000 0.884000 0.798000 600 44 1.000000 0.051000 0.051000 1.200000 0.037000 0.044000
1517192980289813932	600 40 0.900000 0.159000 0.151000 600 38 0.900000 0.872000 0.789000 600 44 1.000000 0.051000 0.051000 1.200000 0.038000 0.045000
1517192980849876016	600 40 0.900000 0.088000 0.083000 600 38 0.900000 0.772000 0.699000 600 44 1.000000 0.051000 0.051000 1.200000 0.038000 0.045000
1517192981397634099	600 40 0.900000 0.159000 0.151000 600 38 0.900000 0.891000 0.806000 600 44 1.000000 0.051000 0.051000 1.200000 0.039000 0.047000
1517192981965582641	600 40 0.900000 0.086000 0.081000 600 38 0.900000 0.810000 0.733000 600 44 1.000000 0.051000 0.051000 1.200000 0.038000 0.045000
1517192982487145974	600 40 0.900000 0.157000 0.149000 600 38 0.900000 0.915000 0.828000 600 44 1.000000 0.051000 0.051000 1.200000 0.039000 0.047000
1517192983041565308	600 40 0.900000 0.086000 0.081000 600 38 0.900000 0.864000 0.781000 600 44 1.000000 0.051000 0.051000 1.200000 0.039000 0.047000
1517192983561081641	600 40 0.900000 0.149000 0.141000 600 38 0.900000 0.920000 0.830000 600 44 1.000000 0.051000 0.051000 1.200000 0.039000 0.047000
1517192984113626766	600 40 0.900000 0.158000 0.150000 600 38 0.900000 0.902000 0.814000 600 44 1.000000 0.051000 0.051000 1.200000 0.038000 0.045000
1517192984649935308	600 40 0.900000 0.158000 0.150000 600 38 0.900000 0.946000 0.854000 600 44 1.000000 0.051000 0.051000 1.200000 0.042000 0.050000
1517192985197655058	600 40 0.900000 0.160000 0.152000 600 38 0.900000 0.937000 0.846000 600 44 1.000000 0.051000 0.051000 1.200000 0.038000 0.045000
1517192985727157933	600 41 0.900000 0.158000 0.150000 600 38 0.900000 0.927000 0.837000 600 44 1.000000 0.051000 0.051000 1.200000 0.040000 0.048000
1517192986285556933	600 40 0.900000 0.157000 0.149000 600 38 0.900000 0.937000 0.846000 600 44 1.000000 0.051000 0.051000 1.200000 0.039000 0.047000
1517192986800156600	600 40 0.900000 0.157000 0.149000 600 38 0.900000 0.930000 0.839000 600 44 1.000000 0.051000 0.051000 1.200000 0.041000 0.049000
1517192987347987475	600 40 0.900000 0.141000 0.134000 600 38 0.900000 0.949000 0.856000 600 44 1.000000 0.051000 0.051000 1.200000 0.039000 0.047000
1517192987861134225	600 41 0.900000 0.150000 0.142000 600 38 0.900000 0.940000 0.848000 600 44 1.000000 0.051000 0.051000 1.200000 0.042000 0.050000
1517192988409801767	600 40 0.900000 0.124000 0.118000 600 38 0.900000 0.956000 0.863000 600 44 1.000000 0.051000 0.051000 1.200000 0.039000 0.047000
1517192988920403850	600 40 0.900000 0.152000 0.144000 600 38 0.900000 0.944000 0.852000 600 44 1.000000 0.051000 0.051000 1.200000 0.042000 0.050000
1517192989455413017	600 40 0.900000 0.099000 0.094000 600 38 0.900000 0.948000 0.856000 600 44 1.000000 0.051000 0.051000 1.200000 0.039000 0.047000
1517192989966234183	600 41 0.900000 0.154000 0.146000 600 38 0.900000 0.934000 0.843000 600 44 1.000000 0.051000 0.051000 1.200000 0.041000 0.049000
1517192990509641017	600 40 0.900000 0.149000 0.141000 600 38 0.900000 0.943000 0.851000 600 44 1.000000 0.051000 0.051000 1.200000 0.038000 0.045000
1517192991021137267	600 41 0.900000 0.158000 0.150000 600 38 0.900000 0.940000 0.848000 600 44 1.000000 0.051000 0.051000 1.200000 0.041000 0.049000
1517192991558779225	600 40 0.900000 0.151000 0.143000 600 38 0.900000 0.918000 0.828000 600 44 1.000000 0.051000 0.051000 1.200000 0.038000 0.045000
1517192992069508059	600 41 0.900000 0.158000 0.150000 600 38 0.900000 0.952000 0.859000 600 44 1.000000 0.051000 0.051000 1.200000 0.039000 0.047000
1517192992609824725	600 40 0.900000 0.157000 0.149000 600 38 0.900000 0.883000 0.799000 600 44 1.000000 0.051000 0.051000 1.200000 0.037000 0.044000
1517192993120362975	600 41 0.900000 0.159000 0.151000 600 38 0.900000 0.940000 0.848000 600 44 1.000000 0.051000 0.051000 1.200000 0.041000 0.049000
1517192993662198100	600 40 0.900000 0.133000 0.126000 600 38 0.900000 0.843000 0.762000 600 44 1.000000 0.051000 0.051000 1.200000 0.038000 0.045000
1517192994172725851	600 41 0.900000 0.150000 0.142000 600 38 0.900000 0.908000 0.821000 600 44 1.000000 0.051000 0.051000 1.200000 0.038000 0.045000
1517192994712868267	600 40 0.900000 0.106000 0.100000 600 38 0.900000 0.788000 0.713000 600 44 1.000000 0.051000 0.051000 1.200000 0.037000 0.044000
1517192995224077601	600 40 0.900000 0.148000 0.140000 600 38 0.900000 0.902000 0.816000 600 44 1.000000 0.051000 0.051000 1.200000 0.039000 0.047000
1517192995764320017	600 40 0.900000 0.088000 0.083000 600 39 0.900000 0.801000 0.724000 600 44 1.000000 0.051000 0.051000 1.200000 0.037000 0.044000
1517192996274938309	600 40 0.900000 0.152000 0.144000 600 39 0.900000 0.906000 0.818000 600 44 1.000000 0.051000 0.051000 1.200000 0.038000 0.045000
1517192996805216268	600 40 0.900000 0.150000 0.142000 600 38 0.900000 0.753000 0.682000 600 44 1.000000 0.051000 0.051000 1.200000 0.037000 0.044000
1517192997341688018	600 40 0.900000 0.161000 0.153000 600 38 0.900000 0.891000 0.804000 600 44 1.000000 0.051000 0.051000 1.200000 0.038000 0.045000
1517192997889681726	600 40 0.900000 0.153000 0.145000 600 38 0.900000 0.653000 0.591000 600 44 1.000000 0.051000 0.051000 1.200000 0.039000 0.047000
1517192998457663184	600 41 0.900000 0.150000 0.142000 600 38 0.900000 0.890000 0.803000 600 44 1.000000 0.051000 0.051000 1.200000 0.040000 0.048000
1517192999000731393	600 40 0.900000 0.114000 0.108000 600 38 0.900000 0.608000 0.550000 600 44 1.000000 0.051000 0.051000 1.200000 0.037000 0.044000
1517192999512339143	600 40 0.900000 0.152000 0.144000 600 38 0.900000 0.948000 0.855000 600 43 1.000000 0.051000 0.051000 1.200000 0.039000 0.047000
1517193000024357060	600 41 0.900000 0.086000 0.081000 600 38 0.900000 0.567000 0.513000 600 44 1.000000 0.051000 0.051000 1.200000 0.041000 0.049000
1517193000535689601	600 40 0.900000 0.151000 0.143000 600 38 0.900000 0.907000 0.819000 600 43 1.000000 0.051000 0.051000 1.200000 0.039000 0.047000
1517193001049791726	600 40 0.900000 0.083000 0.079000 600 38 0.900000 0.561000 0.508000 600 44 1.000000 0.051000 0.051000 1.200000 0.041000 0.049000
1517193001560925643	600 41 0.900000 0.148000 0.140000 600 38 0.900000 0.892000 0.805000 600 44 1.000000 0.051000 0.051000 1.200000 0.038000 0.045000
1517193002075235226	600 40 0.900000 0.099000 0.094000 600 38 0.900000 0.592000 0.536000 600 44 1.000000 0.051000 0.051000 1.200000 0.043000 0.051000
1517193002641865518	600 40 0.900000 0.116000 0.110000 600 38 0.900000 0.911000 0.822000 600 44 1.000000 0.051000 0.051000 1.200000 0.038000 0.045000
1517193003197892268	600 40 0.900000 0.146000 0.138000 600 38 0.900000 0.583000 0.528000 600 44 1.000000 0.051000 0.051000 1.200000 0.040000 0.048000
1517193003735068810	600 41 0.900000 0.158000 0.150000 600 38 0.900000 0.938000 0.847000 600 44 1.000000 0.052000 0.052000 1.200000 0.040000 0.048000
1517193004301848768	600 40 0.900000 0.131000 0.124000 600 38 0.900000 0.601000 0.545000 600 44 1.000000 0.051000 0.051000 1.200000 0.042000 0.050000
1517193004823248477	600 41 0.900000 0.158000 0.150000 600 39 0.900000 0.890000 0.805000 600 44 1.000000 0.051000 0.051000 1.200000 0.038000 0.045000
1517193005385636810	600 41 0.900000 0.121000 0.115000 600 39 0.900000 0.871000 0.788000 600 44 1.000000 0.051000 0.051000 1.200000 0.045000 0.054000
1517193005909987769	600 41 0.900000 0.156000 0.148000 600 38 0.900000 0.877000 0.793000 600 44 1.000000 0.051000 0.051000 1.200000 0.037000 0.044000
1517193006461661852	600 40 0.900000 0.127000 0.120000 600 38 0.900000 0.907000 0.820000 600 44 1.000000 0.051000 0.051000 1.200000 0.045000 0.054000
1517193007006045727	600 41 0.900000 0.159000 0.151000 600 38 0.900000 0.879000 0.795000 600 44 1.000000 0.051000 0.051000 1.200000 0.038000 0.045000
1517193007577906102	600 41 0.900000 0.128000 0.121000 600 38 0.900000 0.811000 0.733000 600 44 1.000000 0.051000 0.051000 1.200000 0.045000 0.054000
1517193008111594269	600 41 0.900000 0.158000 0.150000 600 39 0.900000 0.946000 0.854000 600 44 1.000000 0.051000 0.051000 1.200000 0.037000 0.044000
1517193008681930644	600 40 0.900000 0.126000 0.119000 600 38 0.900000 0.751000 0.680000 600 44 1.000000 0.051000 0.051000 1.200000 0.044000 0.053000
1517193009214617269	600 41 0.900000 0.150000 0.142000 600 39 0.900000 0.945000 0.853000 600 44 1.000000 0.051000 0.051000 1.200000 0.038000 0.045000
1517193009765908686	600 40 0.900000 0.115000 0.109000 600 38 0.900000 0.617000 0.559000 600 44 1.000000 0.051000 0.051000 1.200000 0.045000 0.054000
1517193010324210144	600 41 0.900000 0.149000 0.141000 600 38 0.900000 0.873000 0.790000 600 44 1.000000 0.051000 0.051000 1.200000 0.038000 0.045000
1517193010881988519	600 40 0.900000 0.124000 0.118000 600 38 0.900000 0.524000 0.475000 600 44 1.000000 0.051000 0.051000 1.200000 0.044000 0.053000
1517193011449892936	600 40 0.900000 0.079000 0.075000 600 38 0.900000 0.895000 0.808000 600 44 1.000000 0.051000 0.051000 1.200000 0.036000 0.043000
1517193011973882811	600 40 0.900000 0.080000 0.076000 600 38 0.900000 0.880000 0.797000 600 44 1.000000 0.051000 0.051000 1.200000 0.045000 0.054000
1517193012525917311	600 40 0.900000 0.144000 0.136000 600 38 0.900000 0.883000 0.799000 600 44 1.000000 0.051000 0.051000 1.200000 0.039000 0.047000
1517193013036900103	600 40 0.900000 0.090000 0.085000 600 38 0.900000 0.764000 0.692000 600 44 1.000000 0.051000 0.051000 1.200000 0.044000 0.053000
1517193013551158061	600 41 0.900000 0.152000 0.144000 600 39 0.900000 0.906000 0.818000 600 44 1.000000 0.051000 0.051000 1.200000 0.038000 0.045000
1517193014109717186	600 40 0.900000 0.081000 0.077000 600 38 0.900000 0.844000 0.763000 600 44 1.000000 0.051000 0.051000 1.200000 0.043000 0.051000
1517193014651419395	600 41 0.900000 0.147000 0.139000 600 39 0.900000 0.940000 0.848000 600 44 1.000000 0.051000 0.051000 1.200000 0.037000 0.044000
1517193015201678103	600 40 0.900000 0.158000 0.150000 600 38 0.900000 0.936000 0.847000 600 44 1.000000 0.051000 0.051000 1.200000 0.044000 0.053000
1517193015746133895	600 41 0.900000 0.159000 0.151000 600 39 0.900000 0.928000 0.837000 600 44 1.000000 0.051000 0.051000 1.200000 0.038000 0.045000
1517193016297607020	600 40 0.900000 0.159000 0.151000 600 38 0.900000 0.948000 0.856000 600 44 1.000000 0.051000 0.051000 1.200000 0.042000 0.050000
1517193016842272770	600 41 0.900000 0.159000 0.151000 600 39 0.900000 0.930000 0.839000 600 44 1.000000 0.051000 0.051000 1.200000 0.038000 0.045000
1517193017409626145	600 40 0.900000 0.159000 0.151000 600 38 0.900000 0.944000 0.852000 600 44 1.000000 0.051000 0.051000 1.200000 0.041000 0.049000
1517193017942169228	600 41 0.900000 0.157000 0.149000 600 38 0.900000 0.874000 0.789000 600 44 1.000000 0.051000 0.051000 1.200000 0.039000 0.047000
1517193018501568770	600 40 0.900000 0.158000 0.150000 600 38 0.900000 0.895000 0.808000 600 44 1.000000 0.051000 0.051000 1.200000 0.041000 0.049000
1517193019037493270	600 41 0.900000 0.158000 0.150000 600 38 0.900000 0.888000 0.803000 600 44 1.000000 0.051000 0.051000 1.200000 0.039000 0.047000
1517193019585588354	600 40 0.900000 0.158000 0.150000 600 38 0.900000 0.903000 0.817000 600 44 1.000000 0.051000 0.051000 1.200000 0.040000 0.048000
1517193020137640687	600 40 0.900000 0.158000 0.150000 600 38 0.900000 0.877000 0.793000 600 44 1.000000 0.051000 0.051000 1.200000 0.045000 0.054000
1517193020697651145	600 40 0.900000 0.083000 0.079000 600 38 0.900000 0.699000 0.633000 600 44 1.000000 0.051000 0.051000 1.200000 0.039000 0.047000
1517193021237965812	600 41 0.900000 0.147000 0.139000 600 38 0.900000 0.889000 0.804000 600 44 1.000000 0.052000 0.052000 1.200000 0.039000 0.047000
1517193021789687562	600 40 0.900000 0.152000 0.144000 600 38 0.900000 0.778000 0.704000 600 44 1.000000 0.051000 0.051000 1.200000 0.037000 0.044000
1517193022302966646	600 40 0.900000 0.155000 0.147000 600 38 0.900000 0.897000 0.811000 600 44 1.000000 0.051000 0.051000 1.200000 0.040000 0.048000
1517193022816412562	600 40 0.900000 0.088000 0.083000 600 38 0.900000 0.879000 0.795000 600 44 1.000000 0.051000 0.051000 1.200000 0.035000 0.042000
1517193023361903729	600 40 0.900000 0.149000 0.141000 600 38 0.900000 0.922000 0.832000 600 44 1.000000 0.051000 0.051000 1.200000 0.045000 0.054000
1517193023874031062	600 40 0.900000 0.149000 0.141000 600 38 0.900000 0.904000 0.816000 600 44 1.000000 0.051000 0.051000 1.200000 0.038000 0.045000
1517193024437902729	600 40 0.900000 0.155000 0.147000 600 38 0.900000 0.864000 0.781000 600 44 1.000000 0.051000 0.051000 1.200000 0.045000 0.054000
1517193024955238188	600 40 0.900000 0.145000 0.138000 600 38 0.900000 0.882000 0.796000 600 43 1.000000 0.051000 0.051000 1.200000 0.038000 0.045000
1517193025513675438	600 41 0.900000 0.154000 0.146000 600 38 0.900000 0.864000 0.780000 600 44 1.000000 0.051000 0.051000 1.200000 0.044000 0.053000
1517193026024158771	600 39 0.900000 0.128000 0.121000 600 38 0.900000 0.900000 0.814000 600 43 1.000000 0.051000 0.051000 1.200000 0.040000 0.048000
1517193026534621979	600 39 0.900000 0.096000 0.091000 600 38 0.900000 0.211000 0.192000 600 43 1.000000 0.051000 0.051000 1.200000 0.047000 0.056000
1517193027056572271	600 40 0.900000 0.142000 0.135000 600 38 0.900000 0.845000 0.763000 600 44 1.000000 0.051000 0.051000 1.200000 0.037000 0.044000
1517193027613681605	600 40 0.900000 0.087000 0.082000 600 38 0.900000 0.694000 0.628000 600 44 1.000000 0.051000 0.051000 1.200000 0.041000 0.049000
1517193028127286688	600 40 0.900000 0.161000 0.153000 600 38 0.900000 0.882000 0.798000 600 44 1.000000 0.051000 0.051000 1.200000 0.040000 0.048000
1517193028697564271	600 40 0.900000 0.121000 0.115000 600 38 0.900000 0.818000 0.740000 600 44 1.000000 0.051000 0.051000 1.200000 0.038000 0.045000
1517193029236528188	600 41 0.900000 0.162000 0.154000 600 38 0.900000 0.911000 0.822000 600 44 1.000000 0.051000 0.051000 1.200000 0.042000 0.050000
1517193029786780521	600 40 0.900000 0.158000 0.150000 600 38 0.900000 0.822000 0.743000 600 44 1.000000 0.051000 0.051000 1.200000 0.039000 0.047000
1517193030297497897	600 40 0.900000 0.159000 0.151000 600 38 0.900000 0.903000 0.815000 600 44 1.000000 0.051000 0.051000 1.200000 0.040000 0.048000
1517193030825134730	600 40 0.900000 0.122000 0.116000 600 38 0.900000 0.766000 0.693000 600 44 1.000000 0.051000 0.051000 1.200000 0.039000 0.047000
1517193031335868480	600 40 0.900000 0.150000 0.142000 600 38 0.900000 0.910000 0.821000 600 44 1.000000 0.051000 0.051000 1.200000 0.040000 0.048000
1517193031848263730	600 39 0.900000 0.112000 0.106000 600 38 0.900000 0.578000 0.524000 600 42 1.000000 0.051000 0.051000 1.200000 0.038000 0.045000
1517193032405594813	600 40 0.900000 0.130000 0.123000 600 38 0.900000 0.766000 0.693000 600 43 1.000000 0.051000 0.051000 1.200000 0.044000 0.053000
1517193032916690772	600 39 0.900000 0.131000 0.124000 600 38 0.900000 0.853000 0.771000 600 43 1.000000 0.051000 0.051000 1.200000 0.039000 0.047000
1517193033430170439	600 40 0.900000 0.154000 0.146000 600 38 0.900000 0.768000 0.695000 600 44 1.000000 0.051000 0.051000 1.200000 0.044000 0.053000
1517193033942164189	600 39 0.900000 0.143000 0.136000 600 38 0.900000 0.954000 0.861000 600 44 1.000000 0.051000 0.051000 1.200000 0.037000 0.044000
1517193034501716939	600 40 0.900000 0.084000 0.080000 600 38 0.900000 0.900000 0.814000 600 44 1.000000 0.051000 0.051000 1.200000 0.046000 0.055000
1517193035015623814	600 40 0.900000 0.151000 0.143000 600 38 0.900000 0.897000 0.809000 600 43 1.000000 0.051000 0.051000 1.200000 0.038000 0.045000
1517193035543001230	600 40 0.900000 0.125000 0.118000 600 38 0.900000 0.870000 0.785000 600 44 1.000000 0.051000 0.051000 1.200000 0.044000 0.053000
1517193036054560897	600 40 0.900000 0.149000 0.141000 600 38 0.900000 0.925000 0.835000 600 43 1.000000 0.051000 0.051000 1.200000 0.039000 0.047000
1517193036577358897	600 40 0.900000 0.147000 0.139000 600 38 0.900000 0.937000 0.846000 600 44 1.000000 0.051000 0.051000 1.200000 0.042000 0.050000
1517193037091981272	600 40 0.900000 0.149000 0.141000 600 38 0.900000 0.947000 0.855000 600 44 1.000000 0.051000 0.051000 1.200000 0.038000 0.045000
1517193037603855731	600 40 0.900000 0.160000 0.152000 600 38 0.900000 0.951000 0.858000 600 44 1.000000 0.051000 0.051000 1.200000 0.042000 0.050000
1517193038121098231	600 40 0.900000 0.149000 0.141000 600 38 0.900000 0.863000 0.781000 600 43 1.000000 0.051000 0.051000 1.200000 0.040000 0.048000
1517193038636075397	600 40 0.900000 0.150000 0.142000 600 38 0.900000 0.928000 0.839000 600 44 1.000000 0.051000 0.051000 1.200000 0.042000 0.050000
1517193039155758356	600 39 0.900000 0.118000 0.112000 600 38 0.900000 0.827000 0.748000 600 44 1.000000 0.051000 0.051000 1.200000 0.038000 0.045000
1517193039688923189	600 40 0.900000 0.150000 0.142000 600 38 0.900000 0.859000 0.777000 600 44 1.000000 0.051000 0.051000 1.200000 0.039000 0.047000
1517193040202739273	600 40 0.900000 0.099000 0.094000 600 38 0.900000 0.816000 0.738000 600 44 1.000000 0.051000 0.051000 1.200000 0.038000 0.045000
1517193040769929148	600 40 0.900000 0.143000 0.135000 600 38 0.900000 0.926000 0.836000 600 44 1.000000 0.051000 0.051000 1.200000 0.039000 0.047000
1517193041281966356	600 40 0.900000 0.150000 0.142000 600 38 0.900000 0.907000 0.820000 600 43 1.000000 0.051000 0.051000 1.200000 0.038000 0.045000
1517193041825603356	600 40 0.900000 0.146000 0.138000 600 38 0.900000 0.922000 0.832000 600 44 1.000000 0.051000 0.051000 1.200000 0.043000 0.051000
1517193042337036398	600 40 0.900000 0.158000 0.150000 600 38 0.900000 0.939000 0.847000 600 43 1.000000 0.051000 0.051000 1.200000 0.038000 0.045000
1517193042848400356	600 40 0.900000 0.130000 0.123000 600 38 0.900000 0.937000 0.847000 600 44 1.000000 0.052000 0.052000 1.200000 0.042000 0.050000
1517193043362578648	600 41 0.900000 0.158000 0.150000 600 38 0.900000 0.888000 0.803000 600 44 1.000000 0.051000 0.051000 1.200000 0.038000 0.045000
1517193043925555940	600 40 0.900000 0.125000 0.119000 600 38 0.900000 0.860000 0.778000 600 44 1.000000 0.051000 0.051000 1.200000 0.045000 0.054000
1517193044479864732	600 41 0.900000 0.148000 0.140000 600 38 0.900000 0.910000 0.823000 600 44 1.000000 0.051000 0.051000 1.200000 0.037000 0.044000
1517193045037635982	600 40 0.900000 0.069000 0.065000 600 38 0.900000 0.240000 0.218000 600 43 1.000000 0.051000 0.051000 1.200000 0.047000 0.056000
1517193045550875273	600 40 0.900000 0.069000 0.065000 600 38 0.900000 0.837000 0.757000 600 44 1.000000 0.051000 0.051000 1.200000 0.034000 0.041000
1517193046062478440	600 40 0.900000 0.153000 0.145000 600 38 0.900000 0.918000 0.828000 600 43 1.000000 0.051000 0.051000 1.200000 0.039000 0.047000
1517193046617586148	600 40 0.900000 0.158000 0.150000 600 38 0.900000 0.931000 0.840000 600 44 1.000000 0.051000 0.051000 1.200000 0.042000 0.050000
1517193047128872107	600 40 0.900000 0.145000 0.137000 600 38 0.900000 0.934000 0.843000 600 43 1.000000 0.051000 0.051000 1.200000 0.038000 0.045000
1517193047697561357	600 40 0.900000 0.090000 0.085000 600 38 0.900000 0.943000 0.851000 600 44 1.000000 0.051000 0.051000 1.200000 0.043000 0.051000
1517193048208832274	600 40 0.900000 0.149000 0.141000 600 38 0.900000 0.928000 0.837000 600 43 1.000000 0.051000 0.051000 1.200000 0.038000 0.045000
1517193048773862107	600 40 0.900000 0.098000 0.093000 600 38 0.900000 0.943000 0.851000 600 44 1.000000 0.051000 0.051000 1.200000 0.042000 0.050000
1517193049285850940	600 39 0.900000 0.145000 0.137000 600 38 0.900000 0.897000 0.809000 600 43 1.000000 0.051000 0.051000 1.200000 0.036000 0.043000
1517193049853878982	600 40 0.900000 0.102000 0.097000 600 38 0.900000 0.874000 0.792000 600 44 1.000000 0.051000 0.051000 1.200000 0.045000 0.054000
1517193050365215482	600 39 0.900000 0.150000 0.142000 600 38 0.900000 0.943000 0.851000 600 43 1.000000 0.051000 0.051000 1.200000 0.038000 0.045000
1517193050879269941	600 40 0.900000 0.061000 0.058000 600 38 0.900000 0.558000 0.506000 600 44 1.000000 0.051000 0.051000 1.200000 0.046000 0.055000
1517193051391401024	600 40 0.900000 0.124000 0.118000 600 38 0.900000 0.915000 0.828000 600 44 1.000000 0.051000 0.051000 1.200000 0.035000 0.042000
1517193051902937232	600 40 0.900000 0.159000 0.151000 600 38 0.900000 0.959000 0.865000 600 43 1.000000 0.051000 0.051000 1.200000 0.039000 0.047000
1517193052457676691	600 40 0.900000 0.158000 0.150000 600 38 0.900000 0.698000 0.633000 600 44 1.000000 0.051000 0.051000 1.200000 0.040000 0.048000
1517193052968050108	600 39 0.900000 0.137000 0.130000 600 38 0.900000 0.798000 0.722000 600 43 1.000000 0.051000 0.051000 1.200000 0.034000 0.041000
1517193053510080024	600 40 0.900000 0.102000 0.097000 600 38 0.900000 0.382000 0.346000 600 43 1.000000 0.051000 0.051000 1.200000 0.047000 0.056000
1517193054061596233	600 40 0.900000 0.129000 0.122000 600 38 0.900000 0.832000 0.751000 600 44 1.000000 0.051000 0.051000 1.200000 0.037000 0.044000
1517193054629615733	600 40 0.900000 0.147000 0.139000 600 38 0.900000 0.891000 0.804000 600 44 1.000000 0.051000 0.051000 1.200000 0.039000 0.047000
1517193055184146108	600 40 0.900000 0.155000 0.147000 600 38 0.900000 0.876000 0.791000 600 44 1.000000 0.051000 0.051000 1.200000 0.040000 0.048000
1517193055749873150	600 40 0.900000 0.148000 0.140000 600 38 0.900000 0.897000 0.809000 600 44 1.000000 0.051000 0.051000 1.200000 0.040000 0.048000
1517193056289222525	600 40 0.900000 0.159000 0.151000 600 38 0.900000 0.879000 0.793000 600 44 1.000000 0.051000 0.051000 1.200000 0.039000 0.047000
1517193056845629358	600 40 0.900000 0.085000 0.081000 600 38 0.900000 0.729000 0.660000 600 44 1.000000 0.051000 0.051000 1.200000 0.046000 0.055000
1517193057377719025	600 40 0.900000 0.159000 0.151000 600 38 0.900000 0.874000 0.789000 600 44 1.000000 0.051000 0.051000 1.200000 0.039000 0.047000
1517193057945685400	600 40 0.900000 0.079000 0.075000 600 38 0.900000 0.801000 0.725000 600 44 1.000000 0.051000 0.051000 1.200000 0.044000 0.053000
1517193058482275525	600 40 0.900000 0.159000 0.151000 600 38 0.900000 0.915000 0.828000 600 44 1.000000 0.051000 0.051000 1.200000 0.038000 0.045000
1517193059053853942	600 40 0.900000 0.089000 0.084000 600 38 0.900000 0.911000 0.824000 600 44 1.000000 0.051000 0.051000 1.200000 0.042000 0.050000
1517193059590547733	600 40 0.900000 0.153000 0.145000 600 39 0.900000 0.937000 0.846000 600 44 1.000000 0.051000 0.051000 1.200000 0.038000 0.045000
1517193060145624775	600 40 0.900000 0.148000 0.140000 600 38 0.900000 0.938000 0.847000 600 44 1.000000 0.051000 0.051000 1.200000 0.040000 0.048000
1517193060686866358	600 41 0.900000 0.155000 0.147000 600 38 0.900000 0.905000 0.817000 600 44 1.000000 0.051000 0.051000 1.200000 0.043000 0.051000
1517193061241672400	600 40 0.900000 0.149000 0.141000 600 38 0.900000 0.925000 0.835000 600 44 1.000000 0.051000 0.051000 1.200000 0.040000 0.048000
1517193061774146400	600 41 0.900000 0.163000 0.155000 600 39 0.900000 0.930000 0.839000 600 44 1.000000 0.051000 0.051000 1.200000 0.044000 0.053000
1517193062345735525	600 40 0.900000 0.158000 0.150000 600 38 0.900000 0.905000 0.819000 600 44 1.000000 0.051000 0.051000 1.200000 0.038000 0.045000
1517193062867645775	600 41 0.900000 0.151000 0.143000 600 39 0.900000 0.954000 0.861000 600 44 1.000000 0.051000 0.051000 1.200000 0.040000 0.048000
1517193063421695067	600 40 0.900000 0.081000 0.077000 600 38 0.900000 0.620000 0.562000 600 44 1.000000 0.051000 0.051000 1.200000 0.039000 0.047000
1517193063961644942	600 41 0.900000 0.151000 0.143000 600 38 0.900000 0.917000 0.828000 600 44 1.000000 0.051000 0.051000 1.200000 0.039000 0.047000
1517193064529656359	600 40 0.900000 0.080000 0.076000 600 38 0.900000 0.705000 0.638000 600 44 1.000000 0.052000 0.052000 1.200000 0.040000 0.048000
1517193065068724942	600 41 0.900000 0.144000 0.136000 600 38 0.900000 0.876000 0.791000 600 44 1.000000 0.051000 0.051000 1.200000 0.039000 0.047000
1517193065633373484	600 40 0.900000 0.163000 0.155000 600 38 0.900000 0.760000 0.688000 600 44 1.000000 0.051000 0.051000 1.200000 0.039000 0.047000
1517193066149282109	600 41 0.900000 0.162000 0.154000 600 39 0.900000 0.890000 0.803000 600 44 1.000000 0.051000 0.051000 1.200000 0.040000 0.048000
1517193066713155484	600 40 0.900000 0.157000 0.149000 600 38 0.900000 0.779000 0.704000 600 44 1.000000 0.051000 0.051000 1.200000 0.040000 0.048000
1517193067226965943	600 41 0.900000 0.160000 0.152000 600 39 0.900000 0.896000 0.809000 600 44 1.000000 0.051000 0.051000 1.200000 0.040000 0.048000
1517193067769619318	600 41 0.900000 0.150000 0.142000 600 38 0.900000 0.819000 0.741000 600 44 1.000000 0.051000 0.051000 1.200000 0.039000 0.047000
1517193068280262234	600 41 0.900000 0.149000 0.141000 600 39 0.900000 0.900000 0.812000 600 44 1.000000 0.051000 0.051000 1.200000 0.040000 0.048000
1517193068810302318	600 40 0.900000 0.119000 0.113000 600 38 0.900000 0.742000 0.672000 600 44 1.000000 0.051000 0.051000 1.200000 0.039000 0.047000
1517193069344244776	600 41 0.900000 0.137000 0.130000 600 38 0.900000 0.865000 0.781000 600 44 1.000000 0.051000 0.051000 1.200000 0.040000 0.048000
1517193069871325943	600 40 0.900000 0.099000 0.094000 600 38 0.900000 0.753000 0.681000 600 44 1.000000 0.051000 0.051000 1.200000 0.039000 0.047000
1517193070381666110	600 41 0.900000 0.154000 0.146000 600 39 0.900000 0.879000 0.793000 600 44 1.000000 0.051000 0.051000 1.200000 0.039000 0.047000
1517193070904098776	600 40 0.900000 0.090000 0.085000 600 38 0.900000 0.659000 0.597000 600 44 1.000000 0.051000 0.051000 1.200000 0.041000 0.049000
1517193071417647860	600 40 0.900000 0.146000 0.138000 600 38 0.900000 0.883000 0.797000 600 44 1.000000 0.051000 0.051000 1.200000 0.039000 0.047000
1517193071930458776	600 39 0.900000 0.107000 0.101000 600 38 0.900000 0.509000 0.461000 600 42 1.000000 0.051000 0.051000 1.200000 0.037000 0.044000
1517193072489564027	600 40 0.900000 0.115000 0.109000 600 38 0.900000 0.722000 0.653000 600 44 1.000000 0.051000 0.051000 1.200000 0.045000 0.054000
1517193073007628527	600 39 0.900000 0.143000 0.135000 600 38 0.900000 0.870000 0.785000 600 43 1.000000 0.051000 0.051000 1.200000 0.039000 0.047000
1517193073522365818	600 40 0.900000 0.117000 0.111000 600 38 0.900000 0.875000 0.791000 600 44 1.000000 0.051000 0.051000 1.200000 0.044000 0.053000
1517193074033726735	600 39 0.900000 0.122000 0.116000 600 38 0.900000 0.844000 0.763000 600 43 1.000000 0.051000 0.051000 1.200000 0.038000 0.045000
1517193074552134943	600 39 0.900000 0.071000 0.067000 600 38 0.900000 0.307000 0.278000 600 43 1.000000 0.051000 0.051000 1.200000 0.048000 0.057000
1517193075070902527	600 40 0.900000 0.111000 0.105000 600 38 0.900000 0.882000 0.798000 600 44 1.000000 0.051000 0.051000 1.200000 0.039000 0.047000
1517193075595919694	600 40 0.900000 0.091000 0.086000 600 38 0.900000 0.615000 0.557000 600 44 1.000000 0.051000 0.051000 1.200000 0.039000 0.047000
1517193076117665610	600 40 0.900000 0.149000 0.141000 600 38 0.900000 0.895000 0.809000 600 44 1.000000 0.051000 0.051000 1.200000 0.040000 0.048000
1517193076689541985	600 40 0.900000 0.079000 0.075000 600 38 0.900000 0.533000 0.483000 600 44 1.000000 0.051000 0.051000 1.200000 0.041000 0.049000
1517193077238903110	600 40 0.900000 0.148000 0.140000 600 38 0.900000 0.899000 0.813000 600 44 1.000000 0.051000 0.051000 1.200000 0.039000 0.047000
1517193077784216819	600 40 0.900000 0.126000 0.119000 600 38 0.900000 0.645000 0.585000 600 44 1.000000 0.051000 0.051000 1.200000 0.043000 0.051000
1517193078294824111	600 40 0.900000 0.152000 0.144000 600 38 0.900000 0.939000 0.847000 600 44 1.000000 0.051000 0.051000 1.200000 0.038000 0.045000
1517193078845620027	600 40 0.900000 0.112000 0.106000 600 38 0.900000 0.163000 0.148000 600 43 1.000000 0.051000 0.051000 1.200000 0.043000 0.051000
1517193079375613986	600 40 0.900000 0.150000 0.142000 600 38 0.900000 0.820000 0.740000 600 44 1.000000 0.051000 0.051000 1.200000 0.038000 0.045000
1517193079922314736	600 40 0.900000 0.159000 0.151000 600 38 0.900000 0.654000 0.593000 600 44 1.000000 0.051000 0.051000 1.200000 0.040000 0.048000
1517193080469622694	600 40 0.900000 0.159000 0.151000 600 38 0.900000 0.912000 0.825000 600 44 1.000000 0.051000 0.051000 1.200000 0.040000 0.048000
1517193080980252319	600 38 0.900000 0.146000 0.138000 600 38 0.900000 0.763000 0.691000 600 42 1.000000 0.051000 0.051000 1.200000 0.039000 0.047000
1517193081490998153	600 40 0.900000 0.114000 0.108000 600 38 0.900000 0.768000 0.695000 600 43 1.000000 0.051000 0.051000 1.200000 0.049000 0.059000
1517193082020918361	600 40 0.900000 0.122000 0.116000 600 38 0.900000 0.937000 0.846000 600 44 1.000000 0.051000 0.051000 1.200000 0.038000 0.045000
1517193082535040819	600 40 0.900000 0.078000 0.074000 600 38 0.900000 0.624000 0.565000 600 44 1.000000 0.051000 0.051000 1.200000 0.042000 0.050000
1517193083109872819	600 40 0.900000 0.128000 0.121000 600 38 0.900000 0.910000 0.823000 600 44 1.000000 0.051000 0.051000 1.200000 0.039000 0.047000
1517193083673671945	600 40 0.900000 0.083000 0.079000 600 38 0.900000 0.592000 0.536000 600 44 1.000000 0.051000 0.051000 1.200000 0.039000 0.047000
1517193084237623861	600 40 0.900000 0.158000 0.150000 600 38 0.900000 0.948000 0.856000 600 44 1.000000 0.051000 0.051000 1.200000 0.040000 0.048000
1517193084789915361	600 40 0.900000 0.088000 0.083000 600 38 0.900000 0.912000 0.823000 600 44 1.000000 0.051000 0.051000 1.200000 0.045000 0.054000
1517193085357886736	600 40 0.900000 0.157000 0.149000 600 38 0.900000 0.894000 0.809000 600 44 1.000000 0.051000 0.051000 1.200000 0.037000 0.044000
1517193085913912195	600 40 0.900000 0.086000 0.081000 600 38 0.900000 0.812000 0.734000 600 44 1.000000 0.051000 0.051000 1.200000 0.046000 0.055000
1517193086477791237	600 40 0.900000 0.157000 0.149000 600 38 0.900000 0.942000 0.850000 600 44 1.000000 0.051000 0.051000 1.200000 0.039000 0.047000
1517193087041784487	600 40 0.900000 0.104000 0.099000 600 38 0.900000 0.135000 0.122000 600 43 1.000000 0.051000 0.051000 1.200000 0.042000 0.050000
1517193087555900445	600 40 0.900000 0.127000 0.120000 600 38 0.900000 0.832000 0.752000 600 44 1.000000 0.051000 0.051000 1.200000 0.037000 0.044000
1517193088067671153	600 39 0.900000 0.120000 0.114000 600 38 0.900000 0.826000 0.747000 600 43 1.000000 0.051000 0.051000 1.200000 0.038000 0.045000
1517193088625621237	600 40 0.900000 0.133000 0.126000 600 38 0.900000 0.582000 0.527000 600 44 1.000000 0.051000 0.051000 1.200000 0.044000 0.053000
1517193089136908904	600 40 0.900000 0.153000 0.145000 600 38 0.900000 0.921000 0.831000 600 43 1.000000 0.051000 0.051000 1.200000 0.040000 0.048000
1517193089658578737	600 40 0.900000 0.131000 0.124000 600 38 0.900000 0.615000 0.557000 600 44 1.000000 0.051000 0.051000 1.200000 0.045000 0.054000
1517193090176777779	600 40 0.900000 0.158000 0.150000 600 38 0.900000 0.919000 0.829000 600 44 1.000000 0.051000 0.051000 1.200000 0.040000 0.048000
1517193090737717029	600 40 0.900000 0.119000 0.113000 600 38 0.900000 0.713000 0.645000 600 44 1.000000 0.051000 0.051000 1.200000 0.045000 0.054000
1517193091280165195	600 40 0.900000 0.146000 0.138000 600 38 0.900000 0.895000 0.809000 600 44 1.000000 0.051000 0.051000 1.200000 0.039000 0.047000
1517193091849630529	600 40 0.900000 0.124000 0.118000 600 38 0.900000 0.759000 0.687000 600 44 1.000000 0.051000 0.051000 1.200000 0.044000 0.053000
1517193092378160946	600 40 0.900000 0.149000 0.141000 600 38 0.900000 0.888000 0.801000 600 44 1.000000 0.051000 0.051000 1.200000 0.040000 0.048000
1517193092937599321	600 40 0.900000 0.119000 0.113000 600 38 0.900000 0.866000 0.783000 600 44 1.000000 0.051000 0.051000 1.200000 0.045000 0.054000
1517193093478345737	600 40 0.900000 0.155000 0.147000 600 38 0.900000 0.883000 0.797000 600 44 1.000000 0.051000 0.051000 1.200000 0.040000 0.048000
1517193094029665612	600 40 0.900000 0.125000 0.119000 600 38 0.900000 0.571000 0.517000 600 44 1.000000 0.051000 0.051000 1.200000 0.044000 0.053000
1517193094578825029	600 41 0.900000 0.157000 0.149000 600 38 0.900000 0.879000 0.795000 600 44 1.000000 0.051000 0.051000 1.200000 0.039000 0.047000
1517193095121668821	600 41 0.900000 0.123000 0.117000 600 38 0.900000 0.603000 0.546000 600 44 1.000000 0.051000 0.051000 1.200000 0.044000 0.053000
1517193095669651988	600 40 0.900000 0.155000 0.147000 600 38 0.900000 0.948000 0.856000 600 44 1.000000 0.051000 0.051000 1.200000 0.040000 0.048000
1517193096237616279	600 40 0.900000 0.122000 0.116000 600 38 0.900000 0.583000 0.528000 600 44 1.000000 0.051000 0.051000 1.200000 0.045000 0.054000
1517193096788862738	600 41 0.900000 0.155000 0.147000 600 39 0.900000 0.935000 0.844000 600 44 1.000000 0.051000 0.051000 1.200000 0.040000 0.048000
1517193097349569779	600 40 0.900000 0.123000 0.117000 600 38 0.900000 0.655000 0.593000 600 44 1.000000 0.051000 0.051000 1.200000 0.045000 0.054000
1517193097896422530	600 41 0.900000 0.148000 0.140000 600 38 0.900000 0.890000 0.803000 600 44 1.000000 0.051000 0.051000 1.200000 0.040000 0.048000
1517193098407844196	600 40 0.900000 0.124000 0.118000 600 38 0.900000 0.716000 0.648000 600 44 1.000000 0.051000 0.051000 1.200000 0.046000 0.055000
1517193098961199571	600 40 0.900000 0.078000 0.074000 600 38 0.900000 0.880000 0.796000 600 44 1.000000 0.051000 0.051000 1.200000 0.038000 0.045000
1517193099521577238	600 40 0.900000 0.149000 0.141000 600 38 0.900000 0.903000 0.815000 600 44 1.000000 0.051000 0.051000 1.200000 0.041000 0.049000
1517193100072711655	600 40 0.900000 0.149000 0.141000 600 38 0.900000 0.917000 0.829000 600 44 1.000000 0.051000 0.051000 1.200000 0.046000 0.055000
1517193100641677488	600 40 0.900000 0.090000 0.085000 600 38 0.900000 0.657000 0.595000 600 44 1.000000 0.051000 0.051000 1.200000 0.040000 0.048000
1517193101193630155	600 40 0.900000 0.155000 0.147000 600 38 0.900000 0.880000 0.794000 600 44 1.000000 0.051000 0.051000 1.200000 0.040000 0.048000
1517193101703898447	600 38 0.900000 0.086000 0.081000 600 38 0.900000 0.849000 0.768000 600 42 1.000000 0.051000 0.051000 1.200000 0.039000 0.047000
1517193102233721280	600 40 0.900000 0.135000 0.128000 600 38 0.900000 0.666000 0.603000 600 44 1.000000 0.051000 0.051000 1.200000 0.048000 0.057000
1517193102797550572	600 40 0.900000 0.147000 0.139000 600 38 0.900000 0.891000 0.806000 600 44 1.000000 0.051000 0.051000 1.200000 0.042000 0.050000
1517193103353604530	600 40 0.900000 0.105000 0.099000 600 38 0.900000 0.554000 0.502000 600 44 1.000000 0.051000 0.051000 1.200000 0.042000 0.050000
1517193103891125989	600 40 0.900000 0.148000 0.140000 600 38 0.900000 0.909000 0.820000 600 44 1.000000 0.051000 0.051000 1.200000 0.042000 0.050000
1517193104441597364	600 40 0.900000 0.101000 0.096000 600 38 0.900000 0.568000 0.515000 600 44 1.000000 0.051000 0.051000 1.200000 0.040000 0.048000
1517193104972404364	600 40 0.900000 0.149000 0.141000 600 38 0.900000 0.948000 0.856000 600 44 1.000000 0.051000 0.051000 1.200000 0.042000 0.050000
1517193105521689905	600 40 0.900000 0.090000 0.085000 600 38 0.900000 0.587000 0.532000 600 44 1.000000 0.051000 0.051000 1.200000 0.041000 0.049000
1517193106041473156	600 41 0.900000 0.157000 0.149000 600 38 0.900000 0.936000 0.845000 600 44 1.000000 0.051000 0.051000 1.200000 0.041000 0.049000
1517193106601645822	600 40 0.900000 0.089000 0.084000 600 38 0.900000 0.615000 0.557000 600 44 1.000000 0.051000 0.051000 1.200000 0.041000 0.049000
1517193107112405281	600 40 0.900000 0.159000 0.151000 600 38 0.900000 0.940000 0.848000 600 44 1.000000 0.051000 0.051000 1.200000 0.041000 0.049000
1517193107626143739	600 40 0.900000 0.089000 0.084000 600 38 0.900000 0.614000 0.556000 600 44 1.000000 0.051000 0.051000 1.200000 0.041000 0.049000
1517193108185571114	600 40 0.900000 0.129000 0.122000 600 38 0.900000 0.939000 0.847000 600 44 1.000000 0.051000 0.051000 1.200000 0.038000 0.045000
1517193108741634489	600 40 0.900000 0.084000 0.080000 600 38 0.900000 0.601000 0.545000 600 44 1.000000 0.051000 0.051000 1.200000 0.041000 0.049000
1517193109255245864	600 40 0.900000 0.150000 0.142000 600 38 0.900000 0.936000 0.845000 600 44 1.000000 0.051000 0.051000 1.200000 0.041000 0.049000
1517193109809651906	600 40 0.900000 0.159000 0.151000 600 38 0.900000 0.604000 0.547000 600 44 1.000000 0.051000 0.051000 1.200000 0.042000 0.050000
1517193110320334281	600 41 0.900000 0.158000 0.150000 600 38 0.900000 0.928000 0.837000 600 44 1.000000 0.052000 0.052000 1.200000 0.041000 0.049000
1517193110867016448	600 40 0.900000 0.135000 0.128000 600 38 0.900000 0.640000 0.580000 600 44 1.000000 0.051000 0.051000 1.200000 0.041000 0.049000
1517193111380959823	600 40 0.900000 0.150000 0.142000 600 38 0.900000 0.929000 0.838000 600 44 1.000000 0.051000 0.051000 1.200000 0.042000 0.050000
1517193111894933240	600 39 0.900000 0.075000 0.071000 600 38 0.900000 0.484000 0.439000 600 43 1.000000 0.051000 0.051000 1.200000 0.038000 0.045000
1517193112407533490	600 40 0.900000 0.094000 0.089000 600 38 0.900000 0.788000 0.713000 600 44 1.000000 0.051000 0.051000 1.200000 0.042000 0.050000
1517193112921762656	600 40 0.900000 0.144000 0.136000 600 38 0.900000 0.897000 0.809000 600 43 1.000000 0.051000 0.051000 1.200000 0.041000 0.049000
1517193113436107615	600 40 0.900000 0.144000 0.137000 600 38 0.900000 0.884000 0.798000 600 44 1.000000 0.051000 0.051000 1.200000 0.046000 0.055000
1517193113947534115	600 39 0.900000 0.134000 0.127000 600 38 0.900000 0.884000 0.798000 600 43 1.000000 0.051000 0.051000 1.200000 0.042000 0.050000
1517193114474591323	600 40 0.900000 0.155000 0.147000 600 38 0.900000 0.846000 0.763000 600 44 1.000000 0.051000 0.051000 1.200000 0.045000 0.054000
1517193114997241907	600 39 0.900000 0.157000 0.149000 600 38 0.900000 0.878000 0.794000 600 43 1.000000 0.051000 0.051000 1.200000 0.041000 0.049000
1517193115549697657	600 40 0.900000 0.158000 0.150000 600 38 0.900000 0.929000 0.838000 600 44 1.000000 0.051000 0.051000 1.200000 0.046000 0.055000
1517193116105621698	600 40 0.900000 0.150000 0.142000 600 38 0.900000 0.857000 0.775000 600 44 1.000000 0.051000 0.051000 1.200000 0.042000 0.050000
1517193116632115240	600 41 0.900000 0.133000 0.126000 600 38 0.900000 0.890000 0.803000 600 44 1.000000 0.051000 0.051000 1.200000 0.044000 0.053000
1517193117162161574	600 40 0.900000 0.149000 0.141000 600 38 0.900000 0.730000 0.661000 600 44 1.000000 0.051000 0.051000 1.200000 0.042000 0.050000
1517193117672971157	600 41 0.900000 0.154000 0.146000 600 38 0.900000 0.903000 0.817000 600 44 1.000000 0.051000 0.051000 1.200000 0.042000 0.050000
1517193118194824449	600 40 0.900000 0.158000 0.150000 600 38 0.900000 0.646000 0.585000 600 44 1.000000 0.051000 0.051000 1.200000 0.042000 0.050000
1517193118705940699	600 40 0.900000 0.160000 0.152000 600 38 0.900000 0.907000 0.820000 600 44 1.000000 0.051000 0.051000 1.200000 0.042000 0.050000
1517193119235138782	600 40 0.900000 0.131000 0.124000 600 38 0.900000 0.623000 0.565000 600 44 1.000000 0.051000 0.051000 1.200000 0.042000 0.050000
1517193119748913449	600 40 0.900000 0.150000 0.142000 600 38 0.900000 0.950000 0.857000 600 44 1.000000 0.051000 0.051000 1.200000 0.042000 0.050000
1517193120313626407	600 40 0.900000 0.113000 0.107000 600 38 0.900000 0.661000 0.598000 600 44 1.000000 0.051000 0.051000 1.200000 0.040000 0.048000
1517193120849639949	600 40 0.900000 0.145000 0.137000 600 38 0.900000 0.863000 0.781000 600 44 1.000000 0.051000 0.051000 1.200000 0.041000 0.049000
1517193121401652241	600 40 0.900000 0.113000 0.107000 600 38 0.900000 0.701000 0.635000 600 44 1.000000 0.051000 0.051000 1.200000 0.041000 0.049000
1517193121915281907	600 40 0.900000 0.149000 0.141000 600 38 0.900000 0.888000 0.803000 600 44 1.000000 0.051000 0.051000 1.200000 0.041000 0.049000
1517193122427486741	600 39 0.900000 0.112000 0.106000 600 38 0.900000 0.857000 0.775000 600 44 1.000000 0.051000 0.051000 1.200000 0.036000 0.043000
1517193122957710283	600 40 0.900000 0.073000 0.069000 600 38 0.900000 0.869000 0.784000 600 44 1.000000 0.051000 0.051000 1.200000 0.046000 0.055000
1517193123469520033	600 39 0.900000 0.132000 0.125000 600 38 0.900000 0.922000 0.834000 600 43 1.000000 0.051000 0.051000 1.200000 0.041000 0.049000
1517193123989697199	600 40 0.900000 0.092000 0.087000 600 38 0.900000 0.775000 0.701000 600 44 1.000000 0.051000 0.051000 1.200000 0.048000 0.057000
1517193124527512908	600 40 0.900000 0.158000 0.150000 600 38 0.900000 0.950000 0.857000 600 44 1.000000 0.051000 0.051000 1.200000 0.040000 0.048000
1517193125041223491	600 40 0.900000 0.088000 0.083000 600 38 0.900000 0.666000 0.603000 600 44 1.000000 0.051000 0.051000 1.200000 0.044000 0.053000
1517193125585657950	600 40 0.900000 0.107000 0.101000 600 38 0.900000 0.887000 0.800000 600 44 1.000000 0.051000 0.051000 1.200000 0.040000 0.048000
1517193126096316950	600 40 0.900000 0.104000 0.099000 600 38 0.900000 0.903000 0.815000 600 44 1.000000 0.051000 0.051000 1.200000 0.041000 0.049000
1517193126607060741	600 41 0.900000 0.149000 0.141000 600 38 0.900000 0.941000 0.849000 600 44 1.000000 0.051000 0.051000 1.200000 0.042000 0.050000
1517193127173635991	600 40 0.900000 0.106000 0.100000 600 38 0.900000 0.897000 0.809000 600 44 1.000000 0.051000 0.051000 1.200000 0.041000 0.049000
1517193127707605533	600 40 0.900000 0.149000 0.141000 600 38 0.900000 0.891000 0.804000 600 44 1.000000 0.051000 0.051000 1.200000 0.041000 0.049000
1517193128269600283	600 40 0.900000 0.106000 0.100000 600 38 0.900000 0.883000 0.797000 600 44 1.000000 0.051000 0.051000 1.200000 0.041000 0.049000
1517193128783453908	600 40 0.900000 0.131000 0.124000 600 38 0.900000 0.851000 0.768000 600 44 1.000000 0.051000 0.051000 1.200000 0.041000 0.049000
1517193129294834408	600 38 0.900000 0.124000 0.118000 600 38 0.900000 0.946000 0.854000 600 42 1.000000 0.051000 0.051000 1.200000 0.038000 0.045000
1517193129808400617	600 40 0.900000 0.061000 0.058000 600 38 0.900000 0.095000 0.086000 600 43 1.000000 0.051000 0.051000 1.200000 0.048000 0.057000
1517193130355144700	600 40 0.900000 0.086000 0.081000 600 38 0.900000 0.867000 0.784000 600 44 1.000000 0.051000 0.051000 1.200000 0.036000 0.043000
1517193130917665075	600 40 0.900000 0.150000 0.142000 600 38 0.900000 0.896000 0.809000 600 44 1.000000 0.051000 0.051000 1.200000 0.040000 0.048000
1517193131464265659	600 40 0.900000 0.156000 0.148000 600 38 0.900000 0.940000 0.848000 600 44 1.000000 0.051000 0.051000 1.200000 0.042000 0.050000
1517193132029668034	600 40 0.900000 0.089000 0.084000 600 38 0.900000 0.708000 0.641000 600 44 1.000000 0.051000 0.051000 1.200000 0.046000 0.055000
1517193132585621700	600 40 0.900000 0.120000 0.114000 600 38 0.900000 0.910000 0.821000 600 44 1.000000 0.051000 0.051000 1.200000 0.036000 0.043000
1517193133149565825	600 40 0.900000 0.093000 0.088000 600 38 0.900000 0.879000 0.793000 600 44 1.000000 0.051000 0.051000 1.200000 0.042000 0.050000
1517193133709070617	600 40 0.900000 0.157000 0.149000 600 38 0.900000 0.931000 0.840000 600 44 1.000000 0.051000 0.051000 1.200000 0.040000 0.048000
1517193134257669659	600 40 0.900000 0.094000 0.089000 600 38 0.900000 0.949000 0.856000 600 44 1.000000 0.051000 0.051000 1.200000 0.042000 0.050000
1517193134825550409	600 40 0.900000 0.156000 0.148000 600 38 0.900000 0.936000 0.845000 600 44 1.000000 0.051000 0.051000 1.200000 0.039000 0.047000
1517193135381716034	600 40 0.900000 0.148000 0.140000 600 38 0.900000 0.894000 0.807000 600 44 1.000000 0.051000 0.051000 1.200000 0.040000 0.048000
1517193135937665451	600 40 0.900000 0.155000 0.147000 600 38 0.900000 0.905000 0.819000 600 44 1.000000 0.051000 0.051000 1.200000 0.041000 0.049000
1517193136485664326	600 40 0.900000 0.144000 0.136000 600 38 0.900000 0.880000 0.794000 600 44 1.000000 0.051000 0.051000 1.200000 0.040000 0.048000
1517193136998982743	600 40 0.900000 0.129000 0.122000 600 38 0.900000 0.889000 0.802000 600 44 1.000000 0.051000 0.051000 1.200000 0.036000 0.043000
1517193137510118118	600 39 0.900000 0.122000 0.116000 600 38 0.900000 0.927000 0.836000 600 42 1.000000 0.051000 0.051000 1.200000 0.040000 0.048000
1517193138020997451	600 39 0.900000 0.060000 0.057000 600 38 0.900000 0.160000 0.145000 600 43 1.000000 0.051000 0.051000 1.200000 0.048000 0.057000
1517193138534843159	600 40 0.900000 0.121000 0.115000 600 38 0.900000 0.860000 0.776000 600 44 1.000000 0.051000 0.051000 1.200000 0.039000 0.047000
1517193139048024284	600 39 0.900000 0.093000 0.088000 600 38 0.900000 0.854000 0.771000 600 43 1.000000 0.051000 0.051000 1.200000 0.036000 0.043000
1517193139605741576	600 40 0.900000 0.151000 0.143000 600 38 0.900000 0.670000 0.607000 600 44 1.000000 0.051000 0.051000 1.200000 0.044000 0.053000
1517193140117010243	600 38 0.900000 0.148000 0.140000 600 38 0.900000 0.890000 0.803000 600 43 1.000000 0.051000 0.051000 1.200000 0.041000 0.049000
1517193140677632368	600 40 0.900000 0.145000 0.137000 600 38 0.900000 0.549000 0.497000 600 44 1.000000 0.051000 0.051000 1.200000 0.042000 0.050000
1517193141188821160	600 40 0.900000 0.149000 0.141000 600 38 0.900000 0.878000 0.792000 600 43 1.000000 0.051000 0.051000 1.200000 0.040000 0.048000
1517193141741913826	600 40 0.900000 0.106000 0.100000 600 38 0.900000 0.559000 0.507000 600 44 1.000000 0.051000 0.051000 1.200000 0.039000 0.047000
1517193142253767702	600 40 0.900000 0.148000 0.140000 600 38 0.900000 0.934000 0.843000 600 43 1.000000 0.051000 0.051000 1.200000 0.041000 0.049000
1517193142764565243	600 40 0.900000 0.101000 0.096000 600 38 0.900000 0.614000 0.556000 600 44 1.000000 0.051000 0.051000 1.200000 0.042000 0.050000
1517193143277919868	600 40 0.900000 0.149000 0.141000 600 38 0.900000 0.948000 0.856000 600 44 1.000000 0.051000 0.051000 1.200000 0.041000 0.049000
1517193143845618452	600 40 0.900000 0.104000 0.099000 600 38 0.900000 0.618000 0.559000 600 44 1.000000 0.051000 0.051000 1.200000 0.040000 0.048000
1517193144393662160	600 40 0.900000 0.139000 0.132000 600 38 0.900000 0.832000 0.752000 600 44 1.000000 0.051000 0.051000 1.200000 0.042000 0.050000
1517193144945709035	600 40 0.900000 0.112000 0.106000 600 38 0.900000 0.675000 0.611000 600 44 1.000000 0.051000 0.051000 1.200000 0.042000 0.050000
1517193145509654369	600 40 0.900000 0.156000 0.148000 600 38 0.900000 0.882000 0.796000 600 44 1.000000 0.051000 0.051000 1.200000 0.040000 0.048000
1517193146065591244	600 40 0.900000 0.106000 0.100000 600 38 0.900000 0.586000 0.531000 600 44 1.000000 0.051000 0.051000 1.200000 0.041000 0.049000
1517193146617616244	600 40 0.900000 0.158000 0.150000 600 38 0.900000 0.892000 0.805000 600 44 1.000000 0.051000 0.051000 1.200000 0.040000 0.048000
1517193147177648160	600 40 0.900000 0.126000 0.119000 600 38 0.900000 0.563000 0.510000 600 44 1.000000 0.051000 0.051000 1.200000 0.043000 0.051000
1517193147688338619	600 40 0.900000 0.150000 0.142000 600 38 0.900000 0.879000 0.793000 600 44 1.000000 0.052000 0.052000 1.200000 0.042000 0.050000
1517193148241080911	600 40 0.900000 0.097000 0.092000 600 38 0.900000 0.572000 0.518000 600 44 1.000000 0.051000 0.051000 1.200000 0.042000 0.050000
1517193148752421327	600 40 0.900000 0.153000 0.145000 600 38 0.900000 0.912000 0.823000 600 44 1.000000 0.051000 0.051000 1.200000 0.042000 0.050000
1517193149291197327	600 40 0.900000 0.091000 0.086000 600 38 0.900000 0.587000 0.532000 600 44 1.000000 0.051000 0.051000 1.200000 0.043000 0.051000
1517193149802260702	600 40 0.900000 0.157000 0.149000 600 38 0.900000 0.905000 0.817000 600 44 1.000000 0.051000 0.051000 1.200000 0.042000 0.050000
1517193150339741619	600 40 0.900000 0.077000 0.073000 600 38 0.900000 0.627000 0.568000 600 44 1.000000 0.051000 0.051000 1.200000 0.041000 0.049000
1517193150851208078	600 40 0.900000 0.149000 0.141000 600 38 0.900000 0.898000 0.810000 600 44 1.000000 0.051000 0.051000 1.200000 0.042000 0.050000
1517193151365542119	600 40 0.900000 0.062000 0.059000 600 38 0.900000 0.141000 0.128000 600 43 1.000000 0.051000 0.051000 1.200000 0.044000 0.053000
1517193151925283703	600 40 0.900000 0.139000 0.132000 600 38 0.900000 0.904000 0.818000 600 44 1.000000 0.051000 0.051000 1.200000 0.040000 0.048000
1517193152456365536	600 40 0.900000 0.091000 0.086000 600 38 0.900000 0.646000 0.585000 600 44 1.000000 0.051000 0.051000 1.200000 0.039000 0.047000
1517193152967719036	600 40 0.900000 0.160000 0.152000 600 38 0.900000 0.908000 0.819000 600 44 1.000000 0.051000 0.051000 1.200000 0.039000 0.047000
1517193153478434161	600 40 0.900000 0.089000 0.084000 600 38 0.900000 0.624000 0.565000 600 44 1.000000 0.051000 0.051000 1.200000 0.039000 0.047000
1517193154045635870	600 40 0.900000 0.160000 0.152000 600 38 0.900000 0.933000 0.842000 600 44 1.000000 0.051000 0.051000 1.200000 0.042000 0.050000
1517193154609695495	600 40 0.900000 0.139000 0.132000 600 38 0.900000 0.593000 0.537000 600 44 1.000000 0.051000 0.051000 1.200000 0.039000 0.047000
1517193155162402286	600 40 0.900000 0.149000 0.141000 600 38 0.900000 0.887000 0.802000 600 44 1.000000 0.051000 0.051000 1.200000 0.041000 0.049000
1517193155705037536	600 40 0.900000 0.098000 0.093000 600 38 0.900000 0.604000 0.547000 600 44 1.000000 0.052000 0.052000 1.200000 0.037000 0.044000
1517193156216365953	600 39 0.900000 0.150000 0.142000 600 38 0.900000 0.890000 0.803000 600 43 1.000000 0.051000 0.051000 1.200000 0.040000 0.048000
1517193156727157870	600 40 0.900000 0.095000 0.090000 600 38 0.900000 0.591000 0.536000 600 44 1.000000 0.051000 0.051000 1.200000 0.042000 0.050000
1517193157238455037	600 39 0.900000 0.149000 0.141000 600 38 0.900000 0.903000 0.817000 600 43 1.000000 0.051000 0.051000 1.200000 0.041000 0.049000
1517193157749216037	600 40 0.900000 0.084000 0.080000 600 38 0.900000 0.684000 0.619000 600 44 1.000000 0.051000 0.051000 1.200000 0.042000 0.050000
1517193158260492037	600 40 0.900000 0.152000 0.144000 600 38 0.900000 0.938000 0.847000 600 43 1.000000 0.051000 0.051000 1.200000 0.040000 0.048000
1517193158778498995	600 40 0.900000 0.116000 0.110000 600 38 0.900000 0.839000 0.759000 600 44 1.000000 0.051000 0.051000 1.200000 0.045000 0.054000
1517193159292367204	600 40 0.900000 0.150000 0.142000 600 38 0.900000 0.844000 0.762000 600 44 1.000000 0.051000 0.051000 1.200000 0.040000 0.048000
1517193159841593037	600 40 0.900000 0.104000 0.099000 600 38 0.900000 0.618000 0.559000 600 44 1.000000 0.051000 0.051000 1.200000 0.042000 0.050000
1517193160367109370	600 40 0.900000 0.150000 0.142000 600 38 0.900000 0.945000 0.853000 600 44 1.000000 0.051000 0.051000 1.200000 0.040000 0.048000
1517193160937949037	600 40 0.900000 0.101000 0.096000 600 38 0.900000 0.601000 0.545000 600 44 1.000000 0.051000 0.051000 1.200000 0.044000 0.053000
1517193161489662120	600 40 0.900000 0.114000 0.108000 600 38 0.900000 0.906000 0.819000 600 44 1.000000 0.051000 0.051000 1.200000 0.041000 0.049000
1517193162045560787	600 40 0.900000 0.109000 0.103000 600 38 0.900000 0.588000 0.533000 600 44 1.000000 0.051000 0.051000 1.200000 0.041000 0.049000
1517193162593777496	600 40 0.900000 0.147000 0.139000 600 38 0.900000 0.882000 0.798000 600 44 1.000000 0.051000 0.051000 1.200000 0.041000 0.049000
1517193163157578537	600 40 0.900000 0.125000 0.119000 600 38 0.900000 0.912000 0.827000 600 44 1.000000 0.051000 0.051000 1.200000 0.045000 0.054000
1517193163687543537	600 40 0.900000 0.155000 0.147000 600 38 0.900000 0.909000 0.820000 600 44 1.000000 0.051000 0.051000 1.200000 0.039000 0.047000
1517193164245637662	600 40 0.900000 0.134000 0.127000 600 38 0.900000 0.597000 0.541000 600 44 1.000000 0.051000 0.051000 1.200000 0.045000 0.054000
1517193164773181621	600 40 0.900000 0.158000 0.150000 600 38 0.900000 0.934000 0.843000 600 44 1.000000 0.051000 0.051000 1.200000 0.039000 0.047000
1517193165329676913	600 40 0.900000 0.143000 0.136000 600 38 0.900000 0.620000 0.562000 600 44 1.000000 0.051000 0.051000 1.200000 0.045000 0.054000
1517193165866123913	600 41 0.900000 0.151000 0.143000 600 38 0.900000 0.931000 0.840000 600 44 1.000000 0.051000 0.051000 1.200000 0.040000 0.048000
1517193166433605038	600 40 0.900000 0.102000 0.097000 600 38 0.900000 0.634000 0.575000 600 44 1.000000 0.051000 0.051000 1.200000 0.044000 0.053000
1517193166947115413	600 40 0.900000 0.148000 0.140000 600 38 0.900000 0.882000 0.796000 600 44 1.000000 0.051000 0.051000 1.200000 0.038000 0.045000
1517193167475616121	600 39 0.900000 0.070000 0.066000 600 38 0.900000 0.766000 0.693000 600 43 1.000000 0.051000 0.051000 1.200000 0.041000 0.049000
1517193168037715080	600 40 0.900000 0.151000 0.143000 600 38 0.900000 0.837000 0.757000 600 44 1.000000 0.051000 0.051000 1.200000 0.037000 0.044000
1517193168555354621	600 40 0.900000 0.159000 0.151000 600 38 0.900000 0.898000 0.810000 600 43 1.000000 0.051000 0.051000 1.200000 0.039000 0.047000
1517193169121663121	600 40 0.900000 0.119000 0.113000 600 38 0.900000 0.620000 0.562000 600 44 1.000000 0.051000 0.051000 1.200000 0.042000 0.050000
1517193169632742996	600 40 0.900000 0.157000 0.149000 600 38 0.900000 0.864000 0.780000 600 43 1.000000 0.051000 0.051000 1.200000 0.039000 0.047000
1517193170146221788	600 40 0.900000 0.115000 0.109000 600 38 0.900000 0.566000 0.513000 600 44 1.000000 0.051000 0.051000 1.200000 0.047000 0.056000
1517193170658260038	600 41 0.900000 0.117000 0.111000 600 38 0.900000 0.944000 0.852000 600 44 1.000000 0.051000 0.051000 1.200000 0.037000 0.044000
1517193171221694455	600 40 0.900000 0.101000 0.096000 600 38 0.900000 0.610000 0.552000 600 44 1.000000 0.051000 0.051000 1.200000 0.047000 0.056000
1517193171753748747	600 41 0.900000 0.145000 0.137000 600 38 0.900000 0.924000 0.834000 600 44 1.000000 0.051000 0.051000 1.200000 0.039000 0.047000
1517193172305620747	600 40 0.900000 0.081000 0.077000 600 38 0.900000 0.738000 0.668000 600 44 1.000000 0.051000 0.051000 1.200000 0.044000 0.053000
1517193172877574955	600 40 0.900000 0.155000 0.147000 600 38 0.900000 0.899000 0.813000 600 44 1.000000 0.051000 0.051000 1.200000 0.038000 0.045000
1517193173389157789	600 40 0.900000 0.099000 0.094000 600 38 0.900000 0.937000 0.846000 600 44 1.000000 0.051000 0.051000 1.200000 0.041000 0.049000
1517193173949811955	600 40 0.900000 0.135000 0.128000 600 38 0.900000 0.855000 0.773000 600 44 1.000000 0.051000 0.051000 1.200000 0.038000 0.045000
1517193174509619497	600 40 0.900000 0.106000 0.100000 600 38 0.900000 0.703000 0.636000 600 44 1.000000 0.051000 0.051000 1.200000 0.043000 0.051000
1517193175073635747	600 40 0.900000 0.151000 0.143000 600 38 0.900000 0.882000 0.796000 600 44 1.000000 0.051000 0.051000 1.200000 0.038000 0.045000
1517193175621666580	600 40 0.900000 0.113000 0.107000 600 38 0.900000 0.812000 0.734000 600 44 1.000000 0.051000 0.051000 1.200000 0.042000 0.050000
1517193176173600289	600 40 0.900000 0.147000 0.139000 600 38 0.900000 0.922000 0.832000 600 44 1.000000 0.051000 0.051000 1.200000 0.039000 0.047000
1517193176733853872	600 40 0.900000 0.114000 0.108000 600 38 0.900000 0.906000 0.818000 600 44 1.000000 0.051000 0.051000 1.200000 0.041000 0.049000
1517193177289634206	600 41 0.900000 0.149000 0.141000 600 38 0.900000 0.945000 0.853000 600 44 1.000000 0.051000 0.051000 1.200000 0.041000 0.049000
1517193177853621081	600 40 0.900000 0.118000 0.112000 600 38 0.900000 0.945000 0.853000 600 44 1.000000 0.051000 0.051000 1.200000 0.039000 0.047000
1517193178403684581	600 41 0.900000 0.145000 0.137000 600 39 0.900000 0.919000 0.829000 600 44 1.000000 0.051000 0.051000 1.200000 0.040000 0.048000
1517193178965645914	600 40 0.900000 0.122000 0.116000 600 38 0.900000 0.917000 0.828000 600 44 1.000000 0.051000 0.051000 1.200000 0.040000 0.048000
1517193179505083706	600 40 0.900000 0.145000 0.137000 600 38 0.900000 0.929000 0.838000 600 44 1.000000 0.051000 0.051000 1.200000 0.040000 0.048000
1517193180065633498	600 40 0.900000 0.121000 0.115000 600 38 0.900000 0.602000 0.546000 600 44 1.000000 0.051000 0.051000 1.200000 0.040000 0.048000
1517193180602117498	600 40 0.900000 0.151000 0.143000 600 38 0.900000 0.912000 0.823000 600 44 1.000000 0.051000 0.051000 1.200000 0.040000 0.048000
1517193181157602123	600 40 0.900000 0.112000 0.106000 600 38 0.900000 0.696000 0.630000 600 44 1.000000 0.051000 0.051000 1.200000 0.040000 0.048000
1517193181671196748	600 40 0.900000 0.146000 0.138000 600 38 0.900000 0.887000 0.802000 600 44 1.000000 0.051000 0.051000 1.200000 0.041000 0.049000
1517193182229577415	600 40 0.900000 0.117000 0.111000 600 38 0.900000 0.784000 0.709000 600 44 1.000000 0.051000 0.051000 1.200000 0.037000 0.044000
1517193182789595498	600 40 0.900000 0.150000 0.142000 600 38 0.900000 0.914000 0.825000 600 44 1.000000 0.051000 0.051000 1.200000 0.042000 0.050000
1517193183349555706	600 40 0.900000 0.124000 0.118000 600 38 0.900000 0.864000 0.780000 600 44 1.000000 0.051000 0.051000 1.200000 0.038000 0.045000
1517193183909671081	600 41 0.900000 0.148000 0.140000 600 38 0.900000 0.940000 0.848000 600 44 1.000000 0.051000 0.051000 1.200000 0.044000 0.053000
1517193184461773415	600 40 0.900000 0.119000 0.113000 600 38 0.900000 0.927000 0.837000 600 44 1.000000 0.051000 0.051000 1.200000 0.039000 0.047000
1517193184975142082	600 40 0.900000 0.145000 0.137000 600 38 0.900000 0.948000 0.856000 600 44 1.000000 0.051000 0.051000 1.200000 0.046000 0.055000
1517193185488650707	600 40 0.900000 0.088000 0.083000 600 38 0.900000 0.816000 0.738000 600 44 1.000000 0.051000 0.051000 1.200000 0.035000 0.042000
1517193186029020248	600 40 0.900000 0.086000 0.081000 600 38 0.900000 0.845000 0.764000 600 44 1.000000 0.051000 0.051000 1.200000 0.046000 0.055000
1517193186541369040	600 40 0.900000 0.149000 0.141000 600 38 0.900000 0.932000 0.841000 600 43 1.000000 0.051000 0.051000 1.200000 0.040000 0.048000
1517193187101643249	600 40 0.900000 0.083000 0.079000 600 38 0.900000 0.842000 0.762000 600 44 1.000000 0.051000 0.051000 1.200000 0.044000 0.053000
1517193187613122207	600 40 0.900000 0.146000 0.138000 600 38 0.900000 0.925000 0.835000 600 43 1.000000 0.051000 0.051000 1.200000 0.040000 0.048000
1517193188179303040	600 41 0.900000 0.095000 0.090000 600 39 0.900000 0.793000 0.717000 600 44 1.000000 0.051000 0.051000 1.200000 0.043000 0.051000
1517193188705765374	600 40 0.900000 0.154000 0.146000 600 38 0.900000 0.951000 0.858000 600 43 1.000000 0.051000 0.051000 1.200000 0.039000 0.047000
1517193189237333290	600 41 0.900000 0.120000 0.114000 600 38 0.900000 0.797000 0.721000 600 44 1.000000 0.051000 0.051000 1.200000 0.043000 0.051000
1517193189763054041	600 40 0.900000 0.160000 0.152000 600 38 0.900000 0.934000 0.842000 600 43 1.000000 0.051000 0.051000 1.200000 0.039000 0.047000
1517193190284273957	600 41 0.900000 0.137000 0.130000 600 38 0.900000 0.851000 0.770000 600 44 1.000000 0.051000 0.051000 1.200000 0.043000 0.051000
1517193190795541624	600 40 0.900000 0.150000 0.142000 600 38 0.900000 0.928000 0.837000 600 44 1.000000 0.051000 0.051000 1.200000 0.038000 0.045000
1517193191308137916	600 40 0.900000 0.153000 0.145000 600 38 0.900000 0.882000 0.798000 600 44 1.000000 0.051000 0.051000 1.200000 0.046000 0.055000
1517193191819190624	600 40 0.900000 0.152000 0.144000 600 38 0.900000 0.883000 0.797000 600 44 1.000000 0.051000 0.051000 1.200000 0.039000 0.047000
1517193192329905082	600 40 0.900000 0.086000 0.081000 600 38 0.900000 0.893000 0.806000 600 44 1.000000 0.051000 0.051000 1.200000 0.045000 0.054000
1517193192841107666	600 39 0.900000 0.145000 0.137000 600 38 0.900000 0.728000 0.658000 600 43 1.000000 0.051000 0.051000 1.200000 0.038000 0.045000
1517193193354802916	600 40 0.900000 0.075000 0.071000 600 38 0.900000 0.884000 0.798000 600 44 1.000000 0.051000 0.051000 1.200000 0.045000 0.054000
1517193193866903291	600 39 0.900000 0.106000 0.100000 600 38 0.900000 0.869000 0.784000 600 43 1.000000 0.051000 0.051000 1.200000 0.037000 0.044000
1517193194429922291	600 40 0.900000 0.102000 0.097000 600 38 0.900000 0.917000 0.828000 600 44 1.000000 0.051000 0.051000 1.200000 0.046000 0.055000
1517193194954551666	600 40 0.900000 0.160000 0.152000 600 38 0.900000 0.911000 0.822000 600 43 1.000000 0.051000 0.051000 1.200000 0.039000 0.047000
1517193195517674583	600 40 0.900000 0.152000 0.144000 600 38 0.900000 0.935000 0.844000 600 44 1.000000 0.051000 0.051000 1.200000 0.046000 0.055000
1517193196085822875	600 40 0.900000 0.157000 0.149000 600 38 0.900000 0.837000 0.757000 600 44 1.000000 0.051000 0.051000 1.200000 0.041000 0.049000
1517193196637345458	600 41 0.900000 0.110000 0.104000 600 38 0.900000 0.877000 0.791000 600 44 1.000000 0.051000 0.051000 1.200000 0.043000 0.051000
1517193197150027041	600 40 0.900000 0.120000 0.114000 600 38 0.900000 0.756000 0.684000 600 44 1.000000 0.051000 0.051000 1.200000 0.043000 0.051000
1517193197662044333	600 41 0.900000 0.090000 0.085000 600 38 0.900000 0.894000 0.807000 600 44 1.000000 0.051000 0.051000 1.200000 0.043000 0.051000
1517193198217643875	600 40 0.900000 0.156000 0.148000 600 38 0.900000 0.629000 0.569000 600 44 1.000000 0.051000 0.051000 1.200000 0.040000 0.048000
1517193198755026333	600 41 0.900000 0.150000 0.142000 600 38 0.900000 0.908000 0.819000 600 44 1.000000 0.051000 0.051000 1.200000 0.039000 0.047000
1517193199297532458	600 40 0.900000 0.084000 0.080000 600 38 0.900000 0.907000 0.819000 600 44 1.000000 0.051000 0.051000 1.200000 0.046000 0.055000
1517193199811171167	600 40 0.900000 0.124000 0.118000 600 38 0.900000 0.780000 0.705000 600 44 1.000000 0.051000 0.051000 1.200000 0.037000 0.044000
1517193200369672625	600 40 0.900000 0.070000 0.066000 600 38 0.900000 0.871000 0.788000 600 44 1.000000 0.051000 0.051000 1.200000 0.045000 0.054000
1517193200929612625	600 40 0.900000 0.150000 0.142000 600 38 0.900000 0.871000 0.786000 600 44 1.000000 0.051000 0.051000 1.200000 0.039000 0.047000
1517193201477685125	600 40 0.900000 0.099000 0.094000 600 38 0.900000 0.617000 0.559000 600 44 1.000000 0.051000 0.051000 1.200000 0.045000 0.054000
1517193202029670792	600 41 0.900000 0.130000 0.123000 600 38 0.900000 0.940000 0.848000 600 44 1.000000 0.051000 0.051000 1.200000 0.037000 0.044000
1517193202593962500	600 40 0.900000 0.096000 0.091000 600 38 0.900000 0.690000 0.625000 600 44 1.000000 0.051000 0.051000 1.200000 0.043000 0.051000
1517193203126948875	600 41 0.900000 0.146000 0.138000 600 39 0.900000 0.889000 0.802000 600 44 1.000000 0.051000 0.051000 1.200000 0.039000 0.047000
1517193203689960376	600 40 0.900000 0.099000 0.094000 600 38 0.900000 0.742000 0.671000 600 44 1.000000 0.051000 0.051000 1.200000 0.045000 0.054000
1517193204207607084	600 41 0.900000 0.152000 0.144000 600 39 0.900000 0.872000 0.787000 600 44 1.000000 0.051000 0.051000 1.200000 0.038000 0.045000
1517193204778551959	600 40 0.900000 0.132000 0.125000 600 38 0.900000 0.777000 0.703000 600 44 1.000000 0.051000 0.051000 1.200000 0.045000 0.054000
1517193205289896792	600 41 0.900000 0.148000 0.140000 600 38 0.900000 0.875000 0.790000 600 44 1.000000 0.051000 0.051000 1.200000 0.040000 0.048000
1517193205849684501	600 41 0.900000 0.117000 0.111000 600 38 0.900000 0.814000 0.736000 600 44 1.000000 0.051000 0.051000 1.200000 0.044000 0.053000
1517193206363504917	600 40 0.900000 0.150000 0.142000 600 38 0.900000 0.914000 0.825000 600 44 1.000000 0.051000 0.051000 1.200000 0.040000 0.048000
1517193206878619876	600 40 0.900000 0.084000 0.080000 600 38 0.900000 0.921000 0.831000 600 44 1.000000 0.051000 0.051000 1.200000 0.041000 0.049000
1517193207437903001	600 40 0.900000 0.103000 0.098000 600 38 0.900000 0.940000 0.848000 600 44 1.000000 0.051000 0.051000 1.200000 0.038000 0.045000
1517193207989723543	600 40 0.900000 0.129000 0.122000 600 38 0.900000 0.940000 0.848000 600 44 1.000000 0.051000 0.051000 1.200000 0.039000 0.047000
1517193208541643209	600 41 0.900000 0.158000 0.150000 600 39 0.900000 0.915000 0.826000 600 44 1.000000 0.051000 0.051000 1.200000 0.039000 0.047000
1517193209105949084	600 40 0.900000 0.132000 0.125000 600 38 0.900000 0.577000 0.523000 600 44 1.000000 0.051000 0.051000 1.200000 0.047000 0.056000
1517193209619762460	600 40 0.900000 0.151000 0.143000 600 38 0.900000 0.911000 0.822000 600 44 1.000000 0.051000 0.051000 1.200000 0.039000 0.047000
1517193210145638793	600 39 0.900000 0.074000 0.070000 600 38 0.900000 0.426000 0.386000 600 43 1.000000 0.051000 0.051000 1.200000 0.046000 0.055000
1517193210659256335	600 40 0.900000 0.125000 0.119000 600 38 0.900000 0.840000 0.760000 600 44 1.000000 0.051000 0.051000 1.200000 0.033000 0.039000
1517193211170489210	600 40 0.900000 0.066000 0.062000 600 38 0.900000 0.840000 0.758000 600 44 1.000000 0.051000 0.051000 1.200000 0.034000 0.041000
1517193211716088293	600 40 0.900000 0.084000 0.080000 600 38 0.900000 0.632000 0.573000 600 44 1.000000 0.051000 0.051000 1.200000 0.043000 0.051000
1517193212227092085	600 40 0.900000 0.149000 0.141000 600 38 0.900000 0.875000 0.790000 600 44 1.000000 0.051000 0.051000 1.200000 0.038000 0.045000
1517193212770265960	600 40 0.900000 0.105000 0.099000 600 38 0.900000 0.606000 0.549000 600 44 1.000000 0.051000 0.051000 1.200000 0.044000 0.053000
1517193213281224085	600 40 0.900000 0.159000 0.151000 600 38 0.900000 0.915000 0.826000 600 44 1.000000 0.051000 0.051000 1.200000 0.038000 0.045000
1517193213822103918	600 40 0.900000 0.127000 0.120000 600 38 0.900000 0.678000 0.614000 600 44 1.000000 0.051000 0.051000 1.200000 0.043000 0.051000
1517193214334425168	600 40 0.900000 0.150000 0.142000 600 39 0.900000 0.952000 0.859000 600 44 1.000000 0.051000 0.051000 1.200000 0.038000 0.045000
1517193214876425252	600 40 0.900000 0.140000 0.133000 600 38 0.900000 0.674000 0.610000 600 44 1.000000 0.051000 0.051000 1.200000 0.044000 0.053000
1517193215388237710	600 41 0.900000 0.149000 0.141000 600 38 0.900000 0.941000 0.849000 600 44 1.000000 0.051000 0.051000 1.200000 0.038000 0.045000
1517193215920798044	600 41 0.900000 0.158000 0.150000 600 38 0.900000 0.749000 0.677000 600 44 1.000000 0.051000 0.051000 1.200000 0.042000 0.050000
1517193216433003419	600 40 0.900000 0.159000 0.151000 600 38 0.900000 0.929000 0.837000 600 44 1.000000 0.051000 0.051000 1.200000 0.037000 0.044000
1517193216977123419	600 40 0.900000 0.079000 0.075000 600 38 0.900000 0.759000 0.686000 600 44 1.000000 0.051000 0.051000 1.200000 0.041000 0.049000
1517193217487625002	600 40 0.900000 0.151000 0.143000 600 39 0.900000 0.947000 0.855000 600 45 1.000000 0.051000 0.051000 1.200000 0.039000 0.047000
1517193218030065336	600 41 0.900000 0.091000 0.086000 600 39 0.900000 0.782000 0.707000 600 44 1.000000 0.051000 0.051000 1.200000 0.040000 0.048000
1517193218548364877	600 41 0.900000 0.147000 0.139000 600 39 0.900000 0.933000 0.842000 600 45 1.000000 0.051000 0.051000 1.200000 0.038000 0.045000
1517193219059309752	600 38 0.900000 0.027000 0.025000 600 38 0.900000 0.188000 0.171000 600 42 1.000000 0.051000 0.051000 1.200000 0.023000 0.027000
1517193219570188669	600 37 0.900000 0.025000 0.023000 600 37 0.900000 0.072000 0.065000 600 41 1.000000 0.051000 0.051000 1.200000 0.022000 0.026000
