#Timestamp	CPU(0) Frequency(MHz)	CPU(0) Temperature(C)	A7 Voltage(V)	A7 Current(A)	A7 Power(W)	CPU(4) Frequency(MHz)	CPU(4) Temperature(C)	A15 Voltage(V)	A15 Current(A)	A15 Power(W)	GPU Frequency(MHz)	GPU Temperature(C)	GPU Voltage(V)	GPU Current(A)	GPU Power(W)	RAM Voltage(V)	RAM Current(A)	RAM Power(W)
1517162297459215191	900 39 1.000000 0.048000 0.051000 1800 36 1.200000 1.202000 1.452000 600 43 1.000000 0.052000 0.052000 1.200000 0.041000 0.049000
1517162297965053108	900 42 1.000000 0.050000 0.053000 1800 37 1.200000 1.243000 1.501000 600 43 1.000000 0.052000 0.052000 1.200000 0.036000 0.043000
1517162298471227775	900 47 1.000000 0.050000 0.053000 1800 38 1.200000 1.232000 1.488000 600 43 1.000000 0.052000 0.052000 1.200000 0.039000 0.047000
1517162298977239316	900 48 1.000000 0.042000 0.044000 1800 39 1.200000 1.490000 1.802000 600 44 1.000000 0.053000 0.053000 1.200000 0.054000 0.065000
1517162299483041358	900 49 1.000000 0.042000 0.044000 1800 40 1.200000 1.538000 1.860000 600 44 1.000000 0.052000 0.052000 1.200000 0.057000 0.068000
1517162299989121858	900 49 1.000000 0.042000 0.044000 1800 40 1.200000 1.546000 1.870000 600 44 1.000000 0.052000 0.052000 1.200000 0.056000 0.067000
1517162300494984442	900 50 1.000000 0.042000 0.044000 1800 41 1.200000 1.543000 1.867000 600 45 1.000000 0.053000 0.053000 1.200000 0.055000 0.066000
1517162301001035233	900 50 1.000000 0.042000 0.044000 1800 41 1.200000 1.562000 1.890000 600 45 1.000000 0.053000 0.053000 1.200000 0.054000 0.065000
1517162301506976942	900 50 1.000000 0.043000 0.045000 1800 41 1.200000 1.548000 1.873000 600 45 1.000000 0.053000 0.053000 1.200000 0.054000 0.065000
1517162302019486067	900 48 1.000000 0.043000 0.045000 1800 41 1.200000 1.529000 1.850000 600 46 1.000000 0.053000 0.053000 1.200000 0.055000 0.066000
1517162302533731150	900 49 1.000000 0.174000 0.184000 1800 42 1.200000 3.662000 4.467000 600 54 1.000000 0.053000 0.053000 1.200000 0.143000 0.173000
1517162303041402317	900 45 1.000000 0.220000 0.232000 1800 42 1.200000 2.465000 2.994000 600 54 1.000000 0.053000 0.053000 1.200000 0.247000 0.301000
1517162303589660650	900 54 1.000000 0.226000 0.239000 1800 44 1.200000 2.868000 3.490000 600 59 1.000000 0.053000 0.053000 1.200000 0.229000 0.278000
1517162304161677567	900 56 1.000000 0.305000 0.319000 1800 46 1.200000 3.394000 4.140000 600 62 1.000000 0.053000 0.053000 1.200000 0.242000 0.294000
1517162304709648192	900 57 1.000000 0.305000 0.319000 1800 47 1.200000 3.460000 4.214000 600 63 1.000000 0.053000 0.053000 1.200000 0.234000 0.284000
1517162305269467525	900 59 1.000000 0.308000 0.322000 1800 48 1.200000 3.491000 4.259000 600 65 1.000000 0.054000 0.054000 1.200000 0.229000 0.278000
1517162305813474359	900 60 1.000000 0.310000 0.324000 1800 49 1.200000 3.621000 4.417000 600 66 1.000000 0.054000 0.054000 1.200000 0.212000 0.257000
1517162306361427442	900 61 1.000000 0.308000 0.322000 1800 50 1.200000 3.612000 4.406000 600 68 1.000000 0.054000 0.054000 1.200000 0.208000 0.252000
1517162306913465234	900 62 1.000000 0.303000 0.317000 1800 51 1.200000 3.770000 4.603000 600 68 1.000000 0.054000 0.054000 1.200000 0.208000 0.252000
1517162307457461859	900 63 1.000000 0.314000 0.328000 1800 52 1.200000 3.737000 4.562000 600 70 1.000000 0.055000 0.055000 1.200000 0.192000 0.233000
1517162308013575401	900 65 1.000000 0.324000 0.339000 1800 52 1.200000 3.696000 4.512000 600 70 1.000000 0.054000 0.054000 1.200000 0.210000 0.255000
1517162308541068276	900 65 1.000000 0.315000 0.329000 1800 53 1.200000 3.974000 4.856000 600 71 1.000000 0.055000 0.055000 1.200000 0.203000 0.246000
1517162309085264693	900 66 1.000000 0.328000 0.343000 1800 53 1.200000 4.046000 4.944000 600 73 1.000000 0.055000 0.055000 1.200000 0.164000 0.199000
1517162309592388151	900 67 1.000000 0.319000 0.334000 1800 54 1.200000 3.669000 4.479000 600 72 1.000000 0.055000 0.055000 1.200000 0.132000 0.159000
1517162310098067026	900 62 1.000000 0.265000 0.278000 1800 52 1.200000 1.848000 2.237000 600 61 1.000000 0.055000 0.055000 1.200000 0.071000 0.085000
1517162310603733193	900 62 1.000000 0.269000 0.282000 1800 51 1.200000 1.529000 1.847000 600 57 1.000000 0.055000 0.055000 1.200000 0.067000 0.081000
1517162311109096651	900 50 1.000000 0.203000 0.215000 1800 48 1.200000 1.185000 1.430000 600 53 1.000000 0.055000 0.055000 1.200000 0.047000 0.056000
1517162311614023443	900 48 1.000000 0.188000 0.199000 1800 46 1.200000 0.348000 0.418000 600 51 1.000000 0.054000 0.054000 1.200000 0.034000 0.041000
1517162312137611235	900 51 1.000000 0.127000 0.134000 1800 45 1.200000 0.306000 0.368000 600 53 1.000000 0.054000 0.054000 1.200000 0.025000 0.030000
1517162312697393110	900 58 1.000000 0.312000 0.326000 1800 48 1.200000 3.373000 4.115000 600 63 1.000000 0.054000 0.054000 1.200000 0.111000 0.134000
1517162313253380526	900 61 1.000000 0.313000 0.327000 1800 50 1.200000 3.974000 4.856000 600 67 1.000000 0.054000 0.054000 1.200000 0.189000 0.229000
1517162313805450526	900 63 1.000000 0.316000 0.330000 1800 51 1.200000 3.923000 4.789000 600 68 1.000000 0.054000 0.054000 1.200000 0.185000 0.224000
1517162314373438527	900 64 1.000000 0.312000 0.326000 1800 52 1.200000 3.780000 4.615000 600 71 1.000000 0.054000 0.054000 1.200000 0.177000 0.215000
1517162314933408027	900 64 1.000000 0.324000 0.339000 1800 53 1.200000 3.841000 4.693000 600 71 1.000000 0.055000 0.055000 1.200000 0.187000 0.227000
1517162315460727443	900 66 1.000000 0.328000 0.343000 1800 54 1.200000 3.918000 4.787000 600 72 1.000000 0.055000 0.055000 1.200000 0.171000 0.207000
1517162316017370568	900 67 1.000000 0.330000 0.345000 1800 54 1.200000 4.022000 4.914000 600 74 1.000000 0.055000 0.055000 1.200000 0.174000 0.211000
1517162316569426943	900 67 1.000000 0.332000 0.347000 1800 55 1.200000 3.941000 4.811000 600 73 1.000000 0.055000 0.055000 1.200000 0.145000 0.175000
1517162317125309235	900 68 1.000000 0.342000 0.358000 1800 55 1.200000 3.969000 4.846000 600 73 1.000000 0.055000 0.055000 1.200000 0.163000 0.198000
1517162317669329652	900 69 1.000000 0.349000 0.365000 1800 56 1.200000 4.053000 4.952000 600 75 1.000000 0.055000 0.055000 1.200000 0.149000 0.180000
1517162318225334944	900 68 1.000000 0.335000 0.350000 1800 56 1.200000 4.027000 4.920000 600 76 1.000000 0.055000 0.055000 1.200000 0.149000 0.181000
1517162318769247610	900 68 1.000000 0.334000 0.349000 1800 56 1.200000 3.894000 4.754000 600 77 1.000000 0.055000 0.055000 1.200000 0.163000 0.198000
1517162319312105902	900 69 1.000000 0.346000 0.362000 1800 56 1.200000 4.076000 4.980000 600 78 1.000000 0.055000 0.055000 1.200000 0.157000 0.190000
1517162319877261152	900 70 1.000000 0.326000 0.341000 1800 57 1.200000 4.285000 5.240000 600 79 1.000000 0.056000 0.056000 1.200000 0.129000 0.156000
1517162320429228944	900 71 1.000000 0.321000 0.336000 1800 57 1.200000 4.184000 5.117000 600 79 1.000000 0.056000 0.056000 1.200000 0.140000 0.169000
1517162320981461027	900 71 1.000000 0.330000 0.345000 1800 58 1.200000 4.210000 5.148000 600 77 1.000000 0.056000 0.056000 1.200000 0.149000 0.181000
1517162321545257527	900 72 1.000000 0.331000 0.346000 1800 58 1.200000 4.264000 5.214000 600 79 1.000000 0.056000 0.056000 1.200000 0.149000 0.180000
1517162322097310111	900 70 1.000000 0.340000 0.355000 1800 58 1.200000 4.071000 4.974000 600 77 1.000000 0.056000 0.056000 1.200000 0.145000 0.175000
1517162322649353444	900 70 1.000000 0.330000 0.345000 1800 58 1.200000 4.254000 5.202000 600 78 1.000000 0.056000 0.056000 1.200000 0.137000 0.166000
1517162323201181486	900 71 1.000000 0.337000 0.352000 1800 58 1.200000 4.219000 5.159000 600 79 1.000000 0.056000 0.056000 1.200000 0.147000 0.178000
1517162323753511903	900 70 1.000000 0.338000 0.353000 1800 58 1.200000 4.044000 4.941000 600 79 1.000000 0.056000 0.056000 1.200000 0.138000 0.167000
1517162324317286153	900 72 1.000000 0.340000 0.355000 1800 58 1.200000 4.087000 4.998000 600 80 1.000000 0.056000 0.056000 1.200000 0.151000 0.183000
1517162324881448736	900 72 1.000000 0.341000 0.357000 1800 59 1.200000 4.136000 5.058000 600 79 1.000000 0.056000 0.056000 1.200000 0.141000 0.171000
1517162325433459361	900 72 1.000000 0.324000 0.339000 1800 59 1.200000 4.177000 5.108000 600 79 1.000000 0.056000 0.056000 1.200000 0.128000 0.155000
1517162325997390570	900 72 1.000000 0.334000 0.349000 1800 59 1.200000 4.125000 5.044000 600 80 1.000000 0.057000 0.057000 1.200000 0.145000 0.175000
1517162326541463903	900 71 1.000000 0.335000 0.350000 1800 59 1.200000 3.901000 4.767000 600 78 1.000000 0.057000 0.057000 1.200000 0.195000 0.237000
1517162327109325528	900 71 1.000000 0.338000 0.353000 1800 59 1.200000 4.095000 5.008000 600 80 1.000000 0.057000 0.057000 1.200000 0.145000 0.175000
1517162327665323528	900 71 1.000000 0.340000 0.355000 1800 59 1.200000 4.001000 4.889000 600 80 1.000000 0.056000 0.056000 1.200000 0.167000 0.203000
1517162328209428653	900 72 1.000000 0.343000 0.359000 1800 59 1.200000 4.074000 4.978000 600 80 1.000000 0.057000 0.057000 1.200000 0.141000 0.171000
1517162328761410612	900 73 1.000000 0.342000 0.358000 1800 60 1.200000 4.088000 4.999000 600 80 1.000000 0.057000 0.057000 1.200000 0.158000 0.191000
1517162329321462820	900 71 1.000000 0.346000 0.362000 1800 60 1.200000 4.173000 5.103000 600 81 1.000000 0.057000 0.057000 1.200000 0.154000 0.186000
1517162329881529820	900 72 1.000000 0.353000 0.369000 1800 60 1.200000 3.990000 4.875000 600 81 1.000000 0.057000 0.057000 1.200000 0.148000 0.179000
1517162330429352820	900 72 1.000000 0.349000 0.365000 1800 60 1.200000 4.138000 5.060000 600 81 1.000000 0.057000 0.057000 1.200000 0.150000 0.181000
1517162330989272820	900 72 1.000000 0.357000 0.373000 1800 60 1.200000 3.983000 4.867000 600 81 1.000000 0.057000 0.057000 1.200000 0.136000 0.164000
1517162331545424237	900 72 1.000000 0.359000 0.375000 1800 60 1.200000 4.277000 5.239000 600 82 1.000000 0.057000 0.057000 1.200000 0.124000 0.150000
1517162332105226529	900 73 1.000000 0.348000 0.364000 1800 60 1.200000 4.171000 5.101000 600 82 1.000000 0.057000 0.057000 1.200000 0.137000 0.166000
1517162332657368612	900 74 1.000000 0.350000 0.366000 1800 60 1.200000 4.290000 5.255000 600 83 1.000000 0.057000 0.057000 1.200000 0.124000 0.150000
1517162333217238987	900 75 1.000000 0.345000 0.361000 1800 61 1.200000 4.388000 5.375000 600 83 1.000000 0.057000 0.057000 1.200000 0.108000 0.130000
1517162333773212029	900 73 1.000000 0.349000 0.365000 1800 61 1.200000 4.402000 5.392000 600 83 1.000000 0.057000 0.057000 1.200000 0.128000 0.155000
1517162334341378196	900 74 1.000000 0.355000 0.371000 1800 61 1.200000 4.412000 5.395000 600 84 1.000000 0.057000 0.057000 1.200000 0.101000 0.122000
1517162334897346821	900 75 1.000000 0.356000 0.372000 1800 61 1.200000 4.480000 5.479000 600 83 1.000000 0.057000 0.057000 1.200000 0.128000 0.155000
1517162335453433862	900 75 1.000000 0.356000 0.372000 1800 61 1.200000 4.357000 5.328000 600 84 1.000000 0.057000 0.057000 1.200000 0.113000 0.136000
1517162336005252071	900 75 1.000000 0.358000 0.374000 1800 61 1.200000 4.465000 5.469000 600 84 1.000000 0.057000 0.057000 1.200000 0.098000 0.118000
1517162336557272654	900 75 1.000000 0.364000 0.380000 1800 61 1.200000 4.466000 5.470000 600 84 1.000000 0.057000 0.057000 1.200000 0.091000 0.110000
1517162337109252029	900 75 1.000000 0.359000 0.375000 1800 62 1.200000 4.365000 5.338000 600 84 1.000000 0.057000 0.057000 1.200000 0.131000 0.158000
1517162337669260029	900 76 1.000000 0.348000 0.364000 1800 62 1.200000 4.355000 5.334000 600 84 1.000000 0.057000 0.057000 1.200000 0.114000 0.138000
1517162338221168571	900 76 1.000000 0.346000 0.362000 1800 62 1.200000 4.437000 5.435000 600 84 1.000000 0.057000 0.057000 1.200000 0.113000 0.136000
1517162338777320529	900 76 1.000000 0.354000 0.370000 1800 62 1.200000 4.478000 5.485000 600 85 1.000000 0.057000 0.057000 1.200000 0.104000 0.125000
1517162339333211571	900 76 1.000000 0.360000 0.376000 1800 62 1.200000 4.527000 5.545000 600 85 1.000000 0.057000 0.057000 1.200000 0.087000 0.105000
1517162339893234446	900 76 1.000000 0.359000 0.375000 1800 62 1.200000 4.462000 5.465000 600 82 1.000000 0.057000 0.057000 1.200000 0.111000 0.134000
1517162340433426238	900 77 1.000000 0.361000 0.377000 1800 62 1.200000 4.351000 5.329000 600 82 1.000000 0.057000 0.057000 1.200000 0.103000 0.124000
1517162341001248488	900 77 1.000000 0.364000 0.380000 1800 63 1.200000 4.330000 5.304000 600 83 1.000000 0.057000 0.057000 1.200000 0.123000 0.149000
1517162341561206530	900 77 1.000000 0.349000 0.365000 1800 62 1.200000 4.360000 5.341000 600 82 1.000000 0.058000 0.058000 1.200000 0.126000 0.152000
1517162342117538697	900 76 1.000000 0.343000 0.359000 1800 63 1.200000 4.397000 5.386000 600 83 1.000000 0.057000 0.057000 1.200000 0.122000 0.147000
1517162342677313530	900 77 1.000000 0.342000 0.358000 1800 63 1.200000 4.221000 5.162000 600 84 1.000000 0.058000 0.058000 1.200000 0.129000 0.156000
1517162343229249197	900 77 1.000000 0.347000 0.363000 1800 63 1.200000 4.424000 5.419000 600 85 1.000000 0.058000 0.058000 1.200000 0.113000 0.136000
1517162343765355572	900 76 1.000000 0.348000 0.364000 1800 63 1.200000 4.381000 5.366000 600 82 1.000000 0.058000 0.058000 1.200000 0.120000 0.145000
1517162344321309280	900 76 1.000000 0.352000 0.368000 1800 63 1.200000 4.325000 5.289000 600 83 1.000000 0.058000 0.058000 1.200000 0.116000 0.140000
1517162344885319822	900 76 1.000000 0.353000 0.369000 1800 63 1.200000 4.168000 5.093000 600 82 1.000000 0.058000 0.058000 1.200000 0.136000 0.164000
1517162345445258864	900 77 1.000000 0.351000 0.367000 1800 63 1.200000 4.183000 5.115000 600 84 1.000000 0.058000 0.058000 1.200000 0.137000 0.166000
1517162346001256489	900 77 1.000000 0.353000 0.369000 1800 63 1.200000 4.333000 5.307000 600 84 1.000000 0.058000 0.058000 1.200000 0.136000 0.164000
1517162346565262030	900 77 1.000000 0.362000 0.378000 1800 63 1.200000 4.367000 5.349000 600 83 1.000000 0.058000 0.058000 1.200000 0.120000 0.145000
1517162347125354155	900 77 1.000000 0.359000 0.375000 1800 63 1.200000 4.280000 5.234000 600 83 1.000000 0.058000 0.058000 1.200000 0.112000 0.135000
1517162347681325572	900 78 1.000000 0.360000 0.376000 1800 63 1.200000 4.384000 5.370000 600 84 1.000000 0.058000 0.058000 1.200000 0.113000 0.136000
1517162348225304239	900 77 1.000000 0.364000 0.381000 1800 63 1.200000 4.326000 5.290000 600 83 1.000000 0.058000 0.058000 1.200000 0.104000 0.125000
1517162348777299406	900 78 1.000000 0.353000 0.369000 1800 63 1.200000 4.471000 5.476000 600 85 1.000000 0.058000 0.058000 1.200000 0.098000 0.118000
1517162349317450697	900 77 1.000000 0.351000 0.367000 1800 63 1.200000 4.483000 5.491000 600 84 1.000000 0.058000 0.058000 1.200000 0.118000 0.143000
1517162349869282781	900 78 1.000000 0.339000 0.354000 1800 63 1.200000 4.327000 5.291000 600 84 1.000000 0.058000 0.058000 1.200000 0.128000 0.155000
1517162350425417323	900 78 1.000000 0.340000 0.355000 1800 63 1.200000 4.538000 5.559000 600 85 1.000000 0.058000 0.058000 1.200000 0.106000 0.128000
1517162350981221114	900 78 1.000000 0.351000 0.367000 1800 64 1.200000 4.505000 5.518000 600 85 1.000000 0.058000 0.058000 1.200000 0.103000 0.124000
1517162351541444531	900 77 1.000000 0.327000 0.342000 1700 63 1.100000 4.264000 5.108000 600 85 1.000000 0.058000 0.058000 1.200000 0.119000 0.144000
1517162352109381698	900 75 1.000000 0.338000 0.353000 1700 63 1.100000 3.861000 4.536000 600 82 1.000000 0.058000 0.058000 1.200000 0.127000 0.153000
1517162352665286448	900 75 1.000000 0.335000 0.350000 1700 63 1.100000 3.934000 4.661000 600 82 1.000000 0.058000 0.058000 1.200000 0.135000 0.163000
1517162353213245240	900 75 1.000000 0.341000 0.357000 1700 62 1.100000 4.051000 4.800000 600 82 1.000000 0.058000 0.058000 1.200000 0.108000 0.130000
1517162353765237823	900 75 1.000000 0.345000 0.361000 1700 62 1.100000 4.041000 4.788000 600 82 1.000000 0.058000 0.058000 1.200000 0.107000 0.129000
1517162354325234240	900 75 1.000000 0.348000 0.364000 1700 62 1.100000 4.078000 4.832000 600 82 1.000000 0.058000 0.058000 1.200000 0.100000 0.121000
1517162354881291448	900 75 1.000000 0.345000 0.361000 1700 62 1.100000 4.083000 4.838000 600 82 1.000000 0.057000 0.057000 1.200000 0.094000 0.113000
1517162355437178656	900 75 1.000000 0.349000 0.365000 1700 62 1.100000 4.091000 4.847000 600 82 1.000000 0.057000 0.057000 1.200000 0.089000 0.107000
1517162355997354032	900 73 1.000000 0.338000 0.353000 1700 62 1.100000 4.099000 4.857000 600 82 1.000000 0.057000 0.057000 1.200000 0.090000 0.108000
1517162356565243823	900 73 1.000000 0.342000 0.358000 1700 62 1.100000 3.965000 4.698000 600 82 1.000000 0.057000 0.057000 1.200000 0.127000 0.154000
1517162357117384240	900 73 1.000000 0.343000 0.359000 1700 62 1.100000 4.094000 4.851000 600 82 1.000000 0.057000 0.057000 1.200000 0.094000 0.113000
1517162357669258323	900 74 1.000000 0.340000 0.355000 1800 62 1.100000 4.094000 4.851000 600 81 1.000000 0.058000 0.058000 1.200000 0.094000 0.113000
1517162358217299615	900 76 1.000000 0.345000 0.361000 1800 62 1.200000 4.407000 5.398000 600 83 1.000000 0.057000 0.057000 1.200000 0.128000 0.155000
1517162358765225657	900 77 1.000000 0.346000 0.362000 1800 63 1.200000 4.478000 5.485000 600 84 1.000000 0.058000 0.058000 1.200000 0.107000 0.129000
1517162359317267615	900 76 1.000000 0.345000 0.361000 1800 63 1.100000 4.006000 4.779000 600 83 1.000000 0.058000 0.058000 1.200000 0.110000 0.133000
1517162359869293990	900 76 1.000000 0.355000 0.371000 1800 63 1.200000 4.290000 5.246000 600 84 1.000000 0.058000 0.058000 1.200000 0.113000 0.136000
1517162360417300157	900 77 1.000000 0.344000 0.360000 1800 63 1.200000 4.305000 5.273000 600 85 1.000000 0.058000 0.058000 1.200000 0.150000 0.181000
1517162360953231949	900 76 1.000000 0.354000 0.370000 1700 63 1.200000 4.258000 5.181000 600 83 1.000000 0.057000 0.057000 1.200000 0.132000 0.160000
1517162361509354907	900 75 1.000000 0.351000 0.367000 1700 63 1.200000 4.118000 5.003000 600 83 1.000000 0.058000 0.058000 1.200000 0.118000 0.143000
1517162362065235991	900 76 1.000000 0.356000 0.372000 1700 63 1.200000 4.402000 5.392000 600 84 1.000000 0.058000 0.058000 1.200000 0.117000 0.141000
1517162362617307907	900 76 1.000000 0.362000 0.379000 1700 63 1.100000 4.163000 4.987000 600 84 1.000000 0.058000 0.058000 1.200000 0.099000 0.119000
1517162363165594574	900 77 1.000000 0.356000 0.372000 1800 63 1.200000 4.123000 4.955000 600 83 1.000000 0.058000 0.058000 1.200000 0.095000 0.115000
1517162363725268657	900 77 1.000000 0.358000 0.374000 1800 63 1.200000 4.303000 5.271000 600 83 1.000000 0.058000 0.058000 1.200000 0.121000 0.146000
1517162364277324282	900 76 1.000000 0.359000 0.375000 1700 63 1.200000 4.363000 5.344000 600 83 1.000000 0.058000 0.058000 1.200000 0.109000 0.132000
1517162364829251658	900 76 1.000000 0.357000 0.373000 1700 63 1.200000 4.154000 4.993000 600 84 1.000000 0.058000 0.058000 1.200000 0.108000 0.130000
1517162365377302074	900 76 1.000000 0.363000 0.380000 1700 63 1.200000 4.246000 5.116000 600 83 1.000000 0.058000 0.058000 1.200000 0.100000 0.121000
1517162365925439449	900 75 1.000000 0.356000 0.372000 1800 63 1.200000 4.196000 5.064000 600 84 1.000000 0.058000 0.058000 1.200000 0.120000 0.145000
1517162366477402616	900 77 1.000000 0.366000 0.383000 1800 63 1.200000 3.995000 4.881000 600 84 1.000000 0.058000 0.058000 1.200000 0.164000 0.199000
1517162367029391408	900 76 1.000000 0.367000 0.383000 1800 63 1.200000 4.241000 5.186000 600 84 1.000000 0.058000 0.058000 1.200000 0.141000 0.171000
1517162367585299241	900 76 1.000000 0.367000 0.384000 1800 63 1.200000 4.206000 5.131000 600 84 1.000000 0.058000 0.058000 1.200000 0.126000 0.152000
1517162368141331450	900 76 1.000000 0.357000 0.373000 1800 63 1.200000 4.288000 5.239000 600 85 1.000000 0.058000 0.058000 1.200000 0.130000 0.157000
1517162368693583283	900 75 1.000000 0.353000 0.369000 1700 63 1.200000 4.242000 5.187000 600 84 1.000000 0.058000 0.058000 1.200000 0.141000 0.171000
1517162369265505866	900 75 1.000000 0.363000 0.380000 1800 63 1.200000 4.206000 5.122000 600 83 1.000000 0.058000 0.058000 1.200000 0.118000 0.143000
1517162369825418325	900 76 1.000000 0.338000 0.353000 1800 63 1.200000 4.270000 5.196000 600 84 1.000000 0.058000 0.058000 1.200000 0.130000 0.157000
1517162370381300617	900 77 1.000000 0.344000 0.360000 1800 63 1.200000 4.311000 5.237000 600 85 1.000000 0.058000 0.058000 1.200000 0.116000 0.140000
1517162370933291742	900 77 1.000000 0.349000 0.365000 1800 63 1.200000 4.328000 5.245000 600 85 1.000000 0.058000 0.058000 1.200000 0.107000 0.129000
1517162371481529200	900 78 1.000000 0.348000 0.364000 1800 64 1.200000 4.323000 5.295000 600 84 1.000000 0.058000 0.058000 1.200000 0.134000 0.162000
1517162372049395325	900 77 1.000000 0.353000 0.369000 1800 63 1.200000 4.166000 5.028000 600 84 1.000000 0.058000 0.058000 1.200000 0.122000 0.147000
1517162372613292283	900 77 1.000000 0.350000 0.366000 1700 64 1.200000 4.197000 5.057000 600 84 1.000000 0.058000 0.058000 1.200000 0.120000 0.145000
1517162373161272450	900 76 1.000000 0.341000 0.357000 1800 63 1.200000 4.271000 5.133000 600 85 1.000000 0.058000 0.058000 1.200000 0.109000 0.131000
1517162373705247409	900 77 1.000000 0.358000 0.374000 1800 63 1.200000 4.274000 5.235000 600 85 1.000000 0.058000 0.058000 1.200000 0.128000 0.155000
1517162374265331909	900 76 1.000000 0.341000 0.357000 1800 63 1.100000 4.194000 5.016000 600 84 1.000000 0.058000 0.058000 1.200000 0.118000 0.143000
1517162374825473159	900 77 1.000000 0.345000 0.361000 1800 63 1.100000 4.096000 4.882000 600 85 1.000000 0.058000 0.058000 1.200000 0.133000 0.161000
1517162375393372950	900 78 1.000000 0.355000 0.371000 1800 64 1.100000 4.118000 4.908000 600 86 1.000000 0.058000 0.058000 1.200000 0.107000 0.129000
1517162375953293201	900 75 1.000000 0.347000 0.363000 1700 63 1.100000 3.743000 4.311000 600 83 1.000000 0.058000 0.058000 1.200000 0.114000 0.138000
1517162376493323951	900 75 1.000000 0.336000 0.351000 1700 63 1.100000 4.063000 4.814000 600 83 1.000000 0.058000 0.058000 1.200000 0.118000 0.143000
1517162377057412909	900 75 1.000000 0.349000 0.365000 1700 63 1.100000 4.076000 4.830000 600 83 1.000000 0.058000 0.058000 1.200000 0.107000 0.129000
1517162377609175534	900 75 1.000000 0.338000 0.353000 1700 63 1.100000 3.967000 4.700000 600 83 1.000000 0.058000 0.058000 1.200000 0.116000 0.140000
1517162378173243784	900 75 1.000000 0.354000 0.370000 1700 63 1.100000 4.143000 4.913000 600 82 1.000000 0.058000 0.058000 1.200000 0.104000 0.126000
1517162378737486076	900 75 1.000000 0.359000 0.375000 1700 63 1.100000 4.037000 4.783000 600 83 1.000000 0.058000 0.058000 1.200000 0.110000 0.133000
1517162379297287451	900 77 1.000000 0.356000 0.372000 1800 63 1.200000 4.272000 5.134000 600 85 1.000000 0.058000 0.058000 1.200000 0.109000 0.132000
1517162379853443243	900 75 1.000000 0.359000 0.375000 1700 63 1.100000 4.229000 5.024000 600 82 1.000000 0.058000 0.058000 1.200000 0.081000 0.098000
1517162380409165534	900 75 1.000000 0.363000 0.380000 1700 63 1.100000 4.071000 4.824000 600 83 1.000000 0.057000 0.057000 1.200000 0.090000 0.108000
1517162380961267743	900 75 1.000000 0.354000 0.370000 1700 63 1.100000 4.061000 4.812000 600 83 1.000000 0.058000 0.058000 1.200000 0.100000 0.121000
1517162381525344201	900 75 1.000000 0.358000 0.374000 1700 63 1.100000 4.131000 4.895000 600 83 1.000000 0.058000 0.058000 1.200000 0.081000 0.098000
1517162382061313951	900 75 1.000000 0.363000 0.379000 1700 63 1.100000 4.068000 4.820000 600 83 1.000000 0.058000 0.058000 1.200000 0.095000 0.115000
1517162382609302201	900 75 1.000000 0.355000 0.371000 1700 63 1.100000 4.115000 4.880000 600 83 1.000000 0.058000 0.058000 1.200000 0.086000 0.104000
1517162383161355951	900 76 1.000000 0.355000 0.371000 1700 63 1.100000 4.094000 4.855000 600 83 1.000000 0.058000 0.058000 1.200000 0.081000 0.098000
1517162383713237785	900 75 1.000000 0.361000 0.377000 1700 63 1.100000 4.082000 4.837000 600 83 1.000000 0.058000 0.058000 1.200000 0.089000 0.107000
1517162384269258827	900 75 1.000000 0.358000 0.374000 1700 63 1.100000 4.133000 4.897000 600 83 1.000000 0.058000 0.058000 1.200000 0.086000 0.104000
1517162384829274118	900 75 1.000000 0.366000 0.382000 1700 63 1.100000 4.118000 4.883000 600 83 1.000000 0.058000 0.058000 1.200000 0.092000 0.111000
1517162385385137577	900 75 1.000000 0.363000 0.379000 1700 63 1.100000 4.107000 4.866000 600 83 1.000000 0.058000 0.058000 1.200000 0.076000 0.091000
1517162385929399702	900 75 1.000000 0.356000 0.372000 1700 63 1.100000 4.163000 4.937000 600 83 1.000000 0.058000 0.058000 1.200000 0.070000 0.084000
1517162386485199202	900 75 1.000000 0.359000 0.375000 1700 63 1.100000 4.077000 4.835000 600 83 1.000000 0.058000 0.058000 1.200000 0.088000 0.106000
1517162387033226077	900 75 1.000000 0.368000 0.384000 1700 63 1.100000 4.173000 4.949000 600 83 1.000000 0.058000 0.058000 1.200000 0.066000 0.079000
1517162387585267702	900 75 1.000000 0.356000 0.372000 1700 63 1.100000 3.988000 4.725000 600 83 1.000000 0.058000 0.058000 1.200000 0.108000 0.130000
1517162388137191744	900 75 1.000000 0.365000 0.381000 1700 63 1.100000 4.074000 4.827000 600 82 1.000000 0.058000 0.058000 1.200000 0.102000 0.123000
1517162388689194619	900 75 1.000000 0.373000 0.390000 1700 63 1.100000 4.058000 4.808000 600 83 1.000000 0.058000 0.058000 1.200000 0.085000 0.102000
1517162389253359910	900 75 1.000000 0.364000 0.381000 1700 63 1.100000 4.037000 4.783000 600 83 1.000000 0.058000 0.058000 1.200000 0.075000 0.090000
1517162389809288286	900 75 1.000000 0.358000 0.374000 1700 63 1.100000 4.080000 4.834000 600 83 1.000000 0.057000 0.057000 1.200000 0.097000 0.117000
1517162390369333744	900 75 1.000000 0.374000 0.391000 1700 63 1.100000 4.033000 4.779000 600 83 1.000000 0.058000 0.058000 1.200000 0.081000 0.098000
1517162390921130786	900 75 1.000000 0.362000 0.378000 1700 63 1.100000 4.071000 4.824000 600 83 1.000000 0.058000 0.058000 1.200000 0.088000 0.106000
1517162391477166536	900 75 1.000000 0.373000 0.390000 1700 63 1.100000 4.086000 4.841000 600 83 1.000000 0.058000 0.058000 1.200000 0.071000 0.085000
1517162392037252952	900 75 1.000000 0.358000 0.374000 1700 63 1.100000 4.116000 4.877000 600 83 1.000000 0.058000 0.058000 1.200000 0.066000 0.079000
1517162392585250411	900 75 1.000000 0.364000 0.381000 1700 63 1.100000 4.113000 4.873000 600 83 1.000000 0.058000 0.058000 1.200000 0.082000 0.099000
1517162393129195536	900 75 1.000000 0.368000 0.385000 1700 63 1.100000 4.127000 4.894000 600 83 1.000000 0.058000 0.058000 1.200000 0.076000 0.091000
1517162393681175036	900 75 1.000000 0.365000 0.382000 1700 63 1.100000 4.107000 4.866000 600 83 1.000000 0.058000 0.058000 1.200000 0.088000 0.106000
1517162394237200703	900 75 1.000000 0.370000 0.387000 1700 63 1.100000 4.166000 4.940000 600 83 1.000000 0.058000 0.058000 1.200000 0.067000 0.080000
1517162394801364494	900 75 1.000000 0.367000 0.383000 1700 63 1.100000 4.122000 4.888000 600 83 1.000000 0.058000 0.058000 1.200000 0.086000 0.104000
1517162395357221370	900 75 1.000000 0.361000 0.377000 1700 63 1.100000 4.121000 4.883000 600 83 1.000000 0.058000 0.058000 1.200000 0.081000 0.098000
1517162395921283495	900 75 1.000000 0.370000 0.387000 1700 63 1.100000 4.147000 4.914000 600 83 1.000000 0.058000 0.058000 1.200000 0.075000 0.090000
1517162396477318786	900 75 1.000000 0.374000 0.391000 1700 63 1.100000 4.145000 4.915000 600 83 1.000000 0.058000 0.058000 1.200000 0.071000 0.085000
1517162397029223661	900 75 1.000000 0.371000 0.388000 1700 63 1.100000 4.152000 4.920000 600 83 1.000000 0.058000 0.058000 1.200000 0.075000 0.090000
1517162397581147036	900 75 1.000000 0.364000 0.381000 1700 63 1.100000 4.133000 4.901000 600 83 1.000000 0.058000 0.058000 1.200000 0.076000 0.091000
1517162398141210203	900 75 1.000000 0.374000 0.391000 1700 63 1.100000 4.139000 4.904000 600 83 1.000000 0.057000 0.057000 1.200000 0.055000 0.066000
1517162398705303620	900 75 1.000000 0.376000 0.393000 1700 63 1.100000 4.133000 4.897000 600 83 1.000000 0.058000 0.058000 1.200000 0.059000 0.071000
1517162399265316953	900 76 1.000000 0.372000 0.389000 1700 63 1.100000 4.140000 4.905000 600 84 1.000000 0.058000 0.058000 1.200000 0.063000 0.076000
1517162399813018703	900 76 1.000000 0.346000 0.362000 1700 63 1.100000 4.153000 4.933000 600 84 1.000000 0.058000 0.058000 1.200000 0.087000 0.105000
1517162400369042037	900 77 1.000000 0.343000 0.359000 1800 63 1.200000 4.543000 5.533000 600 85 1.000000 0.058000 0.058000 1.200000 0.081000 0.098000
1517162400929274620	900 74 1.000000 0.350000 0.366000 1700 63 1.200000 4.470000 5.417000 600 83 1.000000 0.058000 0.058000 1.200000 0.100000 0.121000
1517162401485393412	900 74 1.000000 0.352000 0.368000 1700 63 1.100000 4.036000 4.782000 600 84 1.000000 0.058000 0.058000 1.200000 0.102000 0.123000
1517162402049390454	900 75 1.000000 0.358000 0.374000 1700 63 1.100000 3.983000 4.719000 600 83 1.000000 0.058000 0.058000 1.200000 0.101000 0.122000
1517162402609412579	900 75 1.000000 0.364000 0.381000 1700 63 1.100000 4.056000 4.806000 600 83 1.000000 0.058000 0.058000 1.200000 0.082000 0.099000
1517162403169198662	900 75 1.000000 0.349000 0.365000 1700 63 1.100000 4.097000 4.854000 600 84 1.000000 0.058000 0.058000 1.200000 0.097000 0.117000
1517162403721501329	900 75 1.000000 0.358000 0.374000 1700 63 1.100000 4.063000 4.814000 600 84 1.000000 0.058000 0.058000 1.200000 0.100000 0.121000
1517162404289292787	900 75 1.000000 0.367000 0.383000 1700 63 1.100000 4.122000 4.884000 600 84 1.000000 0.058000 0.058000 1.200000 0.075000 0.090000
1517162404853259162	900 75 1.000000 0.339000 0.354000 1700 63 1.100000 4.127000 4.890000 600 83 1.000000 0.058000 0.058000 1.200000 0.103000 0.124000
1517162405417235537	900 75 1.000000 0.350000 0.366000 1700 63 1.100000 4.163000 4.933000 600 84 1.000000 0.058000 0.058000 1.200000 0.084000 0.101000
1517162405973321787	900 76 1.000000 0.353000 0.369000 1700 63 1.100000 4.145000 4.911000 600 84 1.000000 0.058000 0.058000 1.200000 0.086000 0.104000
1517162406533134204	900 76 1.000000 0.361000 0.377000 1700 63 1.100000 4.137000 4.902000 600 84 1.000000 0.058000 0.058000 1.200000 0.081000 0.098000
1517162407085112996	900 76 1.000000 0.353000 0.369000 1700 63 1.100000 4.165000 4.939000 600 84 1.000000 0.058000 0.058000 1.200000 0.076000 0.091000
1517162407641214746	900 75 1.000000 0.359000 0.375000 1700 63 1.100000 4.145000 4.915000 600 84 1.000000 0.058000 0.058000 1.200000 0.084000 0.101000
1517162408201168913	900 75 1.000000 0.351000 0.367000 1700 63 1.100000 4.165000 4.939000 600 84 1.000000 0.058000 0.058000 1.200000 0.084000 0.101000
1517162408753291496	900 75 1.000000 0.357000 0.373000 1700 63 1.100000 4.135000 4.904000 600 84 1.000000 0.058000 0.058000 1.200000 0.070000 0.084000
1517162409309157871	900 75 1.000000 0.364000 0.380000 1700 63 1.100000 4.141000 4.907000 600 84 1.000000 0.058000 0.058000 1.200000 0.089000 0.107000
1517162409861233413	900 75 1.000000 0.357000 0.373000 1700 63 1.100000 4.155000 4.923000 600 84 1.000000 0.058000 0.058000 1.200000 0.075000 0.090000
1517162410425078163	900 76 1.000000 0.361000 0.377000 1700 63 1.100000 4.158000 4.931000 600 84 1.000000 0.058000 0.058000 1.200000 0.074000 0.089000
1517162410985266246	900 76 1.000000 0.350000 0.366000 1800 63 1.100000 4.072000 4.825000 600 85 1.000000 0.058000 0.058000 1.200000 0.109000 0.131000
1517162411533232621	900 77 1.000000 0.350000 0.366000 1800 63 1.100000 4.289000 5.138000 600 86 1.000000 0.058000 0.058000 1.200000 0.093000 0.112000
1517162412081363538	900 77 1.000000 0.361000 0.377000 1800 64 1.100000 4.216000 5.042000 600 86 1.000000 0.058000 0.058000 1.200000 0.089000 0.107000
1517162412633253663	900 77 1.000000 0.359000 0.375000 1800 64 1.100000 4.131000 4.924000 600 86 1.000000 0.058000 0.058000 1.200000 0.086000 0.104000
1517162413189133288	900 76 1.000000 0.359000 0.375000 1800 64 1.100000 4.160000 4.954000 600 83 1.000000 0.058000 0.058000 1.200000 0.092000 0.111000
1517162413749205163	900 77 1.000000 0.352000 0.368000 1800 64 1.200000 4.390000 5.364000 600 84 1.000000 0.058000 0.058000 1.200000 0.109000 0.132000
1517162414301287538	900 77 1.000000 0.355000 0.371000 1800 64 1.200000 4.504000 5.508000 600 85 1.000000 0.058000 0.058000 1.200000 0.106000 0.128000
1517162414853501330	900 77 1.000000 0.359000 0.375000 1800 64 1.200000 4.319000 5.273000 600 85 1.000000 0.058000 0.058000 1.200000 0.112000 0.135000
1517162415417405164	900 77 1.000000 0.367000 0.383000 1700 64 1.200000 4.443000 5.407000 600 84 1.000000 0.058000 0.058000 1.200000 0.089000 0.107000
1517162415969378122	900 77 1.000000 0.372000 0.389000 1700 64 1.200000 4.404000 5.350000 600 84 1.000000 0.058000 0.058000 1.200000 0.087000 0.105000
1517162416525356789	900 75 1.000000 0.366000 0.382000 1600 64 1.200000 4.381000 5.283000 600 83 1.000000 0.058000 0.058000 1.200000 0.077000 0.093000
1517162417077384247	900 76 1.000000 0.363000 0.379000 1700 64 1.100000 4.074000 4.827000 600 83 1.000000 0.058000 0.058000 1.200000 0.094000 0.113000
1517162417625149872	900 75 1.000000 0.364000 0.381000 1700 64 1.100000 4.020000 4.763000 600 83 1.000000 0.058000 0.058000 1.200000 0.110000 0.133000
1517162418177290747	900 76 1.000000 0.374000 0.391000 1700 64 1.100000 4.048000 4.796000 600 83 1.000000 0.058000 0.058000 1.200000 0.089000 0.107000
1517162418737422956	900 77 1.000000 0.367000 0.383000 1800 64 1.100000 4.101000 4.859000 600 85 1.000000 0.058000 0.058000 1.200000 0.082000 0.099000
1517162419293634831	900 78 1.000000 0.361000 0.377000 1800 64 1.100000 4.214000 5.044000 600 85 1.000000 0.058000 0.058000 1.200000 0.100000 0.121000
1517162419857452539	900 78 1.000000 0.361000 0.377000 1800 64 1.100000 4.158000 4.968000 600 86 1.000000 0.058000 0.058000 1.200000 0.101000 0.122000
1517162420421394081	900 77 1.000000 0.365000 0.381000 1700 64 1.100000 4.177000 4.978000 600 86 1.000000 0.058000 0.058000 1.200000 0.092000 0.111000
1517162420969113539	900 76 1.000000 0.363000 0.380000 1700 64 1.100000 3.869000 4.546000 600 84 1.000000 0.058000 0.058000 1.200000 0.095000 0.115000
1517162421529244373	900 76 1.000000 0.376000 0.393000 1700 64 1.100000 4.094000 4.851000 600 84 1.000000 0.058000 0.058000 1.200000 0.078000 0.094000
1517162422085144539	900 76 1.000000 0.372000 0.389000 1700 64 1.100000 4.063000 4.814000 600 84 1.000000 0.058000 0.058000 1.200000 0.094000 0.113000
1517162422645223414	900 76 1.000000 0.359000 0.375000 1700 63 1.100000 4.098000 4.856000 600 84 1.000000 0.058000 0.058000 1.200000 0.090000 0.108000
1517162423213343998	900 76 1.000000 0.366000 0.383000 1700 64 1.100000 3.958000 4.690000 600 83 1.000000 0.058000 0.058000 1.200000 0.107000 0.129000
1517162423773203331	900 77 1.000000 0.368000 0.385000 1800 64 1.200000 4.153000 5.008000 600 84 1.000000 0.058000 0.058000 1.200000 0.107000 0.129000
1517162424320211623	900 77 1.000000 0.370000 0.387000 1800 64 1.200000 4.374000 5.301000 600 84 1.000000 0.058000 0.058000 1.200000 0.094000 0.113000
1517162424869259040	900 78 1.000000 0.370000 0.387000 1800 64 1.200000 4.264000 5.159000 600 85 1.000000 0.058000 0.058000 1.200000 0.092000 0.111000
1517162425429300748	900 76 1.000000 0.367000 0.384000 1700 64 1.200000 4.316000 5.209000 600 84 1.000000 0.058000 0.058000 1.200000 0.092000 0.111000
1517162425989311540	900 76 1.000000 0.363000 0.380000 1600 64 1.100000 4.125000 4.896000 600 83 1.000000 0.058000 0.058000 1.200000 0.094000 0.113000
1517162426541257998	900 76 1.000000 0.368000 0.385000 1700 64 1.100000 4.089000 4.845000 600 84 1.000000 0.058000 0.058000 1.200000 0.091000 0.110000
1517162427101266998	900 76 1.000000 0.367000 0.384000 1700 64 1.100000 4.080000 4.834000 600 83 1.000000 0.058000 0.058000 1.200000 0.073000 0.088000
1517162427661216540	900 76 1.000000 0.370000 0.387000 1700 64 1.100000 4.145000 4.915000 600 84 1.000000 0.058000 0.058000 1.200000 0.081000 0.098000
1517162428209247165	900 76 1.000000 0.373000 0.390000 1700 64 1.100000 4.100000 4.862000 600 84 1.000000 0.058000 0.058000 1.200000 0.083000 0.100000
1517162428777295124	900 76 1.000000 0.376000 0.393000 1700 64 1.100000 4.099000 4.861000 600 84 1.000000 0.058000 0.058000 1.200000 0.067000 0.080000
1517162429317307832	900 76 1.000000 0.369000 0.386000 1700 63 1.100000 4.152000 4.920000 600 84 1.000000 0.058000 0.058000 1.200000 0.088000 0.106000
1517162429869208207	900 76 1.000000 0.368000 0.384000 1700 64 1.100000 4.090000 4.846000 600 83 1.000000 0.058000 0.058000 1.200000 0.075000 0.090000
1517162430421044665	900 76 1.000000 0.376000 0.393000 1700 63 1.100000 4.133000 4.901000 600 84 1.000000 0.058000 0.058000 1.200000 0.072000 0.087000
1517162430973133374	900 76 1.000000 0.368000 0.384000 1700 63 1.100000 4.110000 4.870000 600 84 1.000000 0.058000 0.058000 1.200000 0.088000 0.106000
1517162431529208166	900 76 1.000000 0.374000 0.391000 1700 63 1.100000 4.139000 4.908000 600 84 1.000000 0.058000 0.058000 1.200000 0.068000 0.082000
1517162432093143291	900 76 1.000000 0.373000 0.390000 1700 63 1.100000 4.112000 4.876000 600 84 1.000000 0.058000 0.058000 1.200000 0.066000 0.079000
1517162432641372916	900 76 1.000000 0.373000 0.390000 1700 63 1.100000 4.157000 4.930000 600 84 1.000000 0.058000 0.058000 1.200000 0.065000 0.078000
1517162433201157582	900 76 1.000000 0.368000 0.385000 1700 64 1.100000 3.976000 4.711000 600 84 1.000000 0.058000 0.058000 1.200000 0.102000 0.123000
1517162433745226749	900 76 1.000000 0.374000 0.391000 1700 63 1.100000 4.102000 4.860000 600 84 1.000000 0.058000 0.058000 1.200000 0.067000 0.081000
1517162434305231374	900 76 1.000000 0.362000 0.378000 1700 63 1.100000 4.079000 4.833000 600 84 1.000000 0.058000 0.058000 1.200000 0.095000 0.115000
1517162434849535791	900 76 1.000000 0.356000 0.372000 1700 63 1.100000 4.139000 4.908000 600 84 1.000000 0.058000 0.058000 1.200000 0.081000 0.098000
1517162435405248874	900 74 1.000000 0.359000 0.375000 1700 63 1.100000 4.102000 4.860000 600 84 1.000000 0.058000 0.058000 1.200000 0.095000 0.115000
1517162435953223916	900 76 1.000000 0.369000 0.385000 1800 63 1.100000 4.079000 4.866000 600 85 1.000000 0.058000 0.058000 1.200000 0.107000 0.129000
1517162436505380624	900 77 1.000000 0.364000 0.380000 1800 64 1.200000 4.405000 5.374000 600 85 1.000000 0.058000 0.058000 1.200000 0.093000 0.112000
1517162437061367625	900 77 1.000000 0.368000 0.384000 1800 64 1.100000 4.061000 4.816000 600 86 1.000000 0.058000 0.058000 1.200000 0.095000 0.115000
1517162437621270083	900 76 1.000000 0.366000 0.382000 1800 64 1.100000 4.130000 4.894000 600 85 1.000000 0.058000 0.058000 1.200000 0.078000 0.094000
1517162438181287208	900 75 1.000000 0.376000 0.393000 1700 64 1.200000 4.454000 5.424000 600 83 1.000000 0.058000 0.058000 1.200000 0.082000 0.099000
1517162438737201416	900 76 1.000000 0.363000 0.380000 1700 64 1.100000 4.052000 4.801000 600 84 1.000000 0.058000 0.058000 1.200000 0.084000 0.101000
1517162439301284166	900 76 1.000000 0.368000 0.385000 1700 64 1.100000 4.139000 4.908000 600 84 1.000000 0.058000 0.058000 1.200000 0.068000 0.082000
1517162439853253083	900 76 1.000000 0.376000 0.393000 1700 63 1.100000 4.092000 4.849000 600 84 1.000000 0.058000 0.058000 1.200000 0.075000 0.090000
1517162440405188375	900 76 1.000000 0.368000 0.384000 1700 63 1.100000 4.107000 4.866000 600 84 1.000000 0.058000 0.058000 1.200000 0.079000 0.095000
1517162440961181625	900 76 1.000000 0.370000 0.387000 1700 64 1.100000 4.095000 4.852000 600 84 1.000000 0.058000 0.058000 1.200000 0.083000 0.100000
1517162441513180542	900 76 1.000000 0.370000 0.387000 1700 64 1.100000 4.126000 4.889000 600 84 1.000000 0.058000 0.058000 1.200000 0.072000 0.086000
1517162442077217958	900 76 1.000000 0.378000 0.395000 1700 63 1.100000 4.125000 4.888000 600 84 1.000000 0.058000 0.058000 1.200000 0.071000 0.085000
1517162442637248084	900 76 1.000000 0.367000 0.384000 1700 64 1.100000 4.155000 4.927000 600 84 1.000000 0.058000 0.058000 1.200000 0.068000 0.082000
1517162443201222625	900 76 1.000000 0.374000 0.391000 1700 63 1.100000 4.093000 4.850000 600 84 1.000000 0.058000 0.058000 1.200000 0.078000 0.094000
1517162443761287250	900 76 1.000000 0.373000 0.390000 1700 63 1.100000 4.122000 4.884000 600 84 1.000000 0.058000 0.058000 1.200000 0.072000 0.087000
1517162444317126375	900 76 1.000000 0.376000 0.393000 1700 63 1.100000 4.153000 4.921000 600 84 1.000000 0.058000 0.058000 1.200000 0.057000 0.068000
1517162444877153167	900 76 1.000000 0.378000 0.395000 1700 64 1.100000 4.129000 4.892000 600 83 1.000000 0.058000 0.058000 1.200000 0.065000 0.078000
1517162445425109834	900 76 1.000000 0.377000 0.394000 1700 63 1.100000 4.125000 4.888000 600 84 1.000000 0.058000 0.058000 1.200000 0.060000 0.072000
1517162445985206834	900 76 1.000000 0.368000 0.384000 1700 64 1.100000 4.157000 4.930000 600 84 1.000000 0.058000 0.058000 1.200000 0.072000 0.087000
1517162446549169792	900 76 1.000000 0.374000 0.391000 1700 63 1.100000 4.170000 4.945000 600 84 1.000000 0.058000 0.058000 1.200000 0.058000 0.070000
1517162447109440459	900 76 1.000000 0.378000 0.395000 1700 64 1.100000 4.170000 4.941000 600 84 1.000000 0.058000 0.058000 1.200000 0.049000 0.059000
1517162447661220584	900 76 1.000000 0.370000 0.387000 1700 63 1.100000 4.152000 4.920000 600 84 1.000000 0.058000 0.058000 1.200000 0.065000 0.078000
1517162448221204584	900 76 1.000000 0.371000 0.388000 1700 63 1.100000 4.164000 4.938000 600 84 1.000000 0.058000 0.058000 1.200000 0.062000 0.074000
1517162448785240918	900 76 1.000000 0.377000 0.394000 1700 63 1.100000 4.144000 4.914000 600 84 1.000000 0.058000 0.058000 1.200000 0.051000 0.061000
1517162449337211293	900 76 1.000000 0.380000 0.397000 1700 63 1.100000 4.125000 4.888000 600 84 1.000000 0.058000 0.058000 1.200000 0.059000 0.071000
1517162449889319876	900 76 1.000000 0.368000 0.384000 1700 64 1.100000 4.138000 4.903000 600 84 1.000000 0.058000 0.058000 1.200000 0.067000 0.080000
1517162450449090126	900 76 1.000000 0.374000 0.391000 1700 63 1.100000 4.131000 4.895000 600 84 1.000000 0.058000 0.058000 1.200000 0.057000 0.068000
1517162450997190626	900 76 1.000000 0.376000 0.393000 1700 63 1.100000 4.149000 4.916000 600 84 1.000000 0.058000 0.058000 1.200000 0.049000 0.059000
1517162451549327460	900 76 1.000000 0.372000 0.389000 1700 63 1.100000 4.128000 4.895000 600 84 1.000000 0.058000 0.058000 1.200000 0.074000 0.089000
1517162452117365001	900 76 1.000000 0.376000 0.393000 1700 63 1.100000 4.139000 4.904000 600 84 1.000000 0.058000 0.058000 1.200000 0.080000 0.096000
1517162452685330960	900 75 1.000000 0.374000 0.391000 1700 63 1.100000 4.002000 4.742000 600 84 1.000000 0.058000 0.058000 1.200000 0.089000 0.107000
1517162453245183668	900 76 1.000000 0.375000 0.392000 1700 63 1.100000 3.958000 4.690000 600 84 1.000000 0.058000 0.058000 1.200000 0.103000 0.124000
1517162453805291293	900 76 1.000000 0.376000 0.393000 1700 63 1.100000 4.099000 4.857000 600 84 1.000000 0.058000 0.058000 1.200000 0.086000 0.104000
1517162454357434752	900 74 1.000000 0.378000 0.395000 1700 63 1.100000 4.086000 4.841000 600 84 1.000000 0.058000 0.058000 1.200000 0.071000 0.085000
1517162454917293793	900 75 1.000000 0.378000 0.395000 1700 63 1.100000 4.015000 4.757000 600 84 1.000000 0.058000 0.058000 1.200000 0.069000 0.083000
1517162455477271460	900 75 1.000000 0.379000 0.396000 1700 63 1.100000 3.946000 4.676000 600 84 1.000000 0.058000 0.058000 1.200000 0.101000 0.122000
1517162456037241668	900 75 1.000000 0.378000 0.395000 1700 63 1.100000 4.053000 4.802000 600 84 1.000000 0.058000 0.058000 1.200000 0.084000 0.101000
1517162456593389710	900 75 1.000000 0.380000 0.397000 1700 63 1.100000 4.089000 4.845000 600 84 1.000000 0.058000 0.058000 1.200000 0.067000 0.081000
1517162457141169877	900 76 1.000000 0.368000 0.384000 1700 63 1.100000 4.105000 4.864000 600 84 1.000000 0.058000 0.058000 1.200000 0.083000 0.100000
1517162457697591127	900 76 1.000000 0.363000 0.380000 1700 63 1.100000 4.157000 4.926000 600 84 1.000000 0.058000 0.058000 1.200000 0.069000 0.083000
1517162458261228585	900 76 1.000000 0.369000 0.385000 1700 63 1.100000 4.131000 4.895000 600 84 1.000000 0.058000 0.058000 1.200000 0.085000 0.102000
1517162458805153127	900 76 1.000000 0.365000 0.382000 1700 63 1.100000 4.148000 4.915000 600 84 1.000000 0.058000 0.058000 1.200000 0.090000 0.108000
1517162459365274627	900 75 1.000000 0.352000 0.368000 1700 63 1.100000 4.139000 4.904000 600 84 1.000000 0.058000 0.058000 1.200000 0.082000 0.099000
1517162459917083711	900 76 1.000000 0.358000 0.374000 1700 64 1.100000 4.144000 4.910000 600 84 1.000000 0.058000 0.058000 1.200000 0.082000 0.099000
1517162460477242836	900 76 1.000000 0.365000 0.382000 1700 63 1.100000 4.114000 4.875000 600 84 1.000000 0.058000 0.058000 1.200000 0.096000 0.116000
1517162461033165252	900 76 1.000000 0.366000 0.383000 1700 64 1.100000 4.125000 4.888000 600 84 1.000000 0.058000 0.058000 1.200000 0.094000 0.113000
1517162461593142627	900 76 1.000000 0.363000 0.379000 1700 63 1.100000 4.160000 4.929000 600 84 1.000000 0.058000 0.058000 1.200000 0.076000 0.091000
1517162462141212836	900 76 1.000000 0.356000 0.372000 1700 64 1.100000 4.150000 4.917000 600 84 1.000000 0.058000 0.058000 1.200000 0.080000 0.096000
1517162462705116878	900 76 1.000000 0.350000 0.366000 1700 64 1.100000 4.171000 4.946000 600 84 1.000000 0.058000 0.058000 1.200000 0.091000 0.110000
1517162463261123878	900 76 1.000000 0.358000 0.374000 1700 63 1.100000 4.157000 4.926000 600 84 1.000000 0.058000 0.058000 1.200000 0.075000 0.090000
1517162463821343128	900 76 1.000000 0.356000 0.372000 1700 64 1.200000 4.289000 5.181000 600 85 1.000000 0.058000 0.058000 1.200000 0.095000 0.115000
1517162464381158544	900 75 1.000000 0.356000 0.372000 1600 64 1.200000 4.244000 5.101000 600 83 1.000000 0.058000 0.058000 1.200000 0.088000 0.106000
1517162464933190211	900 76 1.000000 0.353000 0.369000 1700 64 1.100000 3.837000 4.450000 600 84 1.000000 0.058000 0.058000 1.200000 0.089000 0.107000
1517162465505271461	900 76 1.000000 0.366000 0.382000 1700 64 1.100000 4.094000 4.851000 600 84 1.000000 0.058000 0.058000 1.200000 0.083000 0.100000
1517162466057272295	900 76 1.000000 0.354000 0.370000 1700 64 1.100000 3.986000 4.723000 600 82 1.000000 0.058000 0.058000 1.200000 0.111000 0.134000
1517162466609260045	900 76 1.000000 0.358000 0.374000 1800 64 1.100000 3.981000 4.717000 600 82 1.000000 0.058000 0.058000 1.200000 0.115000 0.139000
1517162467173216211	900 77 1.000000 0.367000 0.383000 1700 64 1.200000 4.348000 5.317000 600 84 1.000000 0.058000 0.058000 1.200000 0.122000 0.147000
1517162467729178420	900 75 1.000000 0.359000 0.375000 1700 64 1.200000 4.358000 5.294000 600 82 1.000000 0.058000 0.058000 1.200000 0.093000 0.112000
1517162468273233087	900 76 1.000000 0.365000 0.381000 1700 64 1.100000 4.005000 4.713000 600 83 1.000000 0.058000 0.058000 1.200000 0.082000 0.099000
1517162468833240378	900 76 1.000000 0.363000 0.379000 1700 64 1.100000 4.068000 4.820000 600 83 1.000000 0.058000 0.058000 1.200000 0.096000 0.116000
1517162469385244878	900 76 1.000000 0.364000 0.380000 1700 64 1.100000 4.053000 4.802000 600 83 1.000000 0.058000 0.058000 1.200000 0.094000 0.113000
1517162469937307128	900 76 1.000000 0.365000 0.381000 1700 64 1.100000 4.089000 4.845000 600 84 1.000000 0.058000 0.058000 1.200000 0.088000 0.106000
1517162470489309378	900 76 1.000000 0.367000 0.383000 1700 64 1.100000 4.138000 4.903000 600 84 1.000000 0.058000 0.058000 1.200000 0.067000 0.081000
1517162471045171045	900 76 1.000000 0.361000 0.377000 1700 64 1.100000 4.140000 4.905000 600 84 1.000000 0.058000 0.058000 1.200000 0.084000 0.101000
1517162471601356254	900 76 1.000000 0.367000 0.383000 1700 64 1.100000 4.144000 4.910000 600 83 1.000000 0.058000 0.058000 1.200000 0.068000 0.082000
1517162472157232212	900 76 1.000000 0.370000 0.387000 1700 64 1.100000 4.111000 4.871000 600 82 1.000000 0.058000 0.058000 1.200000 0.078000 0.094000
1517162472721274587	900 76 1.000000 0.365000 0.381000 1700 64 1.100000 3.990000 4.728000 600 83 1.000000 0.058000 0.058000 1.200000 0.106000 0.128000
1517162473277267295	900 76 1.000000 0.369000 0.385000 1700 64 1.100000 3.932000 4.659000 600 82 1.000000 0.058000 0.058000 1.200000 0.117000 0.141000
1517162473837258254	900 76 1.000000 0.371000 0.388000 1700 64 1.100000 4.082000 4.837000 600 83 1.000000 0.058000 0.058000 1.200000 0.078000 0.094000
1517162474397266462	900 76 1.000000 0.376000 0.393000 1700 64 1.100000 4.103000 4.862000 600 83 1.000000 0.058000 0.058000 1.200000 0.071000 0.085000
1517162474941199629	900 76 1.000000 0.370000 0.387000 1700 64 1.100000 4.105000 4.864000 600 83 1.000000 0.058000 0.058000 1.200000 0.088000 0.106000
1517162475497311171	900 76 1.000000 0.356000 0.372000 1700 64 1.100000 4.109000 4.869000 600 83 1.000000 0.058000 0.058000 1.200000 0.099000 0.119000
1517162476053189004	900 76 1.000000 0.363000 0.380000 1700 64 1.100000 4.077000 4.831000 600 84 1.000000 0.058000 0.058000 1.200000 0.092000 0.111000
1517162476609111629	900 76 1.000000 0.364000 0.381000 1700 64 1.100000 4.056000 4.806000 600 84 1.000000 0.058000 0.058000 1.200000 0.089000 0.107000
1517162477157154254	900 76 1.000000 0.371000 0.388000 1700 64 1.100000 4.149000 4.920000 600 84 1.000000 0.058000 0.058000 1.200000 0.068000 0.082000
1517162477713186588	900 76 1.000000 0.365000 0.381000 1700 64 1.100000 4.165000 4.935000 600 84 1.000000 0.058000 0.058000 1.200000 0.070000 0.084000
1517162478261121213	900 76 1.000000 0.359000 0.375000 1700 64 1.100000 4.157000 4.926000 600 84 1.000000 0.058000 0.058000 1.200000 0.071000 0.085000
1517162478813203338	900 76 1.000000 0.362000 0.379000 1700 64 1.100000 4.155000 4.923000 600 84 1.000000 0.058000 0.058000 1.200000 0.076000 0.091000
1517162479373189046	900 76 1.000000 0.370000 0.387000 1700 64 1.100000 4.152000 4.924000 600 83 1.000000 0.058000 0.058000 1.200000 0.063000 0.076000
1517162479929329338	900 76 1.000000 0.361000 0.377000 1700 64 1.100000 4.118000 4.879000 600 83 1.000000 0.058000 0.058000 1.200000 0.084000 0.101000
1517162480481303630	900 76 1.000000 0.363000 0.379000 1700 64 1.100000 4.122000 4.884000 600 84 1.000000 0.058000 0.058000 1.200000 0.084000 0.101000
1517162481045200963	900 76 1.000000 0.363000 0.379000 1700 64 1.100000 4.138000 4.907000 600 84 1.000000 0.058000 0.058000 1.200000 0.072000 0.087000
1517162481597171630	900 76 1.000000 0.364000 0.380000 1700 64 1.100000 4.141000 4.907000 600 84 1.000000 0.058000 0.058000 1.200000 0.072000 0.086000
1517162482157258713	900 76 1.000000 0.368000 0.384000 1700 64 1.100000 4.165000 4.939000 600 84 1.000000 0.058000 0.058000 1.200000 0.070000 0.084000
1517162482717170588	900 76 1.000000 0.370000 0.387000 1700 64 1.100000 4.177000 4.949000 600 84 1.000000 0.058000 0.058000 1.200000 0.065000 0.078000
1517162483273256797	900 76 1.000000 0.368000 0.384000 1700 64 1.100000 4.181000 4.958000 600 84 1.000000 0.058000 0.058000 1.200000 0.056000 0.067000
1517162483817239338	900 76 1.000000 0.368000 0.384000 1700 64 1.100000 4.142000 4.908000 600 84 1.000000 0.058000 0.058000 1.200000 0.074000 0.089000
1517162484377201380	900 76 1.000000 0.366000 0.382000 1700 64 1.100000 4.126000 4.889000 600 84 1.000000 0.058000 0.058000 1.200000 0.080000 0.096000
1517162484937035547	900 76 1.000000 0.371000 0.388000 1700 64 1.100000 4.160000 4.933000 600 84 1.000000 0.058000 0.058000 1.200000 0.059000 0.071000
1517162485485144755	900 76 1.000000 0.377000 0.394000 1700 64 1.100000 4.163000 4.933000 600 84 1.000000 0.058000 0.058000 1.200000 0.053000 0.063000
1517162486041331839	900 76 1.000000 0.365000 0.381000 1700 64 1.100000 4.131000 4.895000 600 84 1.000000 0.058000 0.058000 1.200000 0.079000 0.095000
1517162486605241964	900 76 1.000000 0.371000 0.388000 1700 64 1.100000 4.144000 4.910000 600 84 1.000000 0.058000 0.058000 1.200000 0.071000 0.085000
1517162487157158297	900 76 1.000000 0.367000 0.383000 1700 64 1.100000 4.168000 4.939000 600 84 1.000000 0.058000 0.058000 1.200000 0.065000 0.078000
1517162487725164339	900 76 1.000000 0.366000 0.382000 1700 64 1.100000 4.160000 4.929000 600 84 1.000000 0.058000 0.058000 1.200000 0.077000 0.093000
1517162488285098172	900 76 1.000000 0.371000 0.388000 1700 64 1.100000 4.179000 4.956000 600 84 1.000000 0.058000 0.058000 1.200000 0.061000 0.073000
1517162488845122047	900 76 1.000000 0.376000 0.393000 1700 64 1.100000 4.180000 4.953000 600 84 1.000000 0.058000 0.058000 1.200000 0.059000 0.071000
1517162489405202964	900 76 1.000000 0.369000 0.385000 1700 64 1.100000 4.163000 4.933000 600 84 1.000000 0.058000 0.058000 1.200000 0.069000 0.083000
1517162489965167964	900 76 1.000000 0.366000 0.382000 1700 64 1.100000 4.151000 4.918000 600 84 1.000000 0.058000 0.058000 1.200000 0.068000 0.082000
1517162490517078214	900 76 1.000000 0.369000 0.385000 1700 64 1.100000 4.176000 4.948000 600 84 1.000000 0.058000 0.058000 1.200000 0.060000 0.072000
1517162491061384089	900 76 1.000000 0.374000 0.391000 1700 64 1.100000 4.170000 4.945000 600 84 1.000000 0.058000 0.058000 1.200000 0.058000 0.070000
1517162491621129964	900 76 1.000000 0.374000 0.391000 1700 64 1.100000 4.162000 4.931000 600 84 1.000000 0.058000 0.058000 1.200000 0.065000 0.078000
1517162492165166381	900 76 1.000000 0.362000 0.378000 1700 64 1.100000 4.181000 4.958000 600 84 1.000000 0.058000 0.058000 1.200000 0.064000 0.077000
1517162492721179298	900 76 1.000000 0.375000 0.392000 1700 64 1.100000 4.162000 4.931000 600 84 1.000000 0.058000 0.058000 1.200000 0.062000 0.074000
1517162493277201256	900 76 1.000000 0.365000 0.381000 1700 64 1.100000 4.157000 4.926000 600 84 1.000000 0.058000 0.058000 1.200000 0.074000 0.089000
1517162493829194340	900 76 1.000000 0.372000 0.389000 1700 64 1.100000 4.176000 4.948000 600 84 1.000000 0.058000 0.058000 1.200000 0.059000 0.071000
1517162494385095673	900 76 1.000000 0.376000 0.393000 1700 64 1.100000 4.161000 4.930000 600 84 1.000000 0.058000 0.058000 1.200000 0.055000 0.066000
1517162494941271048	900 76 1.000000 0.376000 0.393000 1700 64 1.100000 4.157000 4.930000 600 84 1.000000 0.058000 0.058000 1.200000 0.058000 0.070000
1517162495501172465	900 76 1.000000 0.377000 0.394000 1700 64 1.100000 4.195000 4.975000 600 84 1.000000 0.058000 0.058000 1.200000 0.056000 0.067000
1517162496061099257	900 76 1.000000 0.376000 0.393000 1700 64 1.100000 4.184000 4.962000 600 84 1.000000 0.058000 0.058000 1.200000 0.049000 0.059000
1517162496611792798	900 76 1.000000 0.369000 0.385000 1600 64 1.100000 4.179000 4.993000 600 84 1.000000 0.058000 0.058000 1.200000 0.084000 0.101000
1517162497161210423	900 76 1.000000 0.360000 0.376000 1700 64 1.100000 3.957000 4.617000 600 84 1.000000 0.058000 0.058000 1.200000 0.070000 0.084000
1517162497713152340	900 76 1.000000 0.369000 0.385000 1700 64 1.100000 4.134000 4.898000 600 84 1.000000 0.058000 0.058000 1.200000 0.074000 0.089000
1517162498269148923	900 76 1.000000 0.371000 0.388000 1700 64 1.100000 4.166000 4.940000 600 84 1.000000 0.058000 0.058000 1.200000 0.062000 0.074000
1517162498825106049	900 76 1.000000 0.376000 0.393000 1700 64 1.100000 4.150000 4.917000 600 84 1.000000 0.058000 0.058000 1.200000 0.057000 0.068000
1517162499389214590	900 76 1.000000 0.377000 0.394000 1700 64 1.100000 4.151000 4.918000 600 84 1.000000 0.058000 0.058000 1.200000 0.057000 0.068000
1517162499945256507	900 76 1.000000 0.377000 0.394000 1700 64 1.100000 4.140000 4.905000 600 84 1.000000 0.058000 0.058000 1.200000 0.060000 0.072000
1517162500505202340	900 76 1.000000 0.378000 0.395000 1700 64 1.100000 4.112000 4.872000 600 84 1.000000 0.058000 0.058000 1.200000 0.064000 0.077000
1517162501069260007	900 76 1.000000 0.374000 0.391000 1700 64 1.100000 4.130000 4.894000 600 84 1.000000 0.058000 0.058000 1.200000 0.061000 0.073000
1517162501629224424	900 76 1.000000 0.376000 0.393000 1700 63 1.100000 4.131000 4.895000 600 84 1.000000 0.058000 0.058000 1.200000 0.062000 0.074000
1517162502185175216	900 76 1.000000 0.375000 0.392000 1700 64 1.100000 4.134000 4.898000 600 84 1.000000 0.058000 0.058000 1.200000 0.067000 0.081000
1517162502737103299	900 76 1.000000 0.374000 0.391000 1700 64 1.100000 4.174000 4.946000 600 84 1.000000 0.058000 0.058000 1.200000 0.062000 0.074000
1517162503297110466	900 76 1.000000 0.377000 0.394000 1700 64 1.100000 4.184000 4.962000 600 84 1.000000 0.058000 0.058000 1.200000 0.045000 0.054000
1517162503853079799	900 76 1.000000 0.368000 0.384000 1700 64 1.100000 4.181000 4.954000 600 84 1.000000 0.058000 0.058000 1.200000 0.058000 0.070000
1517162504405105466	900 76 1.000000 0.376000 0.393000 1700 64 1.100000 4.154000 4.922000 600 84 1.000000 0.058000 0.058000 1.200000 0.059000 0.071000
1517162504961108591	900 76 1.000000 0.376000 0.393000 1700 64 1.100000 4.184000 4.962000 600 84 1.000000 0.058000 0.058000 1.200000 0.057000 0.068000
1517162505517276424	900 76 1.000000 0.374000 0.391000 1700 64 1.100000 4.174000 4.950000 600 84 1.000000 0.058000 0.058000 1.200000 0.046000 0.055000
1517162506077096549	900 76 1.000000 0.379000 0.396000 1700 64 1.100000 4.166000 4.936000 600 84 1.000000 0.058000 0.058000 1.200000 0.049000 0.059000
1517162506625208341	900 76 1.000000 0.376000 0.393000 1700 64 1.100000 4.156000 4.929000 600 84 1.000000 0.058000 0.058000 1.200000 0.053000 0.064000
1517162507185141508	900 76 1.000000 0.378000 0.395000 1700 64 1.100000 4.172000 4.947000 600 84 1.000000 0.058000 0.058000 1.200000 0.046000 0.055000
1517162507733137050	900 76 1.000000 0.379000 0.396000 1700 64 1.100000 4.186000 4.964000 600 84 1.000000 0.058000 0.058000 1.200000 0.045000 0.054000
1517162508285045341	900 77 1.000000 0.377000 0.394000 1700 64 1.100000 4.190000 4.969000 600 84 1.000000 0.058000 0.058000 1.200000 0.045000 0.054000
1517162508837116591	900 76 1.000000 0.376000 0.393000 1700 64 1.100000 4.173000 4.945000 600 84 1.000000 0.058000 0.058000 1.200000 0.054000 0.065000
1517162509393081508	900 76 1.000000 0.377000 0.394000 1700 64 1.100000 4.178000 4.950000 600 84 1.000000 0.058000 0.058000 1.200000 0.051000 0.061000
1517162509937125217	900 76 1.000000 0.379000 0.396000 1700 64 1.100000 4.187000 4.965000 600 84 1.000000 0.058000 0.058000 1.200000 0.043000 0.051000
1517162510497126842	900 76 1.000000 0.376000 0.393000 1700 64 1.100000 4.175000 4.947000 600 84 1.000000 0.058000 0.058000 1.200000 0.051000 0.061000
1517162511053274675	900 76 1.000000 0.379000 0.396000 1700 64 1.100000 4.139000 4.904000 600 84 1.000000 0.058000 0.058000 1.200000 0.049000 0.059000
1517162511605152592	900 76 1.000000 0.371000 0.388000 1700 64 1.100000 4.135000 4.899000 600 84 1.000000 0.058000 0.058000 1.200000 0.077000 0.093000
1517162512157233050	900 76 1.000000 0.377000 0.394000 1700 64 1.100000 4.161000 4.930000 600 84 1.000000 0.058000 0.058000 1.200000 0.052000 0.062000
1517162512717262967	900 76 1.000000 0.372000 0.389000 1700 64 1.100000 4.129000 4.892000 600 84 1.000000 0.058000 0.058000 1.200000 0.074000 0.089000
1517162513281379217	900 76 1.000000 0.376000 0.393000 1700 64 1.100000 4.137000 4.902000 600 84 1.000000 0.058000 0.058000 1.200000 0.061000 0.073000
1517162513833209342	900 76 1.000000 0.374000 0.391000 1700 64 1.100000 4.166000 4.940000 600 84 1.000000 0.058000 0.058000 1.200000 0.057000 0.068000
1517162514385098050	900 76 1.000000 0.376000 0.393000 1700 64 1.100000 4.154000 4.926000 600 84 1.000000 0.058000 0.058000 1.200000 0.057000 0.068000
1517162514937305259	900 76 1.000000 0.379000 0.396000 1700 64 1.100000 4.056000 4.806000 600 84 1.000000 0.058000 0.058000 1.200000 0.074000 0.089000
1517162515497296634	900 76 1.000000 0.380000 0.397000 1700 64 1.100000 4.131000 4.899000 600 84 1.000000 0.058000 0.058000 1.200000 0.059000 0.071000
1517162516053285634	900 75 1.000000 0.380000 0.397000 1600 64 1.200000 4.422000 5.381000 600 83 1.000000 0.058000 0.058000 1.200000 0.076000 0.091000
1517162516605265842	900 76 1.000000 0.378000 0.395000 1700 64 1.100000 4.040000 4.767000 600 84 1.000000 0.058000 0.058000 1.200000 0.063000 0.076000
1517162517161258676	900 76 1.000000 0.371000 0.388000 1700 64 1.100000 4.099000 4.857000 600 84 1.000000 0.058000 0.058000 1.200000 0.079000 0.095000
1517162517709259217	900 76 1.000000 0.365000 0.381000 1700 64 1.100000 4.108000 4.867000 600 84 1.000000 0.058000 0.058000 1.200000 0.081000 0.098000
1517162518265322259	900 76 1.000000 0.373000 0.390000 1700 64 1.100000 4.096000 4.857000 600 84 1.000000 0.058000 0.058000 1.200000 0.082000 0.099000
1517162518825164051	900 76 1.000000 0.377000 0.394000 1700 64 1.100000 4.107000 4.870000 600 84 1.000000 0.058000 0.058000 1.200000 0.067000 0.080000
1517162519377229551	900 76 1.000000 0.376000 0.393000 1700 64 1.100000 4.139000 4.908000 600 84 1.000000 0.058000 0.058000 1.200000 0.062000 0.074000
1517162519929150259	900 76 1.000000 0.378000 0.395000 1700 64 1.100000 4.159000 4.932000 600 84 1.000000 0.058000 0.058000 1.200000 0.060000 0.072000
1517162520481179343	900 76 1.000000 0.370000 0.387000 1700 64 1.100000 4.144000 4.914000 600 84 1.000000 0.058000 0.058000 1.200000 0.067000 0.081000
1517162521033120718	900 76 1.000000 0.374000 0.391000 1700 64 1.100000 4.169000 4.944000 600 84 1.000000 0.058000 0.058000 1.200000 0.050000 0.060000
1517162521593140426	900 76 1.000000 0.371000 0.388000 1700 64 1.100000 4.160000 4.933000 600 84 1.000000 0.058000 0.058000 1.200000 0.068000 0.082000
1517162522157259510	900 76 1.000000 0.373000 0.390000 1700 64 1.100000 4.177000 4.953000 600 84 1.000000 0.058000 0.058000 1.200000 0.050000 0.060000
1517162522713233760	900 76 1.000000 0.379000 0.396000 1700 64 1.100000 4.174000 4.950000 600 84 1.000000 0.058000 0.058000 1.200000 0.044000 0.053000
1517162523259222801	900 76 1.000000 0.369000 0.385000 1700 64 1.100000 4.142000 4.912000 600 84 1.000000 0.058000 0.058000 1.200000 0.059000 0.071000
1517162523821260843	900 76 1.000000 0.375000 0.392000 1700 64 1.100000 4.146000 4.917000 600 84 1.000000 0.058000 0.058000 1.200000 0.056000 0.067000
1517162524381217927	900 76 1.000000 0.371000 0.388000 1700 64 1.100000 4.131000 4.895000 600 84 1.000000 0.058000 0.058000 1.200000 0.078000 0.094000
1517162524945165260	900 76 1.000000 0.376000 0.393000 1700 64 1.100000 4.161000 4.930000 600 84 1.000000 0.058000 0.058000 1.200000 0.055000 0.066000
1517162525505283218	900 75 1.000000 0.379000 0.396000 1700 64 1.100000 4.113000 4.873000 600 84 1.000000 0.058000 0.058000 1.200000 0.071000 0.085000
1517162526065182760	900 76 1.000000 0.369000 0.385000 1700 64 1.100000 4.159000 4.932000 600 84 1.000000 0.058000 0.058000 1.200000 0.065000 0.078000
1517162526625307552	900 76 1.000000 0.374000 0.391000 1700 64 1.100000 4.179000 4.956000 600 84 1.000000 0.058000 0.058000 1.200000 0.051000 0.061000
1517162527193190927	900 76 1.000000 0.369000 0.385000 1700 64 1.100000 4.146000 4.917000 600 84 1.000000 0.058000 0.058000 1.200000 0.068000 0.082000
1517162527753041135	900 76 1.000000 0.374000 0.391000 1700 64 1.100000 4.165000 4.935000 600 84 1.000000 0.058000 0.058000 1.200000 0.051000 0.061000
1517162528313312969	900 76 1.000000 0.376000 0.393000 1700 64 1.100000 4.172000 4.947000 600 84 1.000000 0.058000 0.058000 1.200000 0.045000 0.054000
1517162528873134802	900 76 1.000000 0.380000 0.397000 1700 64 1.100000 4.179000 4.956000 600 84 1.000000 0.058000 0.058000 1.200000 0.045000 0.054000
1517162529433289552	900 78 1.000000 0.377000 0.394000 1800 64 1.200000 4.225000 5.078000 600 85 1.000000 0.058000 0.058000 1.200000 0.073000 0.088000
1517162529993442302	900 76 1.000000 0.380000 0.397000 1700 64 1.100000 3.877000 4.505000 600 83 1.000000 0.058000 0.058000 1.200000 0.064000 0.077000
1517162530553110136	900 76 1.000000 0.376000 0.393000 1700 64 1.100000 4.139000 4.908000 600 84 1.000000 0.058000 0.058000 1.200000 0.061000 0.073000
1517162531117245636	900 76 1.000000 0.379000 0.396000 1700 64 1.100000 4.169000 4.944000 600 84 1.000000 0.058000 0.058000 1.200000 0.052000 0.062000
1517162531665150844	900 76 1.000000 0.379000 0.396000 1700 64 1.100000 4.153000 4.921000 600 84 1.000000 0.058000 0.058000 1.200000 0.055000 0.066000
1517162532217173136	900 76 1.000000 0.377000 0.394000 1700 64 1.100000 4.151000 4.918000 600 84 1.000000 0.058000 0.058000 1.200000 0.061000 0.073000
1517162532773328719	900 76 1.000000 0.378000 0.395000 1700 64 1.100000 4.148000 4.919000 600 83 1.000000 0.058000 0.058000 1.200000 0.052000 0.062000
1517162533333113803	900 76 1.000000 0.381000 0.398000 1700 64 1.100000 4.056000 4.806000 600 84 1.000000 0.058000 0.058000 1.200000 0.054000 0.065000
1517162533893161636	900 76 1.000000 0.379000 0.396000 1700 64 1.100000 4.127000 4.890000 600 84 1.000000 0.058000 0.058000 1.200000 0.061000 0.073000
1517162534453180719	900 77 1.000000 0.377000 0.394000 1700 64 1.100000 4.158000 4.927000 600 84 1.000000 0.058000 0.058000 1.200000 0.051000 0.061000
1517162535005286928	900 76 1.000000 0.366000 0.382000 1700 64 1.100000 4.160000 4.933000 600 84 1.000000 0.058000 0.058000 1.200000 0.063000 0.076000
1517162535561210345	900 76 1.000000 0.377000 0.394000 1700 64 1.100000 4.035000 4.781000 600 84 1.000000 0.058000 0.058000 1.200000 0.056000 0.067000
1517162536109215803	900 76 1.000000 0.360000 0.376000 1700 64 1.100000 4.126000 4.889000 600 84 1.000000 0.058000 0.058000 1.200000 0.070000 0.084000
1517162536669124928	900 76 1.000000 0.367000 0.383000 1700 64 1.100000 4.149000 4.920000 600 84 1.000000 0.058000 0.058000 1.200000 0.071000 0.085000
1517162537233177761	900 75 1.000000 0.373000 0.390000 1600 64 1.200000 4.320000 5.184000 600 83 1.000000 0.058000 0.058000 1.200000 0.066000 0.079000
1517162537789282928	900 76 1.000000 0.367000 0.383000 1700 64 1.100000 3.895000 4.525000 600 84 1.000000 0.058000 0.058000 1.200000 0.060000 0.072000
1517162538349320178	900 77 1.000000 0.372000 0.389000 1700 64 1.100000 4.151000 4.923000 600 84 1.000000 0.058000 0.058000 1.200000 0.058000 0.070000
1517162538909298095	900 76 1.000000 0.368000 0.384000 1700 64 1.100000 4.157000 4.930000 600 84 1.000000 0.058000 0.058000 1.200000 0.068000 0.082000
1517162539461233678	900 76 1.000000 0.367000 0.383000 1700 64 1.100000 4.163000 4.933000 600 84 1.000000 0.058000 0.058000 1.200000 0.072000 0.086000
1517162540017099720	900 76 1.000000 0.374000 0.391000 1700 64 1.100000 4.174000 4.946000 600 84 1.000000 0.058000 0.058000 1.200000 0.058000 0.070000
1517162540565121304	900 76 1.000000 0.369000 0.385000 1700 64 1.100000 4.176000 4.952000 600 84 1.000000 0.058000 0.058000 1.200000 0.066000 0.079000
1517162541117084262	900 76 1.000000 0.371000 0.388000 1700 64 1.100000 4.146000 4.913000 600 84 1.000000 0.058000 0.058000 1.200000 0.064000 0.077000
1517162541665230720	900 77 1.000000 0.374000 0.391000 1700 64 1.100000 4.165000 4.939000 600 84 1.000000 0.058000 0.058000 1.200000 0.056000 0.067000
1517162542213225095	900 76 1.000000 0.371000 0.388000 1700 64 1.100000 4.169000 4.940000 600 84 1.000000 0.058000 0.058000 1.200000 0.063000 0.076000
1517162542769153929	900 76 1.000000 0.377000 0.394000 1700 64 1.100000 4.156000 4.924000 600 84 1.000000 0.058000 0.058000 1.200000 0.054000 0.065000
1517162543333184429	900 77 1.000000 0.375000 0.392000 1700 64 1.100000 4.188000 4.966000 600 84 1.000000 0.058000 0.058000 1.200000 0.054000 0.065000
1517162543889102971	900 77 1.000000 0.377000 0.394000 1700 64 1.100000 4.179000 4.956000 600 84 1.000000 0.058000 0.058000 1.200000 0.051000 0.061000
1517162544441067221	900 77 1.000000 0.368000 0.384000 1700 64 1.100000 4.186000 4.964000 600 84 1.000000 0.058000 0.058000 1.200000 0.064000 0.077000
1517162544997118637	900 77 1.000000 0.372000 0.389000 1700 64 1.100000 4.176000 4.952000 600 84 1.000000 0.058000 0.058000 1.200000 0.060000 0.072000
1517162545557061679	900 77 1.000000 0.364000 0.380000 1700 64 1.100000 4.197000 4.977000 600 84 1.000000 0.058000 0.058000 1.200000 0.058000 0.070000
1517162546113026554	900 77 1.000000 0.362000 0.378000 1700 64 1.100000 4.191000 4.966000 600 84 1.000000 0.058000 0.058000 1.200000 0.066000 0.079000
1517162546669304679	900 77 1.000000 0.372000 0.389000 1700 64 1.100000 4.178000 4.955000 600 84 1.000000 0.058000 0.058000 1.200000 0.055000 0.066000
1517162547221279221	900 77 1.000000 0.364000 0.380000 1700 64 1.100000 4.194000 4.974000 600 84 1.000000 0.058000 0.058000 1.200000 0.067000 0.080000
1517162547765207054	900 77 1.000000 0.376000 0.393000 1700 64 1.100000 4.182000 4.959000 600 84 1.000000 0.058000 0.058000 1.200000 0.051000 0.061000
1517162548323840471	900 75 1.000000 0.373000 0.390000 1700 64 1.100000 4.186000 4.964000 600 84 1.000000 0.058000 0.058000 1.200000 0.054000 0.065000
1517162548889413471	900 76 1.000000 0.376000 0.393000 1700 64 1.100000 4.111000 4.871000 600 84 1.000000 0.058000 0.058000 1.200000 0.075000 0.090000
1517162549453124513	900 77 1.000000 0.374000 0.391000 1700 64 1.100000 4.139000 4.908000 600 84 1.000000 0.058000 0.058000 1.200000 0.069000 0.083000
1517162550001221305	900 76 1.000000 0.364000 0.380000 1700 64 1.100000 4.178000 4.955000 600 84 1.000000 0.058000 0.058000 1.200000 0.073000 0.088000
1517162550557199805	900 76 1.000000 0.371000 0.388000 1700 64 1.100000 4.162000 4.931000 600 84 1.000000 0.058000 0.058000 1.200000 0.064000 0.077000
1517162551117409596	900 76 1.000000 0.374000 0.391000 1700 64 1.100000 4.163000 4.937000 600 84 1.000000 0.058000 0.058000 1.200000 0.061000 0.073000
1517162551677310722	900 76 1.000000 0.375000 0.392000 1700 64 1.100000 4.120000 4.882000 600 84 1.000000 0.058000 0.058000 1.200000 0.073000 0.088000
1517162552233087722	900 76 1.000000 0.380000 0.397000 1700 64 1.100000 4.131000 4.899000 600 84 1.000000 0.058000 0.058000 1.200000 0.063000 0.076000
1517162552789097555	900 77 1.000000 0.379000 0.396000 1700 64 1.100000 4.154000 4.926000 600 84 1.000000 0.058000 0.058000 1.200000 0.047000 0.056000
1517162553353147430	900 76 1.000000 0.377000 0.394000 1700 64 1.100000 4.173000 4.949000 600 84 1.000000 0.058000 0.058000 1.200000 0.052000 0.062000
1517162553917099638	900 77 1.000000 0.379000 0.396000 1700 64 1.100000 4.180000 4.957000 600 84 1.000000 0.058000 0.058000 1.200000 0.049000 0.059000
1517162554473122764	900 76 1.000000 0.378000 0.395000 1700 64 1.100000 4.173000 4.949000 600 84 1.000000 0.058000 0.058000 1.200000 0.049000 0.059000
1517162555029178680	900 77 1.000000 0.365000 0.381000 1700 64 1.100000 4.199000 4.980000 600 84 1.000000 0.058000 0.058000 1.200000 0.066000 0.079000
1517162555569043847	900 77 1.000000 0.370000 0.387000 1700 64 1.100000 4.196000 4.976000 600 84 1.000000 0.058000 0.058000 1.200000 0.061000 0.073000
1517162556121049514	900 77 1.000000 0.379000 0.396000 1700 64 1.100000 4.191000 4.966000 600 84 1.000000 0.058000 0.058000 1.200000 0.045000 0.054000
1517162556673101347	900 77 1.000000 0.375000 0.392000 1700 64 1.100000 4.200000 4.981000 600 84 1.000000 0.058000 0.058000 1.200000 0.055000 0.066000
1517162557225048639	900 77 1.000000 0.373000 0.390000 1700 64 1.100000 4.092000 4.853000 600 84 1.000000 0.058000 0.058000 1.200000 0.069000 0.083000
1517162557785093597	900 77 1.000000 0.373000 0.390000 1700 64 1.100000 4.193000 4.972000 600 84 1.000000 0.058000 0.058000 1.200000 0.059000 0.071000
1517162558333345139	900 77 1.000000 0.377000 0.394000 1800 64 1.100000 4.190000 4.969000 600 85 1.000000 0.058000 0.058000 1.200000 0.047000 0.056000
1517162558881162514	900 76 1.000000 0.379000 0.396000 1700 64 1.100000 3.722000 4.269000 600 84 1.000000 0.058000 0.058000 1.200000 0.060000 0.072000
1517162559429189431	900 76 1.000000 0.380000 0.397000 1700 64 1.100000 4.161000 4.934000 600 84 1.000000 0.058000 0.058000 1.200000 0.048000 0.057000
1517162559985250847	900 76 1.000000 0.378000 0.395000 1700 64 1.100000 4.170000 4.945000 600 83 1.000000 0.058000 0.058000 1.200000 0.050000 0.060000
1517162560541250181	900 76 1.000000 0.379000 0.396000 1700 64 1.100000 4.182000 4.959000 600 84 1.000000 0.058000 0.058000 1.200000 0.047000 0.056000
1517162561101152556	900 76 1.000000 0.377000 0.394000 1700 64 1.100000 4.181000 4.958000 600 84 1.000000 0.058000 0.058000 1.200000 0.051000 0.061000
1517162561657166973	900 76 1.000000 0.375000 0.392000 1700 64 1.100000 4.159000 4.928000 600 84 1.000000 0.058000 0.058000 1.200000 0.066000 0.079000
1517162562221153931	900 75 1.000000 0.378000 0.395000 1700 64 1.100000 4.080000 4.834000 600 84 1.000000 0.058000 0.058000 1.200000 0.064000 0.077000
1517162562773324639	900 76 1.000000 0.380000 0.397000 1700 64 1.100000 4.166000 4.940000 600 84 1.000000 0.058000 0.058000 1.200000 0.053000 0.064000
1517162563321159348	900 76 1.000000 0.377000 0.394000 1600 64 1.200000 4.377000 5.300000 600 84 1.000000 0.058000 0.058000 1.200000 0.069000 0.083000
1517162563881172598	900 76 1.000000 0.379000 0.396000 1700 64 1.100000 3.971000 4.638000 600 84 1.000000 0.058000 0.058000 1.200000 0.045000 0.054000
1517162564437076515	900 76 1.000000 0.376000 0.393000 1700 64 1.100000 4.114000 4.875000 600 84 1.000000 0.058000 0.058000 1.200000 0.058000 0.070000
1517162564989080806	900 76 1.000000 0.376000 0.393000 1700 64 1.100000 4.189000 4.968000 600 84 1.000000 0.058000 0.058000 1.200000 0.051000 0.061000
1517162565549215806	900 76 1.000000 0.381000 0.398000 1700 64 1.100000 4.135000 4.899000 600 84 1.000000 0.058000 0.058000 1.200000 0.052000 0.062000
1517162566101481765	900 76 1.000000 0.381000 0.398000 1700 64 1.100000 4.083000 4.838000 600 84 1.000000 0.058000 0.058000 1.200000 0.057000 0.068000
1517162566607211848	900 65 1.000000 0.381000 0.398000 1800 61 1.100000 2.438000 2.867000 600 71 1.000000 0.058000 0.058000 1.200000 0.035000 0.042000
1517162567112764432	900 63 1.000000 0.379000 0.396000 1800 60 1.200000 1.595000 1.929000 600 68 1.000000 0.058000 0.058000 1.200000 0.035000 0.042000
1517162567618197598	900 62 1.000000 0.378000 0.395000 1800 58 1.200000 1.567000 1.896000 600 66 1.000000 0.057000 0.057000 1.200000 0.040000 0.048000
1517162568123738015	900 61 1.000000 0.376000 0.393000 1800 58 1.200000 1.543000 1.867000 600 64 1.000000 0.057000 0.057000 1.200000 0.042000 0.050000
1517162568629076890	900 58 1.000000 0.376000 0.393000 1800 56 1.200000 1.563000 1.888000 600 60 1.000000 0.056000 0.056000 1.200000 0.038000 0.045000
1517162569134143724	900 56 1.000000 0.374000 0.391000 1800 55 1.200000 0.339000 0.407000 600 58 1.000000 0.056000 0.056000 1.200000 0.036000 0.043000
1517162569639077849	900 54 1.000000 0.376000 0.393000 1800 53 1.200000 0.364000 0.437000 600 57 1.000000 0.055000 0.055000 1.200000 0.032000 0.038000
1517162570144193640	900 53 1.000000 0.372000 0.389000 1800 52 1.200000 0.347000 0.417000 600 56 1.000000 0.055000 0.055000 1.200000 0.046000 0.055000
1517162570649053724	900 52 1.000000 0.369000 0.386000 1800 51 1.200000 0.360000 0.433000 600 55 1.000000 0.055000 0.055000 1.200000 0.045000 0.054000
1517162571153884557	900 52 1.000000 0.371000 0.388000 1800 51 1.200000 0.363000 0.436000 600 54 1.000000 0.055000 0.055000 1.200000 0.040000 0.048000
1517162571658954391	900 51 1.000000 0.369000 0.386000 1800 50 1.200000 0.347000 0.417000 600 53 1.000000 0.055000 0.055000 1.200000 0.042000 0.050000
1517162572163961432	900 51 1.000000 0.371000 0.388000 1800 49 1.200000 0.352000 0.423000 600 52 1.000000 0.055000 0.055000 1.200000 0.036000 0.043000
1517162572668771932	900 50 1.000000 0.373000 0.390000 1800 49 1.200000 0.337000 0.405000 600 52 1.000000 0.055000 0.055000 1.200000 0.034000 0.041000
1517162573173644224	900 49 1.000000 0.373000 0.390000 1800 48 1.200000 0.319000 0.383000 600 51 1.000000 0.054000 0.054000 1.200000 0.038000 0.045000
1517162573678512557	900 49 1.000000 0.374000 0.391000 1800 48 1.200000 0.306000 0.368000 600 51 1.000000 0.055000 0.055000 1.200000 0.032000 0.038000
1517162574183618183	900 48 1.000000 0.372000 0.389000 1800 48 1.200000 0.314000 0.377000 600 51 1.000000 0.054000 0.054000 1.200000 0.030000 0.036000
1517162574688639224	900 48 1.000000 0.372000 0.389000 1800 47 1.200000 0.328000 0.394000 600 50 1.000000 0.054000 0.054000 1.200000 0.033000 0.039000
1517162575193547683	900 48 1.000000 0.372000 0.389000 1800 47 1.200000 0.319000 0.383000 600 50 1.000000 0.054000 0.054000 1.200000 0.032000 0.038000
1517162575698448224	900 48 1.000000 0.371000 0.388000 1800 47 1.200000 0.306000 0.368000 600 50 1.000000 0.054000 0.054000 1.200000 0.034000 0.041000
1517162576203421141	900 47 1.000000 0.371000 0.388000 1800 46 1.200000 0.344000 0.413000 600 49 1.000000 0.054000 0.054000 1.200000 0.034000 0.041000
1517162576708278433	900 47 1.000000 0.372000 0.389000 1800 46 1.200000 0.300000 0.360000 600 49 1.000000 0.054000 0.054000 1.200000 0.033000 0.039000
1517162577213335016	900 47 1.000000 0.371000 0.388000 1800 46 1.200000 0.317000 0.381000 600 49 1.000000 0.053000 0.053000 1.200000 0.033000 0.039000
1517162577718279641	900 47 1.000000 0.372000 0.389000 1800 46 1.200000 0.320000 0.384000 600 49 1.000000 0.054000 0.054000 1.200000 0.031000 0.037000
1517162578223245766	900 46 1.000000 0.370000 0.387000 1800 46 1.200000 0.310000 0.372000 600 48 1.000000 0.054000 0.054000 1.200000 0.036000 0.043000
1517162578728192100	900 46 1.000000 0.372000 0.389000 1800 45 1.200000 0.295000 0.354000 600 48 1.000000 0.054000 0.054000 1.200000 0.031000 0.037000
1517162579232981766	900 46 1.000000 0.368000 0.385000 1800 45 1.200000 0.314000 0.377000 600 48 1.000000 0.053000 0.053000 1.200000 0.038000 0.045000
1517162579737734350	900 46 1.000000 0.371000 0.388000 1800 45 1.200000 0.297000 0.357000 600 48 1.000000 0.053000 0.053000 1.200000 0.034000 0.041000
1517162580242518975	900 46 1.000000 0.370000 0.387000 1800 45 1.200000 0.326000 0.392000 600 48 1.000000 0.054000 0.054000 1.200000 0.033000 0.039000
1517162580747246558	900 45 1.000000 0.369000 0.386000 1800 45 1.200000 0.302000 0.363000 600 47 1.000000 0.053000 0.053000 1.200000 0.033000 0.039000
1517162581252125892	900 45 1.000000 0.368000 0.385000 1800 44 1.200000 0.332000 0.399000 600 47 1.000000 0.053000 0.053000 1.200000 0.035000 0.042000
1517162581757002558	900 45 1.000000 0.370000 0.387000 1800 44 1.200000 0.320000 0.384000 600 47 1.000000 0.053000 0.053000 1.200000 0.041000 0.049000
1517162582261935308	900 45 1.000000 0.325000 0.340000 1800 44 1.200000 0.289000 0.347000 600 47 1.000000 0.053000 0.053000 1.200000 0.031000 0.037000
1517162582766897559	900 44 1.000000 0.289000 0.302000 1800 44 1.200000 0.325000 0.390000 600 47 1.000000 0.053000 0.053000 1.200000 0.033000 0.039000
1517162583271873809	900 44 1.000000 0.289000 0.302000 1800 43 1.200000 0.287000 0.345000 600 47 1.000000 0.053000 0.053000 1.200000 0.032000 0.038000
1517162583776799225	900 44 1.000000 0.290000 0.303000 1800 43 1.200000 0.274000 0.329000 600 46 1.000000 0.053000 0.053000 1.200000 0.029000 0.035000
1517162584281645517	900 44 1.000000 0.290000 0.303000 1800 43 1.200000 0.278000 0.334000 600 46 1.000000 0.053000 0.053000 1.200000 0.030000 0.036000
1517162584786512434	900 44 1.000000 0.289000 0.302000 1800 43 1.200000 0.282000 0.339000 600 46 1.000000 0.053000 0.053000 1.200000 0.029000 0.035000
1517162585291395601	900 44 1.000000 0.287000 0.300000 1800 43 1.200000 0.286000 0.344000 600 46 1.000000 0.053000 0.053000 1.200000 0.037000 0.044000
1517162585796261684	900 43 1.000000 0.288000 0.301000 1800 43 1.200000 0.278000 0.334000 600 46 1.000000 0.053000 0.053000 1.200000 0.032000 0.038000
1517162586301198017	900 44 1.000000 0.289000 0.302000 1800 43 1.200000 0.302000 0.363000 600 46 1.000000 0.053000 0.053000 1.200000 0.030000 0.036000
1517162586806039142	900 43 1.000000 0.289000 0.302000 1800 43 1.200000 0.296000 0.356000 600 46 1.000000 0.053000 0.053000 1.200000 0.032000 0.038000
1517162587310850017	900 43 1.000000 0.289000 0.302000 1800 42 1.200000 0.283000 0.340000 600 45 1.000000 0.053000 0.053000 1.200000 0.029000 0.035000
1517162587815743601	900 43 1.000000 0.289000 0.302000 1800 42 1.200000 0.319000 0.383000 600 45 1.000000 0.053000 0.053000 1.200000 0.036000 0.043000
1517162588320579268	900 43 1.000000 0.290000 0.303000 1800 42 1.200000 0.273000 0.328000 600 45 1.000000 0.053000 0.053000 1.200000 0.030000 0.036000
1517162588825337851	900 43 1.000000 0.289000 0.302000 1800 42 1.200000 0.281000 0.338000 600 45 1.000000 0.053000 0.053000 1.200000 0.027000 0.032000
1517162589330143976	900 43 1.000000 0.287000 0.300000 1800 42 1.200000 0.282000 0.339000 600 45 1.000000 0.053000 0.053000 1.200000 0.032000 0.038000
1517162589835003184	900 43 1.000000 0.289000 0.302000 1800 42 1.200000 0.279000 0.335000 600 45 1.000000 0.053000 0.053000 1.200000 0.031000 0.037000
1517162590339900726	900 42 1.000000 0.289000 0.302000 1800 42 1.200000 0.277000 0.333000 600 45 1.000000 0.053000 0.053000 1.200000 0.030000 0.036000
1517162590844702643	900 42 1.000000 0.289000 0.302000 1800 42 1.200000 0.272000 0.327000 600 45 1.000000 0.053000 0.053000 1.200000 0.030000 0.036000
1517162591349543976	900 42 1.000000 0.288000 0.301000 1800 41 1.200000 0.275000 0.330000 600 45 1.000000 0.053000 0.053000 1.200000 0.032000 0.038000
1517162591854536101	900 42 1.000000 0.218000 0.231000 1800 41 1.200000 0.295000 0.354000 600 45 1.000000 0.053000 0.053000 1.200000 0.026000 0.031000
1517162592359369226	900 42 1.000000 0.210000 0.222000 1800 41 1.200000 0.269000 0.323000 600 44 1.000000 0.053000 0.053000 1.200000 0.027000 0.032000
1517162592864245018	900 42 1.000000 0.209000 0.221000 1800 41 1.200000 0.303000 0.364000 600 44 1.000000 0.053000 0.053000 1.200000 0.027000 0.032000
1517162593369093768	900 41 1.000000 0.210000 0.222000 1800 41 1.200000 0.268000 0.322000 600 44 1.000000 0.053000 0.053000 1.200000 0.026000 0.031000
1517162593873995935	900 41 1.000000 0.209000 0.221000 1800 41 1.200000 0.272000 0.327000 600 44 1.000000 0.053000 0.053000 1.200000 0.028000 0.033000
1517162594378946435	900 41 1.000000 0.210000 0.222000 1800 41 1.200000 0.270000 0.324000 600 44 1.000000 0.053000 0.053000 1.200000 0.027000 0.032000
1517162594883933602	900 41 1.000000 0.209000 0.221000 1800 40 1.200000 0.269000 0.323000 600 44 1.000000 0.053000 0.053000 1.200000 0.029000 0.035000
1517162595388932810	900 41 1.000000 0.129000 0.136000 1800 40 1.200000 0.257000 0.309000 600 44 1.000000 0.053000 0.053000 1.200000 0.023000 0.027000
1517162595893804977	900 41 1.000000 0.125000 0.132000 1800 40 1.200000 0.261000 0.313000 600 44 1.000000 0.053000 0.053000 1.200000 0.023000 0.027000
1517162596398719643	900 41 1.000000 0.126000 0.133000 1800 40 1.200000 0.265000 0.318000 600 44 1.000000 0.053000 0.053000 1.200000 0.024000 0.028000
1517162596903624727	900 40 1.000000 0.125000 0.132000 1800 40 1.200000 0.264000 0.317000 600 43 1.000000 0.053000 0.053000 1.200000 0.024000 0.028000
1517162597408586185	900 40 1.000000 0.126000 0.133000 1800 39 1.200000 0.258000 0.310000 600 43 1.000000 0.053000 0.053000 1.200000 0.024000 0.028000
1517162597913537019	900 40 1.000000 0.123000 0.130000 1800 39 1.200000 0.291000 0.350000 600 43 1.000000 0.053000 0.053000 1.200000 0.025000 0.030000
1517162598418399019	900 40 1.000000 0.125000 0.132000 1800 39 1.200000 0.275000 0.330000 600 43 1.000000 0.053000 0.053000 1.200000 0.030000 0.036000
1517162598923292935	900 40 1.000000 0.125000 0.132000 1800 39 1.200000 0.266000 0.319000 600 43 1.000000 0.053000 0.053000 1.200000 0.025000 0.030000
1517162599428174811	900 40 1.000000 0.127000 0.134000 1800 39 1.200000 0.259000 0.311000 600 43 1.000000 0.053000 0.053000 1.200000 0.024000 0.028000
1517162599933065644	900 40 1.000000 0.125000 0.132000 1800 39 1.200000 0.255000 0.306000 600 43 1.000000 0.053000 0.053000 1.200000 0.023000 0.027000
1517162600438002686	900 40 1.000000 0.125000 0.132000 1800 39 1.200000 0.264000 0.317000 600 43 1.000000 0.053000 0.053000 1.200000 0.027000 0.032000
1517162600942871186	900 40 1.000000 0.125000 0.132000 1800 39 1.200000 0.264000 0.317000 600 43 1.000000 0.053000 0.053000 1.200000 0.024000 0.028000
1517162601447800477	900 39 1.000000 0.124000 0.131000 1800 39 1.200000 0.258000 0.310000 600 43 1.000000 0.053000 0.053000 1.200000 0.024000 0.028000
1517162601952633269	900 40 1.000000 0.125000 0.132000 1800 39 1.200000 0.280000 0.336000 600 43 1.000000 0.053000 0.053000 1.200000 0.024000 0.028000
1517162602457486436	900 39 1.000000 0.125000 0.132000 1800 39 1.200000 0.260000 0.312000 600 43 1.000000 0.053000 0.053000 1.200000 0.024000 0.028000
1517162602962287103	900 39 1.000000 0.125000 0.132000 1800 39 1.200000 0.294000 0.353000 600 43 1.000000 0.053000 0.053000 1.200000 0.024000 0.028000
1517162603467184436	900 39 1.000000 0.124000 0.131000 1800 39 1.200000 0.261000 0.313000 600 42 1.000000 0.053000 0.053000 1.200000 0.023000 0.027000
1517162603972106978	900 39 1.000000 0.125000 0.132000 1800 39 1.200000 0.281000 0.338000 600 42 1.000000 0.052000 0.052000 1.200000 0.023000 0.027000
1517162604476990853	900 39 1.000000 0.125000 0.132000 1800 38 1.200000 0.278000 0.334000 600 42 1.000000 0.053000 0.053000 1.200000 0.025000 0.030000
1517162604981874603	900 39 1.000000 0.124000 0.131000 1800 38 1.200000 0.261000 0.313000 600 42 1.000000 0.053000 0.053000 1.200000 0.024000 0.028000
1517162605486780811	900 39 1.000000 0.124000 0.131000 1800 38 1.200000 0.294000 0.353000 600 42 1.000000 0.053000 0.053000 1.200000 0.023000 0.027000
1517162605991702436	900 39 1.000000 0.124000 0.131000 1800 38 1.200000 0.265000 0.318000 600 42 1.000000 0.053000 0.053000 1.200000 0.024000 0.028000
1517162606496507478	900 39 1.000000 0.125000 0.132000 1800 38 1.200000 0.280000 0.336000 600 42 1.000000 0.052000 0.052000 1.200000 0.023000 0.027000
1517162607001343061	900 39 1.000000 0.125000 0.132000 1800 38 1.200000 0.278000 0.334000 600 42 1.000000 0.052000 0.052000 1.200000 0.025000 0.030000
1517162607506151353	900 39 1.000000 0.125000 0.132000 1800 38 1.200000 0.260000 0.312000 600 42 1.000000 0.052000 0.052000 1.200000 0.023000 0.027000
1517162608011054062	900 39 1.000000 0.124000 0.131000 1800 38 1.200000 0.300000 0.360000 600 42 1.000000 0.053000 0.053000 1.200000 0.023000 0.027000
1517162608516005895	900 39 1.000000 0.124000 0.131000 1800 38 1.200000 0.260000 0.312000 600 42 1.000000 0.053000 0.053000 1.200000 0.024000 0.028000
1517162609020939062	900 39 1.000000 0.123000 0.130000 1800 38 1.200000 0.256000 0.307000 600 42 1.000000 0.052000 0.052000 1.200000 0.024000 0.028000
1517162609525725187	900 39 1.000000 0.122000 0.129000 1800 38 1.200000 0.290000 0.348000 600 42 1.000000 0.052000 0.052000 1.200000 0.031000 0.037000
1517162610030554353	900 39 1.000000 0.125000 0.132000 1800 38 1.200000 0.259000 0.311000 600 42 1.000000 0.052000 0.052000 1.200000 0.025000 0.030000
1517162610535391270	900 39 1.000000 0.124000 0.131000 1800 38 1.200000 0.296000 0.356000 600 42 1.000000 0.053000 0.053000 1.200000 0.027000 0.032000
1517162611040172770	900 38 1.000000 0.124000 0.131000 1800 38 1.200000 0.257000 0.309000 600 42 1.000000 0.052000 0.052000 1.200000 0.023000 0.027000
1517162611544973020	900 39 1.000000 0.125000 0.132000 1800 38 1.200000 0.278000 0.334000 600 42 1.000000 0.052000 0.052000 1.200000 0.025000 0.030000
1517162612049758895	900 38 1.000000 0.125000 0.132000 1800 38 1.200000 0.280000 0.336000 600 42 1.000000 0.052000 0.052000 1.200000 0.024000 0.028000
1517162612554587687	900 38 1.000000 0.124000 0.131000 1800 38 1.200000 0.260000 0.312000 600 42 1.000000 0.052000 0.052000 1.200000 0.024000 0.028000
1517162613059420562	900 38 1.000000 0.125000 0.132000 1800 38 1.200000 0.292000 0.351000 600 42 1.000000 0.052000 0.052000 1.200000 0.024000 0.028000
1517162613564259271	900 38 1.000000 0.124000 0.131000 1800 38 1.200000 0.255000 0.306000 600 41 1.000000 0.052000 0.052000 1.200000 0.025000 0.030000
1517162614069030937	900 38 1.000000 0.124000 0.131000 1800 38 1.200000 0.256000 0.307000 600 41 1.000000 0.052000 0.052000 1.200000 0.025000 0.030000
1517162614573821646	900 38 1.000000 0.124000 0.131000 1800 38 1.200000 0.257000 0.309000 600 41 1.000000 0.052000 0.052000 1.200000 0.023000 0.027000
1517162615078779937	900 38 1.000000 0.124000 0.131000 1800 38 1.200000 0.262000 0.315000 600 41 1.000000 0.052000 0.052000 1.200000 0.024000 0.028000
1517162615583616521	900 38 1.000000 0.124000 0.131000 1800 37 1.200000 0.291000 0.350000 600 41 1.000000 0.052000 0.052000 1.200000 0.024000 0.028000
1517162616088410729	900 38 1.000000 0.123000 0.130000 1800 37 1.200000 0.257000 0.309000 600 41 1.000000 0.052000 0.052000 1.200000 0.025000 0.030000
1517162616593291313	900 38 1.000000 0.124000 0.131000 1800 37 1.200000 0.275000 0.330000 600 41 1.000000 0.052000 0.052000 1.200000 0.024000 0.028000
1517162617098156188	900 38 1.000000 0.124000 0.131000 1800 37 1.200000 0.286000 0.344000 600 41 1.000000 0.052000 0.052000 1.200000 0.023000 0.027000
1517162617602958646	900 38 1.000000 0.125000 0.132000 1800 37 1.200000 0.262000 0.315000 600 41 1.000000 0.052000 0.052000 1.200000 0.026000 0.031000
1517162618107758146	900 38 1.000000 0.124000 0.131000 1800 37 1.200000 0.287000 0.345000 600 41 1.000000 0.052000 0.052000 1.200000 0.023000 0.027000
1517162618612550604	900 38 1.000000 0.125000 0.132000 1800 37 1.200000 0.254000 0.305000 600 41 1.000000 0.053000 0.053000 1.200000 0.023000 0.027000
1517162619117349896	900 38 1.000000 0.124000 0.131000 1800 37 1.200000 0.257000 0.309000 600 41 1.000000 0.052000 0.052000 1.200000 0.024000 0.028000
1517162619622179230	900 38 1.000000 0.121000 0.128000 1800 37 1.200000 0.257000 0.309000 600 41 1.000000 0.052000 0.052000 1.200000 0.024000 0.028000
1517162620126986896	900 38 1.000000 0.124000 0.131000 1800 37 1.200000 0.252000 0.303000 600 41 1.000000 0.052000 0.052000 1.200000 0.024000 0.028000
1517162620631781271	900 38 1.000000 0.124000 0.131000 1800 37 1.200000 0.251000 0.301000 600 41 1.000000 0.052000 0.052000 1.200000 0.023000 0.027000
1517162621136587980	900 38 1.000000 0.124000 0.131000 1800 37 1.200000 0.256000 0.307000 600 41 1.000000 0.052000 0.052000 1.200000 0.026000 0.031000
1517162621641470480	900 38 1.000000 0.124000 0.131000 1800 37 1.200000 0.275000 0.330000 600 41 1.000000 0.052000 0.052000 1.200000 0.024000 0.028000
1517162622146350647	900 38 1.000000 0.124000 0.131000 1800 37 1.200000 0.283000 0.340000 600 41 1.000000 0.052000 0.052000 1.200000 0.024000 0.028000
1517162622651193355	900 38 1.000000 0.124000 0.131000 1800 37 1.200000 0.256000 0.307000 600 41 1.000000 0.053000 0.053000 1.200000 0.024000 0.028000
1517162623156070355	900 38 1.000000 0.124000 0.131000 1800 37 1.200000 0.287000 0.345000 600 41 1.000000 0.052000 0.052000 1.200000 0.023000 0.027000
1517162623660970438	900 38 1.000000 0.124000 0.131000 1800 37 1.200000 0.256000 0.307000 600 41 1.000000 0.052000 0.052000 1.200000 0.024000 0.028000
1517162624165749647	900 38 1.000000 0.123000 0.130000 1800 37 1.200000 0.268000 0.322000 600 41 1.000000 0.052000 0.052000 1.200000 0.027000 0.032000
1517162624670551147	900 38 1.000000 0.124000 0.131000 1800 37 1.200000 0.253000 0.304000 600 41 1.000000 0.052000 0.052000 1.200000 0.023000 0.027000
1517162625175381772	900 38 1.000000 0.125000 0.132000 1800 37 1.200000 0.252000 0.303000 600 41 1.000000 0.052000 0.052000 1.200000 0.024000 0.028000
1517162625680285022	900 38 1.000000 0.124000 0.131000 1800 37 1.200000 0.252000 0.303000 600 41 1.000000 0.052000 0.052000 1.200000 0.024000 0.028000
1517162626185064980	900 37 1.000000 0.124000 0.131000 1800 37 1.200000 0.254000 0.305000 600 41 1.000000 0.052000 0.052000 1.200000 0.024000 0.028000
1517162626689898939	900 37 1.000000 0.124000 0.131000 1800 37 1.200000 0.257000 0.309000 600 41 1.000000 0.052000 0.052000 1.200000 0.023000 0.027000
1517162627194960897	900 37 1.000000 0.124000 0.131000 1800 37 1.200000 0.284000 0.341000 600 40 1.000000 0.052000 0.052000 1.200000 0.025000 0.030000
1517162627699952647	900 37 1.000000 0.124000 0.131000 1800 37 1.200000 0.253000 0.304000 600 40 1.000000 0.052000 0.052000 1.200000 0.025000 0.030000
1517162628204804522	900 37 1.000000 0.124000 0.131000 1800 36 1.200000 0.286000 0.344000 600 40 1.000000 0.052000 0.052000 1.200000 0.024000 0.028000
1517162628709642814	900 37 1.000000 0.124000 0.131000 1800 36 1.200000 0.255000 0.306000 600 40 1.000000 0.052000 0.052000 1.200000 0.024000 0.028000
1517162629214459397	900 37 1.000000 0.123000 0.130000 1800 36 1.200000 0.259000 0.311000 600 40 1.000000 0.052000 0.052000 1.200000 0.027000 0.032000
1517162629719373689	900 37 1.000000 0.124000 0.131000 1800 36 1.200000 0.251000 0.301000 600 40 1.000000 0.052000 0.052000 1.200000 0.024000 0.028000
1517162630224211648	900 37 1.000000 0.123000 0.130000 1800 36 1.200000 0.248000 0.298000 600 40 1.000000 0.052000 0.052000 1.200000 0.023000 0.027000
1517162630729004273	900 37 1.000000 0.125000 0.132000 1800 37 1.200000 0.253000 0.304000 600 40 1.000000 0.052000 0.052000 1.200000 0.025000 0.030000
1517162631233838064	900 37 1.000000 0.124000 0.131000 1800 36 1.200000 0.258000 0.310000 600 40 1.000000 0.052000 0.052000 1.200000 0.024000 0.028000
1517162631738748689	900 37 1.000000 0.124000 0.131000 1800 36 1.200000 0.256000 0.307000 600 40 1.000000 0.052000 0.052000 1.200000 0.023000 0.027000
1517162632243614023	900 37 1.000000 0.124000 0.131000 1800 36 1.200000 0.251000 0.301000 600 40 1.000000 0.052000 0.052000 1.200000 0.024000 0.028000
1517162632749166231	900 37 1.000000 0.124000 0.131000 1800 36 1.200000 0.752000 0.906000 600 41 1.000000 0.052000 0.052000 1.200000 0.032000 0.038000
1517162633254456273	900 37 1.000000 0.040000 0.042000 1800 36 1.200000 0.291000 0.350000 600 40 1.000000 0.052000 0.052000 1.200000 0.024000 0.028000
