#Timestamp	CPU(0) Frequency(MHz)	CPU(0) Temperature(C)	A7 Voltage(V)	A7 Current(A)	A7 Power(W)	CPU(4) Frequency(MHz)	CPU(4) Temperature(C)	A15 Voltage(V)	A15 Current(A)	A15 Power(W)	GPU Frequency(MHz)	GPU Temperature(C)	GPU Voltage(V)	GPU Current(A)	GPU Power(W)	RAM Voltage(V)	RAM Current(A)	RAM Power(W)
1518031073299625424	200 55 0.900000 0.019000 0.017000 1700 52 1.100000 0.797000 0.932000 600 57 1.000000 0.055000 0.055000 1.200000 0.045000 0.054000
1518031073810567216	200 55 0.900000 0.021000 0.019000 1700 52 1.100000 1.120000 1.310000 600 58 1.000000 0.055000 0.055000 1.200000 0.039000 0.047000
1518031074321032299	200 55 0.900000 0.021000 0.019000 1700 52 1.100000 1.119000 1.309000 600 58 1.000000 0.055000 0.055000 1.200000 0.039000 0.047000
1518031074832665966	200 55 0.900000 0.020000 0.018000 1700 53 1.100000 1.113000 1.302000 600 58 1.000000 0.055000 0.055000 1.200000 0.040000 0.048000
1518031075389970841	200 66 0.900000 0.028000 0.025000 1700 55 1.100000 1.931000 2.268000 600 72 1.000000 0.055000 0.055000 1.200000 0.038000 0.045000
1518031075961887049	200 70 0.900000 0.078000 0.071000 1700 57 1.100000 4.461000 5.295000 600 78 1.000000 0.055000 0.055000 1.200000 0.028000 0.033000
1518031076513846674	200 72 0.900000 0.079000 0.072000 1700 59 1.100000 4.516000 5.360000 600 81 1.000000 0.056000 0.056000 1.200000 0.028000 0.033000
1518031077077806883	200 74 0.900000 0.080000 0.073000 1700 61 1.100000 4.538000 5.386000 600 83 1.000000 0.057000 0.057000 1.200000 0.028000 0.033000
1518031077645817300	200 75 0.900000 0.081000 0.073000 1700 62 1.100000 4.555000 5.406000 600 84 1.000000 0.057000 0.057000 1.200000 0.029000 0.035000
1518031078221829216	200 76 0.900000 0.081000 0.073000 1700 63 1.100000 4.555000 5.411000 600 86 1.000000 0.057000 0.057000 1.200000 0.028000 0.033000
1518031078789801300	200 77 0.900000 0.081000 0.073000 1700 64 1.100000 4.584000 5.445000 600 87 1.000000 0.058000 0.058000 1.200000 0.028000 0.033000
1518031079353766341	200 77 0.900000 0.083000 0.075000 1600 64 1.100000 4.611000 5.477000 600 87 1.000000 0.058000 0.058000 1.200000 0.028000 0.033000
1518031079921849300	200 76 0.900000 0.083000 0.075000 1600 64 1.100000 4.148000 4.757000 600 86 1.000000 0.058000 0.058000 1.200000 0.028000 0.033000
1518031080481774842	200 77 0.900000 0.083000 0.075000 1600 65 1.100000 4.125000 4.731000 600 86 1.000000 0.058000 0.058000 1.200000 0.028000 0.033000
1518031081029908383	200 77 0.900000 0.083000 0.075000 1600 65 1.100000 4.136000 4.743000 600 86 1.000000 0.058000 0.058000 1.200000 0.028000 0.033000
1518031081593890092	200 77 0.900000 0.082000 0.075000 1600 65 1.100000 4.142000 4.755000 600 86 1.000000 0.058000 0.058000 1.200000 0.028000 0.033000
1518031082141908092	200 77 0.900000 0.083000 0.075000 1600 65 1.100000 4.191000 4.811000 600 86 1.000000 0.059000 0.059000 1.200000 0.028000 0.033000
1518031082693820425	200 77 0.900000 0.083000 0.075000 1600 65 1.100000 4.179000 4.793000 600 86 1.000000 0.058000 0.058000 1.200000 0.028000 0.033000
1518031083261913259	200 78 0.900000 0.083000 0.075000 1600 66 1.100000 4.179000 4.793000 600 87 1.000000 0.059000 0.059000 1.200000 0.028000 0.033000
1518031083817903092	200 78 0.900000 0.083000 0.075000 1600 66 1.100000 4.197000 4.818000 600 87 1.000000 0.059000 0.059000 1.200000 0.028000 0.033000
1518031084381885800	200 78 0.900000 0.083000 0.075000 1600 66 1.100000 4.200000 4.821000 600 87 1.000000 0.059000 0.059000 1.200000 0.028000 0.033000
1518031084937905050	200 78 0.900000 0.083000 0.075000 1600 66 1.100000 4.185000 4.804000 600 87 1.000000 0.059000 0.059000 1.200000 0.028000 0.033000
1518031085493891800	200 78 0.900000 0.083000 0.075000 1600 66 1.100000 4.192000 4.812000 600 87 1.000000 0.059000 0.059000 1.200000 0.028000 0.033000
1518031086049897967	200 78 0.900000 0.083000 0.075000 1600 66 1.100000 4.180000 4.798000 600 87 1.000000 0.059000 0.059000 1.200000 0.028000 0.033000
1518031086613860176	200 78 0.900000 0.083000 0.075000 1600 66 1.100000 4.198000 4.819000 600 87 1.000000 0.059000 0.059000 1.200000 0.028000 0.033000
1518031087181767134	200 78 0.900000 0.084000 0.076000 1600 66 1.100000 4.200000 4.821000 600 88 1.000000 0.059000 0.059000 1.200000 0.028000 0.033000
1518031087729909051	200 79 0.900000 0.083000 0.075000 1600 66 1.100000 4.206000 4.828000 600 88 1.000000 0.059000 0.059000 1.200000 0.029000 0.035000
1518031088285856342	200 79 0.900000 0.083000 0.075000 1600 67 1.100000 4.230000 4.856000 600 88 1.000000 0.059000 0.059000 1.200000 0.028000 0.033000
1518031088837864509	200 79 0.900000 0.083000 0.075000 1600 67 1.100000 4.231000 4.857000 600 88 1.000000 0.059000 0.059000 1.200000 0.028000 0.033000
1518031089405865301	200 79 0.900000 0.083000 0.075000 1600 67 1.100000 4.232000 4.858000 600 88 1.000000 0.059000 0.059000 1.200000 0.028000 0.033000
1518031089965900051	200 79 0.900000 0.083000 0.075000 1600 67 1.100000 4.234000 4.860000 600 88 1.000000 0.059000 0.059000 1.200000 0.028000 0.033000
1518031090529907218	200 79 0.900000 0.083000 0.075000 1600 67 1.100000 4.218000 4.842000 600 88 1.000000 0.059000 0.059000 1.200000 0.028000 0.033000
1518031091081775843	200 79 0.900000 0.083000 0.075000 1600 67 1.100000 4.203000 4.825000 600 88 1.000000 0.059000 0.059000 1.200000 0.028000 0.033000
1518031091641894801	200 79 0.900000 0.084000 0.076000 1600 67 1.100000 4.219000 4.843000 600 88 1.000000 0.059000 0.059000 1.200000 0.028000 0.033000
1518031092205869176	200 79 0.900000 0.084000 0.076000 1600 67 1.100000 4.217000 4.841000 600 88 1.000000 0.059000 0.059000 1.200000 0.028000 0.033000
1518031092773848885	200 79 0.900000 0.083000 0.075000 1600 67 1.100000 4.222000 4.842000 600 88 1.000000 0.060000 0.060000 1.200000 0.028000 0.033000
1518031093337852468	200 79 0.900000 0.084000 0.076000 1600 67 1.100000 4.237000 4.864000 600 89 1.000000 0.059000 0.059000 1.200000 0.028000 0.033000
1518031093901792426	200 79 0.900000 0.083000 0.075000 1600 67 1.100000 4.237000 4.864000 600 89 1.000000 0.059000 0.059000 1.200000 0.028000 0.033000
1518031094477836302	200 79 0.900000 0.084000 0.076000 1600 67 1.100000 4.262000 4.892000 600 89 1.000000 0.060000 0.060000 1.200000 0.028000 0.033000
1518031095041775552	200 80 0.900000 0.084000 0.076000 1600 67 1.100000 4.250000 4.879000 600 89 1.000000 0.059000 0.059000 1.200000 0.028000 0.033000
1518031095597798302	200 80 0.900000 0.083000 0.075000 1600 67 1.100000 4.248000 4.876000 600 89 1.000000 0.060000 0.060000 1.200000 0.028000 0.033000
1518031096161866718	200 80 0.900000 0.083000 0.075000 1600 67 1.100000 4.249000 4.877000 600 89 1.000000 0.060000 0.060000 1.200000 0.028000 0.033000
1518031096717822927	200 80 0.900000 0.083000 0.075000 1600 68 1.100000 4.239000 4.866000 600 89 1.000000 0.060000 0.060000 1.200000 0.028000 0.033000
1518031097265888677	200 80 0.900000 0.084000 0.076000 1600 68 1.100000 4.256000 4.885000 600 89 1.000000 0.060000 0.060000 1.200000 0.028000 0.033000
1518031097821869635	200 80 0.900000 0.083000 0.075000 1600 68 1.100000 4.255000 4.884000 600 89 1.000000 0.060000 0.060000 1.200000 0.028000 0.033000
1518031098373865927	200 80 0.900000 0.084000 0.076000 1600 68 1.100000 4.257000 4.887000 600 89 1.000000 0.059000 0.059000 1.200000 0.028000 0.033000
1518031098937906385	200 80 0.900000 0.084000 0.076000 1600 68 1.100000 4.256000 4.885000 600 89 1.000000 0.060000 0.060000 1.200000 0.028000 0.033000
1518031099505875177	200 80 0.900000 0.084000 0.076000 1600 68 1.100000 4.256000 4.885000 600 89 1.000000 0.059000 0.059000 1.200000 0.028000 0.033000
1518031100069769927	200 80 0.900000 0.084000 0.076000 1600 68 1.100000 4.258000 4.888000 600 89 1.000000 0.060000 0.060000 1.200000 0.028000 0.033000
1518031100621913302	200 80 0.900000 0.084000 0.076000 1600 68 1.100000 4.256000 4.885000 600 89 1.000000 0.060000 0.060000 1.200000 0.028000 0.033000
1518031101181913469	200 80 0.900000 0.084000 0.076000 1600 68 1.100000 4.214000 4.837000 600 89 1.000000 0.060000 0.060000 1.200000 0.028000 0.033000
1518031101745873511	200 80 0.900000 0.084000 0.076000 1600 68 1.100000 4.236000 4.862000 600 89 1.000000 0.060000 0.060000 1.200000 0.028000 0.033000
1518031102309869427	200 80 0.900000 0.084000 0.076000 1600 68 1.100000 4.237000 4.864000 600 89 1.000000 0.060000 0.060000 1.200000 0.028000 0.033000
1518031102861859511	200 80 0.900000 0.084000 0.076000 1600 68 1.100000 4.233000 4.859000 600 89 1.000000 0.060000 0.060000 1.200000 0.028000 0.033000
1518031103433823011	200 80 0.900000 0.084000 0.076000 1600 68 1.100000 4.236000 4.862000 600 89 1.000000 0.060000 0.060000 1.200000 0.028000 0.033000
1518031103985875553	200 80 0.900000 0.083000 0.075000 1600 68 1.100000 4.236000 4.862000 600 89 1.000000 0.060000 0.060000 1.200000 0.029000 0.035000
1518031104533882761	200 80 0.900000 0.083000 0.075000 1600 68 1.100000 4.238000 4.865000 600 89 1.000000 0.060000 0.060000 1.200000 0.028000 0.033000
1518031105101899928	200 80 0.900000 0.084000 0.076000 1600 68 1.100000 4.237000 4.864000 600 89 1.000000 0.060000 0.060000 1.200000 0.028000 0.033000
1518031105669865470	200 80 0.900000 0.083000 0.075000 1600 68 1.100000 4.238000 4.865000 600 89 1.000000 0.060000 0.060000 1.200000 0.028000 0.033000
1518031106245904803	200 80 0.900000 0.084000 0.076000 1600 68 1.100000 4.237000 4.864000 600 89 1.000000 0.060000 0.060000 1.200000 0.028000 0.033000
1518031106813885970	200 80 0.900000 0.084000 0.076000 1600 68 1.100000 4.215000 4.838000 600 89 1.000000 0.060000 0.060000 1.200000 0.028000 0.033000
1518031107365939386	200 80 0.900000 0.084000 0.076000 1600 68 1.100000 4.236000 4.862000 600 89 1.000000 0.060000 0.060000 1.200000 0.028000 0.033000
1518031107925807636	200 80 0.900000 0.084000 0.076000 1600 68 1.100000 4.214000 4.837000 600 89 1.000000 0.060000 0.060000 1.200000 0.028000 0.033000
1518031108489858262	200 80 0.900000 0.084000 0.076000 1600 68 1.100000 4.209000 4.831000 600 89 1.000000 0.060000 0.060000 1.200000 0.028000 0.033000
1518031109049860720	200 80 0.900000 0.084000 0.076000 1600 68 1.100000 4.207000 4.829000 600 89 1.000000 0.060000 0.060000 1.200000 0.028000 0.033000
1518031109617901845	200 80 0.900000 0.084000 0.076000 1600 68 1.100000 4.213000 4.836000 600 89 1.000000 0.060000 0.060000 1.200000 0.028000 0.033000
1518031110185863845	200 80 0.900000 0.084000 0.076000 1600 68 1.100000 4.197000 4.818000 600 90 1.000000 0.060000 0.060000 1.200000 0.028000 0.033000
1518031110741794345	200 80 0.900000 0.084000 0.076000 1600 68 1.100000 4.206000 4.828000 600 89 1.000000 0.060000 0.060000 1.200000 0.028000 0.033000
1518031111293886929	200 80 0.900000 0.084000 0.076000 1600 68 1.100000 4.206000 4.828000 600 89 1.000000 0.060000 0.060000 1.200000 0.028000 0.033000
1518031111857852137	200 80 0.900000 0.084000 0.076000 1500 68 1.100000 4.200000 4.821000 600 89 1.000000 0.060000 0.060000 1.200000 0.028000 0.033000
1518031112417827554	200 80 0.900000 0.084000 0.076000 1600 68 1.100000 3.775000 4.190000 600 89 1.000000 0.060000 0.060000 1.200000 0.029000 0.035000
1518031112985876845	200 80 0.900000 0.084000 0.076000 1600 68 1.100000 4.203000 4.825000 600 89 1.000000 0.060000 0.060000 1.200000 0.028000 0.033000
1518031113553921720	200 80 0.900000 0.084000 0.076000 1600 68 1.100000 4.220000 4.844000 600 89 1.000000 0.060000 0.060000 1.200000 0.029000 0.035000
1518031114113784012	200 80 0.900000 0.084000 0.076000 1600 68 1.100000 4.232000 4.858000 600 89 1.000000 0.060000 0.060000 1.200000 0.029000 0.035000
1518031114673892596	200 80 0.900000 0.084000 0.076000 1600 68 1.100000 4.241000 4.868000 600 89 1.000000 0.060000 0.060000 1.200000 0.028000 0.033000
1518031115233821221	200 80 0.900000 0.084000 0.076000 1600 68 1.100000 4.054000 4.585000 600 88 1.000000 0.060000 0.060000 1.200000 0.028000 0.033000
1518031115785940304	200 80 0.900000 0.084000 0.076000 1600 68 1.100000 4.228000 4.853000 600 89 1.000000 0.059000 0.059000 1.200000 0.028000 0.033000
1518031116337907221	200 80 0.900000 0.084000 0.076000 1600 68 1.100000 4.221000 4.845000 600 89 1.000000 0.060000 0.060000 1.200000 0.028000 0.033000
1518031116893959638	200 80 0.900000 0.084000 0.076000 1600 68 1.100000 4.212000 4.835000 600 90 1.000000 0.060000 0.060000 1.200000 0.028000 0.033000
1518031117457788054	200 80 0.900000 0.084000 0.076000 1600 68 1.100000 3.907000 4.368000 600 89 1.000000 0.060000 0.060000 1.200000 0.028000 0.033000
1518031118013757304	200 80 0.900000 0.084000 0.076000 1600 68 1.100000 4.237000 4.864000 600 89 1.000000 0.060000 0.060000 1.200000 0.028000 0.033000
1518031118577884846	200 80 0.900000 0.084000 0.076000 1600 68 1.100000 4.227000 4.852000 600 89 1.000000 0.060000 0.060000 1.200000 0.028000 0.033000
1518031119133940263	200 79 0.900000 0.084000 0.076000 1500 68 1.100000 4.217000 4.841000 600 88 1.000000 0.060000 0.060000 1.200000 0.028000 0.033000
1518031119697878513	200 80 0.900000 0.084000 0.076000 1600 68 1.100000 4.236000 4.862000 600 89 1.000000 0.060000 0.060000 1.200000 0.028000 0.033000
1518031120253907346	200 80 0.900000 0.083000 0.075000 1600 68 1.100000 4.239000 4.866000 600 89 1.000000 0.060000 0.060000 1.200000 0.028000 0.033000
1518031120813913263	200 79 0.900000 0.083000 0.075000 1600 68 1.100000 4.160000 4.734000 600 88 1.000000 0.060000 0.060000 1.200000 0.028000 0.033000
1518031121381871513	200 80 0.900000 0.084000 0.076000 1600 68 1.100000 4.259000 4.889000 600 89 1.000000 0.060000 0.060000 1.200000 0.028000 0.033000
1518031121937951138	200 79 0.900000 0.084000 0.076000 1500 68 1.100000 4.268000 4.899000 600 88 1.000000 0.060000 0.060000 1.200000 0.028000 0.033000
1518031122505885222	200 80 0.900000 0.083000 0.075000 1600 68 1.100000 3.997000 4.508000 600 89 1.000000 0.060000 0.060000 1.200000 0.028000 0.033000
1518031123073875555	200 79 0.900000 0.084000 0.076000 1500 68 1.100000 4.237000 4.864000 600 88 1.000000 0.060000 0.060000 1.200000 0.029000 0.035000
1518031123629909805	200 80 0.900000 0.084000 0.076000 1600 68 1.100000 4.086000 4.629000 600 89 1.000000 0.060000 0.060000 1.200000 0.029000 0.035000
1518031124185964180	200 79 0.900000 0.084000 0.076000 1500 68 1.100000 4.274000 4.906000 600 89 1.000000 0.060000 0.060000 1.200000 0.028000 0.033000
1518031124737905013	200 80 0.900000 0.084000 0.076000 1600 68 1.100000 4.177000 4.765000 600 89 1.000000 0.059000 0.059000 1.200000 0.028000 0.033000
1518031125294010097	200 79 0.900000 0.083000 0.075000 1500 68 1.100000 4.271000 4.903000 600 88 1.000000 0.060000 0.060000 1.200000 0.028000 0.033000
1518031125865792972	200 80 0.900000 0.084000 0.076000 1600 68 1.100000 4.234000 4.860000 600 89 1.000000 0.059000 0.059000 1.200000 0.028000 0.033000
1518031126425952597	200 80 0.900000 0.084000 0.076000 1500 68 1.100000 4.263000 4.893000 600 89 1.000000 0.060000 0.060000 1.200000 0.028000 0.033000
1518031126993843555	200 80 0.900000 0.084000 0.076000 1600 68 1.100000 3.840000 4.285000 600 89 1.000000 0.060000 0.060000 1.200000 0.028000 0.033000
1518031127541808389	200 80 0.900000 0.084000 0.076000 1600 68 1.100000 4.222000 4.846000 600 90 1.000000 0.060000 0.060000 1.200000 0.029000 0.035000
1518031128097912264	200 79 0.900000 0.084000 0.076000 1500 68 1.100000 4.241000 4.868000 600 88 1.000000 0.060000 0.060000 1.200000 0.028000 0.033000
1518031128649904139	200 80 0.900000 0.084000 0.076000 1600 68 1.100000 4.247000 4.875000 600 89 1.000000 0.060000 0.060000 1.200000 0.028000 0.033000
1518031129209963181	200 80 0.900000 0.084000 0.076000 1600 68 1.100000 4.255000 4.884000 600 90 1.000000 0.060000 0.060000 1.200000 0.028000 0.033000
1518031129769838806	200 80 0.900000 0.085000 0.077000 1600 68 1.100000 4.052000 4.582000 600 89 1.000000 0.060000 0.060000 1.200000 0.028000 0.033000
1518031130321879139	200 80 0.900000 0.084000 0.076000 1600 68 1.100000 4.254000 4.883000 600 89 1.000000 0.060000 0.060000 1.200000 0.028000 0.033000
1518031130865806223	200 80 0.900000 0.084000 0.076000 1600 68 1.100000 3.945000 4.410000 600 89 1.000000 0.060000 0.060000 1.200000 0.028000 0.033000
1518031131425868306	200 80 0.900000 0.084000 0.076000 1600 68 1.100000 4.250000 4.879000 600 89 1.000000 0.060000 0.060000 1.200000 0.028000 0.033000
1518031131977989848	200 79 0.900000 0.084000 0.076000 1500 68 1.100000 4.254000 4.883000 600 88 1.000000 0.060000 0.060000 1.200000 0.028000 0.033000
1518031132545771889	200 80 0.900000 0.084000 0.076000 1600 68 1.100000 4.206000 4.820000 600 89 1.000000 0.060000 0.060000 1.200000 0.028000 0.033000
1518031133113988556	200 80 0.900000 0.084000 0.076000 1500 68 1.100000 4.242000 4.869000 600 89 1.000000 0.060000 0.060000 1.200000 0.028000 0.033000
1518031133669895015	200 80 0.900000 0.084000 0.076000 1600 68 1.100000 4.304000 4.940000 600 90 1.000000 0.060000 0.060000 1.200000 0.028000 0.033000
1518031134233934265	200 80 0.900000 0.084000 0.076000 1600 68 1.100000 3.969000 4.437000 600 89 1.000000 0.060000 0.060000 1.200000 0.028000 0.033000
1518031134793970056	200 79 0.900000 0.084000 0.076000 1500 68 1.100000 4.176000 4.743000 600 88 1.000000 0.060000 0.060000 1.200000 0.029000 0.035000
1518031135365928931	200 80 0.900000 0.084000 0.076000 1600 68 1.100000 4.314000 4.952000 600 90 1.000000 0.060000 0.060000 1.200000 0.029000 0.035000
1518031135925790515	200 80 0.900000 0.084000 0.076000 1600 68 1.100000 4.056000 4.575000 600 89 1.000000 0.060000 0.060000 1.200000 0.029000 0.035000
1518031136481889140	200 80 0.900000 0.085000 0.077000 1600 68 1.100000 4.074000 4.587000 600 89 1.000000 0.060000 0.060000 1.200000 0.028000 0.033000
1518031137053877807	200 79 0.900000 0.084000 0.076000 1500 68 1.100000 4.311000 4.957000 600 89 1.000000 0.060000 0.060000 1.200000 0.028000 0.033000
1518031137605923307	200 80 0.900000 0.084000 0.076000 1600 68 1.100000 4.013000 4.498000 600 90 1.000000 0.060000 0.060000 1.200000 0.028000 0.033000
1518031138157903390	200 80 0.900000 0.084000 0.076000 1600 68 1.100000 3.965000 4.428000 600 89 1.000000 0.060000 0.060000 1.200000 0.029000 0.035000
1518031138717817598	200 79 0.900000 0.084000 0.076000 1600 68 1.100000 4.299000 4.935000 600 88 1.000000 0.060000 0.060000 1.200000 0.028000 0.033000
1518031139285976682	200 79 0.900000 0.084000 0.076000 1500 68 1.100000 4.248000 4.868000 600 89 1.000000 0.060000 0.060000 1.200000 0.028000 0.033000
1518031139837907224	200 80 0.900000 0.084000 0.076000 1600 68 1.100000 3.843000 4.269000 600 89 1.000000 0.060000 0.060000 1.200000 0.029000 0.034000
1518031140405783765	200 80 0.900000 0.085000 0.077000 1600 68 1.100000 4.234000 4.860000 600 90 1.000000 0.060000 0.060000 1.200000 0.029000 0.034000
1518031140961863599	200 79 0.900000 0.084000 0.076000 1500 68 1.100000 4.207000 4.829000 600 88 1.000000 0.060000 0.060000 1.200000 0.028000 0.033000
1518031141516050807	200 80 0.900000 0.084000 0.076000 1600 68 1.100000 3.855000 4.309000 600 89 1.000000 0.060000 0.060000 1.200000 0.029000 0.034000
1518031142077875599	200 80 0.900000 0.084000 0.076000 1600 68 1.100000 4.201000 4.822000 600 89 1.000000 0.060000 0.060000 1.200000 0.028000 0.033000
1518031142637871516	200 80 0.900000 0.084000 0.076000 1600 68 1.100000 4.029000 4.552000 600 89 1.000000 0.060000 0.060000 1.200000 0.028000 0.033000
1518031143205877307	200 80 0.900000 0.084000 0.076000 1600 68 1.100000 4.196000 4.817000 600 89 1.000000 0.060000 0.060000 1.200000 0.028000 0.033000
1518031143769947099	200 80 0.900000 0.083000 0.075000 1600 68 1.100000 4.193000 4.813000 600 89 1.000000 0.060000 0.060000 1.200000 0.028000 0.033000
1518031144333827682	200 80 0.900000 0.084000 0.076000 1600 68 1.100000 3.898000 4.369000 600 89 1.000000 0.060000 0.060000 1.200000 0.029000 0.035000
1518031144877904433	200 80 0.900000 0.084000 0.076000 1600 68 1.100000 4.190000 4.810000 600 89 1.000000 0.060000 0.060000 1.200000 0.029000 0.034000
1518031145437970724	200 79 0.900000 0.084000 0.076000 1500 68 1.100000 4.206000 4.828000 600 89 1.000000 0.060000 0.060000 1.200000 0.028000 0.033000
1518031145997785641	200 80 0.900000 0.084000 0.076000 1600 68 1.100000 3.825000 4.249000 600 89 1.000000 0.060000 0.060000 1.200000 0.028000 0.033000
1518031146565770349	200 80 0.900000 0.084000 0.076000 1600 68 1.100000 4.205000 4.827000 600 89 1.000000 0.060000 0.060000 1.200000 0.029000 0.035000
1518031147121967766	200 80 0.900000 0.085000 0.077000 1600 68 1.100000 4.228000 4.853000 600 90 1.000000 0.060000 0.060000 1.200000 0.028000 0.033000
1518031147685867475	200 80 0.900000 0.084000 0.076000 1600 68 1.100000 3.873000 4.326000 600 89 1.000000 0.060000 0.060000 1.200000 0.028000 0.033000
1518031148253780100	200 80 0.900000 0.084000 0.076000 1600 68 1.100000 4.235000 4.861000 600 90 1.000000 0.060000 0.060000 1.200000 0.028000 0.033000
1518031148805810433	200 80 0.900000 0.084000 0.076000 1600 68 1.100000 4.064000 4.604000 600 89 1.000000 0.060000 0.060000 1.200000 0.029000 0.035000
1518031149361886933	200 80 0.900000 0.085000 0.077000 1600 68 1.100000 4.206000 4.828000 600 90 1.000000 0.060000 0.060000 1.200000 0.029000 0.035000
1518031149929890766	200 80 0.900000 0.084000 0.076000 1600 68 1.100000 3.999000 4.510000 600 89 1.000000 0.060000 0.060000 1.200000 0.028000 0.033000
1518031150493862017	200 80 0.900000 0.084000 0.076000 1600 68 1.100000 4.218000 4.842000 600 89 1.000000 0.060000 0.060000 1.200000 0.028000 0.033000
1518031151045797058	200 80 0.900000 0.084000 0.076000 1600 68 1.100000 4.230000 4.856000 600 89 1.000000 0.060000 0.060000 1.200000 0.028000 0.033000
1518031151601786058	200 80 0.900000 0.084000 0.076000 1600 68 1.100000 4.234000 4.860000 600 89 1.000000 0.060000 0.060000 1.200000 0.028000 0.033000
1518031152169976892	200 79 0.900000 0.084000 0.076000 1500 68 1.100000 4.238000 4.865000 600 88 1.000000 0.060000 0.060000 1.200000 0.028000 0.033000
1518031152725845600	200 80 0.900000 0.084000 0.076000 1600 68 1.100000 4.183000 4.793000 600 89 1.000000 0.060000 0.060000 1.200000 0.028000 0.033000
1518031153285922100	200 80 0.900000 0.084000 0.076000 1600 68 1.100000 4.223000 4.848000 600 90 1.000000 0.060000 0.060000 1.200000 0.028000 0.033000
1518031153849912059	200 79 0.900000 0.084000 0.076000 1600 68 1.100000 4.174000 4.770000 600 88 1.000000 0.060000 0.060000 1.200000 0.028000 0.033000
1518031154409854892	200 80 0.900000 0.084000 0.076000 1600 68 1.100000 4.209000 4.831000 600 89 1.000000 0.060000 0.060000 1.200000 0.028000 0.033000
1518031154985833392	200 80 0.900000 0.084000 0.076000 1600 68 1.100000 4.188000 4.807000 600 89 1.000000 0.060000 0.060000 1.200000 0.028000 0.033000
1518031155541949892	200 79 0.900000 0.084000 0.076000 1500 68 1.100000 4.205000 4.827000 600 88 1.000000 0.060000 0.060000 1.200000 0.028000 0.033000
1518031156101904684	200 80 0.900000 0.084000 0.076000 1600 68 1.100000 4.212000 4.835000 600 89 1.000000 0.060000 0.060000 1.200000 0.028000 0.033000
1518031156669844517	200 80 0.900000 0.084000 0.076000 1600 68 1.100000 4.217000 4.841000 600 89 1.000000 0.060000 0.060000 1.200000 0.028000 0.033000
1518031157229879559	200 79 0.900000 0.084000 0.076000 1500 68 1.100000 4.215000 4.838000 600 89 1.000000 0.060000 0.060000 1.200000 0.028000 0.033000
1518031157797841309	200 80 0.900000 0.084000 0.076000 1600 68 1.100000 4.045000 4.591000 600 89 1.000000 0.060000 0.060000 1.200000 0.028000 0.033000
1518031158365959517	200 80 0.900000 0.084000 0.076000 1600 68 1.100000 4.205000 4.827000 600 89 1.000000 0.060000 0.060000 1.200000 0.028000 0.033000
1518031158928848518	200 80 0.900000 0.084000 0.076000 1600 68 1.100000 3.847000 4.289000 600 89 1.000000 0.060000 0.060000 1.200000 0.028000 0.033000
1518031159481910393	200 80 0.900000 0.084000 0.076000 1600 68 1.100000 4.181000 4.799000 600 89 1.000000 0.060000 0.060000 1.200000 0.028000 0.033000
1518031160050023601	200 79 0.900000 0.084000 0.076000 1500 68 1.100000 4.198000 4.819000 600 89 1.000000 0.060000 0.060000 1.200000 0.029000 0.034000
1518031160617895726	200 80 0.900000 0.084000 0.076000 1600 68 1.100000 4.197000 4.818000 600 89 1.000000 0.060000 0.060000 1.200000 0.028000 0.033000
1518031161181869726	200 80 0.900000 0.084000 0.076000 1600 68 1.100000 4.205000 4.827000 600 89 1.000000 0.060000 0.060000 1.200000 0.028000 0.033000
1518031161749959601	200 80 0.900000 0.084000 0.076000 1600 68 1.100000 4.209000 4.831000 600 89 1.000000 0.060000 0.060000 1.200000 0.028000 0.033000
1518031162301779018	200 80 0.900000 0.084000 0.076000 1600 68 1.100000 3.893000 4.364000 600 89 1.000000 0.060000 0.060000 1.200000 0.028000 0.033000
1518031162869834643	200 80 0.900000 0.084000 0.076000 1600 68 1.100000 4.201000 4.822000 600 89 1.000000 0.060000 0.060000 1.200000 0.028000 0.033000
1518031163425854476	200 80 0.900000 0.084000 0.076000 1600 68 1.100000 4.183000 4.802000 600 89 1.000000 0.060000 0.060000 1.200000 0.028000 0.033000
1518031163993976435	200 79 0.900000 0.084000 0.076000 1500 68 1.100000 4.199000 4.820000 600 88 1.000000 0.060000 0.060000 1.200000 0.029000 0.035000
1518031164553863560	200 80 0.900000 0.084000 0.076000 1600 68 1.100000 4.204000 4.826000 600 89 1.000000 0.060000 0.060000 1.200000 0.028000 0.033000
1518031165117828810	200 80 0.900000 0.084000 0.076000 1600 68 1.100000 4.206000 4.828000 600 89 1.000000 0.060000 0.060000 1.200000 0.028000 0.033000
1518031165677879643	200 80 0.900000 0.084000 0.076000 1600 68 1.100000 3.894000 4.345000 600 89 1.000000 0.060000 0.060000 1.200000 0.028000 0.033000
1518031166229784018	200 80 0.900000 0.084000 0.076000 1600 68 1.100000 4.240000 4.867000 600 89 1.000000 0.060000 0.060000 1.200000 0.028000 0.033000
1518031166781918185	200 80 0.900000 0.084000 0.076000 1600 68 1.100000 3.824000 4.244000 600 89 1.000000 0.060000 0.060000 1.200000 0.028000 0.033000
1518031167337937894	200 80 0.900000 0.084000 0.076000 1600 68 1.100000 4.235000 4.861000 600 90 1.000000 0.060000 0.060000 1.200000 0.028000 0.033000
1518031167889905394	200 80 0.900000 0.084000 0.076000 1600 68 1.100000 3.848000 4.282000 600 89 1.000000 0.060000 0.060000 1.200000 0.028000 0.033000
1518031168441813269	200 80 0.900000 0.084000 0.076000 1600 68 1.100000 4.229000 4.854000 600 90 1.000000 0.060000 0.060000 1.200000 0.028000 0.033000
1518031169005894477	200 80 0.900000 0.084000 0.076000 1600 68 1.100000 4.100000 4.657000 600 89 1.000000 0.060000 0.060000 1.200000 0.029000 0.034000
1518031169553929185	200 80 0.900000 0.085000 0.077000 1600 68 1.100000 4.205000 4.827000 600 90 1.000000 0.060000 0.060000 1.200000 0.029000 0.034000
1518031170121886144	200 80 0.900000 0.084000 0.076000 1600 68 1.100000 4.027000 4.554000 600 89 1.000000 0.060000 0.060000 1.200000 0.029000 0.035000
1518031170689857894	200 80 0.900000 0.084000 0.076000 1600 68 1.100000 4.200000 4.821000 600 90 1.000000 0.060000 0.060000 1.200000 0.029000 0.035000
1518031171245980602	200 80 0.900000 0.084000 0.076000 1600 68 1.100000 3.963000 4.450000 600 89 1.000000 0.060000 0.060000 1.200000 0.029000 0.035000
1518031171805914019	200 80 0.900000 0.084000 0.076000 1600 68 1.100000 4.216000 4.839000 600 90 1.000000 0.060000 0.060000 1.200000 0.029000 0.035000
1518031172361943769	200 79 0.900000 0.084000 0.076000 1500 68 1.100000 4.227000 4.852000 600 89 1.000000 0.060000 0.060000 1.200000 0.029000 0.035000
1518031172929804269	200 80 0.900000 0.084000 0.076000 1600 68 1.100000 3.870000 4.318000 600 89 1.000000 0.060000 0.060000 1.200000 0.029000 0.035000
1518031173489872686	200 79 0.900000 0.084000 0.076000 1500 68 1.100000 4.195000 4.815000 600 88 1.000000 0.060000 0.060000 1.200000 0.029000 0.035000
1518031174049879436	200 80 0.900000 0.084000 0.076000 1600 68 1.100000 4.204000 4.826000 600 89 1.000000 0.060000 0.060000 1.200000 0.028000 0.033000
1518031174601997103	200 80 0.900000 0.084000 0.076000 1500 68 1.100000 4.211000 4.834000 600 89 1.000000 0.060000 0.060000 1.200000 0.028000 0.033000
1518031175169797269	200 80 0.900000 0.084000 0.076000 1600 68 1.100000 3.838000 4.283000 600 89 1.000000 0.060000 0.060000 1.200000 0.029000 0.035000
1518031175725993603	200 79 0.900000 0.084000 0.076000 1500 68 1.100000 4.223000 4.848000 600 88 1.000000 0.060000 0.060000 1.200000 0.029000 0.035000
1518031176289777853	200 80 0.900000 0.084000 0.076000 1600 68 1.100000 3.905000 4.381000 600 89 1.000000 0.060000 0.060000 1.200000 0.028000 0.033000
1518031176857860645	200 79 0.900000 0.084000 0.076000 1500 68 1.100000 4.207000 4.829000 600 88 1.000000 0.060000 0.060000 1.200000 0.028000 0.033000
1518031177425756311	200 80 0.900000 0.084000 0.076000 1600 68 1.100000 3.947000 4.452000 600 89 1.000000 0.060000 0.060000 1.200000 0.028000 0.033000
1518031177989874978	200 80 0.900000 0.084000 0.076000 1600 68 1.100000 3.980000 4.469000 600 89 1.000000 0.060000 0.060000 1.200000 0.028000 0.033000
1518031178553881062	200 80 0.900000 0.084000 0.076000 1600 68 1.100000 4.218000 4.842000 600 89 1.000000 0.060000 0.060000 1.200000 0.028000 0.033000
1518031179113878353	200 80 0.900000 0.084000 0.076000 1600 68 1.100000 3.906000 4.366000 600 89 1.000000 0.060000 0.060000 1.200000 0.029000 0.034000
1518031179681987562	200 80 0.900000 0.084000 0.076000 1600 68 1.100000 4.232000 4.858000 600 90 1.000000 0.060000 0.060000 1.200000 0.029000 0.034000
1518031180241878728	200 80 0.900000 0.084000 0.076000 1600 68 1.100000 3.845000 4.275000 600 89 1.000000 0.060000 0.060000 1.200000 0.028000 0.033000
1518031180801907770	200 79 0.900000 0.084000 0.076000 1500 68 1.100000 4.240000 4.867000 600 88 1.000000 0.060000 0.060000 1.200000 0.029000 0.034000
1518031181349923437	200 80 0.900000 0.084000 0.076000 1600 68 1.100000 3.835000 4.264000 600 89 1.000000 0.060000 0.060000 1.200000 0.029000 0.035000
1518031181913855937	200 79 0.900000 0.084000 0.076000 1500 68 1.100000 4.241000 4.868000 600 88 1.000000 0.060000 0.060000 1.200000 0.029000 0.034000
1518031182469866854	200 80 0.900000 0.084000 0.076000 1600 68 1.100000 4.253000 4.882000 600 90 1.000000 0.060000 0.060000 1.200000 0.028000 0.033000
1518031183025903770	200 79 0.900000 0.084000 0.076000 1600 68 1.100000 4.117000 4.664000 600 88 1.000000 0.060000 0.060000 1.200000 0.028000 0.033000
1518031183585782145	200 80 0.900000 0.084000 0.076000 1600 68 1.100000 4.256000 4.885000 600 90 1.000000 0.060000 0.060000 1.200000 0.028000 0.033000
1518031184153864312	200 80 0.900000 0.085000 0.077000 1600 68 1.100000 4.034000 4.550000 600 89 1.000000 0.060000 0.060000 1.200000 0.028000 0.033000
1518031184721938312	200 79 0.900000 0.084000 0.076000 1500 68 1.100000 4.229000 4.854000 600 88 1.000000 0.060000 0.060000 1.200000 0.028000 0.033000
1518031185285772146	200 80 0.900000 0.084000 0.076000 1600 68 1.100000 4.049000 4.595000 600 89 1.000000 0.060000 0.060000 1.200000 0.029000 0.034000
1518031185845949271	200 79 0.900000 0.084000 0.076000 1600 68 1.100000 4.217000 4.841000 600 88 1.000000 0.060000 0.060000 1.200000 0.029000 0.034000
1518031186409844937	200 80 0.900000 0.084000 0.076000 1600 68 1.100000 4.106000 4.684000 600 89 1.000000 0.060000 0.060000 1.200000 0.029000 0.034000
1518031186973979938	200 79 0.900000 0.084000 0.076000 1500 68 1.100000 4.230000 4.856000 600 88 1.000000 0.060000 0.060000 1.200000 0.028000 0.033000
1518031187541894854	200 80 0.900000 0.084000 0.076000 1600 68 1.100000 4.204000 4.826000 600 89 1.000000 0.060000 0.060000 1.200000 0.028000 0.033000
1518031188105902271	200 81 0.900000 0.084000 0.076000 1600 68 1.100000 4.229000 4.854000 600 90 1.000000 0.060000 0.060000 1.200000 0.028000 0.033000
1518031188669762646	200 79 0.900000 0.084000 0.076000 1600 68 1.100000 4.154000 4.739000 600 88 1.000000 0.060000 0.060000 1.200000 0.028000 0.033000
1518031189221809396	200 80 0.900000 0.084000 0.076000 1600 68 1.100000 4.211000 4.834000 600 90 1.000000 0.060000 0.060000 1.200000 0.028000 0.033000
1518031189769797396	200 80 0.900000 0.085000 0.077000 1600 68 1.100000 4.067000 4.616000 600 89 1.000000 0.060000 0.060000 1.200000 0.028000 0.033000
1518031190341891313	200 80 0.900000 0.084000 0.076000 1600 68 1.100000 4.205000 4.827000 600 90 1.000000 0.060000 0.060000 1.200000 0.029000 0.034000
1518031190897865521	200 80 0.900000 0.084000 0.076000 1600 68 1.100000 4.001000 4.513000 600 89 1.000000 0.060000 0.060000 1.200000 0.029000 0.034000
1518031191453932980	200 80 0.900000 0.084000 0.076000 1600 68 1.100000 4.218000 4.842000 600 89 1.000000 0.060000 0.060000 1.200000 0.028000 0.033000
1518031192021835271	200 80 0.900000 0.085000 0.077000 1600 68 1.100000 3.932000 4.407000 600 88 1.000000 0.060000 0.060000 1.200000 0.028000 0.033000
1518031192585913980	200 80 0.900000 0.085000 0.077000 1600 68 1.100000 4.213000 4.836000 600 89 1.000000 0.060000 0.060000 1.200000 0.028000 0.033000
1518031193137952772	200 79 0.900000 0.084000 0.076000 1500 68 1.100000 4.244000 4.872000 600 88 1.000000 0.060000 0.060000 1.200000 0.028000 0.033000
1518031193693896397	200 80 0.900000 0.084000 0.076000 1600 68 1.100000 4.178000 4.775000 600 89 1.000000 0.060000 0.060000 1.200000 0.028000 0.033000
1518031194261954647	200 81 0.900000 0.084000 0.076000 1600 68 1.100000 4.237000 4.864000 600 90 1.000000 0.060000 0.060000 1.200000 0.028000 0.033000
1518031194825875730	200 80 0.900000 0.085000 0.077000 1600 68 1.100000 3.805000 4.227000 600 89 1.000000 0.060000 0.060000 1.200000 0.029000 0.035000
1518031195393849439	200 80 0.900000 0.084000 0.076000 1500 68 1.100000 4.213000 4.836000 600 89 1.000000 0.060000 0.060000 1.200000 0.029000 0.034000
1518031195945883939	200 80 0.900000 0.084000 0.076000 1600 68 1.100000 4.242000 4.869000 600 89 1.000000 0.060000 0.060000 1.200000 0.028000 0.033000
1518031196497886647	200 80 0.900000 0.084000 0.076000 1600 68 1.100000 4.246000 4.874000 600 90 1.000000 0.060000 0.060000 1.200000 0.028000 0.033000
1518031197053871272	200 80 0.900000 0.084000 0.076000 1600 68 1.100000 3.960000 4.455000 600 89 1.000000 0.060000 0.060000 1.200000 0.028000 0.033000
1518031197613839272	200 80 0.900000 0.084000 0.076000 1500 68 1.100000 4.243000 4.870000 600 89 1.000000 0.060000 0.060000 1.200000 0.028000 0.033000
1518031198173890022	200 80 0.900000 0.084000 0.076000 1600 68 1.100000 4.021000 4.543000 600 89 1.000000 0.060000 0.060000 1.200000 0.028000 0.033000
1518031198737980231	200 79 0.900000 0.085000 0.077000 1500 68 1.100000 4.229000 4.854000 600 88 1.000000 0.060000 0.060000 1.200000 0.028000 0.033000
1518031199293826606	200 80 0.900000 0.084000 0.076000 1600 68 1.100000 4.080000 4.634000 600 89 1.000000 0.060000 0.060000 1.200000 0.028000 0.033000
1518031199861764856	200 79 0.900000 0.084000 0.076000 1500 68 1.100000 4.219000 4.843000 600 88 1.000000 0.060000 0.060000 1.200000 0.029000 0.034000
1518031200421854439	200 80 0.900000 0.084000 0.076000 1600 68 1.100000 4.218000 4.842000 600 89 1.000000 0.060000 0.060000 1.200000 0.028000 0.033000
1518031200981973898	200 80 0.900000 0.084000 0.076000 1500 68 1.100000 4.219000 4.839000 600 89 1.000000 0.060000 0.060000 1.200000 0.028000 0.033000
1518031201549819689	200 80 0.900000 0.084000 0.076000 1600 68 1.100000 3.776000 4.191000 600 89 1.000000 0.060000 0.060000 1.200000 0.028000 0.033000
1518031202125861523	200 79 0.900000 0.084000 0.076000 1500 68 1.100000 4.209000 4.831000 600 88 1.000000 0.060000 0.060000 1.200000 0.028000 0.033000
1518031202669884189	200 80 0.900000 0.084000 0.076000 1600 68 1.100000 3.846000 4.292000 600 89 1.000000 0.060000 0.060000 1.200000 0.028000 0.033000
1518031203229879731	200 79 0.900000 0.084000 0.076000 1500 68 1.100000 4.212000 4.835000 600 88 1.000000 0.060000 0.060000 1.200000 0.028000 0.033000
1518031203785804440	200 80 0.900000 0.085000 0.077000 1600 68 1.100000 3.894000 4.372000 600 89 1.000000 0.060000 0.060000 1.200000 0.028000 0.033000
1518031204349892398	200 80 0.900000 0.084000 0.076000 1600 68 1.100000 4.205000 4.827000 600 89 1.000000 0.060000 0.060000 1.200000 0.029000 0.034000
1518031204913800023	200 80 0.900000 0.084000 0.076000 1600 68 1.100000 4.214000 4.837000 600 89 1.000000 0.060000 0.060000 1.200000 0.028000 0.033000
1518031205473845940	200 79 0.900000 0.084000 0.076000 1500 68 1.100000 4.216000 4.839000 600 88 1.000000 0.060000 0.060000 1.200000 0.028000 0.033000
1518031206029859107	200 80 0.900000 0.084000 0.076000 1600 68 1.100000 4.049000 4.599000 600 89 1.000000 0.060000 0.060000 1.200000 0.029000 0.034000
1518031206585866857	200 80 0.900000 0.084000 0.076000 1600 68 1.100000 4.194000 4.814000 600 90 1.000000 0.060000 0.060000 1.200000 0.028000 0.033000
1518031207141866148	200 80 0.900000 0.084000 0.076000 1600 68 1.100000 4.177000 4.795000 600 89 1.000000 0.060000 0.060000 1.200000 0.028000 0.033000
1518031207701832857	200 80 0.900000 0.084000 0.076000 1600 68 1.100000 4.131000 4.734000 600 89 1.000000 0.060000 0.060000 1.200000 0.029000 0.035000
1518031208250005732	200 79 0.900000 0.084000 0.076000 1500 68 1.100000 4.192000 4.812000 600 88 1.000000 0.060000 0.060000 1.200000 0.028000 0.033000
1518031208813857690	200 80 0.900000 0.084000 0.076000 1600 68 1.100000 3.785000 4.208000 600 89 1.000000 0.060000 0.060000 1.200000 0.029000 0.035000
1518031209377955274	200 80 0.900000 0.084000 0.076000 1600 68 1.100000 4.193000 4.813000 600 90 1.000000 0.060000 0.060000 1.200000 0.029000 0.034000
1518031209941892815	200 80 0.900000 0.084000 0.076000 1600 68 1.100000 3.875000 4.340000 600 89 1.000000 0.060000 0.060000 1.200000 0.028000 0.033000
1518031210497923190	200 79 0.900000 0.084000 0.076000 1500 68 1.100000 4.191000 4.811000 600 89 1.000000 0.060000 0.060000 1.200000 0.029000 0.034000
1518031211053926774	200 80 0.900000 0.084000 0.076000 1600 68 1.100000 3.935000 4.430000 600 89 1.000000 0.060000 0.060000 1.200000 0.029000 0.035000
1518031211609974191	200 79 0.900000 0.084000 0.076000 1500 68 1.100000 4.234000 4.860000 600 88 1.000000 0.060000 0.060000 1.200000 0.028000 0.033000
1518031212169971524	200 80 0.900000 0.084000 0.076000 1600 68 1.100000 4.040000 4.569000 600 89 1.000000 0.060000 0.060000 1.200000 0.029000 0.034000
1518031212725879524	200 80 0.900000 0.084000 0.076000 1600 68 1.100000 3.976000 4.461000 600 89 1.000000 0.060000 0.060000 1.200000 0.029000 0.035000
1518031213289862941	200 80 0.900000 0.084000 0.076000 1600 68 1.100000 4.258000 4.888000 600 89 1.000000 0.060000 0.060000 1.200000 0.029000 0.035000
1518031213849852857	200 79 0.900000 0.084000 0.076000 1500 68 1.100000 4.159000 4.745000 600 88 1.000000 0.060000 0.060000 1.200000 0.028000 0.033000
1518031214409775191	200 80 0.900000 0.084000 0.076000 1600 68 1.100000 4.201000 4.814000 600 89 1.000000 0.060000 0.060000 1.200000 0.028000 0.033000
1518031214973758899	200 79 0.900000 0.084000 0.076000 1500 68 1.100000 4.266000 4.893000 600 88 1.000000 0.060000 0.060000 1.200000 0.028000 0.033000
1518031215541919316	200 81 0.900000 0.085000 0.077000 1500 68 1.100000 4.258000 4.888000 600 90 1.000000 0.060000 0.060000 1.200000 0.028000 0.033000
1518031216097871649	200 80 0.900000 0.084000 0.076000 1600 68 1.100000 3.854000 4.301000 600 89 1.000000 0.060000 0.060000 1.200000 0.029000 0.034000
1518031216653835983	200 80 0.900000 0.084000 0.076000 1600 68 1.100000 4.150000 4.722000 600 89 1.000000 0.060000 0.060000 1.200000 0.028000 0.033000
1518031217209924941	200 81 0.900000 0.085000 0.077000 1600 68 1.100000 4.247000 4.875000 600 90 1.000000 0.060000 0.060000 1.200000 0.029000 0.034000
1518031217773873066	200 80 0.900000 0.084000 0.076000 1600 68 1.100000 4.075000 4.612000 600 89 1.000000 0.060000 0.060000 1.200000 0.029000 0.034000
1518031218341874441	200 79 0.900000 0.084000 0.076000 1500 68 1.100000 4.231000 4.857000 600 88 1.000000 0.060000 0.060000 1.200000 0.028000 0.033000
1518031218901859441	200 80 0.900000 0.084000 0.076000 1600 68 1.100000 4.233000 4.859000 600 89 1.000000 0.060000 0.060000 1.200000 0.028000 0.033000
1518031219449797191	200 80 0.900000 0.085000 0.077000 1600 68 1.100000 3.956000 4.434000 600 89 1.000000 0.060000 0.060000 1.200000 0.028000 0.033000
1518031220005883775	200 79 0.900000 0.084000 0.076000 1500 68 1.100000 4.232000 4.858000 600 88 1.000000 0.060000 0.060000 1.200000 0.028000 0.033000
1518031220565851775	200 80 0.900000 0.085000 0.077000 1600 68 1.100000 4.128000 4.710000 600 89 1.000000 0.060000 0.060000 1.200000 0.028000 0.033000
1518031221121889817	200 79 0.900000 0.084000 0.076000 1500 68 1.100000 4.218000 4.842000 600 88 1.000000 0.060000 0.060000 1.200000 0.028000 0.033000
1518031221685873275	200 80 0.900000 0.085000 0.077000 1600 68 1.100000 4.191000 4.807000 600 89 1.000000 0.060000 0.060000 1.200000 0.028000 0.033000
1518031222241883525	200 80 0.900000 0.084000 0.076000 1600 68 1.100000 4.209000 4.823000 600 89 1.000000 0.060000 0.060000 1.200000 0.029000 0.034000
1518031222809822817	200 79 0.900000 0.084000 0.076000 1500 68 1.100000 4.209000 4.831000 600 88 1.000000 0.060000 0.060000 1.200000 0.029000 0.034000
1518031223369823817	200 80 0.900000 0.084000 0.076000 1600 68 1.100000 4.227000 4.852000 600 89 1.000000 0.060000 0.060000 1.200000 0.028000 0.033000
1518031223933932359	200 81 0.900000 0.084000 0.076000 1600 69 1.100000 4.235000 4.861000 600 90 1.000000 0.060000 0.060000 1.200000 0.028000 0.033000
1518031224501859317	200 80 0.900000 0.083000 0.075000 1600 68 1.100000 3.955000 4.449000 600 89 1.000000 0.060000 0.060000 1.200000 0.028000 0.033000
1518031225053783525	200 80 0.900000 0.084000 0.076000 1600 68 1.100000 4.021000 4.535000 600 89 1.000000 0.060000 0.060000 1.200000 0.028000 0.033000
1518031225601854526	200 80 0.900000 0.084000 0.076000 1600 68 1.100000 4.227000 4.852000 600 89 1.000000 0.060000 0.060000 1.200000 0.028000 0.033000
1518031226157829276	200 80 0.900000 0.084000 0.076000 1600 68 1.100000 3.962000 4.449000 600 89 1.000000 0.060000 0.060000 1.200000 0.028000 0.033000
1518031226709904859	200 80 0.900000 0.084000 0.076000 1600 68 1.100000 4.222000 4.846000 600 89 1.000000 0.060000 0.060000 1.200000 0.028000 0.033000
1518031227277753567	200 80 0.900000 0.084000 0.076000 1600 68 1.100000 3.896000 4.351000 600 89 1.000000 0.060000 0.060000 1.200000 0.029000 0.035000
1518031227849943442	200 80 0.900000 0.084000 0.076000 1500 68 1.100000 4.225000 4.850000 600 89 1.000000 0.060000 0.060000 1.200000 0.029000 0.034000
1518031228409780443	200 80 0.900000 0.084000 0.076000 1600 68 1.100000 4.194000 4.806000 600 89 1.000000 0.060000 0.060000 1.200000 0.028000 0.033000
1518031228965944068	200 79 0.900000 0.085000 0.077000 1500 68 1.100000 4.208000 4.822000 600 88 1.000000 0.060000 0.060000 1.200000 0.028000 0.033000
1518031229521883734	200 80 0.900000 0.084000 0.076000 1600 68 1.100000 4.226000 4.851000 600 89 1.000000 0.060000 0.060000 1.200000 0.028000 0.033000
1518031230073880818	200 79 0.900000 0.084000 0.076000 1500 68 1.100000 4.152000 4.733000 600 88 1.000000 0.060000 0.060000 1.200000 0.028000 0.033000
1518031230629973276	200 80 0.900000 0.084000 0.076000 1600 68 1.100000 4.225000 4.850000 600 90 1.000000 0.060000 0.060000 1.200000 0.028000 0.033000
1518031231201779026	200 80 0.900000 0.084000 0.076000 1600 68 1.100000 3.924000 4.402000 600 89 1.000000 0.060000 0.060000 1.200000 0.029000 0.035000
1518031231769966443	200 79 0.900000 0.084000 0.076000 1500 68 1.100000 4.233000 4.859000 600 89 1.000000 0.060000 0.060000 1.200000 0.028000 0.033000
1518031232329778068	200 80 0.900000 0.084000 0.076000 1600 68 1.100000 3.977000 4.486000 600 89 1.000000 0.060000 0.060000 1.200000 0.028000 0.033000
1518031232893994693	200 79 0.900000 0.084000 0.076000 1500 68 1.100000 3.979000 4.468000 600 88 1.000000 0.060000 0.060000 1.200000 0.028000 0.033000
1518031233461924818	200 80 0.900000 0.085000 0.077000 1600 68 1.100000 4.237000 4.800000 600 89 1.000000 0.060000 0.060000 1.200000 0.028000 0.033000
1518031234017859068	200 80 0.900000 0.084000 0.076000 1600 68 1.100000 3.932000 4.403000 600 89 1.000000 0.060000 0.060000 1.200000 0.028000 0.033000
1518031234569949277	200 79 0.900000 0.085000 0.077000 1500 68 1.100000 4.212000 4.835000 600 89 1.000000 0.060000 0.060000 1.200000 0.028000 0.033000
1518031235129874943	200 80 0.900000 0.084000 0.076000 1600 68 1.100000 3.848000 4.278000 600 89 1.000000 0.060000 0.060000 1.200000 0.028000 0.033000
1518031235697944818	200 79 0.900000 0.085000 0.077000 1500 68 1.100000 4.215000 4.838000 600 88 1.000000 0.060000 0.060000 1.200000 0.028000 0.033000
1518031236261943902	200 80 0.900000 0.084000 0.076000 1600 68 1.100000 3.779000 4.198000 600 90 1.000000 0.060000 0.060000 1.200000 0.028000 0.033000
1518031236821872610	200 80 0.900000 0.084000 0.076000 1600 68 1.100000 3.837000 4.278000 600 89 1.000000 0.060000 0.060000 1.200000 0.028000 0.033000
1518031237369954194	200 80 0.900000 0.085000 0.077000 1500 68 1.100000 4.229000 4.854000 600 89 1.000000 0.060000 0.060000 1.200000 0.028000 0.033000
1518031237937855652	200 80 0.900000 0.084000 0.076000 1600 68 1.100000 3.898000 4.369000 600 89 1.000000 0.060000 0.060000 1.200000 0.028000 0.033000
1518031238505930860	200 79 0.900000 0.084000 0.076000 1500 68 1.100000 4.187000 4.806000 600 88 1.000000 0.060000 0.060000 1.200000 0.028000 0.033000
1518031239069841610	200 80 0.900000 0.084000 0.076000 1600 68 1.100000 3.927000 4.425000 600 89 1.000000 0.060000 0.060000 1.200000 0.028000 0.033000
1518031239625936194	200 80 0.900000 0.085000 0.077000 1500 68 1.100000 4.176000 4.794000 600 89 1.000000 0.060000 0.060000 1.200000 0.028000 0.033000
1518031240193892277	200 80 0.900000 0.084000 0.076000 1600 68 1.100000 3.928000 4.411000 600 89 1.000000 0.060000 0.060000 1.200000 0.029000 0.035000
1518031240749898902	200 79 0.900000 0.085000 0.077000 1500 68 1.100000 4.199000 4.820000 600 88 1.000000 0.060000 0.060000 1.200000 0.028000 0.033000
1518031241313748236	200 80 0.900000 0.084000 0.076000 1600 68 1.100000 4.093000 4.670000 600 89 1.000000 0.060000 0.060000 1.200000 0.029000 0.035000
1518031241881863361	200 79 0.900000 0.085000 0.077000 1500 68 1.100000 4.191000 4.811000 600 88 1.000000 0.060000 0.060000 1.200000 0.029000 0.034000
1518031242437833569	200 80 0.900000 0.084000 0.076000 1600 68 1.100000 4.143000 4.747000 600 89 1.000000 0.060000 0.060000 1.200000 0.029000 0.034000
1518031243001855486	200 80 0.900000 0.084000 0.076000 1600 68 1.100000 4.162000 4.769000 600 89 1.000000 0.060000 0.060000 1.200000 0.028000 0.033000
1518031243569794778	200 80 0.900000 0.084000 0.076000 1600 68 1.100000 4.191000 4.811000 600 89 1.000000 0.060000 0.060000 1.200000 0.028000 0.033000
1518031244141977569	200 79 0.900000 0.084000 0.076000 1500 68 1.100000 4.202000 4.823000 600 88 1.000000 0.060000 0.060000 1.200000 0.028000 0.033000
1518031244705894986	200 80 0.900000 0.084000 0.076000 1600 68 1.100000 3.856000 4.318000 600 89 1.000000 0.060000 0.060000 1.200000 0.029000 0.034000
1518031245253926445	200 80 0.900000 0.084000 0.076000 1500 68 1.100000 4.212000 4.831000 600 89 1.000000 0.060000 0.060000 1.200000 0.028000 0.033000
1518031245817790570	200 80 0.900000 0.085000 0.077000 1600 68 1.100000 3.959000 4.465000 600 89 1.000000 0.060000 0.060000 1.200000 0.028000 0.033000
1518031246381956361	200 79 0.900000 0.084000 0.076000 1500 68 1.100000 4.212000 4.835000 600 88 1.000000 0.060000 0.060000 1.200000 0.028000 0.033000
1518031246937873778	200 80 0.900000 0.084000 0.076000 1600 68 1.100000 4.033000 4.569000 600 89 1.000000 0.060000 0.060000 1.200000 0.029000 0.035000
1518031247497840570	200 81 0.900000 0.084000 0.076000 1600 68 1.100000 4.196000 4.817000 600 90 1.000000 0.060000 0.060000 1.200000 0.028000 0.033000
1518031248053769445	200 80 0.900000 0.085000 0.077000 1600 68 1.100000 3.865000 4.313000 600 89 1.000000 0.060000 0.060000 1.200000 0.029000 0.035000
1518031248617839153	200 80 0.900000 0.084000 0.076000 1500 68 1.100000 4.193000 4.813000 600 89 1.000000 0.060000 0.060000 1.200000 0.028000 0.033000
1518031249169890445	200 80 0.900000 0.084000 0.076000 1600 68 1.100000 3.785000 4.205000 600 89 1.000000 0.060000 0.060000 1.200000 0.028000 0.033000
1518031249741883570	200 80 0.900000 0.084000 0.076000 1600 69 1.100000 4.196000 4.817000 600 90 1.000000 0.060000 0.060000 1.200000 0.028000 0.033000
1518031250298348653	200 80 0.900000 0.085000 0.077000 1600 68 1.100000 3.830000 4.270000 600 89 1.000000 0.060000 0.060000 1.200000 0.028000 0.033000
1518031250849931320	200 80 0.900000 0.084000 0.076000 1600 68 1.100000 4.210000 4.833000 600 90 1.000000 0.060000 0.060000 1.200000 0.028000 0.033000
1518031251413920904	200 80 0.900000 0.085000 0.077000 1600 68 1.100000 3.883000 4.352000 600 89 1.000000 0.060000 0.060000 1.200000 0.029000 0.034000
1518031251973939112	200 80 0.900000 0.084000 0.076000 1500 68 1.100000 4.216000 4.839000 600 89 1.000000 0.060000 0.060000 1.200000 0.029000 0.034000
1518031252541889070	200 80 0.900000 0.084000 0.076000 1600 68 1.100000 3.948000 4.441000 600 89 1.000000 0.060000 0.060000 1.200000 0.029000 0.035000
1518031253093936987	200 79 0.900000 0.084000 0.076000 1500 68 1.100000 4.190000 4.810000 600 88 1.000000 0.060000 0.060000 1.200000 0.029000 0.034000
1518031253644489696	200 80 0.900000 0.084000 0.076000 1600 68 1.100000 4.017000 4.547000 600 89 1.000000 0.060000 0.060000 1.200000 0.029000 0.034000
1518031254193755196	200 79 0.900000 0.085000 0.077000 1500 68 1.100000 4.213000 4.836000 600 88 1.000000 0.060000 0.060000 1.200000 0.029000 0.035000
1518031254765871321	200 80 0.900000 0.084000 0.076000 1600 68 1.100000 4.079000 4.641000 600 89 1.000000 0.060000 0.060000 1.200000 0.029000 0.035000
1518031255333866487	200 80 0.900000 0.084000 0.076000 1600 68 1.100000 3.849000 4.280000 600 89 1.000000 0.060000 0.060000 1.200000 0.028000 0.033000
1518031255897860112	200 80 0.900000 0.084000 0.076000 1600 68 1.100000 4.216000 4.839000 600 90 1.000000 0.060000 0.060000 1.200000 0.028000 0.033000
1518031256461861446	200 79 0.900000 0.084000 0.076000 1500 68 1.100000 4.209000 4.823000 600 88 1.000000 0.060000 0.060000 1.200000 0.028000 0.033000
1518031257009900613	200 80 0.900000 0.084000 0.076000 1600 68 1.100000 4.207000 4.829000 600 89 1.000000 0.060000 0.060000 1.200000 0.029000 0.035000
1518031257569788446	200 80 0.900000 0.084000 0.076000 1600 68 1.100000 4.135000 4.718000 600 88 1.000000 0.060000 0.060000 1.200000 0.028000 0.033000
1518031258129955738	200 79 0.900000 0.084000 0.076000 1500 68 1.100000 4.221000 4.845000 600 89 1.000000 0.060000 0.060000 1.200000 0.028000 0.033000
1518031258681804279	200 80 0.900000 0.084000 0.076000 1600 68 1.100000 3.906000 4.382000 600 89 1.000000 0.060000 0.060000 1.200000 0.029000 0.035000
1518031259241870738	200 79 0.900000 0.084000 0.076000 1500 68 1.100000 4.217000 4.841000 600 88 1.000000 0.060000 0.060000 1.200000 0.029000 0.034000
1518031259809883988	200 80 0.900000 0.084000 0.076000 1600 68 1.100000 4.228000 4.853000 600 89 1.000000 0.060000 0.060000 1.200000 0.028000 0.033000
1518031260361904321	200 79 0.900000 0.084000 0.076000 1600 68 1.100000 3.971000 4.459000 600 88 1.000000 0.060000 0.060000 1.200000 0.028000 0.033000
1518031260917834988	200 80 0.900000 0.084000 0.076000 1600 68 1.100000 4.225000 4.850000 600 89 1.000000 0.060000 0.060000 1.200000 0.028000 0.033000
1518031261477830446	200 80 0.900000 0.084000 0.076000 1600 68 1.100000 3.901000 4.361000 600 89 1.000000 0.060000 0.060000 1.200000 0.028000 0.033000
1518031262041860280	200 80 0.900000 0.084000 0.076000 1600 68 1.100000 4.226000 4.851000 600 90 1.000000 0.060000 0.060000 1.200000 0.028000 0.033000
1518031262601854405	200 80 0.900000 0.084000 0.076000 1600 68 1.100000 3.838000 4.264000 600 89 1.000000 0.060000 0.060000 1.200000 0.028000 0.033000
1518031263153934280	200 81 0.900000 0.084000 0.076000 1600 68 1.100000 4.228000 4.853000 600 90 1.000000 0.060000 0.060000 1.200000 0.028000 0.033000
1518031263717783072	200 80 0.900000 0.085000 0.077000 1600 68 1.100000 3.845000 4.279000 600 89 1.000000 0.060000 0.060000 1.200000 0.028000 0.033000
1518031264285937030	200 80 0.900000 0.085000 0.077000 1500 69 1.100000 4.186000 4.772000 600 89 1.000000 0.060000 0.060000 1.200000 0.028000 0.033000
1518031264833824905	200 81 0.900000 0.084000 0.076000 1600 69 1.100000 4.263000 4.893000 600 89 1.000000 0.060000 0.060000 1.200000 0.028000 0.033000
1518031265389950280	200 80 0.900000 0.084000 0.076000 1500 68 1.100000 4.113000 4.721000 600 88 1.000000 0.060000 0.060000 1.200000 0.028000 0.033000
1518031265949946822	200 81 0.900000 0.085000 0.077000 1600 69 1.100000 3.968000 4.464000 600 90 1.000000 0.060000 0.060000 1.200000 0.028000 0.033000
1518031266501870864	200 80 0.900000 0.085000 0.077000 1600 68 1.100000 4.051000 4.569000 600 89 1.000000 0.060000 0.060000 1.200000 0.028000 0.033000
1518031267065974864	200 80 0.900000 0.084000 0.076000 1500 69 1.100000 4.239000 4.866000 600 89 1.000000 0.060000 0.060000 1.200000 0.028000 0.033000
1518031267621864072	200 81 0.900000 0.084000 0.076000 1600 69 1.100000 3.971000 4.459000 600 89 1.000000 0.060000 0.060000 1.200000 0.028000 0.033000
1518031268169915072	200 80 0.900000 0.084000 0.076000 1500 69 1.100000 4.245000 4.873000 600 88 1.000000 0.060000 0.060000 1.200000 0.028000 0.033000
1518031268737913947	200 81 0.900000 0.084000 0.076000 1600 69 1.100000 3.916000 4.374000 600 89 1.000000 0.060000 0.060000 1.200000 0.029000 0.034000
1518031269293883781	200 79 0.900000 0.084000 0.076000 1500 69 1.100000 4.258000 4.888000 600 88 1.000000 0.060000 0.060000 1.200000 0.028000 0.033000
1518031269801965864	200 79 0.900000 0.085000 0.077000 1600 68 1.100000 3.520000 4.023000 600 87 1.000000 0.060000 0.060000 1.200000 0.028000 0.033000
1518031270310038197	200 77 0.900000 0.084000 0.076000 1700 67 1.100000 1.556000 1.769000 600 75 1.000000 0.060000 0.060000 1.200000 0.028000 0.033000
1518031270817810114	200 66 0.900000 0.083000 0.076000 1700 65 1.100000 1.351000 1.582000 600 71 1.000000 0.059000 0.059000 1.200000 0.028000 0.033000
1518031271325610239	200 63 0.900000 0.082000 0.075000 1700 62 1.100000 0.379000 0.441000 600 68 1.000000 0.059000 0.059000 1.200000 0.028000 0.033000
1518031271833349698	200 62 0.900000 0.081000 0.074000 1700 61 1.100000 0.344000 0.401000 600 66 1.000000 0.058000 0.058000 1.200000 0.028000 0.033000
1518031272340996406	200 60 0.900000 0.080000 0.073000 1700 59 1.100000 0.326000 0.380000 600 64 1.000000 0.058000 0.058000 1.200000 0.027000 0.032000
1518031272848778323	200 59 0.900000 0.080000 0.073000 1700 58 1.100000 0.339000 0.394000 600 63 1.000000 0.057000 0.057000 1.200000 0.027000 0.032000
1518031273356291156	200 58 0.900000 0.079000 0.072000 1700 57 1.100000 0.317000 0.369000 600 62 1.000000 0.057000 0.057000 1.200000 0.027000 0.032000
1518031273863887656	200 57 0.900000 0.079000 0.072000 1700 57 1.100000 0.335000 0.390000 600 61 1.000000 0.057000 0.057000 1.200000 0.027000 0.032000
1518031274371537573	200 57 0.900000 0.079000 0.072000 1700 56 1.100000 0.299000 0.348000 600 60 1.000000 0.057000 0.057000 1.200000 0.027000 0.032000
1518031274878924698	200 56 0.900000 0.078000 0.071000 1700 55 1.100000 0.335000 0.390000 600 60 1.000000 0.056000 0.056000 1.200000 0.027000 0.032000
1518031275386606990	200 55 0.900000 0.079000 0.072000 1700 55 1.100000 0.291000 0.339000 600 59 1.000000 0.056000 0.056000 1.200000 0.028000 0.033000
1518031275894107656	200 55 0.900000 0.078000 0.071000 1700 54 1.100000 0.322000 0.375000 600 59 1.000000 0.056000 0.056000 1.200000 0.027000 0.032000
1518031276401964073	200 55 0.900000 0.078000 0.071000 1700 54 1.100000 0.291000 0.339000 600 58 1.000000 0.055000 0.055000 1.200000 0.027000 0.032000
1518031276909610240	200 54 0.900000 0.078000 0.071000 1700 54 1.100000 0.286000 0.333000 600 58 1.000000 0.056000 0.056000 1.200000 0.027000 0.032000
1518031277417152698	200 54 0.900000 0.078000 0.071000 1700 53 1.100000 0.282000 0.328000 600 57 1.000000 0.055000 0.055000 1.200000 0.027000 0.032000
1518031277924694907	200 53 0.900000 0.077000 0.070000 1700 53 1.100000 0.303000 0.352000 600 57 1.000000 0.055000 0.055000 1.200000 0.027000 0.032000
1518031278432329657	200 53 0.900000 0.078000 0.071000 1700 53 1.100000 0.311000 0.362000 600 57 1.000000 0.055000 0.055000 1.200000 0.028000 0.033000
1518031278939879407	200 53 0.900000 0.078000 0.071000 1700 52 1.100000 0.293000 0.341000 600 57 1.000000 0.055000 0.055000 1.200000 0.027000 0.032000
1518031279447492115	200 53 0.900000 0.078000 0.071000 1700 52 1.100000 0.312000 0.363000 600 56 1.000000 0.055000 0.055000 1.200000 0.027000 0.032000
1518031279954948574	200 52 0.900000 0.077000 0.070000 1700 52 1.100000 0.287000 0.334000 600 56 1.000000 0.055000 0.055000 1.200000 0.027000 0.032000
1518031280462374240	200 52 0.900000 0.077000 0.070000 1700 52 1.100000 0.314000 0.365000 600 56 1.000000 0.055000 0.055000 1.200000 0.027000 0.032000
1518031280970030032	200 52 0.900000 0.077000 0.070000 1700 51 1.100000 0.277000 0.322000 600 56 1.000000 0.055000 0.055000 1.200000 0.027000 0.032000
1518031281477540365	200 52 0.900000 0.077000 0.070000 1700 51 1.100000 0.322000 0.375000 600 55 1.000000 0.055000 0.055000 1.200000 0.027000 0.032000
1518031281985295699	200 52 0.900000 0.078000 0.071000 1700 51 1.100000 0.274000 0.319000 600 55 1.000000 0.055000 0.055000 1.200000 0.027000 0.032000
1518031282492857157	200 51 0.900000 0.078000 0.071000 1700 51 1.100000 0.270000 0.314000 600 55 1.000000 0.055000 0.055000 1.200000 0.027000 0.032000
1518031283000425949	200 51 0.900000 0.078000 0.071000 1700 51 1.100000 0.272000 0.317000 600 55 1.000000 0.055000 0.055000 1.200000 0.027000 0.032000
1518031283508181157	200 51 0.900000 0.077000 0.070000 1700 51 1.100000 0.275000 0.320000 600 55 1.000000 0.055000 0.055000 1.200000 0.028000 0.033000
1518031284015909282	200 51 0.900000 0.077000 0.070000 1700 50 1.100000 0.266000 0.309000 600 55 1.000000 0.055000 0.055000 1.200000 0.027000 0.032000
1518031284523520324	200 51 0.900000 0.077000 0.070000 1700 50 1.100000 0.265000 0.309000 600 54 1.000000 0.055000 0.055000 1.200000 0.027000 0.032000
1518031285031051616	200 51 0.900000 0.077000 0.070000 1700 50 1.100000 0.299000 0.348000 600 54 1.000000 0.055000 0.055000 1.200000 0.027000 0.032000
1518031285538708699	200 50 0.900000 0.076000 0.069000 1700 50 1.100000 0.283000 0.329000 600 54 1.000000 0.055000 0.055000 1.200000 0.027000 0.032000
1518031286046243074	200 50 0.900000 0.077000 0.070000 1700 50 1.100000 0.309000 0.360000 600 54 1.000000 0.055000 0.055000 1.200000 0.027000 0.032000
1518031286553893783	200 50 0.900000 0.076000 0.069000 1700 50 1.100000 0.266000 0.310000 600 54 1.000000 0.055000 0.055000 1.200000 0.027000 0.032000
1518031287061506199	200 50 0.900000 0.063000 0.057000 1700 49 1.100000 0.309000 0.360000 600 54 1.000000 0.054000 0.054000 1.200000 0.027000 0.032000
1518031287569300408	200 50 0.900000 0.041000 0.037000 1700 49 1.100000 0.273000 0.318000 600 54 1.000000 0.055000 0.055000 1.200000 0.025000 0.030000
1518031288077560408	200 50 0.900000 0.030000 0.027000 1700 49 1.100000 0.431000 0.503000 600 54 1.000000 0.055000 0.055000 1.200000 0.025000 0.030000
1518031288585297700	200 49 0.900000 0.014000 0.012000 1700 49 1.100000 0.264000 0.308000 600 53 1.000000 0.054000 0.054000 1.200000 0.024000 0.028000
