#Timestamp	CPU(0) Frequency(MHz)	CPU(0) Temperature(C)	A7 Voltage(V)	A7 Current(A)	A7 Power(W)	CPU(4) Frequency(MHz)	CPU(4) Temperature(C)	A15 Voltage(V)	A15 Current(A)	A15 Power(W)	GPU Frequency(MHz)	GPU Temperature(C)	GPU Voltage(V)	GPU Current(A)	GPU Power(W)	RAM Voltage(V)	RAM Current(A)	RAM Power(W)
1538306647554449672	800 34 0.900000 0.103000 0.102000 1500 25 1.100000 2.358000 2.593000 600 38 1.000000 0.050000 0.050000 1.200000 0.039000 0.047000
1538306648114375006	800 37 1.000000 0.306000 0.309000 1500 27 1.100000 3.488000 3.857000 600 42 1.000000 0.050000 0.050000 1.200000 0.032000 0.038000
1538306648678325214	800 39 1.000000 0.306000 0.309000 1500 29 1.100000 3.492000 3.858000 600 45 1.000000 0.050000 0.050000 1.200000 0.032000 0.038000
1538306649234336131	800 41 1.000000 0.307000 0.310000 1500 30 1.100000 3.496000 3.863000 600 46 1.000000 0.050000 0.050000 1.200000 0.033000 0.039000
1538306649782383631	800 42 1.000000 0.308000 0.311000 1500 31 1.100000 3.518000 3.890000 600 48 1.000000 0.051000 0.051000 1.200000 0.032000 0.038000
1538306650334332339	800 43 1.000000 0.308000 0.311000 1500 32 1.100000 3.521000 3.894000 600 48 1.000000 0.051000 0.051000 1.200000 0.031000 0.037000
1538306650894310048	800 43 1.000000 0.308000 0.311000 1500 33 1.100000 3.526000 3.899000 600 49 1.000000 0.051000 0.051000 1.200000 0.032000 0.038000
1538306651446345464	800 44 1.000000 0.308000 0.311000 1500 33 1.100000 3.529000 3.903000 600 50 1.000000 0.051000 0.051000 1.200000 0.031000 0.037000
1538306652002301006	800 44 1.000000 0.308000 0.311000 1500 34 1.100000 3.534000 3.908000 600 51 1.000000 0.051000 0.051000 1.200000 0.032000 0.038000
1538306652554290465	800 45 1.000000 0.308000 0.311000 1500 34 1.100000 3.534000 3.908000 600 51 1.000000 0.051000 0.051000 1.200000 0.031000 0.037000
1538306653110352673	800 45 1.000000 0.308000 0.311000 1500 35 1.100000 3.535000 3.909000 600 51 1.000000 0.051000 0.051000 1.200000 0.032000 0.038000
1538306653666296298	800 46 1.000000 0.308000 0.311000 1500 35 1.100000 3.527000 3.897000 600 52 1.000000 0.051000 0.051000 1.200000 0.032000 0.038000
1538306654218330423	800 46 1.000000 0.308000 0.311000 1500 35 1.100000 3.534000 3.908000 600 52 1.000000 0.051000 0.051000 1.200000 0.031000 0.037000
1538306654778374007	800 46 1.000000 0.308000 0.311000 1500 36 1.100000 3.547000 3.922000 600 52 1.000000 0.051000 0.051000 1.200000 0.031000 0.037000
1538306655330299840	800 46 1.000000 0.309000 0.312000 1500 36 1.100000 3.550000 3.926000 600 53 1.000000 0.051000 0.051000 1.200000 0.031000 0.037000
1538306655890349548	800 47 1.000000 0.309000 0.312000 1500 36 1.100000 3.549000 3.925000 600 53 1.000000 0.051000 0.051000 1.200000 0.031000 0.037000
1538306656438363423	800 47 1.000000 0.309000 0.312000 1500 36 1.100000 3.551000 3.927000 600 53 1.000000 0.051000 0.051000 1.200000 0.031000 0.037000
1538306656990345257	800 47 1.000000 0.309000 0.312000 1500 37 1.100000 3.551000 3.927000 600 53 1.000000 0.051000 0.051000 1.200000 0.031000 0.037000
1538306657542369715	800 47 1.000000 0.309000 0.312000 1500 37 1.100000 3.551000 3.927000 600 54 1.000000 0.051000 0.051000 1.200000 0.032000 0.038000
1538306658102319257	800 48 1.000000 0.309000 0.312000 1500 37 1.100000 3.550000 3.926000 600 54 1.000000 0.051000 0.051000 1.200000 0.031000 0.037000
1538306658658379965	800 48 1.000000 0.309000 0.312000 1500 37 1.100000 3.551000 3.927000 600 54 1.000000 0.052000 0.052000 1.200000 0.031000 0.037000
1538306659214341882	800 48 1.000000 0.310000 0.313000 1500 37 1.100000 3.553000 3.929000 600 54 1.000000 0.051000 0.051000 1.200000 0.032000 0.038000
1538306659766367340	800 48 1.000000 0.309000 0.312000 1500 37 1.100000 3.553000 3.929000 600 54 1.000000 0.051000 0.051000 1.200000 0.031000 0.037000
1538306660318340966	800 48 1.000000 0.309000 0.312000 1500 38 1.100000 3.552000 3.928000 600 54 1.000000 0.051000 0.051000 1.200000 0.032000 0.038000
1538306660878321882	800 48 1.000000 0.309000 0.312000 1500 38 1.100000 3.557000 3.934000 600 55 1.000000 0.051000 0.051000 1.200000 0.032000 0.038000
1538306661430380757	800 48 1.000000 0.310000 0.313000 1500 38 1.100000 3.589000 3.969000 600 55 1.000000 0.051000 0.051000 1.200000 0.031000 0.037000
1538306661990368549	800 49 1.000000 0.310000 0.313000 1500 38 1.100000 3.595000 3.976000 600 55 1.000000 0.051000 0.051000 1.200000 0.032000 0.038000
1538306662542370966	800 49 1.000000 0.310000 0.313000 1500 38 1.100000 3.595000 3.976000 600 55 1.000000 0.052000 0.052000 1.200000 0.032000 0.038000
1538306663090344466	800 49 1.000000 0.310000 0.313000 1500 38 1.100000 3.599000 3.980000 600 55 1.000000 0.052000 0.052000 1.200000 0.032000 0.038000
1538306663650370216	800 49 1.000000 0.310000 0.313000 1500 38 1.100000 3.601000 3.982000 600 55 1.000000 0.052000 0.052000 1.200000 0.031000 0.037000
1538306664210359216	800 49 1.000000 0.310000 0.313000 1500 38 1.100000 3.600000 3.981000 600 55 1.000000 0.052000 0.052000 1.200000 0.031000 0.037000
1538306664770384258	800 49 1.000000 0.310000 0.313000 1500 38 1.100000 3.612000 3.994000 600 56 1.000000 0.051000 0.051000 1.200000 0.031000 0.037000
1538306665330361966	800 49 1.000000 0.310000 0.313000 1500 39 1.100000 3.610000 3.992000 600 56 1.000000 0.052000 0.052000 1.200000 0.032000 0.038000
1538306665890320716	800 49 1.000000 0.310000 0.313000 1500 39 1.100000 3.605000 3.987000 600 56 1.000000 0.052000 0.052000 1.200000 0.032000 0.038000
1538306666450341633	800 49 1.000000 0.310000 0.313000 1500 39 1.100000 3.600000 3.981000 600 56 1.000000 0.052000 0.052000 1.200000 0.031000 0.037000
1538306667006314008	800 49 1.000000 0.310000 0.313000 1500 39 1.100000 3.612000 3.994000 600 56 1.000000 0.052000 0.052000 1.200000 0.031000 0.037000
1538306667566373175	800 49 1.000000 0.310000 0.313000 1500 39 1.100000 3.603000 3.984000 600 56 1.000000 0.052000 0.052000 1.200000 0.032000 0.038000
1538306668126324758	800 50 1.000000 0.310000 0.313000 1500 39 1.100000 3.601000 3.982000 600 56 1.000000 0.052000 0.052000 1.200000 0.032000 0.038000
1538306668678361175	800 50 1.000000 0.310000 0.313000 1500 39 1.100000 3.574000 3.952000 600 56 1.000000 0.051000 0.051000 1.200000 0.032000 0.038000
1538306669238302925	800 50 1.000000 0.310000 0.313000 1500 39 1.100000 3.567000 3.941000 600 56 1.000000 0.052000 0.052000 1.200000 0.031000 0.037000
1538306669802351842	800 50 1.000000 0.310000 0.313000 1500 39 1.100000 3.574000 3.952000 600 56 1.000000 0.052000 0.052000 1.200000 0.032000 0.038000
1538306670362345050	800 50 1.000000 0.310000 0.313000 1500 39 1.100000 3.582000 3.961000 600 56 1.000000 0.052000 0.052000 1.200000 0.031000 0.037000
1538306670922301383	800 50 1.000000 0.310000 0.313000 1500 39 1.100000 3.582000 3.961000 600 56 1.000000 0.052000 0.052000 1.200000 0.031000 0.037000
1538306671474332425	800 50 1.000000 0.310000 0.313000 1500 39 1.100000 3.572000 3.950000 600 56 1.000000 0.052000 0.052000 1.200000 0.031000 0.037000
1538306672038330092	800 50 1.000000 0.310000 0.313000 1500 39 1.100000 3.577000 3.956000 600 56 1.000000 0.052000 0.052000 1.200000 0.032000 0.038000
1538306672602383675	800 50 1.000000 0.310000 0.313000 1500 39 1.100000 3.574000 3.952000 600 56 1.000000 0.052000 0.052000 1.200000 0.032000 0.038000
1538306673158322217	800 50 1.000000 0.310000 0.313000 1500 39 1.100000 3.569000 3.947000 600 56 1.000000 0.052000 0.052000 1.200000 0.032000 0.038000
1538306673698352675	800 50 1.000000 0.311000 0.314000 1500 39 1.100000 3.572000 3.950000 600 56 1.000000 0.052000 0.052000 1.200000 0.032000 0.038000
1538306674238305426	800 50 1.000000 0.311000 0.314000 1500 39 1.100000 3.570000 3.948000 600 56 1.000000 0.052000 0.052000 1.200000 0.033000 0.039000
1538306674790367342	800 50 1.000000 0.312000 0.315000 1500 39 1.100000 3.579000 3.958000 600 57 1.000000 0.052000 0.052000 1.200000 0.031000 0.037000
1538306675354339176	800 50 1.000000 0.311000 0.314000 1500 39 1.100000 3.585000 3.965000 600 56 1.000000 0.052000 0.052000 1.200000 0.033000 0.039000
1538306675902383551	800 50 1.000000 0.312000 0.315000 1500 40 1.100000 3.600000 3.981000 600 57 1.000000 0.052000 0.052000 1.200000 0.032000 0.038000
1538306676462292509	800 50 1.000000 0.312000 0.315000 1500 40 1.100000 3.600000 3.981000 600 57 1.000000 0.052000 0.052000 1.200000 0.032000 0.038000
1538306677014344343	800 50 1.000000 0.311000 0.314000 1500 40 1.100000 3.599000 3.980000 600 57 1.000000 0.052000 0.052000 1.200000 0.032000 0.038000
1538306677574346384	800 50 1.000000 0.311000 0.314000 1500 40 1.100000 3.592000 3.969000 600 57 1.000000 0.052000 0.052000 1.200000 0.032000 0.038000
1538306678126328468	800 50 1.000000 0.311000 0.314000 1500 40 1.100000 3.592000 3.972000 600 57 1.000000 0.051000 0.051000 1.200000 0.032000 0.038000
1538306678674382468	800 50 1.000000 0.311000 0.314000 1500 40 1.100000 3.577000 3.956000 600 57 1.000000 0.052000 0.052000 1.200000 0.033000 0.039000
1538306679234339384	800 50 1.000000 0.311000 0.314000 1500 40 1.100000 3.585000 3.965000 600 57 1.000000 0.052000 0.052000 1.200000 0.033000 0.039000
1538306679794365260	800 50 1.000000 0.312000 0.315000 1500 40 1.100000 3.594000 3.971000 600 57 1.000000 0.052000 0.052000 1.200000 0.033000 0.039000
1538306680354339968	800 50 1.000000 0.311000 0.314000 1500 40 1.100000 3.597000 3.978000 600 57 1.000000 0.052000 0.052000 1.200000 0.032000 0.038000
1538306680906360426	800 50 1.000000 0.312000 0.315000 1500 40 1.100000 3.600000 3.981000 600 57 1.000000 0.052000 0.052000 1.200000 0.032000 0.038000
1538306681466405635	800 50 1.000000 0.312000 0.315000 1500 40 1.100000 3.602000 3.983000 600 57 1.000000 0.052000 0.052000 1.200000 0.032000 0.038000
1538306682026375010	800 51 1.000000 0.312000 0.315000 1500 40 1.100000 3.618000 4.001000 600 57 1.000000 0.052000 0.052000 1.200000 0.033000 0.039000
1538306682570327093	800 51 1.000000 0.312000 0.315000 1500 40 1.100000 3.619000 4.002000 600 57 1.000000 0.052000 0.052000 1.200000 0.032000 0.038000
1538306683130371052	800 51 1.000000 0.312000 0.315000 1500 40 1.100000 3.620000 4.003000 600 57 1.000000 0.052000 0.052000 1.200000 0.032000 0.038000
1538306683690338177	800 51 1.000000 0.311000 0.314000 1500 40 1.100000 3.621000 4.004000 600 57 1.000000 0.052000 0.052000 1.200000 0.032000 0.038000
1538306684250359218	800 51 1.000000 0.312000 0.315000 1500 40 1.100000 3.606000 3.988000 600 57 1.000000 0.052000 0.052000 1.200000 0.032000 0.038000
1538306684810340760	800 51 1.000000 0.312000 0.315000 1500 40 1.100000 3.605000 3.987000 600 57 1.000000 0.052000 0.052000 1.200000 0.033000 0.039000
1538306685374340385	800 51 1.000000 0.311000 0.314000 1500 40 1.100000 3.609000 3.991000 600 57 1.000000 0.052000 0.052000 1.200000 0.032000 0.038000
1538306685930351552	800 51 1.000000 0.312000 0.315000 1500 40 1.100000 3.623000 4.007000 600 57 1.000000 0.052000 0.052000 1.200000 0.032000 0.038000
1538306686482341885	800 51 1.000000 0.312000 0.315000 1500 40 1.100000 3.624000 4.008000 600 57 1.000000 0.052000 0.052000 1.200000 0.032000 0.038000
1538306687038339302	800 51 1.000000 0.312000 0.315000 1500 40 1.100000 3.621000 4.004000 600 58 1.000000 0.052000 0.052000 1.200000 0.032000 0.038000
1538306687590299844	800 51 1.000000 0.312000 0.315000 1500 40 1.100000 3.621000 4.004000 600 58 1.000000 0.052000 0.052000 1.200000 0.032000 0.038000
1538306688150357802	800 51 1.000000 0.312000 0.315000 1500 40 1.100000 3.622000 4.005000 600 58 1.000000 0.052000 0.052000 1.200000 0.032000 0.038000
1538306688702360594	800 51 1.000000 0.312000 0.315000 1500 40 1.100000 3.622000 4.005000 600 58 1.000000 0.052000 0.052000 1.200000 0.032000 0.038000
1538306689250345052	800 51 1.000000 0.312000 0.315000 1500 40 1.100000 3.605000 3.987000 600 57 1.000000 0.052000 0.052000 1.200000 0.033000 0.039000
1538306689810298636	800 51 1.000000 0.312000 0.315000 1500 40 1.100000 3.603000 3.984000 600 57 1.000000 0.052000 0.052000 1.200000 0.032000 0.038000
1538306690362360802	800 51 1.000000 0.312000 0.315000 1500 40 1.100000 3.603000 3.984000 600 57 1.000000 0.052000 0.052000 1.200000 0.032000 0.038000
1538306690918367886	800 51 1.000000 0.312000 0.315000 1500 40 1.100000 3.598000 3.979000 600 57 1.000000 0.052000 0.052000 1.200000 0.033000 0.039000
1538306691478307469	800 51 1.000000 0.312000 0.315000 1500 40 1.100000 3.615000 3.998000 600 57 1.000000 0.052000 0.052000 1.200000 0.032000 0.038000
1538306692026308386	800 51 1.000000 0.312000 0.315000 1500 40 1.100000 3.616000 3.999000 600 57 1.000000 0.052000 0.052000 1.200000 0.032000 0.038000
1538306692570347511	800 51 1.000000 0.312000 0.315000 1500 41 1.100000 3.615000 3.998000 600 58 1.000000 0.052000 0.052000 1.200000 0.032000 0.038000
1538306693130344386	800 51 1.000000 0.312000 0.315000 1500 41 1.100000 3.616000 3.999000 600 57 1.000000 0.052000 0.052000 1.200000 0.032000 0.038000
1538306693682372803	800 51 1.000000 0.312000 0.315000 1500 41 1.100000 3.615000 3.998000 600 58 1.000000 0.052000 0.052000 1.200000 0.032000 0.038000
1538306694242377178	800 51 1.000000 0.312000 0.315000 1500 41 1.100000 3.616000 3.999000 600 58 1.000000 0.052000 0.052000 1.200000 0.032000 0.038000
1538306694798337845	800 51 1.000000 0.312000 0.315000 1500 40 1.100000 3.615000 3.998000 600 58 1.000000 0.052000 0.052000 1.200000 0.032000 0.038000
1538306695350493220	800 51 1.000000 0.312000 0.315000 1500 41 1.100000 3.607000 3.989000 600 58 1.000000 0.052000 0.052000 1.200000 0.033000 0.039000
1538306695910350720	800 51 1.000000 0.312000 0.315000 1500 40 1.100000 3.574000 3.952000 600 58 1.000000 0.052000 0.052000 1.200000 0.032000 0.038000
1538306696470332261	800 51 1.000000 0.312000 0.315000 1500 41 1.100000 3.576000 3.955000 600 58 1.000000 0.052000 0.052000 1.200000 0.032000 0.038000
1538306697022393970	800 51 1.000000 0.312000 0.315000 1500 41 1.100000 3.583000 3.962000 600 58 1.000000 0.052000 0.052000 1.200000 0.032000 0.038000
1538306697586329928	800 51 1.000000 0.312000 0.315000 1500 41 1.100000 3.582000 3.961000 600 58 1.000000 0.052000 0.052000 1.200000 0.032000 0.038000
1538306698142322595	800 51 1.000000 0.312000 0.315000 1500 41 1.100000 3.584000 3.963000 600 58 1.000000 0.052000 0.052000 1.200000 0.033000 0.039000
1538306698698336387	800 51 1.000000 0.312000 0.315000 1500 41 1.100000 3.582000 3.961000 600 58 1.000000 0.052000 0.052000 1.200000 0.032000 0.038000
1538306699258320845	800 51 1.000000 0.312000 0.315000 1500 41 1.100000 3.582000 3.961000 600 58 1.000000 0.052000 0.052000 1.200000 0.033000 0.039000
1538306699818334679	800 51 1.000000 0.313000 0.316000 1500 41 1.100000 3.582000 3.961000 600 58 1.000000 0.052000 0.052000 1.200000 0.032000 0.038000
1538306700378328179	800 51 1.000000 0.313000 0.316000 1500 41 1.100000 3.581000 3.960000 600 58 1.000000 0.052000 0.052000 1.200000 0.032000 0.038000
1538306700938344470	800 51 1.000000 0.313000 0.316000 1500 41 1.100000 3.581000 3.960000 600 58 1.000000 0.052000 0.052000 1.200000 0.032000 0.038000
1538306701494349679	800 51 1.000000 0.313000 0.316000 1500 41 1.100000 3.573000 3.951000 600 58 1.000000 0.052000 0.052000 1.200000 0.032000 0.038000
1538306702050318304	800 51 1.000000 0.313000 0.316000 1500 41 1.100000 3.577000 3.956000 600 58 1.000000 0.052000 0.052000 1.200000 0.032000 0.038000
1538306702614365637	800 51 1.000000 0.313000 0.316000 1500 41 1.100000 3.593000 3.973000 600 58 1.000000 0.052000 0.052000 1.200000 0.032000 0.038000
1538306703174325596	800 51 1.000000 0.313000 0.316000 1500 41 1.100000 3.585000 3.965000 600 58 1.000000 0.052000 0.052000 1.200000 0.032000 0.038000
1538306703738339971	800 51 1.000000 0.313000 0.316000 1500 41 1.100000 3.600000 3.981000 600 58 1.000000 0.052000 0.052000 1.200000 0.032000 0.038000
1538306704298385554	800 51 1.000000 0.313000 0.316000 1500 41 1.100000 3.599000 3.980000 600 58 1.000000 0.052000 0.052000 1.200000 0.032000 0.038000
1538306704862362721	800 51 1.000000 0.313000 0.316000 1500 41 1.100000 3.600000 3.981000 600 58 1.000000 0.052000 0.052000 1.200000 0.032000 0.038000
1538306705418311304	800 51 1.000000 0.313000 0.316000 1500 41 1.100000 3.603000 3.984000 600 58 1.000000 0.052000 0.052000 1.200000 0.032000 0.038000
1538306705966350138	800 51 1.000000 0.313000 0.316000 1500 41 1.100000 3.598000 3.979000 600 58 1.000000 0.052000 0.052000 1.200000 0.032000 0.038000
1538306706530367513	800 51 1.000000 0.313000 0.316000 1500 41 1.100000 3.591000 3.971000 600 58 1.000000 0.052000 0.052000 1.200000 0.032000 0.038000
1538306707090342846	800 51 1.000000 0.313000 0.316000 1500 41 1.100000 3.591000 3.971000 600 58 1.000000 0.052000 0.052000 1.200000 0.032000 0.038000
1538306707654304221	800 51 1.000000 0.313000 0.316000 1500 41 1.100000 3.595000 3.976000 600 58 1.000000 0.052000 0.052000 1.200000 0.032000 0.038000
1538306708214375388	800 51 1.000000 0.313000 0.316000 1500 41 1.100000 3.605000 3.987000 600 58 1.000000 0.052000 0.052000 1.200000 0.032000 0.038000
1538306708766390430	800 51 1.000000 0.313000 0.316000 1500 41 1.100000 3.598000 3.979000 600 58 1.000000 0.052000 0.052000 1.200000 0.032000 0.038000
1538306709322379721	800 52 1.000000 0.313000 0.316000 1500 41 1.100000 3.618000 4.001000 600 58 1.000000 0.052000 0.052000 1.200000 0.032000 0.038000
1538306709882331513	800 52 1.000000 0.313000 0.316000 1500 41 1.100000 3.596000 3.977000 600 58 1.000000 0.052000 0.052000 1.200000 0.032000 0.038000
1538306710438335805	800 52 1.000000 0.313000 0.316000 1500 41 1.100000 3.602000 3.983000 600 58 1.000000 0.052000 0.052000 1.200000 0.033000 0.039000
1538306710994345805	800 52 1.000000 0.313000 0.316000 1500 41 1.100000 3.607000 3.989000 600 58 1.000000 0.052000 0.052000 1.200000 0.032000 0.038000
1538306711558336305	800 52 1.000000 0.313000 0.316000 1500 41 1.100000 3.607000 3.989000 600 58 1.000000 0.052000 0.052000 1.200000 0.032000 0.038000
1538306712110276680	800 51 1.000000 0.313000 0.316000 1500 41 1.100000 3.606000 3.988000 600 58 1.000000 0.052000 0.052000 1.200000 0.032000 0.038000
1538306712658337055	800 52 1.000000 0.313000 0.316000 1500 41 1.100000 3.599000 3.980000 600 58 1.000000 0.052000 0.052000 1.200000 0.032000 0.038000
1538306713206367347	800 52 1.000000 0.313000 0.316000 1500 41 1.100000 3.591000 3.971000 600 58 1.000000 0.052000 0.052000 1.200000 0.032000 0.038000
1538306713770354555	800 52 1.000000 0.313000 0.316000 1500 41 1.100000 3.593000 3.973000 600 58 1.000000 0.052000 0.052000 1.200000 0.032000 0.038000
1538306714334348305	800 51 1.000000 0.313000 0.316000 1500 41 1.100000 3.590000 3.970000 600 58 1.000000 0.052000 0.052000 1.200000 0.032000 0.038000
1538306714898342055	800 52 1.000000 0.313000 0.316000 1500 41 1.100000 3.590000 3.970000 600 58 1.000000 0.052000 0.052000 1.200000 0.032000 0.038000
1538306715450363472	800 52 1.000000 0.313000 0.316000 1500 41 1.100000 3.591000 3.971000 600 58 1.000000 0.052000 0.052000 1.200000 0.032000 0.038000
1538306716010348597	800 52 1.000000 0.313000 0.316000 1500 41 1.100000 3.612000 3.994000 600 58 1.000000 0.052000 0.052000 1.200000 0.032000 0.038000
1538306716570333347	800 52 1.000000 0.313000 0.316000 1500 41 1.100000 3.605000 3.987000 600 58 1.000000 0.052000 0.052000 1.200000 0.032000 0.038000
1538306717134361764	800 52 1.000000 0.313000 0.316000 1500 41 1.100000 3.604000 3.986000 600 58 1.000000 0.052000 0.052000 1.200000 0.033000 0.039000
1538306717690347222	800 52 1.000000 0.313000 0.316000 1500 41 1.100000 3.605000 3.987000 600 58 1.000000 0.052000 0.052000 1.200000 0.033000 0.039000
1538306718254356597	800 52 1.000000 0.313000 0.316000 1500 41 1.100000 3.594000 3.974000 600 58 1.000000 0.052000 0.052000 1.200000 0.032000 0.038000
1538306718814366972	800 52 1.000000 0.313000 0.316000 1500 41 1.100000 3.589000 3.969000 600 58 1.000000 0.052000 0.052000 1.200000 0.032000 0.038000
1538306719362392306	800 52 1.000000 0.313000 0.316000 1500 41 1.100000 3.595000 3.976000 600 58 1.000000 0.052000 0.052000 1.200000 0.032000 0.038000
1538306719918387931	800 52 1.000000 0.313000 0.316000 1500 41 1.100000 3.595000 3.976000 600 58 1.000000 0.052000 0.052000 1.200000 0.032000 0.038000
1538306720470365889	800 52 1.000000 0.313000 0.316000 1500 41 1.100000 3.597000 3.978000 600 58 1.000000 0.052000 0.052000 1.200000 0.032000 0.038000
1538306721018352431	800 52 1.000000 0.313000 0.316000 1500 41 1.100000 3.606000 3.988000 600 58 1.000000 0.052000 0.052000 1.200000 0.032000 0.038000
1538306721562392639	800 52 1.000000 0.313000 0.316000 1500 41 1.100000 3.606000 3.988000 600 58 1.000000 0.052000 0.052000 1.200000 0.032000 0.038000
1538306722114374015	800 52 1.000000 0.313000 0.316000 1500 41 1.100000 3.606000 3.988000 600 58 1.000000 0.052000 0.052000 1.200000 0.032000 0.038000
1538306722662364556	800 52 1.000000 0.313000 0.316000 1500 41 1.100000 3.607000 3.989000 600 58 1.000000 0.052000 0.052000 1.200000 0.032000 0.038000
1538306723218378515	800 52 1.000000 0.313000 0.316000 1500 41 1.100000 3.593000 3.973000 600 58 1.000000 0.052000 0.052000 1.200000 0.033000 0.039000
1538306723766336931	800 52 1.000000 0.313000 0.316000 1500 41 1.100000 3.591000 3.971000 600 58 1.000000 0.053000 0.053000 1.200000 0.032000 0.038000
1538306724326355598	800 52 1.000000 0.313000 0.316000 1500 41 1.100000 3.588000 3.968000 600 58 1.000000 0.052000 0.052000 1.200000 0.032000 0.038000
1538306724886342057	800 52 1.000000 0.313000 0.316000 1500 41 1.100000 3.589000 3.969000 600 58 1.000000 0.052000 0.052000 1.200000 0.032000 0.038000
1538306725430418057	800 52 1.000000 0.312000 0.315000 1500 41 1.100000 3.594000 3.974000 600 58 1.000000 0.052000 0.052000 1.200000 0.030000 0.036000
1538306725990349932	800 52 1.000000 0.311000 0.314000 1500 41 1.100000 3.584000 3.963000 600 58 1.000000 0.052000 0.052000 1.200000 0.029000 0.035000
1538306726534327807	800 52 1.000000 0.311000 0.314000 1500 41 1.100000 3.595000 3.976000 600 58 1.000000 0.053000 0.053000 1.200000 0.028000 0.033000
1538306727086342890	800 52 1.000000 0.311000 0.314000 1500 41 1.100000 3.596000 3.977000 600 58 1.000000 0.052000 0.052000 1.200000 0.028000 0.033000
1538306727638336390	800 52 1.000000 0.311000 0.314000 1500 41 1.100000 3.597000 3.978000 600 58 1.000000 0.052000 0.052000 1.200000 0.029000 0.035000
1538306728186353224	800 52 1.000000 0.311000 0.314000 1500 41 1.100000 3.598000 3.979000 600 58 1.000000 0.053000 0.053000 1.200000 0.028000 0.033000
1538306728742339349	800 52 1.000000 0.311000 0.314000 1500 41 1.100000 3.597000 3.978000 600 58 1.000000 0.053000 0.053000 1.200000 0.028000 0.033000
1538306729290298349	800 52 1.000000 0.311000 0.314000 1500 41 1.100000 3.598000 3.979000 600 58 1.000000 0.052000 0.052000 1.200000 0.028000 0.033000
1538306729850352265	800 52 1.000000 0.310000 0.313000 1500 41 1.100000 3.612000 3.994000 600 58 1.000000 0.052000 0.052000 1.200000 0.028000 0.033000
1538306730394390766	800 52 1.000000 0.311000 0.314000 1500 41 1.100000 3.594000 3.974000 600 58 1.000000 0.053000 0.053000 1.200000 0.028000 0.033000
1538306730942351307	800 52 1.000000 0.311000 0.314000 1500 41 1.100000 3.586000 3.966000 600 58 1.000000 0.052000 0.052000 1.200000 0.029000 0.035000
1538306731510342849	800 52 1.000000 0.310000 0.313000 1500 41 1.100000 3.585000 3.965000 600 58 1.000000 0.052000 0.052000 1.200000 0.029000 0.035000
1538306732062363057	800 52 1.000000 0.311000 0.314000 1500 41 1.100000 3.587000 3.967000 600 58 1.000000 0.053000 0.053000 1.200000 0.029000 0.035000
1538306732618371057	800 52 1.000000 0.311000 0.314000 1500 41 1.100000 3.594000 3.974000 600 58 1.000000 0.052000 0.052000 1.200000 0.028000 0.033000
1538306733170318308	800 52 1.000000 0.311000 0.314000 1500 41 1.100000 3.593000 3.973000 600 58 1.000000 0.052000 0.052000 1.200000 0.028000 0.033000
1538306733730291474	800 52 1.000000 0.311000 0.314000 1500 41 1.100000 3.592000 3.972000 600 58 1.000000 0.052000 0.052000 1.200000 0.028000 0.033000
1538306734282295016	800 52 1.000000 0.311000 0.314000 1500 41 1.100000 3.594000 3.974000 600 58 1.000000 0.052000 0.052000 1.200000 0.028000 0.033000
1538306734838365474	800 52 1.000000 0.310000 0.313000 1500 41 1.100000 3.595000 3.976000 600 58 1.000000 0.052000 0.052000 1.200000 0.028000 0.033000
1538306735398322099	800 52 1.000000 0.311000 0.314000 1500 41 1.100000 3.593000 3.973000 600 58 1.000000 0.052000 0.052000 1.200000 0.028000 0.033000
1538306735958335266	800 52 1.000000 0.311000 0.314000 1500 41 1.100000 3.593000 3.973000 600 58 1.000000 0.052000 0.052000 1.200000 0.028000 0.033000
1538306736518349391	800 52 1.000000 0.310000 0.313000 1500 41 1.100000 3.596000 3.977000 600 58 1.000000 0.052000 0.052000 1.200000 0.028000 0.033000
1538306737066356350	800 52 1.000000 0.310000 0.313000 1500 41 1.100000 3.603000 3.984000 600 58 1.000000 0.052000 0.052000 1.200000 0.029000 0.035000
1538306737618365308	800 52 1.000000 0.311000 0.314000 1500 41 1.100000 3.605000 3.987000 600 58 1.000000 0.052000 0.052000 1.200000 0.029000 0.035000
1538306738174374850	800 52 1.000000 0.311000 0.314000 1500 41 1.100000 3.619000 4.002000 600 58 1.000000 0.052000 0.052000 1.200000 0.028000 0.033000
1538306738734318517	800 52 1.000000 0.311000 0.314000 1500 41 1.100000 3.618000 4.001000 600 58 1.000000 0.052000 0.052000 1.200000 0.028000 0.033000
1538306739290344933	800 52 1.000000 0.311000 0.314000 1500 41 1.100000 3.615000 3.998000 600 58 1.000000 0.053000 0.053000 1.200000 0.028000 0.033000
1538306739842384433	800 52 1.000000 0.311000 0.314000 1500 41 1.100000 3.610000 3.992000 600 58 1.000000 0.052000 0.052000 1.200000 0.028000 0.033000
1538306740398365433	800 52 1.000000 0.311000 0.314000 1500 41 1.100000 3.610000 3.992000 600 58 1.000000 0.052000 0.052000 1.200000 0.028000 0.033000
1538306740962308767	800 52 1.000000 0.311000 0.314000 1500 41 1.100000 3.608000 3.990000 600 58 1.000000 0.052000 0.052000 1.200000 0.028000 0.033000
1538306741510354850	800 52 1.000000 0.311000 0.314000 1500 41 1.100000 3.612000 3.994000 600 59 1.000000 0.052000 0.052000 1.200000 0.028000 0.033000
1538306742062322725	800 52 1.000000 0.311000 0.314000 1500 41 1.100000 3.610000 3.992000 600 59 1.000000 0.052000 0.052000 1.200000 0.028000 0.033000
1538306742618364559	800 52 1.000000 0.311000 0.314000 1500 41 1.100000 3.605000 3.987000 600 58 1.000000 0.052000 0.052000 1.200000 0.028000 0.033000
1538306743170356684	800 52 1.000000 0.311000 0.314000 1500 42 1.100000 3.618000 4.001000 600 58 1.000000 0.052000 0.052000 1.200000 0.028000 0.033000
1538306743730322475	800 52 1.000000 0.311000 0.314000 1500 41 1.100000 3.615000 3.998000 600 59 1.000000 0.053000 0.053000 1.200000 0.028000 0.033000
1538306744282321476	800 52 1.000000 0.311000 0.314000 1500 41 1.100000 3.603000 3.984000 600 58 1.000000 0.052000 0.052000 1.200000 0.028000 0.033000
1538306744830303976	800 52 1.000000 0.311000 0.314000 1500 41 1.100000 3.605000 3.987000 600 59 1.000000 0.053000 0.053000 1.200000 0.028000 0.033000
1538306745382366226	800 52 1.000000 0.311000 0.314000 1500 42 1.100000 3.597000 3.978000 600 58 1.000000 0.052000 0.052000 1.200000 0.028000 0.033000
1538306745942356517	800 52 1.000000 0.311000 0.314000 1500 42 1.100000 3.589000 3.969000 600 58 1.000000 0.052000 0.052000 1.200000 0.028000 0.033000
1538306746490353726	800 52 1.000000 0.311000 0.314000 1500 42 1.100000 3.602000 3.983000 600 59 1.000000 0.052000 0.052000 1.200000 0.028000 0.033000
1538306747038288726	800 52 1.000000 0.311000 0.314000 1500 41 1.100000 3.606000 3.988000 600 59 1.000000 0.052000 0.052000 1.200000 0.028000 0.033000
1538306747594365518	800 52 1.000000 0.311000 0.314000 1500 41 1.100000 3.606000 3.988000 600 59 1.000000 0.052000 0.052000 1.200000 0.029000 0.035000
1538306748150330809	800 52 1.000000 0.311000 0.314000 1500 42 1.100000 3.598000 3.979000 600 58 1.000000 0.052000 0.052000 1.200000 0.028000 0.033000
1538306748702328184	800 52 1.000000 0.311000 0.314000 1500 41 1.100000 3.605000 3.987000 600 58 1.000000 0.052000 0.052000 1.200000 0.028000 0.033000
1538306749262340601	800 52 1.000000 0.311000 0.314000 1500 41 1.100000 3.608000 3.990000 600 58 1.000000 0.052000 0.052000 1.200000 0.028000 0.033000
1538306749814356393	800 52 1.000000 0.311000 0.314000 1500 42 1.100000 3.606000 3.988000 600 59 1.000000 0.052000 0.052000 1.200000 0.029000 0.035000
1538306750378348476	800 52 1.000000 0.311000 0.314000 1500 42 1.100000 3.593000 3.973000 600 58 1.000000 0.053000 0.053000 1.200000 0.028000 0.033000
1538306750930365310	800 52 1.000000 0.312000 0.315000 1500 42 1.100000 3.594000 3.974000 600 59 1.000000 0.052000 0.052000 1.200000 0.028000 0.033000
1538306751478301685	800 52 1.000000 0.312000 0.315000 1500 42 1.100000 3.602000 3.983000 600 59 1.000000 0.052000 0.052000 1.200000 0.029000 0.035000
1538306752034316101	800 52 1.000000 0.312000 0.315000 1500 41 1.100000 3.611000 3.993000 600 59 1.000000 0.052000 0.052000 1.200000 0.030000 0.036000
1538306752582363643	800 52 1.000000 0.313000 0.316000 1500 42 1.100000 3.611000 3.993000 600 59 1.000000 0.052000 0.052000 1.200000 0.029000 0.035000
1538306753142347810	800 52 1.000000 0.313000 0.316000 1500 42 1.100000 3.615000 3.998000 600 59 1.000000 0.052000 0.052000 1.200000 0.029000 0.035000
1538306753698312435	800 52 1.000000 0.312000 0.315000 1500 42 1.100000 3.616000 3.999000 600 59 1.000000 0.052000 0.052000 1.200000 0.029000 0.035000
1538306754254350935	800 52 1.000000 0.313000 0.316000 1500 42 1.100000 3.619000 4.002000 600 59 1.000000 0.052000 0.052000 1.200000 0.029000 0.035000
1538306754814359143	800 52 1.000000 0.313000 0.316000 1500 42 1.100000 3.618000 4.001000 600 59 1.000000 0.052000 0.052000 1.200000 0.029000 0.035000
1538306755374293810	800 52 1.000000 0.312000 0.315000 1500 42 1.100000 3.617000 4.000000 600 59 1.000000 0.052000 0.052000 1.200000 0.029000 0.035000
1538306755926358852	800 52 1.000000 0.312000 0.315000 1500 42 1.100000 3.614000 3.997000 600 59 1.000000 0.052000 0.052000 1.200000 0.029000 0.035000
1538306756486333060	800 52 1.000000 0.312000 0.315000 1500 42 1.100000 3.610000 3.992000 600 59 1.000000 0.052000 0.052000 1.200000 0.029000 0.035000
1538306757038346685	800 52 1.000000 0.312000 0.315000 1500 42 1.100000 3.606000 3.988000 600 59 1.000000 0.052000 0.052000 1.200000 0.029000 0.035000
1538306757594342144	800 52 1.000000 0.312000 0.315000 1500 42 1.100000 3.609000 3.991000 600 59 1.000000 0.052000 0.052000 1.200000 0.029000 0.035000
1538306758150365061	800 52 1.000000 0.313000 0.316000 1500 42 1.100000 3.614000 3.997000 600 59 1.000000 0.052000 0.052000 1.200000 0.029000 0.035000
1538306758710376894	800 52 1.000000 0.313000 0.316000 1500 42 1.100000 3.614000 3.997000 600 59 1.000000 0.052000 0.052000 1.200000 0.029000 0.035000
1538306759270343019	800 52 1.000000 0.313000 0.316000 1500 42 1.100000 3.622000 4.005000 600 59 1.000000 0.052000 0.052000 1.200000 0.029000 0.035000
1538306759826327519	800 52 1.000000 0.313000 0.316000 1500 42 1.100000 3.623000 4.007000 600 59 1.000000 0.052000 0.052000 1.200000 0.029000 0.035000
1538306760386387311	800 52 1.000000 0.312000 0.315000 1500 42 1.100000 3.623000 4.007000 600 59 1.000000 0.052000 0.052000 1.200000 0.029000 0.035000
1538306760946339353	800 52 1.000000 0.313000 0.316000 1500 42 1.100000 3.623000 4.007000 600 59 1.000000 0.052000 0.052000 1.200000 0.029000 0.035000
1538306761510360061	800 52 1.000000 0.312000 0.315000 1500 42 1.100000 3.623000 4.007000 600 59 1.000000 0.052000 0.052000 1.200000 0.029000 0.035000
1538306762070304894	800 52 1.000000 0.312000 0.315000 1500 42 1.100000 3.621000 4.004000 600 59 1.000000 0.052000 0.052000 1.200000 0.029000 0.035000
1538306762634383394	800 52 1.000000 0.313000 0.316000 1500 42 1.100000 3.607000 3.989000 600 59 1.000000 0.052000 0.052000 1.200000 0.029000 0.035000
1538306763186331019	800 52 1.000000 0.313000 0.316000 1500 42 1.100000 3.606000 3.988000 600 59 1.000000 0.052000 0.052000 1.200000 0.030000 0.036000
1538306763730375686	800 52 1.000000 0.312000 0.315000 1500 42 1.100000 3.618000 4.001000 600 59 1.000000 0.052000 0.052000 1.200000 0.029000 0.035000
1538306764286344853	800 52 1.000000 0.313000 0.316000 1500 42 1.100000 3.625000 4.009000 600 59 1.000000 0.052000 0.052000 1.200000 0.029000 0.035000
1538306764826345978	800 52 1.000000 0.313000 0.316000 1500 42 1.100000 3.589000 3.969000 600 59 1.000000 0.052000 0.052000 1.200000 0.029000 0.035000
1538306765382379561	800 52 1.000000 0.312000 0.315000 1500 42 1.100000 3.591000 3.971000 600 59 1.000000 0.052000 0.052000 1.200000 0.029000 0.035000
1538306765934367520	800 52 1.000000 0.312000 0.315000 1500 42 1.100000 3.590000 3.970000 600 59 1.000000 0.052000 0.052000 1.200000 0.029000 0.035000
1538306766482362978	800 52 1.000000 0.312000 0.315000 1500 42 1.100000 3.591000 3.971000 600 59 1.000000 0.052000 0.052000 1.200000 0.029000 0.035000
1538306767046313062	800 52 1.000000 0.312000 0.315000 1500 42 1.100000 3.591000 3.971000 600 59 1.000000 0.052000 0.052000 1.200000 0.029000 0.035000
1538306767606361270	800 52 1.000000 0.313000 0.316000 1500 42 1.100000 3.586000 3.966000 600 59 1.000000 0.052000 0.052000 1.200000 0.029000 0.035000
1538306768158354853	800 52 1.000000 0.313000 0.316000 1500 42 1.100000 3.587000 3.967000 600 59 1.000000 0.052000 0.052000 1.200000 0.029000 0.035000
1538306768718671020	800 52 1.000000 0.312000 0.315000 1500 42 1.100000 3.586000 3.966000 600 59 1.000000 0.052000 0.052000 1.200000 0.029000 0.035000
1538306769278355229	800 52 1.000000 0.312000 0.315000 1500 42 1.100000 3.589000 3.969000 600 59 1.000000 0.053000 0.053000 1.200000 0.029000 0.035000
1538306769838335145	800 52 1.000000 0.313000 0.316000 1500 42 1.100000 3.589000 3.969000 600 59 1.000000 0.052000 0.052000 1.200000 0.029000 0.035000
1538306770386356229	800 52 1.000000 0.313000 0.316000 1500 42 1.100000 3.592000 3.972000 600 59 1.000000 0.053000 0.053000 1.200000 0.029000 0.035000
1538306770938349437	800 52 1.000000 0.313000 0.316000 1500 42 1.100000 3.618000 4.001000 600 59 1.000000 0.052000 0.052000 1.200000 0.029000 0.035000
1538306771494336770	800 52 1.000000 0.313000 0.316000 1500 41 1.100000 3.601000 3.982000 600 59 1.000000 0.052000 0.052000 1.200000 0.029000 0.035000
1538306772050356604	800 52 1.000000 0.313000 0.316000 1500 42 1.100000 3.595000 3.976000 600 59 1.000000 0.052000 0.052000 1.200000 0.029000 0.035000
1538306772610346687	800 52 1.000000 0.312000 0.315000 1500 42 1.100000 3.596000 3.977000 600 59 1.000000 0.052000 0.052000 1.200000 0.029000 0.035000
1538306773158333771	800 52 1.000000 0.312000 0.315000 1500 42 1.100000 3.594000 3.974000 600 59 1.000000 0.052000 0.052000 1.200000 0.029000 0.035000
1538306773714345396	800 52 1.000000 0.312000 0.315000 1500 42 1.100000 3.590000 3.970000 600 59 1.000000 0.052000 0.052000 1.200000 0.029000 0.035000
1538306774266323937	800 52 1.000000 0.312000 0.315000 1500 42 1.100000 3.596000 3.977000 600 59 1.000000 0.052000 0.052000 1.200000 0.029000 0.035000
1538306774826318438	800 52 1.000000 0.312000 0.315000 1500 42 1.100000 3.595000 3.976000 600 59 1.000000 0.052000 0.052000 1.200000 0.029000 0.035000
1538306775378366604	800 52 1.000000 0.313000 0.316000 1500 42 1.100000 3.595000 3.976000 600 59 1.000000 0.052000 0.052000 1.200000 0.029000 0.035000
1538306775934289646	800 52 1.000000 0.313000 0.316000 1500 42 1.100000 3.597000 3.978000 600 59 1.000000 0.052000 0.052000 1.200000 0.029000 0.035000
1538306776502365813	800 52 1.000000 0.313000 0.316000 1500 42 1.100000 3.598000 3.979000 600 59 1.000000 0.052000 0.052000 1.200000 0.029000 0.035000
1538306777054352438	800 52 1.000000 0.313000 0.316000 1500 42 1.100000 3.596000 3.977000 600 59 1.000000 0.052000 0.052000 1.200000 0.029000 0.035000
1538306777606343563	800 52 1.000000 0.312000 0.315000 1500 42 1.100000 3.595000 3.976000 600 59 1.000000 0.053000 0.053000 1.200000 0.030000 0.036000
1538306778158358021	800 52 1.000000 0.312000 0.315000 1500 42 1.100000 3.574000 3.952000 600 59 1.000000 0.052000 0.052000 1.200000 0.031000 0.037000
1538306778718329146	800 52 1.000000 0.311000 0.314000 1500 42 1.100000 3.603000 3.984000 600 59 1.000000 0.052000 0.052000 1.200000 0.030000 0.036000
1538306779274329480	800 52 1.000000 0.312000 0.315000 1500 42 1.100000 3.600000 3.981000 600 59 1.000000 0.052000 0.052000 1.200000 0.030000 0.036000
1538306779826333688	800 52 1.000000 0.311000 0.314000 1500 42 1.100000 3.611000 3.993000 600 59 1.000000 0.052000 0.052000 1.200000 0.030000 0.036000
1538306780382303480	800 52 1.000000 0.312000 0.315000 1500 42 1.100000 3.607000 3.989000 600 59 1.000000 0.052000 0.052000 1.200000 0.030000 0.036000
1538306780942307730	800 52 1.000000 0.312000 0.315000 1500 42 1.100000 3.605000 3.987000 600 59 1.000000 0.053000 0.053000 1.200000 0.030000 0.036000
1538306781490294355	800 52 1.000000 0.312000 0.315000 1500 42 1.100000 3.605000 3.987000 600 59 1.000000 0.052000 0.052000 1.200000 0.030000 0.036000
1538306782030392272	800 52 1.000000 0.312000 0.315000 1500 42 1.100000 3.602000 3.983000 600 59 1.000000 0.053000 0.053000 1.200000 0.030000 0.036000
1538306782590345105	800 52 1.000000 0.312000 0.315000 1500 42 1.100000 3.600000 3.981000 600 59 1.000000 0.052000 0.052000 1.200000 0.030000 0.036000
1538306783150332230	800 52 1.000000 0.312000 0.315000 1500 42 1.100000 3.600000 3.981000 600 59 1.000000 0.052000 0.052000 1.200000 0.030000 0.036000
1538306783706339105	800 52 1.000000 0.312000 0.315000 1500 42 1.100000 3.605000 3.987000 600 59 1.000000 0.053000 0.053000 1.200000 0.030000 0.036000
1538306784254300355	800 53 1.000000 0.312000 0.315000 1500 42 1.100000 3.605000 3.987000 600 59 1.000000 0.052000 0.052000 1.200000 0.030000 0.036000
1538306784814362314	800 52 1.000000 0.312000 0.315000 1500 42 1.100000 3.605000 3.987000 600 59 1.000000 0.052000 0.052000 1.200000 0.031000 0.037000
1538306785362293397	800 52 1.000000 0.312000 0.315000 1500 42 1.100000 3.591000 3.971000 600 59 1.000000 0.053000 0.053000 1.200000 0.030000 0.036000
1538306785918339897	800 52 1.000000 0.312000 0.315000 1500 42 1.100000 3.597000 3.978000 600 59 1.000000 0.052000 0.052000 1.200000 0.030000 0.036000
1538306786478319189	800 52 1.000000 0.311000 0.314000 1500 42 1.100000 3.596000 3.977000 600 59 1.000000 0.053000 0.053000 1.200000 0.030000 0.036000
1538306787030351564	800 52 1.000000 0.312000 0.315000 1500 42 1.100000 3.588000 3.968000 600 59 1.000000 0.053000 0.053000 1.200000 0.030000 0.036000
1538306787582291439	800 52 1.000000 0.311000 0.314000 1500 42 1.100000 3.595000 3.976000 600 59 1.000000 0.052000 0.052000 1.200000 0.030000 0.036000
1538306788138280314	800 52 1.000000 0.311000 0.314000 1500 42 1.100000 3.595000 3.976000 600 59 1.000000 0.052000 0.052000 1.200000 0.030000 0.036000
1538306788690289522	800 52 1.000000 0.311000 0.314000 1500 42 1.100000 3.588000 3.968000 600 59 1.000000 0.052000 0.052000 1.200000 0.030000 0.036000
1538306789246331814	800 52 1.000000 0.311000 0.314000 1500 42 1.100000 3.585000 3.965000 600 59 1.000000 0.052000 0.052000 1.200000 0.030000 0.036000
1538306789806422439	800 52 1.000000 0.311000 0.314000 1500 42 1.100000 3.581000 3.960000 600 59 1.000000 0.052000 0.052000 1.200000 0.030000 0.036000
1538306790370338939	800 52 1.000000 0.312000 0.315000 1500 42 1.100000 3.585000 3.965000 600 59 1.000000 0.052000 0.052000 1.200000 0.030000 0.036000
1538306790918375648	800 52 1.000000 0.312000 0.315000 1500 42 1.100000 3.595000 3.976000 600 59 1.000000 0.052000 0.052000 1.200000 0.030000 0.036000
1538306791474355189	800 52 1.000000 0.311000 0.314000 1500 42 1.100000 3.597000 3.978000 600 59 1.000000 0.053000 0.053000 1.200000 0.030000 0.036000
1538306792034345065	800 52 1.000000 0.311000 0.314000 1500 42 1.100000 3.587000 3.967000 600 59 1.000000 0.052000 0.052000 1.200000 0.031000 0.037000
1538306792594338523	800 53 1.000000 0.311000 0.314000 1500 42 1.100000 3.584000 3.963000 600 59 1.000000 0.053000 0.053000 1.200000 0.030000 0.036000
1538306793154286065	800 53 1.000000 0.311000 0.314000 1500 42 1.100000 3.586000 3.966000 600 59 1.000000 0.053000 0.053000 1.200000 0.030000 0.036000
1538306793710324523	800 52 1.000000 0.311000 0.314000 1500 42 1.100000 3.586000 3.966000 600 59 1.000000 0.052000 0.052000 1.200000 0.030000 0.036000
1538306794270339065	800 52 1.000000 0.311000 0.314000 1500 42 1.100000 3.581000 3.960000 600 59 1.000000 0.053000 0.053000 1.200000 0.030000 0.036000
1538306794826320523	800 52 1.000000 0.312000 0.315000 1500 42 1.100000 3.587000 3.967000 600 59 1.000000 0.052000 0.052000 1.200000 0.030000 0.036000
1538306795370351482	800 53 1.000000 0.312000 0.315000 1500 42 1.100000 3.578000 3.957000 600 59 1.000000 0.052000 0.052000 1.200000 0.031000 0.037000
1538306795926306732	800 52 1.000000 0.311000 0.314000 1500 42 1.100000 3.585000 3.965000 600 59 1.000000 0.052000 0.052000 1.200000 0.030000 0.036000
1538306796482296607	800 52 1.000000 0.312000 0.315000 1500 42 1.100000 3.589000 3.969000 600 59 1.000000 0.053000 0.053000 1.200000 0.031000 0.037000
1538306797046379523	800 53 1.000000 0.311000 0.314000 1500 42 1.100000 3.592000 3.972000 600 59 1.000000 0.053000 0.053000 1.200000 0.031000 0.037000
1538306797602322690	800 52 1.000000 0.312000 0.315000 1500 42 1.100000 3.592000 3.972000 600 59 1.000000 0.052000 0.052000 1.200000 0.031000 0.037000
1538306798154334649	800 53 1.000000 0.312000 0.315000 1500 42 1.100000 3.583000 3.962000 600 59 1.000000 0.053000 0.053000 1.200000 0.031000 0.037000
1538306798714360857	800 53 1.000000 0.312000 0.315000 1500 42 1.100000 3.582000 3.961000 600 59 1.000000 0.052000 0.052000 1.200000 0.030000 0.036000
1538306799278335065	800 52 1.000000 0.311000 0.314000 1500 42 1.100000 3.577000 3.956000 600 59 1.000000 0.052000 0.052000 1.200000 0.031000 0.037000
1538306799838355815	800 53 1.000000 0.311000 0.314000 1500 42 1.100000 3.577000 3.956000 600 59 1.000000 0.052000 0.052000 1.200000 0.031000 0.037000
1538306800402348941	800 53 1.000000 0.311000 0.314000 1500 42 1.100000 3.576000 3.955000 600 59 1.000000 0.052000 0.052000 1.200000 0.031000 0.037000
1538306800962338524	800 53 1.000000 0.312000 0.315000 1500 42 1.100000 3.592000 3.972000 600 59 1.000000 0.052000 0.052000 1.200000 0.030000 0.036000
1538306801510358941	800 53 1.000000 0.312000 0.315000 1500 42 1.100000 3.591000 3.971000 600 59 1.000000 0.053000 0.053000 1.200000 0.030000 0.036000
1538306802062378232	800 53 1.000000 0.312000 0.315000 1500 42 1.100000 3.593000 3.973000 600 59 1.000000 0.052000 0.052000 1.200000 0.030000 0.036000
1538306802626295274	800 53 1.000000 0.312000 0.315000 1500 42 1.100000 3.591000 3.971000 600 59 1.000000 0.053000 0.053000 1.200000 0.031000 0.037000
1538306803182319774	800 53 1.000000 0.312000 0.315000 1500 42 1.100000 3.591000 3.971000 600 59 1.000000 0.053000 0.053000 1.200000 0.032000 0.038000
1538306803734329399	800 53 1.000000 0.312000 0.315000 1500 42 1.100000 3.586000 3.966000 600 59 1.000000 0.052000 0.052000 1.200000 0.031000 0.037000
1538306804294375941	800 53 1.000000 0.312000 0.315000 1500 42 1.100000 3.589000 3.969000 600 59 1.000000 0.052000 0.052000 1.200000 0.031000 0.037000
1538306804842331816	800 53 1.000000 0.312000 0.315000 1500 42 1.100000 3.583000 3.962000 600 59 1.000000 0.052000 0.052000 1.200000 0.031000 0.037000
1538306805394346441	800 53 1.000000 0.312000 0.315000 1500 42 1.100000 3.578000 3.957000 600 59 1.000000 0.052000 0.052000 1.200000 0.030000 0.036000
1538306805958341275	800 53 1.000000 0.312000 0.315000 1500 42 1.100000 3.603000 3.984000 600 59 1.000000 0.052000 0.052000 1.200000 0.031000 0.037000
1538306806518356650	800 53 1.000000 0.312000 0.315000 1500 42 1.100000 3.618000 4.001000 600 60 1.000000 0.052000 0.052000 1.200000 0.031000 0.037000
1538306807078350608	800 53 1.000000 0.312000 0.315000 1500 42 1.100000 3.619000 4.002000 600 60 1.000000 0.053000 0.053000 1.200000 0.030000 0.036000
1538306807638370650	800 53 1.000000 0.312000 0.315000 1500 42 1.100000 3.620000 4.003000 600 59 1.000000 0.053000 0.053000 1.200000 0.031000 0.037000
1538306808198349733	800 53 1.000000 0.312000 0.315000 1500 42 1.100000 3.622000 4.005000 600 60 1.000000 0.052000 0.052000 1.200000 0.031000 0.037000
1538306808758336025	800 53 1.000000 0.312000 0.315000 1500 42 1.100000 3.618000 4.001000 600 60 1.000000 0.053000 0.053000 1.200000 0.031000 0.037000
1538306809318330317	800 53 1.000000 0.312000 0.315000 1500 42 1.100000 3.611000 3.993000 600 60 1.000000 0.052000 0.052000 1.200000 0.031000 0.037000
1538306809878345233	800 53 1.000000 0.312000 0.315000 1500 42 1.100000 3.607000 3.989000 600 60 1.000000 0.053000 0.053000 1.200000 0.031000 0.037000
1538306810434337358	800 53 1.000000 0.312000 0.315000 1500 42 1.100000 3.615000 3.998000 600 60 1.000000 0.052000 0.052000 1.200000 0.031000 0.037000
1538306810994372025	800 53 1.000000 0.312000 0.315000 1500 42 1.100000 3.617000 4.000000 600 60 1.000000 0.052000 0.052000 1.200000 0.031000 0.037000
1538306811542306484	800 53 1.000000 0.312000 0.315000 1500 43 1.100000 3.620000 4.003000 600 60 1.000000 0.053000 0.053000 1.200000 0.030000 0.036000
1538306812102345067	800 53 1.000000 0.312000 0.315000 1500 43 1.100000 3.617000 4.000000 600 60 1.000000 0.053000 0.053000 1.200000 0.031000 0.037000
1538306812642303109	800 53 1.000000 0.312000 0.315000 1500 43 1.100000 3.594000 3.974000 600 60 1.000000 0.052000 0.052000 1.200000 0.031000 0.037000
1538306813190326442	800 53 1.000000 0.312000 0.315000 1500 43 1.100000 3.597000 3.978000 600 59 1.000000 0.052000 0.052000 1.200000 0.030000 0.036000
1538306813746280442	800 53 1.000000 0.312000 0.315000 1500 42 1.100000 3.579000 3.958000 600 59 1.000000 0.053000 0.053000 1.200000 0.030000 0.036000
1538306814294348942	800 53 1.000000 0.312000 0.315000 1500 42 1.100000 3.580000 3.959000 600 59 1.000000 0.052000 0.052000 1.200000 0.031000 0.037000
1538306814854334734	800 53 1.000000 0.312000 0.315000 1500 42 1.100000 3.578000 3.957000 600 59 1.000000 0.052000 0.052000 1.200000 0.031000 0.037000
1538306815402370817	800 53 1.000000 0.312000 0.315000 1500 42 1.100000 3.581000 3.960000 600 59 1.000000 0.053000 0.053000 1.200000 0.031000 0.037000
1538306815954362817	800 53 1.000000 0.312000 0.315000 1500 43 1.100000 3.573000 3.951000 600 59 1.000000 0.052000 0.052000 1.200000 0.031000 0.037000
1538306816514328526	800 53 1.000000 0.312000 0.315000 1500 42 1.100000 3.578000 3.957000 600 59 1.000000 0.052000 0.052000 1.200000 0.031000 0.037000
1538306817066331693	800 53 1.000000 0.312000 0.315000 1500 43 1.100000 3.568000 3.946000 600 60 1.000000 0.052000 0.052000 1.200000 0.030000 0.036000
1538306817618343984	800 53 1.000000 0.312000 0.315000 1500 43 1.100000 3.577000 3.956000 600 60 1.000000 0.053000 0.053000 1.200000 0.030000 0.036000
1538306818174339651	800 53 1.000000 0.312000 0.315000 1500 43 1.100000 3.576000 3.955000 600 59 1.000000 0.052000 0.052000 1.200000 0.031000 0.037000
1538306818679763068	800 53 1.000000 0.312000 0.315000 1500 43 1.100000 3.569000 3.947000 600 53 1.000000 0.052000 0.052000 1.200000 0.031000 0.037000
1538306819185235609	800 46 1.000000 0.312000 0.315000 1500 42 1.100000 2.793000 3.077000 600 50 1.000000 0.053000 0.053000 1.200000 0.031000 0.037000
1538306819690421693	800 42 1.000000 0.312000 0.315000 1500 40 1.000000 1.192000 1.305000 600 47 1.000000 0.052000 0.052000 1.200000 0.030000 0.036000
1538306820195540068	800 40 1.000000 0.311000 0.314000 1500 38 1.000000 1.169000 1.280000 600 44 1.000000 0.052000 0.052000 1.200000 0.031000 0.037000
1538306820700662610	800 38 1.000000 0.311000 0.314000 1500 36 1.100000 0.217000 0.238000 600 41 1.000000 0.051000 0.051000 1.200000 0.031000 0.037000
1538306821205969526	800 37 1.000000 0.310000 0.313000 1500 35 1.100000 0.205000 0.225000 600 40 1.000000 0.051000 0.051000 1.200000 0.031000 0.037000
1538306821711153526	800 35 1.000000 0.310000 0.313000 1500 34 1.100000 0.193000 0.212000 600 38 1.000000 0.051000 0.051000 1.200000 0.031000 0.037000
1538306822216392526	800 35 1.000000 0.310000 0.313000 1500 33 1.100000 0.210000 0.231000 600 37 1.000000 0.051000 0.051000 1.200000 0.031000 0.037000
1538306822721664485	800 34 1.000000 0.310000 0.313000 1500 33 1.100000 0.187000 0.205000 600 36 1.000000 0.051000 0.051000 1.200000 0.030000 0.036000
1538306823226848485	800 33 1.000000 0.310000 0.313000 1500 32 1.100000 0.211000 0.232000 600 36 1.000000 0.051000 0.051000 1.200000 0.031000 0.037000
1538306823731924152	800 33 1.000000 0.309000 0.312000 1500 31 1.100000 0.183000 0.201000 600 35 1.000000 0.051000 0.051000 1.200000 0.031000 0.037000
1538306824237027693	800 32 1.000000 0.309000 0.312000 1500 31 1.100000 0.198000 0.217000 600 35 1.000000 0.051000 0.051000 1.200000 0.031000 0.037000
1538306824742137818	800 32 1.000000 0.309000 0.312000 1500 31 1.100000 0.190000 0.209000 600 34 1.000000 0.051000 0.051000 1.200000 0.030000 0.036000
1538306825247235444	800 32 1.000000 0.309000 0.312000 1500 30 1.100000 0.189000 0.207000 600 34 1.000000 0.051000 0.051000 1.200000 0.031000 0.037000
1538306825752219319	800 31 1.000000 0.309000 0.312000 1500 30 1.100000 0.206000 0.226000 600 33 1.000000 0.050000 0.050000 1.200000 0.031000 0.037000
1538306826257355985	800 31 1.000000 0.309000 0.312000 1500 30 1.100000 0.178000 0.195000 600 33 1.000000 0.050000 0.050000 1.200000 0.031000 0.037000
1538306826762358985	800 31 1.000000 0.309000 0.312000 1500 29 1.100000 0.176000 0.193000 600 33 1.000000 0.050000 0.050000 1.200000 0.030000 0.036000
1538306827267499235	800 30 1.000000 0.309000 0.312000 1500 29 1.100000 0.176000 0.193000 600 33 1.000000 0.050000 0.050000 1.200000 0.031000 0.037000
1538306827772620819	800 30 1.000000 0.308000 0.311000 1500 29 1.100000 0.195000 0.214000 600 33 1.000000 0.050000 0.050000 1.200000 0.031000 0.037000
1538306828277793902	800 30 1.000000 0.308000 0.311000 1500 28 1.100000 0.193000 0.212000 600 32 1.000000 0.050000 0.050000 1.200000 0.031000 0.037000
1538306828782974236	800 29 1.000000 0.216000 0.219000 1500 28 1.100000 0.181000 0.199000 600 32 1.000000 0.050000 0.050000 1.200000 0.028000 0.033000
1538306829288121777	800 29 1.000000 0.078000 0.080000 1500 27 1.100000 0.224000 0.246000 600 32 1.000000 0.050000 0.050000 1.200000 0.022000 0.026000
