#Timestamp	CPU(0) Frequency(MHz)	CPU(0) Temperature(C)	A7 Voltage(V)	A7 Current(A)	A7 Power(W)	CPU(4) Frequency(MHz)	CPU(4) Temperature(C)	A15 Voltage(V)	A15 Current(A)	A15 Power(W)	GPU Frequency(MHz)	GPU Temperature(C)	GPU Voltage(V)	GPU Current(A)	GPU Power(W)	RAM Voltage(V)	RAM Current(A)	RAM Power(W)
1517839420011704827	200 43 0.900000 0.040000 0.036000 1200 39 1.000000 1.268000 1.294000 600 48 1.000000 0.052000 0.052000 1.200000 0.050000 0.060000
1517839420522150077	200 42 0.900000 0.060000 0.054000 1200 39 1.000000 2.131000 2.180000 600 47 1.000000 0.053000 0.053000 1.200000 0.034000 0.041000
1517839421072156411	200 45 0.900000 0.060000 0.054000 1200 40 1.000000 2.202000 2.252000 600 50 1.000000 0.053000 0.053000 1.200000 0.046000 0.055000
1517839421640320577	200 45 0.900000 0.046000 0.042000 1200 40 1.000000 1.488000 1.520000 600 50 1.000000 0.053000 0.053000 1.200000 0.045000 0.054000
1517839422156281827	200 46 0.900000 0.046000 0.042000 1200 40 1.000000 1.956000 1.999000 600 51 1.000000 0.053000 0.053000 1.200000 0.037000 0.044000
1517839422666315286	200 45 0.900000 0.060000 0.054000 1200 41 1.000000 2.122000 2.170000 600 49 1.000000 0.053000 0.053000 1.200000 0.037000 0.044000
1517839423215503494	200 46 0.900000 0.047000 0.043000 1200 41 1.000000 2.068000 2.115000 600 51 1.000000 0.053000 0.053000 1.200000 0.049000 0.059000
1517839423764281494	200 46 0.900000 0.052000 0.047000 1200 41 1.000000 1.510000 1.543000 600 50 1.000000 0.053000 0.053000 1.200000 0.043000 0.051000
1517839424305136869	200 46 0.900000 0.061000 0.055000 1200 41 1.000000 2.032000 2.078000 600 51 1.000000 0.053000 0.053000 1.200000 0.039000 0.047000
1517839424815199286	200 44 0.900000 0.061000 0.055000 1200 41 1.000000 2.003000 2.049000 600 50 1.000000 0.053000 0.053000 1.200000 0.038000 0.045000
1517839425364236119	200 46 0.900000 0.046000 0.042000 1200 41 1.000000 1.838000 1.880000 600 51 1.000000 0.053000 0.053000 1.200000 0.053000 0.064000
1517839425908167078	200 46 0.900000 0.053000 0.048000 1200 41 1.000000 1.488000 1.519000 600 51 1.000000 0.053000 0.053000 1.200000 0.035000 0.042000
1517839426464324328	200 46 0.900000 0.061000 0.055000 1200 41 1.000000 1.914000 1.958000 600 51 1.000000 0.053000 0.053000 1.200000 0.035000 0.042000
1517839426974617411	200 46 0.900000 0.060000 0.054000 1200 41 1.000000 1.972000 2.017000 600 51 1.000000 0.053000 0.053000 1.200000 0.041000 0.049000
1517839427536393495	200 46 0.900000 0.048000 0.043000 1200 41 1.000000 1.546000 1.580000 600 51 1.000000 0.053000 0.053000 1.200000 0.045000 0.054000
1517839428052901703	200 46 0.900000 0.046000 0.042000 1200 41 1.000000 1.563000 1.597000 600 52 1.000000 0.053000 0.053000 1.200000 0.037000 0.044000
1517839428564662578	200 46 0.900000 0.061000 0.055000 1200 41 1.000000 1.939000 1.983000 600 50 1.000000 0.053000 0.053000 1.200000 0.034000 0.041000
1517839429123037662	200 47 0.900000 0.046000 0.042000 1200 41 1.000000 2.115000 2.163000 600 52 1.000000 0.053000 0.053000 1.200000 0.046000 0.055000
1517839429632880662	200 46 0.900000 0.054000 0.049000 1200 41 1.000000 1.508000 1.541000 600 51 1.000000 0.053000 0.053000 1.200000 0.049000 0.059000
1517839430200345162	200 46 0.900000 0.060000 0.054000 1200 41 1.000000 1.741000 1.781000 600 51 1.000000 0.053000 0.053000 1.200000 0.036000 0.043000
1517839430744486328	200 46 0.900000 0.061000 0.055000 1200 41 1.000000 2.013000 2.063000 600 50 1.000000 0.053000 0.053000 1.200000 0.037000 0.044000
1517839431266599620	200 47 0.900000 0.048000 0.043000 1200 41 1.000000 2.028000 2.074000 600 52 1.000000 0.053000 0.053000 1.200000 0.050000 0.060000
1517839431785534162	200 47 0.900000 0.047000 0.043000 1200 41 1.000000 1.413000 1.442000 600 52 1.000000 0.053000 0.053000 1.200000 0.043000 0.051000
1517839432348318870	200 47 0.900000 0.061000 0.055000 1200 41 1.000000 2.036000 2.082000 600 51 1.000000 0.053000 0.053000 1.200000 0.038000 0.045000
1517839432863282079	200 45 0.900000 0.061000 0.055000 1200 41 1.000000 1.996000 2.041000 600 50 1.000000 0.053000 0.053000 1.200000 0.037000 0.044000
1517839433420277829	200 47 0.900000 0.049000 0.044000 1200 41 1.000000 2.201000 2.251000 600 52 1.000000 0.053000 0.053000 1.200000 0.047000 0.056000
1517839433930463704	200 46 0.900000 0.061000 0.055000 1200 41 1.000000 2.057000 2.104000 600 51 1.000000 0.053000 0.053000 1.200000 0.043000 0.051000
1517839434488417704	200 46 0.900000 0.060000 0.054000 1200 41 1.000000 1.992000 2.037000 600 51 1.000000 0.053000 0.053000 1.200000 0.034000 0.041000
1517839435005147787	200 46 0.900000 0.047000 0.043000 1200 41 1.000000 1.549000 1.581000 600 50 1.000000 0.053000 0.053000 1.200000 0.033000 0.039000
1517839435550331371	200 47 0.900000 0.061000 0.055000 1200 42 1.000000 1.917000 1.961000 600 52 1.000000 0.053000 0.053000 1.200000 0.034000 0.041000
1517839436108203621	200 47 0.900000 0.046000 0.042000 1200 41 1.000000 1.926000 1.974000 600 51 1.000000 0.053000 0.053000 1.200000 0.043000 0.051000
1517839436634598287	200 47 0.900000 0.052000 0.047000 1200 41 1.000000 1.402000 1.432000 600 52 1.000000 0.053000 0.053000 1.200000 0.052000 0.062000
1517839437172452454	200 45 0.900000 0.061000 0.055000 1200 41 1.000000 1.582000 1.615000 600 50 1.000000 0.053000 0.053000 1.200000 0.034000 0.041000
1517839437696245621	200 47 0.900000 0.061000 0.055000 1200 41 1.000000 1.951000 1.993000 600 52 1.000000 0.053000 0.053000 1.200000 0.035000 0.042000
1517839438260306454	200 47 0.900000 0.046000 0.042000 1200 41 1.000000 1.488000 1.520000 600 51 1.000000 0.053000 0.053000 1.200000 0.046000 0.055000
1517839438771671371	200 47 0.900000 0.046000 0.042000 1200 41 1.000000 2.108000 2.156000 600 52 1.000000 0.053000 0.053000 1.200000 0.046000 0.055000
1517839439312464371	200 45 0.900000 0.060000 0.054000 1200 41 1.000000 2.021000 2.067000 600 50 1.000000 0.053000 0.053000 1.200000 0.034000 0.041000
1517839439861231080	200 47 0.900000 0.047000 0.043000 1200 41 1.000000 1.738000 1.781000 600 52 1.000000 0.053000 0.053000 1.200000 0.033000 0.039000
1517839440373782871	200 47 0.900000 0.051000 0.046000 1200 41 1.000000 1.449000 1.479000 600 52 1.000000 0.053000 0.053000 1.200000 0.045000 0.054000
1517839440924219246	200 46 0.900000 0.048000 0.043000 1200 41 1.000000 2.024000 2.070000 600 51 1.000000 0.053000 0.053000 1.200000 0.039000 0.047000
1517839441439382913	200 46 0.900000 0.061000 0.055000 1200 41 1.000000 1.972000 2.017000 600 50 1.000000 0.053000 0.053000 1.200000 0.034000 0.041000
1517839442000279746	200 46 0.900000 0.047000 0.043000 1200 41 1.000000 1.489000 1.521000 600 52 1.000000 0.053000 0.053000 1.200000 0.033000 0.039000
1517839442558607413	200 46 0.900000 0.047000 0.043000 1200 41 1.000000 1.595000 1.628000 600 50 1.000000 0.053000 0.053000 1.200000 0.047000 0.056000
1517839443068778330	200 46 0.900000 0.053000 0.048000 1200 41 1.000000 1.847000 1.889000 600 51 1.000000 0.053000 0.053000 1.200000 0.034000 0.041000
1517839443591680497	200 44 0.900000 0.061000 0.055000 1200 41 1.000000 2.209000 2.257000 600 49 1.000000 0.053000 0.053000 1.200000 0.035000 0.042000
1517839444127685913	200 47 0.900000 0.045000 0.041000 1200 41 1.000000 1.520000 1.551000 600 52 1.000000 0.053000 0.053000 1.200000 0.040000 0.048000
1517839444672343580	200 46 0.900000 0.052000 0.047000 1200 41 1.000000 1.996000 2.041000 600 51 1.000000 0.053000 0.053000 1.200000 0.048000 0.057000
1517839445212355497	200 45 0.900000 0.060000 0.054000 1200 41 1.000000 1.978000 2.023000 600 50 1.000000 0.053000 0.053000 1.200000 0.034000 0.041000
1517839445747121872	200 47 0.900000 0.061000 0.055000 1200 41 1.000000 1.613000 1.646000 600 52 1.000000 0.053000 0.053000 1.200000 0.033000 0.039000
1517839446284438039	200 47 0.900000 0.048000 0.043000 1200 41 1.000000 1.631000 1.665000 600 51 1.000000 0.053000 0.053000 1.200000 0.048000 0.057000
1517839446836315372	200 46 0.900000 0.055000 0.050000 1200 41 1.000000 1.965000 2.010000 600 52 1.000000 0.053000 0.053000 1.200000 0.041000 0.049000
1517839447348697580	200 45 0.900000 0.060000 0.054000 1200 41 1.000000 2.023000 2.069000 600 50 1.000000 0.053000 0.053000 1.200000 0.035000 0.042000
1517839447908299705	200 47 0.900000 0.061000 0.055000 1200 41 1.000000 1.647000 1.681000 600 52 1.000000 0.053000 0.053000 1.200000 0.041000 0.049000
1517839448424875414	200 47 0.900000 0.061000 0.055000 1200 41 1.000000 1.869000 1.910000 600 52 1.000000 0.053000 0.053000 1.200000 0.048000 0.057000
1517839448992312872	200 46 0.900000 0.060000 0.054000 1200 41 1.000000 2.083000 2.130000 600 51 1.000000 0.053000 0.053000 1.200000 0.035000 0.042000
1517839449509308831	200 45 0.900000 0.061000 0.055000 1200 41 1.000000 1.911000 1.954000 600 50 1.000000 0.053000 0.053000 1.200000 0.036000 0.043000
1517839450070732331	200 47 0.900000 0.061000 0.055000 1200 41 1.000000 1.992000 2.037000 600 52 1.000000 0.053000 0.053000 1.200000 0.034000 0.041000
1517839450636421247	200 46 0.900000 0.047000 0.043000 1200 41 1.000000 1.574000 1.608000 600 51 1.000000 0.053000 0.053000 1.200000 0.033000 0.039000
1517839451157615748	200 47 0.900000 0.046000 0.042000 1200 41 1.000000 1.588000 1.621000 600 52 1.000000 0.053000 0.053000 1.200000 0.049000 0.059000
1517839451712296456	200 46 0.900000 0.060000 0.054000 1200 41 1.000000 1.955000 1.999000 600 51 1.000000 0.053000 0.053000 1.200000 0.040000 0.048000
1517839452221972748	200 46 0.900000 0.060000 0.054000 1200 41 1.000000 2.025000 2.071000 600 52 1.000000 0.053000 0.053000 1.200000 0.032000 0.038000
1517839452784340373	200 47 0.900000 0.059000 0.053000 1200 42 1.000000 1.685000 1.720000 600 51 1.000000 0.053000 0.053000 1.200000 0.035000 0.042000
1517839453314799581	200 46 0.900000 0.048000 0.043000 1200 41 1.000000 1.655000 1.691000 600 51 1.000000 0.053000 0.053000 1.200000 0.035000 0.042000
1517839453829401623	200 46 0.900000 0.059000 0.053000 1200 41 1.000000 2.016000 2.062000 600 50 1.000000 0.053000 0.053000 1.200000 0.036000 0.043000
1517839454380324706	200 47 0.900000 0.047000 0.043000 1200 41 1.000000 1.902000 1.945000 600 52 1.000000 0.053000 0.053000 1.200000 0.047000 0.056000
1517839454900240456	200 47 0.900000 0.046000 0.042000 1200 41 1.000000 1.704000 1.739000 600 52 1.000000 0.053000 0.053000 1.200000 0.042000 0.050000
1517839455468227248	200 47 0.900000 0.061000 0.055000 1200 42 1.000000 1.986000 2.031000 600 51 1.000000 0.053000 0.053000 1.200000 0.035000 0.042000
1517839455985379165	200 46 0.900000 0.060000 0.054000 1200 41 1.000000 1.988000 2.033000 600 50 1.000000 0.053000 0.053000 1.200000 0.037000 0.044000
1517839456544308707	200 47 0.900000 0.051000 0.046000 1200 41 1.000000 2.057000 2.104000 600 51 1.000000 0.053000 0.053000 1.200000 0.046000 0.055000
1517839457058534790	200 47 0.900000 0.048000 0.043000 1200 41 1.000000 1.721000 1.757000 600 52 1.000000 0.053000 0.053000 1.200000 0.038000 0.045000
1517839457608292207	200 45 0.900000 0.061000 0.055000 1200 41 1.000000 2.018000 2.064000 600 50 1.000000 0.053000 0.053000 1.200000 0.035000 0.042000
1517839458121195582	200 46 0.900000 0.061000 0.055000 1200 41 1.000000 1.939000 1.983000 600 50 1.000000 0.053000 0.053000 1.200000 0.041000 0.049000
1517839458688295623	200 47 0.900000 0.058000 0.052000 1200 41 1.000000 1.753000 1.793000 600 51 1.000000 0.053000 0.053000 1.200000 0.044000 0.053000
1517839459211685873	200 47 0.900000 0.047000 0.043000 1200 41 1.000000 1.348000 1.376000 600 52 1.000000 0.053000 0.053000 1.200000 0.035000 0.042000
1517839459776295332	200 46 0.900000 0.058000 0.052000 1200 41 1.000000 2.063000 2.110000 600 51 1.000000 0.053000 0.053000 1.200000 0.033000 0.039000
1517839460293789499	200 45 0.900000 0.061000 0.055000 1200 41 1.000000 2.000000 2.046000 600 50 1.000000 0.053000 0.053000 1.200000 0.040000 0.048000
1517839460849482915	200 47 0.900000 0.045000 0.041000 1200 41 1.000000 1.593000 1.629000 600 52 1.000000 0.053000 0.053000 1.200000 0.049000 0.059000
1517839461359146124	200 46 0.900000 0.046000 0.042000 1200 41 1.000000 1.978000 2.021000 600 51 1.000000 0.053000 0.053000 1.200000 0.045000 0.054000
1517839461920283040	200 46 0.900000 0.061000 0.055000 1200 41 1.000000 1.988000 2.033000 600 51 1.000000 0.053000 0.053000 1.200000 0.036000 0.043000
1517839462431776624	200 46 0.900000 0.061000 0.055000 1200 41 1.000000 1.857000 1.897000 600 50 1.000000 0.053000 0.053000 1.200000 0.035000 0.042000
1517839462992330374	200 46 0.900000 0.061000 0.055000 1200 41 1.000000 2.015000 2.061000 600 52 1.000000 0.053000 0.053000 1.200000 0.032000 0.038000
1517839463505281749	200 47 0.900000 0.050000 0.045000 1200 41 1.000000 1.977000 2.022000 600 52 1.000000 0.053000 0.053000 1.200000 0.048000 0.057000
1517839464064422874	200 46 0.900000 0.048000 0.043000 1200 41 1.000000 1.696000 1.731000 600 51 1.000000 0.053000 0.053000 1.200000 0.036000 0.043000
1517839464632328916	200 46 0.900000 0.060000 0.054000 1200 41 1.000000 1.926000 1.970000 600 50 1.000000 0.053000 0.053000 1.200000 0.034000 0.041000
1517839465142772958	200 45 0.900000 0.061000 0.055000 1200 41 1.000000 1.987000 2.032000 600 50 1.000000 0.053000 0.053000 1.200000 0.035000 0.042000
1517839465674606833	200 47 0.900000 0.061000 0.055000 1200 41 1.000000 2.017000 2.067000 600 52 1.000000 0.053000 0.053000 1.200000 0.046000 0.055000
1517839466228347874	200 46 0.900000 0.047000 0.043000 1200 41 1.000000 1.450000 1.480000 600 51 1.000000 0.053000 0.053000 1.200000 0.046000 0.055000
1517839466796324999	200 46 0.900000 0.048000 0.043000 1200 41 1.000000 1.549000 1.581000 600 50 1.000000 0.053000 0.053000 1.200000 0.033000 0.039000
1517839467352329124	200 46 0.900000 0.061000 0.055000 1200 41 1.000000 1.940000 1.984000 600 51 1.000000 0.053000 0.053000 1.200000 0.037000 0.044000
1517839467862815958	200 46 0.900000 0.050000 0.045000 1200 41 1.000000 2.015000 2.061000 600 51 1.000000 0.053000 0.053000 1.200000 0.042000 0.050000
1517839468396419625	200 46 0.900000 0.044000 0.040000 1200 41 1.000000 1.555000 1.589000 600 51 1.000000 0.053000 0.053000 1.200000 0.046000 0.055000
1517839468954964916	200 46 0.900000 0.061000 0.055000 1200 41 1.000000 1.490000 1.521000 600 51 1.000000 0.053000 0.053000 1.200000 0.036000 0.043000
1517839469470805500	200 45 0.900000 0.061000 0.055000 1200 41 1.000000 1.873000 1.916000 600 50 1.000000 0.053000 0.053000 1.200000 0.037000 0.044000
1517839470032307791	200 47 0.900000 0.056000 0.051000 1200 41 1.000000 1.989000 2.034000 600 52 1.000000 0.053000 0.053000 1.200000 0.048000 0.057000
1517839470542112750	200 47 0.900000 0.047000 0.043000 1200 41 1.000000 1.422000 1.451000 600 52 1.000000 0.053000 0.053000 1.200000 0.044000 0.053000
1517839471096203708	200 47 0.900000 0.061000 0.055000 1200 41 1.000000 1.861000 1.901000 600 50 1.000000 0.053000 0.053000 1.200000 0.036000 0.043000
1517839471611683417	200 46 0.900000 0.061000 0.055000 1200 41 1.000000 2.041000 2.087000 600 50 1.000000 0.053000 0.053000 1.200000 0.034000 0.041000
1517839472176358375	200 47 0.900000 0.062000 0.056000 1200 42 1.000000 2.001000 2.047000 600 52 1.000000 0.053000 0.053000 1.200000 0.047000 0.056000
1517839472721706833	200 47 0.900000 0.044000 0.040000 1200 41 1.000000 1.319000 1.346000 600 52 1.000000 0.053000 0.053000 1.200000 0.040000 0.048000
1517839473284365959	200 47 0.900000 0.061000 0.055000 1200 41 1.000000 1.626000 1.660000 600 51 1.000000 0.053000 0.053000 1.200000 0.046000 0.055000
1517839473802164542	200 45 0.900000 0.060000 0.054000 1200 41 1.000000 1.738000 1.774000 600 50 1.000000 0.053000 0.053000 1.200000 0.035000 0.042000
1517839474360208917	200 47 0.900000 0.061000 0.055000 1200 42 1.000000 2.059000 2.106000 600 52 1.000000 0.053000 0.053000 1.200000 0.034000 0.041000
1517839474870430917	200 47 0.900000 0.047000 0.043000 1200 42 1.000000 2.127000 2.175000 600 51 1.000000 0.053000 0.053000 1.200000 0.044000 0.053000
1517839475381566959	200 47 0.900000 0.040000 0.036000 1200 42 1.000000 1.923000 1.967000 600 52 1.000000 0.053000 0.053000 1.200000 0.039000 0.047000
1517839475891945000	200 46 0.900000 0.061000 0.055000 1200 42 1.000000 2.086000 2.133000 600 50 1.000000 0.053000 0.053000 1.200000 0.035000 0.042000
1517839476425263792	200 47 0.900000 0.061000 0.055000 1200 42 1.000000 1.874000 1.913000 600 52 1.000000 0.053000 0.053000 1.200000 0.035000 0.042000
1517839476980328042	200 47 0.900000 0.046000 0.042000 1200 42 1.000000 1.583000 1.616000 600 52 1.000000 0.053000 0.053000 1.200000 0.049000 0.059000
1517839477499228334	200 47 0.900000 0.046000 0.042000 1200 42 1.000000 2.135000 2.184000 600 52 1.000000 0.053000 0.053000 1.200000 0.038000 0.045000
1517839478009432792	200 45 0.900000 0.061000 0.055000 1200 42 1.000000 2.106000 2.154000 600 50 1.000000 0.053000 0.053000 1.200000 0.032000 0.038000
1517839478545800959	200 47 0.900000 0.060000 0.054000 1200 42 1.000000 1.673000 1.709000 600 52 1.000000 0.053000 0.053000 1.200000 0.032000 0.038000
1517839479112335626	200 46 0.900000 0.059000 0.053000 1200 42 1.000000 1.623000 1.655000 600 52 1.000000 0.053000 0.053000 1.200000 0.048000 0.057000
1517839479627348501	200 47 0.900000 0.061000 0.055000 1200 42 1.000000 2.132000 2.178000 600 52 1.000000 0.053000 0.053000 1.200000 0.037000 0.044000
1517839480137511084	200 45 0.900000 0.061000 0.055000 1200 42 1.000000 2.119000 2.167000 600 50 1.000000 0.053000 0.053000 1.200000 0.034000 0.041000
1517839480674633209	200 47 0.900000 0.053000 0.048000 1200 42 1.000000 1.666000 1.702000 600 52 1.000000 0.053000 0.053000 1.200000 0.033000 0.039000
1517839481224296959	200 47 0.900000 0.047000 0.043000 1200 42 1.000000 1.539000 1.571000 600 52 1.000000 0.053000 0.053000 1.200000 0.051000 0.061000
1517839481750827251	200 47 0.900000 0.061000 0.055000 1200 42 1.000000 2.133000 2.179000 600 52 1.000000 0.053000 0.053000 1.200000 0.039000 0.047000
1517839482261183793	200 47 0.900000 0.061000 0.055000 1200 42 1.000000 2.104000 2.152000 600 50 1.000000 0.053000 0.053000 1.200000 0.033000 0.039000
1517839482822065418	200 47 0.900000 0.061000 0.055000 1200 42 1.000000 1.423000 1.454000 600 52 1.000000 0.053000 0.053000 1.200000 0.033000 0.039000
1517839483332147585	200 47 0.900000 0.045000 0.041000 1200 42 1.000000 1.542000 1.574000 600 52 1.000000 0.053000 0.053000 1.200000 0.048000 0.057000
1517839483900333668	200 47 0.900000 0.058000 0.052000 1200 42 1.000000 1.970000 2.015000 600 51 1.000000 0.053000 0.053000 1.200000 0.036000 0.043000
1517839484410697585	200 47 0.900000 0.060000 0.054000 1200 42 1.000000 1.960000 2.005000 600 51 1.000000 0.053000 0.053000 1.200000 0.032000 0.038000
1517839484952456043	200 47 0.900000 0.061000 0.055000 1200 42 1.000000 1.453000 1.482000 600 51 1.000000 0.053000 0.053000 1.200000 0.038000 0.045000
1517839485504309377	200 47 0.900000 0.047000 0.043000 1200 42 1.000000 1.942000 1.984000 600 52 1.000000 0.053000 0.053000 1.200000 0.045000 0.054000
1517839486064201752	200 47 0.900000 0.061000 0.055000 1200 42 1.000000 2.060000 2.107000 600 51 1.000000 0.053000 0.053000 1.200000 0.032000 0.038000
1517839486574464793	200 45 0.900000 0.054000 0.049000 1200 42 1.000000 1.948000 1.992000 600 50 1.000000 0.053000 0.053000 1.200000 0.037000 0.044000
1517839487116679918	200 47 0.900000 0.047000 0.043000 1200 42 1.000000 1.483000 1.515000 600 52 1.000000 0.053000 0.053000 1.200000 0.040000 0.048000
1517839487674259752	200 47 0.900000 0.055000 0.050000 1200 42 1.000000 1.736000 1.772000 600 52 1.000000 0.053000 0.053000 1.200000 0.045000 0.054000
1517839488228228669	200 46 0.900000 0.061000 0.055000 1200 42 1.000000 1.945000 1.987000 600 51 1.000000 0.053000 0.053000 1.200000 0.036000 0.043000
1517839488787332919	200 46 0.900000 0.061000 0.055000 1200 41 1.000000 2.003000 2.049000 600 51 1.000000 0.053000 0.053000 1.200000 0.035000 0.042000
1517839489297754585	200 44 0.900000 0.061000 0.055000 1200 41 1.000000 1.895000 1.936000 600 49 1.000000 0.053000 0.053000 1.200000 0.036000 0.043000
1517839489836061460	200 47 0.900000 0.048000 0.043000 1200 42 1.000000 1.387000 1.416000 600 52 1.000000 0.053000 0.053000 1.200000 0.047000 0.056000
1517839490404389252	200 47 0.900000 0.049000 0.044000 1200 41 1.000000 1.934000 1.978000 600 51 1.000000 0.053000 0.053000 1.200000 0.044000 0.053000
1517839490968322169	200 46 0.900000 0.047000 0.043000 1200 41 1.000000 1.506000 1.537000 600 51 1.000000 0.053000 0.053000 1.200000 0.051000 0.061000
1517839491484938002	200 47 0.900000 0.050000 0.045000 1200 41 1.000000 2.039000 2.085000 600 50 1.000000 0.053000 0.053000 1.200000 0.039000 0.047000
1517839492031492086	200 47 0.900000 0.059000 0.053000 1200 42 1.000000 2.067000 2.114000 600 52 1.000000 0.053000 0.053000 1.200000 0.034000 0.041000
1517839492588301294	200 46 0.900000 0.047000 0.043000 1200 42 1.000000 1.804000 1.841000 600 51 1.000000 0.053000 0.053000 1.200000 0.033000 0.039000
1517839493130620253	200 47 0.900000 0.058000 0.052000 1200 41 1.000000 1.570000 1.602000 600 52 1.000000 0.053000 0.053000 1.200000 0.037000 0.044000
1517839493684326044	200 46 0.900000 0.061000 0.055000 1200 41 1.000000 1.934000 1.978000 600 51 1.000000 0.053000 0.053000 1.200000 0.037000 0.044000
1517839494194299253	200 47 0.900000 0.061000 0.055000 1200 42 1.000000 2.001000 2.047000 600 52 1.000000 0.053000 0.053000 1.200000 0.044000 0.053000
1517839494744316378	200 47 0.900000 0.046000 0.042000 1200 42 1.000000 1.405000 1.435000 600 52 1.000000 0.053000 0.053000 1.200000 0.047000 0.056000
1517839495275462253	200 47 0.900000 0.049000 0.044000 1200 42 1.000000 1.645000 1.679000 600 52 1.000000 0.053000 0.053000 1.200000 0.034000 0.041000
1517839495828215003	200 47 0.900000 0.061000 0.055000 1200 42 1.000000 2.044000 2.091000 600 51 1.000000 0.053000 0.053000 1.200000 0.036000 0.043000
1517839496338334420	200 47 0.900000 0.061000 0.055000 1200 42 1.000000 2.095000 2.143000 600 51 1.000000 0.053000 0.053000 1.200000 0.049000 0.059000
1517839496900212836	200 47 0.900000 0.053000 0.048000 1200 42 1.000000 1.492000 1.523000 600 52 1.000000 0.053000 0.053000 1.200000 0.044000 0.053000
1517839497410518336	200 47 0.900000 0.046000 0.042000 1200 42 1.000000 1.655000 1.689000 600 52 1.000000 0.053000 0.053000 1.200000 0.035000 0.042000
1517839497976823920	200 46 0.900000 0.061000 0.055000 1200 41 1.000000 1.992000 2.035000 600 51 1.000000 0.053000 0.053000 1.200000 0.034000 0.041000
1517839498486978295	200 45 0.900000 0.048000 0.043000 1200 42 1.000000 2.055000 2.102000 600 51 1.000000 0.053000 0.053000 1.200000 0.045000 0.054000
1517839499048262503	200 47 0.900000 0.047000 0.043000 1200 42 1.000000 1.685000 1.718000 600 52 1.000000 0.053000 0.053000 1.200000 0.041000 0.049000
1517839499608215087	200 47 0.900000 0.060000 0.054000 1200 42 1.000000 1.681000 1.716000 600 51 1.000000 0.053000 0.053000 1.200000 0.033000 0.039000
1517839500150286420	200 47 0.900000 0.061000 0.055000 1200 42 1.000000 2.025000 2.069000 600 52 1.000000 0.053000 0.053000 1.200000 0.034000 0.041000
1517839500669281378	200 47 0.900000 0.053000 0.048000 1200 42 1.000000 1.921000 1.965000 600 52 1.000000 0.053000 0.053000 1.200000 0.047000 0.056000
1517839501232194212	200 47 0.900000 0.046000 0.042000 1200 42 1.000000 1.546000 1.580000 600 52 1.000000 0.053000 0.053000 1.200000 0.039000 0.047000
1517839501746953129	200 47 0.900000 0.047000 0.043000 1200 42 1.000000 1.793000 1.828000 600 52 1.000000 0.053000 0.053000 1.200000 0.042000 0.050000
1517839502300326670	200 47 0.900000 0.053000 0.048000 1200 42 1.000000 1.660000 1.694000 600 51 1.000000 0.053000 0.053000 1.200000 0.032000 0.038000
1517839502842419920	200 47 0.900000 0.043000 0.039000 1200 42 1.000000 1.774000 1.814000 600 52 1.000000 0.053000 0.053000 1.200000 0.032000 0.038000
1517839503412422087	200 46 0.900000 0.061000 0.055000 1200 42 1.000000 1.961000 2.006000 600 52 1.000000 0.053000 0.053000 1.200000 0.048000 0.057000
1517839503927918879	200 47 0.900000 0.046000 0.042000 1200 42 1.000000 1.616000 1.649000 600 52 1.000000 0.053000 0.053000 1.200000 0.042000 0.050000
1517839504484256171	200 47 0.900000 0.049000 0.044000 1200 42 1.000000 1.972000 2.015000 600 51 1.000000 0.053000 0.053000 1.200000 0.036000 0.043000
1517839504994475087	200 47 0.900000 0.058000 0.052000 1200 42 1.000000 2.115000 2.163000 600 51 1.000000 0.053000 0.053000 1.200000 0.038000 0.045000
1517839505552301671	200 47 0.900000 0.047000 0.043000 1200 42 1.000000 2.116000 2.164000 600 52 1.000000 0.053000 0.053000 1.200000 0.049000 0.059000
1517839506068204671	200 47 0.900000 0.058000 0.052000 1200 42 1.000000 1.627000 1.661000 600 52 1.000000 0.053000 0.053000 1.200000 0.036000 0.043000
1517839506600306212	200 47 0.900000 0.061000 0.055000 1200 42 1.000000 2.043000 2.089000 600 52 1.000000 0.053000 0.053000 1.200000 0.035000 0.042000
1517839507130747463	200 47 0.900000 0.061000 0.055000 1200 42 1.000000 2.045000 2.092000 600 53 1.000000 0.053000 0.053000 1.200000 0.036000 0.043000
1517839507640188421	200 47 0.900000 0.046000 0.042000 1200 42 1.000000 1.916000 1.960000 600 52 1.000000 0.053000 0.053000 1.200000 0.052000 0.062000
1517839508204283171	200 47 0.900000 0.051000 0.046000 1200 42 1.000000 1.436000 1.466000 600 51 1.000000 0.053000 0.053000 1.200000 0.035000 0.042000
1517839508722706879	200 47 0.900000 0.061000 0.055000 1200 42 1.000000 2.097000 2.145000 600 50 1.000000 0.053000 0.053000 1.200000 0.033000 0.039000
1517839509268376629	200 47 0.900000 0.061000 0.055000 1200 42 1.000000 1.997000 2.042000 600 52 1.000000 0.053000 0.053000 1.200000 0.039000 0.047000
1517839509777953588	200 47 0.900000 0.047000 0.043000 1200 42 1.000000 1.878000 1.919000 600 52 1.000000 0.053000 0.053000 1.200000 0.048000 0.057000
1517839510332218338	200 47 0.900000 0.046000 0.042000 1200 42 1.000000 1.474000 1.504000 600 51 1.000000 0.053000 0.053000 1.200000 0.033000 0.039000
1517839510851520921	200 46 0.900000 0.060000 0.054000 1200 41 1.000000 1.975000 2.020000 600 51 1.000000 0.053000 0.053000 1.200000 0.034000 0.041000
1517839511378804671	200 47 0.900000 0.047000 0.043000 1200 42 1.000000 1.890000 1.933000 600 52 1.000000 0.053000 0.053000 1.200000 0.040000 0.048000
1517839511936261713	200 47 0.900000 0.048000 0.043000 1200 42 1.000000 1.874000 1.920000 600 52 1.000000 0.053000 0.053000 1.200000 0.049000 0.059000
1517839512503191380	200 47 0.900000 0.060000 0.054000 1200 42 1.000000 1.505000 1.539000 600 51 1.000000 0.053000 0.053000 1.200000 0.039000 0.047000
1517839513052304255	200 47 0.900000 0.061000 0.055000 1200 41 1.000000 1.892000 1.933000 600 51 1.000000 0.053000 0.053000 1.200000 0.034000 0.041000
1517839513616207130	200 46 0.900000 0.061000 0.055000 1200 41 1.000000 1.885000 1.928000 600 52 1.000000 0.053000 0.053000 1.200000 0.034000 0.041000
1517839514126651213	200 46 0.900000 0.060000 0.054000 1200 41 1.000000 1.905000 1.948000 600 49 1.000000 0.053000 0.053000 1.200000 0.033000 0.039000
1517839514680209380	200 46 0.900000 0.049000 0.044000 1200 42 1.000000 1.647000 1.681000 600 51 1.000000 0.053000 0.053000 1.200000 0.044000 0.053000
1517839515248324130	200 46 0.900000 0.061000 0.055000 1200 42 1.000000 1.544000 1.576000 600 51 1.000000 0.053000 0.053000 1.200000 0.042000 0.050000
1517839515800302797	200 47 0.900000 0.050000 0.045000 1200 41 1.000000 1.656000 1.690000 600 52 1.000000 0.053000 0.053000 1.200000 0.045000 0.054000
1517839516364322922	200 46 0.900000 0.048000 0.043000 1200 41 1.000000 1.957000 2.000000 600 51 1.000000 0.053000 0.053000 1.200000 0.037000 0.044000
1517839516900428922	200 46 0.900000 0.061000 0.055000 1200 41 1.000000 1.929000 1.973000 600 51 1.000000 0.053000 0.053000 1.200000 0.034000 0.041000
1517839517417566422	200 47 0.900000 0.048000 0.043000 1200 42 1.000000 1.967000 2.010000 600 52 1.000000 0.053000 0.053000 1.200000 0.035000 0.042000
1517839517972309631	200 47 0.900000 0.048000 0.043000 1200 42 1.000000 1.607000 1.639000 600 51 1.000000 0.053000 0.053000 1.200000 0.047000 0.056000
1517839518497854714	200 47 0.900000 0.060000 0.054000 1200 42 1.000000 2.105000 2.153000 600 52 1.000000 0.053000 0.053000 1.200000 0.042000 0.050000
1517839519052289006	200 47 0.900000 0.061000 0.055000 1200 42 1.000000 1.890000 1.931000 600 51 1.000000 0.053000 0.053000 1.200000 0.035000 0.042000
1517839519561863881	200 47 0.900000 0.062000 0.056000 1200 42 1.000000 1.995000 2.038000 600 52 1.000000 0.053000 0.053000 1.200000 0.033000 0.039000
1517839520120339339	200 47 0.900000 0.047000 0.043000 1200 42 1.000000 1.519000 1.549000 600 51 1.000000 0.053000 0.053000 1.200000 0.048000 0.057000
1517839520646869589	200 47 0.900000 0.057000 0.052000 1200 42 1.000000 2.117000 2.165000 600 52 1.000000 0.053000 0.053000 1.200000 0.041000 0.049000
1517839521204313423	200 47 0.900000 0.061000 0.055000 1200 42 1.000000 2.057000 2.104000 600 51 1.000000 0.053000 0.053000 1.200000 0.034000 0.041000
1517839521718841048	200 47 0.900000 0.060000 0.054000 1200 42 1.000000 1.741000 1.779000 600 52 1.000000 0.053000 0.053000 1.200000 0.035000 0.042000
1517839522272198298	200 46 0.900000 0.048000 0.043000 1200 42 1.000000 1.562000 1.594000 600 52 1.000000 0.053000 0.053000 1.200000 0.048000 0.057000
1517839522821724714	200 47 0.900000 0.050000 0.045000 1200 42 1.000000 1.989000 2.034000 600 52 1.000000 0.053000 0.053000 1.200000 0.038000 0.045000
1517839523376533964	200 46 0.900000 0.061000 0.055000 1200 42 1.000000 2.059000 2.104000 600 51 1.000000 0.053000 0.053000 1.200000 0.035000 0.042000
1517839523903198881	200 47 0.900000 0.060000 0.054000 1200 42 1.000000 1.897000 1.940000 600 52 1.000000 0.053000 0.053000 1.200000 0.034000 0.041000
1517839524428429006	200 47 0.900000 0.061000 0.055000 1200 42 1.000000 1.728000 1.766000 600 52 1.000000 0.053000 0.053000 1.200000 0.034000 0.041000
1517839524988310590	200 47 0.900000 0.060000 0.054000 1200 42 1.000000 2.100000 2.148000 600 52 1.000000 0.053000 0.053000 1.200000 0.034000 0.041000
1517839525506355173	200 47 0.900000 0.061000 0.055000 1200 42 1.000000 2.035000 2.081000 600 51 1.000000 0.053000 0.053000 1.200000 0.033000 0.039000
1517839526056282173	200 47 0.900000 0.061000 0.055000 1200 42 1.000000 2.008000 2.054000 600 52 1.000000 0.053000 0.053000 1.200000 0.031000 0.037000
1517839526577901090	200 47 0.900000 0.047000 0.043000 1200 42 1.000000 1.662000 1.696000 600 52 1.000000 0.053000 0.053000 1.200000 0.037000 0.044000
1517839527087431090	200 46 0.900000 0.047000 0.043000 1200 42 1.000000 1.691000 1.726000 600 51 1.000000 0.053000 0.053000 1.200000 0.047000 0.056000
1517839527597197757	200 45 0.900000 0.059000 0.053000 1200 42 1.000000 2.046000 2.093000 600 50 1.000000 0.053000 0.053000 1.200000 0.033000 0.039000
1517839528145185340	200 47 0.900000 0.061000 0.055000 1200 42 1.000000 1.988000 2.033000 600 52 1.000000 0.053000 0.053000 1.200000 0.035000 0.042000
1517839528680317048	200 47 0.900000 0.053000 0.048000 1200 42 1.000000 1.687000 1.722000 600 52 1.000000 0.053000 0.053000 1.200000 0.045000 0.054000
1517839529236338965	200 47 0.900000 0.048000 0.043000 1200 42 1.000000 1.944000 1.986000 600 52 1.000000 0.053000 0.053000 1.200000 0.046000 0.055000
1517839529746521632	200 45 0.900000 0.061000 0.055000 1200 42 1.000000 2.098000 2.146000 600 51 1.000000 0.053000 0.053000 1.200000 0.032000 0.038000
1517839530308300840	200 47 0.900000 0.048000 0.043000 1200 42 1.000000 2.116000 2.162000 600 52 1.000000 0.053000 0.053000 1.200000 0.034000 0.041000
1517839530818152840	200 47 0.900000 0.051000 0.046000 1200 42 1.000000 1.619000 1.652000 600 53 1.000000 0.053000 0.053000 1.200000 0.049000 0.059000
1517839531376312882	200 47 0.900000 0.061000 0.055000 1200 42 1.000000 2.140000 2.187000 600 51 1.000000 0.053000 0.053000 1.200000 0.041000 0.049000
1517839531901113715	200 47 0.900000 0.060000 0.054000 1200 42 1.000000 2.029000 2.075000 600 52 1.000000 0.053000 0.053000 1.200000 0.034000 0.041000
1517839532411368132	200 47 0.900000 0.047000 0.043000 1200 42 1.000000 1.627000 1.661000 600 52 1.000000 0.053000 0.053000 1.200000 0.035000 0.042000
1517839532936030174	200 47 0.900000 0.027000 0.024000 1200 42 1.000000 1.702000 1.739000 600 52 1.000000 0.053000 0.053000 1.200000 0.034000 0.041000
1517839533446328966	200 47 0.900000 0.061000 0.055000 1200 42 1.000000 2.069000 2.116000 600 50 1.000000 0.053000 0.053000 1.200000 0.037000 0.044000
1517839533997282049	200 47 0.900000 0.061000 0.055000 1200 42 1.000000 2.022000 2.068000 600 52 1.000000 0.053000 0.053000 1.200000 0.052000 0.062000
1517839534548392341	200 47 0.900000 0.047000 0.043000 1200 42 1.000000 1.734000 1.770000 600 52 1.000000 0.053000 0.053000 1.200000 0.039000 0.047000
1517839535078379091	200 47 0.900000 0.048000 0.043000 1200 42 1.000000 1.804000 1.843000 600 52 1.000000 0.053000 0.053000 1.200000 0.033000 0.039000
1517839535588607591	200 45 0.900000 0.050000 0.045000 1200 42 1.000000 1.819000 1.860000 600 51 1.000000 0.053000 0.053000 1.200000 0.038000 0.045000
1517839536148320174	200 47 0.900000 0.061000 0.055000 1200 42 1.000000 1.986000 2.031000 600 52 1.000000 0.053000 0.053000 1.200000 0.049000 0.059000
1517839536696301883	200 47 0.900000 0.058000 0.052000 1200 42 1.000000 1.491000 1.523000 600 51 1.000000 0.053000 0.053000 1.200000 0.041000 0.049000
1517839537206222966	200 47 0.900000 0.061000 0.055000 1200 42 1.000000 1.924000 1.968000 600 52 1.000000 0.053000 0.053000 1.200000 0.037000 0.044000
1517839537716474050	200 44 0.900000 0.061000 0.055000 1200 42 1.000000 2.038000 2.084000 600 50 1.000000 0.053000 0.053000 1.200000 0.038000 0.045000
1517839538231337633	200 47 0.900000 0.050000 0.045000 1200 42 1.000000 1.976000 2.021000 600 52 1.000000 0.053000 0.053000 1.200000 0.048000 0.057000
1517839538780471758	200 47 0.900000 0.047000 0.043000 1200 42 1.000000 1.510000 1.541000 600 52 1.000000 0.053000 0.053000 1.200000 0.044000 0.053000
1517839539335044466	200 47 0.900000 0.055000 0.050000 1200 42 1.000000 1.649000 1.683000 600 52 1.000000 0.053000 0.053000 1.200000 0.036000 0.043000
1517839539888198716	200 47 0.900000 0.061000 0.055000 1200 42 1.000000 1.967000 2.010000 600 51 1.000000 0.053000 0.053000 1.200000 0.036000 0.043000
1517839540398491633	200 45 0.900000 0.061000 0.055000 1200 42 1.000000 1.880000 1.923000 600 50 1.000000 0.053000 0.053000 1.200000 0.044000 0.053000
1517839540923738092	200 47 0.900000 0.059000 0.053000 1200 42 1.000000 1.847000 1.889000 600 52 1.000000 0.053000 0.053000 1.200000 0.049000 0.059000
1517839541484291342	200 47 0.900000 0.047000 0.043000 1200 42 1.000000 1.588000 1.621000 600 52 1.000000 0.053000 0.053000 1.200000 0.040000 0.048000
1517839542052326717	200 46 0.900000 0.050000 0.045000 1200 42 1.000000 1.669000 1.705000 600 51 1.000000 0.053000 0.053000 1.200000 0.036000 0.043000
1517839542580379092	200 46 0.900000 0.059000 0.053000 1200 42 1.000000 2.037000 2.083000 600 51 1.000000 0.053000 0.053000 1.200000 0.037000 0.044000
1517839543136302300	200 47 0.900000 0.048000 0.043000 1200 42 1.000000 1.934000 1.976000 600 52 1.000000 0.053000 0.053000 1.200000 0.049000 0.059000
1517839543646317884	200 47 0.900000 0.058000 0.052000 1200 42 1.000000 1.694000 1.727000 600 52 1.000000 0.053000 0.053000 1.200000 0.036000 0.043000
1517839544208324425	200 47 0.900000 0.061000 0.055000 1200 42 1.000000 1.973000 2.016000 600 52 1.000000 0.053000 0.053000 1.200000 0.035000 0.042000
1517839544720203050	200 46 0.900000 0.061000 0.055000 1200 42 1.000000 2.095000 2.143000 600 52 1.000000 0.053000 0.053000 1.200000 0.038000 0.045000
1517839545280312509	200 47 0.900000 0.046000 0.042000 1200 42 1.000000 2.176000 2.226000 600 52 1.000000 0.053000 0.053000 1.200000 0.051000 0.061000
1517839545802001634	200 47 0.900000 0.055000 0.050000 1200 42 1.000000 2.021000 2.067000 600 53 1.000000 0.053000 0.053000 1.200000 0.048000 0.057000
1517839546352235176	200 47 0.900000 0.048000 0.043000 1200 42 1.000000 1.559000 1.591000 600 52 1.000000 0.053000 0.053000 1.200000 0.040000 0.048000
1517839546867139801	200 45 0.900000 0.061000 0.055000 1200 42 1.000000 1.751000 1.787000 600 50 1.000000 0.053000 0.053000 1.200000 0.038000 0.045000
1517839547389076759	200 47 0.900000 0.044000 0.040000 1200 42 1.000000 2.053000 2.100000 600 53 1.000000 0.053000 0.053000 1.200000 0.034000 0.041000
1517839547948406717	200 47 0.900000 0.058000 0.053000 1200 42 1.000000 2.048000 2.095000 600 52 1.000000 0.053000 0.053000 1.200000 0.048000 0.057000
1517839548484709509	200 47 0.900000 0.048000 0.043000 1200 42 1.000000 1.643000 1.675000 600 53 1.000000 0.053000 0.053000 1.200000 0.037000 0.044000
1517839548994844134	200 45 0.900000 0.061000 0.055000 1200 42 1.000000 2.115000 2.161000 600 51 1.000000 0.053000 0.053000 1.200000 0.034000 0.041000
1517839549543835259	200 47 0.900000 0.047000 0.043000 1200 42 1.000000 1.966000 2.005000 600 52 1.000000 0.053000 0.053000 1.200000 0.038000 0.045000
1517839550054165468	200 47 0.900000 0.046000 0.042000 1200 42 1.000000 1.757000 1.793000 600 53 1.000000 0.053000 0.053000 1.200000 0.045000 0.054000
1517839550616339593	200 47 0.900000 0.061000 0.055000 1200 42 1.000000 2.127000 2.175000 600 52 1.000000 0.053000 0.053000 1.200000 0.036000 0.043000
1517839551125932384	200 48 0.900000 0.060000 0.054000 1200 42 1.000000 1.898000 1.941000 600 53 1.000000 0.053000 0.053000 1.200000 0.034000 0.041000
1517839551684306635	200 47 0.900000 0.053000 0.048000 1200 42 1.000000 1.727000 1.763000 600 52 1.000000 0.053000 0.053000 1.200000 0.045000 0.054000
1517839552217174551	200 47 0.900000 0.045000 0.041000 1200 42 1.000000 1.889000 1.930000 600 52 1.000000 0.053000 0.053000 1.200000 0.043000 0.051000
1517839552772303551	200 47 0.900000 0.060000 0.054000 1200 42 1.000000 2.111000 2.159000 600 51 1.000000 0.053000 0.053000 1.200000 0.037000 0.044000
1517839553283166093	200 48 0.900000 0.061000 0.055000 1200 42 1.000000 2.147000 2.194000 600 53 1.000000 0.053000 0.053000 1.200000 0.036000 0.043000
1517839553848428260	200 47 0.900000 0.058000 0.053000 1200 42 1.000000 1.664000 1.698000 600 52 1.000000 0.053000 0.053000 1.200000 0.045000 0.054000
1517839554383252052	200 47 0.900000 0.047000 0.043000 1200 42 1.000000 2.125000 2.173000 600 52 1.000000 0.053000 0.053000 1.200000 0.045000 0.054000
1517839554894261760	200 47 0.900000 0.061000 0.055000 1200 42 1.000000 1.965000 2.010000 600 51 1.000000 0.053000 0.053000 1.200000 0.036000 0.043000
1517839555452304093	200 47 0.900000 0.046000 0.042000 1200 42 1.000000 1.955000 1.998000 600 53 1.000000 0.053000 0.053000 1.200000 0.039000 0.047000
1517839556016206718	200 47 0.900000 0.047000 0.043000 1200 42 1.000000 1.585000 1.618000 600 52 1.000000 0.053000 0.053000 1.200000 0.048000 0.058000
1517839556547031927	200 47 0.900000 0.060000 0.054000 1200 42 1.000000 2.051000 2.098000 600 52 1.000000 0.053000 0.053000 1.200000 0.041000 0.049000
1517839557092325052	200 47 0.900000 0.061000 0.055000 1200 42 1.000000 2.115000 2.163000 600 52 1.000000 0.053000 0.053000 1.200000 0.040000 0.048000
1517839557602035677	200 48 0.900000 0.053000 0.048000 1200 42 1.000000 1.528000 1.561000 600 53 1.000000 0.053000 0.053000 1.200000 0.042000 0.050000
1517839558130171135	200 47 0.900000 0.044000 0.040000 1200 42 1.000000 1.559000 1.591000 600 52 1.000000 0.053000 0.053000 1.200000 0.047000 0.056000
1517839558676296719	200 46 0.900000 0.061000 0.055000 1200 42 1.000000 2.100000 2.148000 600 51 1.000000 0.053000 0.053000 1.200000 0.035000 0.042000
1517839559190080510	200 46 0.900000 0.061000 0.055000 1200 42 1.000000 1.969000 2.014000 600 50 1.000000 0.053000 0.053000 1.200000 0.037000 0.044000
1517839559744398969	200 47 0.900000 0.057000 0.052000 1200 42 1.000000 1.436000 1.466000 600 52 1.000000 0.053000 0.053000 1.200000 0.046000 0.055000
1517839560253961927	200 47 0.900000 0.047000 0.043000 1200 42 1.000000 1.805000 1.844000 600 52 1.000000 0.053000 0.053000 1.200000 0.047000 0.056000
1517839560804205802	200 47 0.900000 0.054000 0.049000 1200 42 1.000000 2.020000 2.066000 600 51 1.000000 0.053000 0.053000 1.200000 0.033000 0.039000
1517839561344361552	200 46 0.900000 0.060000 0.054000 1200 42 1.000000 1.962000 2.007000 600 51 1.000000 0.053000 0.053000 1.200000 0.036000 0.043000
1517839561854685844	200 47 0.900000 0.048000 0.043000 1200 42 1.000000 1.446000 1.476000 600 50 1.000000 0.053000 0.053000 1.200000 0.040000 0.048000
1517839562390042011	200 47 0.900000 0.051000 0.046000 1200 42 1.000000 1.528000 1.560000 600 52 1.000000 0.053000 0.053000 1.200000 0.049000 0.059000
1517839562933593928	200 47 0.900000 0.061000 0.055000 1200 42 1.000000 1.977000 2.022000 600 52 1.000000 0.053000 0.053000 1.200000 0.041000 0.049000
1517839563475041511	200 47 0.900000 0.061000 0.055000 1200 42 1.000000 2.004000 2.048000 600 52 1.000000 0.053000 0.053000 1.200000 0.036000 0.043000
1517839564021277761	200 47 0.900000 0.061000 0.055000 1200 42 1.000000 2.038000 2.084000 600 51 1.000000 0.053000 0.053000 1.200000 0.036000 0.043000
1517839564531608386	200 46 0.900000 0.060000 0.054000 1200 42 1.000000 1.983000 2.028000 600 49 1.000000 0.053000 0.053000 1.200000 0.033000 0.039000
1517839565085275261	200 47 0.900000 0.047000 0.043000 1200 42 1.000000 1.379000 1.407000 600 51 1.000000 0.053000 0.053000 1.200000 0.050000 0.060000
1517839565636295428	200 47 0.900000 0.061000 0.055000 1200 42 1.000000 1.784000 1.823000 600 52 1.000000 0.053000 0.053000 1.200000 0.035000 0.042000
1517839566188212803	200 47 0.900000 0.048000 0.043000 1200 42 1.000000 1.497000 1.529000 600 52 1.000000 0.053000 0.053000 1.200000 0.044000 0.053000
1517839566728883303	200 47 0.900000 0.048000 0.043000 1200 42 1.000000 1.609000 1.642000 600 52 1.000000 0.053000 0.053000 1.200000 0.049000 0.059000
1517839567284220928	200 46 0.900000 0.048000 0.043000 1200 42 1.000000 1.827000 1.867000 600 51 1.000000 0.053000 0.053000 1.200000 0.037000 0.044000
1517839567811021553	200 46 0.900000 0.058000 0.053000 1200 42 1.000000 1.867000 1.909000 600 49 1.000000 0.053000 0.053000 1.200000 0.035000 0.042000
1517839568360211220	200 47 0.900000 0.048000 0.043000 1200 42 1.000000 1.956000 2.000000 600 51 1.000000 0.053000 0.053000 1.200000 0.034000 0.041000
1517839568875652637	200 47 0.900000 0.046000 0.042000 1200 42 1.000000 1.579000 1.612000 600 52 1.000000 0.053000 0.053000 1.200000 0.047000 0.056000
1517839569444320595	200 46 0.900000 0.061000 0.055000 1200 41 1.000000 1.764000 1.802000 600 51 1.000000 0.053000 0.053000 1.200000 0.042000 0.050000
1517839569954426428	200 46 0.900000 0.060000 0.054000 1200 42 1.000000 1.990000 2.035000 600 51 1.000000 0.053000 0.053000 1.200000 0.032000 0.038000
1517839570496305762	200 47 0.900000 0.058000 0.053000 1200 42 1.000000 1.919000 1.961000 600 52 1.000000 0.053000 0.053000 1.200000 0.034000 0.041000
1517839571017257470	200 47 0.900000 0.048000 0.043000 1200 42 1.000000 1.458000 1.488000 600 52 1.000000 0.053000 0.053000 1.200000 0.045000 0.054000
1517839571576407012	200 46 0.900000 0.061000 0.055000 1200 41 1.000000 1.922000 1.964000 600 51 1.000000 0.053000 0.053000 1.200000 0.041000 0.049000
1517839572091281387	200 46 0.900000 0.061000 0.055000 1200 42 1.000000 2.076000 2.123000 600 50 1.000000 0.053000 0.053000 1.200000 0.036000 0.043000
1517839572612298720	200 47 0.900000 0.060000 0.054000 1200 42 1.000000 1.854000 1.896000 600 51 1.000000 0.053000 0.053000 1.200000 0.036000 0.043000
1517839573180353179	200 47 0.900000 0.047000 0.043000 1200 42 1.000000 1.415000 1.444000 600 52 1.000000 0.053000 0.053000 1.200000 0.035000 0.042000
1517839573690356095	200 46 0.900000 0.054000 0.049000 1200 42 1.000000 2.048000 2.095000 600 51 1.000000 0.053000 0.053000 1.200000 0.034000 0.041000
1517839574200875846	200 44 0.900000 0.052000 0.047000 1200 41 1.000000 2.025000 2.071000 600 50 1.000000 0.053000 0.053000 1.200000 0.047000 0.056000
1517839574764311262	200 47 0.900000 0.043000 0.039000 1200 42 1.000000 1.469000 1.501000 600 51 1.000000 0.053000 0.053000 1.200000 0.040000 0.048000
1517839575332318012	200 47 0.900000 0.061000 0.055000 1200 41 1.000000 1.599000 1.632000 600 51 1.000000 0.053000 0.053000 1.200000 0.035000 0.042000
1517839575850397387	200 47 0.900000 0.060000 0.054000 1200 42 1.000000 2.011000 2.057000 600 52 1.000000 0.053000 0.053000 1.200000 0.037000 0.044000
1517839576360504262	200 45 0.900000 0.057000 0.052000 1200 42 1.000000 2.075000 2.122000 600 50 1.000000 0.053000 0.053000 1.200000 0.048000 0.057000
1517839576924313763	200 46 0.900000 0.046000 0.042000 1200 42 1.000000 1.485000 1.516000 600 52 1.000000 0.053000 0.053000 1.200000 0.040000 0.048000
1517839577480434554	200 47 0.900000 0.059000 0.053000 1200 42 1.000000 1.760000 1.798000 600 51 1.000000 0.053000 0.053000 1.200000 0.035000 0.042000
1517839578008594846	200 47 0.900000 0.046000 0.042000 1200 42 1.000000 1.628000 1.660000 600 52 1.000000 0.053000 0.053000 1.200000 0.037000 0.044000
1517839578518668596	200 45 0.900000 0.060000 0.054000 1200 42 1.000000 2.070000 2.117000 600 50 1.000000 0.053000 0.053000 1.200000 0.035000 0.042000
1517839579073839388	200 47 0.900000 0.061000 0.055000 1200 42 1.000000 2.015000 2.061000 600 52 1.000000 0.053000 0.053000 1.200000 0.042000 0.050000
1517839579583865180	200 46 0.900000 0.054000 0.049000 1200 42 1.000000 1.432000 1.463000 600 51 1.000000 0.053000 0.053000 1.200000 0.040000 0.048000
1517839580132365763	200 47 0.900000 0.048000 0.043000 1200 42 1.000000 1.622000 1.654000 600 51 1.000000 0.053000 0.053000 1.200000 0.035000 0.042000
1517839580642616555	200 46 0.900000 0.061000 0.055000 1200 42 1.000000 1.988000 2.033000 600 51 1.000000 0.053000 0.053000 1.200000 0.033000 0.039000
1517839581192386846	200 47 0.900000 0.049000 0.044000 1200 42 1.000000 2.102000 2.150000 600 52 1.000000 0.053000 0.053000 1.200000 0.047000 0.056000
1517839581720675513	200 47 0.900000 0.046000 0.042000 1200 42 1.000000 1.576000 1.609000 600 52 1.000000 0.053000 0.053000 1.200000 0.043000 0.051000
1517839582276302472	200 46 0.900000 0.061000 0.055000 1200 41 1.000000 1.583000 1.616000 600 51 1.000000 0.053000 0.053000 1.200000 0.034000 0.041000
1517839582786098430	200 47 0.900000 0.061000 0.055000 1200 42 1.000000 1.995000 2.038000 600 52 1.000000 0.053000 0.053000 1.200000 0.036000 0.043000
1517839583352297805	200 47 0.900000 0.053000 0.048000 1200 42 1.000000 2.088000 2.136000 600 52 1.000000 0.053000 0.053000 1.200000 0.046000 0.055000
1517839583862675222	200 46 0.900000 0.047000 0.043000 1200 42 1.000000 1.650000 1.684000 600 51 1.000000 0.053000 0.053000 1.200000 0.038000 0.045000
1517839584432247763	200 46 0.900000 0.061000 0.055000 1200 42 1.000000 1.583000 1.616000 600 51 1.000000 0.053000 0.053000 1.200000 0.035000 0.042000
1517839584942471722	200 46 0.900000 0.061000 0.055000 1200 42 1.000000 1.973000 2.018000 600 50 1.000000 0.053000 0.053000 1.200000 0.035000 0.042000
1517839585484314764	200 47 0.900000 0.061000 0.055000 1200 42 1.000000 1.914000 1.958000 600 52 1.000000 0.053000 0.053000 1.200000 0.047000 0.056000
1517839586044311847	200 46 0.900000 0.047000 0.043000 1200 42 1.000000 1.543000 1.575000 600 51 1.000000 0.053000 0.053000 1.200000 0.044000 0.053000
1517839586554309889	200 46 0.900000 0.046000 0.042000 1200 42 1.000000 1.547000 1.579000 600 52 1.000000 0.053000 0.053000 1.200000 0.035000 0.042000
1517839587064972222	200 44 0.900000 0.061000 0.055000 1200 41 1.000000 1.931000 1.973000 600 49 1.000000 0.053000 0.053000 1.200000 0.035000 0.042000
1517839587593503389	200 47 0.900000 0.047000 0.043000 1200 42 1.000000 1.325000 1.352000 600 52 1.000000 0.053000 0.053000 1.200000 0.049000 0.059000
1517839588152386097	200 47 0.900000 0.048000 0.043000 1200 41 1.000000 1.778000 1.817000 600 51 1.000000 0.053000 0.053000 1.200000 0.043000 0.052000
1517839588704467681	200 46 0.900000 0.061000 0.055000 1200 41 1.000000 2.025000 2.071000 600 51 1.000000 0.053000 0.053000 1.200000 0.035000 0.042000
1517839589254760097	200 46 0.900000 0.060000 0.054000 1200 41 1.000000 1.987000 2.032000 600 51 1.000000 0.053000 0.053000 1.200000 0.036000 0.043000
1517839589767730431	200 45 0.900000 0.061000 0.055000 1200 41 1.000000 1.620000 1.655000 600 50 1.000000 0.053000 0.053000 1.200000 0.043000 0.051000
1517839590312162972	200 47 0.900000 0.054000 0.049000 1200 41 1.000000 1.707000 1.741000 600 51 1.000000 0.053000 0.053000 1.200000 0.044000 0.053000
1517839590864556181	200 47 0.900000 0.047000 0.043000 1200 42 1.000000 1.654000 1.688000 600 52 1.000000 0.053000 0.053000 1.200000 0.050000 0.060000
1517839591424234556	200 47 0.900000 0.045000 0.041000 1200 41 1.000000 1.968000 2.011000 600 51 1.000000 0.053000 0.053000 1.200000 0.040000 0.048000
1517839591970333139	200 47 0.900000 0.061000 0.055000 1200 41 1.000000 1.951000 1.995000 600 51 1.000000 0.053000 0.053000 1.200000 0.036000 0.043000
1517839592513958473	200 47 0.900000 0.061000 0.055000 1200 42 1.000000 1.935000 1.979000 600 51 1.000000 0.053000 0.053000 1.200000 0.037000 0.044000
1517839593025052889	200 44 0.900000 0.061000 0.055000 1200 41 1.000000 1.912000 1.954000 600 49 1.000000 0.053000 0.053000 1.200000 0.034000 0.041000
1517839593588424056	200 46 0.900000 0.049000 0.044000 1200 41 1.000000 1.460000 1.490000 600 51 1.000000 0.053000 0.053000 1.200000 0.043000 0.051000
1517839594148307973	200 46 0.900000 0.049000 0.044000 1200 41 1.000000 1.731000 1.765000 600 51 1.000000 0.053000 0.053000 1.200000 0.046000 0.055000
1517839594657831890	200 47 0.900000 0.047000 0.043000 1200 42 1.000000 1.701000 1.736000 600 52 1.000000 0.053000 0.053000 1.200000 0.050000 0.060000
1517839595216200473	200 47 0.900000 0.060000 0.054000 1200 42 1.000000 1.974000 2.019000 600 51 1.000000 0.053000 0.053000 1.200000 0.034000 0.041000
1517839595726291098	200 47 0.900000 0.061000 0.055000 1200 42 1.000000 1.968000 2.013000 600 51 1.000000 0.053000 0.053000 1.200000 0.035000 0.042000
1517839596288287890	200 46 0.900000 0.055000 0.050000 1200 42 1.000000 1.613000 1.645000 600 51 1.000000 0.053000 0.053000 1.200000 0.042000 0.050000
1517839596798166057	200 46 0.900000 0.046000 0.042000 1200 42 1.000000 1.638000 1.672000 600 51 1.000000 0.053000 0.053000 1.200000 0.049000 0.059000
1517839597356404057	200 46 0.900000 0.061000 0.055000 1200 41 1.000000 1.915000 1.957000 600 51 1.000000 0.053000 0.053000 1.200000 0.035000 0.042000
1517839597866488848	200 45 0.900000 0.061000 0.055000 1200 42 1.000000 1.981000 2.026000 600 50 1.000000 0.053000 0.053000 1.200000 0.036000 0.043000
1517839598416342890	200 47 0.900000 0.061000 0.055000 1200 41 1.000000 1.540000 1.572000 600 52 1.000000 0.053000 0.053000 1.200000 0.041000 0.049000
1517839598930555765	200 46 0.900000 0.046000 0.042000 1200 42 1.000000 1.535000 1.567000 600 51 1.000000 0.053000 0.053000 1.200000 0.046000 0.055000
1517839599488227140	200 46 0.900000 0.061000 0.055000 1200 41 1.000000 1.865000 1.906000 600 51 1.000000 0.053000 0.053000 1.200000 0.033000 0.039000
1517839599998759807	200 46 0.900000 0.059000 0.053000 1200 42 1.000000 2.000000 2.046000 600 51 1.000000 0.053000 0.053000 1.200000 0.035000 0.042000
1517839600548394974	200 46 0.900000 0.047000 0.043000 1200 41 1.000000 1.508000 1.539000 600 52 1.000000 0.053000 0.053000 1.200000 0.045000 0.054000
1517839601058086349	200 47 0.900000 0.057000 0.052000 1200 41 1.000000 1.714000 1.751000 600 52 1.000000 0.053000 0.053000 1.200000 0.045000 0.054000
1517839601624340807	200 47 0.900000 0.061000 0.055000 1200 41 1.000000 2.053000 2.098000 600 51 1.000000 0.053000 0.053000 1.200000 0.035000 0.042000
1517839602134399849	200 45 0.900000 0.061000 0.055000 1200 41 1.000000 1.993000 2.038000 600 50 1.000000 0.053000 0.053000 1.200000 0.036000 0.043000
1517839602692313141	200 46 0.900000 0.046000 0.042000 1200 42 1.000000 1.472000 1.502000 600 51 1.000000 0.053000 0.053000 1.200000 0.046000 0.055000
1517839603207138807	200 47 0.900000 0.048000 0.043000 1200 42 1.000000 1.826000 1.866000 600 52 1.000000 0.053000 0.053000 1.200000 0.045000 0.054000
1517839603764307432	200 46 0.900000 0.061000 0.055000 1200 41 1.000000 2.048000 2.093000 600 51 1.000000 0.053000 0.053000 1.200000 0.035000 0.042000
1517839604274361682	200 46 0.900000 0.061000 0.055000 1200 42 1.000000 1.994000 2.039000 600 52 1.000000 0.053000 0.053000 1.200000 0.036000 0.043000
1517839604809267308	200 46 0.900000 0.050000 0.045000 1200 42 1.000000 1.728000 1.764000 600 51 1.000000 0.053000 0.053000 1.200000 0.049000 0.059000
1517839605320157641	200 42 0.900000 0.041000 0.037000 1200 41 1.000000 1.808000 1.849000 600 47 1.000000 0.053000 0.053000 1.200000 0.036000 0.043000
1517839605828841474	200 40 0.900000 0.013000 0.011000 1200 39 1.000000 0.171000 0.175000 600 44 1.000000 0.053000 0.053000 1.200000 0.022000 0.026000
