#Timestamp	CPU(0) Frequency(MHz)	CPU(0) Temperature(C)	A7 Voltage(V)	A7 Current(A)	A7 Power(W)	CPU(4) Frequency(MHz)	CPU(4) Temperature(C)	A15 Voltage(V)	A15 Current(A)	A15 Power(W)	GPU Frequency(MHz)	GPU Temperature(C)	GPU Voltage(V)	GPU Current(A)	GPU Power(W)	RAM Voltage(V)	RAM Current(A)	RAM Power(W)
1517284019035054410	600 29 0.900000 0.028000 0.027000 700 28 0.900000 0.244000 0.222000 600 33 1.000000 0.051000 0.051000 1.200000 0.039000 0.047000
1517284019545198910	600 29 0.900000 0.023000 0.021000 700 28 0.900000 0.381000 0.346000 600 33 1.000000 0.052000 0.052000 1.200000 0.027000 0.032000
1517284020055292160	600 29 0.900000 0.024000 0.022000 700 28 0.900000 0.388000 0.353000 600 33 1.000000 0.051000 0.051000 1.200000 0.027000 0.032000
1517284020565108410	600 30 0.900000 0.024000 0.022000 700 28 0.900000 0.383000 0.348000 600 33 1.000000 0.051000 0.051000 1.200000 0.027000 0.032000
1517284021075078327	600 30 0.900000 0.023000 0.021000 700 29 0.900000 0.380000 0.345000 600 33 1.000000 0.051000 0.051000 1.200000 0.027000 0.032000
1517284021584881619	600 30 0.900000 0.023000 0.021000 700 28 0.900000 0.384000 0.349000 600 33 1.000000 0.051000 0.051000 1.200000 0.027000 0.032000
1517284022094785327	600 30 0.900000 0.024000 0.022000 700 29 0.900000 0.385000 0.350000 600 33 1.000000 0.051000 0.051000 1.200000 0.027000 0.032000
1517284022604441910	600 30 0.900000 0.023000 0.021000 700 28 0.900000 0.378000 0.343000 600 33 1.000000 0.051000 0.051000 1.200000 0.027000 0.032000
1517284023114469410	600 30 0.900000 0.024000 0.022000 700 28 0.900000 0.376000 0.342000 600 33 1.000000 0.051000 0.051000 1.200000 0.027000 0.032000
1517284023624574702	600 30 0.900000 0.024000 0.022000 700 28 0.900000 0.389000 0.353000 600 33 1.000000 0.051000 0.051000 1.200000 0.028000 0.033000
1517284024134466619	600 30 0.900000 0.024000 0.022000 700 28 0.900000 0.383000 0.348000 600 33 1.000000 0.051000 0.051000 1.200000 0.029000 0.035000
1517284024644414744	600 30 0.900000 0.024000 0.022000 700 29 0.900000 0.378000 0.343000 600 33 1.000000 0.051000 0.051000 1.200000 0.027000 0.032000
1517284025154333869	600 30 0.900000 0.024000 0.022000 700 29 0.900000 0.384000 0.349000 600 33 1.000000 0.051000 0.051000 1.200000 0.028000 0.033000
1517284025664180369	600 30 0.900000 0.024000 0.022000 700 29 0.900000 0.389000 0.353000 600 33 1.000000 0.051000 0.051000 1.200000 0.027000 0.032000
1517284026174155827	600 30 0.900000 0.024000 0.022000 700 29 0.900000 0.382000 0.347000 600 33 1.000000 0.051000 0.051000 1.200000 0.027000 0.032000
1517284026683935911	600 30 0.900000 0.024000 0.022000 700 29 0.900000 0.380000 0.345000 600 33 1.000000 0.051000 0.051000 1.200000 0.028000 0.033000
1517284027194017453	600 30 0.900000 0.024000 0.022000 700 29 0.900000 0.386000 0.351000 600 33 1.000000 0.051000 0.051000 1.200000 0.027000 0.032000
1517284027704026536	600 30 0.900000 0.024000 0.022000 700 29 0.900000 0.385000 0.350000 600 33 1.000000 0.051000 0.051000 1.200000 0.027000 0.032000
1517284028214045661	600 30 0.900000 0.023000 0.021000 700 28 0.900000 0.380000 0.345000 600 33 1.000000 0.051000 0.051000 1.200000 0.028000 0.033000
1517284028723804494	600 30 0.900000 0.023000 0.021000 700 28 0.900000 0.385000 0.350000 600 33 1.000000 0.051000 0.051000 1.200000 0.027000 0.032000
1517284029233848661	600 30 0.900000 0.024000 0.022000 700 29 0.900000 0.389000 0.353000 600 33 1.000000 0.051000 0.051000 1.200000 0.028000 0.033000
1517284029743684328	600 30 0.900000 0.024000 0.022000 700 28 0.900000 0.375000 0.341000 600 33 1.000000 0.051000 0.051000 1.200000 0.027000 0.032000
1517284030253441370	600 30 0.900000 0.024000 0.022000 700 28 0.900000 0.376000 0.342000 600 33 1.000000 0.051000 0.051000 1.200000 0.027000 0.032000
1517284030763460245	600 30 0.900000 0.024000 0.022000 700 28 0.900000 0.378000 0.343000 600 33 1.000000 0.051000 0.051000 1.200000 0.027000 0.032000
1517284031273466661	600 30 0.900000 0.024000 0.022000 700 28 0.900000 0.388000 0.353000 600 33 1.000000 0.051000 0.051000 1.200000 0.028000 0.033000
1517284031783503161	600 30 0.900000 0.024000 0.022000 700 29 0.900000 0.380000 0.345000 600 33 1.000000 0.051000 0.051000 1.200000 0.027000 0.032000
1517284032293426870	600 30 0.900000 0.024000 0.022000 700 28 0.900000 0.382000 0.347000 600 33 1.000000 0.051000 0.051000 1.200000 0.028000 0.033000
1517284032803439828	600 30 0.900000 0.024000 0.022000 700 28 0.900000 0.390000 0.354000 600 33 1.000000 0.051000 0.051000 1.200000 0.027000 0.032000
1517284033313464787	600 30 0.900000 0.024000 0.022000 700 29 0.900000 0.384000 0.349000 600 33 1.000000 0.051000 0.051000 1.200000 0.027000 0.032000
1517284033823404412	600 30 0.900000 0.023000 0.021000 700 28 0.900000 0.381000 0.346000 600 33 1.000000 0.051000 0.051000 1.200000 0.028000 0.033000
1517284034333240703	600 30 0.900000 0.024000 0.022000 700 28 0.900000 0.387000 0.352000 600 33 1.000000 0.051000 0.051000 1.200000 0.027000 0.032000
1517284034843146287	600 30 0.900000 0.024000 0.022000 700 29 0.900000 0.388000 0.353000 600 33 1.000000 0.051000 0.051000 1.200000 0.028000 0.033000
1517284035353124745	600 30 0.900000 0.023000 0.021000 700 29 0.900000 0.381000 0.346000 600 33 1.000000 0.051000 0.051000 1.200000 0.029000 0.035000
1517284035863124912	600 30 0.900000 0.024000 0.022000 700 28 0.900000 0.378000 0.343000 600 33 1.000000 0.051000 0.051000 1.200000 0.028000 0.033000
1517284036373173870	600 30 0.900000 0.024000 0.022000 700 29 0.900000 0.377000 0.343000 600 33 1.000000 0.051000 0.051000 1.200000 0.027000 0.032000
1517284036883140120	600 30 0.900000 0.023000 0.021000 700 29 0.900000 0.376000 0.342000 600 33 1.000000 0.051000 0.051000 1.200000 0.028000 0.033000
1517284037393114954	600 30 0.900000 0.024000 0.022000 700 28 0.900000 0.376000 0.342000 600 33 1.000000 0.051000 0.051000 1.200000 0.028000 0.033000
1517284037903037912	600 30 0.900000 0.024000 0.022000 700 28 0.900000 0.376000 0.342000 600 33 1.000000 0.051000 0.051000 1.200000 0.027000 0.032000
1517284038412868829	600 30 0.900000 0.024000 0.022000 700 28 0.900000 0.378000 0.343000 600 33 1.000000 0.051000 0.051000 1.200000 0.027000 0.032000
1517284038922965496	600 30 0.900000 0.024000 0.022000 700 28 0.900000 0.383000 0.348000 600 33 1.000000 0.052000 0.052000 1.200000 0.028000 0.033000
1517284039432811579	600 30 0.900000 0.023000 0.021000 700 28 0.900000 0.380000 0.345000 600 33 1.000000 0.051000 0.051000 1.200000 0.028000 0.033000
1517284039942904454	600 30 0.900000 0.024000 0.022000 700 29 0.900000 0.388000 0.353000 600 33 1.000000 0.051000 0.051000 1.200000 0.028000 0.033000
1517284040452739704	600 30 0.900000 0.024000 0.022000 700 28 0.900000 0.386000 0.351000 600 33 1.000000 0.051000 0.051000 1.200000 0.027000 0.032000
1517284040962803329	600 30 0.900000 0.024000 0.022000 700 28 0.900000 0.380000 0.345000 600 33 1.000000 0.051000 0.051000 1.200000 0.028000 0.033000
1517284041472707163	600 30 0.900000 0.024000 0.022000 700 28 0.900000 0.384000 0.349000 600 33 1.000000 0.051000 0.051000 1.200000 0.028000 0.033000
1517284041982697246	600 30 0.900000 0.024000 0.022000 700 28 0.900000 0.389000 0.353000 600 33 1.000000 0.051000 0.051000 1.200000 0.028000 0.033000
1517284042492521121	600 30 0.900000 0.023000 0.021000 700 28 0.900000 0.376000 0.342000 600 33 1.000000 0.051000 0.051000 1.200000 0.028000 0.033000
1517284043002510454	600 30 0.900000 0.023000 0.021000 700 28 0.900000 0.377000 0.343000 600 33 1.000000 0.051000 0.051000 1.200000 0.027000 0.032000
1517284043512506204	600 30 0.900000 0.024000 0.022000 700 28 0.900000 0.377000 0.343000 600 33 1.000000 0.051000 0.051000 1.200000 0.028000 0.033000
1517284044022391413	600 30 0.900000 0.024000 0.022000 700 28 0.900000 0.375000 0.341000 600 33 1.000000 0.051000 0.051000 1.200000 0.027000 0.032000
1517284044532285163	600 29 0.900000 0.024000 0.022000 700 28 0.900000 0.375000 0.341000 600 33 1.000000 0.051000 0.051000 1.200000 0.028000 0.033000
1517284045042159246	600 30 0.900000 0.024000 0.022000 700 28 0.900000 0.375000 0.341000 600 33 1.000000 0.051000 0.051000 1.200000 0.027000 0.032000
1517284045552036080	600 29 0.900000 0.024000 0.022000 700 28 0.900000 0.376000 0.342000 600 33 1.000000 0.051000 0.051000 1.200000 0.027000 0.032000
1517284046062121080	600 30 0.900000 0.023000 0.021000 700 28 0.900000 0.377000 0.343000 600 33 1.000000 0.051000 0.051000 1.200000 0.027000 0.032000
1517284046572113455	600 30 0.900000 0.024000 0.022000 700 28 0.900000 0.380000 0.345000 600 33 1.000000 0.051000 0.051000 1.200000 0.029000 0.035000
1517284047082177663	600 30 0.900000 0.024000 0.022000 700 28 0.900000 0.386000 0.351000 600 33 1.000000 0.051000 0.051000 1.200000 0.029000 0.035000
1517284047592160455	600 30 0.900000 0.024000 0.022000 700 28 0.900000 0.388000 0.353000 600 33 1.000000 0.051000 0.051000 1.200000 0.028000 0.033000
1517284048102162413	600 30 0.900000 0.024000 0.022000 700 28 0.900000 0.382000 0.347000 600 33 1.000000 0.051000 0.051000 1.200000 0.027000 0.032000
1517284048612008622	600 29 0.900000 0.024000 0.022000 700 28 0.900000 0.379000 0.344000 600 33 1.000000 0.051000 0.051000 1.200000 0.028000 0.033000
1517284049121973955	600 29 0.900000 0.024000 0.022000 700 28 0.900000 0.376000 0.342000 600 33 1.000000 0.051000 0.051000 1.200000 0.028000 0.033000
1517284049631882372	600 30 0.900000 0.024000 0.022000 700 28 0.900000 0.375000 0.341000 600 33 1.000000 0.051000 0.051000 1.200000 0.027000 0.032000
1517284050141945872	600 30 0.900000 0.023000 0.021000 700 28 0.900000 0.375000 0.341000 600 33 1.000000 0.051000 0.051000 1.200000 0.028000 0.033000
1517284050651909664	600 30 0.900000 0.024000 0.022000 700 28 0.900000 0.376000 0.342000 600 33 1.000000 0.051000 0.051000 1.200000 0.028000 0.033000
1517284051161925372	600 30 0.900000 0.024000 0.022000 700 28 0.900000 0.377000 0.343000 600 33 1.000000 0.051000 0.051000 1.200000 0.027000 0.032000
1517284051671904997	600 29 0.900000 0.024000 0.022000 700 28 0.900000 0.376000 0.342000 600 33 1.000000 0.051000 0.051000 1.200000 0.027000 0.032000
1517284052181885247	600 29 0.900000 0.024000 0.022000 700 28 0.900000 0.376000 0.342000 600 33 1.000000 0.051000 0.051000 1.200000 0.027000 0.032000
1517284052691772414	600 29 0.900000 0.024000 0.022000 700 28 0.900000 0.377000 0.343000 600 33 1.000000 0.051000 0.051000 1.200000 0.027000 0.032000
1517284053201811747	600 29 0.900000 0.023000 0.021000 700 28 0.900000 0.376000 0.342000 600 33 1.000000 0.051000 0.051000 1.200000 0.027000 0.032000
1517284053711663581	600 30 0.900000 0.023000 0.021000 700 28 0.900000 0.377000 0.343000 600 33 1.000000 0.051000 0.051000 1.200000 0.028000 0.033000
1517284054221489331	600 30 0.900000 0.024000 0.022000 700 28 0.900000 0.382000 0.347000 600 33 1.000000 0.051000 0.051000 1.200000 0.029000 0.035000
1517284054731371664	600 30 0.900000 0.024000 0.022000 700 28 0.900000 0.388000 0.353000 600 33 1.000000 0.051000 0.051000 1.200000 0.027000 0.032000
1517284055241199914	600 30 0.900000 0.024000 0.022000 700 28 0.900000 0.376000 0.342000 600 33 1.000000 0.051000 0.051000 1.200000 0.027000 0.032000
1517284055751208831	600 30 0.900000 0.024000 0.022000 700 28 0.900000 0.377000 0.343000 600 33 1.000000 0.051000 0.051000 1.200000 0.027000 0.032000
1517284056261155123	600 30 0.900000 0.024000 0.022000 700 28 0.900000 0.377000 0.343000 600 33 1.000000 0.051000 0.051000 1.200000 0.029000 0.035000
1517284056771221248	600 30 0.900000 0.024000 0.022000 700 28 0.900000 0.390000 0.354000 600 33 1.000000 0.051000 0.051000 1.200000 0.028000 0.033000
1517284057281144039	600 30 0.900000 0.024000 0.022000 700 28 0.900000 0.381000 0.346000 600 33 1.000000 0.051000 0.051000 1.200000 0.027000 0.032000
1517284057791080956	600 30 0.900000 0.024000 0.022000 700 28 0.900000 0.382000 0.347000 600 33 1.000000 0.051000 0.051000 1.200000 0.027000 0.032000
1517284058300899123	600 30 0.900000 0.024000 0.022000 700 28 0.900000 0.391000 0.355000 600 33 1.000000 0.051000 0.051000 1.200000 0.027000 0.032000
1517284058810950165	600 30 0.900000 0.024000 0.022000 700 28 0.900000 0.387000 0.352000 600 33 1.000000 0.051000 0.051000 1.200000 0.026000 0.031000
1517284059320835331	600 30 0.900000 0.024000 0.022000 700 28 0.900000 0.379000 0.344000 600 33 1.000000 0.051000 0.051000 1.200000 0.027000 0.032000
1517284059830757290	600 30 0.900000 0.024000 0.022000 700 28 0.900000 0.384000 0.349000 600 33 1.000000 0.051000 0.051000 1.200000 0.028000 0.033000
1517284060340583165	600 30 0.900000 0.024000 0.022000 700 28 0.900000 0.390000 0.354000 600 33 1.000000 0.051000 0.051000 1.200000 0.028000 0.033000
1517284060850654082	600 30 0.900000 0.023000 0.021000 700 28 0.900000 0.385000 0.350000 600 33 1.000000 0.051000 0.051000 1.200000 0.027000 0.032000
1517284061360780915	600 30 0.900000 0.024000 0.022000 700 28 0.900000 0.377000 0.343000 600 33 1.000000 0.051000 0.051000 1.200000 0.028000 0.033000
1517284061871021332	600 29 0.900000 0.024000 0.022000 700 28 0.900000 0.388000 0.353000 600 33 1.000000 0.051000 0.051000 1.200000 0.028000 0.033000
1517284062381029415	600 29 0.900000 0.024000 0.022000 700 28 0.900000 0.386000 0.351000 600 33 1.000000 0.051000 0.051000 1.200000 0.028000 0.033000
1517284062891079623	600 30 0.900000 0.024000 0.022000 700 28 0.900000 0.381000 0.346000 600 33 1.000000 0.051000 0.051000 1.200000 0.027000 0.032000
1517284063401076707	600 29 0.900000 0.024000 0.022000 700 28 0.900000 0.384000 0.349000 600 33 1.000000 0.051000 0.051000 1.200000 0.027000 0.032000
1517284063911061207	600 29 0.900000 0.024000 0.022000 700 28 0.900000 0.390000 0.354000 600 33 1.000000 0.051000 0.051000 1.200000 0.028000 0.033000
1517284064420888499	600 30 0.900000 0.024000 0.022000 700 28 0.900000 0.384000 0.349000 600 33 1.000000 0.051000 0.051000 1.200000 0.028000 0.033000
1517284064930865207	600 30 0.900000 0.024000 0.022000 700 28 0.900000 0.378000 0.343000 600 33 1.000000 0.051000 0.051000 1.200000 0.027000 0.032000
1517284065440974832	600 30 0.900000 0.024000 0.022000 700 28 0.900000 0.386000 0.351000 600 33 1.000000 0.051000 0.051000 1.200000 0.027000 0.032000
1517284065951050999	600 30 0.900000 0.024000 0.022000 700 28 0.900000 0.391000 0.355000 600 33 1.000000 0.051000 0.051000 1.200000 0.027000 0.032000
1517284066460978874	600 30 0.900000 0.024000 0.022000 700 28 0.900000 0.383000 0.348000 600 33 1.000000 0.051000 0.051000 1.200000 0.027000 0.032000
1517284066971027499	600 30 0.900000 0.024000 0.022000 700 28 0.900000 0.381000 0.346000 600 33 1.000000 0.051000 0.051000 1.200000 0.026000 0.031000
1517284067481109374	600 30 0.900000 0.023000 0.021000 700 28 0.900000 0.388000 0.353000 600 33 1.000000 0.051000 0.051000 1.200000 0.028000 0.033000
1517284067991191374	600 29 0.900000 0.023000 0.021000 700 28 0.900000 0.378000 0.343000 600 33 1.000000 0.051000 0.051000 1.200000 0.027000 0.032000
1517284068500986291	600 30 0.900000 0.024000 0.022000 700 28 0.900000 0.377000 0.343000 600 33 1.000000 0.051000 0.051000 1.200000 0.027000 0.032000
1517284069011010749	600 30 0.900000 0.024000 0.022000 700 28 0.900000 0.384000 0.349000 600 33 1.000000 0.051000 0.051000 1.200000 0.027000 0.032000
1517284069521025291	600 29 0.900000 0.024000 0.022000 700 28 0.900000 0.388000 0.353000 600 33 1.000000 0.051000 0.051000 1.200000 0.028000 0.033000
1517284070030895208	600 30 0.900000 0.024000 0.022000 700 28 0.900000 0.383000 0.348000 600 33 1.000000 0.051000 0.051000 1.200000 0.029000 0.035000
1517284070541070499	600 29 0.900000 0.024000 0.022000 700 28 0.900000 0.386000 0.351000 600 33 1.000000 0.051000 0.051000 1.200000 0.027000 0.032000
1517284071051101666	600 30 0.900000 0.024000 0.022000 700 28 0.900000 0.389000 0.353000 600 33 1.000000 0.051000 0.051000 1.200000 0.028000 0.033000
1517284071560939208	600 30 0.900000 0.024000 0.022000 700 28 0.900000 0.389000 0.353000 600 33 1.000000 0.051000 0.051000 1.200000 0.028000 0.033000
1517284072070951000	600 30 0.900000 0.024000 0.022000 700 28 0.900000 0.380000 0.345000 600 33 1.000000 0.051000 0.051000 1.200000 0.026000 0.031000
1517284072580870916	600 30 0.900000 0.024000 0.022000 700 29 0.900000 0.381000 0.346000 600 33 1.000000 0.051000 0.051000 1.200000 0.027000 0.032000
1517284073090654583	600 30 0.900000 0.024000 0.022000 700 29 0.900000 0.392000 0.356000 600 34 1.000000 0.051000 0.051000 1.200000 0.027000 0.032000
1517284073600828750	600 30 0.900000 0.023000 0.021000 700 28 0.900000 0.405000 0.368000 600 33 1.000000 0.051000 0.051000 1.200000 0.025000 0.030000
1517284074110990833	600 30 0.900000 0.024000 0.022000 700 28 0.900000 0.377000 0.343000 600 33 1.000000 0.051000 0.051000 1.200000 0.026000 0.031000
1517284074620989458	600 30 0.900000 0.024000 0.022000 700 28 0.900000 0.375000 0.341000 600 33 1.000000 0.051000 0.051000 1.200000 0.027000 0.032000
1517284075130845708	600 30 0.900000 0.025000 0.023000 700 28 0.900000 0.374000 0.340000 600 33 1.000000 0.051000 0.051000 1.200000 0.028000 0.033000
1517284075640727083	600 30 0.900000 0.024000 0.022000 700 28 0.900000 0.375000 0.341000 600 33 1.000000 0.051000 0.051000 1.200000 0.028000 0.033000
1517284076150758958	600 30 0.900000 0.024000 0.022000 700 28 0.900000 0.375000 0.341000 600 33 1.000000 0.051000 0.051000 1.200000 0.028000 0.033000
1517284076660696083	600 30 0.900000 0.024000 0.022000 700 28 0.900000 0.387000 0.352000 600 33 1.000000 0.051000 0.051000 1.200000 0.026000 0.031000
1517284077170739042	600 30 0.900000 0.024000 0.022000 700 28 0.900000 0.384000 0.349000 600 33 1.000000 0.051000 0.051000 1.200000 0.028000 0.033000
1517284077680583667	600 30 0.900000 0.023000 0.021000 700 28 0.900000 0.378000 0.343000 600 33 1.000000 0.051000 0.051000 1.200000 0.030000 0.036000
1517284078190620709	600 30 0.900000 0.024000 0.022000 700 28 0.900000 0.382000 0.347000 600 33 1.000000 0.051000 0.051000 1.200000 0.028000 0.033000
1517284078700528292	600 30 0.900000 0.024000 0.022000 700 28 0.900000 0.390000 0.354000 600 33 1.000000 0.051000 0.051000 1.200000 0.028000 0.033000
1517284079210420917	600 30 0.900000 0.024000 0.022000 700 28 0.900000 0.383000 0.348000 600 33 1.000000 0.051000 0.051000 1.200000 0.028000 0.033000
1517284079720328542	600 30 0.900000 0.024000 0.022000 700 28 0.900000 0.376000 0.342000 600 33 1.000000 0.051000 0.051000 1.200000 0.027000 0.032000
1517284080230200625	600 30 0.900000 0.024000 0.022000 700 28 0.900000 0.385000 0.350000 600 33 1.000000 0.051000 0.051000 1.200000 0.026000 0.031000
1517284080740071251	600 30 0.900000 0.024000 0.022000 700 28 0.900000 0.377000 0.343000 600 33 1.000000 0.051000 0.051000 1.200000 0.028000 0.033000
1517284081249977001	600 30 0.900000 0.024000 0.022000 700 28 0.900000 0.376000 0.342000 600 33 1.000000 0.051000 0.051000 1.200000 0.027000 0.032000
1517284081759933042	600 30 0.900000 0.023000 0.021000 700 29 0.900000 0.374000 0.340000 600 33 1.000000 0.051000 0.051000 1.200000 0.028000 0.033000
1517284082269881667	600 30 0.900000 0.023000 0.021000 700 28 0.900000 0.374000 0.340000 600 33 1.000000 0.051000 0.051000 1.200000 0.026000 0.031000
1517284082779664626	600 30 0.900000 0.024000 0.022000 700 28 0.900000 0.374000 0.340000 600 33 1.000000 0.051000 0.051000 1.200000 0.028000 0.033000
1517284083289631918	600 30 0.900000 0.023000 0.021000 700 28 0.900000 0.375000 0.341000 600 33 1.000000 0.051000 0.051000 1.200000 0.029000 0.035000
1517284083799617001	600 30 0.900000 0.024000 0.022000 700 28 0.900000 0.387000 0.352000 600 33 1.000000 0.051000 0.051000 1.200000 0.029000 0.035000
1517284084309639376	600 30 0.900000 0.024000 0.022000 700 28 0.900000 0.388000 0.353000 600 33 1.000000 0.051000 0.051000 1.200000 0.027000 0.032000
1517284084819736751	600 30 0.900000 0.024000 0.022000 700 28 0.900000 0.381000 0.346000 600 33 1.000000 0.051000 0.051000 1.200000 0.028000 0.033000
1517284085329808209	600 30 0.900000 0.024000 0.022000 700 28 0.900000 0.380000 0.345000 600 33 1.000000 0.051000 0.051000 1.200000 0.029000 0.035000
1517284085839644918	600 30 0.900000 0.024000 0.022000 700 28 0.900000 0.388000 0.353000 600 33 1.000000 0.051000 0.051000 1.200000 0.028000 0.033000
1517284086349586918	600 30 0.900000 0.024000 0.022000 700 28 0.900000 0.386000 0.351000 600 33 1.000000 0.051000 0.051000 1.200000 0.027000 0.032000
1517284086859787376	600 30 0.900000 0.024000 0.022000 700 28 0.900000 0.379000 0.344000 600 33 1.000000 0.051000 0.051000 1.200000 0.028000 0.033000
1517284087369729751	600 30 0.900000 0.023000 0.021000 700 28 0.900000 0.374000 0.340000 600 33 1.000000 0.051000 0.051000 1.200000 0.028000 0.033000
1517284087879831043	600 30 0.900000 0.024000 0.022000 700 28 0.900000 0.374000 0.340000 600 33 1.000000 0.051000 0.051000 1.200000 0.027000 0.032000
1517284088389763001	600 30 0.900000 0.024000 0.022000 700 28 0.900000 0.375000 0.341000 600 33 1.000000 0.051000 0.051000 1.200000 0.028000 0.033000
1517284088899793085	600 30 0.900000 0.024000 0.022000 700 28 0.900000 0.375000 0.341000 600 33 1.000000 0.051000 0.051000 1.200000 0.029000 0.035000
1517284089409727293	600 30 0.900000 0.024000 0.022000 700 28 0.900000 0.373000 0.339000 600 33 1.000000 0.051000 0.051000 1.200000 0.028000 0.033000
1517284089919576627	600 30 0.900000 0.024000 0.022000 700 28 0.900000 0.374000 0.340000 600 33 1.000000 0.051000 0.051000 1.200000 0.028000 0.033000
1517284090428793085	600 29 0.900000 0.024000 0.022000 700 28 0.900000 0.375000 0.341000 600 33 1.000000 0.051000 0.051000 1.200000 0.027000 0.032000
1517284090938023543	600 30 0.900000 0.023000 0.021000 700 28 0.900000 0.376000 0.342000 600 33 1.000000 0.051000 0.051000 1.200000 0.027000 0.032000
1517284091447183752	600 30 0.900000 0.024000 0.022000 700 28 0.900000 0.375000 0.341000 600 33 1.000000 0.051000 0.051000 1.200000 0.027000 0.032000
1517284091956477919	600 30 0.900000 0.023000 0.021000 700 28 0.900000 0.379000 0.344000 600 33 1.000000 0.051000 0.051000 1.200000 0.027000 0.032000
1517284092465815127	600 30 0.900000 0.024000 0.022000 700 28 0.900000 0.380000 0.345000 600 33 1.000000 0.051000 0.051000 1.200000 0.029000 0.035000
1517284092974842210	600 30 0.900000 0.024000 0.022000 700 28 0.900000 0.388000 0.353000 600 33 1.000000 0.051000 0.051000 1.200000 0.028000 0.033000
1517284093483900544	600 30 0.900000 0.024000 0.022000 700 28 0.900000 0.376000 0.342000 600 33 1.000000 0.051000 0.051000 1.200000 0.027000 0.032000
1517284093993182419	600 30 0.900000 0.024000 0.022000 700 28 0.900000 0.375000 0.341000 600 33 1.000000 0.051000 0.051000 1.200000 0.028000 0.033000
1517284094502295211	600 30 0.900000 0.024000 0.022000 700 28 0.900000 0.374000 0.340000 600 33 1.000000 0.051000 0.051000 1.200000 0.027000 0.032000
1517284095011420794	600 30 0.900000 0.024000 0.022000 700 28 0.900000 0.374000 0.340000 600 33 1.000000 0.051000 0.051000 1.200000 0.027000 0.032000
1517284095520472336	600 30 0.900000 0.024000 0.022000 700 28 0.900000 0.375000 0.341000 600 33 1.000000 0.051000 0.051000 1.200000 0.029000 0.035000
1517284096029759044	600 29 0.900000 0.024000 0.022000 700 28 0.900000 0.376000 0.342000 600 33 1.000000 0.051000 0.051000 1.200000 0.028000 0.033000
1517284096538898044	600 30 0.900000 0.024000 0.022000 700 28 0.900000 0.382000 0.347000 600 33 1.000000 0.051000 0.051000 1.200000 0.027000 0.032000
1517284097048039419	600 30 0.900000 0.024000 0.022000 700 28 0.900000 0.379000 0.344000 600 33 1.000000 0.051000 0.051000 1.200000 0.027000 0.032000
1517284097557226961	600 30 0.900000 0.024000 0.022000 700 28 0.900000 0.387000 0.352000 600 33 1.000000 0.051000 0.051000 1.200000 0.026000 0.031000
1517284098066463628	600 30 0.900000 0.024000 0.022000 700 28 0.900000 0.385000 0.350000 600 33 1.000000 0.051000 0.051000 1.200000 0.028000 0.033000
1517284098575630419	600 30 0.900000 0.023000 0.021000 700 28 0.900000 0.379000 0.344000 600 33 1.000000 0.051000 0.051000 1.200000 0.027000 0.032000
1517284099084833961	600 29 0.900000 0.024000 0.022000 700 28 0.900000 0.375000 0.341000 600 33 1.000000 0.051000 0.051000 1.200000 0.028000 0.033000
1517284099594105169	600 30 0.900000 0.024000 0.022000 700 28 0.900000 0.382000 0.347000 600 33 1.000000 0.051000 0.051000 1.200000 0.027000 0.032000
1517284100103188836	600 30 0.900000 0.024000 0.022000 700 28 0.900000 0.376000 0.342000 600 33 1.000000 0.051000 0.051000 1.200000 0.028000 0.033000
1517284100612372461	600 30 0.900000 0.024000 0.022000 700 28 0.900000 0.386000 0.351000 600 33 1.000000 0.051000 0.051000 1.200000 0.028000 0.033000
1517284101121433420	600 30 0.900000 0.024000 0.022000 700 28 0.900000 0.387000 0.352000 600 33 1.000000 0.051000 0.051000 1.200000 0.028000 0.033000
1517284101630570628	600 30 0.900000 0.024000 0.022000 700 28 0.900000 0.377000 0.343000 600 33 1.000000 0.051000 0.051000 1.200000 0.026000 0.031000
1517284102139601211	600 30 0.900000 0.023000 0.021000 700 28 0.900000 0.384000 0.349000 600 33 1.000000 0.051000 0.051000 1.200000 0.028000 0.033000
1517284102648540170	600 29 0.900000 0.024000 0.022000 700 28 0.900000 0.383000 0.348000 600 33 1.000000 0.051000 0.051000 1.200000 0.027000 0.032000
1517284103157542420	600 30 0.900000 0.024000 0.022000 700 28 0.900000 0.377000 0.343000 600 33 1.000000 0.051000 0.051000 1.200000 0.027000 0.032000
1517284103666642128	600 30 0.900000 0.024000 0.022000 700 28 0.900000 0.387000 0.352000 600 33 1.000000 0.051000 0.051000 1.200000 0.027000 0.032000
1517284104175538212	600 29 0.900000 0.024000 0.022000 700 28 0.900000 0.384000 0.349000 600 33 1.000000 0.051000 0.051000 1.200000 0.027000 0.032000
1517284104684556962	600 30 0.900000 0.024000 0.022000 700 28 0.900000 0.376000 0.342000 600 33 1.000000 0.051000 0.051000 1.200000 0.027000 0.032000
1517284105193539462	600 30 0.900000 0.024000 0.022000 700 28 0.900000 0.386000 0.351000 600 33 1.000000 0.051000 0.051000 1.200000 0.027000 0.032000
1517284105702435629	600 29 0.900000 0.024000 0.022000 700 28 0.900000 0.376000 0.342000 600 33 1.000000 0.051000 0.051000 1.200000 0.027000 0.032000
1517284106211496337	600 29 0.900000 0.024000 0.022000 700 28 0.900000 0.379000 0.344000 600 33 1.000000 0.051000 0.051000 1.200000 0.027000 0.032000
1517284106720469129	600 30 0.900000 0.024000 0.022000 700 28 0.900000 0.386000 0.351000 600 33 1.000000 0.051000 0.051000 1.200000 0.028000 0.033000
1517284107229425545	600 29 0.900000 0.024000 0.022000 700 28 0.900000 0.382000 0.347000 600 33 1.000000 0.051000 0.051000 1.200000 0.028000 0.033000
1517284107738503004	600 30 0.900000 0.023000 0.021000 700 28 0.900000 0.378000 0.343000 600 33 1.000000 0.051000 0.051000 1.200000 0.027000 0.032000
1517284108247383421	600 29 0.900000 0.024000 0.022000 700 28 0.900000 0.386000 0.351000 600 33 1.000000 0.051000 0.051000 1.200000 0.028000 0.033000
1517284108756370629	600 29 0.900000 0.024000 0.022000 700 28 0.900000 0.385000 0.350000 600 33 1.000000 0.051000 0.051000 1.200000 0.027000 0.032000
1517284109265262046	600 30 0.900000 0.023000 0.021000 700 28 0.900000 0.378000 0.343000 600 33 1.000000 0.051000 0.051000 1.200000 0.027000 0.032000
1517284109774317004	600 30 0.900000 0.024000 0.022000 700 28 0.900000 0.386000 0.351000 600 33 1.000000 0.051000 0.051000 1.200000 0.027000 0.032000
1517284110283197087	600 29 0.900000 0.024000 0.022000 700 28 0.900000 0.383000 0.348000 600 33 1.000000 0.051000 0.051000 1.200000 0.027000 0.032000
1517284110792316837	600 29 0.900000 0.024000 0.022000 700 28 0.900000 0.380000 0.346000 600 33 1.000000 0.051000 0.051000 1.200000 0.027000 0.032000
1517284111301376004	600 29 0.900000 0.024000 0.022000 700 28 0.900000 0.389000 0.353000 600 33 1.000000 0.051000 0.051000 1.200000 0.027000 0.032000
1517284111810389713	600 30 0.900000 0.024000 0.022000 700 28 0.900000 0.375000 0.341000 600 33 1.000000 0.051000 0.051000 1.200000 0.027000 0.032000
1517284112319355213	600 30 0.900000 0.024000 0.022000 700 28 0.900000 0.374000 0.340000 600 33 1.000000 0.051000 0.051000 1.200000 0.027000 0.032000
1517284112828458629	600 30 0.900000 0.024000 0.022000 700 28 0.900000 0.375000 0.341000 600 33 1.000000 0.051000 0.051000 1.200000 0.027000 0.032000
1517284113337347046	600 30 0.900000 0.024000 0.022000 700 28 0.900000 0.375000 0.341000 600 33 1.000000 0.051000 0.051000 1.200000 0.027000 0.032000
1517284113846327130	600 30 0.900000 0.024000 0.022000 700 28 0.900000 0.380000 0.345000 600 33 1.000000 0.051000 0.051000 1.200000 0.028000 0.033000
1517284114355388130	600 29 0.900000 0.023000 0.021000 700 28 0.900000 0.386000 0.351000 600 33 1.000000 0.051000 0.051000 1.200000 0.027000 0.032000
1517284114864560296	600 29 0.900000 0.024000 0.022000 700 28 0.900000 0.381000 0.346000 600 33 1.000000 0.051000 0.051000 1.200000 0.027000 0.032000
1517284115373423963	600 30 0.900000 0.024000 0.022000 700 28 0.900000 0.378000 0.343000 600 33 1.000000 0.051000 0.051000 1.200000 0.027000 0.032000
1517284115882451921	600 29 0.900000 0.024000 0.022000 700 28 0.900000 0.388000 0.353000 600 33 1.000000 0.051000 0.051000 1.200000 0.026000 0.031000
1517284116391438255	600 29 0.900000 0.023000 0.021000 700 28 0.900000 0.383000 0.348000 600 33 1.000000 0.051000 0.051000 1.200000 0.027000 0.032000
1517284116900385172	600 29 0.900000 0.024000 0.022000 700 28 0.900000 0.379000 0.344000 600 33 1.000000 0.051000 0.051000 1.200000 0.027000 0.032000
1517284117409279630	600 30 0.900000 0.024000 0.022000 700 28 0.900000 0.386000 0.351000 600 33 1.000000 0.051000 0.051000 1.200000 0.027000 0.032000
1517284117918221672	600 29 0.900000 0.023000 0.021000 700 28 0.900000 0.375000 0.341000 600 33 1.000000 0.051000 0.051000 1.200000 0.028000 0.033000
1517284118427168172	600 30 0.900000 0.023000 0.021000 700 28 0.900000 0.375000 0.341000 600 33 1.000000 0.051000 0.051000 1.200000 0.028000 0.033000
1517284118936255463	600 29 0.900000 0.024000 0.022000 700 28 0.900000 0.375000 0.341000 600 33 1.000000 0.051000 0.051000 1.200000 0.027000 0.032000
1517284119445313672	600 30 0.900000 0.023000 0.021000 700 28 0.900000 0.374000 0.340000 600 33 1.000000 0.051000 0.051000 1.200000 0.028000 0.033000
1517284119954333714	600 29 0.900000 0.023000 0.021000 700 28 0.900000 0.374000 0.340000 600 33 1.000000 0.051000 0.051000 1.200000 0.028000 0.033000
1517284120463270880	600 30 0.900000 0.023000 0.021000 700 28 0.900000 0.375000 0.341000 600 33 1.000000 0.051000 0.051000 1.200000 0.028000 0.033000
1517284120972127797	600 30 0.900000 0.024000 0.022000 700 28 0.900000 0.383000 0.348000 600 33 1.000000 0.051000 0.051000 1.200000 0.028000 0.033000
1517284121481193464	600 29 0.900000 0.023000 0.021000 700 28 0.900000 0.381000 0.346000 600 33 1.000000 0.051000 0.051000 1.200000 0.028000 0.033000
1517284121990266089	600 29 0.900000 0.024000 0.022000 700 28 0.900000 0.388000 0.353000 600 33 1.000000 0.051000 0.051000 1.200000 0.027000 0.032000
1517284122499242089	600 29 0.900000 0.024000 0.022000 700 28 0.900000 0.380000 0.345000 600 33 1.000000 0.051000 0.051000 1.200000 0.028000 0.033000
1517284123008269422	600 30 0.900000 0.024000 0.022000 700 28 0.900000 0.381000 0.346000 600 33 1.000000 0.051000 0.051000 1.200000 0.028000 0.033000
1517284123517355631	600 29 0.900000 0.024000 0.022000 700 28 0.900000 0.390000 0.354000 600 33 1.000000 0.051000 0.051000 1.200000 0.027000 0.032000
1517284124026434214	600 30 0.900000 0.024000 0.022000 700 28 0.900000 0.376000 0.342000 600 33 1.000000 0.051000 0.051000 1.200000 0.028000 0.033000
1517284124535264714	600 29 0.900000 0.024000 0.022000 700 28 0.900000 0.374000 0.340000 600 33 1.000000 0.051000 0.051000 1.200000 0.028000 0.033000
1517284125044383464	600 30 0.900000 0.024000 0.022000 700 28 0.900000 0.374000 0.340000 600 33 1.000000 0.051000 0.051000 1.200000 0.027000 0.032000
1517284125553325589	600 30 0.900000 0.024000 0.022000 700 28 0.900000 0.374000 0.340000 600 33 1.000000 0.051000 0.051000 1.200000 0.028000 0.033000
1517284126062270006	600 30 0.900000 0.024000 0.022000 700 28 0.900000 0.376000 0.342000 600 33 1.000000 0.051000 0.051000 1.200000 0.028000 0.033000
1517284126571349256	600 29 0.900000 0.024000 0.022000 700 28 0.900000 0.375000 0.341000 600 33 1.000000 0.051000 0.051000 1.200000 0.028000 0.033000
1517284127080355464	600 30 0.900000 0.024000 0.022000 700 28 0.900000 0.373000 0.339000 600 33 1.000000 0.051000 0.051000 1.200000 0.027000 0.032000
1517284127589233548	600 30 0.900000 0.024000 0.022000 700 28 0.900000 0.374000 0.340000 600 33 1.000000 0.051000 0.051000 1.200000 0.027000 0.032000
1517284128098216965	600 30 0.900000 0.024000 0.022000 700 28 0.900000 0.388000 0.353000 600 33 1.000000 0.051000 0.051000 1.200000 0.027000 0.032000
1517284128607174423	600 30 0.900000 0.024000 0.022000 700 28 0.900000 0.381000 0.346000 600 33 1.000000 0.051000 0.051000 1.200000 0.028000 0.033000
1517284129116010590	600 30 0.900000 0.024000 0.022000 700 28 0.900000 0.381000 0.346000 600 33 1.000000 0.051000 0.051000 1.200000 0.029000 0.035000
1517284129624986631	600 30 0.900000 0.023000 0.021000 700 28 0.900000 0.387000 0.352000 600 33 1.000000 0.051000 0.051000 1.200000 0.027000 0.032000
1517284130133930881	600 30 0.900000 0.024000 0.022000 700 28 0.900000 0.374000 0.340000 600 33 1.000000 0.051000 0.051000 1.200000 0.029000 0.035000
1517284130642895465	600 29 0.900000 0.024000 0.022000 700 28 0.900000 0.375000 0.341000 600 33 1.000000 0.051000 0.051000 1.200000 0.029000 0.035000
1517284131152708798	600 30 0.900000 0.025000 0.023000 700 29 0.900000 0.411000 0.374000 600 33 1.000000 0.051000 0.051000 1.200000 0.058000 0.070000
1517284131716473507	600 32 0.900000 0.027000 0.025000 700 29 0.900000 0.413000 0.376000 600 35 1.000000 0.051000 0.051000 1.200000 0.108000 0.131000
1517284132280470340	600 32 0.900000 0.169000 0.160000 700 30 0.900000 0.966000 0.872000 600 36 1.000000 0.051000 0.051000 1.200000 0.066000 0.079000
1517284132836474715	600 33 0.900000 0.169000 0.160000 700 30 0.900000 0.966000 0.872000 600 36 1.000000 0.051000 0.051000 1.200000 0.066000 0.079000
1517284133388482882	600 33 0.900000 0.168000 0.159000 700 30 0.900000 0.965000 0.871000 600 37 1.000000 0.051000 0.051000 1.200000 0.064000 0.077000
1517284133952491340	600 33 0.900000 0.168000 0.159000 700 31 0.900000 0.966000 0.872000 600 37 1.000000 0.051000 0.051000 1.200000 0.063000 0.076000
1517284134520523590	600 34 0.900000 0.168000 0.159000 700 31 0.900000 0.967000 0.873000 600 37 1.000000 0.052000 0.052000 1.200000 0.063000 0.076000
1517284135080407715	600 34 0.900000 0.169000 0.160000 700 31 0.900000 0.967000 0.873000 600 37 1.000000 0.052000 0.052000 1.200000 0.063000 0.076000
1517284135644470382	600 34 0.900000 0.168000 0.159000 700 31 0.900000 0.968000 0.874000 600 37 1.000000 0.051000 0.051000 1.200000 0.063000 0.076000
1517284136204478341	600 34 0.900000 0.169000 0.160000 700 31 0.900000 0.967000 0.873000 600 37 1.000000 0.052000 0.052000 1.200000 0.064000 0.077000
1517284136756340257	600 34 0.900000 0.169000 0.160000 700 31 0.900000 0.966000 0.872000 600 38 1.000000 0.051000 0.051000 1.200000 0.064000 0.077000
1517284137304396424	600 34 0.900000 0.169000 0.160000 700 31 0.900000 0.966000 0.872000 600 38 1.000000 0.051000 0.051000 1.200000 0.064000 0.077000
1517284137864427299	600 34 0.900000 0.168000 0.159000 700 31 0.900000 0.967000 0.873000 600 38 1.000000 0.051000 0.051000 1.200000 0.064000 0.077000
1517284138416501132	600 34 0.900000 0.169000 0.160000 700 31 0.900000 0.966000 0.872000 600 38 1.000000 0.051000 0.051000 1.200000 0.064000 0.077000
1517284138976499549	600 34 0.900000 0.169000 0.160000 700 32 0.900000 0.968000 0.874000 600 38 1.000000 0.051000 0.051000 1.200000 0.063000 0.076000
1517284139536483049	600 34 0.900000 0.169000 0.160000 700 32 0.900000 0.967000 0.873000 600 38 1.000000 0.051000 0.051000 1.200000 0.063000 0.076000
1517284140092460508	600 34 0.900000 0.169000 0.160000 700 32 0.900000 0.966000 0.872000 600 38 1.000000 0.051000 0.051000 1.200000 0.063000 0.076000
1517284140652373633	600 34 0.900000 0.168000 0.159000 700 32 0.900000 0.967000 0.873000 600 38 1.000000 0.051000 0.051000 1.200000 0.063000 0.076000
1517284141208510799	600 35 0.900000 0.168000 0.159000 700 32 0.900000 0.967000 0.873000 600 38 1.000000 0.052000 0.052000 1.200000 0.064000 0.077000
1517284141768438758	600 35 0.900000 0.169000 0.160000 700 32 0.900000 0.967000 0.873000 600 38 1.000000 0.052000 0.052000 1.200000 0.064000 0.077000
1517284142328451925	600 35 0.900000 0.169000 0.160000 700 32 0.900000 0.967000 0.873000 600 38 1.000000 0.051000 0.051000 1.200000 0.064000 0.077000
1517284142884444508	600 35 0.900000 0.170000 0.160000 700 32 0.900000 0.966000 0.872000 600 38 1.000000 0.052000 0.052000 1.200000 0.064000 0.077000
1517284143440473966	600 35 0.900000 0.169000 0.160000 700 32 0.900000 0.968000 0.874000 600 38 1.000000 0.052000 0.052000 1.200000 0.064000 0.077000
1517284144000462550	600 35 0.900000 0.169000 0.160000 700 32 0.900000 0.967000 0.873000 600 38 1.000000 0.052000 0.052000 1.200000 0.063000 0.076000
1517284144556460008	600 35 0.900000 0.169000 0.160000 700 32 0.900000 0.968000 0.874000 600 38 1.000000 0.052000 0.052000 1.200000 0.063000 0.076000
1517284145112493758	600 35 0.900000 0.169000 0.160000 700 32 0.900000 0.967000 0.873000 600 38 1.000000 0.052000 0.052000 1.200000 0.063000 0.076000
1517284145676430842	600 35 0.900000 0.169000 0.160000 700 32 0.900000 0.967000 0.873000 600 39 1.000000 0.051000 0.051000 1.200000 0.063000 0.076000
1517284146240482717	600 35 0.900000 0.169000 0.160000 700 32 0.900000 0.967000 0.873000 600 38 1.000000 0.052000 0.052000 1.200000 0.063000 0.076000
1517284146804395092	600 35 0.900000 0.169000 0.160000 700 32 0.900000 0.968000 0.874000 600 38 1.000000 0.051000 0.051000 1.200000 0.063000 0.076000
1517284147364505384	600 35 0.900000 0.170000 0.160000 700 32 0.900000 0.967000 0.873000 600 38 1.000000 0.052000 0.052000 1.200000 0.064000 0.077000
1517284147924427092	600 35 0.900000 0.169000 0.160000 700 32 0.900000 0.968000 0.874000 600 39 1.000000 0.052000 0.052000 1.200000 0.064000 0.077000
1517284148484463134	600 35 0.900000 0.169000 0.160000 700 32 0.900000 0.968000 0.874000 600 38 1.000000 0.052000 0.052000 1.200000 0.063000 0.076000
1517284149048497550	600 35 0.900000 0.169000 0.160000 700 32 0.900000 0.968000 0.874000 600 39 1.000000 0.052000 0.052000 1.200000 0.063000 0.076000
1517284149612525800	600 35 0.900000 0.168000 0.159000 700 32 0.900000 0.968000 0.874000 600 39 1.000000 0.052000 0.052000 1.200000 0.063000 0.076000
1517284150168392217	600 35 0.900000 0.168000 0.159000 700 32 0.900000 0.967000 0.873000 600 39 1.000000 0.052000 0.052000 1.200000 0.063000 0.076000
1517284150724481592	600 35 0.900000 0.169000 0.160000 700 32 0.900000 0.968000 0.874000 600 39 1.000000 0.052000 0.052000 1.200000 0.063000 0.076000
1517284151284471676	600 35 0.900000 0.169000 0.160000 700 32 0.900000 0.967000 0.873000 600 39 1.000000 0.052000 0.052000 1.200000 0.063000 0.076000
1517284151848465426	600 35 0.900000 0.169000 0.160000 700 32 0.900000 0.968000 0.874000 600 39 1.000000 0.051000 0.051000 1.200000 0.064000 0.077000
1517284152404499051	600 35 0.900000 0.169000 0.160000 700 33 0.900000 0.967000 0.873000 600 39 1.000000 0.052000 0.052000 1.200000 0.064000 0.077000
1517284152976480718	600 35 0.900000 0.169000 0.160000 700 33 0.900000 0.969000 0.875000 600 39 1.000000 0.052000 0.052000 1.200000 0.063000 0.076000
1517284153540449718	600 35 0.900000 0.169000 0.160000 700 32 0.900000 0.968000 0.874000 600 39 1.000000 0.052000 0.052000 1.200000 0.064000 0.077000
1517284154088460093	600 35 0.900000 0.169000 0.160000 700 32 0.900000 0.969000 0.875000 600 39 1.000000 0.052000 0.052000 1.200000 0.063000 0.076000
1517284154648484551	600 35 0.900000 0.168000 0.159000 700 33 0.900000 0.968000 0.874000 600 39 1.000000 0.052000 0.052000 1.200000 0.063000 0.076000
1517284155204539926	600 35 0.900000 0.169000 0.160000 700 33 0.900000 0.969000 0.875000 600 39 1.000000 0.052000 0.052000 1.200000 0.063000 0.076000
1517284155744451968	600 35 0.900000 0.168000 0.159000 700 33 0.900000 0.968000 0.874000 600 39 1.000000 0.052000 0.052000 1.200000 0.063000 0.076000
1517284156308465510	600 35 0.900000 0.169000 0.160000 700 33 0.900000 0.967000 0.873000 600 39 1.000000 0.051000 0.051000 1.200000 0.063000 0.076000
1517284156876427635	600 35 0.900000 0.169000 0.160000 700 33 0.900000 0.967000 0.873000 600 39 1.000000 0.052000 0.052000 1.200000 0.063000 0.076000
1517284157428472260	600 35 0.900000 0.169000 0.160000 700 33 0.900000 0.968000 0.874000 600 39 1.000000 0.052000 0.052000 1.200000 0.064000 0.077000
1517284157980427218	600 35 0.900000 0.169000 0.160000 700 33 0.900000 0.968000 0.874000 600 39 1.000000 0.051000 0.051000 1.200000 0.063000 0.076000
1517284158536506218	600 35 0.900000 0.169000 0.160000 700 33 0.900000 0.968000 0.874000 600 39 1.000000 0.052000 0.052000 1.200000 0.063000 0.076000
1517284159092421177	600 35 0.900000 0.169000 0.160000 700 33 0.900000 0.969000 0.875000 600 39 1.000000 0.052000 0.052000 1.200000 0.063000 0.076000
1517284159652458677	600 35 0.900000 0.169000 0.160000 700 33 0.900000 0.969000 0.875000 600 39 1.000000 0.052000 0.052000 1.200000 0.063000 0.076000
1517284160208463468	600 36 0.900000 0.169000 0.160000 700 33 0.900000 0.969000 0.875000 600 39 1.000000 0.052000 0.052000 1.200000 0.063000 0.076000
1517284160768475635	600 36 0.900000 0.170000 0.160000 700 33 0.900000 0.968000 0.874000 600 39 1.000000 0.052000 0.052000 1.200000 0.064000 0.077000
1517284161332487385	600 35 0.900000 0.170000 0.160000 700 33 0.900000 0.967000 0.873000 600 39 1.000000 0.052000 0.052000 1.200000 0.064000 0.077000
1517284161892465719	600 35 0.900000 0.169000 0.160000 700 33 0.900000 0.968000 0.874000 600 39 1.000000 0.052000 0.052000 1.200000 0.064000 0.077000
1517284162440416052	600 35 0.900000 0.169000 0.160000 700 33 0.900000 0.968000 0.874000 600 39 1.000000 0.052000 0.052000 1.200000 0.063000 0.076000
1517284163000481219	600 36 0.900000 0.169000 0.160000 700 33 0.900000 0.969000 0.875000 600 39 1.000000 0.052000 0.052000 1.200000 0.064000 0.077000
1517284163556422552	600 35 0.900000 0.169000 0.160000 700 33 0.900000 0.969000 0.875000 600 39 1.000000 0.052000 0.052000 1.200000 0.064000 0.077000
1517284164124459969	600 36 0.900000 0.169000 0.160000 700 33 0.900000 0.968000 0.874000 600 39 1.000000 0.052000 0.052000 1.200000 0.064000 0.077000
1517284164680635177	600 35 0.900000 0.169000 0.160000 700 33 0.900000 0.969000 0.875000 600 39 1.000000 0.052000 0.052000 1.200000 0.063000 0.076000
1517284165224455802	600 36 0.900000 0.169000 0.160000 700 33 0.900000 0.969000 0.875000 600 39 1.000000 0.052000 0.052000 1.200000 0.064000 0.077000
1517284165776357969	600 36 0.900000 0.169000 0.160000 700 33 0.900000 0.968000 0.874000 600 39 1.000000 0.052000 0.052000 1.200000 0.063000 0.076000
1517284166328508469	600 36 0.900000 0.169000 0.160000 700 33 0.900000 0.969000 0.875000 600 39 1.000000 0.052000 0.052000 1.200000 0.064000 0.077000
1517284166888524052	600 36 0.900000 0.169000 0.160000 700 33 0.900000 0.968000 0.874000 600 39 1.000000 0.052000 0.052000 1.200000 0.063000 0.076000
1517284167456454011	600 36 0.900000 0.169000 0.160000 700 33 0.900000 0.968000 0.874000 600 39 1.000000 0.052000 0.052000 1.200000 0.063000 0.076000
1517284168024475469	600 36 0.900000 0.169000 0.160000 700 33 0.900000 0.969000 0.875000 600 39 1.000000 0.052000 0.052000 1.200000 0.063000 0.076000
1517284168588477719	600 36 0.900000 0.170000 0.160000 700 33 0.900000 0.969000 0.875000 600 39 1.000000 0.052000 0.052000 1.200000 0.063000 0.076000
1517284169148453803	600 36 0.900000 0.170000 0.160000 700 33 0.900000 0.969000 0.875000 600 39 1.000000 0.052000 0.052000 1.200000 0.064000 0.077000
1517284169708485844	600 36 0.900000 0.169000 0.160000 700 33 0.900000 0.969000 0.875000 600 39 1.000000 0.052000 0.052000 1.200000 0.064000 0.077000
1517284170260457553	600 36 0.900000 0.168000 0.159000 700 33 0.900000 0.969000 0.875000 600 39 1.000000 0.052000 0.052000 1.200000 0.064000 0.077000
1517284170816430803	600 36 0.900000 0.169000 0.160000 700 33 0.900000 0.968000 0.874000 600 39 1.000000 0.052000 0.052000 1.200000 0.063000 0.076000
1517284171376529886	600 36 0.900000 0.169000 0.160000 700 33 0.900000 0.968000 0.874000 600 39 1.000000 0.051000 0.051000 1.200000 0.064000 0.077000
1517284171928480595	600 36 0.900000 0.168000 0.159000 700 33 0.900000 0.968000 0.874000 600 39 1.000000 0.052000 0.052000 1.200000 0.064000 0.077000
1517284172492531595	600 36 0.900000 0.169000 0.160000 700 33 0.900000 0.969000 0.875000 600 39 1.000000 0.052000 0.052000 1.200000 0.063000 0.076000
1517284173040690762	600 36 0.900000 0.169000 0.160000 700 33 0.900000 0.969000 0.875000 600 39 1.000000 0.051000 0.051000 1.200000 0.064000 0.077000
1517284173588507137	600 36 0.900000 0.169000 0.160000 700 33 0.900000 0.969000 0.875000 600 39 1.000000 0.052000 0.052000 1.200000 0.063000 0.076000
1517284174140480387	600 36 0.900000 0.169000 0.160000 700 33 0.900000 0.970000 0.875000 600 39 1.000000 0.052000 0.052000 1.200000 0.064000 0.077000
1517284174704470262	600 36 0.900000 0.169000 0.160000 700 33 0.900000 0.969000 0.875000 600 39 1.000000 0.052000 0.052000 1.200000 0.064000 0.077000
1517284175268509637	600 36 0.900000 0.169000 0.160000 700 33 0.900000 0.969000 0.875000 600 39 1.000000 0.052000 0.052000 1.200000 0.064000 0.077000
1517284175828474179	600 36 0.900000 0.169000 0.160000 700 33 0.900000 0.969000 0.875000 600 39 1.000000 0.052000 0.052000 1.200000 0.064000 0.077000
1517284176392409220	600 36 0.900000 0.170000 0.160000 700 33 0.900000 0.970000 0.875000 600 39 1.000000 0.052000 0.052000 1.200000 0.064000 0.077000
1517284176940466137	600 36 0.900000 0.170000 0.160000 700 33 0.900000 0.969000 0.875000 600 39 1.000000 0.052000 0.052000 1.200000 0.064000 0.077000
1517284177508471929	600 36 0.900000 0.170000 0.160000 700 33 0.900000 0.969000 0.875000 600 40 1.000000 0.052000 0.052000 1.200000 0.064000 0.077000
1517284178064407345	600 36 0.900000 0.169000 0.160000 700 33 0.900000 0.968000 0.874000 600 39 1.000000 0.052000 0.052000 1.200000 0.063000 0.076000
1517284178620475262	600 36 0.900000 0.169000 0.160000 700 33 0.900000 0.969000 0.875000 600 39 1.000000 0.052000 0.052000 1.200000 0.063000 0.076000
1517284179180461096	600 36 0.900000 0.169000 0.160000 700 33 0.900000 0.968000 0.874000 600 39 1.000000 0.052000 0.052000 1.200000 0.064000 0.077000
1517284179748456429	600 36 0.900000 0.170000 0.160000 700 33 0.900000 0.968000 0.876000 600 39 1.000000 0.051000 0.051000 1.200000 0.064000 0.077000
1517284180308380137	600 36 0.900000 0.170000 0.160000 700 33 0.900000 0.967000 0.873000 600 39 1.000000 0.052000 0.052000 1.200000 0.065000 0.078000
1517284180872437012	600 36 0.900000 0.169000 0.160000 700 33 0.900000 0.968000 0.874000 600 39 1.000000 0.052000 0.052000 1.200000 0.064000 0.077000
1517284181428499221	600 36 0.900000 0.170000 0.160000 700 33 0.900000 0.967000 0.873000 600 39 1.000000 0.052000 0.052000 1.200000 0.064000 0.077000
1517284181988456638	600 36 0.900000 0.169000 0.160000 700 33 0.900000 0.969000 0.875000 600 39 1.000000 0.052000 0.052000 1.200000 0.063000 0.076000
1517284182548407929	600 36 0.900000 0.170000 0.160000 700 33 0.900000 0.968000 0.874000 600 39 1.000000 0.052000 0.052000 1.200000 0.063000 0.076000
1517284183104456721	600 36 0.900000 0.169000 0.160000 700 33 0.900000 0.968000 0.874000 600 40 1.000000 0.052000 0.052000 1.200000 0.063000 0.076000
1517284183668448346	600 36 0.900000 0.169000 0.160000 700 33 0.900000 0.968000 0.874000 600 39 1.000000 0.052000 0.052000 1.200000 0.063000 0.076000
1517284184232453180	600 36 0.900000 0.169000 0.160000 700 33 0.900000 0.968000 0.874000 600 39 1.000000 0.052000 0.052000 1.200000 0.064000 0.077000
1517284184796476555	600 36 0.900000 0.169000 0.160000 700 33 0.900000 0.969000 0.875000 600 39 1.000000 0.052000 0.052000 1.200000 0.064000 0.077000
1517284185360496555	600 36 0.900000 0.169000 0.160000 700 33 0.900000 0.968000 0.874000 600 40 1.000000 0.052000 0.052000 1.200000 0.064000 0.077000
1517284185924412763	600 36 0.900000 0.169000 0.160000 700 33 0.900000 0.969000 0.875000 600 40 1.000000 0.052000 0.052000 1.200000 0.064000 0.077000
1517284186476457346	600 36 0.900000 0.169000 0.160000 700 33 0.900000 0.970000 0.875000 600 40 1.000000 0.052000 0.052000 1.200000 0.063000 0.076000
1517284187028450847	600 36 0.900000 0.170000 0.160000 700 33 0.900000 0.970000 0.875000 600 40 1.000000 0.052000 0.052000 1.200000 0.063000 0.076000
1517284187584524597	600 36 0.900000 0.169000 0.160000 700 33 0.900000 0.969000 0.875000 600 40 1.000000 0.052000 0.052000 1.200000 0.063000 0.076000
1517284188148474222	600 36 0.900000 0.169000 0.160000 700 33 0.900000 0.969000 0.875000 600 40 1.000000 0.052000 0.052000 1.200000 0.063000 0.076000
1517284188704486388	600 36 0.900000 0.170000 0.160000 700 33 0.900000 0.969000 0.876000 600 40 1.000000 0.052000 0.052000 1.200000 0.063000 0.076000
1517284189268447638	600 36 0.900000 0.168000 0.159000 700 33 0.900000 0.969000 0.875000 600 40 1.000000 0.052000 0.052000 1.200000 0.064000 0.077000
1517284189832442514	600 36 0.900000 0.169000 0.160000 700 33 0.900000 0.969000 0.875000 600 40 1.000000 0.052000 0.052000 1.200000 0.064000 0.077000
1517284190400413639	600 36 0.900000 0.169000 0.160000 700 33 0.900000 0.969000 0.876000 600 40 1.000000 0.052000 0.052000 1.200000 0.065000 0.078000
1517284190956479139	600 36 0.900000 0.169000 0.160000 700 33 0.900000 0.970000 0.875000 600 40 1.000000 0.052000 0.052000 1.200000 0.063000 0.076000
1517284191520425764	600 36 0.900000 0.169000 0.160000 700 33 0.900000 0.969000 0.875000 600 40 1.000000 0.052000 0.052000 1.200000 0.063000 0.076000
1517284192088430764	600 36 0.900000 0.169000 0.160000 700 33 0.900000 0.970000 0.875000 600 40 1.000000 0.052000 0.052000 1.200000 0.063000 0.076000
1517284192652449264	600 36 0.900000 0.170000 0.160000 700 33 0.900000 0.969000 0.875000 600 40 1.000000 0.052000 0.052000 1.200000 0.063000 0.076000
1517284193208514056	600 36 0.900000 0.170000 0.160000 700 33 0.900000 0.969000 0.875000 600 40 1.000000 0.052000 0.052000 1.200000 0.063000 0.076000
1517284193768472639	600 36 0.900000 0.170000 0.160000 700 33 0.900000 0.968000 0.874000 600 40 1.000000 0.052000 0.052000 1.200000 0.063000 0.076000
1517284194328453347	600 36 0.900000 0.169000 0.160000 700 33 0.900000 0.968000 0.874000 600 40 1.000000 0.052000 0.052000 1.200000 0.064000 0.077000
1517284194892468056	600 36 0.900000 0.169000 0.160000 700 33 0.900000 0.968000 0.874000 600 40 1.000000 0.052000 0.052000 1.200000 0.064000 0.077000
1517284195452461056	600 36 0.900000 0.169000 0.160000 700 33 0.900000 0.969000 0.875000 600 40 1.000000 0.052000 0.052000 1.200000 0.063000 0.076000
1517284196016439681	600 36 0.900000 0.169000 0.160000 700 33 0.900000 0.970000 0.875000 600 40 1.000000 0.052000 0.052000 1.200000 0.063000 0.076000
1517284196572452889	600 36 0.900000 0.169000 0.160000 700 33 0.900000 0.969000 0.875000 600 40 1.000000 0.052000 0.052000 1.200000 0.063000 0.076000
1517284197136500264	600 36 0.900000 0.169000 0.160000 700 34 0.900000 0.969000 0.875000 600 40 1.000000 0.052000 0.052000 1.200000 0.063000 0.076000
1517284197696479223	600 36 0.900000 0.170000 0.160000 700 33 0.900000 0.970000 0.875000 600 40 1.000000 0.052000 0.052000 1.200000 0.063000 0.076000
1517284198248395973	600 36 0.900000 0.170000 0.160000 700 33 0.900000 0.969000 0.875000 600 39 1.000000 0.052000 0.052000 1.200000 0.063000 0.076000
1517284198812501890	600 36 0.900000 0.169000 0.160000 700 33 0.900000 0.970000 0.877000 600 40 1.000000 0.052000 0.052000 1.200000 0.063000 0.076000
1517284199360465723	600 36 0.900000 0.169000 0.160000 700 33 0.900000 0.969000 0.875000 600 40 1.000000 0.052000 0.052000 1.200000 0.064000 0.077000
1517284199920498306	600 36 0.900000 0.169000 0.160000 700 33 0.900000 0.968000 0.874000 600 40 1.000000 0.052000 0.052000 1.200000 0.064000 0.077000
1517284200484383598	600 36 0.900000 0.169000 0.160000 700 33 0.900000 0.970000 0.875000 600 40 1.000000 0.052000 0.052000 1.200000 0.063000 0.076000
1517284201044446015	600 36 0.900000 0.169000 0.160000 700 33 0.900000 0.971000 0.876000 600 40 1.000000 0.051000 0.051000 1.200000 0.063000 0.076000
1517284201604441140	600 36 0.900000 0.169000 0.160000 700 33 0.900000 0.970000 0.875000 600 40 1.000000 0.052000 0.052000 1.200000 0.063000 0.076000
1517284202172461890	600 36 0.900000 0.169000 0.160000 700 33 0.900000 0.971000 0.878000 600 40 1.000000 0.052000 0.052000 1.200000 0.063000 0.076000
1517284202724485140	600 36 0.900000 0.170000 0.160000 700 34 0.900000 0.968000 0.874000 600 40 1.000000 0.052000 0.052000 1.200000 0.064000 0.077000
1517284203284485099	600 36 0.900000 0.170000 0.160000 700 33 0.900000 0.969000 0.875000 600 40 1.000000 0.052000 0.052000 1.200000 0.064000 0.077000
1517284203836516974	600 36 0.900000 0.170000 0.160000 700 34 0.900000 0.968000 0.876000 600 40 1.000000 0.052000 0.052000 1.200000 0.064000 0.077000
1517284204400527474	600 36 0.900000 0.169000 0.160000 700 33 0.900000 0.968000 0.874000 600 40 1.000000 0.052000 0.052000 1.200000 0.063000 0.076000
1517284204948448724	600 36 0.900000 0.169000 0.160000 700 33 0.900000 0.970000 0.875000 600 40 1.000000 0.052000 0.052000 1.200000 0.064000 0.077000
1517284205508405557	600 36 0.900000 0.169000 0.160000 700 33 0.900000 0.971000 0.878000 600 40 1.000000 0.052000 0.052000 1.200000 0.064000 0.077000
1517284206064522890	600 36 0.900000 0.169000 0.160000 700 33 0.900000 0.970000 0.875000 600 40 1.000000 0.052000 0.052000 1.200000 0.063000 0.076000
1517284206620451974	600 36 0.900000 0.169000 0.160000 700 34 0.900000 0.971000 0.876000 600 40 1.000000 0.052000 0.052000 1.200000 0.064000 0.077000
1517284207168449182	600 36 0.900000 0.169000 0.160000 700 33 0.900000 0.971000 0.878000 600 40 1.000000 0.052000 0.052000 1.200000 0.064000 0.077000
1517284207732504099	600 36 0.900000 0.169000 0.160000 700 33 0.900000 0.970000 0.877000 600 40 1.000000 0.052000 0.052000 1.200000 0.064000 0.077000
1517284208296469057	600 36 0.900000 0.170000 0.160000 700 33 0.900000 0.970000 0.877000 600 40 1.000000 0.052000 0.052000 1.200000 0.063000 0.076000
1517284208856458016	600 36 0.900000 0.169000 0.160000 700 33 0.900000 0.969000 0.876000 600 40 1.000000 0.052000 0.052000 1.200000 0.064000 0.077000
1517284209416408433	600 36 0.900000 0.170000 0.160000 700 33 0.900000 0.970000 0.877000 600 40 1.000000 0.052000 0.052000 1.200000 0.063000 0.076000
1517284209968474099	600 36 0.900000 0.169000 0.160000 700 33 0.900000 0.971000 0.876000 600 40 1.000000 0.052000 0.052000 1.200000 0.063000 0.076000
1517284210508360308	600 36 0.900000 0.169000 0.160000 700 33 0.900000 0.970000 0.875000 600 40 1.000000 0.052000 0.052000 1.200000 0.064000 0.077000
1517284211064404808	600 36 0.900000 0.169000 0.160000 700 34 0.900000 0.971000 0.878000 600 40 1.000000 0.052000 0.052000 1.200000 0.064000 0.077000
1517284211624528058	600 36 0.900000 0.169000 0.160000 700 33 0.900000 0.970000 0.877000 600 40 1.000000 0.052000 0.052000 1.200000 0.064000 0.077000
1517284212196467308	600 36 0.900000 0.170000 0.160000 700 33 0.900000 0.970000 0.875000 600 40 1.000000 0.052000 0.052000 1.200000 0.064000 0.077000
1517284212756472933	600 36 0.900000 0.169000 0.160000 700 34 0.900000 0.970000 0.877000 600 40 1.000000 0.052000 0.052000 1.200000 0.064000 0.077000
1517284213316464058	600 36 0.900000 0.169000 0.160000 700 34 0.900000 0.971000 0.876000 600 40 1.000000 0.052000 0.052000 1.200000 0.064000 0.077000
1517284213884441308	600 36 0.900000 0.169000 0.160000 700 34 0.900000 0.969000 0.876000 600 40 1.000000 0.052000 0.052000 1.200000 0.064000 0.077000
1517284214448445350	600 36 0.900000 0.169000 0.160000 700 34 0.900000 0.970000 0.875000 600 40 1.000000 0.052000 0.052000 1.200000 0.063000 0.076000
1517284215008514975	600 36 0.900000 0.169000 0.160000 700 34 0.900000 0.971000 0.876000 600 40 1.000000 0.052000 0.052000 1.200000 0.064000 0.077000
1517284215568389392	600 36 0.900000 0.169000 0.160000 700 34 0.900000 0.971000 0.876000 600 40 1.000000 0.052000 0.052000 1.200000 0.064000 0.077000
1517284216116468475	600 36 0.900000 0.169000 0.160000 700 34 0.900000 0.969000 0.876000 600 40 1.000000 0.052000 0.052000 1.200000 0.064000 0.077000
1517284216684497433	600 36 0.900000 0.170000 0.160000 700 34 0.900000 0.969000 0.875000 600 40 1.000000 0.052000 0.052000 1.200000 0.064000 0.077000
1517284217240464058	600 36 0.900000 0.169000 0.160000 700 34 0.900000 0.968000 0.874000 600 40 1.000000 0.052000 0.052000 1.200000 0.065000 0.078000
1517284217788557975	600 36 0.900000 0.170000 0.160000 700 34 0.900000 0.970000 0.875000 600 40 1.000000 0.052000 0.052000 1.200000 0.064000 0.077000
1517284218356457309	600 36 0.900000 0.169000 0.160000 700 34 0.900000 0.969000 0.875000 600 40 1.000000 0.052000 0.052000 1.200000 0.064000 0.077000
1517284218916474600	600 36 0.900000 0.170000 0.160000 700 34 0.900000 0.970000 0.875000 600 40 1.000000 0.052000 0.052000 1.200000 0.064000 0.077000
1517284219476451975	600 36 0.900000 0.169000 0.160000 700 34 0.900000 0.970000 0.875000 600 40 1.000000 0.052000 0.052000 1.200000 0.063000 0.076000
1517284220044420559	600 36 0.900000 0.169000 0.160000 700 34 0.900000 0.969000 0.875000 600 40 1.000000 0.052000 0.052000 1.200000 0.064000 0.077000
1517284220600475392	600 36 0.900000 0.169000 0.160000 700 34 0.900000 0.970000 0.875000 600 40 1.000000 0.052000 0.052000 1.200000 0.063000 0.076000
1517284221160475309	600 36 0.900000 0.170000 0.160000 700 34 0.900000 0.969000 0.875000 600 40 1.000000 0.052000 0.052000 1.200000 0.065000 0.078000
1517284221724488476	600 36 0.900000 0.169000 0.160000 700 34 0.900000 0.969000 0.875000 600 40 1.000000 0.052000 0.052000 1.200000 0.064000 0.077000
1517284222288483892	600 36 0.900000 0.169000 0.160000 700 34 0.900000 0.970000 0.875000 600 40 1.000000 0.052000 0.052000 1.200000 0.064000 0.077000
1517284222852504351	600 36 0.900000 0.170000 0.160000 700 34 0.900000 0.970000 0.875000 600 40 1.000000 0.052000 0.052000 1.200000 0.064000 0.077000
1517284223404400184	600 36 0.900000 0.169000 0.160000 700 34 0.900000 0.971000 0.876000 600 40 1.000000 0.052000 0.052000 1.200000 0.063000 0.076000
1517284223960487018	600 36 0.900000 0.170000 0.160000 700 34 0.900000 0.970000 0.877000 600 40 1.000000 0.052000 0.052000 1.200000 0.063000 0.076000
1517284224516426226	600 36 0.900000 0.169000 0.160000 700 34 0.900000 0.969000 0.875000 600 40 1.000000 0.052000 0.052000 1.200000 0.063000 0.076000
1517284225076460226	600 36 0.900000 0.170000 0.160000 700 34 0.900000 0.970000 0.875000 600 40 1.000000 0.052000 0.052000 1.200000 0.063000 0.076000
1517284225628454018	600 36 0.900000 0.170000 0.160000 700 34 0.900000 0.970000 0.877000 600 40 1.000000 0.052000 0.052000 1.200000 0.063000 0.076000
1517284226184425893	600 36 0.900000 0.170000 0.160000 700 34 0.900000 0.970000 0.877000 600 40 1.000000 0.052000 0.052000 1.200000 0.064000 0.077000
1517284226744494226	600 37 0.900000 0.169000 0.160000 700 34 0.900000 0.970000 0.877000 600 40 1.000000 0.052000 0.052000 1.200000 0.063000 0.076000
1517284227308481893	600 36 0.900000 0.169000 0.160000 700 34 0.900000 0.970000 0.877000 600 40 1.000000 0.052000 0.052000 1.200000 0.064000 0.077000
1517284227872456935	600 36 0.900000 0.170000 0.160000 700 34 0.900000 0.969000 0.876000 600 40 1.000000 0.052000 0.052000 1.200000 0.064000 0.077000
1517284228428468101	600 37 0.900000 0.170000 0.160000 700 34 0.900000 0.971000 0.878000 600 40 1.000000 0.052000 0.052000 1.200000 0.063000 0.076000
1517284228992531435	600 36 0.900000 0.170000 0.160000 700 34 0.900000 0.970000 0.877000 600 40 1.000000 0.052000 0.052000 1.200000 0.063000 0.076000
1517284229552441810	600 36 0.900000 0.169000 0.160000 700 34 0.900000 0.970000 0.875000 600 40 1.000000 0.052000 0.052000 1.200000 0.063000 0.076000
1517284230112467060	600 36 0.900000 0.169000 0.160000 700 34 0.900000 0.969000 0.875000 600 40 1.000000 0.052000 0.052000 1.200000 0.063000 0.076000
1517284230680484977	600 36 0.900000 0.170000 0.160000 700 34 0.900000 0.970000 0.877000 600 40 1.000000 0.052000 0.052000 1.200000 0.063000 0.076000
1517284231244513644	600 36 0.900000 0.169000 0.160000 700 34 0.900000 0.968000 0.876000 600 40 1.000000 0.052000 0.052000 1.200000 0.064000 0.077000
1517284231796450477	600 36 0.900000 0.169000 0.160000 700 34 0.900000 0.969000 0.875000 600 40 1.000000 0.052000 0.052000 1.200000 0.064000 0.077000
1517284232356484560	600 36 0.900000 0.169000 0.160000 700 34 0.900000 0.969000 0.876000 600 40 1.000000 0.052000 0.052000 1.200000 0.064000 0.077000
1517284232912392310	600 36 0.900000 0.169000 0.160000 700 34 0.900000 0.970000 0.875000 600 40 1.000000 0.052000 0.052000 1.200000 0.063000 0.076000
1517284233480468185	600 37 0.900000 0.170000 0.160000 700 34 0.900000 0.971000 0.878000 600 40 1.000000 0.052000 0.052000 1.200000 0.063000 0.076000
1517284233991002852	600 34 0.900000 0.049000 0.046000 700 33 0.900000 0.689000 0.624000 600 38 1.000000 0.052000 0.052000 1.200000 0.043000 0.051000
1517284234500968144	600 34 0.900000 0.025000 0.023000 700 33 0.900000 0.370000 0.337000 600 37 1.000000 0.052000 0.052000 1.200000 0.025000 0.030000
1517284235010939227	600 33 0.900000 0.025000 0.023000 700 32 0.900000 0.373000 0.339000 600 37 1.000000 0.052000 0.052000 1.200000 0.024000 0.028000
1517284235520896686	600 33 0.900000 0.025000 0.023000 700 32 0.900000 0.371000 0.337000 600 37 1.000000 0.052000 0.052000 1.200000 0.025000 0.030000
1517284236030630644	600 33 0.900000 0.025000 0.023000 700 32 0.900000 0.369000 0.335000 600 36 1.000000 0.052000 0.052000 1.200000 0.025000 0.030000
1517284236540218019	600 32 0.900000 0.025000 0.023000 700 31 0.900000 0.378000 0.343000 600 36 1.000000 0.051000 0.051000 1.200000 0.025000 0.030000
1517284237049858144	600 32 0.900000 0.024000 0.022000 700 31 0.900000 0.383000 0.348000 600 36 1.000000 0.052000 0.052000 1.200000 0.025000 0.030000
1517284237559616728	600 32 0.900000 0.025000 0.023000 700 31 0.900000 0.374000 0.340000 600 36 1.000000 0.052000 0.052000 1.200000 0.025000 0.030000
1517284238069377769	600 32 0.900000 0.024000 0.022000 700 31 0.900000 0.379000 0.344000 600 36 1.000000 0.052000 0.052000 1.200000 0.026000 0.031000
1517284238579136311	600 32 0.900000 0.025000 0.023000 700 31 0.900000 0.382000 0.347000 600 35 1.000000 0.051000 0.051000 1.200000 0.025000 0.030000
1517284239089351061	600 32 0.900000 0.024000 0.022000 700 31 0.900000 0.374000 0.340000 600 36 1.000000 0.051000 0.051000 1.200000 0.026000 0.031000
1517284239599308644	600 32 0.900000 0.025000 0.023000 700 31 0.900000 0.386000 0.351000 600 35 1.000000 0.052000 0.052000 1.200000 0.029000 0.035000
1517284240108945436	600 32 0.900000 0.024000 0.022000 700 31 0.900000 0.371000 0.337000 600 35 1.000000 0.051000 0.051000 1.200000 0.025000 0.030000
1517284240618665770	600 31 0.900000 0.024000 0.022000 700 31 0.900000 0.370000 0.336000 600 35 1.000000 0.052000 0.052000 1.200000 0.025000 0.030000
1517284241128299436	600 32 0.900000 0.024000 0.022000 700 31 0.900000 0.366000 0.333000 600 35 1.000000 0.052000 0.052000 1.200000 0.025000 0.030000
1517284241637924561	600 32 0.900000 0.024000 0.022000 700 30 0.900000 0.368000 0.334000 600 35 1.000000 0.051000 0.051000 1.200000 0.025000 0.030000
1517284242147541061	600 31 0.900000 0.024000 0.022000 700 30 0.900000 0.372000 0.338000 600 35 1.000000 0.051000 0.051000 1.200000 0.025000 0.030000
1517284242657325145	600 31 0.900000 0.024000 0.022000 700 30 0.900000 0.367000 0.333000 600 35 1.000000 0.051000 0.051000 1.200000 0.024000 0.028000
1517284243167083062	600 31 0.900000 0.024000 0.022000 700 30 0.900000 0.366000 0.333000 600 35 1.000000 0.051000 0.051000 1.200000 0.025000 0.030000
1517284243676799062	600 31 0.900000 0.024000 0.022000 700 30 0.900000 0.367000 0.333000 600 35 1.000000 0.052000 0.052000 1.200000 0.025000 0.030000
1517284244186812353	600 31 0.900000 0.024000 0.022000 700 30 0.900000 0.377000 0.343000 600 35 1.000000 0.051000 0.051000 1.200000 0.025000 0.030000
1517284244696540270	600 31 0.900000 0.025000 0.023000 700 30 0.900000 0.386000 0.351000 600 35 1.000000 0.052000 0.052000 1.200000 0.031000 0.037000
1517284245206550145	600 31 0.900000 0.025000 0.023000 700 30 0.900000 0.404000 0.367000 600 35 1.000000 0.051000 0.051000 1.200000 0.034000 0.041000
1517284245716169979	600 31 0.900000 0.024000 0.022000 700 30 0.900000 0.379000 0.344000 600 35 1.000000 0.051000 0.051000 1.200000 0.026000 0.031000
1517284246225727229	600 31 0.900000 0.024000 0.022000 700 30 0.900000 0.370000 0.336000 600 35 1.000000 0.051000 0.051000 1.200000 0.025000 0.030000
1517284246735393229	600 31 0.900000 0.024000 0.022000 700 30 0.900000 0.370000 0.336000 600 35 1.000000 0.051000 0.051000 1.200000 0.025000 0.030000
1517284247245079812	600 31 0.900000 0.024000 0.022000 700 30 0.900000 0.368000 0.335000 600 35 1.000000 0.051000 0.051000 1.200000 0.025000 0.030000
1517284247754890562	600 31 0.900000 0.024000 0.022000 700 30 0.900000 0.368000 0.334000 600 35 1.000000 0.051000 0.051000 1.200000 0.026000 0.031000
1517284248264475479	600 31 0.900000 0.025000 0.023000 700 30 0.900000 0.366000 0.333000 600 34 1.000000 0.051000 0.051000 1.200000 0.025000 0.030000
1517284248774273646	600 31 0.900000 0.024000 0.022000 700 30 0.900000 0.368000 0.334000 600 35 1.000000 0.051000 0.051000 1.200000 0.026000 0.031000
1517284249283945729	600 31 0.900000 0.024000 0.022000 700 30 0.900000 0.367000 0.333000 600 34 1.000000 0.051000 0.051000 1.200000 0.025000 0.030000
1517284249793479646	600 31 0.900000 0.024000 0.022000 700 30 0.900000 0.369000 0.335000 600 34 1.000000 0.051000 0.051000 1.200000 0.026000 0.031000
1517284250303155229	600 31 0.900000 0.024000 0.022000 700 30 0.900000 0.366000 0.333000 600 34 1.000000 0.051000 0.051000 1.200000 0.026000 0.031000
1517284250813037771	600 31 0.900000 0.024000 0.022000 700 30 0.900000 0.390000 0.354000 600 34 1.000000 0.051000 0.051000 1.200000 0.025000 0.030000
1517284251323163521	600 31 0.900000 0.025000 0.023000 700 30 0.900000 0.380000 0.345000 600 34 1.000000 0.051000 0.051000 1.200000 0.028000 0.033000
1517284251832922146	600 31 0.900000 0.024000 0.022000 700 30 0.900000 0.388000 0.353000 600 34 1.000000 0.051000 0.051000 1.200000 0.026000 0.031000
1517284252342643396	600 31 0.900000 0.024000 0.022000 700 30 0.900000 0.380000 0.345000 600 34 1.000000 0.051000 0.051000 1.200000 0.027000 0.032000
1517284252852386313	600 31 0.900000 0.025000 0.023000 700 30 0.900000 0.396000 0.360000 600 34 1.000000 0.051000 0.051000 1.200000 0.025000 0.030000
1517284253362083938	600 31 0.900000 0.023000 0.021000 700 30 0.900000 0.366000 0.333000 600 34 1.000000 0.051000 0.051000 1.200000 0.025000 0.030000
1517284253871876563	600 31 0.900000 0.025000 0.023000 700 30 0.900000 0.368000 0.334000 600 34 1.000000 0.051000 0.051000 1.200000 0.029000 0.035000
1517284254381758271	600 31 0.900000 0.024000 0.022000 700 30 0.900000 0.399000 0.362000 600 34 1.000000 0.051000 0.051000 1.200000 0.024000 0.028000
1517284254891516230	600 31 0.900000 0.025000 0.023000 700 30 0.900000 0.390000 0.354000 600 34 1.000000 0.051000 0.051000 1.200000 0.032000 0.038000
1517284255401193771	600 31 0.900000 0.025000 0.023000 700 30 0.900000 0.381000 0.346000 600 34 1.000000 0.051000 0.051000 1.200000 0.027000 0.032000
1517284255910842188	600 31 0.900000 0.024000 0.022000 700 30 0.900000 0.380000 0.345000 600 34 1.000000 0.051000 0.051000 1.200000 0.025000 0.030000
1517284256420544230	600 31 0.900000 0.024000 0.022000 700 30 0.900000 0.376000 0.342000 600 34 1.000000 0.051000 0.051000 1.200000 0.024000 0.028000
1517284256930325480	600 31 0.900000 0.024000 0.022000 700 30 0.900000 0.373000 0.339000 600 34 1.000000 0.051000 0.051000 1.200000 0.025000 0.030000
1517284257439879897	600 31 0.900000 0.024000 0.022000 700 29 0.900000 0.380000 0.345000 600 34 1.000000 0.051000 0.051000 1.200000 0.025000 0.030000
1517284257949781480	600 31 0.900000 0.024000 0.022000 700 30 0.900000 0.377000 0.343000 600 34 1.000000 0.051000 0.051000 1.200000 0.025000 0.030000
1517284258458766147	600 31 0.900000 0.024000 0.022000 700 29 0.900000 0.368000 0.334000 600 34 1.000000 0.051000 0.051000 1.200000 0.025000 0.030000
1517284258968269230	600 31 0.900000 0.024000 0.022000 700 29 0.900000 0.374000 0.340000 600 34 1.000000 0.051000 0.051000 1.200000 0.025000 0.030000
1517284259477967564	600 31 0.900000 0.024000 0.022000 700 29 0.900000 0.378000 0.343000 600 34 1.000000 0.051000 0.051000 1.200000 0.025000 0.030000
1517284259987524355	600 31 0.900000 0.024000 0.022000 700 29 0.900000 0.372000 0.338000 600 34 1.000000 0.051000 0.051000 1.200000 0.025000 0.030000
1517284260497303522	600 31 0.900000 0.024000 0.022000 700 29 0.900000 0.373000 0.339000 600 34 1.000000 0.051000 0.051000 1.200000 0.025000 0.030000
1517284261007013064	600 31 0.900000 0.024000 0.022000 700 29 0.900000 0.381000 0.346000 600 34 1.000000 0.051000 0.051000 1.200000 0.026000 0.031000
1517284261516662022	600 30 0.900000 0.024000 0.022000 700 29 0.900000 0.383000 0.348000 600 34 1.000000 0.051000 0.051000 1.200000 0.025000 0.030000
1517284262026622606	600 30 0.900000 0.024000 0.022000 700 29 0.900000 0.372000 0.338000 600 34 1.000000 0.051000 0.051000 1.200000 0.026000 0.031000
1517284262536396189	600 30 0.900000 0.024000 0.022000 700 29 0.900000 0.378000 0.343000 600 34 1.000000 0.051000 0.051000 1.200000 0.026000 0.031000
1517284263046135356	600 30 0.900000 0.025000 0.023000 700 29 0.900000 0.399000 0.363000 600 34 1.000000 0.051000 0.051000 1.200000 0.029000 0.035000
1517284263555130522	600 30 0.900000 0.024000 0.022000 700 29 0.900000 0.368000 0.334000 600 34 1.000000 0.051000 0.051000 1.200000 0.025000 0.030000
1517284264064899564	600 30 0.900000 0.024000 0.022000 700 29 0.900000 0.388000 0.353000 600 34 1.000000 0.051000 0.051000 1.200000 0.027000 0.032000
1517284264574386397	600 31 0.900000 0.024000 0.022000 700 29 0.900000 0.384000 0.349000 600 34 1.000000 0.051000 0.051000 1.200000 0.025000 0.030000
1517284265084215814	600 31 0.900000 0.024000 0.022000 700 29 0.900000 0.395000 0.359000 600 34 1.000000 0.051000 0.051000 1.200000 0.032000 0.038000
1517284265593238981	600 30 0.900000 0.024000 0.022000 700 29 0.900000 0.370000 0.336000 600 34 1.000000 0.051000 0.051000 1.200000 0.025000 0.030000
1517284266102936773	600 30 0.900000 0.024000 0.022000 700 29 0.900000 0.366000 0.333000 600 34 1.000000 0.052000 0.052000 1.200000 0.024000 0.028000
1517284266612732314	600 30 0.900000 0.024000 0.022000 700 29 0.900000 0.372000 0.338000 600 34 1.000000 0.051000 0.051000 1.200000 0.024000 0.028000
1517284267122531939	600 30 0.900000 0.024000 0.022000 700 29 0.900000 0.373000 0.339000 600 34 1.000000 0.051000 0.051000 1.200000 0.025000 0.030000
1517284267631363065	600 30 0.900000 0.024000 0.022000 700 29 0.900000 0.380000 0.345000 600 34 1.000000 0.051000 0.051000 1.200000 0.025000 0.030000
1517284268140046398	600 30 0.900000 0.024000 0.022000 700 29 0.900000 0.375000 0.341000 600 34 1.000000 0.051000 0.051000 1.200000 0.025000 0.030000
1517284268648703273	600 30 0.900000 0.024000 0.022000 700 29 0.900000 0.369000 0.335000 600 34 1.000000 0.051000 0.051000 1.200000 0.025000 0.030000
1517284269157482356	600 30 0.900000 0.024000 0.022000 700 29 0.900000 0.378000 0.343000 600 34 1.000000 0.051000 0.051000 1.200000 0.026000 0.031000
1517284269666188481	600 30 0.900000 0.024000 0.022000 700 29 0.900000 0.376000 0.342000 600 34 1.000000 0.051000 0.051000 1.200000 0.026000 0.031000
1517284270174801481	600 30 0.900000 0.024000 0.022000 700 29 0.900000 0.372000 0.338000 600 34 1.000000 0.051000 0.051000 1.200000 0.025000 0.030000
1517284270683510065	600 30 0.900000 0.023000 0.021000 700 29 0.900000 0.380000 0.345000 600 34 1.000000 0.051000 0.051000 1.200000 0.025000 0.030000
1517284271192971940	600 30 0.900000 0.024000 0.022000 700 29 0.900000 0.370000 0.336000 600 34 1.000000 0.051000 0.051000 1.200000 0.024000 0.028000
1517284271702424398	600 30 0.900000 0.024000 0.022000 700 29 0.900000 0.368000 0.334000 600 34 1.000000 0.051000 0.051000 1.200000 0.024000 0.028000
1517284272211213107	600 30 0.900000 0.024000 0.022000 700 29 0.900000 0.381000 0.346000 600 34 1.000000 0.051000 0.051000 1.200000 0.027000 0.032000
1517284272719934607	600 30 0.900000 0.024000 0.022000 700 29 0.900000 0.366000 0.333000 600 34 1.000000 0.051000 0.051000 1.200000 0.025000 0.030000
1517284273228840149	600 30 0.900000 0.024000 0.022000 700 29 0.900000 0.388000 0.353000 600 34 1.000000 0.051000 0.051000 1.200000 0.028000 0.033000
1517284273737742440	600 30 0.900000 0.024000 0.022000 700 29 0.900000 0.380000 0.345000 600 34 1.000000 0.051000 0.051000 1.200000 0.026000 0.031000
1517284274246648607	600 30 0.900000 0.024000 0.022000 700 29 0.900000 0.374000 0.340000 600 34 1.000000 0.051000 0.051000 1.200000 0.027000 0.032000
1517284274755890940	600 31 0.900000 0.024000 0.022000 700 29 0.900000 0.374000 0.340000 600 34 1.000000 0.051000 0.051000 1.200000 0.025000 0.030000
1517284275265093940	600 30 0.900000 0.025000 0.023000 700 29 0.900000 0.428000 0.389000 600 34 1.000000 0.051000 0.051000 1.200000 0.031000 0.037000
1517284275774151024	600 30 0.900000 0.025000 0.023000 700 29 0.900000 0.386000 0.351000 600 34 1.000000 0.051000 0.051000 1.200000 0.033000 0.039000
1517284276282914191	600 30 0.900000 0.024000 0.022000 700 29 0.900000 0.371000 0.337000 600 34 1.000000 0.051000 0.051000 1.200000 0.025000 0.030000
1517284276791599399	600 30 0.900000 0.024000 0.022000 700 29 0.900000 0.381000 0.346000 600 34 1.000000 0.051000 0.051000 1.200000 0.024000 0.028000
1517284277300376607	600 30 0.900000 0.024000 0.022000 700 29 0.900000 0.372000 0.338000 600 34 1.000000 0.051000 0.051000 1.200000 0.025000 0.030000
1517284277809120399	600 30 0.900000 0.024000 0.022000 700 29 0.900000 0.365000 0.332000 600 34 1.000000 0.051000 0.051000 1.200000 0.025000 0.030000
1517284278317884524	600 30 0.900000 0.024000 0.022000 700 29 0.900000 0.366000 0.333000 600 34 1.000000 0.051000 0.051000 1.200000 0.024000 0.028000
1517284278826551024	600 30 0.900000 0.024000 0.022000 700 29 0.900000 0.366000 0.333000 600 34 1.000000 0.051000 0.051000 1.200000 0.024000 0.028000
1517284279335353191	600 30 0.900000 0.024000 0.022000 700 29 0.900000 0.367000 0.333000 600 34 1.000000 0.051000 0.051000 1.200000 0.024000 0.028000
1517284279844044024	600 30 0.900000 0.024000 0.022000 700 29 0.900000 0.366000 0.333000 600 34 1.000000 0.052000 0.052000 1.200000 0.024000 0.028000
1517284280353902733	600 30 0.900000 0.024000 0.022000 700 29 0.900000 0.353000 0.321000 600 34 1.000000 0.051000 0.051000 1.200000 0.041000 0.049000
1517284280863531608	600 30 0.900000 0.040000 0.038000 700 29 0.900000 0.192000 0.174000 600 33 1.000000 0.051000 0.051000 1.200000 0.048000 0.058000
1517284281372923149	600 30 0.900000 0.024000 0.022000 700 29 0.900000 0.091000 0.082000 600 33 1.000000 0.051000 0.051000 1.200000 0.024000 0.028000
