#Timestamp	CPU(0) Frequency(MHz)	CPU(0) Temperature(C)	A7 Voltage(V)	A7 Current(A)	A7 Power(W)	CPU(4) Frequency(MHz)	CPU(4) Temperature(C)	A15 Voltage(V)	A15 Current(A)	A15 Power(W)	GPU Frequency(MHz)	GPU Temperature(C)	GPU Voltage(V)	GPU Current(A)	GPU Power(W)	RAM Voltage(V)	RAM Current(A)	RAM Power(W)
1517698260008988791	800 39 1.000000 0.060000 0.061000 700 36 0.900000 0.439000 0.399000 600 42 1.000000 0.052000 0.052000 1.200000 0.043000 0.051000
1517698260572277791	800 40 1.000000 0.237000 0.241000 700 37 0.900000 1.006000 0.910000 600 43 1.000000 0.053000 0.053000 1.200000 0.045000 0.054000
1517698261081643750	800 40 1.000000 0.138000 0.141000 700 37 0.900000 0.905000 0.819000 600 43 1.000000 0.052000 0.052000 1.200000 0.037000 0.044000
1517698261615344291	800 40 1.000000 0.215000 0.219000 700 37 0.900000 1.032000 0.933000 600 44 1.000000 0.052000 0.052000 1.200000 0.038000 0.045000
1517698262168226875	800 40 1.000000 0.182000 0.186000 700 38 0.900000 0.692000 0.627000 600 43 1.000000 0.052000 0.052000 1.200000 0.047000 0.056000
1517698262685614375	800 39 1.000000 0.223000 0.227000 700 37 0.900000 1.038000 0.939000 600 43 1.000000 0.053000 0.053000 1.200000 0.040000 0.048000
1517698263244261458	800 40 1.000000 0.131000 0.134000 700 38 0.900000 1.037000 0.938000 600 44 1.000000 0.052000 0.052000 1.200000 0.044000 0.053000
1517698263788328042	800 40 1.000000 0.225000 0.229000 700 38 0.900000 0.945000 0.856000 600 43 1.000000 0.053000 0.053000 1.200000 0.039000 0.047000
1517698264298341167	800 41 1.000000 0.222000 0.226000 700 38 0.900000 1.047000 0.947000 600 44 1.000000 0.052000 0.052000 1.200000 0.038000 0.045000
1517698264856332750	800 40 1.000000 0.147000 0.150000 700 38 0.900000 0.708000 0.642000 600 44 1.000000 0.052000 0.052000 1.200000 0.046000 0.055000
1517698265372412667	800 40 1.000000 0.159000 0.162000 700 38 0.900000 0.740000 0.671000 600 44 1.000000 0.053000 0.053000 1.200000 0.039000 0.047000
1517698265926514542	800 41 1.000000 0.224000 0.228000 700 38 0.900000 1.041000 0.942000 600 44 1.000000 0.052000 0.052000 1.200000 0.037000 0.044000
1517698266476251000	800 40 1.000000 0.157000 0.160000 700 38 0.900000 0.860000 0.780000 600 44 1.000000 0.053000 0.053000 1.200000 0.047000 0.056000
1517698266985820417	800 40 1.000000 0.221000 0.225000 700 38 0.900000 1.027000 0.929000 600 44 1.000000 0.053000 0.053000 1.200000 0.038000 0.045000
1517698267531642125	800 41 1.000000 0.131000 0.134000 700 38 0.900000 1.042000 0.943000 600 44 1.000000 0.053000 0.053000 1.200000 0.038000 0.045000
1517698268096376876	800 40 1.000000 0.224000 0.228000 700 38 0.900000 0.745000 0.675000 600 44 1.000000 0.053000 0.053000 1.200000 0.044000 0.053000
1517698268655231209	800 41 1.000000 0.226000 0.230000 700 38 0.900000 1.042000 0.943000 600 44 1.000000 0.053000 0.053000 1.200000 0.036000 0.043000
1517698269220246292	800 41 1.000000 0.131000 0.134000 700 38 0.900000 0.949000 0.859000 600 44 1.000000 0.053000 0.053000 1.200000 0.045000 0.054000
1517698269732219126	800 40 1.000000 0.228000 0.232000 700 38 0.900000 0.999000 0.904000 600 44 1.000000 0.052000 0.052000 1.200000 0.037000 0.044000
1517698270271451709	800 41 1.000000 0.221000 0.225000 700 38 0.900000 1.023000 0.925000 600 44 1.000000 0.052000 0.052000 1.200000 0.037000 0.044000
1517698270832211126	800 40 1.000000 0.168000 0.171000 700 38 0.900000 0.669000 0.606000 600 44 1.000000 0.053000 0.053000 1.200000 0.043000 0.051000
1517698271341623918	800 41 1.000000 0.226000 0.230000 700 38 0.900000 1.030000 0.932000 600 43 1.000000 0.053000 0.053000 1.200000 0.035000 0.042000
1517698271902554334	800 41 1.000000 0.150000 0.153000 700 38 0.900000 0.730000 0.662000 600 44 1.000000 0.052000 0.052000 1.200000 0.044000 0.053000
1517698272464247751	800 40 1.000000 0.223000 0.227000 700 38 0.900000 1.054000 0.953000 600 44 1.000000 0.052000 0.052000 1.200000 0.038000 0.045000
1517698273028165418	800 41 1.000000 0.228000 0.232000 700 38 0.900000 0.864000 0.782000 600 44 1.000000 0.053000 0.053000 1.200000 0.039000 0.047000
1517698273588287710	800 40 1.000000 0.232000 0.236000 700 38 0.900000 0.721000 0.653000 600 44 1.000000 0.052000 0.052000 1.200000 0.039000 0.047000
1517698274097813751	800 40 1.000000 0.223000 0.227000 700 38 0.900000 1.029000 0.931000 600 44 1.000000 0.053000 0.053000 1.200000 0.040000 0.048000
1517698274654704126	800 41 1.000000 0.226000 0.230000 700 38 0.900000 1.078000 0.975000 600 44 1.000000 0.053000 0.053000 1.200000 0.044000 0.053000
1517698275212257085	800 41 1.000000 0.148000 0.151000 700 38 0.900000 0.853000 0.772000 600 44 1.000000 0.053000 0.053000 1.200000 0.039000 0.047000
1517698275721815710	800 39 1.000000 0.229000 0.233000 700 38 0.900000 1.040000 0.941000 600 43 1.000000 0.052000 0.052000 1.200000 0.038000 0.045000
1517698276251953085	800 41 1.000000 0.175000 0.178000 700 38 0.900000 0.766000 0.694000 600 44 1.000000 0.053000 0.053000 1.200000 0.047000 0.056000
1517698276808289168	800 40 1.000000 0.209000 0.213000 700 38 0.900000 1.040000 0.941000 600 44 1.000000 0.052000 0.052000 1.200000 0.040000 0.048000
1517698277360300002	800 41 1.000000 0.225000 0.229000 700 38 0.900000 1.037000 0.938000 600 44 1.000000 0.053000 0.053000 1.200000 0.041000 0.049000
1517698277924344752	800 41 1.000000 0.134000 0.137000 700 38 0.900000 0.705000 0.639000 600 44 1.000000 0.053000 0.053000 1.200000 0.042000 0.050000
1517698278456354043	800 40 1.000000 0.223000 0.227000 700 38 0.900000 1.045000 0.945000 600 43 1.000000 0.053000 0.053000 1.200000 0.040000 0.048000
1517698279004423210	800 40 1.000000 0.229000 0.233000 700 38 0.900000 0.990000 0.896000 600 44 1.000000 0.053000 0.053000 1.200000 0.048000 0.057000
1517698279537271210	800 41 1.000000 0.145000 0.148000 700 38 0.900000 0.945000 0.856000 600 44 1.000000 0.053000 0.053000 1.200000 0.041000 0.049000
1517698280047126669	800 39 1.000000 0.223000 0.227000 700 38 0.900000 1.047000 0.947000 600 43 1.000000 0.053000 0.053000 1.200000 0.041000 0.049000
1517698280616264377	800 41 1.000000 0.129000 0.131000 700 38 0.900000 0.700000 0.634000 600 44 1.000000 0.053000 0.053000 1.200000 0.047000 0.056000
1517698281125798085	800 41 1.000000 0.223000 0.227000 700 38 0.900000 1.042000 0.943000 600 44 1.000000 0.053000 0.053000 1.200000 0.039000 0.047000
1517698281664001377	800 41 1.000000 0.214000 0.218000 700 38 0.900000 1.070000 0.968000 600 44 1.000000 0.053000 0.053000 1.200000 0.042000 0.050000
1517698282232280669	800 41 1.000000 0.142000 0.145000 700 38 0.900000 0.758000 0.687000 600 44 1.000000 0.053000 0.053000 1.200000 0.042000 0.050000
1517698282748930794	800 40 1.000000 0.223000 0.227000 700 38 0.900000 1.031000 0.934000 600 44 1.000000 0.053000 0.053000 1.200000 0.038000 0.045000
1517698283270184836	800 41 1.000000 0.180000 0.183000 700 38 0.900000 0.838000 0.760000 600 44 1.000000 0.052000 0.052000 1.200000 0.048000 0.057000
1517698283824248419	800 41 1.000000 0.205000 0.209000 700 38 0.900000 1.064000 0.962000 600 44 1.000000 0.053000 0.053000 1.200000 0.039000 0.047000
1517698284333890836	800 39 1.000000 0.230000 0.234000 700 38 0.900000 1.041000 0.942000 600 43 1.000000 0.053000 0.053000 1.200000 0.041000 0.049000
1517698284852189628	800 41 1.000000 0.139000 0.142000 700 38 0.900000 0.716000 0.649000 600 44 1.000000 0.053000 0.053000 1.200000 0.043000 0.052000
1517698285420239336	800 41 1.000000 0.226000 0.230000 700 38 0.900000 1.050000 0.950000 600 44 1.000000 0.052000 0.052000 1.200000 0.041000 0.049000
1517698285980262753	800 41 1.000000 0.227000 0.231000 700 38 0.900000 0.998000 0.904000 600 44 1.000000 0.053000 0.053000 1.200000 0.044000 0.053000
1517698286544288169	800 41 1.000000 0.139000 0.142000 700 38 0.900000 0.785000 0.711000 600 44 1.000000 0.053000 0.053000 1.200000 0.047000 0.056000
1517698287055295128	800 40 1.000000 0.221000 0.225000 700 38 0.900000 1.045000 0.945000 600 44 1.000000 0.053000 0.053000 1.200000 0.039000 0.047000
1517698287599983045	800 41 1.000000 0.229000 0.233000 700 38 0.900000 1.041000 0.942000 600 44 1.000000 0.053000 0.053000 1.200000 0.039000 0.047000
1517698288160178545	800 40 1.000000 0.156000 0.159000 700 38 0.900000 0.772000 0.700000 600 44 1.000000 0.053000 0.053000 1.200000 0.041000 0.049000
1517698288669914336	800 40 1.000000 0.231000 0.235000 700 38 0.900000 1.034000 0.935000 600 44 1.000000 0.053000 0.053000 1.200000 0.038000 0.045000
1517698289232280003	800 41 1.000000 0.168000 0.171000 700 38 0.900000 0.852000 0.771000 600 45 1.000000 0.053000 0.053000 1.200000 0.047000 0.056000
1517698289776267878	800 41 1.000000 0.222000 0.226000 700 38 0.900000 1.044000 0.944000 600 44 1.000000 0.053000 0.053000 1.200000 0.039000 0.047000
1517698290336371378	800 41 1.000000 0.223000 0.227000 700 38 0.900000 1.057000 0.957000 600 44 1.000000 0.052000 0.052000 1.200000 0.039000 0.047000
1517698290857361753	800 41 1.000000 0.125000 0.127000 700 38 0.900000 0.742000 0.672000 600 44 1.000000 0.053000 0.053000 1.200000 0.044000 0.053000
1517698291367425212	800 40 1.000000 0.229000 0.233000 700 38 0.900000 1.050000 0.950000 600 43 1.000000 0.053000 0.053000 1.200000 0.038000 0.045000
1517698291876916837	800 41 1.000000 0.227000 0.231000 700 38 0.900000 0.941000 0.852000 600 44 1.000000 0.053000 0.053000 1.200000 0.045000 0.054000
1517698292428290420	800 41 1.000000 0.152000 0.155000 700 38 0.900000 1.066000 0.964000 600 44 1.000000 0.053000 0.053000 1.200000 0.039000 0.047000
1517698292976288004	800 41 1.000000 0.208000 0.212000 700 38 0.900000 1.039000 0.940000 600 44 1.000000 0.052000 0.052000 1.200000 0.038000 0.045000
1517698293485538879	800 41 1.000000 0.193000 0.197000 700 38 0.900000 0.727000 0.659000 600 44 1.000000 0.053000 0.053000 1.200000 0.043000 0.051000
1517698293995530045	800 41 1.000000 0.221000 0.225000 700 38 0.900000 1.046000 0.946000 600 43 1.000000 0.053000 0.053000 1.200000 0.039000 0.047000
1517698294504834795	800 41 1.000000 0.137000 0.140000 700 38 0.900000 0.960000 0.869000 600 44 1.000000 0.053000 0.053000 1.200000 0.044000 0.053000
1517698295068291712	800 41 1.000000 0.223000 0.227000 700 38 0.900000 0.997000 0.903000 600 44 1.000000 0.053000 0.053000 1.200000 0.038000 0.045000
1517698295632293379	800 41 1.000000 0.223000 0.227000 700 38 0.900000 1.040000 0.941000 600 44 1.000000 0.053000 0.053000 1.200000 0.038000 0.045000
1517698296196285546	800 41 1.000000 0.141000 0.144000 700 38 0.900000 0.728000 0.660000 600 44 1.000000 0.052000 0.052000 1.200000 0.047000 0.056000
1517698296706664087	800 41 1.000000 0.226000 0.230000 700 38 0.900000 1.040000 0.941000 600 44 1.000000 0.052000 0.052000 1.200000 0.040000 0.048000
1517698297243976712	800 41 1.000000 0.221000 0.225000 700 38 0.900000 1.038000 0.939000 600 44 1.000000 0.053000 0.053000 1.200000 0.045000 0.054000
1517698297808228962	800 41 1.000000 0.156000 0.159000 700 38 0.900000 0.859000 0.778000 600 44 1.000000 0.053000 0.053000 1.200000 0.038000 0.045000
1517698298318023087	800 41 1.000000 0.223000 0.227000 700 38 0.900000 1.057000 0.956000 600 43 1.000000 0.052000 0.052000 1.200000 0.039000 0.047000
1517698298850258879	800 41 1.000000 0.178000 0.181000 700 38 0.900000 0.738000 0.669000 600 44 1.000000 0.052000 0.052000 1.200000 0.048000 0.058000
1517698299412295963	800 41 1.000000 0.222000 0.226000 700 38 0.900000 1.051000 0.951000 600 44 1.000000 0.053000 0.053000 1.200000 0.035000 0.042000
1517698299972213463	800 41 1.000000 0.224000 0.228000 700 38 0.900000 1.028000 0.930000 600 44 1.000000 0.053000 0.053000 1.200000 0.038000 0.045000
1517698300491443671	800 41 1.000000 0.124000 0.126000 700 38 0.900000 0.900000 0.815000 600 44 1.000000 0.053000 0.053000 1.200000 0.047000 0.056000
1517698301001096379	800 39 1.000000 0.223000 0.227000 700 38 0.900000 1.044000 0.944000 600 44 1.000000 0.053000 0.053000 1.200000 0.037000 0.044000
1517698301510787630	800 41 1.000000 0.237000 0.241000 700 38 0.900000 1.051000 0.951000 600 44 1.000000 0.053000 0.053000 1.200000 0.038000 0.045000
1517698302072514088	800 41 1.000000 0.223000 0.227000 700 38 0.900000 1.042000 0.944000 600 44 1.000000 0.053000 0.053000 1.200000 0.038000 0.045000
1517698302632337713	800 41 1.000000 0.225000 0.229000 700 38 0.900000 1.045000 0.945000 600 44 1.000000 0.053000 0.053000 1.200000 0.037000 0.044000
1517698303192237630	800 41 1.000000 0.190000 0.194000 700 38 0.900000 1.047000 0.947000 600 44 1.000000 0.053000 0.053000 1.200000 0.046000 0.055000
1517698303736310046	800 41 1.000000 0.203000 0.207000 700 38 0.900000 0.892000 0.808000 600 44 1.000000 0.052000 0.052000 1.200000 0.039000 0.047000
1517698304292303713	800 40 1.000000 0.223000 0.227000 700 38 0.900000 1.053000 0.952000 600 44 1.000000 0.052000 0.052000 1.200000 0.037000 0.044000
1517698304827985213	800 41 1.000000 0.131000 0.134000 700 38 0.900000 0.739000 0.670000 600 44 1.000000 0.052000 0.052000 1.200000 0.046000 0.055000
1517698305337867422	800 39 1.000000 0.221000 0.225000 700 38 0.900000 1.050000 0.950000 600 44 1.000000 0.053000 0.053000 1.200000 0.036000 0.043000
1517698305847515422	800 41 1.000000 0.126000 0.128000 700 38 0.900000 1.068000 0.966000 600 44 1.000000 0.053000 0.053000 1.200000 0.043000 0.051000
1517698306408297588	800 41 1.000000 0.228000 0.232000 700 38 0.900000 0.746000 0.676000 600 44 1.000000 0.053000 0.053000 1.200000 0.038000 0.045000
1517698306950999005	800 41 1.000000 0.232000 0.236000 700 38 0.900000 1.071000 0.969000 600 44 1.000000 0.053000 0.053000 1.200000 0.039000 0.047000
1517698307520438214	800 41 1.000000 0.140000 0.143000 700 38 0.900000 0.900000 0.815000 600 44 1.000000 0.053000 0.053000 1.200000 0.046000 0.055000
1517698308084337714	800 40 1.000000 0.228000 0.232000 700 38 0.900000 1.039000 0.941000 600 44 1.000000 0.053000 0.053000 1.200000 0.038000 0.045000
1517698308640305005	800 41 1.000000 0.219000 0.223000 700 38 0.900000 1.039000 0.940000 600 44 1.000000 0.053000 0.053000 1.200000 0.038000 0.045000
1517698309200263422	800 40 1.000000 0.143000 0.146000 700 38 0.900000 0.716000 0.647000 600 44 1.000000 0.052000 0.052000 1.200000 0.046000 0.055000
1517698309714934214	800 40 1.000000 0.169000 0.172000 700 38 0.900000 1.045000 0.945000 600 44 1.000000 0.053000 0.053000 1.200000 0.042000 0.050000
1517698310223930506	800 41 1.000000 0.224000 0.228000 700 38 0.900000 1.085000 0.981000 600 44 1.000000 0.053000 0.053000 1.200000 0.037000 0.044000
1517698310788503089	800 41 1.000000 0.172000 0.175000 700 38 0.900000 1.041000 0.943000 600 44 1.000000 0.053000 0.053000 1.200000 0.041000 0.049000
1517698311298678881	800 39 1.000000 0.186000 0.190000 700 38 0.900000 1.043000 0.944000 600 43 1.000000 0.053000 0.053000 1.200000 0.038000 0.045000
1517698311852306506	800 41 1.000000 0.176000 0.179000 700 38 0.900000 0.935000 0.848000 600 44 1.000000 0.053000 0.053000 1.200000 0.038000 0.045000
1517698312362575381	800 41 1.000000 0.200000 0.204000 700 38 0.900000 0.976000 0.884000 600 44 1.000000 0.053000 0.053000 1.200000 0.048000 0.057000
1517698312871827089	800 41 1.000000 0.225000 0.229000 700 38 0.900000 1.057000 0.956000 600 44 1.000000 0.053000 0.053000 1.200000 0.036000 0.043000
1517698313440501673	800 41 1.000000 0.149000 0.152000 700 38 0.900000 0.715000 0.648000 600 44 1.000000 0.052000 0.052000 1.200000 0.038000 0.045000
1517698314000240256	800 40 1.000000 0.208000 0.212000 700 38 0.900000 1.036000 0.937000 600 44 1.000000 0.053000 0.053000 1.200000 0.044000 0.053000
1517698314510124256	800 41 1.000000 0.218000 0.222000 700 38 0.900000 1.043000 0.943000 600 44 1.000000 0.052000 0.052000 1.200000 0.039000 0.047000
1517698315068201714	800 41 1.000000 0.164000 0.167000 700 38 0.900000 0.701000 0.635000 600 44 1.000000 0.053000 0.053000 1.200000 0.043000 0.051000
1517698315628245215	800 41 1.000000 0.197000 0.201000 700 38 0.900000 1.050000 0.950000 600 44 1.000000 0.053000 0.053000 1.200000 0.039000 0.047000
1517698316137963631	800 40 1.000000 0.229000 0.233000 700 38 0.900000 1.047000 0.947000 600 44 1.000000 0.053000 0.053000 1.200000 0.042000 0.050000
1517698316688637673	800 41 1.000000 0.184000 0.187000 700 38 0.900000 0.738000 0.669000 600 44 1.000000 0.053000 0.053000 1.200000 0.042000 0.050000
1517698317252197756	800 40 1.000000 0.168000 0.171000 700 38 0.900000 1.051000 0.951000 600 44 1.000000 0.052000 0.052000 1.200000 0.039000 0.047000
1517698317773997006	800 41 1.000000 0.226000 0.230000 700 38 0.900000 1.120000 1.013000 600 44 1.000000 0.053000 0.053000 1.200000 0.044000 0.053000
1517698318340278257	800 41 1.000000 0.170000 0.173000 700 38 0.900000 0.732000 0.663000 600 44 1.000000 0.052000 0.052000 1.200000 0.041000 0.049000
1517698318880322590	800 41 1.000000 0.222000 0.226000 700 38 0.900000 1.033000 0.934000 600 44 1.000000 0.053000 0.053000 1.200000 0.037000 0.044000
1517698319389392507	800 41 1.000000 0.168000 0.171000 700 38 0.900000 0.896000 0.811000 600 44 1.000000 0.053000 0.053000 1.200000 0.048000 0.057000
1517698319948248007	800 41 1.000000 0.222000 0.226000 700 38 0.900000 1.025000 0.927000 600 44 1.000000 0.053000 0.053000 1.200000 0.037000 0.044000
1517698320458003840	800 39 1.000000 0.222000 0.226000 700 38 0.900000 1.042000 0.944000 600 43 1.000000 0.052000 0.052000 1.200000 0.038000 0.045000
1517698321000867674	800 41 1.000000 0.136000 0.139000 700 38 0.900000 0.778000 0.705000 600 44 1.000000 0.053000 0.053000 1.200000 0.041000 0.049000
1517698321564171840	800 41 1.000000 0.222000 0.226000 700 38 0.900000 1.049000 0.949000 600 44 1.000000 0.053000 0.053000 1.200000 0.038000 0.045000
1517698322124175424	800 41 1.000000 0.228000 0.232000 700 38 0.900000 0.898000 0.813000 600 44 1.000000 0.052000 0.052000 1.200000 0.048000 0.057000
1517698322633375382	800 40 1.000000 0.198000 0.202000 700 38 0.900000 0.706000 0.640000 600 44 1.000000 0.053000 0.053000 1.200000 0.046000 0.055000
1517698323143426590	800 39 1.000000 0.194000 0.198000 700 38 0.900000 1.044000 0.944000 600 43 1.000000 0.052000 0.052000 1.200000 0.037000 0.044000
1517698323652747840	800 41 1.000000 0.169000 0.172000 700 38 0.900000 0.708000 0.642000 600 44 1.000000 0.053000 0.053000 1.200000 0.043000 0.052000
1517698324216225799	800 40 1.000000 0.229000 0.233000 700 38 0.900000 1.054000 0.953000 600 44 1.000000 0.053000 0.053000 1.200000 0.038000 0.045000
1517698324780242674	800 41 1.000000 0.222000 0.226000 700 38 0.900000 1.043000 0.943000 600 44 1.000000 0.053000 0.053000 1.200000 0.037000 0.044000
1517698325289514507	800 41 1.000000 0.121000 0.123000 700 38 0.900000 0.746000 0.676000 600 44 1.000000 0.053000 0.053000 1.200000 0.047000 0.056000
1517698325799384632	800 40 1.000000 0.220000 0.224000 700 38 0.900000 1.043000 0.943000 600 43 1.000000 0.053000 0.053000 1.200000 0.036000 0.043000
1517698326308683507	800 40 1.000000 0.220000 0.224000 700 38 0.900000 1.071000 0.969000 600 44 1.000000 0.053000 0.053000 1.200000 0.041000 0.049000
1517698326872243841	800 41 1.000000 0.228000 0.232000 700 38 0.900000 1.012000 0.915000 600 44 1.000000 0.053000 0.053000 1.200000 0.037000 0.044000
1517698327440200591	800 41 1.000000 0.219000 0.223000 700 38 0.900000 1.068000 0.966000 600 44 1.000000 0.053000 0.053000 1.200000 0.037000 0.044000
1517698327952600258	800 41 1.000000 0.146000 0.149000 700 38 0.900000 0.700000 0.634000 600 44 1.000000 0.052000 0.052000 1.200000 0.045000 0.054000
1517698328462426299	800 40 1.000000 0.223000 0.227000 700 38 0.900000 1.060000 0.959000 600 43 1.000000 0.052000 0.052000 1.200000 0.035000 0.042000
1517698328971485258	800 41 1.000000 0.224000 0.228000 700 38 0.900000 1.125000 1.018000 600 44 1.000000 0.053000 0.053000 1.200000 0.043000 0.051000
1517698329540258216	800 41 1.000000 0.142000 0.145000 700 38 0.900000 0.807000 0.731000 600 44 1.000000 0.052000 0.052000 1.200000 0.038000 0.045000
1517698330096182050	800 41 1.000000 0.229000 0.233000 700 38 0.900000 1.046000 0.946000 600 44 1.000000 0.052000 0.052000 1.200000 0.038000 0.045000
1517698330656249341	800 41 1.000000 0.134000 0.137000 700 38 0.900000 0.766000 0.694000 600 43 1.000000 0.053000 0.053000 1.200000 0.046000 0.055000
1517698331166276133	800 40 1.000000 0.229000 0.233000 700 38 0.900000 1.046000 0.946000 600 43 1.000000 0.052000 0.052000 1.200000 0.037000 0.044000
1517698331728289091	800 41 1.000000 0.184000 0.188000 700 38 0.900000 1.085000 0.981000 600 44 1.000000 0.053000 0.053000 1.200000 0.044000 0.053000
1517698332284221175	800 41 1.000000 0.222000 0.226000 700 38 0.900000 0.749000 0.679000 600 44 1.000000 0.053000 0.053000 1.200000 0.040000 0.048000
1517698332793717133	800 40 1.000000 0.227000 0.231000 700 38 0.900000 1.042000 0.943000 600 43 1.000000 0.053000 0.053000 1.200000 0.037000 0.044000
1517698333348241383	800 41 1.000000 0.122000 0.124000 700 38 0.900000 0.854000 0.774000 600 44 1.000000 0.052000 0.052000 1.200000 0.048000 0.058000
1517698333904228675	800 41 1.000000 0.234000 0.238000 700 38 0.900000 1.048000 0.948000 600 44 1.000000 0.052000 0.052000 1.200000 0.040000 0.048000
1517698334460174175	800 41 1.000000 0.234000 0.238000 700 38 0.900000 1.039000 0.940000 600 44 1.000000 0.053000 0.053000 1.200000 0.042000 0.050000
1517698334974417175	800 41 1.000000 0.142000 0.145000 700 38 0.900000 0.759000 0.688000 600 44 1.000000 0.053000 0.053000 1.200000 0.040000 0.048000
1517698335484006675	800 39 1.000000 0.225000 0.229000 700 38 0.900000 1.026000 0.928000 600 43 1.000000 0.053000 0.053000 1.200000 0.039000 0.047000
1517698335993593300	800 41 1.000000 0.187000 0.190000 700 38 0.900000 0.889000 0.805000 600 44 1.000000 0.052000 0.052000 1.200000 0.046000 0.055000
1517698336552267217	800 40 1.000000 0.207000 0.211000 700 38 0.900000 1.035000 0.936000 600 44 1.000000 0.053000 0.053000 1.200000 0.040000 0.048000
1517698337112213842	800 41 1.000000 0.165000 0.168000 700 38 0.900000 1.042000 0.943000 600 44 1.000000 0.052000 0.052000 1.200000 0.039000 0.047000
1517698337621536550	800 41 1.000000 0.226000 0.230000 700 38 0.900000 0.745000 0.675000 600 44 1.000000 0.053000 0.053000 1.200000 0.042000 0.050000
1517698338131492634	800 40 1.000000 0.222000 0.226000 700 38 0.900000 1.030000 0.932000 600 43 1.000000 0.053000 0.053000 1.200000 0.039000 0.047000
1517698338641163384	800 40 1.000000 0.139000 0.142000 700 38 0.900000 0.931000 0.843000 600 44 1.000000 0.053000 0.053000 1.200000 0.046000 0.055000
1517698339192279176	800 40 1.000000 0.226000 0.230000 700 38 0.900000 1.043000 0.943000 600 44 1.000000 0.052000 0.052000 1.200000 0.037000 0.044000
1517698339740912134	800 41 1.000000 0.226000 0.230000 700 38 0.900000 1.044000 0.944000 600 44 1.000000 0.053000 0.053000 1.200000 0.040000 0.048000
1517698340304249926	800 41 1.000000 0.143000 0.146000 700 38 0.900000 0.707000 0.641000 600 44 1.000000 0.053000 0.053000 1.200000 0.045000 0.054000
1517698340868251301	800 40 1.000000 0.229000 0.233000 700 38 0.900000 1.045000 0.945000 600 44 1.000000 0.053000 0.053000 1.200000 0.039000 0.047000
1517698341396756301	800 41 1.000000 0.228000 0.232000 700 38 0.900000 1.039000 0.940000 600 44 1.000000 0.053000 0.053000 1.200000 0.037000 0.044000
1517698341952446801	800 41 1.000000 0.216000 0.220000 700 38 0.900000 1.052000 0.952000 600 44 1.000000 0.053000 0.053000 1.200000 0.044000 0.053000
1517698342491439759	800 41 1.000000 0.130000 0.132000 700 38 0.900000 0.711000 0.644000 600 44 1.000000 0.053000 0.053000 1.200000 0.042000 0.050000
1517698343001137843	800 40 1.000000 0.222000 0.226000 700 38 0.900000 1.041000 0.942000 600 43 1.000000 0.052000 0.052000 1.200000 0.037000 0.044000
1517698343530661551	800 41 1.000000 0.129000 0.131000 700 38 0.900000 1.008000 0.912000 600 44 1.000000 0.053000 0.053000 1.200000 0.042000 0.050000
1517698344075597218	800 41 1.000000 0.224000 0.228000 700 38 0.900000 0.745000 0.675000 600 44 1.000000 0.052000 0.052000 1.200000 0.041000 0.049000
1517698344587091926	800 41 1.000000 0.224000 0.228000 700 38 0.900000 1.038000 0.939000 600 44 1.000000 0.053000 0.053000 1.200000 0.037000 0.044000
1517698345148278676	800 41 1.000000 0.140000 0.143000 700 38 0.900000 1.054000 0.953000 600 44 1.000000 0.053000 0.053000 1.200000 0.043000 0.051000
1517698345708316135	800 41 1.000000 0.231000 0.235000 700 38 0.900000 0.701000 0.635000 600 44 1.000000 0.052000 0.052000 1.200000 0.040000 0.048000
1517698346248245718	800 41 1.000000 0.233000 0.237000 700 38 0.900000 1.057000 0.956000 600 44 1.000000 0.053000 0.053000 1.200000 0.037000 0.044000
1517698346816265760	800 41 1.000000 0.134000 0.137000 700 38 0.900000 0.924000 0.836000 600 44 1.000000 0.053000 0.053000 1.200000 0.046000 0.055000
1517698347376191177	800 40 1.000000 0.227000 0.231000 700 38 0.900000 1.010000 0.914000 600 44 1.000000 0.052000 0.052000 1.200000 0.038000 0.045000
1517698347936228010	800 41 1.000000 0.223000 0.227000 700 38 0.900000 0.801000 0.726000 600 44 1.000000 0.053000 0.053000 1.200000 0.039000 0.047000
1517698348452613635	800 41 1.000000 0.140000 0.143000 700 38 0.900000 1.025000 0.927000 600 44 1.000000 0.053000 0.053000 1.200000 0.043000 0.051000
1517698348962291969	800 39 1.000000 0.224000 0.228000 700 38 0.900000 1.056000 0.955000 600 43 1.000000 0.053000 0.053000 1.200000 0.039000 0.047000
1517698349471635885	800 41 1.000000 0.209000 0.213000 700 38 0.900000 0.715000 0.648000 600 44 1.000000 0.052000 0.052000 1.200000 0.046000 0.055000
1517698350028289177	800 41 1.000000 0.226000 0.230000 700 38 0.900000 1.052000 0.952000 600 44 1.000000 0.053000 0.053000 1.200000 0.037000 0.044000
1517698350592281635	800 41 1.000000 0.179000 0.182000 700 38 0.900000 0.895000 0.810000 600 44 1.000000 0.052000 0.052000 1.200000 0.038000 0.045000
1517698351156240135	800 41 1.000000 0.221000 0.225000 700 38 0.900000 1.008000 0.912000 600 44 1.000000 0.053000 0.053000 1.200000 0.045000 0.054000
1517698351674628386	800 40 1.000000 0.229000 0.233000 700 38 0.900000 1.038000 0.939000 600 44 1.000000 0.053000 0.053000 1.200000 0.040000 0.048000
1517698352214174094	800 41 1.000000 0.222000 0.226000 700 38 0.900000 1.049000 0.949000 600 44 1.000000 0.053000 0.053000 1.200000 0.039000 0.047000
1517698352772244844	800 41 1.000000 0.123000 0.125000 700 38 0.900000 0.791000 0.716000 600 44 1.000000 0.053000 0.053000 1.200000 0.045000 0.054000
1517698353281846802	800 40 1.000000 0.222000 0.226000 700 38 0.900000 1.042000 0.943000 600 43 1.000000 0.053000 0.053000 1.200000 0.036000 0.043000
1517698353818940844	800 41 1.000000 0.237000 0.241000 700 38 0.900000 0.842000 0.762000 600 44 1.000000 0.052000 0.052000 1.200000 0.038000 0.045000
1517698354384210927	800 40 1.000000 0.146000 0.149000 700 38 0.900000 1.040000 0.941000 600 44 1.000000 0.053000 0.053000 1.200000 0.042000 0.050000
1517698354944344761	800 41 1.000000 0.223000 0.227000 700 38 0.900000 1.045000 0.945000 600 44 1.000000 0.053000 0.053000 1.200000 0.043000 0.051000
1517698355504190761	800 40 1.000000 0.188000 0.192000 700 38 0.900000 0.714000 0.647000 600 44 1.000000 0.053000 0.053000 1.200000 0.041000 0.049000
1517698356020304219	800 40 1.000000 0.226000 0.230000 700 38 0.900000 1.041000 0.942000 600 43 1.000000 0.053000 0.053000 1.200000 0.039000 0.047000
1517698356565607261	800 41 1.000000 0.149000 0.152000 700 38 0.900000 0.885000 0.801000 600 44 1.000000 0.052000 0.052000 1.200000 0.048000 0.057000
1517698357124339928	800 41 1.000000 0.231000 0.235000 700 38 0.900000 1.043000 0.943000 600 44 1.000000 0.052000 0.052000 1.200000 0.037000 0.044000
1517698357633894636	800 40 1.000000 0.222000 0.226000 700 38 0.900000 1.036000 0.937000 600 44 1.000000 0.052000 0.052000 1.200000 0.041000 0.049000
1517698358192229011	800 41 1.000000 0.139000 0.142000 700 38 0.900000 0.727000 0.659000 600 44 1.000000 0.053000 0.053000 1.200000 0.040000 0.048000
1517698358760221886	800 40 1.000000 0.223000 0.227000 700 38 0.900000 1.034000 0.935000 600 44 1.000000 0.053000 0.053000 1.200000 0.038000 0.045000
1517698359324288345	800 41 1.000000 0.223000 0.227000 700 38 0.900000 0.902000 0.817000 600 44 1.000000 0.053000 0.053000 1.200000 0.047000 0.056000
1517698359833779136	800 40 1.000000 0.182000 0.185000 700 38 0.900000 0.714000 0.647000 600 44 1.000000 0.052000 0.052000 1.200000 0.047000 0.056000
1517698360343543303	800 40 1.000000 0.216000 0.220000 700 38 0.900000 1.042000 0.943000 600 43 1.000000 0.052000 0.052000 1.200000 0.037000 0.044000
1517698360852751887	800 41 1.000000 0.156000 0.159000 700 38 0.900000 0.731000 0.663000 600 44 1.000000 0.053000 0.053000 1.200000 0.043000 0.051000
1517698361416260970	800 40 1.000000 0.205000 0.209000 700 38 0.900000 1.042000 0.943000 600 44 1.000000 0.053000 0.053000 1.200000 0.037000 0.044000
1517698361968242637	800 41 1.000000 0.225000 0.229000 700 38 0.900000 1.074000 0.971000 600 44 1.000000 0.052000 0.052000 1.200000 0.037000 0.044000
1517698362482993553	800 41 1.000000 0.137000 0.140000 700 38 0.900000 0.710000 0.643000 600 44 1.000000 0.052000 0.052000 1.200000 0.047000 0.056000
1517698362992456220	800 39 1.000000 0.223000 0.227000 700 38 0.900000 1.047000 0.947000 600 44 1.000000 0.052000 0.052000 1.200000 0.038000 0.045000
1517698363511723179	800 41 1.000000 0.143000 0.146000 700 38 0.900000 0.728000 0.660000 600 44 1.000000 0.052000 0.052000 1.200000 0.040000 0.048000
1517698364060228095	800 41 1.000000 0.223000 0.227000 700 38 0.900000 1.048000 0.948000 600 44 1.000000 0.053000 0.053000 1.200000 0.039000 0.047000
1517698364600291554	800 41 1.000000 0.223000 0.227000 700 38 0.900000 1.038000 0.939000 600 44 1.000000 0.053000 0.053000 1.200000 0.036000 0.043000
1517698365116238595	800 41 1.000000 0.141000 0.144000 700 38 0.900000 0.772000 0.700000 600 44 1.000000 0.053000 0.053000 1.200000 0.047000 0.056000
1517698365626277137	800 40 1.000000 0.222000 0.226000 700 38 0.900000 1.047000 0.947000 600 43 1.000000 0.053000 0.053000 1.200000 0.037000 0.044000
1517698366178121554	800 41 1.000000 0.122000 0.124000 700 38 0.900000 0.746000 0.676000 600 44 1.000000 0.052000 0.052000 1.200000 0.041000 0.049000
1517698366736242304	800 41 1.000000 0.131000 0.134000 700 38 0.900000 0.857000 0.776000 600 44 1.000000 0.052000 0.052000 1.200000 0.038000 0.045000
1517698367300192804	800 41 1.000000 0.224000 0.228000 700 38 0.900000 1.045000 0.945000 600 44 1.000000 0.053000 0.053000 1.200000 0.038000 0.045000
1517698367809545846	800 40 1.000000 0.190000 0.194000 700 38 0.900000 0.718000 0.651000 600 44 1.000000 0.052000 0.052000 1.200000 0.046000 0.055000
1517698368319153762	800 39 1.000000 0.198000 0.202000 700 38 0.900000 1.052000 0.952000 600 44 1.000000 0.052000 0.052000 1.200000 0.039000 0.047000
1517698368872244596	800 41 1.000000 0.180000 0.183000 700 38 0.900000 1.081000 0.978000 600 44 1.000000 0.052000 0.052000 1.200000 0.043000 0.051000
1517698369424280388	800 41 1.000000 0.209000 0.213000 700 38 0.900000 0.727000 0.659000 600 44 1.000000 0.053000 0.053000 1.200000 0.039000 0.047000
1517698369933912388	800 40 1.000000 0.223000 0.227000 700 38 0.900000 1.046000 0.946000 600 43 1.000000 0.053000 0.053000 1.200000 0.038000 0.045000
1517698370443031971	800 41 1.000000 0.172000 0.175000 700 38 0.900000 1.089000 0.985000 600 44 1.000000 0.052000 0.052000 1.200000 0.046000 0.055000
1517698370986963929	800 41 1.000000 0.195000 0.199000 700 38 0.900000 0.774000 0.702000 600 44 1.000000 0.052000 0.052000 1.200000 0.039000 0.047000
1517698371496731971	800 41 1.000000 0.223000 0.227000 700 38 0.900000 1.047000 0.947000 600 43 1.000000 0.052000 0.052000 1.200000 0.037000 0.044000
1517698372024061180	800 41 1.000000 0.182000 0.186000 700 38 0.900000 1.032000 0.933000 600 44 1.000000 0.052000 0.052000 1.200000 0.045000 0.054000
1517698372564197180	800 41 1.000000 0.143000 0.146000 700 38 0.900000 0.749000 0.679000 600 44 1.000000 0.052000 0.052000 1.200000 0.037000 0.044000
1517698373073813013	800 40 1.000000 0.220000 0.224000 700 38 0.900000 1.034000 0.935000 600 44 1.000000 0.053000 0.053000 1.200000 0.037000 0.044000
1517698373604635430	800 41 1.000000 0.237000 0.241000 700 38 0.900000 1.021000 0.924000 600 44 1.000000 0.053000 0.053000 1.200000 0.045000 0.054000
1517698374148329638	800 40 1.000000 0.142000 0.145000 700 38 0.900000 0.725000 0.657000 600 44 1.000000 0.052000 0.052000 1.200000 0.038000 0.045000
1517698374657946805	800 40 1.000000 0.223000 0.227000 700 38 0.900000 1.050000 0.950000 600 44 1.000000 0.053000 0.053000 1.200000 0.036000 0.043000
1517698375192320805	800 41 1.000000 0.134000 0.137000 700 38 0.900000 1.050000 0.950000 600 44 1.000000 0.053000 0.053000 1.200000 0.046000 0.055000
1517698375741822430	800 41 1.000000 0.228000 0.232000 700 38 0.900000 0.733000 0.664000 600 44 1.000000 0.053000 0.053000 1.200000 0.039000 0.047000
1517698376251525972	800 41 1.000000 0.221000 0.225000 700 38 0.900000 1.042000 0.943000 600 44 1.000000 0.052000 0.052000 1.200000 0.035000 0.042000
1517698376820282264	800 40 1.000000 0.127000 0.130000 700 38 0.900000 0.963000 0.871000 600 44 1.000000 0.053000 0.053000 1.200000 0.046000 0.055000
1517698377388266555	800 40 1.000000 0.223000 0.227000 700 38 0.900000 0.882000 0.799000 600 44 1.000000 0.053000 0.053000 1.200000 0.036000 0.043000
1517698377928066139	800 41 1.000000 0.229000 0.233000 700 38 0.900000 1.028000 0.931000 600 44 1.000000 0.053000 0.053000 1.200000 0.039000 0.047000
1517698378496301847	800 41 1.000000 0.132000 0.135000 700 38 0.900000 0.773000 0.701000 600 44 1.000000 0.053000 0.053000 1.200000 0.045000 0.054000
1517698379008787305	800 40 1.000000 0.224000 0.228000 700 38 0.900000 1.040000 0.941000 600 43 1.000000 0.053000 0.053000 1.200000 0.036000 0.043000
1517698379535804097	800 41 1.000000 0.239000 0.244000 700 38 0.900000 1.040000 0.941000 600 44 1.000000 0.053000 0.053000 1.200000 0.042000 0.050000
1517698380096282139	800 40 1.000000 0.134000 0.137000 700 38 0.900000 0.750000 0.680000 600 44 1.000000 0.052000 0.052000 1.200000 0.040000 0.048000
1517698380605590847	800 39 1.000000 0.226000 0.230000 700 38 0.900000 1.052000 0.952000 600 43 1.000000 0.052000 0.052000 1.200000 0.036000 0.043000
1517698381143298639	800 41 1.000000 0.193000 0.197000 700 38 0.900000 0.910000 0.824000 600 44 1.000000 0.052000 0.052000 1.200000 0.048000 0.058000
1517698381688297889	800 40 1.000000 0.229000 0.233000 700 38 0.900000 1.044000 0.944000 600 44 1.000000 0.052000 0.052000 1.200000 0.037000 0.044000
1517698382252349139	800 40 1.000000 0.164000 0.167000 700 38 0.900000 1.044000 0.944000 600 44 1.000000 0.053000 0.053000 1.200000 0.041000 0.049000
1517698382772455931	800 41 1.000000 0.222000 0.226000 700 38 0.900000 0.742000 0.672000 600 44 1.000000 0.053000 0.053000 1.200000 0.040000 0.048000
1517698383282168848	800 40 1.000000 0.226000 0.230000 700 38 0.900000 1.033000 0.934000 600 43 1.000000 0.052000 0.052000 1.200000 0.037000 0.044000
1517698383791539348	800 41 1.000000 0.123000 0.125000 700 38 0.900000 0.910000 0.824000 600 44 1.000000 0.052000 0.052000 1.200000 0.047000 0.056000
1517698384356258723	800 40 1.000000 0.223000 0.227000 700 38 0.900000 1.067000 0.965000 600 44 1.000000 0.053000 0.053000 1.200000 0.038000 0.045000
1517698384924304181	800 41 1.000000 0.225000 0.229000 700 38 0.900000 1.042000 0.943000 600 44 1.000000 0.053000 0.053000 1.200000 0.040000 0.048000
1517698385484298806	800 40 1.000000 0.200000 0.204000 700 38 0.900000 1.097000 0.994000 600 44 1.000000 0.053000 0.053000 1.200000 0.043000 0.051000
1517698386004031973	800 40 1.000000 0.196000 0.200000 700 38 0.900000 1.034000 0.935000 600 43 1.000000 0.052000 0.052000 1.200000 0.036000 0.043000
1517698386549491306	800 41 1.000000 0.222000 0.226000 700 38 0.900000 0.996000 0.901000 600 44 1.000000 0.053000 0.053000 1.200000 0.036000 0.043000
1517698387104290765	800 41 1.000000 0.129000 0.131000 700 38 0.900000 0.990000 0.896000 600 43 1.000000 0.053000 0.053000 1.200000 0.048000 0.058000
1517698387613946931	800 40 1.000000 0.226000 0.230000 700 38 0.900000 1.041000 0.942000 600 44 1.000000 0.053000 0.053000 1.200000 0.034000 0.041000
1517698388164204182	800 41 1.000000 0.123000 0.125000 700 38 0.900000 0.698000 0.633000 600 44 1.000000 0.053000 0.053000 1.200000 0.042000 0.050000
1517698388728226765	800 40 1.000000 0.224000 0.228000 700 38 0.900000 1.080000 0.977000 600 44 1.000000 0.052000 0.052000 1.200000 0.038000 0.045000
1517698389280252848	800 41 1.000000 0.228000 0.232000 700 38 0.900000 1.063000 0.962000 600 44 1.000000 0.052000 0.052000 1.200000 0.036000 0.043000
1517698389790619598	800 41 1.000000 0.143000 0.146000 700 38 0.900000 0.943000 0.854000 600 44 1.000000 0.052000 0.052000 1.200000 0.048000 0.057000
1517698390300921223	800 39 1.000000 0.233000 0.237000 700 38 0.900000 1.047000 0.947000 600 44 1.000000 0.052000 0.052000 1.200000 0.038000 0.045000
1517698390810749515	800 40 1.000000 0.183000 0.186000 700 38 0.900000 0.719000 0.652000 600 44 1.000000 0.052000 0.052000 1.200000 0.040000 0.048000
1517698391376234349	800 40 1.000000 0.209000 0.213000 700 38 0.900000 1.017000 0.921000 600 44 1.000000 0.052000 0.052000 1.200000 0.039000 0.047000
1517698391940262640	800 41 1.000000 0.226000 0.230000 700 38 0.900000 1.039000 0.940000 600 44 1.000000 0.052000 0.052000 1.200000 0.035000 0.042000
1517698392484273765	800 40 1.000000 0.123000 0.125000 700 38 0.900000 0.860000 0.780000 600 44 1.000000 0.053000 0.053000 1.200000 0.046000 0.055000
1517698393000254349	800 39 1.000000 0.216000 0.220000 700 37 0.900000 1.075000 0.972000 600 43 1.000000 0.053000 0.053000 1.200000 0.035000 0.042000
1517698393560237599	800 41 1.000000 0.238000 0.242000 700 38 0.900000 0.689000 0.624000 600 44 1.000000 0.053000 0.053000 1.200000 0.038000 0.045000
1517698394069499057	800 40 1.000000 0.228000 0.232000 700 38 0.900000 1.049000 0.949000 600 44 1.000000 0.053000 0.053000 1.200000 0.040000 0.048000
1517698394604104599	800 41 1.000000 0.216000 0.220000 700 38 0.900000 1.082000 0.980000 600 44 1.000000 0.052000 0.052000 1.200000 0.037000 0.044000
1517698395164241432	800 40 1.000000 0.183000 0.187000 700 38 0.900000 0.848000 0.769000 600 44 1.000000 0.053000 0.053000 1.200000 0.045000 0.054000
1517698395684568057	800 40 1.000000 0.222000 0.226000 700 37 0.900000 1.060000 0.959000 600 43 1.000000 0.052000 0.052000 1.200000 0.037000 0.044000
1517698396244330766	800 41 1.000000 0.142000 0.145000 700 38 0.900000 0.721000 0.653000 600 44 1.000000 0.053000 0.053000 1.200000 0.046000 0.055000
1517698396808188641	800 41 1.000000 0.129000 0.131000 700 38 0.900000 0.746000 0.676000 600 44 1.000000 0.053000 0.053000 1.200000 0.041000 0.049000
1517698397317763683	800 40 1.000000 0.223000 0.227000 700 38 0.900000 1.046000 0.946000 600 43 1.000000 0.053000 0.053000 1.200000 0.038000 0.045000
1517698397851495641	800 41 1.000000 0.233000 0.237000 700 38 0.900000 0.943000 0.854000 600 44 1.000000 0.052000 0.052000 1.200000 0.048000 0.058000
1517698398416262599	800 40 1.000000 0.142000 0.145000 700 38 0.900000 1.000000 0.906000 600 44 1.000000 0.052000 0.052000 1.200000 0.040000 0.048000
1517698398956843766	800 41 1.000000 0.225000 0.229000 700 38 0.900000 1.071000 0.969000 600 44 1.000000 0.053000 0.053000 1.200000 0.041000 0.049000
1517698399516215058	800 41 1.000000 0.221000 0.225000 700 38 0.900000 0.698000 0.633000 600 44 1.000000 0.052000 0.052000 1.200000 0.046000 0.055000
1517698400052355016	800 40 1.000000 0.227000 0.231000 700 38 0.900000 1.043000 0.943000 600 43 1.000000 0.053000 0.053000 1.200000 0.038000 0.045000
1517698400624235225	800 40 1.000000 0.194000 0.198000 700 38 0.900000 1.065000 0.963000 600 44 1.000000 0.053000 0.053000 1.200000 0.043000 0.051000
1517698401184174600	800 40 1.000000 0.168000 0.171000 700 38 0.900000 0.704000 0.638000 600 44 1.000000 0.052000 0.052000 1.200000 0.040000 0.048000
1517698401716325308	800 40 1.000000 0.224000 0.228000 700 38 0.900000 1.031000 0.933000 600 43 1.000000 0.053000 0.053000 1.200000 0.038000 0.045000
1517698402288242433	800 40 1.000000 0.178000 0.181000 700 38 0.900000 1.026000 0.928000 600 44 1.000000 0.052000 0.052000 1.200000 0.045000 0.054000
1517698402852249100	800 40 1.000000 0.162000 0.165000 700 38 0.900000 0.839000 0.760000 600 44 1.000000 0.053000 0.053000 1.200000 0.039000 0.047000
1517698403408318392	800 40 1.000000 0.155000 0.158000 700 38 0.900000 0.857000 0.776000 600 44 1.000000 0.052000 0.052000 1.200000 0.038000 0.045000
1517698403917855642	800 40 1.000000 0.223000 0.227000 700 38 0.900000 1.059000 0.958000 600 44 1.000000 0.053000 0.053000 1.200000 0.037000 0.044000
1517698404455700517	800 41 1.000000 0.224000 0.228000 700 38 0.900000 0.961000 0.870000 600 44 1.000000 0.052000 0.052000 1.200000 0.046000 0.055000
1517698405000237892	800 40 1.000000 0.131000 0.134000 700 38 0.900000 0.806000 0.731000 600 44 1.000000 0.053000 0.053000 1.200000 0.038000 0.045000
1517698405509514350	800 41 1.000000 0.199000 0.203000 700 38 0.900000 1.041000 0.942000 600 44 1.000000 0.052000 0.052000 1.200000 0.038000 0.045000
1517698406068223767	800 41 1.000000 0.224000 0.228000 700 38 0.900000 0.908000 0.822000 600 44 1.000000 0.052000 0.052000 1.200000 0.047000 0.056000
1517698406636662975	800 40 1.000000 0.222000 0.226000 700 38 0.900000 0.910000 0.824000 600 44 1.000000 0.053000 0.053000 1.200000 0.038000 0.045000
1517698407145774850	800 41 1.000000 0.227000 0.231000 700 38 0.900000 1.038000 0.939000 600 44 1.000000 0.053000 0.053000 1.200000 0.039000 0.047000
1517698407700254434	800 40 1.000000 0.131000 0.134000 700 38 0.900000 0.811000 0.735000 600 44 1.000000 0.052000 0.052000 1.200000 0.048000 0.058000
1517698408260246434	800 40 1.000000 0.223000 0.227000 700 38 0.900000 1.051000 0.952000 600 44 1.000000 0.052000 0.052000 1.200000 0.038000 0.045000
1517698408828253976	800 41 1.000000 0.224000 0.228000 700 38 0.900000 1.042000 0.943000 600 44 1.000000 0.053000 0.053000 1.200000 0.041000 0.049000
1517698409388182976	800 41 1.000000 0.140000 0.143000 700 38 0.900000 0.697000 0.632000 600 43 1.000000 0.052000 0.052000 1.200000 0.041000 0.049000
1517698409897913059	800 40 1.000000 0.223000 0.227000 700 38 0.900000 1.032000 0.933000 600 43 1.000000 0.053000 0.053000 1.200000 0.039000 0.047000
1517698410464233726	800 41 1.000000 0.202000 0.206000 700 38 0.900000 1.043000 0.943000 600 44 1.000000 0.052000 0.052000 1.200000 0.046000 0.055000
1517698410976239393	800 40 1.000000 0.193000 0.197000 700 38 0.900000 1.022000 0.924000 600 44 1.000000 0.053000 0.053000 1.200000 0.039000 0.047000
1517698411517792809	800 41 1.000000 0.201000 0.205000 700 38 0.900000 1.044000 0.945000 600 44 1.000000 0.052000 0.052000 1.200000 0.040000 0.048000
1517698412092259309	800 40 1.000000 0.132000 0.135000 700 38 0.900000 0.727000 0.659000 600 43 1.000000 0.053000 0.053000 1.200000 0.041000 0.049000
1517698412605787768	800 40 1.000000 0.226000 0.230000 700 38 0.900000 0.883000 0.799000 600 43 1.000000 0.052000 0.052000 1.200000 0.037000 0.044000
1517698413164321060	800 41 1.000000 0.223000 0.227000 700 38 0.900000 1.046000 0.946000 600 44 1.000000 0.053000 0.053000 1.200000 0.037000 0.044000
1517698413700355310	800 40 1.000000 0.169000 0.172000 700 38 0.900000 0.714000 0.647000 600 44 1.000000 0.053000 0.053000 1.200000 0.042000 0.050000
1517698414209480226	800 41 1.000000 0.223000 0.227000 700 38 0.900000 1.038000 0.939000 600 44 1.000000 0.052000 0.052000 1.200000 0.039000 0.047000
1517698414760206351	800 41 1.000000 0.150000 0.153000 700 38 0.900000 1.042000 0.943000 600 44 1.000000 0.053000 0.053000 1.200000 0.045000 0.054000
1517698415269953018	800 40 1.000000 0.222000 0.226000 700 38 0.900000 0.889000 0.805000 600 43 1.000000 0.053000 0.053000 1.200000 0.039000 0.047000
1517698415825979310	800 41 1.000000 0.229000 0.233000 700 38 0.900000 1.063000 0.962000 600 44 1.000000 0.052000 0.052000 1.200000 0.038000 0.045000
1517698416380276602	800 40 1.000000 0.130000 0.132000 700 38 0.900000 0.705000 0.639000 600 43 1.000000 0.052000 0.052000 1.200000 0.043000 0.051000
1517698416890008560	800 40 1.000000 0.227000 0.231000 700 38 0.900000 1.043000 0.943000 600 43 1.000000 0.053000 0.053000 1.200000 0.039000 0.047000
1517698417456257018	800 40 1.000000 0.212000 0.216000 700 38 0.900000 1.027000 0.929000 600 44 1.000000 0.053000 0.053000 1.200000 0.046000 0.055000
1517698418020231018	800 40 1.000000 0.186000 0.190000 700 38 0.900000 0.898000 0.813000 600 44 1.000000 0.052000 0.052000 1.200000 0.040000 0.048000
1517698418580244518	800 40 1.000000 0.219000 0.223000 700 38 0.900000 1.044000 0.944000 600 44 1.000000 0.052000 0.052000 1.200000 0.040000 0.048000
1517698419089447602	800 41 1.000000 0.221000 0.225000 700 38 0.900000 0.748000 0.678000 600 44 1.000000 0.053000 0.053000 1.200000 0.046000 0.055000
1517698419599196227	800 40 1.000000 0.228000 0.232000 700 38 0.900000 1.040000 0.941000 600 43 1.000000 0.052000 0.052000 1.200000 0.039000 0.047000
1517698420108399727	800 41 1.000000 0.130000 0.132000 700 38 0.900000 1.079000 0.976000 600 44 1.000000 0.053000 0.053000 1.200000 0.047000 0.056000
1517698420672263102	800 40 1.000000 0.228000 0.232000 700 38 0.900000 0.816000 0.739000 600 44 1.000000 0.052000 0.052000 1.200000 0.037000 0.044000
1517698421224163685	800 40 1.000000 0.227000 0.231000 700 38 0.900000 1.063000 0.962000 600 44 1.000000 0.053000 0.053000 1.200000 0.039000 0.047000
1517698421739037561	800 41 1.000000 0.142000 0.145000 700 38 0.900000 0.742000 0.672000 600 44 1.000000 0.053000 0.053000 1.200000 0.044000 0.053000
1517698422248610519	800 40 1.000000 0.224000 0.228000 700 38 0.900000 1.008000 0.912000 600 43 1.000000 0.053000 0.053000 1.200000 0.039000 0.047000
1517698422778415602	800 41 1.000000 0.165000 0.168000 700 38 0.900000 1.095000 0.990000 600 44 1.000000 0.053000 0.053000 1.200000 0.045000 0.054000
1517698423336294519	800 40 1.000000 0.222000 0.226000 700 37 0.900000 0.890000 0.805000 600 43 1.000000 0.053000 0.053000 1.200000 0.038000 0.045000
1517698423888257727	800 40 1.000000 0.222000 0.226000 700 38 0.900000 0.945000 0.856000 600 44 1.000000 0.052000 0.052000 1.200000 0.040000 0.048000
1517698424420864561	800 40 1.000000 0.142000 0.145000 700 38 0.900000 1.043000 0.943000 600 44 1.000000 0.052000 0.052000 1.200000 0.042000 0.050000
1517698424930525603	800 40 1.000000 0.223000 0.227000 700 38 0.900000 1.050000 0.950000 600 43 1.000000 0.053000 0.053000 1.200000 0.039000 0.047000
1517698425439781394	800 41 1.000000 0.130000 0.132000 700 38 0.900000 0.769000 0.697000 600 44 1.000000 0.053000 0.053000 1.200000 0.047000 0.056000
1517698426000182686	800 40 1.000000 0.223000 0.227000 700 38 0.900000 1.049000 0.949000 600 43 1.000000 0.053000 0.053000 1.200000 0.040000 0.048000
1517698426556213103	800 40 1.000000 0.174000 0.177000 700 38 0.900000 0.882000 0.799000 600 44 1.000000 0.052000 0.052000 1.200000 0.038000 0.045000
1517698427065424561	800 40 1.000000 0.213000 0.217000 700 38 0.900000 1.032000 0.933000 600 43 1.000000 0.053000 0.053000 1.200000 0.046000 0.055000
1517698427575600561	800 40 1.000000 0.226000 0.230000 700 37 0.900000 1.039000 0.940000 600 42 1.000000 0.052000 0.052000 1.200000 0.040000 0.048000
1517698428140273395	800 41 1.000000 0.122000 0.124000 700 38 0.900000 0.751000 0.681000 600 43 1.000000 0.053000 0.053000 1.200000 0.047000 0.056000
1517698428664541811	800 40 1.000000 0.226000 0.230000 700 38 0.900000 1.031000 0.933000 600 44 1.000000 0.052000 0.052000 1.200000 0.040000 0.048000
1517698429177325728	800 41 1.000000 0.228000 0.232000 700 38 0.900000 0.998000 0.903000 600 44 1.000000 0.053000 0.053000 1.200000 0.041000 0.049000
1517698429736247228	800 40 1.000000 0.133000 0.136000 700 38 0.900000 0.927000 0.839000 600 44 1.000000 0.053000 0.053000 1.200000 0.047000 0.056000
1517698430296248103	800 40 1.000000 0.225000 0.229000 700 37 0.900000 1.029000 0.931000 600 43 1.000000 0.052000 0.052000 1.200000 0.039000 0.047000
1517698430825737520	800 40 1.000000 0.224000 0.228000 700 38 0.900000 1.049000 0.949000 600 44 1.000000 0.053000 0.053000 1.200000 0.038000 0.045000
1517698431380234437	800 40 1.000000 0.209000 0.213000 700 38 0.900000 0.700000 0.634000 600 44 1.000000 0.052000 0.052000 1.200000 0.041000 0.049000
1517698431936928020	800 40 1.000000 0.224000 0.228000 700 37 0.900000 1.056000 0.955000 600 44 1.000000 0.053000 0.053000 1.200000 0.046000 0.055000
1517698432446841978	800 40 1.000000 0.223000 0.227000 700 38 0.900000 1.042000 0.943000 600 43 1.000000 0.053000 0.053000 1.200000 0.039000 0.047000
1517698432969890604	800 40 1.000000 0.132000 0.135000 700 38 0.900000 0.726000 0.658000 600 44 1.000000 0.053000 0.053000 1.200000 0.042000 0.050000
1517698433501523604	800 40 1.000000 0.195000 0.199000 700 38 0.900000 0.985000 0.891000 600 44 1.000000 0.052000 0.052000 1.200000 0.045000 0.054000
1517698434011020562	800 39 1.000000 0.211000 0.215000 700 38 0.900000 1.026000 0.928000 600 43 1.000000 0.053000 0.053000 1.200000 0.038000 0.045000
1517698434520723937	800 40 1.000000 0.173000 0.176000 700 38 0.900000 0.904000 0.819000 600 44 1.000000 0.052000 0.052000 1.200000 0.038000 0.045000
1517698435054392604	800 40 1.000000 0.128000 0.130000 700 38 0.900000 0.918000 0.831000 600 43 1.000000 0.052000 0.052000 1.200000 0.046000 0.055000
1517698435563749687	800 40 1.000000 0.203000 0.207000 700 38 0.900000 1.079000 0.976000 600 44 1.000000 0.052000 0.052000 1.200000 0.037000 0.044000
1517698436095392771	800 40 1.000000 0.226000 0.230000 700 38 0.900000 0.878000 0.795000 600 44 1.000000 0.052000 0.052000 1.200000 0.047000 0.056000
1517698436629643896	800 40 1.000000 0.137000 0.140000 700 38 0.900000 0.843000 0.764000 600 44 1.000000 0.052000 0.052000 1.200000 0.040000 0.048000
1517698437139715479	800 40 1.000000 0.204000 0.208000 700 38 0.900000 1.054000 0.953000 600 43 1.000000 0.052000 0.052000 1.200000 0.040000 0.048000
1517698437669549229	800 40 1.000000 0.223000 0.227000 700 38 0.900000 0.928000 0.839000 600 44 1.000000 0.052000 0.052000 1.200000 0.047000 0.056000
1517698438197813062	800 40 1.000000 0.215000 0.219000 700 38 0.900000 0.789000 0.715000 600 43 1.000000 0.053000 0.053000 1.200000 0.039000 0.047000
1517698438707256938	800 39 1.000000 0.221000 0.225000 700 38 0.900000 1.057000 0.956000 600 43 1.000000 0.052000 0.052000 1.200000 0.038000 0.045000
1517698439229928938	800 40 1.000000 0.183000 0.187000 700 38 0.900000 0.720000 0.653000 600 44 1.000000 0.053000 0.053000 1.200000 0.040000 0.048000
1517698439787155146	800 40 1.000000 0.232000 0.236000 700 37 0.900000 1.052000 0.952000 600 43 1.000000 0.053000 0.053000 1.200000 0.039000 0.047000
1517698440296043646	800 40 1.000000 0.223000 0.227000 700 38 0.900000 1.043000 0.943000 600 44 1.000000 0.052000 0.052000 1.200000 0.038000 0.045000
1517698440836230021	800 40 1.000000 0.163000 0.166000 700 37 0.900000 0.808000 0.732000 600 44 1.000000 0.053000 0.053000 1.200000 0.039000 0.047000
1517698441347430355	800 40 1.000000 0.178000 0.181000 700 37 0.900000 0.928000 0.840000 600 43 1.000000 0.053000 0.053000 1.200000 0.040000 0.048000
1517698441866609771	800 40 1.000000 0.183000 0.187000 700 38 0.900000 0.857000 0.776000 600 44 1.000000 0.053000 0.053000 1.200000 0.046000 0.055000
1517698442432232063	800 40 1.000000 0.195000 0.199000 700 37 0.900000 1.039000 0.940000 600 44 1.000000 0.052000 0.052000 1.200000 0.036000 0.043000
1517698442941884105	800 40 1.000000 0.210000 0.214000 700 37 0.900000 1.042000 0.944000 600 42 1.000000 0.053000 0.053000 1.200000 0.039000 0.047000
1517698443457576771	800 40 1.000000 0.140000 0.143000 700 38 0.900000 1.056000 0.955000 600 44 1.000000 0.052000 0.052000 1.200000 0.044000 0.053000
1517698444020259688	800 40 1.000000 0.228000 0.232000 700 37 0.900000 1.051000 0.951000 600 43 1.000000 0.052000 0.052000 1.200000 0.037000 0.044000
1517698444574872230	800 40 1.000000 0.226000 0.230000 700 38 0.900000 1.041000 0.942000 600 44 1.000000 0.052000 0.052000 1.200000 0.039000 0.047000
1517698445104185647	800 40 1.000000 0.138000 0.141000 700 37 0.900000 0.901000 0.816000 600 44 1.000000 0.052000 0.052000 1.200000 0.047000 0.056000
1517698445614284688	800 39 1.000000 0.208000 0.212000 700 37 0.900000 1.030000 0.933000 600 43 1.000000 0.053000 0.053000 1.200000 0.036000 0.043000
1517698446164237605	800 40 1.000000 0.223000 0.227000 700 38 0.900000 1.043000 0.943000 600 44 1.000000 0.052000 0.052000 1.200000 0.042000 0.050000
1517698446673806772	800 40 1.000000 0.144000 0.147000 700 38 0.900000 0.710000 0.643000 600 43 1.000000 0.053000 0.053000 1.200000 0.040000 0.048000
1517698447196442730	800 40 1.000000 0.210000 0.214000 700 38 0.900000 1.041000 0.942000 600 44 1.000000 0.052000 0.052000 1.200000 0.037000 0.044000
1517698447760220272	800 40 1.000000 0.170000 0.173000 700 38 0.900000 1.004000 0.909000 600 44 1.000000 0.052000 0.052000 1.200000 0.047000 0.056000
1517698448324190689	800 40 1.000000 0.196000 0.200000 700 37 0.900000 0.941000 0.852000 600 43 1.000000 0.053000 0.053000 1.200000 0.038000 0.045000
1517698448888240272	800 40 1.000000 0.214000 0.218000 700 38 0.900000 1.049000 0.949000 600 44 1.000000 0.052000 0.052000 1.200000 0.039000 0.047000
1517698449460276439	800 40 1.000000 0.164000 0.167000 700 38 0.900000 0.771000 0.699000 600 44 1.000000 0.053000 0.053000 1.200000 0.045000 0.054000
1517698449982991731	800 40 1.000000 0.223000 0.227000 700 37 0.900000 1.043000 0.943000 600 44 1.000000 0.053000 0.053000 1.200000 0.039000 0.047000
1517698450502821939	800 40 1.000000 0.224000 0.229000 700 38 0.900000 1.079000 0.976000 600 44 1.000000 0.053000 0.053000 1.200000 0.045000 0.054000
1517698451060252522	800 40 1.000000 0.221000 0.225000 700 38 0.900000 0.744000 0.674000 600 43 1.000000 0.052000 0.052000 1.200000 0.039000 0.047000
1517698451569829731	800 39 1.000000 0.230000 0.234000 700 37 0.900000 1.042000 0.943000 600 43 1.000000 0.052000 0.052000 1.200000 0.037000 0.044000
1517698452101588814	800 40 1.000000 0.140000 0.143000 700 38 0.900000 0.860000 0.779000 600 44 1.000000 0.053000 0.053000 1.200000 0.046000 0.055000
1517698452660252273	800 40 1.000000 0.226000 0.230000 700 37 0.900000 1.049000 0.949000 600 44 1.000000 0.053000 0.053000 1.200000 0.038000 0.045000
1517698453224169356	800 40 1.000000 0.226000 0.230000 700 38 0.900000 1.041000 0.942000 600 44 1.000000 0.052000 0.052000 1.200000 0.043000 0.051000
1517698453780269398	800 40 1.000000 0.165000 0.168000 700 38 0.900000 0.734000 0.665000 600 44 1.000000 0.052000 0.052000 1.200000 0.039000 0.047000
1517698454296445523	800 40 1.000000 0.196000 0.200000 700 37 0.900000 0.786000 0.712000 600 43 1.000000 0.052000 0.052000 1.200000 0.039000 0.047000
1517698454840107981	800 41 1.000000 0.229000 0.233000 700 38 0.900000 1.043000 0.943000 600 44 1.000000 0.052000 0.052000 1.200000 0.040000 0.048000
1517698455408239648	800 40 1.000000 0.135000 0.138000 700 37 0.900000 0.785000 0.711000 600 44 1.000000 0.052000 0.052000 1.200000 0.045000 0.054000
1517698455917885231	800 40 1.000000 0.226000 0.230000 700 37 0.900000 1.049000 0.949000 600 43 1.000000 0.053000 0.053000 1.200000 0.037000 0.044000
1517698456441385523	800 41 1.000000 0.226000 0.230000 700 38 0.900000 1.048000 0.948000 600 44 1.000000 0.052000 0.052000 1.200000 0.044000 0.053000
1517698457004226815	800 40 1.000000 0.222000 0.226000 700 38 0.900000 0.710000 0.643000 600 43 1.000000 0.053000 0.053000 1.200000 0.039000 0.047000
1517698457560285856	800 40 1.000000 0.228000 0.232000 700 38 0.900000 1.049000 0.949000 600 44 1.000000 0.053000 0.053000 1.200000 0.036000 0.043000
1517698458128265815	800 40 1.000000 0.148000 0.151000 700 38 0.900000 0.999000 0.905000 600 44 1.000000 0.053000 0.053000 1.200000 0.047000 0.056000
1517698458639557690	800 40 1.000000 0.225000 0.229000 700 37 0.900000 0.983000 0.890000 600 43 1.000000 0.052000 0.052000 1.200000 0.039000 0.047000
1517698459155092815	800 41 1.000000 0.214000 0.218000 700 38 0.900000 1.036000 0.937000 600 44 1.000000 0.052000 0.052000 1.200000 0.040000 0.048000
1517698459704291773	800 40 1.000000 0.158000 0.161000 700 38 0.900000 0.719000 0.652000 600 44 1.000000 0.052000 0.052000 1.200000 0.043000 0.052000
1517698460213824190	800 39 1.000000 0.222000 0.226000 700 37 0.900000 1.036000 0.937000 600 43 1.000000 0.052000 0.052000 1.200000 0.040000 0.048000
1517698460756309232	800 41 1.000000 0.195000 0.199000 700 38 0.900000 1.043000 0.944000 600 43 1.000000 0.052000 0.052000 1.200000 0.045000 0.054000
1517698461273964149	800 40 1.000000 0.172000 0.175000 700 38 0.900000 0.746000 0.675000 600 44 1.000000 0.052000 0.052000 1.200000 0.042000 0.050000
1517698461783104899	800 41 1.000000 0.228000 0.232000 700 38 0.900000 1.080000 0.977000 600 44 1.000000 0.053000 0.053000 1.200000 0.040000 0.048000
1517698462341389107	800 41 1.000000 0.193000 0.197000 700 38 0.900000 0.718000 0.651000 600 44 1.000000 0.053000 0.053000 1.200000 0.048000 0.057000
1517698462905332649	800 40 1.000000 0.156000 0.159000 700 37 0.900000 1.041000 0.942000 600 43 1.000000 0.052000 0.052000 1.200000 0.038000 0.045000
1517698463415084815	800 40 1.000000 0.202000 0.206000 700 38 0.900000 1.022000 0.924000 600 43 1.000000 0.053000 0.053000 1.200000 0.040000 0.048000
1517698463946333732	800 40 1.000000 0.140000 0.143000 700 38 0.900000 0.763000 0.692000 600 44 1.000000 0.053000 0.053000 1.200000 0.045000 0.054000
1517698464478793899	800 40 1.000000 0.226000 0.230000 700 37 0.900000 1.055000 0.954000 600 44 1.000000 0.052000 0.052000 1.200000 0.042000 0.050000
1517698464988351232	800 40 1.000000 0.212000 0.216000 700 38 0.900000 1.047000 0.947000 600 43 1.000000 0.053000 0.053000 1.200000 0.039000 0.047000
1517698465498358399	800 41 1.000000 0.138000 0.141000 700 38 0.900000 0.710000 0.643000 600 44 1.000000 0.052000 0.052000 1.200000 0.046000 0.055000
1517698466040924024	800 40 1.000000 0.206000 0.210000 700 37 0.900000 1.041000 0.942000 600 44 1.000000 0.052000 0.052000 1.200000 0.039000 0.047000
1517698466550588941	800 40 1.000000 0.229000 0.233000 700 38 0.900000 1.085000 0.981000 600 43 1.000000 0.053000 0.053000 1.200000 0.038000 0.045000
1517698467066672441	800 40 1.000000 0.170000 0.173000 700 38 0.900000 0.766000 0.694000 600 44 1.000000 0.053000 0.053000 1.200000 0.045000 0.054000
1517698467604107899	800 40 1.000000 0.183000 0.187000 700 37 0.900000 1.047000 0.947000 600 44 1.000000 0.053000 0.053000 1.200000 0.039000 0.047000
1517698468113719441	800 39 1.000000 0.229000 0.233000 700 38 0.900000 1.079000 0.976000 600 43 1.000000 0.053000 0.053000 1.200000 0.038000 0.045000
1517698468639256649	800 40 1.000000 0.213000 0.217000 700 38 0.900000 0.722000 0.654000 600 44 1.000000 0.053000 0.053000 1.200000 0.044000 0.053000
1517698469178919316	800 40 1.000000 0.127000 0.129000 700 38 0.900000 1.038000 0.939000 600 44 1.000000 0.052000 0.052000 1.200000 0.040000 0.048000
1517698469688556900	800 40 1.000000 0.234000 0.238000 700 38 0.900000 1.074000 0.971000 600 43 1.000000 0.052000 0.052000 1.200000 0.039000 0.047000
1517698470232935316	800 41 1.000000 0.137000 0.140000 700 38 0.900000 0.742000 0.672000 600 44 1.000000 0.052000 0.052000 1.200000 0.044000 0.053000
1517698470792232900	800 40 1.000000 0.231000 0.235000 700 37 0.900000 1.048000 0.948000 600 44 1.000000 0.052000 0.052000 1.200000 0.039000 0.047000
1517698471335354941	800 41 1.000000 0.232000 0.236000 700 38 0.900000 1.065000 0.963000 600 44 1.000000 0.053000 0.053000 1.200000 0.037000 0.044000
1517698471900222900	800 41 1.000000 0.148000 0.151000 700 38 0.900000 0.731000 0.663000 600 44 1.000000 0.053000 0.053000 1.200000 0.046000 0.055000
1517698472460215442	800 40 1.000000 0.229000 0.233000 700 37 0.900000 1.050000 0.950000 600 44 1.000000 0.053000 0.053000 1.200000 0.038000 0.045000
1517698473022159442	800 41 1.000000 0.221000 0.225000 700 38 0.900000 0.957000 0.866000 600 44 1.000000 0.052000 0.052000 1.200000 0.038000 0.045000
1517698473584296067	800 40 1.000000 0.217000 0.221000 700 38 0.900000 0.855000 0.774000 600 44 1.000000 0.053000 0.053000 1.200000 0.040000 0.048000
1517698474152331067	800 40 1.000000 0.155000 0.158000 700 37 0.900000 1.049000 0.949000 600 43 1.000000 0.053000 0.053000 1.200000 0.042000 0.050000
1517698474716267859	800 41 1.000000 0.228000 0.232000 700 38 0.900000 1.041000 0.942000 600 44 1.000000 0.052000 0.052000 1.200000 0.036000 0.043000
1517698475232300609	800 40 1.000000 0.187000 0.191000 700 38 0.900000 0.666000 0.604000 600 44 1.000000 0.052000 0.052000 1.200000 0.045000 0.054000
1517698475743841317	800 40 1.000000 0.208000 0.212000 700 37 0.900000 1.074000 0.971000 600 43 1.000000 0.052000 0.052000 1.200000 0.039000 0.047000
1517698476304304442	800 41 1.000000 0.163000 0.166000 700 38 0.900000 1.040000 0.941000 600 44 1.000000 0.052000 0.052000 1.200000 0.037000 0.044000
1517698476864183067	800 40 1.000000 0.209000 0.213000 700 38 0.900000 0.848000 0.768000 600 43 1.000000 0.053000 0.053000 1.200000 0.038000 0.045000
1517698477373910150	800 39 1.000000 0.229000 0.233000 700 38 0.900000 1.041000 0.942000 600 43 1.000000 0.052000 0.052000 1.200000 0.040000 0.048000
1517698477883287192	800 41 1.000000 0.130000 0.132000 700 38 0.900000 0.771000 0.699000 600 44 1.000000 0.052000 0.052000 1.200000 0.046000 0.055000
1517698478444265776	800 40 1.000000 0.227000 0.231000 700 38 0.900000 1.056000 0.955000 600 44 1.000000 0.053000 0.053000 1.200000 0.038000 0.045000
1517698479000692484	800 41 1.000000 0.224000 0.228000 700 38 0.900000 1.041000 0.942000 600 44 1.000000 0.053000 0.053000 1.200000 0.044000 0.053000
1517698479556208401	800 40 1.000000 0.134000 0.137000 700 38 0.900000 0.719000 0.652000 600 44 1.000000 0.052000 0.052000 1.200000 0.039000 0.047000
1517698480076982067	800 40 1.000000 0.223000 0.227000 700 38 0.900000 1.049000 0.949000 600 43 1.000000 0.052000 0.052000 1.200000 0.039000 0.047000
1517698480586581068	800 41 1.000000 0.232000 0.236000 700 38 0.900000 1.034000 0.935000 600 44 1.000000 0.052000 0.052000 1.200000 0.047000 0.056000
1517698481144214693	800 40 1.000000 0.138000 0.141000 700 38 0.900000 0.884000 0.800000 600 44 1.000000 0.052000 0.052000 1.200000 0.039000 0.047000
1517698481653630484	800 40 1.000000 0.228000 0.232000 700 38 0.900000 1.040000 0.941000 600 43 1.000000 0.053000 0.053000 1.200000 0.039000 0.047000
1517698482162901609	800 41 1.000000 0.143000 0.146000 700 38 0.900000 0.753000 0.682000 600 44 1.000000 0.052000 0.052000 1.200000 0.044000 0.053000
1517698482724265526	800 40 1.000000 0.229000 0.233000 700 38 0.900000 1.062000 0.961000 600 44 1.000000 0.053000 0.053000 1.200000 0.040000 0.048000
1517698483272000568	800 41 1.000000 0.190000 0.193000 700 38 0.900000 1.029000 0.931000 600 44 1.000000 0.052000 0.052000 1.200000 0.044000 0.053000
1517698483781499860	800 38 1.000000 0.186000 0.190000 700 37 0.900000 0.655000 0.594000 600 41 1.000000 0.053000 0.053000 1.200000 0.039000 0.047000
1517698484291082485	800 37 1.000000 0.035000 0.035000 700 36 0.900000 0.081000 0.073000 600 40 1.000000 0.053000 0.053000 1.200000 0.023000 0.027000
