#Timestamp	CPU(0) Frequency(MHz)	CPU(0) Temperature(C)	A7 Voltage(V)	A7 Current(A)	A7 Power(W)	CPU(4) Frequency(MHz)	CPU(4) Temperature(C)	A15 Voltage(V)	A15 Current(A)	A15 Power(W)	GPU Frequency(MHz)	GPU Temperature(C)	GPU Voltage(V)	GPU Current(A)	GPU Power(W)	RAM Voltage(V)	RAM Current(A)	RAM Power(W)
1517247060243752712	1200 37 1.100000 0.060000 0.070000 300 35 0.900000 0.193000 0.175000 600 40 1.000000 0.051000 0.051000 1.200000 0.037000 0.044000
1517247060766515212	1200 39 1.100000 0.646000 0.746000 300 37 0.900000 0.423000 0.384000 600 40 1.000000 0.052000 0.052000 1.200000 0.025000 0.030000
1517247061289527587	1200 40 1.100000 0.645000 0.745000 300 38 0.900000 0.426000 0.386000 600 40 1.000000 0.052000 0.052000 1.200000 0.025000 0.030000
1517247061812315296	1200 40 1.100000 0.645000 0.745000 300 38 0.900000 0.429000 0.389000 600 41 1.000000 0.052000 0.052000 1.200000 0.024000 0.028000
1517247062335082796	1200 40 1.100000 0.646000 0.746000 300 38 0.900000 0.421000 0.382000 600 41 1.000000 0.052000 0.052000 1.200000 0.024000 0.028000
1517247062857780254	1200 40 1.100000 0.646000 0.746000 300 39 0.900000 0.418000 0.379000 600 41 1.000000 0.052000 0.052000 1.200000 0.024000 0.028000
1517247063380281754	1200 41 1.100000 0.647000 0.747000 300 39 0.900000 0.420000 0.381000 600 41 1.000000 0.052000 0.052000 1.200000 0.024000 0.028000
1517247063903059379	1200 41 1.100000 0.647000 0.747000 300 39 0.900000 0.420000 0.381000 600 41 1.000000 0.052000 0.052000 1.200000 0.024000 0.028000
1517247064426069213	1200 41 1.100000 0.647000 0.747000 300 39 0.900000 0.414000 0.375000 600 41 1.000000 0.052000 0.052000 1.200000 0.024000 0.028000
1517247064948936046	1200 41 1.100000 0.647000 0.747000 300 39 0.900000 0.413000 0.375000 600 41 1.000000 0.052000 0.052000 1.200000 0.023000 0.027000
1517247065471334255	1200 41 1.100000 0.647000 0.747000 300 39 0.900000 0.418000 0.379000 600 41 1.000000 0.052000 0.052000 1.200000 0.023000 0.027000
1517247065994166588	1200 41 1.100000 0.646000 0.746000 300 39 0.900000 0.418000 0.379000 600 41 1.000000 0.052000 0.052000 1.200000 0.024000 0.028000
1517247066517511255	1200 41 1.100000 0.645000 0.745000 300 39 0.900000 0.427000 0.387000 600 41 1.000000 0.052000 0.052000 1.200000 0.024000 0.028000
1517247067040359213	1200 41 1.100000 0.646000 0.746000 300 39 0.900000 0.424000 0.384000 600 41 1.000000 0.052000 0.052000 1.200000 0.024000 0.028000
1517247067562874338	1200 41 1.100000 0.646000 0.746000 300 39 0.900000 0.424000 0.384000 600 41 1.000000 0.052000 0.052000 1.200000 0.024000 0.028000
1517247068086305922	1200 41 1.100000 0.646000 0.746000 300 39 0.900000 0.423000 0.384000 600 41 1.000000 0.052000 0.052000 1.200000 0.024000 0.028000
1517247068608881838	1200 41 1.100000 0.646000 0.746000 300 39 0.900000 0.427000 0.387000 600 41 1.000000 0.052000 0.052000 1.200000 0.024000 0.028000
1517247069131934713	1200 41 1.100000 0.646000 0.746000 300 39 0.900000 0.431000 0.391000 600 41 1.000000 0.052000 0.052000 1.200000 0.024000 0.028000
1517247069654702630	1200 41 1.100000 0.646000 0.746000 300 39 0.900000 0.423000 0.384000 600 41 1.000000 0.052000 0.052000 1.200000 0.024000 0.028000
1517247070177447089	1200 41 1.100000 0.646000 0.746000 300 39 0.900000 0.433000 0.393000 600 41 1.000000 0.052000 0.052000 1.200000 0.024000 0.028000
1517247070700329630	1200 41 1.100000 0.647000 0.747000 300 39 0.900000 0.420000 0.381000 600 41 1.000000 0.052000 0.052000 1.200000 0.024000 0.028000
1517247071223229380	1200 41 1.100000 0.646000 0.746000 300 39 0.900000 0.430000 0.390000 600 41 1.000000 0.052000 0.052000 1.200000 0.024000 0.028000
1517247071745817172	1200 41 1.100000 0.646000 0.746000 300 39 0.900000 0.426000 0.386000 600 41 1.000000 0.053000 0.053000 1.200000 0.025000 0.030000
1517247072268574422	1200 41 1.100000 0.646000 0.746000 300 39 0.900000 0.427000 0.387000 600 41 1.000000 0.052000 0.052000 1.200000 0.024000 0.028000
1517247072791291714	1200 41 1.100000 0.646000 0.746000 300 39 0.900000 0.421000 0.382000 600 41 1.000000 0.052000 0.052000 1.200000 0.024000 0.028000
1517247073314138964	1200 41 1.100000 0.646000 0.746000 300 39 0.900000 0.426000 0.386000 600 41 1.000000 0.052000 0.052000 1.200000 0.024000 0.028000
1517247073836830672	1200 41 1.100000 0.646000 0.746000 300 39 0.900000 0.426000 0.386000 600 41 1.000000 0.053000 0.053000 1.200000 0.024000 0.028000
1517247074359504589	1200 41 1.100000 0.646000 0.746000 300 39 0.900000 0.425000 0.385000 600 41 1.000000 0.053000 0.053000 1.200000 0.024000 0.028000
1517247074881851297	1200 41 1.100000 0.646000 0.746000 300 39 0.900000 0.425000 0.385000 600 41 1.000000 0.052000 0.052000 1.200000 0.024000 0.028000
1517247075404204048	1200 41 1.100000 0.646000 0.746000 300 39 0.900000 0.421000 0.382000 600 41 1.000000 0.052000 0.052000 1.200000 0.024000 0.028000
1517247075926689506	1200 41 1.100000 0.647000 0.747000 300 39 0.900000 0.422000 0.383000 600 41 1.000000 0.052000 0.052000 1.200000 0.024000 0.028000
1517247076449731798	1200 41 1.100000 0.646000 0.746000 300 39 0.900000 0.423000 0.384000 600 41 1.000000 0.052000 0.052000 1.200000 0.024000 0.028000
1517247076972202589	1200 41 1.100000 0.646000 0.746000 300 39 0.900000 0.424000 0.384000 600 41 1.000000 0.053000 0.053000 1.200000 0.024000 0.028000
1517247077495011631	1200 41 1.100000 0.646000 0.746000 300 39 0.900000 0.431000 0.391000 600 41 1.000000 0.053000 0.053000 1.200000 0.024000 0.028000
1517247078017899881	1200 41 1.100000 0.646000 0.746000 300 39 0.900000 0.426000 0.386000 600 41 1.000000 0.052000 0.052000 1.200000 0.024000 0.028000
1517247078540577048	1200 41 1.100000 0.647000 0.747000 300 39 0.900000 0.423000 0.384000 600 41 1.000000 0.052000 0.052000 1.200000 0.024000 0.028000
1517247079063175923	1200 41 1.100000 0.647000 0.747000 300 39 0.900000 0.422000 0.383000 600 41 1.000000 0.052000 0.052000 1.200000 0.024000 0.028000
1517247079585764590	1200 41 1.100000 0.647000 0.747000 300 39 0.900000 0.424000 0.384000 600 41 1.000000 0.052000 0.052000 1.200000 0.024000 0.028000
1517247080108534965	1200 41 1.100000 0.647000 0.747000 300 39 0.900000 0.422000 0.383000 600 41 1.000000 0.052000 0.052000 1.200000 0.024000 0.028000
1517247080631307381	1200 41 1.100000 0.646000 0.746000 300 39 0.900000 0.419000 0.380000 600 41 1.000000 0.052000 0.052000 1.200000 0.024000 0.028000
1517247081153814048	1200 41 1.100000 0.646000 0.746000 300 39 0.900000 0.418000 0.379000 600 41 1.000000 0.052000 0.052000 1.200000 0.024000 0.028000
1517247081676508132	1200 41 1.100000 0.646000 0.746000 300 39 0.900000 0.420000 0.381000 600 41 1.000000 0.052000 0.052000 1.200000 0.023000 0.027000
1517247082199074840	1200 41 1.100000 0.646000 0.746000 300 39 0.900000 0.423000 0.384000 600 41 1.000000 0.052000 0.052000 1.200000 0.023000 0.027000
1517247082721975965	1200 41 1.100000 0.646000 0.746000 300 39 0.900000 0.422000 0.383000 600 41 1.000000 0.052000 0.052000 1.200000 0.023000 0.027000
1517247083244973840	1200 41 1.100000 0.646000 0.746000 300 39 0.900000 0.417000 0.378000 600 41 1.000000 0.052000 0.052000 1.200000 0.023000 0.027000
1517247083767341924	1200 41 1.100000 0.646000 0.746000 300 39 0.900000 0.412000 0.374000 600 41 1.000000 0.052000 0.052000 1.200000 0.023000 0.027000
1517247084290150882	1200 41 1.100000 0.646000 0.746000 300 39 0.900000 0.417000 0.378000 600 41 1.000000 0.052000 0.052000 1.200000 0.023000 0.027000
1517247084812796674	1200 41 1.100000 0.647000 0.747000 300 39 0.900000 0.414000 0.375000 600 41 1.000000 0.052000 0.052000 1.200000 0.023000 0.027000
1517247085335357632	1200 41 1.100000 0.647000 0.747000 300 39 0.900000 0.421000 0.382000 600 41 1.000000 0.052000 0.052000 1.200000 0.023000 0.027000
1517247085858136882	1200 41 1.100000 0.647000 0.747000 300 39 0.900000 0.419000 0.380000 600 41 1.000000 0.052000 0.052000 1.200000 0.023000 0.027000
1517247086380781132	1200 40 1.100000 0.647000 0.747000 300 39 0.900000 0.421000 0.382000 600 41 1.000000 0.052000 0.052000 1.200000 0.023000 0.027000
1517247086903727549	1200 41 1.100000 0.645000 0.745000 300 39 0.900000 0.419000 0.380000 600 41 1.000000 0.052000 0.052000 1.200000 0.023000 0.027000
1517247087426734799	1200 40 1.100000 0.646000 0.746000 300 39 0.900000 0.421000 0.382000 600 41 1.000000 0.052000 0.052000 1.200000 0.023000 0.027000
1517247087949571882	1200 40 1.100000 0.646000 0.746000 300 39 0.900000 0.418000 0.379000 600 41 1.000000 0.052000 0.052000 1.200000 0.023000 0.027000
1517247088472024007	1200 41 1.100000 0.646000 0.746000 300 39 0.900000 0.418000 0.379000 600 41 1.000000 0.052000 0.052000 1.200000 0.023000 0.027000
1517247088994770632	1200 40 1.100000 0.646000 0.746000 300 39 0.900000 0.421000 0.382000 600 41 1.000000 0.052000 0.052000 1.200000 0.023000 0.027000
1517247089517934008	1200 40 1.100000 0.646000 0.746000 300 39 0.900000 0.409000 0.371000 600 41 1.000000 0.052000 0.052000 1.200000 0.023000 0.027000
1517247090040588133	1200 40 1.100000 0.646000 0.746000 300 39 0.900000 0.417000 0.378000 600 41 1.000000 0.052000 0.052000 1.200000 0.023000 0.027000
1517247090563189174	1200 40 1.100000 0.647000 0.747000 300 39 0.900000 0.418000 0.379000 600 41 1.000000 0.052000 0.052000 1.200000 0.023000 0.027000
1517247091085799216	1200 40 1.100000 0.647000 0.747000 300 39 0.900000 0.417000 0.378000 600 41 1.000000 0.052000 0.052000 1.200000 0.023000 0.027000
1517247091608543133	1200 40 1.100000 0.647000 0.747000 300 39 0.900000 0.424000 0.384000 600 41 1.000000 0.052000 0.052000 1.200000 0.023000 0.027000
1517247092131330883	1200 40 1.100000 0.646000 0.746000 300 39 0.900000 0.427000 0.387000 600 41 1.000000 0.052000 0.052000 1.200000 0.023000 0.027000
1517247092654214133	1200 40 1.100000 0.647000 0.747000 300 38 0.900000 0.424000 0.384000 600 41 1.000000 0.052000 0.052000 1.200000 0.023000 0.027000
1517247093176512091	1200 40 1.100000 0.646000 0.746000 300 38 0.900000 0.433000 0.393000 600 41 1.000000 0.052000 0.052000 1.200000 0.024000 0.028000
1517247093699123466	1200 40 1.100000 0.646000 0.746000 300 38 0.900000 0.423000 0.384000 600 41 1.000000 0.052000 0.052000 1.200000 0.023000 0.027000
1517247094222480758	1200 40 1.100000 0.646000 0.746000 300 38 0.900000 0.421000 0.382000 600 41 1.000000 0.052000 0.052000 1.200000 0.024000 0.028000
1517247094745570758	1200 40 1.100000 0.645000 0.745000 300 39 0.900000 0.418000 0.379000 600 41 1.000000 0.052000 0.052000 1.200000 0.024000 0.028000
1517247095268724092	1200 40 1.100000 0.646000 0.746000 300 38 0.900000 0.426000 0.386000 600 41 1.000000 0.052000 0.052000 1.200000 0.024000 0.028000
1517247095791717425	1200 40 1.100000 0.646000 0.746000 300 38 0.900000 0.425000 0.385000 600 41 1.000000 0.052000 0.052000 1.200000 0.024000 0.028000
1517247096314292508	1200 40 1.100000 0.645000 0.745000 300 38 0.900000 0.426000 0.386000 600 41 1.000000 0.052000 0.052000 1.200000 0.024000 0.028000
1517247096836961383	1200 40 1.100000 0.646000 0.746000 300 38 0.900000 0.427000 0.387000 600 41 1.000000 0.052000 0.052000 1.200000 0.024000 0.028000
1517247097359930342	1200 40 1.100000 0.645000 0.745000 300 38 0.900000 0.424000 0.384000 600 41 1.000000 0.052000 0.052000 1.200000 0.024000 0.028000
1517247097882679384	1200 40 1.100000 0.646000 0.746000 300 38 0.900000 0.424000 0.384000 600 41 1.000000 0.052000 0.052000 1.200000 0.023000 0.027000
1517247098405385925	1200 40 1.100000 0.646000 0.746000 300 38 0.900000 0.431000 0.391000 600 41 1.000000 0.052000 0.052000 1.200000 0.023000 0.027000
1517247098927744967	1200 40 1.100000 0.646000 0.746000 300 38 0.900000 0.425000 0.385000 600 40 1.000000 0.052000 0.052000 1.200000 0.023000 0.027000
1517247099450657217	1200 40 1.100000 0.646000 0.746000 300 38 0.900000 0.418000 0.379000 600 40 1.000000 0.052000 0.052000 1.200000 0.023000 0.027000
1517247099973455092	1200 40 1.100000 0.646000 0.746000 300 38 0.900000 0.420000 0.381000 600 41 1.000000 0.052000 0.052000 1.200000 0.024000 0.028000
1517247100496359967	1200 40 1.100000 0.645000 0.744000 300 38 0.900000 0.425000 0.385000 600 40 1.000000 0.052000 0.052000 1.200000 0.024000 0.028000
1517247101018978801	1200 40 1.100000 0.646000 0.746000 300 38 0.900000 0.429000 0.389000 600 40 1.000000 0.052000 0.052000 1.200000 0.024000 0.028000
1517247101541844467	1200 40 1.100000 0.645000 0.745000 300 38 0.900000 0.424000 0.384000 600 41 1.000000 0.052000 0.052000 1.200000 0.024000 0.028000
1517247102064252426	1200 40 1.100000 0.646000 0.746000 300 38 0.900000 0.420000 0.381000 600 41 1.000000 0.052000 0.052000 1.200000 0.024000 0.028000
1517247102587365092	1200 40 1.100000 0.646000 0.746000 300 38 0.900000 0.422000 0.383000 600 40 1.000000 0.052000 0.052000 1.200000 0.024000 0.028000
1517247103109827967	1200 40 1.100000 0.645000 0.744000 300 38 0.900000 0.423000 0.384000 600 40 1.000000 0.052000 0.052000 1.200000 0.024000 0.028000
1517247103632629009	1200 40 1.100000 0.645000 0.744000 300 38 0.900000 0.417000 0.378000 600 40 1.000000 0.052000 0.052000 1.200000 0.024000 0.028000
1517247104154867343	1200 40 1.100000 0.646000 0.746000 300 38 0.900000 0.421000 0.382000 600 40 1.000000 0.052000 0.052000 1.200000 0.024000 0.028000
1517247104678199218	1200 40 1.100000 0.646000 0.746000 300 38 0.900000 0.422000 0.383000 600 40 1.000000 0.053000 0.053000 1.200000 0.024000 0.028000
1517247105200954593	1200 40 1.100000 0.646000 0.746000 300 38 0.900000 0.421000 0.382000 600 40 1.000000 0.052000 0.052000 1.200000 0.024000 0.028000
1517247105723372551	1200 40 1.100000 0.646000 0.746000 300 38 0.900000 0.421000 0.382000 600 40 1.000000 0.052000 0.052000 1.200000 0.024000 0.028000
1517247106245828218	1200 40 1.100000 0.646000 0.746000 300 38 0.900000 0.421000 0.382000 600 40 1.000000 0.052000 0.052000 1.200000 0.024000 0.028000
1517247106768612426	1200 40 1.100000 0.645000 0.745000 300 38 0.900000 0.423000 0.384000 600 40 1.000000 0.052000 0.052000 1.200000 0.024000 0.028000
1517247107291675551	1200 40 1.100000 0.646000 0.746000 300 38 0.900000 0.424000 0.384000 600 40 1.000000 0.052000 0.052000 1.200000 0.024000 0.028000
1517247107814581468	1200 40 1.100000 0.646000 0.746000 300 38 0.900000 0.418000 0.379000 600 40 1.000000 0.052000 0.052000 1.200000 0.024000 0.028000
1517247108337349010	1200 40 1.100000 0.645000 0.744000 300 38 0.900000 0.427000 0.387000 600 40 1.000000 0.052000 0.052000 1.200000 0.024000 0.028000
1517247108859811885	1200 40 1.100000 0.646000 0.746000 300 38 0.900000 0.425000 0.385000 600 40 1.000000 0.052000 0.052000 1.200000 0.024000 0.028000
1517247109382593427	1200 40 1.100000 0.646000 0.746000 300 38 0.900000 0.425000 0.385000 600 40 1.000000 0.052000 0.052000 1.200000 0.024000 0.028000
1517247109905334010	1200 40 1.100000 0.646000 0.746000 300 38 0.900000 0.419000 0.380000 600 40 1.000000 0.052000 0.052000 1.200000 0.024000 0.028000
1517247110428198885	1200 40 1.100000 0.646000 0.746000 300 38 0.900000 0.426000 0.386000 600 40 1.000000 0.052000 0.052000 1.200000 0.024000 0.028000
1517247110950841718	1200 40 1.100000 0.646000 0.746000 300 38 0.900000 0.416000 0.377000 600 40 1.000000 0.052000 0.052000 1.200000 0.024000 0.028000
1517247111473366135	1200 40 1.100000 0.646000 0.746000 300 38 0.900000 0.415000 0.376000 600 40 1.000000 0.052000 0.052000 1.200000 0.024000 0.028000
1517247111996229302	1200 40 1.100000 0.646000 0.746000 300 38 0.900000 0.418000 0.379000 600 40 1.000000 0.052000 0.052000 1.200000 0.024000 0.028000
1517247112518822260	1200 40 1.100000 0.646000 0.746000 300 38 0.900000 0.415000 0.376000 600 40 1.000000 0.052000 0.052000 1.200000 0.024000 0.028000
1517247113041259969	1200 40 1.100000 0.645000 0.745000 300 38 0.900000 0.412000 0.374000 600 40 1.000000 0.052000 0.052000 1.200000 0.024000 0.028000
1517247113564242344	1200 40 1.100000 0.646000 0.746000 300 38 0.900000 0.418000 0.379000 600 40 1.000000 0.052000 0.052000 1.200000 0.024000 0.028000
1517247114086932344	1200 40 1.100000 0.645000 0.745000 300 38 0.900000 0.417000 0.378000 600 40 1.000000 0.052000 0.052000 1.200000 0.024000 0.028000
1517247114609949969	1200 40 1.100000 0.646000 0.746000 300 38 0.900000 0.423000 0.384000 600 40 1.000000 0.052000 0.052000 1.200000 0.023000 0.027000
1517247115132939594	1200 40 1.100000 0.646000 0.746000 300 38 0.900000 0.415000 0.376000 600 40 1.000000 0.052000 0.052000 1.200000 0.023000 0.027000
1517247115656009302	1200 40 1.100000 0.646000 0.746000 300 38 0.900000 0.419000 0.380000 600 40 1.000000 0.052000 0.052000 1.200000 0.023000 0.027000
1517247116178631969	1200 40 1.100000 0.646000 0.746000 300 38 0.900000 0.417000 0.378000 600 40 1.000000 0.052000 0.052000 1.200000 0.023000 0.027000
1517247116701902719	1200 40 1.100000 0.646000 0.746000 300 38 0.900000 0.415000 0.376000 600 40 1.000000 0.052000 0.052000 1.200000 0.023000 0.027000
1517247117225160469	1200 40 1.100000 0.646000 0.746000 300 38 0.900000 0.420000 0.381000 600 40 1.000000 0.052000 0.052000 1.200000 0.023000 0.027000
1517247117747700261	1200 40 1.100000 0.646000 0.746000 300 38 0.900000 0.415000 0.376000 600 40 1.000000 0.052000 0.052000 1.200000 0.023000 0.027000
1517247118270856678	1200 40 1.100000 0.645000 0.745000 300 38 0.900000 0.416000 0.377000 600 40 1.000000 0.052000 0.052000 1.200000 0.023000 0.027000
1517247118793829844	1200 40 1.100000 0.645000 0.745000 300 38 0.900000 0.417000 0.378000 600 40 1.000000 0.052000 0.052000 1.200000 0.023000 0.027000
1517247119316452053	1200 40 1.100000 0.645000 0.744000 300 38 0.900000 0.415000 0.376000 600 40 1.000000 0.052000 0.052000 1.200000 0.023000 0.027000
1517247119839149136	1200 40 1.100000 0.646000 0.746000 300 38 0.900000 0.419000 0.380000 600 40 1.000000 0.052000 0.052000 1.200000 0.023000 0.027000
1517247120362140761	1200 40 1.100000 0.646000 0.746000 300 38 0.900000 0.418000 0.379000 600 40 1.000000 0.052000 0.052000 1.200000 0.023000 0.027000
1517247120884681970	1200 40 1.100000 0.646000 0.746000 300 38 0.900000 0.420000 0.381000 600 40 1.000000 0.052000 0.052000 1.200000 0.023000 0.027000
1517247121407435261	1200 40 1.100000 0.646000 0.746000 300 38 0.900000 0.416000 0.377000 600 40 1.000000 0.052000 0.052000 1.200000 0.023000 0.027000
1517247121931251886	1200 40 1.100000 0.645000 0.745000 300 38 0.900000 0.415000 0.376000 600 40 1.000000 0.052000 0.052000 1.200000 0.024000 0.028000
1517247122454229136	1200 40 1.100000 0.645000 0.745000 300 38 0.900000 0.420000 0.381000 600 40 1.000000 0.052000 0.052000 1.200000 0.024000 0.028000
1517247122976825845	1200 40 1.100000 0.646000 0.746000 300 38 0.900000 0.424000 0.384000 600 40 1.000000 0.052000 0.052000 1.200000 0.024000 0.028000
1517247123499485178	1200 40 1.100000 0.645000 0.745000 300 38 0.900000 0.415000 0.376000 600 40 1.000000 0.052000 0.052000 1.200000 0.024000 0.028000
1517247124022163387	1200 40 1.100000 0.645000 0.745000 300 38 0.900000 0.423000 0.384000 600 40 1.000000 0.052000 0.052000 1.200000 0.024000 0.028000
1517247124544694637	1200 40 1.100000 0.645000 0.745000 300 38 0.900000 0.420000 0.381000 600 40 1.000000 0.052000 0.052000 1.200000 0.024000 0.028000
1517247125067517428	1200 40 1.100000 0.645000 0.745000 300 38 0.900000 0.423000 0.384000 600 40 1.000000 0.052000 0.052000 1.200000 0.024000 0.028000
1517247125590527345	1200 40 1.100000 0.646000 0.746000 300 38 0.900000 0.427000 0.387000 600 40 1.000000 0.052000 0.052000 1.200000 0.024000 0.028000
1517247126113314970	1200 40 1.100000 0.646000 0.746000 300 38 0.900000 0.424000 0.384000 600 40 1.000000 0.052000 0.052000 1.200000 0.024000 0.028000
1517247126636142262	1200 40 1.100000 0.645000 0.745000 300 38 0.900000 0.425000 0.385000 600 40 1.000000 0.052000 0.052000 1.200000 0.024000 0.028000
1517247127159217387	1200 40 1.100000 0.646000 0.746000 300 38 0.900000 0.424000 0.384000 600 40 1.000000 0.052000 0.052000 1.200000 0.024000 0.028000
1517247127681899095	1200 40 1.100000 0.645000 0.745000 300 38 0.900000 0.419000 0.380000 600 40 1.000000 0.052000 0.052000 1.200000 0.024000 0.028000
1517247128204398054	1200 40 1.100000 0.645000 0.745000 300 38 0.900000 0.418000 0.379000 600 40 1.000000 0.052000 0.052000 1.200000 0.024000 0.028000
1517247128727597762	1200 40 1.100000 0.645000 0.745000 300 38 0.900000 0.421000 0.382000 600 40 1.000000 0.052000 0.052000 1.200000 0.024000 0.028000
1517247129250693471	1200 40 1.100000 0.645000 0.745000 300 38 0.900000 0.417000 0.378000 600 40 1.000000 0.052000 0.052000 1.200000 0.024000 0.028000
1517247129773426137	1200 40 1.100000 0.645000 0.745000 300 38 0.900000 0.418000 0.379000 600 40 1.000000 0.052000 0.052000 1.200000 0.024000 0.028000
1517247130296605554	1200 40 1.100000 0.646000 0.746000 300 38 0.900000 0.425000 0.385000 600 40 1.000000 0.052000 0.052000 1.200000 0.024000 0.028000
1517247130819577637	1200 40 1.100000 0.646000 0.746000 300 38 0.900000 0.423000 0.384000 600 40 1.000000 0.052000 0.052000 1.200000 0.024000 0.028000
1517247131342714721	1200 40 1.100000 0.645000 0.745000 300 38 0.900000 0.420000 0.381000 600 40 1.000000 0.052000 0.052000 1.200000 0.023000 0.027000
1517247131865473638	1200 40 1.100000 0.646000 0.746000 300 38 0.900000 0.420000 0.381000 600 40 1.000000 0.052000 0.052000 1.200000 0.023000 0.027000
1517247132388111388	1200 40 1.100000 0.645000 0.745000 300 38 0.900000 0.421000 0.382000 600 40 1.000000 0.052000 0.052000 1.200000 0.023000 0.027000
1517247132911062929	1200 40 1.100000 0.645000 0.745000 300 38 0.900000 0.425000 0.385000 600 40 1.000000 0.052000 0.052000 1.200000 0.023000 0.027000
1517247133434005554	1200 40 1.100000 0.645000 0.745000 300 38 0.900000 0.422000 0.383000 600 40 1.000000 0.052000 0.052000 1.200000 0.023000 0.027000
1517247133956680013	1200 40 1.100000 0.645000 0.745000 300 38 0.900000 0.426000 0.386000 600 40 1.000000 0.052000 0.052000 1.200000 0.023000 0.027000
1517247134479477013	1200 40 1.100000 0.645000 0.745000 300 38 0.900000 0.420000 0.381000 600 40 1.000000 0.052000 0.052000 1.200000 0.023000 0.027000
1517247135002232221	1200 40 1.100000 0.646000 0.746000 300 38 0.900000 0.423000 0.384000 600 40 1.000000 0.052000 0.052000 1.200000 0.023000 0.027000
1517247135523853471	1200 36 1.100000 0.323000 0.376000 300 36 0.900000 0.423000 0.384000 600 39 1.000000 0.052000 0.052000 1.200000 0.025000 0.030000
1517247136045258013	1200 35 1.100000 0.060000 0.070000 300 35 0.900000 0.062000 0.056000 600 39 1.000000 0.052000 0.052000 1.200000 0.022000 0.026000
