#Timestamp	CPU(0) Frequency(MHz)	CPU(0) Temperature(C)	A7 Voltage(V)	A7 Current(A)	A7 Power(W)	CPU(4) Frequency(MHz)	CPU(4) Temperature(C)	A15 Voltage(V)	A15 Current(A)	A15 Power(W)	GPU Frequency(MHz)	GPU Temperature(C)	GPU Voltage(V)	GPU Current(A)	GPU Power(W)	RAM Voltage(V)	RAM Current(A)	RAM Power(W)
1517953309027485612	600 33 0.900000 0.074000 0.072000 800 31 0.900000 0.112000 0.103000 600 36 1.000000 0.051000 0.051000 1.200000 0.046000 0.055000
1517953309536615862	600 34 0.900000 0.092000 0.087000 800 31 0.900000 0.974000 0.893000 600 38 1.000000 0.051000 0.051000 1.200000 0.040000 0.048000
1517953310045652112	600 34 0.900000 0.098000 0.093000 800 31 0.900000 0.957000 0.878000 600 38 1.000000 0.051000 0.051000 1.200000 0.033000 0.039000
1517953310554659279	600 35 0.900000 0.066000 0.062000 800 31 0.900000 0.759000 0.698000 600 38 1.000000 0.052000 0.052000 1.200000 0.041000 0.049000
1517953311063673279	600 35 0.900000 0.094000 0.089000 800 32 0.900000 0.983000 0.902000 600 39 1.000000 0.052000 0.052000 1.200000 0.032000 0.038000
1517953311572976737	600 35 0.900000 0.090000 0.085000 800 32 0.900000 0.960000 0.880000 600 39 1.000000 0.051000 0.051000 1.200000 0.032000 0.038000
1517953312082048362	600 35 0.900000 0.098000 0.093000 800 32 0.900000 0.986000 0.904000 600 38 1.000000 0.052000 0.052000 1.200000 0.045000 0.054000
1517953312591397238	600 35 0.900000 0.094000 0.089000 800 32 0.900000 0.953000 0.874000 600 38 1.000000 0.052000 0.052000 1.200000 0.032000 0.038000
1517953313100527404	600 35 0.900000 0.102000 0.096000 800 32 0.900000 1.009000 0.926000 600 39 1.000000 0.051000 0.051000 1.200000 0.049000 0.059000
1517953313609784654	600 35 0.900000 0.094000 0.089000 800 32 0.900000 0.998000 0.915000 600 38 1.000000 0.052000 0.052000 1.200000 0.034000 0.041000
1517953314118869071	600 35 0.900000 0.091000 0.086000 800 32 0.900000 0.817000 0.751000 600 39 1.000000 0.052000 0.052000 1.200000 0.045000 0.054000
1517953314628038904	600 35 0.900000 0.096000 0.091000 800 32 0.900000 0.945000 0.867000 600 39 1.000000 0.052000 0.052000 1.200000 0.033000 0.039000
1517953315137136696	600 36 0.900000 0.083000 0.078000 800 32 0.900000 0.740000 0.679000 600 39 1.000000 0.052000 0.052000 1.200000 0.043000 0.051000
1517953315646306613	600 35 0.900000 0.092000 0.087000 800 32 0.900000 0.978000 0.896000 600 39 1.000000 0.052000 0.052000 1.200000 0.033000 0.039000
1517953316155453280	600 36 0.900000 0.086000 0.081000 800 32 0.900000 0.745000 0.685000 600 39 1.000000 0.051000 0.051000 1.200000 0.038000 0.045000
1517953316664577946	600 35 0.900000 0.096000 0.091000 800 32 0.900000 0.991000 0.908000 600 39 1.000000 0.052000 0.052000 1.200000 0.034000 0.041000
1517953317173733280	600 36 0.900000 0.094000 0.089000 800 32 0.900000 0.797000 0.733000 600 39 1.000000 0.051000 0.051000 1.200000 0.034000 0.041000
1517953317682798655	600 36 0.900000 0.095000 0.090000 800 32 0.900000 0.954000 0.874000 600 40 1.000000 0.052000 0.052000 1.200000 0.034000 0.041000
1517953318192214738	600 36 0.900000 0.104000 0.098000 800 32 0.900000 0.873000 0.801000 600 39 1.000000 0.052000 0.052000 1.200000 0.038000 0.045000
1517953318702161447	600 36 0.900000 0.071000 0.067000 800 33 0.900000 0.900000 0.826000 600 40 1.000000 0.051000 0.051000 1.200000 0.046000 0.055000
1517953319212167363	600 35 0.900000 0.107000 0.101000 800 32 0.900000 1.004000 0.920000 600 39 1.000000 0.052000 0.052000 1.200000 0.049000 0.059000
1517953319721223780	600 36 0.900000 0.068000 0.064000 800 33 0.900000 0.794000 0.728000 600 40 1.000000 0.052000 0.052000 1.200000 0.043000 0.052000
1517953320230354363	600 36 0.900000 0.094000 0.089000 800 32 0.900000 0.957000 0.877000 600 40 1.000000 0.052000 0.052000 1.200000 0.036000 0.043000
1517953320739575114	600 36 0.900000 0.066000 0.062000 800 33 0.900000 0.777000 0.714000 600 40 1.000000 0.052000 0.052000 1.200000 0.041000 0.049000
1517953321248680989	600 36 0.900000 0.099000 0.094000 800 32 0.900000 0.957000 0.877000 600 40 1.000000 0.052000 0.052000 1.200000 0.035000 0.042000
1517953321757891572	600 36 0.900000 0.096000 0.091000 800 33 0.900000 0.760000 0.699000 600 39 1.000000 0.051000 0.051000 1.200000 0.041000 0.049000
1517953322267085864	600 36 0.900000 0.096000 0.091000 800 33 0.900000 0.989000 0.906000 600 40 1.000000 0.052000 0.052000 1.200000 0.035000 0.042000
1517953322776239447	600 36 0.900000 0.098000 0.093000 800 33 0.900000 0.769000 0.705000 600 40 1.000000 0.051000 0.051000 1.200000 0.035000 0.042000
1517953323285325447	600 36 0.900000 0.102000 0.096000 800 33 0.900000 1.022000 0.937000 600 40 1.000000 0.051000 0.051000 1.200000 0.040000 0.048000
1517953323794705489	600 35 0.900000 0.096000 0.091000 800 32 0.900000 0.797000 0.731000 600 39 1.000000 0.052000 0.052000 1.200000 0.034000 0.041000
1517953324303988822	600 36 0.900000 0.095000 0.090000 800 33 0.900000 0.941000 0.862000 600 40 1.000000 0.052000 0.052000 1.200000 0.033000 0.039000
1517953324813269281	600 35 0.900000 0.095000 0.090000 800 33 0.900000 0.946000 0.868000 600 38 1.000000 0.052000 0.052000 1.200000 0.033000 0.039000
1517953325322392281	600 36 0.900000 0.096000 0.091000 800 33 0.900000 0.993000 0.910000 600 40 1.000000 0.052000 0.052000 1.200000 0.035000 0.042000
1517953325833995031	600 36 0.900000 0.093000 0.088000 800 33 0.900000 0.959000 0.879000 600 40 1.000000 0.052000 0.052000 1.200000 0.034000 0.041000
1517953326344081573	600 36 0.900000 0.071000 0.067000 800 33 0.900000 0.777000 0.713000 600 40 1.000000 0.052000 0.052000 1.200000 0.043000 0.051000
1517953326853165073	600 36 0.900000 0.095000 0.090000 800 33 0.900000 0.958000 0.879000 600 40 1.000000 0.052000 0.052000 1.200000 0.035000 0.042000
1517953327362384823	600 36 0.900000 0.093000 0.088000 800 33 0.900000 0.752000 0.689000 600 39 1.000000 0.052000 0.052000 1.200000 0.037000 0.044000
1517953327871421864	600 36 0.900000 0.096000 0.091000 800 33 0.900000 0.988000 0.905000 600 40 1.000000 0.052000 0.052000 1.200000 0.035000 0.042000
1517953328380573073	600 36 0.900000 0.094000 0.089000 800 33 0.900000 0.976000 0.894000 600 40 1.000000 0.052000 0.052000 1.200000 0.042000 0.050000
1517953328889695614	600 36 0.900000 0.097000 0.092000 800 33 0.900000 0.987000 0.905000 600 40 1.000000 0.052000 0.052000 1.200000 0.034000 0.041000
1517953329398867198	600 36 0.900000 0.109000 0.103000 800 33 0.900000 1.035000 0.949000 600 39 1.000000 0.052000 0.052000 1.200000 0.035000 0.042000
1517953329908108365	600 36 0.900000 0.094000 0.089000 800 33 0.900000 0.895000 0.821000 600 40 1.000000 0.052000 0.052000 1.200000 0.034000 0.041000
1517953330417177073	600 35 0.900000 0.092000 0.087000 800 33 0.900000 1.012000 0.928000 600 39 1.000000 0.052000 0.052000 1.200000 0.033000 0.039000
1517953330926299031	600 36 0.900000 0.094000 0.089000 800 33 0.900000 0.865000 0.795000 600 40 1.000000 0.052000 0.052000 1.200000 0.034000 0.041000
1517953331435559656	600 36 0.900000 0.091000 0.086000 800 33 0.900000 0.993000 0.910000 600 39 1.000000 0.052000 0.052000 1.200000 0.033000 0.039000
1517953331944798865	600 36 0.900000 0.094000 0.089000 800 33 0.900000 0.802000 0.737000 600 39 1.000000 0.052000 0.052000 1.200000 0.036000 0.043000
1517953332453840615	600 36 0.900000 0.091000 0.086000 800 33 0.900000 0.961000 0.881000 600 40 1.000000 0.052000 0.052000 1.200000 0.035000 0.042000
1517953332962949573	600 36 0.900000 0.095000 0.090000 800 33 0.900000 0.748000 0.686000 600 40 1.000000 0.052000 0.052000 1.200000 0.037000 0.044000
1517953333472330240	600 36 0.900000 0.099000 0.094000 800 33 0.900000 0.997000 0.914000 600 40 1.000000 0.052000 0.052000 1.200000 0.042000 0.050000
1517953333981387198	600 36 0.900000 0.098000 0.093000 800 33 0.900000 1.002000 0.918000 600 40 1.000000 0.052000 0.052000 1.200000 0.043000 0.051000
1517953334490397032	600 36 0.900000 0.098000 0.093000 800 33 0.900000 0.994000 0.911000 600 40 1.000000 0.052000 0.052000 1.200000 0.036000 0.043000
1517953334999666115	600 36 0.900000 0.095000 0.090000 800 33 0.900000 0.991000 0.908000 600 39 1.000000 0.051000 0.051000 1.200000 0.042000 0.050000
1517953335508798824	600 36 0.900000 0.095000 0.090000 800 33 0.900000 0.999000 0.916000 600 40 1.000000 0.052000 0.052000 1.200000 0.034000 0.041000
1517953336018010782	600 36 0.900000 0.094000 0.089000 800 33 0.900000 0.994000 0.911000 600 40 1.000000 0.051000 0.051000 1.200000 0.039000 0.047000
1517953336527037740	600 36 0.900000 0.097000 0.092000 800 33 0.900000 0.996000 0.913000 600 40 1.000000 0.052000 0.052000 1.200000 0.034000 0.041000
1517953337036299199	600 36 0.900000 0.095000 0.090000 800 33 0.900000 0.960000 0.880000 600 40 1.000000 0.052000 0.052000 1.200000 0.035000 0.042000
1517953337545276699	600 36 0.900000 0.094000 0.089000 800 33 0.900000 1.014000 0.929000 600 40 1.000000 0.052000 0.052000 1.200000 0.034000 0.041000
1517953338054512657	600 36 0.900000 0.098000 0.093000 800 33 0.900000 0.950000 0.871000 600 39 1.000000 0.051000 0.051000 1.200000 0.036000 0.043000
1517953338563822407	600 36 0.900000 0.104000 0.098000 800 33 0.900000 1.039000 0.953000 600 40 1.000000 0.052000 0.052000 1.200000 0.035000 0.042000
1517953339075848449	600 35 0.900000 0.102000 0.096000 800 33 0.900000 1.002000 0.918000 600 39 1.000000 0.052000 0.052000 1.200000 0.042000 0.050000
1517953339585936991	600 36 0.900000 0.096000 0.091000 800 33 0.900000 0.945000 0.867000 600 40 1.000000 0.052000 0.052000 1.200000 0.056000 0.067000
1517953340094923532	600 36 0.900000 0.090000 0.085000 800 33 0.900000 0.991000 0.908000 600 40 1.000000 0.052000 0.052000 1.200000 0.035000 0.042000
1517953340604134241	600 36 0.900000 0.100000 0.095000 800 33 0.900000 0.964000 0.884000 600 40 1.000000 0.052000 0.052000 1.200000 0.034000 0.041000
1517953341113091116	600 36 0.900000 0.098000 0.093000 800 33 0.900000 0.992000 0.909000 600 40 1.000000 0.052000 0.052000 1.200000 0.036000 0.043000
1517953341622220908	600 36 0.900000 0.096000 0.091000 800 33 0.900000 0.988000 0.905000 600 39 1.000000 0.052000 0.052000 1.200000 0.035000 0.042000
1517953342131410366	600 36 0.900000 0.097000 0.092000 800 33 0.900000 1.013000 0.928000 600 40 1.000000 0.052000 0.052000 1.200000 0.039000 0.047000
1517953342640632449	600 36 0.900000 0.096000 0.091000 800 33 0.900000 0.997000 0.915000 600 40 1.000000 0.052000 0.052000 1.200000 0.034000 0.041000
1517953343149720200	600 36 0.900000 0.097000 0.092000 800 33 0.900000 1.003000 0.919000 600 40 1.000000 0.052000 0.052000 1.200000 0.042000 0.050000
1517953343659001366	600 36 0.900000 0.102000 0.096000 800 33 0.900000 1.008000 0.924000 600 39 1.000000 0.051000 0.051000 1.200000 0.038000 0.045000
1517953344168178533	600 36 0.900000 0.097000 0.092000 800 33 0.900000 1.001000 0.917000 600 40 1.000000 0.052000 0.052000 1.200000 0.043000 0.052000
1517953344677587283	600 34 0.900000 0.090000 0.085000 800 33 0.900000 0.996000 0.913000 600 40 1.000000 0.052000 0.052000 1.200000 0.035000 0.042000
1517953345186874366	600 36 0.900000 0.096000 0.091000 800 33 0.900000 0.986000 0.904000 600 40 1.000000 0.052000 0.052000 1.200000 0.046000 0.055000
1517953345696035408	600 36 0.900000 0.091000 0.086000 800 33 0.900000 0.992000 0.909000 600 40 1.000000 0.052000 0.052000 1.200000 0.035000 0.042000
1517953346205174367	600 36 0.900000 0.071000 0.067000 800 33 0.900000 0.831000 0.764000 600 40 1.000000 0.052000 0.052000 1.200000 0.046000 0.055000
1517953346714329033	600 36 0.900000 0.096000 0.091000 800 33 0.900000 0.967000 0.886000 600 40 1.000000 0.052000 0.052000 1.200000 0.035000 0.042000
1517953347223575075	600 36 0.900000 0.070000 0.066000 800 33 0.900000 0.773000 0.711000 600 40 1.000000 0.052000 0.052000 1.200000 0.041000 0.049000
1517953347732718492	600 36 0.900000 0.097000 0.092000 800 33 0.900000 0.945000 0.866000 600 40 1.000000 0.052000 0.052000 1.200000 0.034000 0.041000
1517953348241902575	600 36 0.900000 0.092000 0.087000 800 33 0.900000 1.002000 0.918000 600 40 1.000000 0.052000 0.052000 1.200000 0.035000 0.042000
1517953348750950200	600 36 0.900000 0.099000 0.094000 800 33 0.900000 1.033000 0.947000 600 40 1.000000 0.052000 0.052000 1.200000 0.042000 0.050000
1517953349260520742	600 36 0.900000 0.092000 0.087000 800 33 0.900000 0.964000 0.883000 600 40 1.000000 0.052000 0.052000 1.200000 0.035000 0.042000
1517953349769766825	600 36 0.900000 0.114000 0.108000 800 33 0.900000 1.039000 0.952000 600 40 1.000000 0.052000 0.052000 1.200000 0.061000 0.073000
1517953350279232159	600 35 0.900000 0.097000 0.092000 800 33 0.900000 1.000000 0.917000 600 38 1.000000 0.052000 0.052000 1.200000 0.034000 0.041000
1517953350788553367	600 36 0.900000 0.097000 0.092000 800 33 0.900000 0.976000 0.894000 600 40 1.000000 0.052000 0.052000 1.200000 0.046000 0.055000
1517953351297674992	600 36 0.900000 0.097000 0.092000 800 33 0.900000 1.002000 0.918000 600 40 1.000000 0.052000 0.052000 1.200000 0.035000 0.042000
1517953351806904367	600 36 0.900000 0.091000 0.086000 800 33 0.900000 0.819000 0.753000 600 40 1.000000 0.052000 0.052000 1.200000 0.044000 0.053000
1517953352316092867	600 36 0.900000 0.096000 0.091000 800 33 0.900000 0.956000 0.876000 600 40 1.000000 0.052000 0.052000 1.200000 0.035000 0.042000
1517953352825228867	600 36 0.900000 0.076000 0.072000 800 33 0.900000 0.763000 0.698000 600 40 1.000000 0.051000 0.051000 1.200000 0.042000 0.050000
1517953353334189742	600 36 0.900000 0.095000 0.090000 800 33 0.900000 0.946000 0.867000 600 40 1.000000 0.052000 0.052000 1.200000 0.035000 0.042000
1517953353843472534	600 36 0.900000 0.089000 0.084000 800 33 0.900000 0.800000 0.734000 600 40 1.000000 0.052000 0.052000 1.200000 0.044000 0.053000
1517953354352527159	600 36 0.900000 0.092000 0.087000 800 33 0.900000 0.998000 0.915000 600 40 1.000000 0.052000 0.052000 1.200000 0.036000 0.043000
1517953354861797284	600 36 0.900000 0.084000 0.079000 800 33 0.900000 0.774000 0.712000 600 40 1.000000 0.052000 0.052000 1.200000 0.036000 0.043000
1517953355370900284	600 36 0.900000 0.085000 0.080000 800 33 0.900000 1.009000 0.925000 600 39 1.000000 0.052000 0.052000 1.200000 0.043000 0.052000
1517953355880283034	600 36 0.900000 0.097000 0.092000 800 33 0.900000 0.985000 0.903000 600 39 1.000000 0.052000 0.052000 1.200000 0.035000 0.042000
1517953356389500034	600 36 0.900000 0.086000 0.081000 800 33 0.900000 1.005000 0.921000 600 40 1.000000 0.052000 0.052000 1.200000 0.046000 0.055000
1517953356898809284	600 34 0.900000 0.096000 0.091000 800 33 0.900000 1.000000 0.917000 600 40 1.000000 0.051000 0.051000 1.200000 0.035000 0.042000
1517953357408171660	600 36 0.900000 0.085000 0.080000 800 33 0.900000 0.945000 0.867000 600 40 1.000000 0.052000 0.052000 1.200000 0.047000 0.056000
1517953357917213451	600 36 0.900000 0.096000 0.091000 800 33 0.900000 0.983000 0.901000 600 40 1.000000 0.052000 0.052000 1.200000 0.036000 0.043000
1517953358426318410	600 36 0.900000 0.081000 0.076000 800 33 0.900000 0.814000 0.747000 600 40 1.000000 0.052000 0.052000 1.200000 0.044000 0.053000
1517953358935809326	600 36 0.900000 0.098000 0.093000 800 33 0.900000 0.985000 0.903000 600 40 1.000000 0.052000 0.052000 1.200000 0.043000 0.051000
1517953359448693285	600 36 0.900000 0.088000 0.083000 800 33 0.900000 0.778000 0.715000 600 39 1.000000 0.052000 0.052000 1.200000 0.042000 0.050000
1517953359959010785	600 36 0.900000 0.111000 0.105000 800 33 0.900000 0.964000 0.883000 600 40 1.000000 0.051000 0.051000 1.200000 0.045000 0.054000
1517953360468222743	600 36 0.900000 0.094000 0.089000 800 33 0.900000 0.770000 0.708000 600 40 1.000000 0.052000 0.052000 1.200000 0.037000 0.044000
1517953360977475160	600 36 0.900000 0.095000 0.090000 800 33 0.900000 0.989000 0.906000 600 40 1.000000 0.052000 0.052000 1.200000 0.035000 0.042000
1517953361486662910	600 36 0.900000 0.097000 0.092000 800 33 0.900000 0.754000 0.693000 600 39 1.000000 0.052000 0.052000 1.200000 0.034000 0.041000
1517953361995883993	600 36 0.900000 0.100000 0.095000 800 33 0.900000 0.989000 0.906000 600 40 1.000000 0.051000 0.051000 1.200000 0.033000 0.039000
1517953362505143118	600 35 0.900000 0.091000 0.086000 800 33 0.900000 1.002000 0.918000 600 38 1.000000 0.052000 0.052000 1.200000 0.037000 0.044000
1517953363014358327	600 36 0.900000 0.070000 0.066000 800 33 0.900000 0.939000 0.861000 600 40 1.000000 0.052000 0.052000 1.200000 0.046000 0.055000
1517953363523768994	600 36 0.900000 0.094000 0.089000 800 33 0.900000 0.992000 0.909000 600 39 1.000000 0.052000 0.052000 1.200000 0.035000 0.042000
1517953364033103577	600 36 0.900000 0.075000 0.071000 800 33 0.900000 0.855000 0.786000 600 40 1.000000 0.052000 0.052000 1.200000 0.048000 0.058000
1517953364542277619	600 36 0.900000 0.093000 0.088000 800 33 0.900000 0.952000 0.872000 600 40 1.000000 0.052000 0.052000 1.200000 0.036000 0.043000
1517953365051422994	600 36 0.900000 0.071000 0.067000 800 33 0.900000 0.776000 0.713000 600 40 1.000000 0.052000 0.052000 1.200000 0.042000 0.050000
1517953365560698869	600 36 0.900000 0.096000 0.091000 800 33 0.900000 0.956000 0.876000 600 39 1.000000 0.052000 0.052000 1.200000 0.034000 0.041000
1517953366069886161	600 36 0.900000 0.096000 0.091000 800 33 0.900000 0.779000 0.716000 600 40 1.000000 0.052000 0.052000 1.200000 0.037000 0.044000
1517953366578982369	600 36 0.900000 0.097000 0.092000 800 33 0.900000 0.995000 0.912000 600 40 1.000000 0.052000 0.052000 1.200000 0.035000 0.042000
1517953367088758202	600 36 0.900000 0.098000 0.093000 800 33 0.900000 0.977000 0.894000 600 40 1.000000 0.052000 0.052000 1.200000 0.035000 0.042000
1517953367597778036	600 36 0.900000 0.099000 0.094000 800 33 0.900000 1.004000 0.920000 600 40 1.000000 0.052000 0.052000 1.200000 0.033000 0.039000
1517953368107266286	600 36 0.900000 0.095000 0.090000 800 33 0.900000 0.958000 0.878000 600 39 1.000000 0.052000 0.052000 1.200000 0.033000 0.039000
1517953368616355828	600 36 0.900000 0.097000 0.092000 800 33 0.900000 1.020000 0.935000 600 40 1.000000 0.052000 0.052000 1.200000 0.032000 0.038000
1517953369125711953	600 34 0.900000 0.105000 0.099000 800 33 0.900000 1.027000 0.941000 600 38 1.000000 0.052000 0.052000 1.200000 0.035000 0.042000
1517953369638040911	600 36 0.900000 0.099000 0.094000 800 33 0.900000 0.985000 0.903000 600 40 1.000000 0.052000 0.052000 1.200000 0.033000 0.039000
1517953370148086036	600 36 0.900000 0.112000 0.106000 800 33 0.900000 0.976000 0.894000 600 39 1.000000 0.051000 0.051000 1.200000 0.055000 0.066000
1517953370657355619	600 36 0.900000 0.068000 0.064000 800 33 0.900000 0.850000 0.779000 600 40 1.000000 0.052000 0.052000 1.200000 0.047000 0.056000
1517953371166463328	600 36 0.900000 0.095000 0.090000 800 33 0.900000 0.960000 0.880000 600 40 1.000000 0.052000 0.052000 1.200000 0.036000 0.043000
1517953371675757536	600 36 0.900000 0.068000 0.064000 800 33 0.900000 0.888000 0.814000 600 40 1.000000 0.052000 0.052000 1.200000 0.047000 0.056000
1517953372184830078	600 36 0.900000 0.093000 0.088000 800 33 0.900000 0.963000 0.883000 600 40 1.000000 0.052000 0.052000 1.200000 0.035000 0.042000
1517953372694088661	600 36 0.900000 0.091000 0.086000 800 33 0.900000 0.930000 0.853000 600 40 1.000000 0.052000 0.052000 1.200000 0.044000 0.053000
1517953373203372745	600 35 0.900000 0.094000 0.089000 800 33 0.900000 0.954000 0.874000 600 40 1.000000 0.052000 0.052000 1.200000 0.034000 0.041000
1517953373712340911	600 36 0.900000 0.083000 0.078000 800 33 0.900000 0.961000 0.881000 600 40 1.000000 0.052000 0.052000 1.200000 0.043000 0.052000
1517953374221603703	600 36 0.900000 0.101000 0.095000 800 33 0.900000 1.032000 0.946000 600 40 1.000000 0.051000 0.051000 1.200000 0.037000 0.044000
1517953374730660495	600 36 0.900000 0.076000 0.072000 800 33 0.900000 0.990000 0.907000 600 40 1.000000 0.052000 0.052000 1.200000 0.042000 0.050000
1517953375239796412	600 36 0.900000 0.093000 0.088000 800 33 0.900000 1.005000 0.921000 600 40 1.000000 0.051000 0.051000 1.200000 0.034000 0.041000
1517953375748958995	600 36 0.900000 0.070000 0.066000 800 33 0.900000 0.984000 0.902000 600 40 1.000000 0.052000 0.052000 1.200000 0.041000 0.049000
1517953376257885370	600 36 0.900000 0.094000 0.089000 800 33 0.900000 0.991000 0.908000 600 40 1.000000 0.052000 0.052000 1.200000 0.033000 0.039000
1517953376767097412	600 36 0.900000 0.071000 0.067000 800 33 0.900000 0.984000 0.902000 600 39 1.000000 0.052000 0.052000 1.200000 0.041000 0.049000
1517953377276345495	600 35 0.900000 0.094000 0.089000 800 33 0.900000 0.760000 0.699000 600 39 1.000000 0.052000 0.052000 1.200000 0.039000 0.047000
1517953377785550579	600 35 0.900000 0.095000 0.090000 800 33 0.900000 0.958000 0.878000 600 39 1.000000 0.052000 0.052000 1.200000 0.036000 0.043000
1517953378294640745	600 36 0.900000 0.068000 0.064000 800 33 0.900000 0.823000 0.757000 600 40 1.000000 0.052000 0.052000 1.200000 0.036000 0.043000
1517953378803981620	600 36 0.900000 0.097000 0.092000 800 32 0.900000 1.008000 0.924000 600 40 1.000000 0.052000 0.052000 1.200000 0.034000 0.041000
1517953379313202954	600 36 0.900000 0.074000 0.070000 800 33 0.900000 0.923000 0.847000 600 40 1.000000 0.052000 0.052000 1.200000 0.041000 0.049000
1517953379825734787	600 35 0.900000 0.099000 0.094000 800 33 0.900000 1.008000 0.924000 600 39 1.000000 0.052000 0.052000 1.200000 0.034000 0.041000
1517953380336312537	600 36 0.900000 0.108000 0.102000 800 33 0.900000 1.007000 0.924000 600 40 1.000000 0.052000 0.052000 1.200000 0.043000 0.051000
1517953380845556454	600 36 0.900000 0.096000 0.091000 800 33 0.900000 0.998000 0.915000 600 39 1.000000 0.052000 0.052000 1.200000 0.034000 0.041000
1517953381354710662	600 36 0.900000 0.095000 0.090000 800 33 0.900000 0.979000 0.897000 600 40 1.000000 0.052000 0.052000 1.200000 0.046000 0.055000
1517953381864171204	600 34 0.900000 0.093000 0.088000 800 33 0.900000 0.983000 0.901000 600 40 1.000000 0.052000 0.052000 1.200000 0.036000 0.043000
1517953382373440746	600 36 0.900000 0.096000 0.091000 800 33 0.900000 1.007000 0.923000 600 40 1.000000 0.052000 0.052000 1.200000 0.046000 0.055000
1517953382882727788	600 35 0.900000 0.096000 0.091000 800 33 0.900000 0.995000 0.912000 600 39 1.000000 0.052000 0.052000 1.200000 0.037000 0.044000
1517953383392075038	600 36 0.900000 0.097000 0.092000 800 33 0.900000 0.993000 0.910000 600 39 1.000000 0.052000 0.052000 1.200000 0.047000 0.056000
1517953383901239829	600 36 0.900000 0.094000 0.089000 800 33 0.900000 0.985000 0.903000 600 40 1.000000 0.052000 0.052000 1.200000 0.035000 0.042000
1517953384410457288	600 36 0.900000 0.078000 0.074000 800 33 0.900000 0.969000 0.888000 600 40 1.000000 0.052000 0.052000 1.200000 0.051000 0.061000
1517953384919770538	600 36 0.900000 0.095000 0.090000 800 33 0.900000 0.959000 0.879000 600 40 1.000000 0.052000 0.052000 1.200000 0.036000 0.043000
1517953385429075663	600 35 0.900000 0.098000 0.093000 800 33 0.900000 0.961000 0.881000 600 39 1.000000 0.052000 0.052000 1.200000 0.035000 0.042000
1517953385938116913	600 36 0.900000 0.096000 0.091000 800 33 0.900000 1.005000 0.921000 600 40 1.000000 0.052000 0.052000 1.200000 0.038000 0.045000
1517953386447332955	600 36 0.900000 0.092000 0.087000 800 33 0.900000 0.996000 0.913000 600 40 1.000000 0.052000 0.052000 1.200000 0.035000 0.042000
1517953386956446080	600 36 0.900000 0.098000 0.093000 800 33 0.900000 1.019000 0.934000 600 40 1.000000 0.052000 0.052000 1.200000 0.041000 0.049000
1517953387465709830	600 35 0.900000 0.096000 0.091000 800 33 0.900000 0.951000 0.872000 600 39 1.000000 0.052000 0.052000 1.200000 0.033000 0.039000
1517953387974899747	600 36 0.900000 0.098000 0.093000 800 33 0.900000 0.996000 0.913000 600 40 1.000000 0.052000 0.052000 1.200000 0.045000 0.054000
1517953388484222163	600 35 0.900000 0.095000 0.090000 800 33 0.900000 0.987000 0.906000 600 39 1.000000 0.052000 0.052000 1.200000 0.035000 0.042000
1517953388993441038	600 36 0.900000 0.097000 0.092000 800 33 0.900000 0.938000 0.861000 600 40 1.000000 0.052000 0.052000 1.200000 0.046000 0.055000
1517953389502645747	600 36 0.900000 0.103000 0.097000 800 33 0.900000 1.015000 0.931000 600 40 1.000000 0.052000 0.052000 1.200000 0.041000 0.049000
1517953390015409705	600 36 0.900000 0.087000 0.082000 800 33 0.900000 0.762000 0.699000 600 40 1.000000 0.052000 0.052000 1.200000 0.042000 0.050000
1517953390524516289	600 36 0.900000 0.101000 0.095000 800 33 0.900000 0.991000 0.908000 600 40 1.000000 0.052000 0.052000 1.200000 0.054000 0.065000
1517953391033587955	600 36 0.900000 0.091000 0.086000 800 33 0.900000 0.765000 0.703000 600 40 1.000000 0.052000 0.052000 1.200000 0.036000 0.043000
1517953391542814497	600 36 0.900000 0.094000 0.089000 800 33 0.900000 0.995000 0.912000 600 40 1.000000 0.052000 0.052000 1.200000 0.035000 0.042000
1517953392052333955	600 36 0.900000 0.098000 0.093000 800 33 0.900000 0.955000 0.876000 600 40 1.000000 0.052000 0.052000 1.200000 0.034000 0.041000
1517953392561441539	600 36 0.900000 0.070000 0.066000 800 33 0.900000 1.014000 0.929000 600 40 1.000000 0.052000 0.052000 1.200000 0.046000 0.055000
1517953393070883330	600 36 0.900000 0.091000 0.086000 800 33 0.900000 0.999000 0.916000 600 38 1.000000 0.052000 0.052000 1.200000 0.035000 0.042000
1517953393580305997	600 36 0.900000 0.067000 0.063000 800 33 0.900000 0.865000 0.794000 600 40 1.000000 0.051000 0.051000 1.200000 0.045000 0.054000
1517953394089350331	600 36 0.900000 0.091000 0.086000 800 33 0.900000 0.966000 0.885000 600 40 1.000000 0.052000 0.052000 1.200000 0.033000 0.039000
1517953394598560789	600 36 0.900000 0.076000 0.072000 800 33 0.900000 0.816000 0.750000 600 40 1.000000 0.051000 0.051000 1.200000 0.045000 0.054000
1517953395107699289	600 36 0.900000 0.096000 0.091000 800 33 0.900000 0.955000 0.875000 600 40 1.000000 0.052000 0.052000 1.200000 0.035000 0.042000
1517953395616705831	600 36 0.900000 0.070000 0.066000 800 33 0.900000 0.745000 0.685000 600 40 1.000000 0.052000 0.052000 1.200000 0.036000 0.043000
1517953396125655123	600 36 0.900000 0.099000 0.094000 800 33 0.900000 0.994000 0.911000 600 40 1.000000 0.052000 0.052000 1.200000 0.035000 0.042000
1517953396634723498	600 36 0.900000 0.069000 0.065000 800 33 0.900000 0.795000 0.729000 600 40 1.000000 0.051000 0.051000 1.200000 0.035000 0.042000
1517953397144021498	600 36 0.900000 0.095000 0.090000 800 33 0.900000 0.947000 0.869000 600 39 1.000000 0.052000 0.052000 1.200000 0.034000 0.041000
1517953397653535039	600 36 0.900000 0.096000 0.091000 800 33 0.900000 0.906000 0.831000 600 39 1.000000 0.052000 0.052000 1.200000 0.033000 0.039000
1517953398162752289	600 36 0.900000 0.095000 0.090000 800 33 0.900000 0.963000 0.884000 600 40 1.000000 0.052000 0.052000 1.200000 0.035000 0.042000
1517953398672298498	600 35 0.900000 0.089000 0.084000 800 33 0.900000 0.992000 0.909000 600 39 1.000000 0.052000 0.052000 1.200000 0.033000 0.039000
1517953399184072748	600 36 0.900000 0.072000 0.068000 800 33 0.900000 0.989000 0.906000 600 40 1.000000 0.052000 0.052000 1.200000 0.040000 0.048000
1517953399693634790	600 36 0.900000 0.099000 0.094000 800 33 0.900000 0.985000 0.903000 600 40 1.000000 0.052000 0.052000 1.200000 0.040000 0.048000
1517953400202782331	600 36 0.900000 0.079000 0.075000 800 33 0.900000 0.773000 0.711000 600 40 1.000000 0.052000 0.052000 1.200000 0.036000 0.043000
1517953400711788123	600 36 0.900000 0.107000 0.101000 800 33 0.900000 1.056000 0.968000 600 40 1.000000 0.052000 0.052000 1.200000 0.047000 0.056000
1517953401221081956	600 36 0.900000 0.086000 0.081000 800 33 0.900000 0.800000 0.736000 600 40 1.000000 0.052000 0.052000 1.200000 0.034000 0.041000
1517953401730121915	600 36 0.900000 0.093000 0.088000 800 33 0.900000 0.954000 0.874000 600 40 1.000000 0.052000 0.052000 1.200000 0.034000 0.041000
1517953402239321123	600 36 0.900000 0.097000 0.092000 800 33 0.900000 0.916000 0.840000 600 40 1.000000 0.052000 0.052000 1.200000 0.033000 0.039000
1517953402748580707	600 36 0.900000 0.096000 0.091000 800 33 0.900000 0.991000 0.908000 600 40 1.000000 0.052000 0.052000 1.200000 0.035000 0.042000
1517953403258081248	600 35 0.900000 0.096000 0.091000 800 33 0.900000 1.014000 0.929000 600 38 1.000000 0.052000 0.052000 1.200000 0.035000 0.042000
1517953403767324665	600 36 0.900000 0.069000 0.065000 800 33 0.900000 0.995000 0.912000 600 40 1.000000 0.052000 0.052000 1.200000 0.039000 0.047000
1517953404276364873	600 36 0.900000 0.096000 0.091000 800 33 0.900000 0.988000 0.905000 600 40 1.000000 0.052000 0.052000 1.200000 0.033000 0.039000
1517953404785650165	600 36 0.900000 0.076000 0.072000 800 33 0.900000 0.954000 0.874000 600 40 1.000000 0.051000 0.051000 1.200000 0.046000 0.055000
1517953405294716124	600 36 0.900000 0.096000 0.091000 800 33 0.900000 0.951000 0.873000 600 40 1.000000 0.052000 0.052000 1.200000 0.032000 0.038000
1517953405804087582	600 36 0.900000 0.068000 0.064000 800 33 0.900000 0.990000 0.910000 600 39 1.000000 0.052000 0.052000 1.200000 0.045000 0.054000
1517953406313207165	600 36 0.900000 0.095000 0.090000 800 33 0.900000 0.960000 0.881000 600 40 1.000000 0.052000 0.052000 1.200000 0.033000 0.039000
1517953406822363999	600 36 0.900000 0.090000 0.085000 800 33 0.900000 0.996000 0.913000 600 40 1.000000 0.052000 0.052000 1.200000 0.034000 0.041000
1517953407331685457	600 36 0.900000 0.097000 0.092000 800 33 0.900000 0.850000 0.780000 600 40 1.000000 0.051000 0.051000 1.200000 0.036000 0.043000
1517953407841168249	600 36 0.900000 0.096000 0.091000 800 33 0.900000 0.964000 0.883000 600 39 1.000000 0.052000 0.052000 1.200000 0.035000 0.042000
1517953408353397749	600 36 0.900000 0.093000 0.088000 800 33 0.900000 0.780000 0.717000 600 40 1.000000 0.051000 0.051000 1.200000 0.040000 0.048000
1517953408864869916	600 35 0.900000 0.090000 0.085000 800 33 0.900000 1.037000 0.951000 600 38 1.000000 0.052000 0.052000 1.200000 0.040000 0.048000
1517953409374070957	600 36 0.900000 0.099000 0.094000 800 33 0.900000 0.755000 0.694000 600 39 1.000000 0.052000 0.052000 1.200000 0.042000 0.050000
1517953409883284374	600 36 0.900000 0.098000 0.093000 800 33 0.900000 1.013000 0.928000 600 40 1.000000 0.052000 0.052000 1.200000 0.041000 0.049000
1517953410392433083	600 36 0.900000 0.071000 0.067000 800 33 0.900000 0.769000 0.705000 600 40 1.000000 0.051000 0.051000 1.200000 0.046000 0.055000
1517953410901560166	600 36 0.900000 0.109000 0.103000 800 33 0.900000 1.036000 0.950000 600 40 1.000000 0.052000 0.052000 1.200000 0.053000 0.064000
1517953411410695624	600 36 0.900000 0.069000 0.065000 800 33 0.900000 0.815000 0.748000 600 40 1.000000 0.052000 0.052000 1.200000 0.045000 0.054000
1517953411919912916	600 36 0.900000 0.098000 0.092000 800 33 0.900000 0.957000 0.878000 600 39 1.000000 0.052000 0.052000 1.200000 0.035000 0.042000
1517953412429144958	600 36 0.900000 0.069000 0.065000 800 33 0.900000 0.811000 0.746000 600 39 1.000000 0.052000 0.052000 1.200000 0.045000 0.054000
1517953412938146375	600 36 0.900000 0.096000 0.091000 800 33 0.900000 0.973000 0.892000 600 40 1.000000 0.052000 0.052000 1.200000 0.035000 0.042000
1517953413447273500	600 35 0.900000 0.071000 0.067000 800 33 0.900000 0.729000 0.668000 600 40 1.000000 0.052000 0.052000 1.200000 0.045000 0.054000
1517953413956408500	600 36 0.900000 0.096000 0.091000 800 33 0.900000 0.999000 0.916000 600 40 1.000000 0.052000 0.052000 1.200000 0.036000 0.043000
1517953414465681833	600 36 0.900000 0.084000 0.079000 800 33 0.900000 0.976000 0.894000 600 39 1.000000 0.052000 0.052000 1.200000 0.039000 0.047000
1517953414974849458	600 36 0.900000 0.104000 0.098000 800 33 0.900000 1.014000 0.929000 600 40 1.000000 0.052000 0.052000 1.200000 0.045000 0.054000
1517953415484138458	600 36 0.900000 0.070000 0.066000 800 33 0.900000 1.012000 0.928000 600 40 1.000000 0.052000 0.052000 1.200000 0.043000 0.051000
1517953415993250417	600 36 0.900000 0.097000 0.092000 800 33 0.900000 1.001000 0.917000 600 40 1.000000 0.051000 0.051000 1.200000 0.035000 0.042000
1517953416502467500	600 36 0.900000 0.098000 0.093000 800 33 0.900000 0.917000 0.840000 600 40 1.000000 0.052000 0.052000 1.200000 0.044000 0.053000
1517953417011735333	600 35 0.900000 0.096000 0.091000 800 33 0.900000 0.975000 0.894000 600 39 1.000000 0.052000 0.052000 1.200000 0.034000 0.041000
1517953417521083000	600 35 0.900000 0.089000 0.084000 800 33 0.900000 0.898000 0.824000 600 40 1.000000 0.052000 0.052000 1.200000 0.044000 0.053000
1517953418030115333	600 36 0.900000 0.094000 0.089000 800 33 0.900000 0.967000 0.886000 600 40 1.000000 0.052000 0.052000 1.200000 0.035000 0.042000
1517953418539243167	600 36 0.900000 0.078000 0.074000 800 33 0.900000 0.858000 0.787000 600 40 1.000000 0.052000 0.052000 1.200000 0.045000 0.054000
1517953419048404792	600 36 0.900000 0.098000 0.092000 800 33 0.900000 0.986000 0.905000 600 40 1.000000 0.052000 0.052000 1.200000 0.035000 0.042000
1517953419557635625	600 36 0.900000 0.067000 0.063000 800 33 0.900000 0.874000 0.802000 600 40 1.000000 0.051000 0.051000 1.200000 0.044000 0.053000
1517953420066926500	600 36 0.900000 0.104000 0.098000 800 33 0.900000 0.981000 0.899000 600 40 1.000000 0.052000 0.052000 1.200000 0.034000 0.041000
1517953420576265292	600 36 0.900000 0.072000 0.068000 800 33 0.900000 0.986000 0.904000 600 39 1.000000 0.052000 0.052000 1.200000 0.042000 0.050000
1517953421085326834	600 36 0.900000 0.101000 0.095000 800 33 0.900000 1.062000 0.973000 600 40 1.000000 0.052000 0.052000 1.200000 0.040000 0.048000
1517953421594512459	600 35 0.900000 0.097000 0.092000 800 33 0.900000 0.947000 0.869000 600 38 1.000000 0.052000 0.052000 1.200000 0.035000 0.042000
1517953422103556626	600 36 0.900000 0.081000 0.076000 800 33 0.900000 0.785000 0.720000 600 40 1.000000 0.052000 0.052000 1.200000 0.042000 0.050000
1517953422612696126	600 36 0.900000 0.093000 0.088000 800 33 0.900000 0.985000 0.903000 600 40 1.000000 0.051000 0.051000 1.200000 0.035000 0.042000
1517953423121693084	600 36 0.900000 0.090000 0.085000 800 33 0.900000 0.771000 0.707000 600 40 1.000000 0.052000 0.052000 1.200000 0.036000 0.043000
1517953423630873459	600 36 0.900000 0.096000 0.091000 800 33 0.900000 0.969000 0.888000 600 40 1.000000 0.052000 0.052000 1.200000 0.036000 0.043000
1517953424140123293	600 36 0.900000 0.098000 0.093000 800 33 0.900000 0.870000 0.798000 600 40 1.000000 0.052000 0.052000 1.200000 0.035000 0.042000
1517953424649116168	600 36 0.900000 0.095000 0.090000 800 32 0.900000 0.959000 0.880000 600 40 1.000000 0.052000 0.052000 1.200000 0.039000 0.047000
1517953425158374084	600 36 0.900000 0.105000 0.099000 800 33 0.900000 1.049000 0.961000 600 39 1.000000 0.052000 0.052000 1.200000 0.041000 0.049000
1517953425667588543	600 36 0.900000 0.098000 0.093000 800 33 0.900000 0.994000 0.911000 600 39 1.000000 0.052000 0.052000 1.200000 0.041000 0.049000
1517953426176862709	600 35 0.900000 0.095000 0.090000 800 32 0.900000 0.997000 0.914000 600 39 1.000000 0.052000 0.052000 1.200000 0.035000 0.042000
1517953426685950126	600 36 0.900000 0.098000 0.092000 800 33 0.900000 0.993000 0.910000 600 40 1.000000 0.052000 0.052000 1.200000 0.042000 0.050000
1517953427195092460	600 36 0.900000 0.097000 0.092000 800 33 0.900000 0.959000 0.879000 600 38 1.000000 0.052000 0.052000 1.200000 0.035000 0.042000
1517953427704421210	600 35 0.900000 0.097000 0.091000 800 33 0.900000 0.997000 0.915000 600 39 1.000000 0.052000 0.052000 1.200000 0.047000 0.056000
1517953428213473960	600 36 0.900000 0.095000 0.090000 800 33 0.900000 0.953000 0.873000 600 40 1.000000 0.052000 0.052000 1.200000 0.037000 0.044000
1517953428722725293	600 36 0.900000 0.071000 0.067000 800 33 0.900000 0.800000 0.736000 600 40 1.000000 0.052000 0.052000 1.200000 0.034000 0.041000
1517953429231870418	600 36 0.900000 0.097000 0.091000 800 33 0.900000 0.976000 0.894000 600 40 1.000000 0.052000 0.052000 1.200000 0.037000 0.044000
1517953429741032918	600 35 0.900000 0.095000 0.090000 800 33 0.900000 0.884000 0.810000 600 39 1.000000 0.052000 0.052000 1.200000 0.035000 0.042000
1517953430250246793	600 36 0.900000 0.099000 0.093000 800 33 0.900000 0.973000 0.892000 600 40 1.000000 0.052000 0.052000 1.200000 0.040000 0.048000
1517953430759443710	600 36 0.900000 0.096000 0.091000 800 32 0.900000 1.001000 0.916000 600 40 1.000000 0.052000 0.052000 1.200000 0.036000 0.043000
1517953431268464252	600 36 0.900000 0.103000 0.097000 800 33 0.900000 1.034000 0.948000 600 39 1.000000 0.052000 0.052000 1.200000 0.044000 0.053000
1517953431777604043	600 35 0.900000 0.094000 0.089000 800 33 0.900000 0.996000 0.913000 600 39 1.000000 0.052000 0.052000 1.200000 0.034000 0.041000
1517953432286852668	600 36 0.900000 0.096000 0.091000 800 33 0.900000 0.994000 0.911000 600 40 1.000000 0.052000 0.052000 1.200000 0.043000 0.052000
1517953432796352502	600 36 0.900000 0.097000 0.092000 800 33 0.900000 0.972000 0.891000 600 38 1.000000 0.052000 0.052000 1.200000 0.036000 0.043000
1517953433305762419	600 36 0.900000 0.094000 0.089000 800 33 0.900000 0.993000 0.910000 600 39 1.000000 0.052000 0.052000 1.200000 0.045000 0.054000
1517953433814859919	600 36 0.900000 0.090000 0.085000 800 33 0.900000 0.991000 0.908000 600 40 1.000000 0.052000 0.052000 1.200000 0.036000 0.043000
1517953434324098877	600 36 0.900000 0.096000 0.091000 800 33 0.900000 0.935000 0.858000 600 40 1.000000 0.052000 0.052000 1.200000 0.046000 0.055000
1517953434833144335	600 36 0.900000 0.098000 0.093000 800 33 0.900000 1.000000 0.917000 600 39 1.000000 0.052000 0.052000 1.200000 0.034000 0.041000
1517953435342333919	600 36 0.900000 0.085000 0.080000 800 33 0.900000 0.751000 0.690000 600 40 1.000000 0.052000 0.052000 1.200000 0.045000 0.054000
1517953435853016002	600 36 0.900000 0.088000 0.083000 800 33 0.900000 1.002000 0.918000 600 40 1.000000 0.051000 0.051000 1.200000 0.041000 0.049000
1517953436362591461	600 36 0.900000 0.098000 0.092000 800 33 0.900000 0.993000 0.910000 600 40 1.000000 0.052000 0.052000 1.200000 0.036000 0.043000
1517953436871569169	600 36 0.900000 0.081000 0.076000 800 33 0.900000 0.997000 0.914000 600 40 1.000000 0.052000 0.052000 1.200000 0.042000 0.050000
1517953437380786627	600 36 0.900000 0.094000 0.089000 800 32 0.900000 0.955000 0.875000 600 39 1.000000 0.052000 0.052000 1.200000 0.035000 0.042000
1517953437889902627	600 36 0.900000 0.073000 0.069000 800 32 0.900000 0.979000 0.897000 600 40 1.000000 0.052000 0.052000 1.200000 0.046000 0.055000
1517953438399275169	600 36 0.900000 0.090000 0.085000 800 33 0.900000 0.992000 0.909000 600 39 1.000000 0.051000 0.051000 1.200000 0.034000 0.041000
1517953438908472294	600 36 0.900000 0.068000 0.064000 800 32 0.900000 0.897000 0.822000 600 40 1.000000 0.052000 0.052000 1.200000 0.043000 0.052000
1517953439417462336	600 36 0.900000 0.094000 0.089000 800 33 0.900000 0.991000 0.908000 600 40 1.000000 0.051000 0.051000 1.200000 0.034000 0.041000
1517953439926653419	600 36 0.900000 0.071000 0.067000 800 32 0.900000 0.776000 0.713000 600 39 1.000000 0.052000 0.052000 1.200000 0.039000 0.047000
1517953440435794961	600 36 0.900000 0.100000 0.095000 800 33 0.900000 0.952000 0.872000 600 40 1.000000 0.052000 0.052000 1.200000 0.041000 0.049000
1517953440944969003	600 36 0.900000 0.071000 0.067000 800 32 0.900000 0.762000 0.699000 600 40 1.000000 0.051000 0.051000 1.200000 0.036000 0.043000
1517953441454048670	600 36 0.900000 0.101000 0.095000 800 33 0.900000 1.049000 0.961000 600 39 1.000000 0.052000 0.052000 1.200000 0.050000 0.060000
1517953441963436461	600 36 0.900000 0.092000 0.087000 800 32 0.900000 0.798000 0.734000 600 39 1.000000 0.052000 0.052000 1.200000 0.032000 0.038000
1517953442472557836	600 36 0.900000 0.094000 0.089000 800 32 0.900000 0.959000 0.879000 600 40 1.000000 0.052000 0.052000 1.200000 0.032000 0.038000
1517953442982000503	600 35 0.900000 0.090000 0.085000 800 32 0.900000 0.914000 0.838000 600 38 1.000000 0.052000 0.052000 1.200000 0.034000 0.041000
1517953443491240961	600 36 0.900000 0.069000 0.065000 800 32 0.900000 0.834000 0.765000 600 40 1.000000 0.052000 0.052000 1.200000 0.042000 0.050000
1517953444000323920	600 36 0.900000 0.095000 0.090000 800 32 0.900000 0.954000 0.874000 600 40 1.000000 0.052000 0.052000 1.200000 0.034000 0.041000
1517953444509512420	600 36 0.900000 0.071000 0.067000 800 32 0.900000 0.771000 0.709000 600 39 1.000000 0.052000 0.052000 1.200000 0.037000 0.044000
1517953445018488587	600 36 0.900000 0.089000 0.084000 800 32 0.900000 0.993000 0.910000 600 40 1.000000 0.051000 0.051000 1.200000 0.035000 0.042000
1517953445527789587	600 36 0.900000 0.092000 0.087000 800 32 0.900000 0.950000 0.871000 600 40 1.000000 0.052000 0.052000 1.200000 0.041000 0.049000
1517953446036898503	600 36 0.900000 0.091000 0.086000 800 32 0.900000 1.006000 0.922000 600 39 1.000000 0.052000 0.052000 1.200000 0.035000 0.042000
1517953446546047379	600 35 0.900000 0.089000 0.084000 800 32 0.900000 0.997000 0.914000 600 39 1.000000 0.051000 0.051000 1.200000 0.034000 0.041000
1517953447055278920	600 36 0.900000 0.093000 0.088000 800 33 0.900000 0.981000 0.899000 600 40 1.000000 0.052000 0.052000 1.200000 0.034000 0.041000
1517953447564512962	600 35 0.900000 0.086000 0.081000 800 33 0.900000 1.008000 0.924000 600 39 1.000000 0.052000 0.052000 1.200000 0.033000 0.039000
1517953448073814754	600 36 0.900000 0.076000 0.072000 800 33 0.900000 0.904000 0.829000 600 39 1.000000 0.052000 0.052000 1.200000 0.036000 0.043000
1517953448583320170	600 35 0.900000 0.097000 0.092000 800 32 0.900000 0.998000 0.915000 600 38 1.000000 0.052000 0.052000 1.200000 0.035000 0.042000
1517953449092612129	600 36 0.900000 0.083000 0.078000 800 33 0.900000 0.858000 0.787000 600 39 1.000000 0.052000 0.052000 1.200000 0.037000 0.044000
1517953449601898671	600 35 0.900000 0.095000 0.090000 800 32 0.900000 1.002000 0.918000 600 38 1.000000 0.051000 0.051000 1.200000 0.034000 0.041000
1517953450111113046	600 36 0.900000 0.098000 0.093000 800 33 0.900000 0.899000 0.825000 600 39 1.000000 0.052000 0.052000 1.200000 0.036000 0.043000
1517953450620600171	600 35 0.900000 0.102000 0.096000 800 33 0.900000 0.973000 0.892000 600 39 1.000000 0.052000 0.052000 1.200000 0.043000 0.051000
1517953451129855796	600 35 0.900000 0.068000 0.064000 800 32 0.900000 0.792000 0.726000 600 39 1.000000 0.051000 0.051000 1.200000 0.047000 0.056000
1517953451639039087	600 35 0.900000 0.094000 0.089000 800 32 0.900000 1.026000 0.940000 600 38 1.000000 0.051000 0.051000 1.200000 0.040000 0.048000
1517953452148373421	600 36 0.900000 0.070000 0.066000 800 33 0.900000 0.793000 0.727000 600 39 1.000000 0.052000 0.052000 1.200000 0.047000 0.056000
1517953452657691921	600 35 0.900000 0.095000 0.090000 800 32 0.900000 0.996000 0.913000 600 38 1.000000 0.052000 0.052000 1.200000 0.035000 0.042000
1517953453166850879	600 36 0.900000 0.089000 0.084000 800 33 0.900000 0.789000 0.725000 600 39 1.000000 0.052000 0.052000 1.200000 0.042000 0.050000
1517953453677532504	600 35 0.900000 0.093000 0.088000 800 32 0.900000 0.969000 0.888000 600 38 1.000000 0.052000 0.052000 1.200000 0.034000 0.041000
1517953454186812671	600 36 0.900000 0.072000 0.068000 800 32 0.900000 0.784000 0.721000 600 40 1.000000 0.052000 0.052000 1.200000 0.039000 0.047000
1517953454696141046	600 35 0.900000 0.094000 0.089000 800 32 0.900000 1.013000 0.928000 600 39 1.000000 0.052000 0.052000 1.200000 0.034000 0.041000
1517953455205267838	600 36 0.900000 0.080000 0.076000 800 33 0.900000 0.940000 0.861000 600 40 1.000000 0.052000 0.052000 1.200000 0.034000 0.041000
1517953455714486755	600 35 0.900000 0.107000 0.101000 800 32 0.900000 1.018000 0.934000 600 39 1.000000 0.051000 0.051000 1.200000 0.037000 0.044000
1517953456223648963	600 36 0.900000 0.098000 0.093000 800 32 0.900000 0.988000 0.905000 600 40 1.000000 0.052000 0.052000 1.200000 0.033000 0.039000
1517953456732880005	600 35 0.900000 0.096000 0.091000 800 32 0.900000 0.966000 0.885000 600 39 1.000000 0.052000 0.052000 1.200000 0.035000 0.042000
1517953457241976380	600 36 0.900000 0.098000 0.092000 800 32 0.900000 0.988000 0.905000 600 40 1.000000 0.052000 0.052000 1.200000 0.035000 0.042000
1517953457753738505	600 35 0.900000 0.094000 0.089000 800 32 0.900000 0.990000 0.907000 600 38 1.000000 0.052000 0.052000 1.200000 0.035000 0.042000
1517953458263400213	600 36 0.900000 0.072000 0.068000 800 33 0.900000 0.778000 0.714000 600 40 1.000000 0.051000 0.051000 1.200000 0.042000 0.050000
1517953458772644547	600 35 0.900000 0.096000 0.091000 800 32 0.900000 0.962000 0.883000 600 38 1.000000 0.052000 0.052000 1.200000 0.035000 0.042000
1517953459281764630	600 36 0.900000 0.087000 0.082000 800 32 0.900000 0.777000 0.714000 600 39 1.000000 0.052000 0.052000 1.200000 0.043000 0.051000
1517953459790984422	600 35 0.900000 0.098000 0.093000 800 32 0.900000 0.968000 0.887000 600 38 1.000000 0.052000 0.052000 1.200000 0.034000 0.041000
1517953460300203547	600 35 0.900000 0.094000 0.089000 800 33 0.900000 0.756000 0.694000 600 40 1.000000 0.052000 0.052000 1.200000 0.042000 0.050000
1517953460809455130	600 36 0.900000 0.097000 0.091000 800 33 0.900000 0.999000 0.916000 600 40 1.000000 0.052000 0.052000 1.200000 0.040000 0.048000
1517953461318521214	600 36 0.900000 0.067000 0.063000 800 33 0.900000 0.779000 0.715000 600 40 1.000000 0.052000 0.052000 1.200000 0.044000 0.053000
1517953461827825005	600 36 0.900000 0.098000 0.093000 800 32 0.900000 1.012000 0.928000 600 40 1.000000 0.052000 0.052000 1.200000 0.052000 0.062000
1517953462337042589	600 36 0.900000 0.071000 0.067000 800 33 0.900000 0.783000 0.720000 600 39 1.000000 0.052000 0.052000 1.200000 0.045000 0.054000
1517953462846256880	600 36 0.900000 0.091000 0.086000 800 33 0.900000 0.992000 0.909000 600 40 1.000000 0.052000 0.052000 1.200000 0.034000 0.041000
1517953463355407672	600 36 0.900000 0.076000 0.072000 800 32 0.900000 0.801000 0.736000 600 39 1.000000 0.051000 0.051000 1.200000 0.045000 0.054000
1517953463864463922	600 36 0.900000 0.091000 0.086000 800 33 0.900000 0.965000 0.884000 600 39 1.000000 0.052000 0.052000 1.200000 0.033000 0.039000
1517953464373685131	600 36 0.900000 0.081000 0.076000 800 33 0.900000 0.947000 0.868000 600 39 1.000000 0.052000 0.052000 1.200000 0.041000 0.049000
1517953464882783589	600 36 0.900000 0.091000 0.086000 800 32 0.900000 0.991000 0.908000 600 40 1.000000 0.052000 0.052000 1.200000 0.038000 0.045000
1517953465392062339	600 35 0.900000 0.094000 0.089000 800 32 0.900000 0.958000 0.878000 600 38 1.000000 0.052000 0.052000 1.200000 0.034000 0.041000
1517953465901290214	600 35 0.900000 0.088000 0.083000 800 32 0.900000 0.810000 0.743000 600 40 1.000000 0.052000 0.052000 1.200000 0.038000 0.045000
1517953466410211464	600 36 0.900000 0.095000 0.090000 800 33 0.900000 0.959000 0.879000 600 40 1.000000 0.052000 0.052000 1.200000 0.034000 0.041000
1517953466919271464	600 36 0.900000 0.091000 0.086000 800 32 0.900000 0.768000 0.704000 600 40 1.000000 0.052000 0.052000 1.200000 0.036000 0.043000
1517953467428298214	600 36 0.900000 0.095000 0.090000 800 32 0.900000 1.010000 0.926000 600 39 1.000000 0.052000 0.052000 1.200000 0.034000 0.041000
1517953467937496673	600 36 0.900000 0.095000 0.090000 800 32 0.900000 0.771000 0.707000 600 39 1.000000 0.052000 0.052000 1.200000 0.033000 0.039000
1517953468446510714	600 36 0.900000 0.098000 0.093000 800 33 0.900000 0.960000 0.880000 600 40 1.000000 0.052000 0.052000 1.200000 0.034000 0.041000
1517953468955743840	600 35 0.900000 0.098000 0.093000 800 33 0.900000 0.876000 0.804000 600 39 1.000000 0.052000 0.052000 1.200000 0.035000 0.042000
1517953469464787090	600 36 0.900000 0.097000 0.092000 800 32 0.900000 0.952000 0.872000 600 39 1.000000 0.052000 0.052000 1.200000 0.037000 0.044000
1517953469973738006	600 35 0.900000 0.097000 0.092000 800 32 0.900000 0.992000 0.909000 600 39 1.000000 0.052000 0.052000 1.200000 0.034000 0.041000
1517953470482744381	600 36 0.900000 0.096000 0.091000 800 32 0.900000 0.982000 0.900000 600 40 1.000000 0.052000 0.052000 1.200000 0.041000 0.049000
1517953470992067506	600 34 0.900000 0.104000 0.098000 800 32 0.900000 0.993000 0.910000 600 38 1.000000 0.052000 0.052000 1.200000 0.041000 0.049000
1517953471501009006	600 36 0.900000 0.096000 0.091000 800 32 0.900000 1.009000 0.925000 600 39 1.000000 0.052000 0.052000 1.200000 0.045000 0.054000
1517953472010039798	600 36 0.900000 0.111000 0.105000 800 33 0.900000 1.018000 0.933000 600 40 1.000000 0.052000 0.052000 1.200000 0.042000 0.050000
1517953472519288548	600 36 0.900000 0.071000 0.067000 800 32 0.900000 0.788000 0.724000 600 39 1.000000 0.052000 0.052000 1.200000 0.046000 0.055000
1517953473028423465	600 36 0.900000 0.095000 0.090000 800 32 0.900000 0.961000 0.881000 600 39 1.000000 0.052000 0.052000 1.200000 0.034000 0.041000
1517953473537643590	600 36 0.900000 0.091000 0.086000 800 32 0.900000 0.885000 0.812000 600 39 1.000000 0.052000 0.052000 1.200000 0.033000 0.039000
1517953474046862298	600 36 0.900000 0.095000 0.090000 800 32 0.900000 0.963000 0.883000 600 39 1.000000 0.052000 0.052000 1.200000 0.037000 0.044000
1517953474556213132	600 36 0.900000 0.095000 0.090000 800 32 0.900000 0.996000 0.913000 600 39 1.000000 0.052000 0.052000 1.200000 0.033000 0.039000
1517953475065373924	600 36 0.900000 0.091000 0.086000 800 32 0.900000 0.993000 0.910000 600 40 1.000000 0.052000 0.052000 1.200000 0.044000 0.053000
1517953475574651049	600 35 0.900000 0.097000 0.091000 800 32 0.900000 0.981000 0.899000 600 38 1.000000 0.052000 0.052000 1.200000 0.034000 0.041000
1517953476083960840	600 36 0.900000 0.096000 0.091000 800 32 0.900000 1.035000 0.949000 600 39 1.000000 0.052000 0.052000 1.200000 0.049000 0.059000
1517953476593113924	600 36 0.900000 0.096000 0.091000 800 32 0.900000 0.954000 0.874000 600 40 1.000000 0.052000 0.052000 1.200000 0.035000 0.042000
1517953477102249424	600 36 0.900000 0.083000 0.078000 800 33 0.900000 1.009000 0.925000 600 40 1.000000 0.052000 0.052000 1.200000 0.047000 0.056000
1517953477611423841	600 36 0.900000 0.097000 0.092000 800 32 0.900000 0.986000 0.904000 600 40 1.000000 0.051000 0.051000 1.200000 0.033000 0.039000
1517953478120639966	600 35 0.900000 0.076000 0.072000 800 32 0.900000 0.850000 0.780000 600 39 1.000000 0.052000 0.052000 1.200000 0.042000 0.050000
1517953478629833799	600 36 0.900000 0.095000 0.090000 800 33 0.900000 1.006000 0.922000 600 40 1.000000 0.052000 0.052000 1.200000 0.034000 0.041000
1517953479138787924	600 36 0.900000 0.071000 0.067000 800 33 0.900000 0.780000 0.717000 600 39 1.000000 0.052000 0.052000 1.200000 0.037000 0.044000
1517953479648051007	600 36 0.900000 0.071000 0.067000 800 32 0.900000 1.009000 0.925000 600 39 1.000000 0.052000 0.052000 1.200000 0.042000 0.050000
1517953480157233216	600 36 0.900000 0.096000 0.091000 800 32 0.900000 0.995000 0.912000 600 39 1.000000 0.052000 0.052000 1.200000 0.035000 0.042000
1517953480666381674	600 36 0.900000 0.067000 0.063000 800 32 0.900000 1.022000 0.937000 600 40 1.000000 0.052000 0.052000 1.200000 0.045000 0.054000
1517953481175962924	600 35 0.900000 0.095000 0.090000 800 32 0.900000 0.974000 0.893000 600 38 1.000000 0.052000 0.052000 1.200000 0.041000 0.049000
1517953481685327591	600 36 0.900000 0.069000 0.065000 800 32 0.900000 1.021000 0.936000 600 39 1.000000 0.052000 0.052000 1.200000 0.046000 0.055000
1517953482194315008	600 36 0.900000 0.096000 0.091000 800 33 0.900000 1.018000 0.933000 600 40 1.000000 0.052000 0.052000 1.200000 0.036000 0.043000
1517953482703563299	600 36 0.900000 0.068000 0.064000 800 32 0.900000 0.858000 0.787000 600 39 1.000000 0.052000 0.052000 1.200000 0.043000 0.051000
1517953483212593133	600 36 0.900000 0.099000 0.094000 800 32 0.900000 0.998000 0.915000 600 39 1.000000 0.052000 0.052000 1.200000 0.036000 0.043000
1517953483721522050	600 35 0.900000 0.070000 0.066000 800 32 0.900000 0.777000 0.713000 600 39 1.000000 0.052000 0.052000 1.200000 0.039000 0.047000
1517953484230556800	600 36 0.900000 0.096000 0.091000 800 33 0.900000 0.957000 0.877000 600 40 1.000000 0.051000 0.051000 1.200000 0.035000 0.042000
1517953484739853300	600 36 0.900000 0.069000 0.065000 800 32 0.900000 0.997000 0.914000 600 39 1.000000 0.051000 0.051000 1.200000 0.035000 0.042000
1517953485249049883	600 36 0.900000 0.097000 0.091000 800 32 0.900000 1.008000 0.924000 600 39 1.000000 0.052000 0.052000 1.200000 0.033000 0.039000
1517953485758171758	600 36 0.900000 0.091000 0.086000 800 33 0.900000 0.961000 0.881000 600 39 1.000000 0.052000 0.052000 1.200000 0.033000 0.039000
1517953486267610842	600 36 0.900000 0.105000 0.099000 800 33 0.900000 1.055000 0.967000 600 40 1.000000 0.052000 0.052000 1.200000 0.036000 0.043000
1517953486777054258	600 35 0.900000 0.096000 0.091000 800 32 0.900000 0.998000 0.915000 600 39 1.000000 0.052000 0.052000 1.200000 0.035000 0.042000
1517953487286121550	600 35 0.900000 0.070000 0.066000 800 32 0.900000 0.759000 0.698000 600 40 1.000000 0.052000 0.052000 1.200000 0.046000 0.055000
1517953487795455467	600 34 0.900000 0.094000 0.089000 800 32 0.900000 0.997000 0.914000 600 39 1.000000 0.051000 0.051000 1.200000 0.035000 0.042000
1517953488304566133	600 36 0.900000 0.070000 0.066000 800 33 0.900000 0.759000 0.696000 600 39 1.000000 0.052000 0.052000 1.200000 0.046000 0.055000
1517953488813895342	600 35 0.900000 0.095000 0.090000 800 32 0.900000 0.999000 0.916000 600 40 1.000000 0.052000 0.052000 1.200000 0.034000 0.041000
1517953489322954384	600 36 0.900000 0.070000 0.066000 800 32 0.900000 0.779000 0.714000 600 40 1.000000 0.052000 0.052000 1.200000 0.045000 0.054000
1517953489832220175	600 36 0.900000 0.094000 0.089000 800 32 0.900000 0.993000 0.910000 600 40 1.000000 0.052000 0.052000 1.200000 0.035000 0.042000
1517953490341360509	600 36 0.900000 0.071000 0.067000 800 32 0.900000 0.782000 0.717000 600 40 1.000000 0.052000 0.052000 1.200000 0.046000 0.055000
1517953490850372550	600 36 0.900000 0.097000 0.091000 800 32 0.900000 1.000000 0.917000 600 40 1.000000 0.052000 0.052000 1.200000 0.033000 0.039000
1517953491359615467	600 36 0.900000 0.094000 0.089000 800 32 0.900000 0.825000 0.756000 600 40 1.000000 0.052000 0.052000 1.200000 0.048000 0.058000
1517953491868801134	600 36 0.900000 0.096000 0.091000 800 32 0.900000 0.999000 0.916000 600 40 1.000000 0.052000 0.052000 1.200000 0.031000 0.037000
1517953492378883051	600 36 0.900000 0.070000 0.066000 800 32 0.900000 0.766000 0.704000 600 40 1.000000 0.052000 0.052000 1.200000 0.055000 0.066000
1517953492888358467	600 36 0.900000 0.093000 0.088000 800 33 0.900000 0.976000 0.894000 600 40 1.000000 0.051000 0.051000 1.200000 0.031000 0.037000
1517953493397395009	600 36 0.900000 0.072000 0.068000 800 32 0.900000 0.775000 0.713000 600 40 1.000000 0.051000 0.051000 1.200000 0.041000 0.049000
1517953493906290884	600 36 0.900000 0.095000 0.090000 800 33 0.900000 1.007000 0.923000 600 40 1.000000 0.052000 0.052000 1.200000 0.032000 0.038000
1517953494415499384	600 36 0.900000 0.077000 0.073000 800 32 0.900000 0.871000 0.798000 600 40 1.000000 0.052000 0.052000 1.200000 0.043000 0.051000
1517953494924796426	600 36 0.900000 0.096000 0.091000 800 32 0.900000 0.986000 0.904000 600 39 1.000000 0.052000 0.052000 1.200000 0.034000 0.041000
1517953495433949759	600 36 0.900000 0.069000 0.065000 800 32 0.900000 0.766000 0.704000 600 40 1.000000 0.052000 0.052000 1.200000 0.046000 0.055000
1517953495942887009	600 36 0.900000 0.093000 0.088000 800 33 0.900000 0.997000 0.914000 600 40 1.000000 0.052000 0.052000 1.200000 0.035000 0.042000
1517953496452078509	600 36 0.900000 0.078000 0.074000 800 33 0.900000 0.817000 0.751000 600 40 1.000000 0.051000 0.051000 1.200000 0.051000 0.061000
1517953496961145801	600 36 0.900000 0.093000 0.088000 800 32 0.900000 1.002000 0.918000 600 40 1.000000 0.052000 0.052000 1.200000 0.033000 0.039000
1517953497470206301	600 36 0.900000 0.070000 0.066000 800 32 0.900000 0.760000 0.697000 600 40 1.000000 0.052000 0.052000 1.200000 0.046000 0.055000
1517953497979448468	600 36 0.900000 0.095000 0.090000 800 32 0.900000 1.003000 0.919000 600 40 1.000000 0.052000 0.052000 1.200000 0.033000 0.039000
1517953498488696760	600 35 0.900000 0.086000 0.081000 800 32 0.900000 0.755000 0.692000 600 39 1.000000 0.052000 0.052000 1.200000 0.045000 0.054000
1517953498997800843	600 35 0.900000 0.093000 0.088000 800 33 0.900000 0.996000 0.913000 600 39 1.000000 0.052000 0.052000 1.200000 0.032000 0.038000
1517953499506876510	600 36 0.900000 0.086000 0.081000 800 32 0.900000 0.797000 0.731000 600 39 1.000000 0.051000 0.051000 1.200000 0.045000 0.054000
1517953500016628593	600 36 0.900000 0.091000 0.086000 800 33 0.900000 0.951000 0.872000 600 40 1.000000 0.052000 0.052000 1.200000 0.032000 0.038000
1517953500525852760	600 36 0.900000 0.089000 0.084000 800 33 0.900000 0.900000 0.826000 600 39 1.000000 0.051000 0.051000 1.200000 0.041000 0.049000
1517953501034909260	600 36 0.900000 0.095000 0.090000 800 33 0.900000 0.977000 0.896000 600 40 1.000000 0.052000 0.052000 1.200000 0.032000 0.038000
1517953501544371593	600 35 0.900000 0.094000 0.089000 800 32 0.900000 0.993000 0.910000 600 38 1.000000 0.052000 0.052000 1.200000 0.041000 0.049000
1517953502053552593	600 36 0.900000 0.069000 0.065000 800 33 0.900000 0.774000 0.712000 600 39 1.000000 0.052000 0.052000 1.200000 0.043000 0.051000
1517953502562232469	600 36 0.900000 0.094000 0.089000 800 33 0.900000 0.972000 0.891000 600 40 1.000000 0.052000 0.052000 1.200000 0.034000 0.041000
1517953503071380219	600 36 0.900000 0.071000 0.067000 800 33 0.900000 0.825000 0.757000 600 40 1.000000 0.052000 0.052000 1.200000 0.045000 0.054000
1517953503580466094	600 36 0.900000 0.091000 0.086000 800 32 0.900000 0.996000 0.913000 600 40 1.000000 0.052000 0.052000 1.200000 0.033000 0.039000
1517953504089505927	600 36 0.900000 0.066000 0.062000 800 33 0.900000 0.817000 0.749000 600 39 1.000000 0.052000 0.052000 1.200000 0.043000 0.051000
1517953504598602802	600 36 0.900000 0.094000 0.089000 800 33 0.900000 0.966000 0.886000 600 40 1.000000 0.052000 0.052000 1.200000 0.032000 0.038000
1517953505107909344	600 36 0.900000 0.091000 0.086000 800 33 0.900000 0.978000 0.896000 600 39 1.000000 0.052000 0.052000 1.200000 0.037000 0.044000
1517953505617167052	600 36 0.900000 0.093000 0.088000 800 33 0.900000 0.991000 0.908000 600 39 1.000000 0.052000 0.052000 1.200000 0.033000 0.039000
1517953506126342011	600 35 0.900000 0.091000 0.086000 800 32 0.900000 0.992000 0.909000 600 39 1.000000 0.052000 0.052000 1.200000 0.035000 0.042000
1517953506635647552	600 36 0.900000 0.101000 0.095000 800 33 0.900000 1.037000 0.950000 600 40 1.000000 0.052000 0.052000 1.200000 0.050000 0.060000
1517953507145002969	600 36 0.900000 0.095000 0.090000 800 33 0.900000 0.953000 0.873000 600 39 1.000000 0.052000 0.052000 1.200000 0.035000 0.042000
1517953507654335219	600 36 0.900000 0.091000 0.086000 800 33 0.900000 0.997000 0.914000 600 40 1.000000 0.052000 0.052000 1.200000 0.046000 0.055000
1517953508163424053	600 36 0.900000 0.095000 0.090000 800 33 0.900000 0.990000 0.907000 600 40 1.000000 0.052000 0.052000 1.200000 0.034000 0.041000
1517953508675616053	600 36 0.900000 0.084000 0.079000 800 33 0.900000 0.841000 0.773000 600 40 1.000000 0.052000 0.052000 1.200000 0.033000 0.039000
1517953509185557386	600 36 0.900000 0.094000 0.089000 800 33 0.900000 0.972000 0.891000 600 39 1.000000 0.052000 0.052000 1.200000 0.039000 0.047000
1517953509694669386	600 36 0.900000 0.086000 0.081000 800 33 0.900000 0.995000 0.912000 600 40 1.000000 0.052000 0.052000 1.200000 0.035000 0.042000
1517953510203809011	600 36 0.900000 0.094000 0.089000 800 33 0.900000 0.999000 0.916000 600 40 1.000000 0.052000 0.052000 1.200000 0.040000 0.048000
1517953510712965928	600 36 0.900000 0.094000 0.089000 800 33 0.900000 0.995000 0.912000 600 39 1.000000 0.052000 0.052000 1.200000 0.035000 0.042000
1517953511221889178	600 36 0.900000 0.073000 0.069000 800 33 0.900000 1.003000 0.919000 600 40 1.000000 0.052000 0.052000 1.200000 0.045000 0.054000
1517953511731118428	600 35 0.900000 0.099000 0.094000 800 32 0.900000 0.976000 0.894000 600 39 1.000000 0.052000 0.052000 1.200000 0.039000 0.047000
1517953512240307595	600 36 0.900000 0.068000 0.064000 800 33 0.900000 0.992000 0.909000 600 40 1.000000 0.051000 0.051000 1.200000 0.045000 0.054000
1517953512756388011	600 36 0.900000 0.096000 0.091000 800 33 0.900000 0.956000 0.876000 600 39 1.000000 0.052000 0.052000 1.200000 0.036000 0.043000
1517953513266324011	600 36 0.900000 0.074000 0.070000 800 33 0.900000 0.951000 0.873000 600 40 1.000000 0.052000 0.052000 1.200000 0.052000 0.062000
1517953513775612220	600 36 0.900000 0.094000 0.089000 800 33 0.900000 0.995000 0.912000 600 40 1.000000 0.052000 0.052000 1.200000 0.035000 0.042000
1517953514284920720	600 36 0.900000 0.070000 0.066000 800 33 0.900000 0.818000 0.750000 600 40 1.000000 0.052000 0.052000 1.200000 0.039000 0.047000
1517953514794011053	600 36 0.900000 0.092000 0.087000 800 33 0.900000 0.951000 0.873000 600 40 1.000000 0.052000 0.052000 1.200000 0.035000 0.042000
1517953515303146345	600 36 0.900000 0.066000 0.062000 800 33 0.900000 0.780000 0.716000 600 40 1.000000 0.052000 0.052000 1.200000 0.036000 0.043000
1517953515812275095	600 36 0.900000 0.096000 0.091000 800 33 0.900000 0.995000 0.912000 600 40 1.000000 0.052000 0.052000 1.200000 0.035000 0.042000
1517953516321521512	600 36 0.900000 0.091000 0.086000 800 33 0.900000 0.963000 0.883000 600 40 1.000000 0.052000 0.052000 1.200000 0.035000 0.042000
1517953516830793304	600 36 0.900000 0.101000 0.095000 800 33 0.900000 1.037000 0.950000 600 40 1.000000 0.052000 0.052000 1.200000 0.047000 0.056000
1517953517340381887	600 36 0.900000 0.093000 0.088000 800 33 0.900000 1.003000 0.919000 600 38 1.000000 0.052000 0.052000 1.200000 0.034000 0.041000
1517953517849644304	600 36 0.900000 0.071000 0.067000 800 33 0.900000 0.949000 0.870000 600 39 1.000000 0.052000 0.052000 1.200000 0.043000 0.052000
1517953518358767387	600 36 0.900000 0.097000 0.092000 800 33 0.900000 0.994000 0.911000 600 40 1.000000 0.052000 0.052000 1.200000 0.034000 0.041000
1517953518867893220	600 36 0.900000 0.074000 0.070000 800 33 0.900000 0.776000 0.713000 600 40 1.000000 0.052000 0.052000 1.200000 0.039000 0.047000
1517953519376956512	600 36 0.900000 0.094000 0.089000 800 33 0.900000 0.949000 0.871000 600 40 1.000000 0.052000 0.052000 1.200000 0.035000 0.042000
1517953519886187096	600 36 0.900000 0.083000 0.078000 800 33 0.900000 0.776000 0.711000 600 40 1.000000 0.052000 0.052000 1.200000 0.035000 0.042000
1517953520395242429	600 36 0.900000 0.094000 0.089000 800 33 0.900000 0.992000 0.909000 600 40 1.000000 0.052000 0.052000 1.200000 0.033000 0.039000
1517953520904342179	600 36 0.900000 0.087000 0.082000 800 33 0.900000 0.781000 0.718000 600 40 1.000000 0.052000 0.052000 1.200000 0.034000 0.041000
1517953521413433512	600 36 0.900000 0.091000 0.086000 800 33 0.900000 0.997000 0.914000 600 40 1.000000 0.052000 0.052000 1.200000 0.035000 0.042000
1517953521922510263	600 35 0.900000 0.102000 0.096000 800 32 0.900000 0.837000 0.768000 600 40 1.000000 0.052000 0.052000 1.200000 0.041000 0.049000
1517953522431651304	600 36 0.900000 0.095000 0.090000 800 33 0.900000 0.957000 0.877000 600 40 1.000000 0.052000 0.052000 1.200000 0.036000 0.043000
1517953522943857804	600 36 0.900000 0.105000 0.099000 800 33 0.900000 0.998000 0.915000 600 39 1.000000 0.052000 0.052000 1.200000 0.033000 0.039000
1517953523453746596	600 36 0.900000 0.097000 0.091000 800 33 0.900000 0.993000 0.910000 600 40 1.000000 0.052000 0.052000 1.200000 0.040000 0.048000
1517953523962888179	600 36 0.900000 0.097000 0.091000 800 33 0.900000 0.959000 0.879000 600 40 1.000000 0.052000 0.052000 1.200000 0.035000 0.042000
1517953524472179096	600 36 0.900000 0.095000 0.090000 800 33 0.900000 1.003000 0.919000 600 40 1.000000 0.052000 0.052000 1.200000 0.037000 0.044000
1517953524981259138	600 36 0.900000 0.096000 0.091000 800 33 0.900000 1.008000 0.924000 600 40 1.000000 0.052000 0.052000 1.200000 0.036000 0.043000
1517953525490382346	600 36 0.900000 0.097000 0.092000 800 33 0.900000 0.990000 0.907000 600 40 1.000000 0.052000 0.052000 1.200000 0.035000 0.042000
1517953525999582805	600 36 0.900000 0.094000 0.089000 800 33 0.900000 1.005000 0.921000 600 40 1.000000 0.052000 0.052000 1.200000 0.035000 0.042000
1517953526508725763	600 36 0.900000 0.084000 0.079000 800 33 0.900000 1.002000 0.917000 600 39 1.000000 0.052000 0.052000 1.200000 0.036000 0.043000
1517953527017943180	600 36 0.900000 0.099000 0.093000 800 33 0.900000 1.018000 0.933000 600 40 1.000000 0.052000 0.052000 1.200000 0.041000 0.049000
1517953527526987597	600 36 0.900000 0.067000 0.063000 800 33 0.900000 1.006000 0.922000 600 40 1.000000 0.052000 0.052000 1.200000 0.038000 0.045000
1517953528036266638	600 36 0.900000 0.099000 0.094000 800 33 0.900000 1.000000 0.917000 600 40 1.000000 0.052000 0.052000 1.200000 0.035000 0.042000
1517953528545519138	600 36 0.900000 0.068000 0.064000 800 33 0.900000 0.923000 0.846000 600 39 1.000000 0.052000 0.052000 1.200000 0.041000 0.049000
1517953529054598805	600 36 0.900000 0.096000 0.091000 800 33 0.900000 0.995000 0.912000 600 40 1.000000 0.052000 0.052000 1.200000 0.034000 0.041000
1517953529563910055	600 36 0.900000 0.080000 0.076000 800 33 0.900000 0.772000 0.708000 600 40 1.000000 0.052000 0.052000 1.200000 0.045000 0.054000
1517953530073000805	600 36 0.900000 0.095000 0.090000 800 33 0.900000 0.995000 0.912000 600 40 1.000000 0.052000 0.052000 1.200000 0.034000 0.041000
1517953530582293139	600 36 0.900000 0.070000 0.066000 800 33 0.900000 0.760000 0.697000 600 40 1.000000 0.052000 0.052000 1.200000 0.044000 0.053000
1517953531091495097	600 36 0.900000 0.099000 0.094000 800 33 0.900000 1.016000 0.931000 600 40 1.000000 0.052000 0.052000 1.200000 0.036000 0.043000
1517953531600773305	600 36 0.900000 0.097000 0.091000 800 33 0.900000 0.995000 0.912000 600 40 1.000000 0.052000 0.052000 1.200000 0.040000 0.048000
1517953532109948180	600 36 0.900000 0.098000 0.092000 800 33 0.900000 1.008000 0.924000 600 40 1.000000 0.051000 0.051000 1.200000 0.042000 0.050000
1517953532619045430	600 36 0.900000 0.069000 0.065000 800 33 0.900000 0.831000 0.762000 600 40 1.000000 0.052000 0.052000 1.200000 0.044000 0.053000
1517953533131673722	600 36 0.900000 0.100000 0.094000 800 33 0.900000 0.986000 0.904000 600 39 1.000000 0.052000 0.052000 1.200000 0.036000 0.043000
1517953533641822972	600 35 0.900000 0.087000 0.082000 800 33 0.900000 0.840000 0.770000 600 39 1.000000 0.052000 0.052000 1.200000 0.051000 0.061000
1517953534151268972	600 36 0.900000 0.098000 0.093000 800 33 0.900000 1.010000 0.926000 600 39 1.000000 0.052000 0.052000 1.200000 0.034000 0.041000
1517953534660510306	600 36 0.900000 0.086000 0.081000 800 33 0.900000 0.781000 0.718000 600 40 1.000000 0.052000 0.052000 1.200000 0.042000 0.050000
1517953535169886431	600 34 0.900000 0.093000 0.088000 800 33 0.900000 0.956000 0.876000 600 38 1.000000 0.052000 0.052000 1.200000 0.032000 0.038000
1517953535679146597	600 36 0.900000 0.098000 0.093000 800 33 0.900000 0.852000 0.782000 600 40 1.000000 0.051000 0.051000 1.200000 0.039000 0.047000
1517953536188305973	600 35 0.900000 0.095000 0.090000 800 33 0.900000 0.996000 0.913000 600 38 1.000000 0.052000 0.052000 1.200000 0.034000 0.041000
1517953536697583514	600 36 0.900000 0.072000 0.068000 800 33 0.900000 1.000000 0.917000 600 40 1.000000 0.052000 0.052000 1.200000 0.033000 0.039000
1517953537206855139	600 35 0.900000 0.104000 0.098000 800 33 0.900000 1.007000 0.923000 600 38 1.000000 0.052000 0.052000 1.200000 0.033000 0.039000
1517953537716148348	600 36 0.900000 0.099000 0.094000 800 33 0.900000 1.019000 0.933000 600 40 1.000000 0.052000 0.052000 1.200000 0.034000 0.041000
1517953538226682806	600 35 0.900000 0.097000 0.092000 800 33 0.900000 0.965000 0.883000 600 38 1.000000 0.052000 0.052000 1.200000 0.034000 0.041000
1517953538736472806	600 36 0.900000 0.069000 0.065000 800 33 0.900000 0.783000 0.718000 600 40 1.000000 0.051000 0.051000 1.200000 0.043000 0.051000
1517953539245853306	600 34 0.900000 0.094000 0.089000 800 32 0.900000 0.975000 0.894000 600 38 1.000000 0.052000 0.052000 1.200000 0.032000 0.038000
1517953539754963181	600 36 0.900000 0.069000 0.065000 800 32 0.900000 0.778000 0.714000 600 40 1.000000 0.052000 0.052000 1.200000 0.042000 0.050000
1517953540264295056	600 35 0.900000 0.094000 0.089000 800 33 0.900000 0.956000 0.876000 600 39 1.000000 0.052000 0.052000 1.200000 0.034000 0.041000
1517953540773624973	600 36 0.900000 0.073000 0.069000 800 33 0.900000 0.790000 0.726000 600 39 1.000000 0.052000 0.052000 1.200000 0.043000 0.051000
1517953541282900640	600 36 0.900000 0.094000 0.089000 800 33 0.900000 0.960000 0.880000 600 40 1.000000 0.052000 0.052000 1.200000 0.032000 0.038000
1517953541792042973	600 36 0.900000 0.078000 0.074000 800 33 0.900000 0.757000 0.696000 600 40 1.000000 0.051000 0.051000 1.200000 0.045000 0.054000
1517953542301160807	600 36 0.900000 0.104000 0.098000 800 33 0.900000 1.002000 0.918000 600 40 1.000000 0.052000 0.052000 1.200000 0.035000 0.042000
1517953542810217932	600 36 0.900000 0.081000 0.076000 800 33 0.900000 0.761000 0.697000 600 40 1.000000 0.052000 0.052000 1.200000 0.043000 0.051000
1517953543320852432	600 36 0.900000 0.090000 0.085000 800 33 0.900000 0.991000 0.908000 600 40 1.000000 0.052000 0.052000 1.200000 0.033000 0.039000
1517953543830454515	600 36 0.900000 0.104000 0.098000 800 33 0.900000 0.790000 0.725000 600 40 1.000000 0.051000 0.051000 1.200000 0.045000 0.054000
1517953544339645765	600 36 0.900000 0.091000 0.086000 800 33 0.900000 0.992000 0.909000 600 40 1.000000 0.052000 0.052000 1.200000 0.033000 0.039000
1517953544848774224	600 36 0.900000 0.087000 0.082000 800 33 0.900000 0.774000 0.712000 600 39 1.000000 0.052000 0.052000 1.200000 0.043000 0.051000
1517953545357899057	600 36 0.900000 0.094000 0.089000 800 33 0.900000 0.972000 0.891000 600 39 1.000000 0.052000 0.052000 1.200000 0.032000 0.038000
1517953545867008140	600 35 0.900000 0.094000 0.089000 800 32 0.900000 0.996000 0.913000 600 39 1.000000 0.052000 0.052000 1.200000 0.033000 0.039000
1517953546376278099	600 36 0.900000 0.078000 0.074000 800 33 0.900000 0.896000 0.822000 600 40 1.000000 0.052000 0.052000 1.200000 0.037000 0.044000
1517953546885558015	600 35 0.900000 0.097000 0.091000 800 33 0.900000 0.992000 0.909000 600 38 1.000000 0.052000 0.052000 1.200000 0.033000 0.039000
1517953547394811349	600 36 0.900000 0.097000 0.091000 800 33 0.900000 0.818000 0.750000 600 40 1.000000 0.052000 0.052000 1.200000 0.044000 0.053000
1517953547904036682	600 36 0.900000 0.098000 0.092000 800 33 0.900000 0.955000 0.875000 600 40 1.000000 0.052000 0.052000 1.200000 0.032000 0.038000
1517953548413140682	600 36 0.900000 0.081000 0.076000 800 33 0.900000 0.785000 0.722000 600 40 1.000000 0.052000 0.052000 1.200000 0.043000 0.051000
1517953548922443474	600 36 0.900000 0.097000 0.091000 800 33 0.900000 0.990000 0.907000 600 40 1.000000 0.052000 0.052000 1.200000 0.035000 0.042000
1517953549431808807	600 36 0.900000 0.083000 0.078000 800 33 0.900000 0.775000 0.713000 600 40 1.000000 0.052000 0.052000 1.200000 0.035000 0.042000
1517953549940881516	600 36 0.900000 0.094000 0.089000 800 33 0.900000 0.952000 0.872000 600 40 1.000000 0.052000 0.052000 1.200000 0.035000 0.042000
1517953550449966058	600 36 0.900000 0.084000 0.079000 800 33 0.900000 0.768000 0.705000 600 40 1.000000 0.052000 0.052000 1.200000 0.033000 0.039000
1517953550958946433	600 36 0.900000 0.094000 0.089000 800 33 0.900000 0.979000 0.897000 600 40 1.000000 0.052000 0.052000 1.200000 0.033000 0.039000
1517953551468255766	600 36 0.900000 0.082000 0.077000 800 33 0.900000 0.767000 0.704000 600 40 1.000000 0.051000 0.051000 1.200000 0.033000 0.039000
1517953551977329058	600 36 0.900000 0.095000 0.090000 800 33 0.900000 0.991000 0.908000 600 40 1.000000 0.051000 0.051000 1.200000 0.034000 0.041000
1517953552486694349	600 36 0.900000 0.090000 0.085000 800 33 0.900000 0.792000 0.726000 600 39 1.000000 0.052000 0.052000 1.200000 0.040000 0.048000
1517953552996054183	600 36 0.900000 0.078000 0.074000 800 33 0.900000 0.984000 0.902000 600 40 1.000000 0.052000 0.052000 1.200000 0.043000 0.051000
1517953553507488850	600 36 0.900000 0.094000 0.089000 800 33 0.900000 1.008000 0.924000 600 39 1.000000 0.052000 0.052000 1.200000 0.033000 0.039000
1517953554017238058	600 36 0.900000 0.094000 0.089000 800 33 0.900000 0.898000 0.824000 600 39 1.000000 0.052000 0.052000 1.200000 0.049000 0.059000
1517953554526311766	600 36 0.900000 0.094000 0.089000 800 33 0.900000 0.958000 0.878000 600 40 1.000000 0.052000 0.052000 1.200000 0.035000 0.042000
1517953555035535058	600 36 0.900000 0.067000 0.063000 800 33 0.900000 0.771000 0.707000 600 40 1.000000 0.052000 0.052000 1.200000 0.037000 0.044000
1517953555544790142	600 36 0.900000 0.099000 0.094000 800 33 0.900000 0.957000 0.877000 600 40 1.000000 0.052000 0.052000 1.200000 0.034000 0.041000
1517953556054172433	600 36 0.900000 0.095000 0.090000 800 33 0.900000 0.746000 0.684000 600 40 1.000000 0.052000 0.052000 1.200000 0.035000 0.042000
1517953556563399350	600 36 0.900000 0.096000 0.091000 800 33 0.900000 0.990000 0.907000 600 40 1.000000 0.052000 0.052000 1.200000 0.034000 0.041000
1517953557072496225	600 36 0.900000 0.097000 0.091000 800 33 0.900000 0.727000 0.668000 600 40 1.000000 0.052000 0.052000 1.200000 0.034000 0.041000
1517953557581652558	600 36 0.900000 0.106000 0.100000 800 33 0.900000 0.994000 0.911000 600 40 1.000000 0.052000 0.052000 1.200000 0.041000 0.049000
1517953558091031517	600 36 0.900000 0.096000 0.091000 800 33 0.900000 0.800000 0.736000 600 40 1.000000 0.052000 0.052000 1.200000 0.036000 0.043000
1517953558600372142	600 36 0.900000 0.096000 0.091000 800 33 0.900000 0.969000 0.888000 600 40 1.000000 0.052000 0.052000 1.200000 0.036000 0.043000
1517953559109452392	600 35 0.900000 0.096000 0.091000 800 33 0.900000 0.873000 0.801000 600 39 1.000000 0.052000 0.052000 1.200000 0.034000 0.041000
1517953559618526642	600 36 0.900000 0.097000 0.091000 800 33 0.900000 0.976000 0.894000 600 40 1.000000 0.052000 0.052000 1.200000 0.039000 0.047000
1517953560128074934	600 35 0.900000 0.094000 0.089000 800 33 0.900000 0.990000 0.908000 600 39 1.000000 0.052000 0.052000 1.200000 0.032000 0.038000
1517953560637340850	600 36 0.900000 0.069000 0.065000 800 33 0.900000 0.785000 0.720000 600 40 1.000000 0.052000 0.052000 1.200000 0.038000 0.045000
1517953561146438559	600 36 0.900000 0.094000 0.089000 800 33 0.900000 0.976000 0.894000 600 40 1.000000 0.052000 0.052000 1.200000 0.036000 0.043000
1517953561655776517	600 36 0.900000 0.071000 0.067000 800 33 0.900000 0.770000 0.708000 600 40 1.000000 0.051000 0.051000 1.200000 0.037000 0.044000
1517953562164962517	600 36 0.900000 0.096000 0.091000 800 33 0.900000 0.953000 0.873000 600 40 1.000000 0.052000 0.052000 1.200000 0.035000 0.042000
1517953562674015809	600 36 0.900000 0.101000 0.095000 800 33 0.900000 0.775000 0.711000 600 40 1.000000 0.052000 0.052000 1.200000 0.041000 0.049000
1517953563183319976	600 36 0.900000 0.096000 0.091000 800 33 0.900000 1.006000 0.922000 600 40 1.000000 0.052000 0.052000 1.200000 0.035000 0.042000
1517953563694872267	600 36 0.900000 0.095000 0.090000 800 33 0.900000 0.964000 0.883000 600 40 1.000000 0.052000 0.052000 1.200000 0.034000 0.041000
1517953564204169893	600 36 0.900000 0.116000 0.109000 800 33 0.900000 1.070000 0.981000 600 40 1.000000 0.052000 0.052000 1.200000 0.055000 0.066000
1517953564713348518	600 36 0.900000 0.098000 0.093000 800 33 0.900000 0.965000 0.884000 600 40 1.000000 0.052000 0.052000 1.200000 0.034000 0.041000
1517953565222499934	600 36 0.900000 0.099000 0.094000 800 33 0.900000 1.012000 0.928000 600 40 1.000000 0.052000 0.052000 1.200000 0.036000 0.043000
1517953565731911101	600 36 0.900000 0.085000 0.080000 800 33 0.900000 0.969000 0.888000 600 40 1.000000 0.051000 0.051000 1.200000 0.033000 0.039000
1517953566240982976	600 36 0.900000 0.095000 0.090000 800 33 0.900000 0.994000 0.911000 600 40 1.000000 0.052000 0.052000 1.200000 0.033000 0.039000
1517953566750518310	600 36 0.900000 0.074000 0.070000 800 33 0.900000 0.959000 0.879000 600 40 1.000000 0.052000 0.052000 1.200000 0.033000 0.039000
1517953567259781185	600 36 0.900000 0.095000 0.090000 800 33 0.900000 0.985000 0.903000 600 40 1.000000 0.052000 0.052000 1.200000 0.033000 0.039000
1517953567768853268	600 35 0.900000 0.103000 0.097000 800 33 0.900000 1.006000 0.922000 600 39 1.000000 0.052000 0.052000 1.200000 0.039000 0.047000
1517953568277983810	600 36 0.900000 0.070000 0.066000 800 33 0.900000 0.788000 0.724000 600 40 1.000000 0.052000 0.052000 1.200000 0.046000 0.055000
1517953568787274726	600 36 0.900000 0.093000 0.088000 800 33 0.900000 0.965000 0.883000 600 40 1.000000 0.052000 0.052000 1.200000 0.034000 0.041000
1517953569296599351	600 36 0.900000 0.069000 0.065000 800 33 0.900000 0.785000 0.722000 600 40 1.000000 0.052000 0.052000 1.200000 0.044000 0.053000
1517953569805938560	600 36 0.900000 0.099000 0.094000 800 33 0.900000 1.000000 0.917000 600 40 1.000000 0.052000 0.052000 1.200000 0.035000 0.042000
1517953570314976310	600 36 0.900000 0.090000 0.085000 800 33 0.900000 0.939000 0.862000 600 40 1.000000 0.052000 0.052000 1.200000 0.039000 0.047000
1517953570824148935	600 36 0.900000 0.097000 0.092000 800 33 0.900000 0.965000 0.884000 600 40 1.000000 0.052000 0.052000 1.200000 0.034000 0.041000
1517953571333220060	600 36 0.900000 0.099000 0.094000 800 33 0.900000 1.034000 0.948000 600 40 1.000000 0.052000 0.052000 1.200000 0.034000 0.041000
1517953571842342352	600 36 0.900000 0.080000 0.076000 800 33 0.900000 1.008000 0.924000 600 40 1.000000 0.052000 0.052000 1.200000 0.035000 0.042000
1517953572351492227	600 36 0.900000 0.094000 0.089000 800 33 0.900000 1.008000 0.923000 600 40 1.000000 0.052000 0.052000 1.200000 0.034000 0.041000
1517953572860642477	600 36 0.900000 0.073000 0.069000 800 33 0.900000 0.951000 0.872000 600 40 1.000000 0.051000 0.051000 1.200000 0.046000 0.055000
1517953573369817435	600 36 0.900000 0.093000 0.088000 800 33 0.900000 0.959000 0.879000 600 40 1.000000 0.052000 0.052000 1.200000 0.033000 0.039000
1517953573882311352	600 36 0.900000 0.072000 0.068000 800 33 0.900000 0.731000 0.671000 600 40 1.000000 0.052000 0.052000 1.200000 0.044000 0.053000
1517953574391449269	600 36 0.900000 0.116000 0.109000 800 33 0.900000 1.041000 0.954000 600 40 1.000000 0.052000 0.052000 1.200000 0.042000 0.050000
1517953574900741810	600 36 0.900000 0.098000 0.092000 800 33 0.900000 0.961000 0.881000 600 40 1.000000 0.052000 0.052000 1.200000 0.035000 0.042000
1517953575409858436	600 36 0.900000 0.094000 0.089000 800 33 0.900000 1.007000 0.923000 600 40 1.000000 0.051000 0.051000 1.200000 0.035000 0.042000
1517953575919099936	600 36 0.900000 0.095000 0.090000 800 33 0.900000 1.009000 0.925000 600 40 1.000000 0.052000 0.052000 1.200000 0.036000 0.043000
1517953576428190227	600 36 0.900000 0.095000 0.090000 800 33 0.900000 1.005000 0.921000 600 40 1.000000 0.052000 0.052000 1.200000 0.037000 0.044000
1517953576937392644	600 36 0.900000 0.090000 0.085000 800 33 0.900000 0.931000 0.853000 600 40 1.000000 0.052000 0.052000 1.200000 0.041000 0.049000
1517953577446710311	600 36 0.900000 0.098000 0.092000 800 33 0.900000 0.982000 0.900000 600 40 1.000000 0.052000 0.052000 1.200000 0.034000 0.041000
1517953577955613103	600 36 0.900000 0.085000 0.080000 800 33 0.900000 0.929000 0.851000 600 40 1.000000 0.052000 0.052000 1.200000 0.046000 0.055000
1517953578464657686	600 36 0.900000 0.093000 0.088000 800 33 0.900000 0.963000 0.883000 600 40 1.000000 0.052000 0.052000 1.200000 0.033000 0.039000
1517953578973852519	600 36 0.900000 0.070000 0.066000 800 33 0.900000 0.955000 0.876000 600 40 1.000000 0.052000 0.052000 1.200000 0.040000 0.048000
1517953579483039144	600 36 0.900000 0.094000 0.089000 800 33 0.900000 0.990000 0.907000 600 40 1.000000 0.052000 0.052000 1.200000 0.035000 0.042000
1517953579992158686	600 36 0.900000 0.070000 0.066000 800 33 0.900000 0.991000 0.908000 600 40 1.000000 0.052000 0.052000 1.200000 0.035000 0.042000
1517953580501254269	600 36 0.900000 0.094000 0.089000 800 33 0.900000 0.991000 0.908000 600 40 1.000000 0.052000 0.052000 1.200000 0.034000 0.041000
1517953581010412811	600 35 0.900000 0.096000 0.091000 800 33 0.900000 0.999000 0.916000 600 39 1.000000 0.052000 0.052000 1.200000 0.034000 0.041000
1517953581519739561	600 36 0.900000 0.093000 0.088000 800 33 0.900000 0.991000 0.908000 600 40 1.000000 0.052000 0.052000 1.200000 0.034000 0.041000
1517953582029004686	600 36 0.900000 0.091000 0.086000 800 33 0.900000 0.993000 0.910000 600 38 1.000000 0.052000 0.052000 1.200000 0.033000 0.039000
1517953582538210103	600 36 0.900000 0.070000 0.066000 800 33 0.900000 0.768000 0.706000 600 40 1.000000 0.052000 0.052000 1.200000 0.045000 0.054000
1517953583047823811	600 35 0.900000 0.101000 0.095000 800 33 0.900000 0.992000 0.909000 600 39 1.000000 0.052000 0.052000 1.200000 0.040000 0.048000
1517953583557101020	600 36 0.900000 0.071000 0.067000 800 33 0.900000 0.763000 0.701000 600 40 1.000000 0.051000 0.051000 1.200000 0.045000 0.054000
1517953584066173770	600 36 0.900000 0.094000 0.089000 800 33 0.900000 0.957000 0.877000 600 40 1.000000 0.052000 0.052000 1.200000 0.034000 0.041000
1517953584575448853	600 36 0.900000 0.086000 0.081000 800 33 0.900000 0.810000 0.741000 600 40 1.000000 0.052000 0.052000 1.200000 0.059000 0.071000
1517953585084536520	600 36 0.900000 0.094000 0.089000 800 33 0.900000 1.012000 0.928000 600 40 1.000000 0.052000 0.052000 1.200000 0.034000 0.041000
1517953585593837728	600 36 0.900000 0.069000 0.065000 800 33 0.900000 0.749000 0.689000 600 40 1.000000 0.052000 0.052000 1.200000 0.045000 0.054000
1517953586103031645	600 36 0.900000 0.093000 0.088000 800 33 0.900000 1.003000 0.919000 600 40 1.000000 0.052000 0.052000 1.200000 0.035000 0.042000
1517953586612206854	600 36 0.900000 0.068000 0.064000 800 33 0.900000 0.786000 0.720000 600 40 1.000000 0.052000 0.052000 1.200000 0.046000 0.055000
1517953587121272145	600 36 0.900000 0.096000 0.091000 800 33 0.900000 0.995000 0.912000 600 40 1.000000 0.052000 0.052000 1.200000 0.033000 0.039000
1517953587630388854	600 36 0.900000 0.095000 0.090000 800 33 0.900000 0.756000 0.695000 600 40 1.000000 0.052000 0.052000 1.200000 0.045000 0.054000
1517953588139795479	600 36 0.900000 0.106000 0.100000 800 33 0.900000 1.002000 0.918000 600 40 1.000000 0.052000 0.052000 1.200000 0.035000 0.042000
1517953588648956312	600 36 0.900000 0.096000 0.091000 800 33 0.900000 0.777000 0.714000 600 40 1.000000 0.052000 0.052000 1.200000 0.044000 0.053000
1517953589157922354	600 36 0.900000 0.094000 0.089000 800 33 0.900000 0.993000 0.910000 600 40 1.000000 0.052000 0.052000 1.200000 0.032000 0.038000
1517953589667266021	600 35 0.900000 0.097000 0.091000 800 33 0.900000 0.971000 0.890000 600 39 1.000000 0.052000 0.052000 1.200000 0.036000 0.043000
1517953590176452521	600 36 0.900000 0.076000 0.072000 800 33 0.900000 0.996000 0.913000 600 40 1.000000 0.051000 0.051000 1.200000 0.036000 0.043000
1517953590685712146	600 35 0.900000 0.097000 0.091000 800 33 0.900000 0.989000 0.906000 600 39 1.000000 0.052000 0.052000 1.200000 0.034000 0.041000
1517953591194875479	600 36 0.900000 0.081000 0.076000 800 33 0.900000 0.963000 0.883000 600 40 1.000000 0.052000 0.052000 1.200000 0.042000 0.050000
1517953591704448146	600 36 0.900000 0.094000 0.089000 800 33 0.900000 0.996000 0.913000 600 39 1.000000 0.052000 0.052000 1.200000 0.033000 0.039000
1517953592213642604	600 36 0.900000 0.081000 0.076000 800 33 0.900000 0.895000 0.821000 600 40 1.000000 0.051000 0.051000 1.200000 0.040000 0.048000
1517953592722814813	600 36 0.900000 0.097000 0.091000 800 33 0.900000 0.995000 0.912000 600 40 1.000000 0.052000 0.052000 1.200000 0.035000 0.042000
1517953593232156354	600 36 0.900000 0.086000 0.081000 800 33 0.900000 0.846000 0.776000 600 40 1.000000 0.052000 0.052000 1.200000 0.042000 0.050000
1517953593741419271	600 36 0.900000 0.092000 0.087000 800 33 0.900000 0.949000 0.871000 600 40 1.000000 0.052000 0.052000 1.200000 0.035000 0.042000
1517953594250564896	600 33 0.900000 0.084000 0.079000 800 32 0.900000 0.309000 0.284000 600 37 1.000000 0.052000 0.052000 1.200000 0.037000 0.044000
1517953594759625063	600 33 0.900000 0.042000 0.039000 800 32 0.900000 0.155000 0.143000 600 37 1.000000 0.052000 0.052000 1.200000 0.038000 0.045000
