#Timestamp	CPU(0) Frequency(MHz)	CPU(0) Temperature(C)	A7 Voltage(V)	A7 Current(A)	A7 Power(W)	CPU(4) Frequency(MHz)	CPU(4) Temperature(C)	A15 Voltage(V)	A15 Current(A)	A15 Power(W)	GPU Frequency(MHz)	GPU Temperature(C)	GPU Voltage(V)	GPU Current(A)	GPU Power(W)	RAM Voltage(V)	RAM Current(A)	RAM Power(W)
1518035748126087981	300 49 0.900000 0.022000 0.020000 1500 47 1.000000 0.747000 0.817000 600 53 1.000000 0.054000 0.054000 1.200000 0.043000 0.051000
1518035748635787773	300 50 0.900000 0.023000 0.021000 1500 47 1.000000 0.910000 0.993000 600 53 1.000000 0.054000 0.054000 1.200000 0.035000 0.042000
1518035749146016523	300 50 0.900000 0.022000 0.020000 1500 48 1.000000 0.914000 0.998000 600 53 1.000000 0.054000 0.054000 1.200000 0.033000 0.039000
1518035749713633023	300 55 0.900000 0.023000 0.021000 1500 48 1.000000 0.908000 0.991000 600 58 1.000000 0.054000 0.054000 1.200000 0.035000 0.042000
1518035750269582107	300 60 0.900000 0.111000 0.101000 1500 51 1.100000 3.578000 3.957000 600 66 1.000000 0.054000 0.054000 1.200000 0.030000 0.036000
1518035750829563398	300 62 0.900000 0.111000 0.101000 1500 52 1.100000 3.619000 4.002000 600 69 1.000000 0.055000 0.055000 1.200000 0.029000 0.035000
1518035751393576232	300 63 0.900000 0.112000 0.102000 1500 53 1.100000 3.628000 4.012000 600 71 1.000000 0.055000 0.055000 1.200000 0.029000 0.035000
1518035751949540607	300 65 0.900000 0.112000 0.102000 1500 55 1.100000 3.634000 4.019000 600 72 1.000000 0.055000 0.055000 1.200000 0.030000 0.036000
1518035752505577940	300 65 0.900000 0.113000 0.103000 1500 55 1.100000 3.654000 4.041000 600 73 1.000000 0.055000 0.055000 1.200000 0.029000 0.035000
1518035753065542315	300 66 0.900000 0.113000 0.103000 1500 56 1.100000 3.642000 4.028000 600 74 1.000000 0.055000 0.055000 1.200000 0.030000 0.036000
1518035753629517857	300 67 0.900000 0.113000 0.103000 1500 57 1.100000 3.651000 4.038000 600 75 1.000000 0.056000 0.056000 1.200000 0.030000 0.036000
1518035754181531732	300 67 0.900000 0.114000 0.104000 1500 57 1.100000 3.674000 4.063000 600 75 1.000000 0.056000 0.056000 1.200000 0.029000 0.035000
1518035754737592690	300 68 0.900000 0.114000 0.104000 1500 58 1.100000 3.668000 4.060000 600 76 1.000000 0.056000 0.056000 1.200000 0.029000 0.035000
1518035755297451315	300 68 0.900000 0.114000 0.104000 1500 58 1.100000 3.669000 4.061000 600 76 1.000000 0.056000 0.056000 1.200000 0.029000 0.035000
1518035755845555566	300 69 0.900000 0.114000 0.104000 1500 58 1.100000 3.674000 4.063000 600 76 1.000000 0.056000 0.056000 1.200000 0.029000 0.035000
1518035756401546357	300 69 0.900000 0.114000 0.104000 1500 59 1.100000 3.666000 4.058000 600 77 1.000000 0.056000 0.056000 1.200000 0.030000 0.036000
1518035756961544024	300 69 0.900000 0.114000 0.104000 1500 59 1.100000 3.686000 4.076000 600 77 1.000000 0.057000 0.057000 1.200000 0.029000 0.035000
1518035757525547941	300 69 0.900000 0.114000 0.104000 1500 59 1.100000 3.673000 4.066000 600 77 1.000000 0.057000 0.057000 1.200000 0.029000 0.035000
1518035758085464857	300 70 0.900000 0.115000 0.104000 1500 59 1.100000 3.665000 4.053000 600 78 1.000000 0.057000 0.057000 1.200000 0.029000 0.035000
1518035758645501149	300 70 0.900000 0.115000 0.104000 1500 60 1.100000 3.665000 4.053000 600 78 1.000000 0.057000 0.057000 1.200000 0.029000 0.035000
1518035759197464941	300 70 0.900000 0.115000 0.104000 1500 60 1.100000 3.689000 4.083000 600 78 1.000000 0.057000 0.057000 1.200000 0.029000 0.035000
1518035759749525733	300 70 0.900000 0.115000 0.104000 1500 60 1.100000 3.689000 4.083000 600 78 1.000000 0.057000 0.057000 1.200000 0.029000 0.035000
1518035760309495816	300 70 0.900000 0.115000 0.104000 1500 60 1.100000 3.682000 4.075000 600 78 1.000000 0.057000 0.057000 1.200000 0.029000 0.035000
1518035760869520483	300 70 0.900000 0.115000 0.104000 1500 60 1.100000 3.681000 4.071000 600 78 1.000000 0.057000 0.057000 1.200000 0.029000 0.035000
1518035761429542400	300 71 0.900000 0.115000 0.104000 1500 60 1.100000 3.688000 4.078000 600 79 1.000000 0.057000 0.057000 1.200000 0.029000 0.035000
1518035761989490108	300 71 0.900000 0.115000 0.104000 1500 60 1.100000 3.679000 4.068000 600 79 1.000000 0.057000 0.057000 1.200000 0.029000 0.035000
1518035762545518733	300 71 0.900000 0.115000 0.104000 1500 61 1.100000 3.676000 4.069000 600 79 1.000000 0.057000 0.057000 1.200000 0.029000 0.035000
1518035763105553358	300 71 0.900000 0.115000 0.104000 1500 61 1.100000 3.683000 4.077000 600 79 1.000000 0.058000 0.058000 1.200000 0.029000 0.035000
1518035763661509066	300 71 0.900000 0.116000 0.105000 1500 61 1.100000 3.682000 4.075000 600 79 1.000000 0.057000 0.057000 1.200000 0.029000 0.035000
1518035764225534733	300 71 0.900000 0.115000 0.104000 1500 61 1.100000 3.680000 4.073000 600 79 1.000000 0.057000 0.057000 1.200000 0.029000 0.035000
1518035764789494608	300 71 0.900000 0.116000 0.105000 1500 61 1.100000 3.681000 4.074000 600 79 1.000000 0.057000 0.057000 1.200000 0.029000 0.035000
1518035765341517858	300 71 0.900000 0.116000 0.105000 1500 61 1.100000 3.679000 4.072000 600 79 1.000000 0.057000 0.057000 1.200000 0.029000 0.035000
1518035765905488192	300 71 0.900000 0.116000 0.105000 1500 61 1.100000 3.680000 4.073000 600 79 1.000000 0.057000 0.057000 1.200000 0.029000 0.035000
1518035766469504900	300 71 0.900000 0.116000 0.105000 1500 61 1.100000 3.683000 4.077000 600 79 1.000000 0.057000 0.057000 1.200000 0.029000 0.035000
1518035767029578900	300 71 0.900000 0.115000 0.104000 1500 61 1.100000 3.680000 4.073000 600 79 1.000000 0.057000 0.057000 1.200000 0.029000 0.034000
1518035767589507525	300 71 0.900000 0.115000 0.104000 1500 61 1.100000 3.671000 4.063000 600 80 1.000000 0.057000 0.057000 1.200000 0.029000 0.035000
1518035768141510275	300 71 0.900000 0.116000 0.105000 1500 61 1.100000 3.683000 4.077000 600 79 1.000000 0.057000 0.057000 1.200000 0.029000 0.034000
1518035768713552817	300 71 0.900000 0.116000 0.105000 1500 61 1.100000 3.684000 4.078000 600 80 1.000000 0.058000 0.058000 1.200000 0.029000 0.035000
1518035769265489609	300 72 0.900000 0.116000 0.105000 1500 61 1.100000 3.683000 4.077000 600 80 1.000000 0.057000 0.057000 1.200000 0.029000 0.035000
1518035769833494734	300 72 0.900000 0.116000 0.105000 1500 61 1.100000 3.683000 4.077000 600 80 1.000000 0.057000 0.057000 1.200000 0.029000 0.035000
1518035770385507067	300 72 0.900000 0.116000 0.105000 1500 61 1.100000 3.694000 4.089000 600 80 1.000000 0.057000 0.057000 1.200000 0.029000 0.035000
1518035770957477942	300 72 0.900000 0.116000 0.105000 1500 61 1.100000 3.708000 4.104000 600 80 1.000000 0.057000 0.057000 1.200000 0.029000 0.035000
1518035771509546026	300 72 0.900000 0.116000 0.105000 1500 62 1.100000 3.709000 4.105000 600 80 1.000000 0.057000 0.057000 1.200000 0.029000 0.035000
1518035772073431234	300 72 0.900000 0.116000 0.105000 1500 62 1.100000 3.713000 4.110000 600 80 1.000000 0.057000 0.057000 1.200000 0.029000 0.035000
1518035772637482234	300 72 0.900000 0.116000 0.105000 1500 62 1.100000 3.719000 4.116000 600 80 1.000000 0.058000 0.058000 1.200000 0.029000 0.035000
1518035773197504526	300 72 0.900000 0.116000 0.105000 1500 62 1.100000 3.720000 4.118000 600 80 1.000000 0.058000 0.058000 1.200000 0.029000 0.035000
1518035773761463901	300 72 0.900000 0.116000 0.105000 1500 62 1.100000 3.719000 4.116000 600 80 1.000000 0.058000 0.058000 1.200000 0.029000 0.035000
1518035774309551943	300 72 0.900000 0.116000 0.105000 1500 62 1.100000 3.720000 4.118000 600 80 1.000000 0.057000 0.057000 1.200000 0.030000 0.036000
1518035774869517651	300 72 0.900000 0.116000 0.105000 1500 62 1.100000 3.721000 4.119000 600 80 1.000000 0.058000 0.058000 1.200000 0.030000 0.036000
1518035775433550360	300 72 0.900000 0.116000 0.105000 1500 62 1.100000 3.720000 4.118000 600 80 1.000000 0.058000 0.058000 1.200000 0.030000 0.036000
1518035775969552151	300 72 0.900000 0.116000 0.105000 1500 62 1.100000 3.713000 4.110000 600 80 1.000000 0.058000 0.058000 1.200000 0.030000 0.036000
1518035776517515068	300 72 0.900000 0.116000 0.105000 1500 62 1.100000 3.711000 4.108000 600 80 1.000000 0.058000 0.058000 1.200000 0.030000 0.036000
1518035777077504693	300 72 0.900000 0.116000 0.105000 1500 62 1.100000 3.710000 4.106000 600 80 1.000000 0.057000 0.057000 1.200000 0.029000 0.035000
1518035777633513151	300 72 0.900000 0.116000 0.105000 1500 62 1.100000 3.695000 4.090000 600 80 1.000000 0.058000 0.058000 1.200000 0.029000 0.035000
1518035778185537943	300 72 0.900000 0.116000 0.105000 1500 62 1.100000 3.709000 4.105000 600 81 1.000000 0.058000 0.058000 1.200000 0.029000 0.035000
1518035778733564693	300 72 0.900000 0.116000 0.105000 1500 62 1.100000 3.709000 4.105000 600 81 1.000000 0.057000 0.057000 1.200000 0.030000 0.036000
1518035779305463485	300 72 0.900000 0.116000 0.105000 1500 62 1.100000 3.709000 4.105000 600 81 1.000000 0.058000 0.058000 1.200000 0.030000 0.036000
1518035779849556110	300 72 0.900000 0.116000 0.105000 1500 62 1.100000 3.710000 4.106000 600 81 1.000000 0.058000 0.058000 1.200000 0.029000 0.035000
1518035780405518360	300 72 0.900000 0.116000 0.105000 1500 62 1.100000 3.709000 4.105000 600 81 1.000000 0.058000 0.058000 1.200000 0.030000 0.036000
1518035780969493235	300 72 0.900000 0.116000 0.105000 1500 62 1.100000 3.701000 4.097000 600 81 1.000000 0.058000 0.058000 1.200000 0.030000 0.036000
1518035781517573110	300 72 0.900000 0.116000 0.105000 1500 62 1.100000 3.700000 4.095000 600 81 1.000000 0.058000 0.058000 1.200000 0.030000 0.036000
1518035782068111944	300 72 0.900000 0.116000 0.105000 1500 62 1.100000 3.699000 4.094000 600 81 1.000000 0.058000 0.058000 1.200000 0.030000 0.036000
1518035782633547402	300 72 0.900000 0.116000 0.105000 1500 62 1.100000 3.699000 4.094000 600 81 1.000000 0.058000 0.058000 1.200000 0.030000 0.036000
1518035783197528444	300 72 0.900000 0.116000 0.105000 1500 62 1.100000 3.697000 4.092000 600 81 1.000000 0.058000 0.058000 1.200000 0.029000 0.035000
1518035783757584069	300 72 0.900000 0.116000 0.105000 1500 62 1.100000 3.695000 4.090000 600 81 1.000000 0.058000 0.058000 1.200000 0.029000 0.034000
1518035784301554069	300 72 0.900000 0.116000 0.105000 1500 62 1.100000 3.698000 4.093000 600 81 1.000000 0.058000 0.058000 1.200000 0.029000 0.034000
1518035784865556027	300 73 0.900000 0.116000 0.105000 1500 62 1.100000 3.686000 4.080000 600 81 1.000000 0.058000 0.058000 1.200000 0.030000 0.036000
1518035785421532236	300 73 0.900000 0.116000 0.105000 1500 62 1.100000 3.677000 4.070000 600 81 1.000000 0.058000 0.058000 1.200000 0.029000 0.035000
1518035785981565319	300 73 0.900000 0.116000 0.105000 1500 62 1.100000 3.687000 4.081000 600 81 1.000000 0.058000 0.058000 1.200000 0.030000 0.036000
1518035786529580819	300 73 0.900000 0.116000 0.105000 1500 62 1.100000 3.694000 4.089000 600 81 1.000000 0.058000 0.058000 1.200000 0.029000 0.035000
1518035787073507569	300 73 0.900000 0.116000 0.105000 1500 62 1.100000 3.684000 4.078000 600 81 1.000000 0.058000 0.058000 1.200000 0.029000 0.035000
1518035787625573944	300 73 0.900000 0.116000 0.105000 1500 62 1.100000 3.693000 4.088000 600 81 1.000000 0.058000 0.058000 1.200000 0.029000 0.035000
1518035788169510528	300 73 0.900000 0.116000 0.105000 1500 62 1.100000 3.687000 4.081000 600 81 1.000000 0.058000 0.058000 1.200000 0.029000 0.035000
1518035788721529028	300 73 0.900000 0.116000 0.105000 1500 62 1.100000 3.702000 4.098000 600 81 1.000000 0.058000 0.058000 1.200000 0.029000 0.035000
1518035789281539570	300 73 0.900000 0.116000 0.105000 1500 62 1.100000 3.700000 4.095000 600 81 1.000000 0.058000 0.058000 1.200000 0.029000 0.035000
1518035789833513736	300 73 0.900000 0.116000 0.105000 1500 62 1.100000 3.691000 4.085000 600 81 1.000000 0.058000 0.058000 1.200000 0.029000 0.034000
1518035790393532403	300 73 0.900000 0.116000 0.105000 1500 62 1.100000 3.683000 4.077000 600 81 1.000000 0.058000 0.058000 1.200000 0.029000 0.035000
1518035790945469111	300 73 0.900000 0.116000 0.105000 1500 62 1.100000 3.715000 4.112000 600 81 1.000000 0.058000 0.058000 1.200000 0.030000 0.036000
1518035791497544570	300 73 0.900000 0.116000 0.105000 1500 62 1.100000 3.709000 4.105000 600 81 1.000000 0.058000 0.058000 1.200000 0.029000 0.035000
1518035792061507028	300 73 0.900000 0.116000 0.105000 1500 63 1.100000 3.717000 4.114000 600 81 1.000000 0.058000 0.058000 1.200000 0.030000 0.036000
1518035792613522112	300 73 0.900000 0.116000 0.105000 1500 63 1.100000 3.710000 4.106000 600 81 1.000000 0.058000 0.058000 1.200000 0.029000 0.035000
1518035793169552487	300 73 0.900000 0.116000 0.105000 1500 63 1.100000 3.715000 4.112000 600 81 1.000000 0.058000 0.058000 1.200000 0.029000 0.035000
1518035793729520487	300 73 0.900000 0.116000 0.105000 1500 63 1.100000 3.719000 4.116000 600 81 1.000000 0.058000 0.058000 1.200000 0.029000 0.035000
1518035794297545362	300 73 0.900000 0.116000 0.105000 1500 63 1.100000 3.733000 4.132000 600 81 1.000000 0.058000 0.058000 1.200000 0.029000 0.034000
1518035794853530862	300 73 0.900000 0.116000 0.105000 1500 63 1.100000 3.731000 4.130000 600 81 1.000000 0.058000 0.058000 1.200000 0.029000 0.035000
1518035795405532862	300 73 0.900000 0.116000 0.105000 1500 63 1.100000 3.724000 4.122000 600 81 1.000000 0.058000 0.058000 1.200000 0.029000 0.035000
1518035795957564029	300 73 0.900000 0.116000 0.105000 1500 63 1.100000 3.721000 4.119000 600 81 1.000000 0.058000 0.058000 1.200000 0.029000 0.035000
1518035796517509862	300 73 0.900000 0.116000 0.105000 1500 63 1.100000 3.722000 4.120000 600 81 1.000000 0.058000 0.058000 1.200000 0.030000 0.036000
1518035797081515029	300 73 0.900000 0.116000 0.105000 1500 63 1.100000 3.712000 4.109000 600 81 1.000000 0.058000 0.058000 1.200000 0.030000 0.036000
1518035797641500779	300 73 0.900000 0.116000 0.105000 1500 63 1.100000 3.711000 4.108000 600 81 1.000000 0.058000 0.058000 1.200000 0.030000 0.036000
1518035798189529154	300 73 0.900000 0.117000 0.106000 1500 63 1.100000 3.699000 4.094000 600 81 1.000000 0.058000 0.058000 1.200000 0.029000 0.035000
1518035798753525237	300 73 0.900000 0.116000 0.105000 1500 63 1.100000 3.708000 4.104000 600 81 1.000000 0.058000 0.058000 1.200000 0.029000 0.035000
1518035799309453529	300 73 0.900000 0.116000 0.105000 1500 63 1.100000 3.710000 4.106000 600 81 1.000000 0.058000 0.058000 1.200000 0.029000 0.035000
1518035799857566696	300 73 0.900000 0.116000 0.105000 1500 63 1.100000 3.711000 4.108000 600 81 1.000000 0.058000 0.058000 1.200000 0.029000 0.035000
1518035800409543571	300 73 0.900000 0.116000 0.105000 1500 63 1.100000 3.712000 4.109000 600 81 1.000000 0.058000 0.058000 1.200000 0.029000 0.035000
1518035800953544738	300 73 0.900000 0.116000 0.105000 1500 63 1.100000 3.708000 4.104000 600 81 1.000000 0.058000 0.058000 1.200000 0.029000 0.035000
1518035801505502529	300 73 0.900000 0.116000 0.105000 1500 63 1.100000 3.711000 4.108000 600 81 1.000000 0.058000 0.058000 1.200000 0.029000 0.035000
1518035802069452946	300 73 0.900000 0.116000 0.105000 1500 63 1.100000 3.704000 4.100000 600 81 1.000000 0.058000 0.058000 1.200000 0.029000 0.035000
1518035802625542779	300 73 0.900000 0.116000 0.105000 1500 63 1.100000 3.691000 4.085000 600 81 1.000000 0.058000 0.058000 1.200000 0.029000 0.035000
1518035803181507446	300 73 0.900000 0.116000 0.105000 1500 63 1.100000 3.709000 4.105000 600 81 1.000000 0.058000 0.058000 1.200000 0.029000 0.035000
1518035803729567238	300 73 0.900000 0.116000 0.105000 1500 63 1.100000 3.697000 4.092000 600 81 1.000000 0.058000 0.058000 1.200000 0.029000 0.034000
1518035804289524738	300 73 0.900000 0.116000 0.105000 1500 63 1.100000 3.692000 4.087000 600 81 1.000000 0.058000 0.058000 1.200000 0.029000 0.035000
1518035804849514321	300 73 0.900000 0.116000 0.105000 1500 63 1.100000 3.717000 4.114000 600 81 1.000000 0.058000 0.058000 1.200000 0.029000 0.035000
1518035805397467321	300 73 0.900000 0.116000 0.105000 1500 63 1.100000 3.720000 4.118000 600 81 1.000000 0.058000 0.058000 1.200000 0.029000 0.035000
1518035805961543572	300 73 0.900000 0.116000 0.105000 1500 63 1.100000 3.719000 4.116000 600 81 1.000000 0.058000 0.058000 1.200000 0.029000 0.035000
1518035806513492738	300 73 0.900000 0.117000 0.106000 1500 63 1.100000 3.719000 4.116000 600 81 1.000000 0.058000 0.058000 1.200000 0.030000 0.036000
1518035807069462030	300 73 0.900000 0.116000 0.105000 1500 63 1.100000 3.719000 4.116000 600 81 1.000000 0.058000 0.058000 1.200000 0.029000 0.034000
1518035807617524447	300 73 0.900000 0.116000 0.105000 1500 63 1.100000 3.719000 4.116000 600 81 1.000000 0.058000 0.058000 1.200000 0.029000 0.035000
1518035808173539447	300 73 0.900000 0.116000 0.105000 1500 63 1.100000 3.713000 4.110000 600 81 1.000000 0.058000 0.058000 1.200000 0.029000 0.035000
1518035808725483239	300 73 0.900000 0.116000 0.105000 1500 63 1.100000 3.720000 4.118000 600 81 1.000000 0.058000 0.058000 1.200000 0.029000 0.035000
1518035809281494989	300 73 0.900000 0.116000 0.105000 1500 63 1.100000 3.708000 4.104000 600 81 1.000000 0.058000 0.058000 1.200000 0.029000 0.035000
1518035809837448905	300 73 0.900000 0.116000 0.105000 1500 63 1.100000 3.720000 4.118000 600 81 1.000000 0.058000 0.058000 1.200000 0.029000 0.035000
1518035810381516364	300 73 0.900000 0.116000 0.105000 1500 63 1.100000 3.720000 4.118000 600 81 1.000000 0.058000 0.058000 1.200000 0.029000 0.035000
1518035810945472322	300 73 0.900000 0.117000 0.106000 1500 63 1.100000 3.718000 4.115000 600 81 1.000000 0.058000 0.058000 1.200000 0.030000 0.036000
1518035811505581739	300 73 0.900000 0.116000 0.105000 1500 63 1.100000 3.778000 4.182000 600 82 1.000000 0.058000 0.058000 1.200000 0.029000 0.034000
1518035812065533614	300 73 0.900000 0.117000 0.106000 1500 63 1.100000 3.773000 4.176000 600 82 1.000000 0.058000 0.058000 1.200000 0.030000 0.036000
1518035812621561114	300 73 0.900000 0.116000 0.105000 1500 63 1.100000 3.773000 4.176000 600 82 1.000000 0.058000 0.058000 1.200000 0.030000 0.036000
1518035813181537197	300 73 0.900000 0.116000 0.105000 1500 63 1.100000 3.771000 4.174000 600 82 1.000000 0.058000 0.058000 1.200000 0.030000 0.036000
1518035813729575614	300 73 0.900000 0.116000 0.105000 1500 63 1.100000 3.773000 4.176000 600 82 1.000000 0.058000 0.058000 1.200000 0.030000 0.036000
1518035814281489614	300 74 0.900000 0.117000 0.106000 1500 63 1.100000 3.771000 4.174000 600 82 1.000000 0.058000 0.058000 1.200000 0.030000 0.036000
1518035814837472864	300 73 0.900000 0.117000 0.106000 1500 63 1.100000 3.769000 4.172000 600 82 1.000000 0.058000 0.058000 1.200000 0.030000 0.036000
1518035815397579698	300 73 0.900000 0.117000 0.106000 1500 63 1.100000 3.761000 4.163000 600 82 1.000000 0.058000 0.058000 1.200000 0.030000 0.036000
1518035815957537823	300 74 0.900000 0.117000 0.106000 1500 63 1.100000 3.755000 4.156000 600 82 1.000000 0.058000 0.058000 1.200000 0.030000 0.036000
1518035816513596281	300 74 0.900000 0.116000 0.105000 1500 63 1.100000 3.760000 4.162000 600 82 1.000000 0.058000 0.058000 1.200000 0.030000 0.036000
1518035817073539781	300 74 0.900000 0.116000 0.105000 1500 63 1.100000 3.758000 4.160000 600 82 1.000000 0.058000 0.058000 1.200000 0.030000 0.036000
1518035817629581906	300 74 0.900000 0.116000 0.105000 1500 63 1.100000 3.754000 4.155000 600 82 1.000000 0.058000 0.058000 1.200000 0.030000 0.036000
1518035818181551906	300 74 0.900000 0.116000 0.105000 1500 63 1.100000 3.760000 4.162000 600 82 1.000000 0.058000 0.058000 1.200000 0.030000 0.036000
1518035818745575323	300 74 0.900000 0.116000 0.105000 1500 63 1.100000 3.728000 4.126000 600 82 1.000000 0.058000 0.058000 1.200000 0.030000 0.036000
1518035819309565406	300 74 0.900000 0.116000 0.105000 1500 63 1.100000 3.732000 4.131000 600 82 1.000000 0.058000 0.058000 1.200000 0.030000 0.036000
1518035819873571990	300 73 0.900000 0.116000 0.105000 1500 63 1.100000 3.742000 4.142000 600 82 1.000000 0.058000 0.058000 1.200000 0.030000 0.036000
1518035820433511573	300 74 0.900000 0.116000 0.105000 1500 63 1.100000 3.735000 4.134000 600 82 1.000000 0.058000 0.058000 1.200000 0.029000 0.034000
1518035820981534115	300 74 0.900000 0.116000 0.105000 1500 63 1.100000 3.725000 4.123000 600 82 1.000000 0.058000 0.058000 1.200000 0.029000 0.034000
1518035821537546948	300 73 0.900000 0.116000 0.105000 1500 63 1.100000 3.728000 4.126000 600 82 1.000000 0.058000 0.058000 1.200000 0.029000 0.034000
1518035822097567032	300 74 0.900000 0.116000 0.105000 1500 63 1.100000 3.739000 4.139000 600 82 1.000000 0.058000 0.058000 1.200000 0.029000 0.035000
1518035822653526240	300 73 0.900000 0.116000 0.105000 1500 63 1.100000 3.734000 4.133000 600 82 1.000000 0.058000 0.058000 1.200000 0.029000 0.035000
1518035823213478157	300 74 0.900000 0.116000 0.105000 1500 63 1.100000 3.732000 4.131000 600 82 1.000000 0.058000 0.058000 1.200000 0.029000 0.035000
1518035823773537782	300 74 0.900000 0.116000 0.105000 1500 63 1.100000 3.726000 4.124000 600 82 1.000000 0.058000 0.058000 1.200000 0.029000 0.034000
1518035824325528532	300 74 0.900000 0.116000 0.105000 1500 63 1.100000 3.722000 4.120000 600 82 1.000000 0.058000 0.058000 1.200000 0.029000 0.035000
1518035824881577532	300 74 0.900000 0.116000 0.105000 1500 63 1.100000 3.740000 4.140000 600 82 1.000000 0.058000 0.058000 1.200000 0.029000 0.034000
1518035825433548241	300 74 0.900000 0.116000 0.105000 1500 63 1.100000 3.754000 4.155000 600 82 1.000000 0.058000 0.058000 1.200000 0.028000 0.033000
1518035825985580449	300 74 0.900000 0.116000 0.105000 1500 63 1.100000 3.741000 4.141000 600 82 1.000000 0.058000 0.058000 1.200000 0.028000 0.033000
1518035826537562782	300 74 0.900000 0.116000 0.105000 1500 63 1.100000 3.735000 4.134000 600 82 1.000000 0.058000 0.058000 1.200000 0.029000 0.035000
1518035827089557907	300 74 0.900000 0.116000 0.105000 1500 63 1.100000 3.726000 4.124000 600 82 1.000000 0.058000 0.058000 1.200000 0.029000 0.035000
1518035827641526616	300 74 0.900000 0.116000 0.105000 1500 63 1.100000 3.743000 4.143000 600 82 1.000000 0.058000 0.058000 1.200000 0.029000 0.035000
1518035828197530033	300 74 0.900000 0.116000 0.105000 1500 63 1.100000 3.738000 4.137000 600 82 1.000000 0.058000 0.058000 1.200000 0.029000 0.035000
1518035828745494283	300 74 0.900000 0.116000 0.105000 1500 63 1.100000 3.726000 4.124000 600 82 1.000000 0.058000 0.058000 1.200000 0.029000 0.035000
1518035829285565074	300 74 0.900000 0.116000 0.105000 1500 63 1.100000 3.729000 4.128000 600 82 1.000000 0.058000 0.058000 1.200000 0.029000 0.035000
1518035829849557366	300 74 0.900000 0.116000 0.105000 1500 63 1.100000 3.739000 4.139000 600 82 1.000000 0.058000 0.058000 1.200000 0.028000 0.033000
1518035830413452449	300 74 0.900000 0.116000 0.105000 1500 63 1.100000 3.746000 4.146000 600 82 1.000000 0.058000 0.058000 1.200000 0.028000 0.033000
1518035830969537741	300 74 0.900000 0.116000 0.105000 1500 63 1.100000 3.748000 4.149000 600 82 1.000000 0.058000 0.058000 1.200000 0.028000 0.033000
1518035831529460950	300 74 0.900000 0.116000 0.105000 1500 63 1.100000 3.750000 4.151000 600 82 1.000000 0.058000 0.058000 1.200000 0.028000 0.033000
1518035832081477325	300 74 0.900000 0.116000 0.105000 1500 63 1.100000 3.739000 4.139000 600 82 1.000000 0.058000 0.058000 1.200000 0.028000 0.033000
1518035832633538991	300 74 0.900000 0.116000 0.105000 1500 63 1.100000 3.710000 4.106000 600 82 1.000000 0.058000 0.058000 1.200000 0.028000 0.033000
1518035833193523533	300 74 0.900000 0.116000 0.105000 1500 63 1.100000 3.700000 4.095000 600 82 1.000000 0.058000 0.058000 1.200000 0.029000 0.035000
1518035833749519867	300 74 0.900000 0.116000 0.105000 1500 63 1.100000 3.709000 4.105000 600 82 1.000000 0.058000 0.058000 1.200000 0.029000 0.035000
1518035834301471992	300 74 0.900000 0.116000 0.105000 1500 63 1.100000 3.700000 4.095000 600 82 1.000000 0.058000 0.058000 1.200000 0.029000 0.035000
1518035834861519867	300 74 0.900000 0.116000 0.105000 1500 63 1.100000 3.703000 4.099000 600 82 1.000000 0.058000 0.058000 1.200000 0.029000 0.035000
1518035835413555742	300 74 0.900000 0.116000 0.105000 1500 63 1.100000 3.691000 4.085000 600 82 1.000000 0.058000 0.058000 1.200000 0.029000 0.034000
1518035835969569783	300 74 0.900000 0.116000 0.105000 1500 63 1.100000 3.711000 4.108000 600 82 1.000000 0.058000 0.058000 1.200000 0.028000 0.033000
1518035836525543742	300 74 0.900000 0.116000 0.105000 1500 63 1.100000 3.715000 4.112000 600 82 1.000000 0.058000 0.058000 1.200000 0.028000 0.033000
1518035837085576909	300 74 0.900000 0.116000 0.105000 1500 63 1.100000 3.712000 4.109000 600 82 1.000000 0.058000 0.058000 1.200000 0.029000 0.035000
1518035837633534867	300 74 0.900000 0.116000 0.105000 1500 63 1.100000 3.712000 4.109000 600 82 1.000000 0.058000 0.058000 1.200000 0.028000 0.033000
1518035838185542284	300 74 0.900000 0.116000 0.105000 1500 63 1.100000 3.711000 4.108000 600 82 1.000000 0.058000 0.058000 1.200000 0.028000 0.033000
1518035838749544575	300 74 0.900000 0.116000 0.105000 1500 63 1.100000 3.714000 4.111000 600 82 1.000000 0.058000 0.058000 1.200000 0.028000 0.033000
1518035839301586034	300 74 0.900000 0.116000 0.105000 1500 63 1.100000 3.720000 4.118000 600 82 1.000000 0.058000 0.058000 1.200000 0.029000 0.035000
1518035839849581326	300 74 0.900000 0.116000 0.105000 1500 63 1.100000 3.720000 4.118000 600 82 1.000000 0.058000 0.058000 1.200000 0.029000 0.035000
1518035840401551117	300 74 0.900000 0.116000 0.105000 1500 63 1.100000 3.714000 4.111000 600 82 1.000000 0.058000 0.058000 1.200000 0.028000 0.033000
1518035840945539659	300 74 0.900000 0.116000 0.105000 1500 63 1.100000 3.720000 4.118000 600 82 1.000000 0.058000 0.058000 1.200000 0.029000 0.035000
1518035841509492159	300 74 0.900000 0.117000 0.106000 1500 63 1.100000 3.734000 4.133000 600 82 1.000000 0.058000 0.058000 1.200000 0.028000 0.033000
1518035842057562326	300 74 0.900000 0.116000 0.105000 1500 63 1.100000 3.733000 4.132000 600 82 1.000000 0.058000 0.058000 1.200000 0.028000 0.033000
1518035842609591951	300 74 0.900000 0.116000 0.105000 1500 63 1.100000 3.735000 4.134000 600 82 1.000000 0.058000 0.058000 1.200000 0.028000 0.033000
1518035843165576909	300 74 0.900000 0.116000 0.105000 1500 64 1.100000 3.735000 4.134000 600 82 1.000000 0.058000 0.058000 1.200000 0.028000 0.033000
1518035843729513284	300 74 0.900000 0.116000 0.105000 1500 63 1.100000 3.734000 4.133000 600 82 1.000000 0.058000 0.058000 1.200000 0.028000 0.033000
1518035844277527743	300 74 0.900000 0.117000 0.106000 1500 63 1.100000 3.734000 4.133000 600 82 1.000000 0.058000 0.058000 1.200000 0.028000 0.033000
1518035844841546284	300 74 0.900000 0.116000 0.105000 1500 63 1.100000 3.734000 4.133000 600 82 1.000000 0.058000 0.058000 1.200000 0.028000 0.033000
1518035845387808868	300 74 0.900000 0.116000 0.105000 1500 63 1.100000 3.735000 4.134000 600 82 1.000000 0.058000 0.058000 1.200000 0.028000 0.033000
1518035845957537451	300 74 0.900000 0.116000 0.105000 1500 63 1.100000 3.737000 4.136000 600 82 1.000000 0.058000 0.058000 1.200000 0.029000 0.035000
1518035846517519535	300 74 0.900000 0.116000 0.105000 1500 63 1.100000 3.732000 4.131000 600 82 1.000000 0.058000 0.058000 1.200000 0.029000 0.035000
1518035847069528743	300 74 0.900000 0.116000 0.105000 1500 63 1.100000 3.714000 4.111000 600 82 1.000000 0.058000 0.058000 1.200000 0.029000 0.035000
1518035847617477618	300 74 0.900000 0.117000 0.106000 1500 63 1.100000 3.732000 4.131000 600 82 1.000000 0.058000 0.058000 1.200000 0.029000 0.035000
1518035848165542410	300 74 0.900000 0.116000 0.105000 1500 63 1.100000 3.728000 4.126000 600 82 1.000000 0.058000 0.058000 1.200000 0.029000 0.035000
1518035848713533993	300 74 0.900000 0.117000 0.106000 1500 63 1.100000 3.728000 4.126000 600 82 1.000000 0.058000 0.058000 1.200000 0.029000 0.035000
1518035849261479368	300 74 0.900000 0.116000 0.105000 1500 63 1.100000 3.724000 4.122000 600 82 1.000000 0.058000 0.058000 1.200000 0.029000 0.035000
1518035849817547118	300 74 0.900000 0.116000 0.105000 1500 64 1.100000 3.725000 4.123000 600 82 1.000000 0.058000 0.058000 1.200000 0.029000 0.035000
1518035850377508910	300 74 0.900000 0.116000 0.105000 1500 64 1.100000 3.723000 4.121000 600 82 1.000000 0.058000 0.058000 1.200000 0.028000 0.033000
1518035850925580744	300 74 0.900000 0.117000 0.106000 1500 63 1.100000 3.732000 4.131000 600 82 1.000000 0.058000 0.058000 1.200000 0.028000 0.033000
1518035851481527494	300 74 0.900000 0.116000 0.105000 1500 64 1.100000 3.726000 4.124000 600 82 1.000000 0.058000 0.058000 1.200000 0.028000 0.033000
1518035852037525369	300 74 0.900000 0.116000 0.105000 1500 64 1.100000 3.727000 4.125000 600 82 1.000000 0.058000 0.058000 1.200000 0.028000 0.033000
1518035852585523702	300 74 0.900000 0.117000 0.106000 1500 63 1.100000 3.729000 4.128000 600 82 1.000000 0.058000 0.058000 1.200000 0.028000 0.033000
1518035853145541244	300 74 0.900000 0.116000 0.105000 1500 63 1.100000 3.723000 4.121000 600 82 1.000000 0.058000 0.058000 1.200000 0.029000 0.035000
1518035853709532369	300 74 0.900000 0.116000 0.105000 1500 64 1.100000 3.720000 4.118000 600 82 1.000000 0.058000 0.058000 1.200000 0.029000 0.035000
1518035854269505536	300 74 0.900000 0.117000 0.106000 1500 63 1.100000 3.718000 4.115000 600 82 1.000000 0.058000 0.058000 1.200000 0.028000 0.033000
1518035854829528702	300 74 0.900000 0.117000 0.106000 1500 63 1.100000 3.734000 4.133000 600 82 1.000000 0.058000 0.058000 1.200000 0.028000 0.033000
1518035855393519119	300 74 0.900000 0.116000 0.105000 1500 64 1.100000 3.729000 4.128000 600 82 1.000000 0.058000 0.058000 1.200000 0.028000 0.033000
1518035855941553827	300 74 0.900000 0.116000 0.105000 1500 64 1.100000 3.718000 4.115000 600 82 1.000000 0.058000 0.058000 1.200000 0.028000 0.033000
1518035856501457786	300 74 0.900000 0.116000 0.105000 1500 64 1.100000 3.726000 4.124000 600 82 1.000000 0.058000 0.058000 1.200000 0.028000 0.033000
1518035857057476244	300 74 0.900000 0.117000 0.106000 1500 64 1.100000 3.740000 4.140000 600 82 1.000000 0.058000 0.058000 1.200000 0.028000 0.033000
1518035857605530286	300 74 0.900000 0.117000 0.106000 1500 64 1.100000 3.741000 4.141000 600 82 1.000000 0.058000 0.058000 1.200000 0.028000 0.033000
1518035858157544453	300 74 0.900000 0.116000 0.105000 1500 64 1.100000 3.740000 4.140000 600 82 1.000000 0.058000 0.058000 1.200000 0.028000 0.033000
1518035858709557661	300 74 0.900000 0.117000 0.106000 1500 64 1.100000 3.739000 4.139000 600 82 1.000000 0.058000 0.058000 1.200000 0.028000 0.033000
1518035859269539328	300 74 0.900000 0.116000 0.105000 1500 64 1.100000 3.722000 4.120000 600 82 1.000000 0.058000 0.058000 1.200000 0.028000 0.033000
1518035859833444745	300 74 0.900000 0.116000 0.105000 1500 64 1.100000 3.714000 4.111000 600 82 1.000000 0.058000 0.058000 1.200000 0.028000 0.033000
1518035860389548953	300 74 0.900000 0.116000 0.105000 1500 64 1.100000 3.701000 4.097000 600 82 1.000000 0.058000 0.058000 1.200000 0.028000 0.033000
1518035860937521161	300 74 0.900000 0.117000 0.106000 1500 64 1.100000 3.711000 4.108000 600 82 1.000000 0.058000 0.058000 1.200000 0.028000 0.033000
1518035861501478203	300 74 0.900000 0.116000 0.105000 1500 64 1.100000 3.710000 4.106000 600 82 1.000000 0.058000 0.058000 1.200000 0.028000 0.033000
1518035862057498078	300 74 0.900000 0.117000 0.106000 1500 64 1.100000 3.710000 4.106000 600 82 1.000000 0.058000 0.058000 1.200000 0.029000 0.034000
1518035862609522120	300 74 0.900000 0.116000 0.105000 1500 64 1.100000 3.711000 4.108000 600 82 1.000000 0.058000 0.058000 1.200000 0.028000 0.033000
1518035863157525495	300 74 0.900000 0.117000 0.106000 1500 63 1.100000 3.711000 4.108000 600 82 1.000000 0.058000 0.058000 1.200000 0.028000 0.033000
1518035863705518912	300 74 0.900000 0.117000 0.106000 1500 64 1.100000 3.711000 4.108000 600 82 1.000000 0.058000 0.058000 1.200000 0.028000 0.033000
1518035864269516537	300 74 0.900000 0.117000 0.106000 1500 63 1.100000 3.711000 4.108000 600 82 1.000000 0.058000 0.058000 1.200000 0.028000 0.033000
1518035864829521120	300 74 0.900000 0.116000 0.105000 1500 64 1.100000 3.701000 4.097000 600 82 1.000000 0.058000 0.058000 1.200000 0.028000 0.033000
1518035865389551495	300 74 0.900000 0.116000 0.105000 1500 63 1.100000 3.696000 4.091000 600 82 1.000000 0.058000 0.058000 1.200000 0.028000 0.033000
1518035865933526745	300 74 0.900000 0.116000 0.105000 1500 64 1.100000 3.707000 4.103000 600 82 1.000000 0.058000 0.058000 1.200000 0.029000 0.035000
1518035866485557912	300 74 0.900000 0.117000 0.106000 1500 64 1.100000 3.705000 4.101000 600 82 1.000000 0.058000 0.058000 1.200000 0.028000 0.033000
1518035867041522454	300 74 0.900000 0.116000 0.105000 1500 64 1.100000 3.728000 4.126000 600 82 1.000000 0.058000 0.058000 1.200000 0.028000 0.033000
1518035867589568162	300 74 0.900000 0.116000 0.105000 1500 63 1.100000 3.722000 4.120000 600 82 1.000000 0.058000 0.058000 1.200000 0.028000 0.033000
1518035868141544579	300 74 0.900000 0.116000 0.105000 1500 64 1.100000 3.745000 4.145000 600 82 1.000000 0.058000 0.058000 1.200000 0.028000 0.033000
1518035868689557079	300 74 0.900000 0.116000 0.105000 1500 64 1.100000 3.746000 4.146000 600 82 1.000000 0.058000 0.058000 1.200000 0.028000 0.033000
1518035869233502121	300 74 0.900000 0.116000 0.105000 1500 64 1.100000 3.744000 4.144000 600 82 1.000000 0.058000 0.058000 1.200000 0.028000 0.033000
1518035869797537246	300 74 0.900000 0.116000 0.105000 1500 64 1.100000 3.746000 4.146000 600 82 1.000000 0.058000 0.058000 1.200000 0.028000 0.033000
1518035870353455996	300 74 0.900000 0.117000 0.106000 1500 64 1.100000 3.747000 4.147000 600 82 1.000000 0.058000 0.058000 1.200000 0.028000 0.033000
1518035870913540496	300 74 0.900000 0.117000 0.106000 1500 64 1.100000 3.744000 4.144000 600 82 1.000000 0.058000 0.058000 1.200000 0.028000 0.033000
1518035871473550246	300 74 0.900000 0.116000 0.105000 1500 64 1.100000 3.738000 4.137000 600 82 1.000000 0.058000 0.058000 1.200000 0.028000 0.033000
1518035872025538579	300 74 0.900000 0.116000 0.105000 1500 64 1.100000 3.739000 4.139000 600 82 1.000000 0.058000 0.058000 1.200000 0.029000 0.035000
1518035872585496329	300 74 0.900000 0.117000 0.106000 1500 64 1.100000 3.743000 4.143000 600 82 1.000000 0.058000 0.058000 1.200000 0.028000 0.033000
1518035873129599288	300 74 0.900000 0.116000 0.105000 1500 64 1.100000 3.746000 4.146000 600 82 1.000000 0.058000 0.058000 1.200000 0.029000 0.035000
1518035873681492538	300 74 0.900000 0.117000 0.106000 1500 64 1.100000 3.743000 4.143000 600 82 1.000000 0.058000 0.058000 1.200000 0.028000 0.033000
1518035874237548830	300 74 0.900000 0.117000 0.106000 1500 64 1.100000 3.744000 4.144000 600 82 1.000000 0.058000 0.058000 1.200000 0.028000 0.033000
1518035874797537955	300 74 0.900000 0.116000 0.105000 1500 64 1.100000 3.741000 4.141000 600 82 1.000000 0.058000 0.058000 1.200000 0.028000 0.033000
1518035875357480080	300 74 0.900000 0.116000 0.105000 1500 64 1.100000 3.743000 4.143000 600 82 1.000000 0.058000 0.058000 1.200000 0.028000 0.033000
1518035875913535372	300 74 0.900000 0.116000 0.105000 1500 64 1.100000 3.744000 4.144000 600 82 1.000000 0.058000 0.058000 1.200000 0.028000 0.033000
1518035876453457705	300 74 0.900000 0.116000 0.105000 1500 64 1.100000 3.743000 4.143000 600 82 1.000000 0.058000 0.058000 1.200000 0.028000 0.033000
1518035877013511080	300 74 0.900000 0.116000 0.105000 1500 64 1.100000 3.740000 4.140000 600 82 1.000000 0.058000 0.058000 1.200000 0.028000 0.033000
1518035877585446663	300 74 0.900000 0.117000 0.106000 1500 64 1.100000 3.743000 4.143000 600 82 1.000000 0.058000 0.058000 1.200000 0.028000 0.033000
1518035878149520997	300 74 0.900000 0.116000 0.105000 1500 64 1.100000 3.732000 4.131000 600 82 1.000000 0.058000 0.058000 1.200000 0.028000 0.033000
1518035878709467164	300 74 0.900000 0.116000 0.105000 1500 64 1.100000 3.742000 4.142000 600 82 1.000000 0.058000 0.058000 1.200000 0.028000 0.033000
1518035879257510372	300 74 0.900000 0.117000 0.106000 1500 64 1.100000 3.741000 4.141000 600 82 1.000000 0.058000 0.058000 1.200000 0.028000 0.033000
1518035879821499455	300 74 0.900000 0.116000 0.105000 1500 64 1.100000 3.737000 4.136000 600 82 1.000000 0.058000 0.058000 1.200000 0.028000 0.033000
1518035880381528205	300 74 0.900000 0.116000 0.105000 1500 64 1.100000 3.749000 4.150000 600 82 1.000000 0.058000 0.058000 1.200000 0.028000 0.033000
1518035880945521330	300 74 0.900000 0.117000 0.106000 1500 64 1.100000 3.734000 4.133000 600 82 1.000000 0.058000 0.058000 1.200000 0.028000 0.033000
1518035881501460747	300 74 0.900000 0.116000 0.105000 1500 64 1.100000 3.728000 4.126000 600 82 1.000000 0.058000 0.058000 1.200000 0.028000 0.033000
1518035882053541956	300 74 0.900000 0.117000 0.106000 1500 64 1.100000 3.724000 4.122000 600 82 1.000000 0.058000 0.058000 1.200000 0.028000 0.033000
1518035882613534331	300 74 0.900000 0.116000 0.105000 1500 64 1.100000 3.722000 4.120000 600 82 1.000000 0.058000 0.058000 1.200000 0.028000 0.033000
1518035883173524456	300 74 0.900000 0.116000 0.105000 1500 64 1.100000 3.729000 4.128000 600 82 1.000000 0.058000 0.058000 1.200000 0.028000 0.033000
1518035883741523914	300 74 0.900000 0.117000 0.106000 1500 64 1.100000 3.733000 4.132000 600 82 1.000000 0.058000 0.058000 1.200000 0.028000 0.033000
1518035884297529914	300 74 0.900000 0.116000 0.105000 1500 64 1.100000 3.725000 4.123000 600 82 1.000000 0.058000 0.058000 1.200000 0.028000 0.033000
1518035884861519956	300 74 0.900000 0.117000 0.106000 1500 64 1.100000 3.722000 4.120000 600 82 1.000000 0.058000 0.058000 1.200000 0.028000 0.033000
1518035885409552581	300 74 0.900000 0.116000 0.105000 1500 64 1.100000 3.709000 4.105000 600 82 1.000000 0.058000 0.058000 1.200000 0.029000 0.035000
1518035885953564456	300 74 0.900000 0.117000 0.106000 1500 64 1.100000 3.712000 4.109000 600 82 1.000000 0.058000 0.058000 1.200000 0.029000 0.035000
1518035886513551206	300 74 0.900000 0.116000 0.105000 1500 64 1.100000 3.720000 4.118000 600 82 1.000000 0.058000 0.058000 1.200000 0.028000 0.033000
1518035887073526040	300 74 0.900000 0.116000 0.105000 1500 64 1.100000 3.723000 4.121000 600 82 1.000000 0.058000 0.058000 1.200000 0.028000 0.033000
1518035887637538081	300 74 0.900000 0.117000 0.106000 1500 64 1.100000 3.744000 4.144000 600 82 1.000000 0.058000 0.058000 1.200000 0.028000 0.033000
1518035888189541665	300 74 0.900000 0.116000 0.105000 1500 64 1.100000 3.764000 4.166000 600 82 1.000000 0.058000 0.058000 1.200000 0.028000 0.033000
1518035888737583706	300 74 0.900000 0.116000 0.105000 1500 64 1.100000 3.763000 4.165000 600 82 1.000000 0.058000 0.058000 1.200000 0.028000 0.033000
1518035889289483540	300 74 0.900000 0.117000 0.106000 1500 64 1.100000 3.753000 4.154000 600 82 1.000000 0.058000 0.058000 1.200000 0.029000 0.034000
1518035889849545415	300 74 0.900000 0.116000 0.105000 1500 64 1.100000 3.751000 4.152000 600 82 1.000000 0.058000 0.058000 1.200000 0.030000 0.036000
1518035890413506415	300 74 0.900000 0.116000 0.105000 1500 64 1.100000 3.746000 4.146000 600 83 1.000000 0.058000 0.058000 1.200000 0.030000 0.036000
1518035890973465832	300 74 0.900000 0.117000 0.106000 1500 64 1.100000 3.740000 4.140000 600 83 1.000000 0.058000 0.058000 1.200000 0.030000 0.036000
1518035891537503832	300 74 0.900000 0.116000 0.105000 1500 64 1.100000 3.759000 4.161000 600 83 1.000000 0.058000 0.058000 1.200000 0.031000 0.037000
1518035892085621582	300 74 0.900000 0.117000 0.106000 1500 64 1.100000 3.763000 4.165000 600 82 1.000000 0.058000 0.058000 1.200000 0.031000 0.037000
1518035892645541457	300 74 0.900000 0.116000 0.105000 1500 64 1.100000 3.757000 4.158000 600 83 1.000000 0.058000 0.058000 1.200000 0.031000 0.037000
1518035893193528624	300 74 0.900000 0.117000 0.106000 1500 64 1.100000 3.762000 4.164000 600 83 1.000000 0.058000 0.058000 1.200000 0.030000 0.036000
1518035893749538415	300 74 0.900000 0.116000 0.105000 1500 64 1.100000 3.763000 4.165000 600 83 1.000000 0.058000 0.058000 1.200000 0.030000 0.036000
1518035894309450165	300 74 0.900000 0.116000 0.105000 1500 64 1.100000 3.763000 4.165000 600 82 1.000000 0.058000 0.058000 1.200000 0.030000 0.036000
1518035894865566957	300 74 0.900000 0.116000 0.105000 1500 64 1.100000 3.762000 4.164000 600 82 1.000000 0.058000 0.058000 1.200000 0.030000 0.036000
1518035895421491374	300 74 0.900000 0.117000 0.106000 1500 64 1.100000 3.757000 4.158000 600 82 1.000000 0.058000 0.058000 1.200000 0.030000 0.036000
1518035895965555624	300 74 0.900000 0.117000 0.106000 1500 64 1.100000 3.751000 4.152000 600 83 1.000000 0.058000 0.058000 1.200000 0.030000 0.036000
1518035896517479124	300 74 0.900000 0.116000 0.105000 1500 64 1.100000 3.748000 4.149000 600 83 1.000000 0.058000 0.058000 1.200000 0.030000 0.036000
1518035897069529249	300 74 0.900000 0.116000 0.105000 1500 64 1.100000 3.748000 4.149000 600 82 1.000000 0.058000 0.058000 1.200000 0.030000 0.036000
1518035897629551541	300 74 0.900000 0.116000 0.105000 1500 64 1.100000 3.753000 4.154000 600 82 1.000000 0.058000 0.058000 1.200000 0.031000 0.037000
1518035898189528416	300 74 0.900000 0.117000 0.106000 1500 64 1.100000 3.740000 4.140000 600 83 1.000000 0.058000 0.058000 1.200000 0.030000 0.036000
1518035898753529541	300 74 0.900000 0.116000 0.105000 1500 64 1.100000 3.765000 4.167000 600 83 1.000000 0.058000 0.058000 1.200000 0.030000 0.036000
1518035899305542333	300 74 0.900000 0.116000 0.105000 1500 64 1.100000 3.762000 4.164000 600 83 1.000000 0.058000 0.058000 1.200000 0.030000 0.036000
1518035899881519374	300 74 0.900000 0.117000 0.106000 1500 64 1.100000 3.760000 4.162000 600 83 1.000000 0.058000 0.058000 1.200000 0.030000 0.036000
1518035900433529874	300 74 0.900000 0.116000 0.105000 1500 64 1.100000 3.735000 4.134000 600 82 1.000000 0.058000 0.058000 1.200000 0.030000 0.036000
1518035900985540583	300 74 0.900000 0.117000 0.106000 1500 64 1.100000 3.717000 4.114000 600 82 1.000000 0.058000 0.058000 1.200000 0.030000 0.036000
1518035901537545000	300 74 0.900000 0.116000 0.105000 1500 64 1.100000 3.697000 4.092000 600 82 1.000000 0.058000 0.058000 1.200000 0.030000 0.036000
1518035902101451291	300 74 0.900000 0.116000 0.105000 1500 64 1.100000 3.698000 4.093000 600 82 1.000000 0.058000 0.058000 1.200000 0.030000 0.036000
1518035902653561958	300 74 0.900000 0.116000 0.105000 1500 64 1.100000 3.689000 4.083000 600 82 1.000000 0.058000 0.058000 1.200000 0.031000 0.037000
1518035903189450291	300 74 0.900000 0.117000 0.106000 1500 64 1.100000 3.698000 4.093000 600 82 1.000000 0.058000 0.058000 1.200000 0.030000 0.036000
1518035903757489583	300 74 0.900000 0.116000 0.105000 1500 64 1.100000 3.700000 4.095000 600 82 1.000000 0.058000 0.058000 1.200000 0.030000 0.036000
1518035904317473000	300 74 0.900000 0.117000 0.106000 1500 64 1.100000 3.710000 4.106000 600 82 1.000000 0.058000 0.058000 1.200000 0.030000 0.036000
1518035904869555083	300 74 0.900000 0.116000 0.105000 1500 64 1.100000 3.713000 4.110000 600 82 1.000000 0.058000 0.058000 1.200000 0.030000 0.036000
1518035905425488333	300 74 0.900000 0.117000 0.106000 1500 64 1.100000 3.712000 4.109000 600 82 1.000000 0.058000 0.058000 1.200000 0.030000 0.036000
1518035905977476292	300 74 0.900000 0.117000 0.106000 1500 64 1.100000 3.709000 4.105000 600 82 1.000000 0.058000 0.058000 1.200000 0.030000 0.036000
1518035906525552167	300 74 0.900000 0.117000 0.106000 1500 64 1.100000 3.710000 4.106000 600 82 1.000000 0.058000 0.058000 1.200000 0.030000 0.036000
1518035907065541792	300 74 0.900000 0.117000 0.106000 1500 64 1.100000 3.715000 4.112000 600 82 1.000000 0.058000 0.058000 1.200000 0.030000 0.036000
1518035907617567917	300 74 0.900000 0.116000 0.105000 1500 64 1.100000 3.728000 4.126000 600 82 1.000000 0.058000 0.058000 1.200000 0.030000 0.036000
1518035908185554334	300 74 0.900000 0.117000 0.106000 1500 64 1.100000 3.729000 4.128000 600 82 1.000000 0.058000 0.058000 1.200000 0.030000 0.036000
1518035908733454334	300 74 0.900000 0.116000 0.105000 1500 64 1.100000 3.718000 4.115000 600 82 1.000000 0.058000 0.058000 1.200000 0.031000 0.037000
1518035909285468417	300 74 0.900000 0.117000 0.106000 1500 64 1.100000 3.725000 4.123000 600 82 1.000000 0.058000 0.058000 1.200000 0.030000 0.036000
1518035909837534042	300 74 0.900000 0.117000 0.106000 1500 64 1.100000 3.738000 4.137000 600 82 1.000000 0.058000 0.058000 1.200000 0.030000 0.036000
1518035910397475792	300 74 0.900000 0.117000 0.106000 1500 64 1.100000 3.739000 4.139000 600 83 1.000000 0.058000 0.058000 1.200000 0.030000 0.036000
1518035910953523042	300 74 0.900000 0.117000 0.106000 1500 64 1.100000 3.739000 4.139000 600 83 1.000000 0.058000 0.058000 1.200000 0.030000 0.036000
1518035911513542084	300 74 0.900000 0.116000 0.105000 1500 64 1.100000 3.738000 4.137000 600 83 1.000000 0.058000 0.058000 1.200000 0.030000 0.036000
1518035912077537834	300 74 0.900000 0.117000 0.106000 1500 64 1.100000 3.739000 4.139000 600 83 1.000000 0.058000 0.058000 1.200000 0.030000 0.036000
1518035912633531918	300 74 0.900000 0.117000 0.106000 1500 64 1.100000 3.718000 4.115000 600 82 1.000000 0.058000 0.058000 1.200000 0.030000 0.036000
1518035913181556668	300 74 0.900000 0.116000 0.105000 1500 64 1.100000 3.727000 4.125000 600 82 1.000000 0.058000 0.058000 1.200000 0.030000 0.036000
1518035913741538751	300 74 0.900000 0.116000 0.105000 1500 64 1.100000 3.729000 4.128000 600 83 1.000000 0.058000 0.058000 1.200000 0.030000 0.036000
1518035914309534209	300 74 0.900000 0.117000 0.106000 1500 64 1.100000 3.753000 4.154000 600 83 1.000000 0.058000 0.058000 1.200000 0.030000 0.036000
1518035914861453918	300 74 0.900000 0.117000 0.106000 1500 64 1.100000 3.755000 4.156000 600 83 1.000000 0.058000 0.058000 1.200000 0.030000 0.036000
1518035915401538210	300 74 0.900000 0.117000 0.106000 1500 64 1.100000 3.751000 4.156000 600 83 1.000000 0.058000 0.058000 1.200000 0.030000 0.036000
1518035915961530960	300 74 0.900000 0.117000 0.106000 1500 64 1.100000 3.750000 4.151000 600 83 1.000000 0.058000 0.058000 1.200000 0.030000 0.036000
1518035916521529835	300 74 0.900000 0.117000 0.106000 1500 64 1.100000 3.743000 4.143000 600 83 1.000000 0.058000 0.058000 1.200000 0.030000 0.036000
1518035917069485876	300 74 0.900000 0.117000 0.106000 1500 64 1.100000 3.755000 4.156000 600 83 1.000000 0.058000 0.058000 1.200000 0.030000 0.036000
1518035917633536543	300 74 0.900000 0.117000 0.106000 1500 64 1.100000 3.759000 4.161000 600 83 1.000000 0.058000 0.058000 1.200000 0.030000 0.036000
1518035918189522960	300 74 0.900000 0.116000 0.105000 1500 64 1.100000 3.759000 4.161000 600 83 1.000000 0.058000 0.058000 1.200000 0.031000 0.037000
1518035918753510252	300 74 0.900000 0.116000 0.105000 1500 64 1.100000 3.745000 4.145000 600 83 1.000000 0.058000 0.058000 1.200000 0.030000 0.036000
1518035919293490543	300 74 0.900000 0.117000 0.106000 1500 64 1.100000 3.749000 4.150000 600 83 1.000000 0.058000 0.058000 1.200000 0.030000 0.036000
1518035919849508210	300 74 0.900000 0.117000 0.106000 1500 64 1.100000 3.763000 4.165000 600 83 1.000000 0.058000 0.058000 1.200000 0.031000 0.037000
1518035920401525335	300 74 0.900000 0.117000 0.106000 1500 64 1.100000 3.762000 4.164000 600 83 1.000000 0.058000 0.058000 1.200000 0.030000 0.036000
1518035920961498335	300 74 0.900000 0.117000 0.106000 1500 64 1.100000 3.734000 4.133000 600 83 1.000000 0.058000 0.058000 1.200000 0.030000 0.036000
1518035921521531085	300 74 0.900000 0.117000 0.106000 1500 64 1.100000 3.739000 4.139000 600 83 1.000000 0.058000 0.058000 1.200000 0.030000 0.036000
1518035922081538669	300 74 0.900000 0.117000 0.106000 1500 64 1.100000 3.732000 4.131000 600 83 1.000000 0.058000 0.058000 1.200000 0.031000 0.037000
1518035922637460294	300 74 0.900000 0.116000 0.105000 1500 64 1.100000 3.723000 4.121000 600 83 1.000000 0.058000 0.058000 1.200000 0.030000 0.036000
1518035923201520419	300 74 0.900000 0.117000 0.106000 1500 64 1.100000 3.737000 4.136000 600 83 1.000000 0.058000 0.058000 1.200000 0.030000 0.036000
1518035923757465586	300 74 0.900000 0.116000 0.105000 1500 64 1.100000 3.740000 4.140000 600 83 1.000000 0.058000 0.058000 1.200000 0.030000 0.036000
1518035924317521252	300 74 0.900000 0.116000 0.105000 1500 64 1.100000 3.725000 4.123000 600 83 1.000000 0.058000 0.058000 1.200000 0.030000 0.036000
1518035924877528711	300 74 0.900000 0.116000 0.105000 1500 64 1.100000 3.743000 4.143000 600 83 1.000000 0.058000 0.058000 1.200000 0.030000 0.036000
1518035925433529919	300 74 0.900000 0.116000 0.105000 1500 64 1.100000 3.743000 4.143000 600 83 1.000000 0.058000 0.058000 1.200000 0.030000 0.036000
1518035925993517127	300 74 0.900000 0.117000 0.106000 1500 64 1.100000 3.742000 4.142000 600 83 1.000000 0.058000 0.058000 1.200000 0.030000 0.036000
1518035926541508253	300 74 0.900000 0.117000 0.106000 1500 64 1.100000 3.736000 4.135000 600 83 1.000000 0.058000 0.058000 1.200000 0.031000 0.037000
1518035927093517294	300 74 0.900000 0.117000 0.106000 1500 64 1.100000 3.730000 4.129000 600 83 1.000000 0.058000 0.058000 1.200000 0.030000 0.036000
1518035927645526211	300 74 0.900000 0.117000 0.106000 1500 64 1.100000 3.742000 4.142000 600 83 1.000000 0.058000 0.058000 1.200000 0.030000 0.036000
1518035928201534919	300 74 0.900000 0.116000 0.105000 1500 64 1.100000 3.743000 4.143000 600 83 1.000000 0.058000 0.058000 1.200000 0.030000 0.036000
1518035928753467503	300 74 0.900000 0.116000 0.105000 1500 64 1.100000 3.728000 4.126000 600 83 1.000000 0.058000 0.058000 1.200000 0.031000 0.037000
1518035929305482795	300 74 0.900000 0.117000 0.106000 1500 64 1.100000 3.735000 4.134000 600 83 1.000000 0.058000 0.058000 1.200000 0.030000 0.036000
1518035929865528920	300 74 0.900000 0.117000 0.106000 1500 64 1.100000 3.732000 4.131000 600 83 1.000000 0.058000 0.058000 1.200000 0.030000 0.036000
1518035930421459545	300 74 0.900000 0.116000 0.105000 1500 64 1.100000 3.741000 4.141000 600 83 1.000000 0.058000 0.058000 1.200000 0.030000 0.036000
1518035930973511253	300 74 0.900000 0.117000 0.106000 1500 64 1.100000 3.742000 4.142000 600 83 1.000000 0.058000 0.058000 1.200000 0.030000 0.036000
1518035931529629170	300 74 0.900000 0.117000 0.106000 1500 64 1.100000 3.742000 4.142000 600 83 1.000000 0.058000 0.058000 1.200000 0.030000 0.036000
1518035932077552128	300 74 0.900000 0.117000 0.106000 1500 64 1.100000 3.741000 4.141000 600 83 1.000000 0.058000 0.058000 1.200000 0.030000 0.036000
1518035932621569378	300 74 0.900000 0.117000 0.106000 1500 64 1.100000 3.739000 4.139000 600 83 1.000000 0.058000 0.058000 1.200000 0.030000 0.036000
1518035933177537545	300 74 0.900000 0.116000 0.105000 1500 64 1.100000 3.731000 4.130000 600 83 1.000000 0.058000 0.058000 1.200000 0.031000 0.037000
1518035933745570462	300 74 0.900000 0.117000 0.106000 1500 64 1.100000 3.734000 4.133000 600 83 1.000000 0.058000 0.058000 1.200000 0.030000 0.036000
1518035934293525795	300 74 0.900000 0.116000 0.105000 1500 64 1.100000 3.734000 4.133000 600 83 1.000000 0.058000 0.058000 1.200000 0.030000 0.036000
1518035934845527712	300 74 0.900000 0.117000 0.106000 1500 64 1.100000 3.727000 4.125000 600 83 1.000000 0.058000 0.058000 1.200000 0.031000 0.037000
1518035935397563337	300 74 0.900000 0.117000 0.106000 1500 64 1.100000 3.726000 4.124000 600 83 1.000000 0.058000 0.058000 1.200000 0.031000 0.037000
1518035935949566379	300 74 0.900000 0.116000 0.105000 1500 64 1.100000 3.747000 4.147000 600 83 1.000000 0.058000 0.058000 1.200000 0.030000 0.036000
1518035936501464045	300 74 0.900000 0.116000 0.105000 1500 64 1.100000 3.744000 4.144000 600 83 1.000000 0.058000 0.058000 1.200000 0.030000 0.036000
1518035937053501379	300 74 0.900000 0.116000 0.105000 1500 64 1.100000 3.745000 4.145000 600 83 1.000000 0.058000 0.058000 1.200000 0.030000 0.036000
1518035937609532837	300 74 0.900000 0.117000 0.106000 1500 64 1.100000 3.745000 4.145000 600 83 1.000000 0.058000 0.058000 1.200000 0.030000 0.036000
1518035938161524046	300 74 0.900000 0.117000 0.106000 1500 64 1.100000 3.743000 4.143000 600 83 1.000000 0.058000 0.058000 1.200000 0.030000 0.036000
1518035938709550046	300 74 0.900000 0.117000 0.106000 1500 64 1.100000 3.745000 4.145000 600 83 1.000000 0.058000 0.058000 1.200000 0.030000 0.036000
1518035939273487546	300 74 0.900000 0.117000 0.106000 1500 64 1.100000 3.745000 4.145000 600 83 1.000000 0.058000 0.058000 1.200000 0.030000 0.036000
1518035939825574671	300 74 0.900000 0.117000 0.106000 1500 64 1.100000 3.737000 4.136000 600 83 1.000000 0.058000 0.058000 1.200000 0.031000 0.037000
1518035940373520546	300 74 0.900000 0.117000 0.106000 1500 64 1.100000 3.734000 4.133000 600 83 1.000000 0.058000 0.058000 1.200000 0.031000 0.037000
1518035940921521171	300 74 0.900000 0.117000 0.106000 1500 64 1.100000 3.743000 4.143000 600 83 1.000000 0.058000 0.058000 1.200000 0.031000 0.037000
1518035941469505421	300 74 0.900000 0.117000 0.106000 1500 64 1.100000 3.743000 4.143000 600 83 1.000000 0.058000 0.058000 1.200000 0.031000 0.037000
1518035942025519171	300 74 0.900000 0.117000 0.106000 1500 64 1.100000 3.771000 4.174000 600 83 1.000000 0.058000 0.058000 1.200000 0.030000 0.036000
1518035942589448338	300 74 0.900000 0.117000 0.106000 1500 64 1.100000 3.770000 4.173000 600 83 1.000000 0.058000 0.058000 1.200000 0.030000 0.036000
1518035943149489338	300 74 0.900000 0.116000 0.105000 1500 64 1.100000 3.769000 4.172000 600 83 1.000000 0.058000 0.058000 1.200000 0.030000 0.036000
1518035943701538463	300 75 0.900000 0.116000 0.105000 1500 64 1.100000 3.769000 4.172000 600 83 1.000000 0.058000 0.058000 1.200000 0.030000 0.036000
1518035944257549213	300 75 0.900000 0.117000 0.106000 1500 64 1.100000 3.769000 4.172000 600 83 1.000000 0.058000 0.058000 1.200000 0.031000 0.037000
1518035944809482338	300 74 0.900000 0.116000 0.105000 1500 64 1.100000 3.768000 4.171000 600 83 1.000000 0.058000 0.058000 1.200000 0.031000 0.037000
1518035945365469046	300 75 0.900000 0.116000 0.105000 1500 64 1.100000 3.767000 4.170000 600 83 1.000000 0.058000 0.058000 1.200000 0.031000 0.037000
1518035945917485963	300 74 0.900000 0.116000 0.105000 1500 64 1.100000 3.767000 4.170000 600 83 1.000000 0.058000 0.058000 1.200000 0.031000 0.037000
1518035946469483630	300 75 0.900000 0.117000 0.106000 1500 64 1.100000 3.756000 4.157000 600 83 1.000000 0.058000 0.058000 1.200000 0.031000 0.037000
1518035947021578005	300 75 0.900000 0.117000 0.106000 1500 64 1.100000 3.757000 4.158000 600 83 1.000000 0.058000 0.058000 1.200000 0.030000 0.036000
1518035947581521880	300 75 0.900000 0.117000 0.106000 1500 64 1.100000 3.755000 4.156000 600 83 1.000000 0.058000 0.058000 1.200000 0.031000 0.037000
1518035948137474172	300 75 0.900000 0.116000 0.105000 1500 64 1.100000 3.752000 4.153000 600 83 1.000000 0.058000 0.058000 1.200000 0.031000 0.037000
1518035948644671422	300 66 0.900000 0.116000 0.105000 1500 63 1.100000 3.667000 4.055000 600 72 1.000000 0.058000 0.058000 1.200000 0.030000 0.036000
1518035949151734464	300 62 0.900000 0.116000 0.105000 1500 60 1.100000 0.302000 0.332000 600 67 1.000000 0.058000 0.058000 1.200000 0.030000 0.036000
1518035949658592130	300 60 0.900000 0.114000 0.104000 1500 59 1.100000 0.266000 0.292000 600 64 1.000000 0.057000 0.057000 1.200000 0.029000 0.035000
1518035950165444047	300 58 0.900000 0.114000 0.104000 1500 57 1.100000 0.265000 0.291000 600 62 1.000000 0.057000 0.057000 1.200000 0.030000 0.036000
1518035950672259964	300 57 0.900000 0.114000 0.104000 1500 56 1.100000 0.245000 0.269000 600 61 1.000000 0.057000 0.057000 1.200000 0.030000 0.036000
1518035951179151881	300 56 0.900000 0.113000 0.103000 1500 55 1.100000 0.260000 0.286000 600 60 1.000000 0.056000 0.056000 1.200000 0.030000 0.036000
1518035951685950547	300 55 0.900000 0.113000 0.103000 1500 54 1.100000 0.251000 0.276000 600 59 1.000000 0.056000 0.056000 1.200000 0.030000 0.036000
1518035952192836339	300 54 0.900000 0.113000 0.103000 1500 54 1.100000 0.246000 0.270000 600 58 1.000000 0.055000 0.055000 1.200000 0.029000 0.035000
1518035952699760006	300 53 0.900000 0.113000 0.103000 1500 53 1.100000 0.241000 0.265000 600 57 1.000000 0.055000 0.055000 1.200000 0.029000 0.035000
1518035953206648672	300 53 0.900000 0.111000 0.101000 1500 53 1.100000 0.252000 0.277000 600 57 1.000000 0.055000 0.055000 1.200000 0.029000 0.035000
1518035953713518214	300 53 0.900000 0.112000 0.102000 1500 52 1.100000 0.239000 0.262000 600 56 1.000000 0.055000 0.055000 1.200000 0.029000 0.035000
1518035954220424923	300 52 0.900000 0.112000 0.102000 1500 52 1.100000 0.242000 0.266000 600 56 1.000000 0.055000 0.055000 1.200000 0.030000 0.036000
1518035954727228131	300 52 0.900000 0.112000 0.102000 1500 51 1.100000 0.236000 0.259000 600 55 1.000000 0.055000 0.055000 1.200000 0.030000 0.036000
1518035955234166589	300 51 0.900000 0.112000 0.102000 1500 51 1.100000 0.242000 0.266000 600 55 1.000000 0.055000 0.055000 1.200000 0.030000 0.036000
1518035955740950173	300 51 0.900000 0.111000 0.101000 1500 51 1.100000 0.240000 0.264000 600 55 1.000000 0.055000 0.055000 1.200000 0.030000 0.036000
1518035956247710798	300 51 0.900000 0.111000 0.101000 1500 50 1.100000 0.217000 0.238000 600 54 1.000000 0.055000 0.055000 1.200000 0.030000 0.036000
1518035956754475881	300 51 0.900000 0.111000 0.101000 1500 50 1.100000 0.217000 0.238000 600 54 1.000000 0.055000 0.055000 1.200000 0.029000 0.035000
1518035957261267590	300 50 0.900000 0.111000 0.101000 1500 50 1.100000 0.221000 0.243000 600 54 1.000000 0.055000 0.055000 1.200000 0.030000 0.036000
1518035957768068090	300 50 0.900000 0.111000 0.101000 1500 49 1.100000 0.243000 0.267000 600 53 1.000000 0.055000 0.055000 1.200000 0.030000 0.036000
1518035958275041173	300 50 0.900000 0.111000 0.101000 1500 49 1.100000 0.245000 0.269000 600 53 1.000000 0.055000 0.055000 1.200000 0.030000 0.036000
1518035958781950881	300 49 0.900000 0.111000 0.101000 1500 49 1.100000 0.229000 0.251000 600 53 1.000000 0.054000 0.054000 1.200000 0.029000 0.035000
1518035959288818798	300 49 0.900000 0.065000 0.059000 1500 49 1.100000 0.230000 0.253000 600 53 1.000000 0.054000 0.054000 1.200000 0.027000 0.032000
1518035959795810923	300 49 0.900000 0.044000 0.040000 1500 48 1.100000 0.226000 0.248000 600 53 1.000000 0.054000 0.054000 1.200000 0.026000 0.031000
1518035960302829840	300 49 0.900000 0.040000 0.036000 1500 48 1.100000 0.229000 0.251000 600 53 1.000000 0.054000 0.054000 1.200000 0.026000 0.031000
1518035960809926590	300 49 0.900000 0.040000 0.036000 1500 48 1.100000 0.226000 0.248000 600 52 1.000000 0.054000 0.054000 1.200000 0.025000 0.030000
1518035961317079215	300 48 0.900000 0.017000 0.015000 1500 48 1.100000 0.229000 0.252000 600 52 1.000000 0.054000 0.054000 1.200000 0.025000 0.030000
