#Timestamp	CPU(0) Frequency(MHz)	CPU(0) Temperature(C)	A7 Voltage(V)	A7 Current(A)	A7 Power(W)	CPU(4) Frequency(MHz)	CPU(4) Temperature(C)	A15 Voltage(V)	A15 Current(A)	A15 Power(W)	GPU Frequency(MHz)	GPU Temperature(C)	GPU Voltage(V)	GPU Current(A)	GPU Power(W)	RAM Voltage(V)	RAM Current(A)	RAM Power(W)
1517318057341426676	600 30 0.900000 0.026000 0.024000 1000 29 0.900000 0.579000 0.559000 600 33 1.000000 0.051000 0.051000 1.200000 0.039000 0.047000
1517318057848964426	600 30 0.900000 0.024000 0.022000 1000 29 0.900000 0.589000 0.568000 600 34 1.000000 0.051000 0.051000 1.200000 0.029000 0.035000
1517318058356529718	600 30 0.900000 0.024000 0.022000 1000 29 0.900000 0.590000 0.569000 600 34 1.000000 0.051000 0.051000 1.200000 0.029000 0.035000
1517318058864109801	600 30 0.900000 0.024000 0.022000 1000 29 0.900000 0.589000 0.568000 600 34 1.000000 0.051000 0.051000 1.200000 0.030000 0.036000
1517318059371674718	600 30 0.900000 0.024000 0.022000 1000 29 0.900000 0.592000 0.571000 600 34 1.000000 0.051000 0.051000 1.200000 0.029000 0.035000
1517318059879321635	600 30 0.900000 0.024000 0.022000 1000 29 0.900000 0.595000 0.574000 600 34 1.000000 0.051000 0.051000 1.200000 0.029000 0.035000
1517318060386849176	600 31 0.900000 0.024000 0.022000 1000 29 0.900000 0.591000 0.570000 600 34 1.000000 0.051000 0.051000 1.200000 0.028000 0.033000
1517318060894434301	600 31 0.900000 0.024000 0.022000 1000 29 0.900000 0.589000 0.568000 600 34 1.000000 0.051000 0.051000 1.200000 0.028000 0.033000
1517318061402070176	600 31 0.900000 0.024000 0.022000 1000 29 0.900000 0.607000 0.586000 600 34 1.000000 0.051000 0.051000 1.200000 0.029000 0.035000
1517318061909585968	600 31 0.900000 0.024000 0.022000 1000 29 0.900000 0.597000 0.576000 600 34 1.000000 0.051000 0.051000 1.200000 0.028000 0.033000
1517318062417246510	600 31 0.900000 0.024000 0.022000 1000 29 0.900000 0.604000 0.583000 600 34 1.000000 0.051000 0.051000 1.200000 0.029000 0.035000
1517318062924827260	600 31 0.900000 0.025000 0.023000 1000 29 0.900000 0.593000 0.572000 600 34 1.000000 0.051000 0.051000 1.200000 0.029000 0.035000
1517318063432465260	600 31 0.900000 0.024000 0.022000 1000 29 0.900000 0.591000 0.570000 600 34 1.000000 0.051000 0.051000 1.200000 0.028000 0.033000
1517318063940198843	600 31 0.900000 0.025000 0.023000 1000 29 0.900000 0.592000 0.571000 600 34 1.000000 0.051000 0.051000 1.200000 0.030000 0.036000
1517318064447831093	600 31 0.900000 0.024000 0.022000 1000 29 0.900000 0.593000 0.572000 600 34 1.000000 0.051000 0.051000 1.200000 0.029000 0.035000
1517318064955331843	600 31 0.900000 0.024000 0.022000 1000 29 0.900000 0.594000 0.573000 600 34 1.000000 0.052000 0.052000 1.200000 0.030000 0.036000
1517318065462976052	600 31 0.900000 0.024000 0.022000 1000 29 0.900000 0.592000 0.571000 600 34 1.000000 0.051000 0.051000 1.200000 0.028000 0.033000
1517318065970663177	600 31 0.900000 0.024000 0.022000 1000 29 0.900000 0.592000 0.571000 600 34 1.000000 0.051000 0.051000 1.200000 0.028000 0.033000
1517318066478335427	600 31 0.900000 0.024000 0.022000 1000 29 0.900000 0.591000 0.570000 600 34 1.000000 0.051000 0.051000 1.200000 0.029000 0.035000
1517318066985918844	600 31 0.900000 0.024000 0.022000 1000 29 0.900000 0.592000 0.571000 600 34 1.000000 0.051000 0.051000 1.200000 0.028000 0.033000
1517318067493448552	600 31 0.900000 0.024000 0.022000 1000 29 0.900000 0.592000 0.571000 600 35 1.000000 0.051000 0.051000 1.200000 0.028000 0.033000
1517318068001077885	600 31 0.900000 0.024000 0.022000 1000 29 0.900000 0.595000 0.574000 600 35 1.000000 0.051000 0.051000 1.200000 0.028000 0.033000
1517318068508563636	600 31 0.900000 0.024000 0.022000 1000 29 0.900000 0.601000 0.580000 600 34 1.000000 0.051000 0.051000 1.200000 0.029000 0.035000
1517318069016225969	600 31 0.900000 0.024000 0.022000 1000 29 0.900000 0.599000 0.578000 600 34 1.000000 0.051000 0.051000 1.200000 0.029000 0.035000
1517318069523883386	600 31 0.900000 0.024000 0.022000 1000 29 0.900000 0.598000 0.577000 600 34 1.000000 0.051000 0.051000 1.200000 0.029000 0.035000
1517318070031462886	600 31 0.900000 0.025000 0.023000 1000 29 0.900000 0.609000 0.588000 600 34 1.000000 0.051000 0.051000 1.200000 0.029000 0.035000
1517318070539195594	600 31 0.900000 0.024000 0.022000 1000 29 0.900000 0.594000 0.573000 600 34 1.000000 0.051000 0.051000 1.200000 0.029000 0.035000
1517318071046722844	600 31 0.900000 0.024000 0.022000 1000 29 0.900000 0.605000 0.584000 600 34 1.000000 0.051000 0.051000 1.200000 0.028000 0.033000
1517318071554308928	600 31 0.900000 0.024000 0.022000 1000 29 0.900000 0.597000 0.576000 600 34 1.000000 0.051000 0.051000 1.200000 0.028000 0.033000
1517318072061884094	600 31 0.900000 0.024000 0.022000 1000 29 0.900000 0.603000 0.582000 600 34 1.000000 0.051000 0.051000 1.200000 0.028000 0.033000
1517318072569345303	600 31 0.900000 0.024000 0.022000 1000 29 0.900000 0.604000 0.583000 600 34 1.000000 0.051000 0.051000 1.200000 0.028000 0.033000
1517318073076861011	600 31 0.900000 0.025000 0.023000 1000 29 0.900000 0.596000 0.575000 600 34 1.000000 0.051000 0.051000 1.200000 0.028000 0.033000
1517318073584449886	600 31 0.900000 0.024000 0.022000 1000 29 0.900000 0.607000 0.586000 600 34 1.000000 0.051000 0.051000 1.200000 0.028000 0.033000
1517318074092021970	600 31 0.900000 0.024000 0.022000 1000 29 0.900000 0.594000 0.573000 600 34 1.000000 0.052000 0.052000 1.200000 0.029000 0.035000
1517318074599634178	600 31 0.900000 0.024000 0.022000 1000 29 0.900000 0.607000 0.586000 600 34 1.000000 0.051000 0.051000 1.200000 0.029000 0.035000
1517318075107246261	600 31 0.900000 0.025000 0.023000 1000 29 0.900000 0.601000 0.580000 600 34 1.000000 0.051000 0.051000 1.200000 0.029000 0.035000
1517318075614860470	600 31 0.900000 0.024000 0.022000 1000 29 0.900000 0.599000 0.578000 600 34 1.000000 0.051000 0.051000 1.200000 0.029000 0.035000
1517318076122403303	600 31 0.900000 0.024000 0.022000 1000 29 0.900000 0.605000 0.584000 600 34 1.000000 0.051000 0.051000 1.200000 0.030000 0.036000
1517318076629980095	600 31 0.900000 0.024000 0.022000 1000 29 0.900000 0.595000 0.574000 600 34 1.000000 0.051000 0.051000 1.200000 0.028000 0.033000
1517318077137505387	600 31 0.900000 0.024000 0.022000 1000 29 0.900000 0.610000 0.589000 600 34 1.000000 0.051000 0.051000 1.200000 0.027000 0.032000
1517318077645088053	600 31 0.900000 0.024000 0.022000 1000 29 0.900000 0.598000 0.577000 600 34 1.000000 0.051000 0.051000 1.200000 0.029000 0.035000
1517318078152682137	600 31 0.900000 0.024000 0.022000 1000 29 0.900000 0.604000 0.583000 600 34 1.000000 0.051000 0.051000 1.200000 0.028000 0.033000
1517318078660210303	600 31 0.900000 0.024000 0.022000 1000 29 0.900000 0.600000 0.579000 600 34 1.000000 0.051000 0.051000 1.200000 0.027000 0.032000
1517318079167740428	600 31 0.900000 0.024000 0.022000 1000 29 0.900000 0.599000 0.578000 600 34 1.000000 0.051000 0.051000 1.200000 0.029000 0.035000
1517318079675291387	600 31 0.900000 0.024000 0.022000 1000 29 0.900000 0.608000 0.587000 600 34 1.000000 0.052000 0.052000 1.200000 0.027000 0.032000
1517318080182815762	600 31 0.900000 0.025000 0.023000 1000 29 0.900000 0.594000 0.573000 600 34 1.000000 0.051000 0.051000 1.200000 0.028000 0.033000
1517318080690416429	600 31 0.900000 0.024000 0.022000 1000 29 0.900000 0.593000 0.572000 600 34 1.000000 0.051000 0.051000 1.200000 0.028000 0.033000
1517318081198117970	600 31 0.900000 0.025000 0.023000 1000 29 0.900000 0.595000 0.574000 600 34 1.000000 0.051000 0.051000 1.200000 0.029000 0.035000
1517318081705785095	600 31 0.900000 0.024000 0.022000 1000 29 0.900000 0.603000 0.582000 600 34 1.000000 0.051000 0.051000 1.200000 0.029000 0.035000
1517318082213155346	600 31 0.900000 0.024000 0.022000 1000 29 0.900000 0.602000 0.581000 600 34 1.000000 0.051000 0.051000 1.200000 0.029000 0.035000
1517318082720711762	600 31 0.900000 0.024000 0.022000 1000 29 0.900000 0.601000 0.580000 600 34 1.000000 0.051000 0.051000 1.200000 0.028000 0.033000
1517318083228222346	600 31 0.900000 0.024000 0.022000 1000 29 0.900000 0.608000 0.587000 600 34 1.000000 0.052000 0.052000 1.200000 0.029000 0.035000
1517318083735987971	600 31 0.900000 0.024000 0.022000 1000 29 0.900000 0.592000 0.571000 600 34 1.000000 0.051000 0.051000 1.200000 0.029000 0.035000
1517318084243620637	600 31 0.900000 0.024000 0.022000 1000 29 0.900000 0.608000 0.587000 600 34 1.000000 0.051000 0.051000 1.200000 0.028000 0.033000
1517318084751206804	600 31 0.900000 0.024000 0.022000 1000 29 0.900000 0.602000 0.581000 600 34 1.000000 0.051000 0.051000 1.200000 0.028000 0.033000
1517318085258692721	600 31 0.900000 0.024000 0.022000 1000 29 0.900000 0.601000 0.580000 600 34 1.000000 0.051000 0.051000 1.200000 0.029000 0.035000
1517318085766171138	600 31 0.900000 0.024000 0.022000 1000 29 0.900000 0.589000 0.568000 600 34 1.000000 0.051000 0.051000 1.200000 0.028000 0.033000
1517318086273741179	600 31 0.900000 0.024000 0.022000 1000 29 0.900000 0.595000 0.574000 600 34 1.000000 0.051000 0.051000 1.200000 0.027000 0.032000
1517318086781300804	600 31 0.900000 0.024000 0.022000 1000 29 0.900000 0.592000 0.571000 600 34 1.000000 0.051000 0.051000 1.200000 0.028000 0.033000
1517318087288830971	600 31 0.900000 0.024000 0.022000 1000 29 0.900000 0.595000 0.574000 600 34 1.000000 0.051000 0.051000 1.200000 0.029000 0.035000
1517318087796642305	600 31 0.900000 0.024000 0.022000 1000 29 0.900000 0.608000 0.587000 600 34 1.000000 0.051000 0.051000 1.200000 0.028000 0.033000
1517318088304343721	600 31 0.900000 0.025000 0.023000 1000 29 0.900000 0.615000 0.594000 600 34 1.000000 0.051000 0.051000 1.200000 0.029000 0.035000
1517318088811952013	600 31 0.900000 0.024000 0.022000 1000 29 0.900000 0.600000 0.579000 600 34 1.000000 0.051000 0.051000 1.200000 0.029000 0.035000
1517318089319488305	600 31 0.900000 0.024000 0.022000 1000 29 0.900000 0.608000 0.587000 600 34 1.000000 0.051000 0.051000 1.200000 0.028000 0.033000
1517318089827233138	600 31 0.900000 0.024000 0.022000 1000 29 0.900000 0.595000 0.574000 600 34 1.000000 0.051000 0.051000 1.200000 0.031000 0.037000
1517318090334829763	600 31 0.900000 0.024000 0.022000 1000 29 0.900000 0.609000 0.588000 600 34 1.000000 0.051000 0.051000 1.200000 0.028000 0.033000
1517318090842416055	600 31 0.900000 0.024000 0.022000 1000 29 0.900000 0.597000 0.576000 600 34 1.000000 0.051000 0.051000 1.200000 0.029000 0.035000
1517318091349976222	600 31 0.900000 0.024000 0.022000 1000 29 0.900000 0.592000 0.571000 600 34 1.000000 0.051000 0.051000 1.200000 0.029000 0.035000
1517318091857473263	600 31 0.900000 0.024000 0.022000 1000 29 0.900000 0.594000 0.573000 600 34 1.000000 0.051000 0.051000 1.200000 0.028000 0.033000
1517318092364993847	600 31 0.900000 0.024000 0.022000 1000 29 0.900000 0.593000 0.572000 600 34 1.000000 0.051000 0.051000 1.200000 0.029000 0.035000
1517318092872474722	600 31 0.900000 0.024000 0.022000 1000 29 0.900000 0.592000 0.571000 600 34 1.000000 0.051000 0.051000 1.200000 0.029000 0.035000
1517318093380065847	600 31 0.900000 0.024000 0.022000 1000 29 0.900000 0.590000 0.569000 600 34 1.000000 0.051000 0.051000 1.200000 0.030000 0.036000
1517318093887602722	600 31 0.900000 0.024000 0.022000 1000 29 0.900000 0.592000 0.571000 600 34 1.000000 0.051000 0.051000 1.200000 0.029000 0.035000
1517318094395265014	600 31 0.900000 0.024000 0.022000 1000 29 0.900000 0.598000 0.577000 600 34 1.000000 0.051000 0.051000 1.200000 0.028000 0.033000
1517318094902888555	600 31 0.900000 0.024000 0.022000 1000 29 0.900000 0.605000 0.584000 600 34 1.000000 0.051000 0.051000 1.200000 0.031000 0.037000
1517318095410421180	600 31 0.900000 0.024000 0.022000 1000 29 0.900000 0.603000 0.582000 600 34 1.000000 0.051000 0.051000 1.200000 0.030000 0.036000
1517318095917970430	600 31 0.900000 0.024000 0.022000 1000 29 0.900000 0.595000 0.574000 600 34 1.000000 0.051000 0.051000 1.200000 0.029000 0.035000
1517318096425484389	600 31 0.900000 0.024000 0.022000 1000 29 0.900000 0.609000 0.588000 600 34 1.000000 0.051000 0.051000 1.200000 0.028000 0.033000
1517318096933069306	600 31 0.900000 0.024000 0.022000 1000 29 0.900000 0.593000 0.572000 600 34 1.000000 0.051000 0.051000 1.200000 0.030000 0.036000
1517318097440697472	600 31 0.900000 0.024000 0.022000 1000 29 0.900000 0.596000 0.575000 600 34 1.000000 0.051000 0.051000 1.200000 0.029000 0.035000
1517318097948203139	600 31 0.900000 0.024000 0.022000 1000 29 0.900000 0.592000 0.571000 600 34 1.000000 0.051000 0.051000 1.200000 0.027000 0.032000
1517318098455889889	600 31 0.900000 0.024000 0.022000 1000 29 0.900000 0.592000 0.571000 600 34 1.000000 0.051000 0.051000 1.200000 0.029000 0.035000
1517318098963479056	600 30 0.900000 0.024000 0.022000 1000 29 0.900000 0.590000 0.569000 600 34 1.000000 0.051000 0.051000 1.200000 0.030000 0.036000
1517318099471105139	600 30 0.900000 0.024000 0.022000 1000 29 0.900000 0.594000 0.573000 600 34 1.000000 0.051000 0.051000 1.200000 0.030000 0.036000
1517318099978645139	600 31 0.900000 0.024000 0.022000 1000 29 0.900000 0.591000 0.570000 600 34 1.000000 0.051000 0.051000 1.200000 0.028000 0.033000
1517318100486211723	600 30 0.900000 0.024000 0.022000 1000 29 0.900000 0.594000 0.573000 600 34 1.000000 0.051000 0.051000 1.200000 0.027000 0.032000
1517318100993872389	600 31 0.900000 0.024000 0.022000 1000 29 0.900000 0.590000 0.569000 600 34 1.000000 0.051000 0.051000 1.200000 0.029000 0.035000
1517318101501501681	600 30 0.900000 0.024000 0.022000 1000 29 0.900000 0.603000 0.582000 600 34 1.000000 0.051000 0.051000 1.200000 0.029000 0.035000
1517318102009178765	600 30 0.900000 0.024000 0.022000 1000 29 0.900000 0.600000 0.579000 600 34 1.000000 0.051000 0.051000 1.200000 0.029000 0.035000
1517318102516816640	600 30 0.900000 0.024000 0.022000 1000 29 0.900000 0.609000 0.588000 600 34 1.000000 0.051000 0.051000 1.200000 0.029000 0.035000
1517318103024372681	600 31 0.900000 0.024000 0.022000 1000 29 0.900000 0.591000 0.570000 600 34 1.000000 0.051000 0.051000 1.200000 0.028000 0.033000
1517318103532029806	600 30 0.900000 0.024000 0.022000 1000 29 0.900000 0.589000 0.568000 600 34 1.000000 0.051000 0.051000 1.200000 0.030000 0.036000
1517318104039623598	600 30 0.900000 0.024000 0.022000 1000 29 0.900000 0.595000 0.574000 600 34 1.000000 0.051000 0.051000 1.200000 0.029000 0.035000
1517318104546766807	600 30 0.900000 0.024000 0.022000 1000 29 0.900000 0.594000 0.573000 600 34 1.000000 0.051000 0.051000 1.200000 0.030000 0.036000
1517318105053715890	600 30 0.900000 0.024000 0.022000 1000 29 0.900000 0.592000 0.571000 600 34 1.000000 0.051000 0.051000 1.200000 0.029000 0.035000
1517318105560773432	600 30 0.900000 0.024000 0.022000 1000 29 0.900000 0.592000 0.571000 600 34 1.000000 0.051000 0.051000 1.200000 0.028000 0.033000
1517318106067721390	600 31 0.900000 0.024000 0.022000 1000 29 0.900000 0.591000 0.570000 600 34 1.000000 0.051000 0.051000 1.200000 0.028000 0.033000
1517318106574561307	600 30 0.900000 0.024000 0.022000 1000 29 0.900000 0.592000 0.571000 600 34 1.000000 0.051000 0.051000 1.200000 0.028000 0.033000
1517318107081458307	600 30 0.900000 0.024000 0.022000 1000 29 0.900000 0.593000 0.572000 600 34 1.000000 0.051000 0.051000 1.200000 0.028000 0.033000
1517318107588438099	600 30 0.900000 0.024000 0.022000 1000 29 0.900000 0.592000 0.571000 600 34 1.000000 0.051000 0.051000 1.200000 0.028000 0.033000
1517318108095393849	600 30 0.900000 0.024000 0.022000 1000 29 0.900000 0.592000 0.571000 600 34 1.000000 0.051000 0.051000 1.200000 0.030000 0.036000
1517318108602436474	600 30 0.900000 0.024000 0.022000 1000 29 0.900000 0.592000 0.571000 600 34 1.000000 0.051000 0.051000 1.200000 0.028000 0.033000
1517318109109283599	600 30 0.900000 0.024000 0.022000 1000 29 0.900000 0.604000 0.583000 600 34 1.000000 0.051000 0.051000 1.200000 0.029000 0.035000
1517318109616262474	600 30 0.900000 0.024000 0.022000 1000 29 0.900000 0.597000 0.576000 600 34 1.000000 0.051000 0.051000 1.200000 0.029000 0.035000
1517318110123158099	600 30 0.900000 0.024000 0.022000 1000 29 0.900000 0.604000 0.583000 600 34 1.000000 0.051000 0.051000 1.200000 0.029000 0.035000
1517318110630077724	600 30 0.900000 0.024000 0.022000 1000 29 0.900000 0.598000 0.577000 600 34 1.000000 0.051000 0.051000 1.200000 0.029000 0.035000
1517318111136934599	600 30 0.900000 0.024000 0.022000 1000 29 0.900000 0.597000 0.576000 600 34 1.000000 0.051000 0.051000 1.200000 0.028000 0.033000
1517318111643877682	600 30 0.900000 0.024000 0.022000 1000 29 0.900000 0.603000 0.582000 600 34 1.000000 0.051000 0.051000 1.200000 0.028000 0.033000
1517318112150771099	600 30 0.900000 0.024000 0.022000 1000 29 0.900000 0.598000 0.577000 600 34 1.000000 0.051000 0.051000 1.200000 0.028000 0.033000
1517318112657498724	600 30 0.900000 0.024000 0.022000 1000 29 0.900000 0.605000 0.584000 600 34 1.000000 0.051000 0.051000 1.200000 0.028000 0.033000
1517318113164356058	600 30 0.900000 0.024000 0.022000 1000 29 0.900000 0.595000 0.574000 600 34 1.000000 0.051000 0.051000 1.200000 0.028000 0.033000
1517318113671322099	600 30 0.900000 0.024000 0.022000 1000 29 0.900000 0.612000 0.591000 600 34 1.000000 0.051000 0.051000 1.200000 0.028000 0.033000
1517318114180469349	600 30 0.900000 0.024000 0.022000 1000 29 0.900000 0.593000 0.572000 600 34 1.000000 0.051000 0.051000 1.200000 0.028000 0.033000
1517318114687263724	600 30 0.900000 0.024000 0.022000 1000 29 0.900000 0.602000 0.581000 600 34 1.000000 0.051000 0.051000 1.200000 0.028000 0.033000
1517318115193991058	600 30 0.900000 0.024000 0.022000 1000 29 0.900000 0.598000 0.577000 600 34 1.000000 0.051000 0.051000 1.200000 0.030000 0.036000
1517318115700787808	600 30 0.900000 0.024000 0.022000 1000 29 0.900000 0.603000 0.582000 600 34 1.000000 0.051000 0.051000 1.200000 0.028000 0.033000
1517318116207485100	600 30 0.900000 0.024000 0.022000 1000 29 0.900000 0.600000 0.579000 600 34 1.000000 0.051000 0.051000 1.200000 0.029000 0.035000
1517318116714271558	600 30 0.900000 0.024000 0.022000 1000 29 0.900000 0.600000 0.579000 600 34 1.000000 0.051000 0.051000 1.200000 0.028000 0.033000
1517318117220898975	600 30 0.900000 0.024000 0.022000 1000 29 0.900000 0.604000 0.583000 600 34 1.000000 0.051000 0.051000 1.200000 0.028000 0.033000
1517318117727717933	600 30 0.900000 0.023000 0.021000 1000 29 0.900000 0.598000 0.577000 600 34 1.000000 0.051000 0.051000 1.200000 0.028000 0.033000
1517318118234665766	600 30 0.900000 0.025000 0.023000 1000 29 0.900000 0.603000 0.582000 600 34 1.000000 0.051000 0.051000 1.200000 0.028000 0.033000
1517318118741422558	600 30 0.900000 0.024000 0.022000 1000 29 0.900000 0.597000 0.576000 600 34 1.000000 0.051000 0.051000 1.200000 0.028000 0.033000
1517318119248117142	600 30 0.900000 0.024000 0.022000 1000 29 0.900000 0.609000 0.588000 600 34 1.000000 0.051000 0.051000 1.200000 0.029000 0.035000
1517318119754899683	600 30 0.900000 0.024000 0.022000 1000 29 0.900000 0.595000 0.574000 600 34 1.000000 0.051000 0.051000 1.200000 0.028000 0.033000
1517318120261715517	600 30 0.900000 0.024000 0.022000 1000 29 0.900000 0.592000 0.571000 600 34 1.000000 0.051000 0.051000 1.200000 0.029000 0.035000
1517318120768567267	600 30 0.900000 0.024000 0.022000 1000 29 0.900000 0.594000 0.573000 600 34 1.000000 0.051000 0.051000 1.200000 0.029000 0.035000
1517318121275329642	600 30 0.900000 0.024000 0.022000 1000 29 0.900000 0.608000 0.587000 600 34 1.000000 0.051000 0.051000 1.200000 0.029000 0.035000
1517318121782045684	600 30 0.900000 0.024000 0.022000 1000 29 0.900000 0.595000 0.574000 600 34 1.000000 0.051000 0.051000 1.200000 0.029000 0.035000
1517318122288798184	600 30 0.900000 0.024000 0.022000 1000 29 0.900000 0.608000 0.587000 600 34 1.000000 0.051000 0.051000 1.200000 0.028000 0.033000
1517318122795592142	600 30 0.900000 0.025000 0.023000 1000 29 0.900000 0.597000 0.576000 600 34 1.000000 0.051000 0.051000 1.200000 0.028000 0.033000
1517318123302452309	600 30 0.900000 0.024000 0.022000 1000 29 0.900000 0.604000 0.583000 600 34 1.000000 0.051000 0.051000 1.200000 0.029000 0.035000
1517318123809259517	600 30 0.900000 0.024000 0.022000 1000 29 0.900000 0.601000 0.580000 600 34 1.000000 0.051000 0.051000 1.200000 0.029000 0.035000
1517318124316091392	600 30 0.900000 0.024000 0.022000 1000 29 0.900000 0.604000 0.583000 600 34 1.000000 0.051000 0.051000 1.200000 0.028000 0.033000
1517318124822867434	600 30 0.900000 0.024000 0.022000 1000 29 0.900000 0.601000 0.580000 600 34 1.000000 0.051000 0.051000 1.200000 0.029000 0.035000
1517318125329704351	600 30 0.900000 0.024000 0.022000 1000 29 0.900000 0.594000 0.573000 600 34 1.000000 0.051000 0.051000 1.200000 0.029000 0.035000
1517318125836582351	600 30 0.900000 0.024000 0.022000 1000 29 0.900000 0.594000 0.573000 600 34 1.000000 0.051000 0.051000 1.200000 0.029000 0.035000
1517318126343313809	600 30 0.900000 0.024000 0.022000 1000 29 0.900000 0.595000 0.574000 600 34 1.000000 0.051000 0.051000 1.200000 0.029000 0.035000
1517318126850100643	600 30 0.900000 0.024000 0.022000 1000 29 0.900000 0.597000 0.576000 600 34 1.000000 0.051000 0.051000 1.200000 0.028000 0.033000
1517318127356796018	600 30 0.900000 0.024000 0.022000 1000 29 0.900000 0.597000 0.576000 600 34 1.000000 0.051000 0.051000 1.200000 0.029000 0.035000
1517318127863532851	600 30 0.900000 0.024000 0.022000 1000 29 0.900000 0.605000 0.584000 600 34 1.000000 0.051000 0.051000 1.200000 0.028000 0.033000
1517318128370466434	600 30 0.900000 0.024000 0.022000 1000 29 0.900000 0.594000 0.573000 600 34 1.000000 0.051000 0.051000 1.200000 0.028000 0.033000
1517318128877254101	600 30 0.900000 0.024000 0.022000 1000 29 0.900000 0.610000 0.589000 600 34 1.000000 0.051000 0.051000 1.200000 0.028000 0.033000
1517318129384056518	600 30 0.900000 0.024000 0.022000 1000 29 0.900000 0.596000 0.575000 600 34 1.000000 0.051000 0.051000 1.200000 0.029000 0.035000
1517318129890822935	600 30 0.900000 0.024000 0.022000 1000 29 0.900000 0.611000 0.590000 600 34 1.000000 0.051000 0.051000 1.200000 0.028000 0.033000
1517318130397504268	600 30 0.900000 0.024000 0.022000 1000 29 0.900000 0.594000 0.573000 600 34 1.000000 0.051000 0.051000 1.200000 0.028000 0.033000
1517318130904402310	600 30 0.900000 0.024000 0.022000 1000 29 0.900000 0.593000 0.572000 600 34 1.000000 0.051000 0.051000 1.200000 0.029000 0.035000
1517318131411275726	600 30 0.900000 0.024000 0.022000 1000 29 0.900000 0.594000 0.573000 600 34 1.000000 0.051000 0.051000 1.200000 0.029000 0.035000
1517318131918041351	600 31 0.900000 0.024000 0.022000 1000 29 0.900000 0.595000 0.574000 600 34 1.000000 0.051000 0.051000 1.200000 0.028000 0.033000
1517318132424713602	600 30 0.900000 0.024000 0.022000 1000 29 0.900000 0.594000 0.573000 600 34 1.000000 0.051000 0.051000 1.200000 0.029000 0.035000
1517318132931461768	600 30 0.900000 0.024000 0.022000 1000 29 0.900000 0.593000 0.572000 600 34 1.000000 0.051000 0.051000 1.200000 0.029000 0.035000
1517318133440586227	600 30 0.900000 0.024000 0.022000 1000 29 0.900000 0.600000 0.579000 600 34 1.000000 0.051000 0.051000 1.200000 0.029000 0.035000
1517318133947339060	600 30 0.900000 0.025000 0.023000 1000 29 0.900000 0.599000 0.578000 600 34 1.000000 0.051000 0.051000 1.200000 0.030000 0.036000
1517318134454052560	600 30 0.900000 0.024000 0.022000 1000 29 0.900000 0.610000 0.589000 600 34 1.000000 0.051000 0.051000 1.200000 0.028000 0.033000
1517318134960725185	600 30 0.900000 0.024000 0.022000 1000 29 0.900000 0.596000 0.575000 600 34 1.000000 0.051000 0.051000 1.200000 0.029000 0.035000
1517318135467549060	600 30 0.900000 0.024000 0.022000 1000 29 0.900000 0.608000 0.587000 600 34 1.000000 0.051000 0.051000 1.200000 0.029000 0.035000
1517318135974265435	600 30 0.900000 0.024000 0.022000 1000 29 0.900000 0.594000 0.573000 600 34 1.000000 0.051000 0.051000 1.200000 0.030000 0.036000
1517318136481817560	600 31 0.900000 0.024000 0.022000 1000 29 0.900000 0.592000 0.571000 600 34 1.000000 0.051000 0.051000 1.200000 0.049000 0.059000
1517318137039838060	600 34 0.900000 0.028000 0.026000 1000 30 0.900000 0.872000 0.843000 600 37 1.000000 0.051000 0.051000 1.200000 0.122000 0.148000
1517318137595809394	600 35 0.900000 0.171000 0.161000 1000 31 0.900000 1.476000 1.431000 600 38 1.000000 0.051000 0.051000 1.200000 0.073000 0.088000
1517318138163813311	600 35 0.900000 0.169000 0.160000 1000 31 0.900000 1.474000 1.429000 600 39 1.000000 0.052000 0.052000 1.200000 0.070000 0.084000
1517318138731754561	600 36 0.900000 0.169000 0.160000 1000 32 0.900000 1.474000 1.429000 600 40 1.000000 0.052000 0.052000 1.200000 0.070000 0.084000
1517318139295845519	600 36 0.900000 0.169000 0.160000 1000 32 0.900000 1.477000 1.432000 600 40 1.000000 0.051000 0.051000 1.200000 0.070000 0.084000
1517318139855817561	600 36 0.900000 0.169000 0.160000 1000 32 0.900000 1.478000 1.433000 600 40 1.000000 0.051000 0.051000 1.200000 0.069000 0.083000
1517318140419831186	600 36 0.900000 0.170000 0.160000 1000 32 0.900000 1.479000 1.434000 600 40 1.000000 0.052000 0.052000 1.200000 0.069000 0.083000
1517318140979864561	600 37 0.900000 0.170000 0.160000 1000 32 0.900000 1.479000 1.434000 600 41 1.000000 0.051000 0.051000 1.200000 0.069000 0.083000
1517318141535818811	600 37 0.900000 0.169000 0.160000 1000 33 0.900000 1.480000 1.435000 600 41 1.000000 0.052000 0.052000 1.200000 0.069000 0.083000
1517318142087760478	600 37 0.900000 0.169000 0.160000 1000 33 0.900000 1.478000 1.433000 600 41 1.000000 0.052000 0.052000 1.200000 0.070000 0.084000
1517318142651797228	600 37 0.900000 0.170000 0.160000 1000 33 0.900000 1.480000 1.435000 600 41 1.000000 0.052000 0.052000 1.200000 0.068000 0.082000
1517318143207767728	600 37 0.900000 0.170000 0.160000 1000 33 0.900000 1.480000 1.435000 600 41 1.000000 0.052000 0.052000 1.200000 0.069000 0.083000
1517318143771804478	600 37 0.900000 0.169000 0.160000 1000 33 0.900000 1.478000 1.433000 600 41 1.000000 0.052000 0.052000 1.200000 0.069000 0.083000
1517318144339849228	600 37 0.900000 0.170000 0.160000 1000 33 0.900000 1.480000 1.435000 600 41 1.000000 0.052000 0.052000 1.200000 0.069000 0.083000
1517318144907809603	600 37 0.900000 0.169000 0.160000 1000 33 0.900000 1.480000 1.435000 600 41 1.000000 0.052000 0.052000 1.200000 0.069000 0.083000
1517318145463762895	600 37 0.900000 0.169000 0.160000 1000 33 0.900000 1.480000 1.435000 600 41 1.000000 0.052000 0.052000 1.200000 0.068000 0.082000
1517318146027847436	600 37 0.900000 0.170000 0.160000 1000 33 0.900000 1.481000 1.438000 600 42 1.000000 0.052000 0.052000 1.200000 0.069000 0.083000
1517318146587839603	600 37 0.900000 0.169000 0.160000 1000 33 0.900000 1.480000 1.437000 600 42 1.000000 0.052000 0.052000 1.200000 0.070000 0.084000
1517318147151824645	600 38 0.900000 0.169000 0.160000 1000 33 0.900000 1.480000 1.435000 600 42 1.000000 0.051000 0.051000 1.200000 0.069000 0.083000
1517318147719815937	600 38 0.900000 0.169000 0.160000 1000 33 0.900000 1.479000 1.434000 600 42 1.000000 0.052000 0.052000 1.200000 0.069000 0.083000
1517318148279800145	600 38 0.900000 0.170000 0.160000 1000 34 0.900000 1.479000 1.434000 600 42 1.000000 0.052000 0.052000 1.200000 0.068000 0.082000
1517318148835802520	600 38 0.900000 0.170000 0.160000 1000 34 0.900000 1.481000 1.436000 600 42 1.000000 0.052000 0.052000 1.200000 0.068000 0.082000
1517318149399779812	600 38 0.900000 0.169000 0.160000 1000 34 0.900000 1.480000 1.435000 600 42 1.000000 0.052000 0.052000 1.200000 0.069000 0.083000
1517318149959758187	600 38 0.900000 0.170000 0.160000 1000 34 0.900000 1.478000 1.433000 600 42 1.000000 0.052000 0.052000 1.200000 0.069000 0.083000
1517318150523838437	600 38 0.900000 0.170000 0.160000 1000 34 0.900000 1.479000 1.434000 600 42 1.000000 0.052000 0.052000 1.200000 0.069000 0.083000
1517318151091821437	600 38 0.900000 0.170000 0.160000 1000 34 0.900000 1.479000 1.434000 600 42 1.000000 0.052000 0.052000 1.200000 0.070000 0.084000
1517318151655811854	600 38 0.900000 0.170000 0.160000 1000 34 0.900000 1.477000 1.432000 600 42 1.000000 0.052000 0.052000 1.200000 0.070000 0.084000
1517318152215824354	600 38 0.900000 0.170000 0.160000 1000 34 0.900000 1.478000 1.433000 600 42 1.000000 0.052000 0.052000 1.200000 0.069000 0.083000
1517318152779835562	600 38 0.900000 0.170000 0.160000 1000 34 0.900000 1.480000 1.435000 600 42 1.000000 0.052000 0.052000 1.200000 0.068000 0.082000
1517318153343777271	600 38 0.900000 0.170000 0.160000 1000 34 0.900000 1.480000 1.435000 600 42 1.000000 0.052000 0.052000 1.200000 0.068000 0.082000
1517318153899774562	600 38 0.900000 0.169000 0.160000 1000 34 0.900000 1.480000 1.435000 600 42 1.000000 0.052000 0.052000 1.200000 0.068000 0.082000
1517318154463827187	600 38 0.900000 0.170000 0.160000 1000 34 0.900000 1.479000 1.434000 600 42 1.000000 0.052000 0.052000 1.200000 0.068000 0.082000
1517318155031827479	600 38 0.900000 0.170000 0.160000 1000 34 0.900000 1.478000 1.433000 600 42 1.000000 0.052000 0.052000 1.200000 0.069000 0.083000
1517318155591774271	600 38 0.900000 0.170000 0.160000 1000 34 0.900000 1.479000 1.434000 600 42 1.000000 0.052000 0.052000 1.200000 0.069000 0.083000
1517318156159785354	600 38 0.900000 0.170000 0.160000 1000 34 0.900000 1.479000 1.434000 600 42 1.000000 0.052000 0.052000 1.200000 0.068000 0.082000
1517318156723812979	600 38 0.900000 0.169000 0.160000 1000 34 0.900000 1.480000 1.435000 600 42 1.000000 0.052000 0.052000 1.200000 0.068000 0.082000
1517318157287847479	600 38 0.900000 0.170000 0.160000 1000 34 0.900000 1.479000 1.434000 600 42 1.000000 0.052000 0.052000 1.200000 0.069000 0.083000
1517318157847875896	600 38 0.900000 0.170000 0.160000 1000 34 0.900000 1.480000 1.435000 600 42 1.000000 0.052000 0.052000 1.200000 0.068000 0.082000
1517318158411777396	600 38 0.900000 0.170000 0.160000 1000 34 0.900000 1.481000 1.436000 600 42 1.000000 0.052000 0.052000 1.200000 0.068000 0.082000
1517318158979837438	600 38 0.900000 0.170000 0.160000 1000 34 0.900000 1.479000 1.434000 600 42 1.000000 0.052000 0.052000 1.200000 0.068000 0.082000
1517318159551803563	600 38 0.900000 0.170000 0.160000 1000 34 0.900000 1.478000 1.433000 600 42 1.000000 0.052000 0.052000 1.200000 0.068000 0.082000
1517318160115838021	600 38 0.900000 0.170000 0.160000 1000 34 0.900000 1.481000 1.436000 600 42 1.000000 0.052000 0.052000 1.200000 0.070000 0.084000
1517318160679854897	600 38 0.900000 0.170000 0.160000 1000 34 0.900000 1.480000 1.435000 600 42 1.000000 0.052000 0.052000 1.200000 0.068000 0.082000
1517318161235855522	600 38 0.900000 0.169000 0.160000 1000 34 0.900000 1.481000 1.436000 600 43 1.000000 0.052000 0.052000 1.200000 0.068000 0.082000
1517318161791806188	600 38 0.900000 0.170000 0.160000 1000 34 0.900000 1.479000 1.434000 600 43 1.000000 0.052000 0.052000 1.200000 0.069000 0.083000
1517318162351812105	600 38 0.900000 0.169000 0.160000 1000 34 0.900000 1.482000 1.437000 600 43 1.000000 0.052000 0.052000 1.200000 0.068000 0.082000
1517318162915804855	600 38 0.900000 0.170000 0.160000 1000 34 0.900000 1.480000 1.435000 600 43 1.000000 0.052000 0.052000 1.200000 0.068000 0.082000
1517318163471869022	600 38 0.900000 0.170000 0.160000 1000 34 0.900000 1.480000 1.435000 600 43 1.000000 0.052000 0.052000 1.200000 0.068000 0.082000
1517318164031797689	600 38 0.900000 0.170000 0.160000 1000 34 0.900000 1.480000 1.435000 600 43 1.000000 0.052000 0.052000 1.200000 0.069000 0.083000
1517318164599833022	600 38 0.900000 0.170000 0.160000 1000 34 0.900000 1.480000 1.435000 600 43 1.000000 0.052000 0.052000 1.200000 0.068000 0.082000
1517318165159855522	600 38 0.900000 0.170000 0.160000 1000 35 0.900000 1.481000 1.436000 600 43 1.000000 0.052000 0.052000 1.200000 0.069000 0.083000
1517318165723826230	600 38 0.900000 0.170000 0.160000 1000 34 0.900000 1.480000 1.435000 600 43 1.000000 0.052000 0.052000 1.200000 0.068000 0.082000
1517318166267803564	600 38 0.900000 0.170000 0.160000 1000 34 0.900000 1.482000 1.437000 600 43 1.000000 0.052000 0.052000 1.200000 0.068000 0.082000
1517318166831995147	600 38 0.900000 0.170000 0.160000 1000 34 0.900000 1.480000 1.435000 600 43 1.000000 0.052000 0.052000 1.200000 0.068000 0.082000
1517318167395811147	600 39 0.900000 0.170000 0.160000 1000 35 0.900000 1.480000 1.435000 600 43 1.000000 0.052000 0.052000 1.200000 0.068000 0.082000
1517318167959821397	600 39 0.900000 0.170000 0.160000 1000 34 0.900000 1.480000 1.435000 600 43 1.000000 0.052000 0.052000 1.200000 0.068000 0.082000
1517318168507787522	600 39 0.900000 0.170000 0.160000 1000 35 0.900000 1.479000 1.434000 600 43 1.000000 0.052000 0.052000 1.200000 0.069000 0.083000
1517318169075874148	600 39 0.900000 0.170000 0.160000 1000 35 0.900000 1.479000 1.434000 600 43 1.000000 0.052000 0.052000 1.200000 0.068000 0.082000
1517318169635847148	600 39 0.900000 0.169000 0.160000 1000 35 0.900000 1.479000 1.434000 600 43 1.000000 0.052000 0.052000 1.200000 0.069000 0.083000
1517318170203775398	600 39 0.900000 0.170000 0.160000 1000 35 0.900000 1.482000 1.437000 600 43 1.000000 0.052000 0.052000 1.200000 0.068000 0.082000
1517318170755814189	600 39 0.900000 0.169000 0.160000 1000 35 0.900000 1.482000 1.437000 600 43 1.000000 0.052000 0.052000 1.200000 0.068000 0.082000
1517318171327769898	600 39 0.900000 0.170000 0.160000 1000 35 0.900000 1.481000 1.436000 600 43 1.000000 0.052000 0.052000 1.200000 0.068000 0.082000
1517318171895768315	600 39 0.900000 0.170000 0.160000 1000 35 0.900000 1.482000 1.437000 600 43 1.000000 0.052000 0.052000 1.200000 0.069000 0.083000
1517318172459828148	600 39 0.900000 0.170000 0.160000 1000 35 0.900000 1.479000 1.434000 600 43 1.000000 0.052000 0.052000 1.200000 0.069000 0.083000
1517318173027855356	600 39 0.900000 0.170000 0.160000 1000 35 0.900000 1.479000 1.434000 600 43 1.000000 0.052000 0.052000 1.200000 0.070000 0.084000
1517318173583837690	600 39 0.900000 0.170000 0.160000 1000 35 0.900000 1.480000 1.435000 600 43 1.000000 0.052000 0.052000 1.200000 0.069000 0.083000
1517318174143810773	600 39 0.900000 0.169000 0.160000 1000 35 0.900000 1.481000 1.436000 600 43 1.000000 0.052000 0.052000 1.200000 0.068000 0.082000
1517318174703821648	600 39 0.900000 0.169000 0.160000 1000 35 0.900000 1.482000 1.437000 600 43 1.000000 0.052000 0.052000 1.200000 0.069000 0.083000
1517318175263784732	600 39 0.900000 0.170000 0.160000 1000 35 0.900000 1.482000 1.437000 600 43 1.000000 0.052000 0.052000 1.200000 0.069000 0.083000
1517318175831858023	600 39 0.900000 0.170000 0.160000 1000 35 0.900000 1.482000 1.437000 600 43 1.000000 0.052000 0.052000 1.200000 0.069000 0.083000
1517318176395832523	600 39 0.900000 0.170000 0.160000 1000 35 0.900000 1.480000 1.435000 600 43 1.000000 0.052000 0.052000 1.200000 0.070000 0.084000
1517318176943804023	600 39 0.900000 0.170000 0.160000 1000 35 0.900000 1.480000 1.435000 600 43 1.000000 0.052000 0.052000 1.200000 0.070000 0.084000
1517318177507786565	600 39 0.900000 0.170000 0.160000 1000 35 0.900000 1.480000 1.435000 600 43 1.000000 0.052000 0.052000 1.200000 0.070000 0.084000
1517318178071795899	600 39 0.900000 0.170000 0.160000 1000 35 0.900000 1.480000 1.435000 600 43 1.000000 0.052000 0.052000 1.200000 0.069000 0.083000
1517318178631821482	600 39 0.900000 0.170000 0.160000 1000 35 0.900000 1.481000 1.436000 600 43 1.000000 0.052000 0.052000 1.200000 0.069000 0.083000
1517318179187819649	600 39 0.900000 0.170000 0.160000 1000 35 0.900000 1.481000 1.436000 600 43 1.000000 0.052000 0.052000 1.200000 0.069000 0.083000
1517318179751750399	600 39 0.900000 0.170000 0.160000 1000 35 0.900000 1.482000 1.437000 600 43 1.000000 0.052000 0.052000 1.200000 0.070000 0.084000
1517318180319818274	600 39 0.900000 0.170000 0.160000 1000 35 0.900000 1.483000 1.438000 600 43 1.000000 0.052000 0.052000 1.200000 0.069000 0.083000
1517318180883825566	600 39 0.900000 0.170000 0.160000 1000 35 0.900000 1.481000 1.436000 600 43 1.000000 0.052000 0.052000 1.200000 0.069000 0.083000
1517318181455820149	600 39 0.900000 0.170000 0.160000 1000 35 0.900000 1.481000 1.436000 600 43 1.000000 0.052000 0.052000 1.200000 0.069000 0.083000
1517318182027823774	600 39 0.900000 0.170000 0.160000 1000 35 0.900000 1.479000 1.434000 600 43 1.000000 0.052000 0.052000 1.200000 0.069000 0.083000
1517318182587827524	600 39 0.900000 0.170000 0.160000 1000 35 0.900000 1.482000 1.437000 600 43 1.000000 0.052000 0.052000 1.200000 0.068000 0.082000
1517318183143790274	600 39 0.900000 0.170000 0.160000 1000 35 0.900000 1.481000 1.436000 600 43 1.000000 0.052000 0.052000 1.200000 0.069000 0.083000
1517318183707831941	600 39 0.900000 0.170000 0.160000 1000 35 0.900000 1.482000 1.437000 600 43 1.000000 0.052000 0.052000 1.200000 0.069000 0.083000
1517318184271805108	600 39 0.900000 0.169000 0.160000 1000 35 0.900000 1.481000 1.436000 600 43 1.000000 0.052000 0.052000 1.200000 0.069000 0.083000
1517318184843751524	600 39 0.900000 0.170000 0.160000 1000 35 0.900000 1.482000 1.437000 600 43 1.000000 0.052000 0.052000 1.200000 0.069000 0.083000
1517318185403842316	600 39 0.900000 0.170000 0.160000 1000 35 0.900000 1.482000 1.437000 600 43 1.000000 0.052000 0.052000 1.200000 0.069000 0.083000
1517318185971900941	600 39 0.900000 0.170000 0.160000 1000 35 0.900000 1.481000 1.436000 600 43 1.000000 0.052000 0.052000 1.200000 0.069000 0.083000
1517318186547817691	600 39 0.900000 0.169000 0.160000 1000 35 0.900000 1.482000 1.437000 600 43 1.000000 0.052000 0.052000 1.200000 0.068000 0.082000
1517318187115842066	600 39 0.900000 0.170000 0.160000 1000 35 0.900000 1.480000 1.435000 600 43 1.000000 0.052000 0.052000 1.200000 0.068000 0.082000
1517318187683819108	600 39 0.900000 0.170000 0.160000 1000 35 0.900000 1.480000 1.435000 600 43 1.000000 0.052000 0.052000 1.200000 0.069000 0.083000
1517318188247842358	600 39 0.900000 0.170000 0.160000 1000 35 0.900000 1.479000 1.434000 600 43 1.000000 0.052000 0.052000 1.200000 0.069000 0.083000
1517318188815819525	600 39 0.900000 0.170000 0.160000 1000 35 0.900000 1.480000 1.435000 600 43 1.000000 0.052000 0.052000 1.200000 0.069000 0.083000
1517318189379835192	600 39 0.900000 0.170000 0.160000 1000 35 0.900000 1.480000 1.435000 600 43 1.000000 0.052000 0.052000 1.200000 0.069000 0.083000
1517318189943808650	600 39 0.900000 0.170000 0.160000 1000 35 0.900000 1.481000 1.436000 600 43 1.000000 0.052000 0.052000 1.200000 0.069000 0.083000
1517318190503755358	600 39 0.900000 0.170000 0.160000 1000 35 0.900000 1.480000 1.435000 600 43 1.000000 0.052000 0.052000 1.200000 0.068000 0.082000
1517318191075839525	600 39 0.900000 0.170000 0.160000 1000 35 0.900000 1.481000 1.436000 600 43 1.000000 0.052000 0.052000 1.200000 0.068000 0.082000
1517318191643840609	600 39 0.900000 0.170000 0.160000 1000 35 0.900000 1.481000 1.436000 600 43 1.000000 0.052000 0.052000 1.200000 0.068000 0.082000
1517318192203821734	600 39 0.900000 0.170000 0.160000 1000 35 0.900000 1.482000 1.437000 600 43 1.000000 0.052000 0.052000 1.200000 0.069000 0.083000
1517318192755760234	600 39 0.900000 0.170000 0.160000 1000 35 0.900000 1.481000 1.436000 600 43 1.000000 0.053000 0.053000 1.200000 0.069000 0.083000
1517318193315817067	600 39 0.900000 0.170000 0.160000 1000 35 0.900000 1.482000 1.437000 600 43 1.000000 0.052000 0.052000 1.200000 0.070000 0.084000
1517318193875891109	600 39 0.900000 0.170000 0.160000 1000 35 0.900000 1.480000 1.435000 600 43 1.000000 0.052000 0.052000 1.200000 0.069000 0.083000
1517318194443818734	600 39 0.900000 0.170000 0.160000 1000 35 0.900000 1.482000 1.437000 600 43 1.000000 0.052000 0.052000 1.200000 0.069000 0.083000
1517318195007820276	600 39 0.900000 0.170000 0.160000 1000 35 0.900000 1.482000 1.437000 600 43 1.000000 0.052000 0.052000 1.200000 0.068000 0.082000
1517318195571818609	600 39 0.900000 0.170000 0.160000 1000 35 0.900000 1.482000 1.439000 600 43 1.000000 0.052000 0.052000 1.200000 0.068000 0.082000
1517318196139822359	600 39 0.900000 0.170000 0.160000 1000 35 0.900000 1.482000 1.437000 600 43 1.000000 0.052000 0.052000 1.200000 0.068000 0.082000
1517318196703821567	600 39 0.900000 0.170000 0.160000 1000 35 0.900000 1.483000 1.438000 600 43 1.000000 0.052000 0.052000 1.200000 0.069000 0.083000
1517318197263817234	600 39 0.900000 0.170000 0.160000 1000 35 0.900000 1.482000 1.437000 600 43 1.000000 0.052000 0.052000 1.200000 0.070000 0.084000
1517318197831785401	600 39 0.900000 0.170000 0.160000 1000 35 0.900000 1.482000 1.437000 600 43 1.000000 0.052000 0.052000 1.200000 0.069000 0.083000
1517318198387816484	600 39 0.900000 0.170000 0.160000 1000 35 0.900000 1.482000 1.439000 600 43 1.000000 0.052000 0.052000 1.200000 0.069000 0.083000
1517318198951811484	600 39 0.900000 0.170000 0.160000 1000 35 0.900000 1.482000 1.437000 600 43 1.000000 0.052000 0.052000 1.200000 0.068000 0.082000
1517318199515783276	600 39 0.900000 0.170000 0.160000 1000 35 0.900000 1.482000 1.437000 600 43 1.000000 0.052000 0.052000 1.200000 0.068000 0.082000
1517318200079870610	600 39 0.900000 0.170000 0.160000 1000 35 0.900000 1.482000 1.437000 600 43 1.000000 0.052000 0.052000 1.200000 0.068000 0.082000
1517318200639822526	600 39 0.900000 0.170000 0.160000 1000 35 0.900000 1.481000 1.436000 600 43 1.000000 0.052000 0.052000 1.200000 0.068000 0.082000
1517318201203817985	600 39 0.900000 0.170000 0.160000 1000 35 0.900000 1.481000 1.436000 600 43 1.000000 0.052000 0.052000 1.200000 0.069000 0.083000
1517318201759791610	600 39 0.900000 0.170000 0.160000 1000 35 0.900000 1.483000 1.438000 600 43 1.000000 0.052000 0.052000 1.200000 0.069000 0.083000
1517318202323834818	600 39 0.900000 0.170000 0.160000 1000 35 0.900000 1.482000 1.437000 600 43 1.000000 0.052000 0.052000 1.200000 0.069000 0.083000
1517318202883885277	600 39 0.900000 0.170000 0.160000 1000 35 0.900000 1.479000 1.434000 600 43 1.000000 0.052000 0.052000 1.200000 0.069000 0.083000
1517318203443843735	600 39 0.900000 0.170000 0.160000 1000 35 0.900000 1.482000 1.437000 600 43 1.000000 0.052000 0.052000 1.200000 0.069000 0.083000
1517318203999872235	600 39 0.900000 0.170000 0.160000 1000 35 0.900000 1.481000 1.436000 600 44 1.000000 0.052000 0.052000 1.200000 0.068000 0.082000
1517318204559838943	600 39 0.900000 0.170000 0.160000 1000 35 0.900000 1.482000 1.437000 600 44 1.000000 0.052000 0.052000 1.200000 0.068000 0.082000
1517318205131863944	600 39 0.900000 0.170000 0.160000 1000 35 0.900000 1.482000 1.437000 600 44 1.000000 0.052000 0.052000 1.200000 0.069000 0.083000
1517318205699791277	600 39 0.900000 0.169000 0.160000 1000 35 0.900000 1.480000 1.435000 600 44 1.000000 0.052000 0.052000 1.200000 0.068000 0.082000
1517318206259839777	600 39 0.900000 0.170000 0.160000 1000 35 0.900000 1.480000 1.435000 600 44 1.000000 0.052000 0.052000 1.200000 0.069000 0.083000
1517318206819856277	600 39 0.900000 0.170000 0.160000 1000 35 0.900000 1.480000 1.435000 600 44 1.000000 0.052000 0.052000 1.200000 0.069000 0.083000
1517318207383816735	600 39 0.900000 0.170000 0.160000 1000 35 0.900000 1.484000 1.439000 600 44 1.000000 0.052000 0.052000 1.200000 0.069000 0.083000
1517318207951776486	600 39 0.900000 0.170000 0.160000 1000 35 0.900000 1.482000 1.437000 600 44 1.000000 0.052000 0.052000 1.200000 0.068000 0.082000
1517318208511850861	600 40 0.900000 0.170000 0.160000 1000 35 0.900000 1.483000 1.438000 600 44 1.000000 0.052000 0.052000 1.200000 0.068000 0.082000
1517318209063859027	600 39 0.900000 0.170000 0.160000 1000 35 0.900000 1.483000 1.438000 600 44 1.000000 0.052000 0.052000 1.200000 0.069000 0.083000
1517318209627758402	600 39 0.900000 0.170000 0.160000 1000 36 0.900000 1.481000 1.436000 600 44 1.000000 0.052000 0.052000 1.200000 0.068000 0.082000
1517318210183840236	600 39 0.900000 0.170000 0.160000 1000 36 0.900000 1.480000 1.435000 600 44 1.000000 0.052000 0.052000 1.200000 0.068000 0.082000
1517318210739798903	600 40 0.900000 0.170000 0.160000 1000 35 0.900000 1.482000 1.437000 600 44 1.000000 0.052000 0.052000 1.200000 0.069000 0.083000
1517318211299808653	600 40 0.900000 0.170000 0.160000 1000 35 0.900000 1.482000 1.437000 600 44 1.000000 0.053000 0.053000 1.200000 0.068000 0.082000
1517318211863809611	600 39 0.900000 0.170000 0.160000 1000 35 0.900000 1.483000 1.438000 600 44 1.000000 0.052000 0.052000 1.200000 0.068000 0.082000
1517318212427782944	600 40 0.900000 0.170000 0.160000 1000 36 0.900000 1.485000 1.440000 600 44 1.000000 0.053000 0.053000 1.200000 0.068000 0.082000
1517318212995821778	600 40 0.900000 0.170000 0.160000 1000 35 0.900000 1.482000 1.437000 600 44 1.000000 0.053000 0.053000 1.200000 0.068000 0.082000
1517318213559809528	600 40 0.900000 0.170000 0.160000 1000 35 0.900000 1.482000 1.437000 600 44 1.000000 0.052000 0.052000 1.200000 0.069000 0.083000
1517318214119779153	600 40 0.900000 0.170000 0.160000 1000 36 0.900000 1.482000 1.437000 600 44 1.000000 0.052000 0.052000 1.200000 0.070000 0.084000
1517318214687766611	600 40 0.900000 0.170000 0.160000 1000 35 0.900000 1.482000 1.437000 600 44 1.000000 0.052000 0.052000 1.200000 0.069000 0.083000
1517318215251828778	600 40 0.900000 0.170000 0.160000 1000 36 0.900000 1.483000 1.438000 600 44 1.000000 0.052000 0.052000 1.200000 0.068000 0.082000
1517318215807762653	600 40 0.900000 0.170000 0.160000 1000 36 0.900000 1.482000 1.437000 600 44 1.000000 0.053000 0.053000 1.200000 0.069000 0.083000
1517318216371862820	600 40 0.900000 0.170000 0.160000 1000 36 0.900000 1.482000 1.437000 600 44 1.000000 0.052000 0.052000 1.200000 0.069000 0.083000
1517318216879438237	600 36 0.900000 0.025000 0.023000 1000 34 0.900000 0.497000 0.479000 600 40 1.000000 0.052000 0.052000 1.200000 0.051000 0.061000
1517318217389090070	600 35 0.900000 0.025000 0.023000 1000 34 0.900000 0.558000 0.538000 600 39 1.000000 0.052000 0.052000 1.200000 0.026000 0.031000
1517318217896433528	600 35 0.900000 0.025000 0.023000 1000 33 0.900000 0.558000 0.539000 600 38 1.000000 0.052000 0.052000 1.200000 0.027000 0.032000
1517318218403841903	600 34 0.900000 0.025000 0.023000 1000 33 0.900000 0.558000 0.538000 600 38 1.000000 0.052000 0.052000 1.200000 0.026000 0.031000
1517318218911248820	600 34 0.900000 0.025000 0.023000 1000 32 0.900000 0.568000 0.548000 600 38 1.000000 0.052000 0.052000 1.200000 0.026000 0.031000
1517318219418582279	600 34 0.900000 0.024000 0.022000 1000 32 0.900000 0.574000 0.554000 600 37 1.000000 0.052000 0.052000 1.200000 0.026000 0.031000
1517318219926013112	600 33 0.900000 0.025000 0.023000 1000 32 0.900000 0.560000 0.540000 600 37 1.000000 0.052000 0.052000 1.200000 0.025000 0.030000
1517318220433376862	600 33 0.900000 0.025000 0.023000 1000 32 0.900000 0.556000 0.537000 600 37 1.000000 0.052000 0.052000 1.200000 0.026000 0.031000
1517318220941034904	600 33 0.900000 0.024000 0.022000 1000 32 0.900000 0.559000 0.539000 600 37 1.000000 0.052000 0.052000 1.200000 0.025000 0.030000
1517318221448535445	600 33 0.900000 0.026000 0.024000 1000 32 0.900000 0.612000 0.591000 600 37 1.000000 0.052000 0.052000 1.200000 0.034000 0.041000
1517318221955988279	600 33 0.900000 0.025000 0.023000 1000 31 0.900000 0.555000 0.536000 600 36 1.000000 0.052000 0.052000 1.200000 0.029000 0.035000
1517318222463368779	600 33 0.900000 0.024000 0.022000 1000 31 0.900000 0.557000 0.538000 600 36 1.000000 0.052000 0.052000 1.200000 0.026000 0.031000
1517318222970672487	600 33 0.900000 0.024000 0.022000 1000 31 0.900000 0.556000 0.537000 600 36 1.000000 0.052000 0.052000 1.200000 0.027000 0.032000
1517318223478096404	600 33 0.900000 0.024000 0.022000 1000 31 0.900000 0.557000 0.538000 600 36 1.000000 0.052000 0.052000 1.200000 0.025000 0.030000
1517318223985247987	600 32 0.900000 0.024000 0.022000 1000 31 0.900000 0.555000 0.536000 600 36 1.000000 0.052000 0.052000 1.200000 0.027000 0.032000
1517318224492578029	600 33 0.900000 0.024000 0.022000 1000 31 0.900000 0.555000 0.536000 600 36 1.000000 0.052000 0.052000 1.200000 0.025000 0.030000
1517318225000201696	600 33 0.900000 0.025000 0.023000 1000 31 0.900000 0.605000 0.584000 600 36 1.000000 0.052000 0.052000 1.200000 0.025000 0.030000
1517318225507641446	600 32 0.900000 0.028000 0.026000 1000 31 0.900000 0.624000 0.602000 600 36 1.000000 0.051000 0.051000 1.200000 0.034000 0.041000
1517318226014983321	600 32 0.900000 0.025000 0.023000 1000 31 0.900000 0.556000 0.537000 600 36 1.000000 0.052000 0.052000 1.200000 0.026000 0.031000
1517318226522610738	600 32 0.900000 0.024000 0.022000 1000 31 0.900000 0.566000 0.546000 600 36 1.000000 0.052000 0.052000 1.200000 0.026000 0.031000
1517318227030062196	600 32 0.900000 0.025000 0.023000 1000 31 0.900000 0.589000 0.568000 600 36 1.000000 0.052000 0.052000 1.200000 0.032000 0.038000
1517318227537503405	600 32 0.900000 0.024000 0.022000 1000 31 0.900000 0.575000 0.555000 600 36 1.000000 0.051000 0.051000 1.200000 0.026000 0.031000
1517318228044814780	600 32 0.900000 0.024000 0.022000 1000 31 0.900000 0.560000 0.540000 600 36 1.000000 0.052000 0.052000 1.200000 0.026000 0.031000
1517318228552264238	600 32 0.900000 0.024000 0.022000 1000 31 0.900000 0.578000 0.558000 600 36 1.000000 0.052000 0.052000 1.200000 0.026000 0.031000
1517318229059598488	600 32 0.900000 0.024000 0.022000 1000 31 0.900000 0.559000 0.539000 600 36 1.000000 0.052000 0.052000 1.200000 0.026000 0.031000
1517318229567027530	600 32 0.900000 0.024000 0.022000 1000 31 0.900000 0.568000 0.548000 600 36 1.000000 0.052000 0.052000 1.200000 0.025000 0.030000
1517318230074299905	600 32 0.900000 0.024000 0.022000 1000 31 0.900000 0.563000 0.543000 600 36 1.000000 0.052000 0.052000 1.200000 0.025000 0.030000
1517318230581719738	600 32 0.900000 0.024000 0.022000 1000 30 0.900000 0.565000 0.545000 600 36 1.000000 0.051000 0.051000 1.200000 0.025000 0.030000
1517318231089017238	600 32 0.900000 0.024000 0.022000 1000 30 0.900000 0.595000 0.574000 600 35 1.000000 0.052000 0.052000 1.200000 0.028000 0.033000
1517318231596289988	600 32 0.900000 0.024000 0.022000 1000 31 0.900000 0.554000 0.535000 600 35 1.000000 0.052000 0.052000 1.200000 0.026000 0.031000
1517318232104053822	600 32 0.900000 0.025000 0.023000 1000 30 0.900000 0.570000 0.550000 600 36 1.000000 0.052000 0.052000 1.200000 0.026000 0.031000
1517318232611381572	600 32 0.900000 0.025000 0.023000 1000 30 0.900000 0.583000 0.563000 600 36 1.000000 0.052000 0.052000 1.200000 0.034000 0.041000
1517318233118709905	600 32 0.900000 0.025000 0.023000 1000 30 0.900000 0.577000 0.557000 600 35 1.000000 0.051000 0.051000 1.200000 0.026000 0.031000
1517318233626192905	600 32 0.900000 0.024000 0.022000 1000 30 0.900000 0.564000 0.544000 600 35 1.000000 0.051000 0.051000 1.200000 0.027000 0.032000
1517318234132889822	600 32 0.900000 0.025000 0.023000 1000 30 0.900000 0.565000 0.545000 600 35 1.000000 0.052000 0.052000 1.200000 0.026000 0.031000
1517318234639602364	600 32 0.900000 0.024000 0.022000 1000 30 0.900000 0.563000 0.543000 600 35 1.000000 0.052000 0.052000 1.200000 0.027000 0.032000
1517318235146247405	600 32 0.900000 0.025000 0.023000 1000 30 0.900000 0.565000 0.545000 600 35 1.000000 0.051000 0.051000 1.200000 0.025000 0.030000
1517318235652867530	600 32 0.900000 0.024000 0.022000 1000 30 0.900000 0.569000 0.549000 600 35 1.000000 0.051000 0.051000 1.200000 0.026000 0.031000
1517318236161865322	600 32 0.900000 0.024000 0.022000 1000 30 0.900000 0.563000 0.543000 600 35 1.000000 0.052000 0.052000 1.200000 0.025000 0.030000
1517318236669155864	600 32 0.900000 0.024000 0.022000 1000 30 0.900000 0.598000 0.577000 600 35 1.000000 0.051000 0.051000 1.200000 0.028000 0.033000
1517318237175826489	600 32 0.900000 0.024000 0.022000 1000 30 0.900000 0.556000 0.537000 600 35 1.000000 0.051000 0.051000 1.200000 0.025000 0.030000
1517318237683027572	600 32 0.900000 0.024000 0.022000 1000 30 0.900000 0.576000 0.556000 600 35 1.000000 0.051000 0.051000 1.200000 0.029000 0.035000
1517318238189825572	600 32 0.900000 0.025000 0.023000 1000 30 0.900000 0.583000 0.563000 600 35 1.000000 0.051000 0.051000 1.200000 0.033000 0.039000
1517318238696434948	600 32 0.900000 0.025000 0.023000 1000 30 0.900000 0.576000 0.556000 600 35 1.000000 0.051000 0.051000 1.200000 0.027000 0.032000
1517318239203176739	600 32 0.900000 0.024000 0.022000 1000 30 0.900000 0.561000 0.541000 600 35 1.000000 0.051000 0.051000 1.200000 0.026000 0.031000
1517318239709857823	600 32 0.900000 0.025000 0.023000 1000 30 0.900000 0.564000 0.544000 600 35 1.000000 0.051000 0.051000 1.200000 0.026000 0.031000
1517318240216482031	600 32 0.900000 0.024000 0.022000 1000 30 0.900000 0.563000 0.543000 600 35 1.000000 0.052000 0.052000 1.200000 0.026000 0.031000
1517318240723179989	600 31 0.900000 0.024000 0.022000 1000 30 0.900000 0.567000 0.547000 600 35 1.000000 0.051000 0.051000 1.200000 0.026000 0.031000
1517318241229842739	600 32 0.900000 0.024000 0.022000 1000 30 0.900000 0.566000 0.546000 600 35 1.000000 0.051000 0.051000 1.200000 0.025000 0.030000
1517318241736404573	600 31 0.900000 0.024000 0.022000 1000 30 0.900000 0.564000 0.544000 600 35 1.000000 0.051000 0.051000 1.200000 0.025000 0.030000
1517318242243113698	600 32 0.900000 0.024000 0.022000 1000 30 0.900000 0.603000 0.582000 600 35 1.000000 0.052000 0.052000 1.200000 0.030000 0.036000
1517318242749803115	600 31 0.900000 0.024000 0.022000 1000 30 0.900000 0.560000 0.540000 600 35 1.000000 0.051000 0.051000 1.200000 0.025000 0.030000
1517318243256574990	600 32 0.900000 0.024000 0.022000 1000 30 0.900000 0.552000 0.533000 600 35 1.000000 0.051000 0.051000 1.200000 0.026000 0.031000
1517318243763246073	600 32 0.900000 0.028000 0.026000 1000 30 0.900000 0.582000 0.562000 600 35 1.000000 0.051000 0.051000 1.200000 0.033000 0.039000
1517318244269917198	600 31 0.900000 0.027000 0.025000 1000 30 0.900000 0.574000 0.554000 600 35 1.000000 0.051000 0.051000 1.200000 0.026000 0.031000
1517318244776518282	600 31 0.900000 0.024000 0.022000 1000 30 0.900000 0.558000 0.538000 600 35 1.000000 0.051000 0.051000 1.200000 0.026000 0.031000
1517318245283160865	600 31 0.900000 0.025000 0.023000 1000 30 0.900000 0.574000 0.553000 600 35 1.000000 0.051000 0.051000 1.200000 0.026000 0.031000
1517318245789618032	600 31 0.900000 0.024000 0.022000 1000 30 0.900000 0.560000 0.540000 600 35 1.000000 0.052000 0.052000 1.200000 0.027000 0.032000
1517318246296267115	600 31 0.900000 0.024000 0.022000 1000 30 0.900000 0.570000 0.550000 600 35 1.000000 0.051000 0.051000 1.200000 0.024000 0.028000
1517318246802791573	600 31 0.900000 0.024000 0.022000 1000 30 0.900000 0.557000 0.538000 600 35 1.000000 0.052000 0.052000 1.200000 0.026000 0.031000
1517318247309281240	600 31 0.900000 0.024000 0.022000 1000 30 0.900000 0.569000 0.549000 600 35 1.000000 0.052000 0.052000 1.200000 0.025000 0.030000
1517318247815867740	600 31 0.900000 0.025000 0.023000 1000 30 0.900000 0.587000 0.567000 600 35 1.000000 0.051000 0.051000 1.200000 0.032000 0.038000
1517318248322867574	600 31 0.900000 0.024000 0.022000 1000 30 0.900000 0.557000 0.538000 600 35 1.000000 0.052000 0.052000 1.200000 0.026000 0.031000
1517318248829503407	600 32 0.900000 0.024000 0.022000 1000 30 0.900000 0.555000 0.536000 600 35 1.000000 0.051000 0.051000 1.200000 0.026000 0.031000
1517318249337543157	600 32 0.900000 0.029000 0.027000 1000 30 0.900000 0.603000 0.582000 600 35 1.000000 0.051000 0.051000 1.200000 0.034000 0.041000
1517318249844985407	600 31 0.900000 0.035000 0.033000 1000 30 0.900000 0.167000 0.162000 600 34 1.000000 0.051000 0.051000 1.200000 0.036000 0.043000
1517318250352032991	600 30 0.900000 0.024000 0.022000 1000 30 0.900000 0.104000 0.101000 600 34 1.000000 0.051000 0.051000 1.200000 0.023000 0.027000
