#Timestamp	CPU(0) Frequency(MHz)	CPU(0) Temperature(C)	A7 Voltage(V)	A7 Current(A)	A7 Power(W)	CPU(4) Frequency(MHz)	CPU(4) Temperature(C)	A15 Voltage(V)	A15 Current(A)	A15 Power(W)	GPU Frequency(MHz)	GPU Temperature(C)	GPU Voltage(V)	GPU Current(A)	GPU Power(W)	RAM Voltage(V)	RAM Current(A)	RAM Power(W)
1517182797537060385	800 40 1.000000 0.039000 0.040000 900 38 0.900000 0.360000 0.339000 600 42 1.000000 0.051000 0.051000 1.200000 0.033000 0.039000
1517182798047558802	800 39 1.000000 0.042000 0.043000 900 38 0.900000 0.480000 0.451000 600 42 1.000000 0.051000 0.051000 1.200000 0.034000 0.041000
1517182798555772302	800 39 1.000000 0.041000 0.042000 900 38 0.900000 0.484000 0.455000 600 43 1.000000 0.051000 0.051000 1.200000 0.037000 0.044000
1517182799064152385	800 39 1.000000 0.041000 0.042000 900 38 0.900000 0.484000 0.455000 600 42 1.000000 0.051000 0.051000 1.200000 0.037000 0.044000
1517182799575711385	800 41 1.000000 0.041000 0.042000 900 39 0.900000 0.490000 0.461000 600 45 1.000000 0.051000 0.051000 1.200000 0.038000 0.045000
1517182800129329677	800 42 1.000000 0.176000 0.180000 900 39 0.900000 1.106000 1.045000 600 46 1.000000 0.051000 0.051000 1.200000 0.044000 0.053000
1517182800667656677	800 43 1.000000 0.215000 0.220000 900 39 0.900000 1.399000 1.319000 600 46 1.000000 0.051000 0.051000 1.200000 0.039000 0.047000
1517182801176416719	800 42 1.000000 0.226000 0.231000 900 40 0.900000 1.426000 1.344000 600 47 1.000000 0.051000 0.051000 1.200000 0.039000 0.047000
1517182801685684344	800 43 1.000000 0.145000 0.148000 900 40 0.900000 1.069000 1.005000 600 47 1.000000 0.051000 0.051000 1.200000 0.047000 0.056000
1517182802214554094	800 43 1.000000 0.192000 0.196000 900 40 0.900000 1.388000 1.307000 600 47 1.000000 0.051000 0.051000 1.200000 0.038000 0.045000
1517182802723311011	800 43 1.000000 0.214000 0.218000 900 40 0.900000 1.386000 1.306000 600 47 1.000000 0.052000 0.052000 1.200000 0.038000 0.045000
1517182803233405761	800 44 1.000000 0.223000 0.228000 900 41 0.900000 1.094000 1.030000 600 48 1.000000 0.052000 0.052000 1.200000 0.049000 0.059000
1517182803787224719	800 44 1.000000 0.144000 0.147000 900 40 0.900000 1.338000 1.260000 600 48 1.000000 0.052000 0.052000 1.200000 0.039000 0.047000
1517182804295918469	800 44 1.000000 0.221000 0.226000 900 41 0.900000 1.431000 1.349000 600 47 1.000000 0.052000 0.052000 1.200000 0.039000 0.047000
1517182804844983219	800 44 1.000000 0.146000 0.149000 900 40 0.900000 1.171000 1.104000 600 47 1.000000 0.052000 0.052000 1.200000 0.049000 0.059000
1517182805411414886	800 44 1.000000 0.204000 0.209000 900 41 0.900000 1.432000 1.350000 600 47 1.000000 0.051000 0.051000 1.200000 0.038000 0.045000
1517182805920384719	800 43 1.000000 0.221000 0.226000 900 41 0.900000 1.364000 1.286000 600 47 1.000000 0.052000 0.052000 1.200000 0.040000 0.048000
1517182806428775511	800 44 1.000000 0.149000 0.152000 900 41 0.900000 1.132000 1.066000 600 48 1.000000 0.052000 0.052000 1.200000 0.049000 0.059000
1517182806944816094	800 44 1.000000 0.223000 0.228000 900 41 0.900000 1.212000 1.141000 600 48 1.000000 0.051000 0.051000 1.200000 0.041000 0.049000
1517182807453596261	800 43 1.000000 0.218000 0.223000 900 41 0.900000 1.464000 1.380000 600 47 1.000000 0.052000 0.052000 1.200000 0.037000 0.044000
1517182807961967636	800 44 1.000000 0.192000 0.196000 900 41 0.900000 1.416000 1.335000 600 47 1.000000 0.051000 0.051000 1.200000 0.048000 0.057000
1517182808512980178	800 44 1.000000 0.128000 0.131000 900 41 0.900000 1.059000 0.998000 600 48 1.000000 0.052000 0.052000 1.200000 0.037000 0.044000
1517182809021696511	800 44 1.000000 0.228000 0.233000 900 41 0.900000 1.451000 1.368000 600 48 1.000000 0.052000 0.052000 1.200000 0.038000 0.045000
1517182809531703428	800 44 1.000000 0.231000 0.236000 900 41 0.900000 1.388000 1.308000 600 48 1.000000 0.052000 0.052000 1.200000 0.045000 0.054000
1517182810065356803	800 44 1.000000 0.155000 0.158000 900 41 0.900000 1.002000 0.942000 600 48 1.000000 0.051000 0.051000 1.200000 0.041000 0.049000
1517182810574413678	800 44 1.000000 0.230000 0.235000 900 41 0.900000 1.374000 1.295000 600 48 1.000000 0.052000 0.052000 1.200000 0.038000 0.045000
1517182811082783803	800 45 1.000000 0.154000 0.158000 900 41 0.900000 1.397000 1.317000 600 48 1.000000 0.052000 0.052000 1.200000 0.043000 0.051000
1517182811596360220	800 44 1.000000 0.204000 0.209000 900 41 0.900000 1.059000 0.996000 600 48 1.000000 0.052000 0.052000 1.200000 0.041000 0.049000
1517182812105254012	800 43 1.000000 0.214000 0.218000 900 41 0.900000 1.424000 1.342000 600 48 1.000000 0.051000 0.051000 1.200000 0.039000 0.047000
1517182812613811428	800 45 1.000000 0.214000 0.219000 900 41 0.900000 1.441000 1.358000 600 48 1.000000 0.052000 0.052000 1.200000 0.040000 0.048000
1517182813134816804	800 44 1.000000 0.223000 0.228000 900 41 0.900000 1.397000 1.317000 600 48 1.000000 0.052000 0.052000 1.200000 0.040000 0.048000
1517182813643672595	800 43 1.000000 0.218000 0.223000 900 41 0.900000 1.421000 1.340000 600 47 1.000000 0.052000 0.052000 1.200000 0.037000 0.044000
1517182814196969220	800 44 1.000000 0.160000 0.164000 900 41 0.900000 1.166000 1.098000 600 48 1.000000 0.052000 0.052000 1.200000 0.046000 0.055000
1517182814735935012	800 44 1.000000 0.216000 0.221000 900 41 0.900000 1.138000 1.071000 600 48 1.000000 0.052000 0.052000 1.200000 0.039000 0.047000
1517182815281083179	800 44 1.000000 0.160000 0.164000 900 41 0.900000 1.086000 1.021000 600 48 1.000000 0.052000 0.052000 1.200000 0.043000 0.051000
1517182815789400304	800 45 1.000000 0.216000 0.220000 900 41 0.900000 1.462000 1.378000 600 49 1.000000 0.052000 0.052000 1.200000 0.040000 0.048000
1517182816297778012	800 44 1.000000 0.162000 0.166000 900 41 0.900000 1.053000 0.990000 600 49 1.000000 0.052000 0.052000 1.200000 0.038000 0.045000
1517182816806417887	800 45 1.000000 0.224000 0.229000 900 41 0.900000 1.421000 1.340000 600 48 1.000000 0.051000 0.051000 1.200000 0.039000 0.047000
1517182817315537221	800 44 1.000000 0.180000 0.184000 900 41 0.900000 1.110000 1.045000 600 47 1.000000 0.051000 0.051000 1.200000 0.037000 0.044000
1517182817876950887	800 45 1.000000 0.157000 0.161000 900 41 0.900000 1.094000 1.029000 600 49 1.000000 0.052000 0.052000 1.200000 0.047000 0.056000
1517182818388590971	800 45 1.000000 0.223000 0.228000 900 41 0.900000 1.428000 1.346000 600 49 1.000000 0.052000 0.052000 1.200000 0.043000 0.051000
1517182818897795929	800 44 1.000000 0.222000 0.227000 900 41 0.900000 1.378000 1.299000 600 48 1.000000 0.052000 0.052000 1.200000 0.039000 0.047000
1517182819456960971	800 44 1.000000 0.177000 0.181000 900 41 0.900000 1.029000 0.969000 600 48 1.000000 0.052000 0.052000 1.200000 0.040000 0.048000
1517182819997715263	800 45 1.000000 0.160000 0.164000 900 41 0.900000 1.411000 1.330000 600 48 1.000000 0.052000 0.052000 1.200000 0.049000 0.059000
1517182820519318263	800 45 1.000000 0.213000 0.218000 900 41 0.900000 1.360000 1.282000 600 48 1.000000 0.052000 0.052000 1.200000 0.040000 0.048000
1517182821027975179	800 44 1.000000 0.224000 0.229000 900 41 0.900000 1.153000 1.086000 600 47 1.000000 0.052000 0.052000 1.200000 0.040000 0.048000
1517182821601008721	800 45 1.000000 0.151000 0.154000 900 41 0.900000 1.128000 1.062000 600 48 1.000000 0.052000 0.052000 1.200000 0.048000 0.057000
1517182822117881721	800 45 1.000000 0.199000 0.203000 900 41 0.900000 1.016000 0.957000 600 48 1.000000 0.051000 0.051000 1.200000 0.044000 0.053000
1517182822634501513	800 44 1.000000 0.223000 0.228000 900 41 0.900000 1.373000 1.294000 600 47 1.000000 0.052000 0.052000 1.200000 0.038000 0.045000
1517182823192940096	800 45 1.000000 0.145000 0.148000 900 41 0.900000 1.007000 0.947000 600 48 1.000000 0.052000 0.052000 1.200000 0.042000 0.050000
1517182823728689763	800 45 1.000000 0.157000 0.161000 900 41 0.900000 1.048000 0.986000 600 49 1.000000 0.052000 0.052000 1.200000 0.046000 0.055000
1517182824239292680	800 45 1.000000 0.190000 0.194000 900 41 0.900000 1.282000 1.207000 600 48 1.000000 0.051000 0.051000 1.200000 0.038000 0.045000
1517182824748066430	800 44 1.000000 0.230000 0.235000 900 41 0.900000 1.421000 1.340000 600 47 1.000000 0.052000 0.052000 1.200000 0.040000 0.048000
1517182825259584930	800 44 1.000000 0.155000 0.159000 900 41 0.900000 1.145000 1.077000 600 48 1.000000 0.052000 0.052000 1.200000 0.039000 0.047000
1517182825809386763	800 44 1.000000 0.150000 0.153000 900 41 0.900000 1.300000 1.225000 600 48 1.000000 0.052000 0.052000 1.200000 0.037000 0.044000
1517182826318302180	800 44 1.000000 0.213000 0.217000 900 41 0.900000 1.189000 1.120000 600 47 1.000000 0.051000 0.051000 1.200000 0.045000 0.054000
1517182826884945305	800 45 1.000000 0.152000 0.155000 900 41 0.900000 1.061000 0.998000 600 48 1.000000 0.052000 0.052000 1.200000 0.039000 0.047000
1517182827413872680	800 45 1.000000 0.167000 0.171000 900 41 0.900000 1.060000 0.998000 600 48 1.000000 0.052000 0.052000 1.200000 0.042000 0.050000
1517182827924843055	800 44 1.000000 0.156000 0.160000 900 41 0.900000 1.429000 1.347000 600 48 1.000000 0.052000 0.052000 1.200000 0.037000 0.044000
1517182828434224097	800 44 1.000000 0.154000 0.158000 900 41 0.900000 1.039000 0.978000 600 48 1.000000 0.052000 0.052000 1.200000 0.048000 0.057000
1517182828943174597	800 44 1.000000 0.140000 0.143000 900 41 0.900000 1.403000 1.323000 600 48 1.000000 0.052000 0.052000 1.200000 0.041000 0.049000
1517182829451210597	800 42 1.000000 0.224000 0.229000 900 41 0.900000 1.395000 1.315000 600 46 1.000000 0.051000 0.051000 1.200000 0.041000 0.049000
1517182829981693597	800 44 1.000000 0.117000 0.120000 900 41 0.900000 0.318000 0.301000 600 48 1.000000 0.051000 0.051000 1.200000 0.046000 0.055000
1517182830501631722	800 44 1.000000 0.221000 0.226000 900 41 0.900000 1.331000 1.257000 600 48 1.000000 0.051000 0.051000 1.200000 0.039000 0.047000
1517182831010352139	800 44 1.000000 0.229000 0.234000 900 41 0.900000 1.432000 1.350000 600 47 1.000000 0.051000 0.051000 1.200000 0.044000 0.053000
1517182831521479931	800 44 1.000000 0.164000 0.168000 900 41 0.900000 1.057000 0.995000 600 48 1.000000 0.052000 0.052000 1.200000 0.042000 0.050000
1517182832030124556	800 44 1.000000 0.175000 0.179000 900 41 0.900000 1.462000 1.378000 600 48 1.000000 0.051000 0.051000 1.200000 0.038000 0.045000
1517182832538940181	800 44 1.000000 0.215000 0.220000 900 41 0.900000 1.442000 1.359000 600 47 1.000000 0.051000 0.051000 1.200000 0.040000 0.048000
1517182833088962264	800 45 1.000000 0.176000 0.180000 900 41 0.900000 1.138000 1.071000 600 48 1.000000 0.051000 0.051000 1.200000 0.048000 0.057000
1517182833629511514	800 44 1.000000 0.150000 0.153000 900 41 0.900000 1.225000 1.153000 600 48 1.000000 0.052000 0.052000 1.200000 0.038000 0.045000
1517182834145719473	800 42 1.000000 0.149000 0.152000 900 41 0.900000 1.291000 1.219000 600 47 1.000000 0.052000 0.052000 1.200000 0.039000 0.047000
1517182834670450014	800 45 1.000000 0.211000 0.215000 900 41 0.900000 1.252000 1.180000 600 49 1.000000 0.052000 0.052000 1.200000 0.047000 0.056000
1517182835186174264	800 45 1.000000 0.167000 0.171000 900 41 0.900000 1.060000 0.998000 600 48 1.000000 0.052000 0.052000 1.200000 0.038000 0.045000
1517182835701445931	800 43 1.000000 0.231000 0.236000 900 41 0.900000 1.458000 1.374000 600 48 1.000000 0.052000 0.052000 1.200000 0.037000 0.044000
1517182836268950973	800 45 1.000000 0.154000 0.157000 900 41 0.900000 1.431000 1.349000 600 48 1.000000 0.051000 0.051000 1.200000 0.044000 0.053000
1517182836811457931	800 44 1.000000 0.165000 0.169000 900 41 0.900000 1.061000 0.998000 600 49 1.000000 0.052000 0.052000 1.200000 0.042000 0.050000
1517182837324175306	800 42 1.000000 0.215000 0.220000 900 41 0.900000 1.401000 1.321000 600 46 1.000000 0.052000 0.052000 1.200000 0.040000 0.048000
1517182837870985473	800 44 1.000000 0.177000 0.181000 900 41 0.900000 1.123000 1.061000 600 48 1.000000 0.051000 0.051000 1.200000 0.049000 0.059000
1517182838387056515	800 44 1.000000 0.190000 0.194000 900 41 0.900000 1.129000 1.062000 600 48 1.000000 0.052000 0.052000 1.200000 0.037000 0.044000
1517182838895886307	800 44 1.000000 0.222000 0.227000 900 41 0.900000 1.418000 1.337000 600 47 1.000000 0.052000 0.052000 1.200000 0.037000 0.044000
1517182839404726140	800 45 1.000000 0.226000 0.231000 900 41 0.900000 1.397000 1.317000 600 48 1.000000 0.051000 0.051000 1.200000 0.045000 0.054000
1517182839947428307	800 44 1.000000 0.144000 0.147000 900 41 0.900000 1.015000 0.956000 600 48 1.000000 0.052000 0.052000 1.200000 0.041000 0.049000
1517182840464510432	800 44 1.000000 0.224000 0.229000 900 41 0.900000 1.372000 1.293000 600 47 1.000000 0.052000 0.052000 1.200000 0.039000 0.047000
1517182841028964765	800 45 1.000000 0.226000 0.231000 900 41 0.900000 1.488000 1.403000 600 49 1.000000 0.052000 0.052000 1.200000 0.043000 0.051000
1517182841545508224	800 45 1.000000 0.184000 0.188000 900 41 0.900000 1.056000 0.993000 600 49 1.000000 0.052000 0.052000 1.200000 0.047000 0.056000
1517182842053906349	800 45 1.000000 0.218000 0.223000 900 41 0.900000 1.320000 1.243000 600 48 1.000000 0.052000 0.052000 1.200000 0.040000 0.048000
1517182842562547474	800 44 1.000000 0.229000 0.234000 900 41 0.900000 1.374000 1.295000 600 47 1.000000 0.052000 0.052000 1.200000 0.038000 0.045000
1517182843116878182	800 44 1.000000 0.155000 0.159000 900 41 0.900000 1.282000 1.208000 600 48 1.000000 0.052000 0.052000 1.200000 0.048000 0.057000
1517182843642511765	800 45 1.000000 0.195000 0.199000 900 41 0.900000 1.008000 0.948000 600 48 1.000000 0.052000 0.052000 1.200000 0.039000 0.047000
1517182844151477224	800 44 1.000000 0.216000 0.220000 900 41 0.900000 1.400000 1.320000 600 48 1.000000 0.052000 0.052000 1.200000 0.039000 0.047000
1517182844696884557	800 44 1.000000 0.219000 0.224000 900 41 0.900000 1.443000 1.360000 600 48 1.000000 0.051000 0.051000 1.200000 0.041000 0.049000
1517182845236840516	800 45 1.000000 0.155000 0.159000 900 41 0.900000 1.037000 0.975000 600 49 1.000000 0.051000 0.051000 1.200000 0.045000 0.054000
1517182845745177432	800 45 1.000000 0.214000 0.219000 900 41 0.900000 1.248000 1.175000 600 48 1.000000 0.052000 0.052000 1.200000 0.038000 0.045000
1517182846253900641	800 43 1.000000 0.225000 0.230000 900 41 0.900000 1.379000 1.300000 600 47 1.000000 0.051000 0.051000 1.200000 0.038000 0.045000
1517182846808232724	800 45 1.000000 0.241000 0.247000 900 41 0.900000 1.400000 1.320000 600 49 1.000000 0.052000 0.052000 1.200000 0.045000 0.054000
1517182847328895599	800 45 1.000000 0.156000 0.160000 900 41 0.900000 1.060000 0.998000 600 48 1.000000 0.052000 0.052000 1.200000 0.047000 0.056000
1517182847837428516	800 42 1.000000 0.190000 0.194000 900 41 0.900000 1.368000 1.290000 600 46 1.000000 0.052000 0.052000 1.200000 0.037000 0.044000
1517182848392944599	800 44 1.000000 0.114000 0.116000 900 41 0.900000 1.338000 1.261000 600 48 1.000000 0.052000 0.052000 1.200000 0.045000 0.054000
1517182848904725183	800 45 1.000000 0.224000 0.229000 900 41 0.900000 1.116000 1.051000 600 48 1.000000 0.052000 0.052000 1.200000 0.045000 0.054000
1517182849460990350	800 44 1.000000 0.207000 0.211000 900 41 0.900000 1.379000 1.299000 600 48 1.000000 0.052000 0.052000 1.200000 0.040000 0.048000
1517182849969646141	800 44 1.000000 0.231000 0.236000 900 41 0.900000 1.400000 1.320000 600 49 1.000000 0.052000 0.052000 1.200000 0.039000 0.047000
1517182850477890891	800 44 1.000000 0.152000 0.155000 900 41 0.900000 1.341000 1.264000 600 48 1.000000 0.051000 0.051000 1.200000 0.046000 0.055000
1517182850986247975	800 43 1.000000 0.215000 0.220000 900 41 0.900000 0.760000 0.718000 600 46 1.000000 0.052000 0.052000 1.200000 0.037000 0.044000
1517182851552959475	800 44 1.000000 0.121000 0.124000 900 41 0.900000 1.286000 1.212000 600 48 1.000000 0.051000 0.051000 1.200000 0.036000 0.043000
1517182852075287183	800 44 1.000000 0.160000 0.164000 900 41 0.900000 1.039000 0.978000 600 48 1.000000 0.052000 0.052000 1.200000 0.043000 0.051000
1517182852594584642	800 43 1.000000 0.224000 0.229000 900 41 0.900000 1.407000 1.326000 600 47 1.000000 0.052000 0.052000 1.200000 0.039000 0.047000
1517182853103650600	800 45 1.000000 0.204000 0.209000 900 41 0.900000 1.374000 1.295000 600 49 1.000000 0.051000 0.051000 1.200000 0.037000 0.044000
1517182853627750100	800 45 1.000000 0.158000 0.162000 900 41 0.900000 1.448000 1.365000 600 48 1.000000 0.052000 0.052000 1.200000 0.044000 0.053000
1517182854139550350	800 44 1.000000 0.226000 0.231000 900 41 0.900000 1.376000 1.297000 600 47 1.000000 0.052000 0.052000 1.200000 0.038000 0.045000
1517182854647745225	800 45 1.000000 0.179000 0.183000 900 41 0.900000 1.145000 1.078000 600 48 1.000000 0.051000 0.051000 1.200000 0.037000 0.044000
1517182855204996809	800 44 1.000000 0.165000 0.169000 900 41 0.900000 1.261000 1.187000 600 48 1.000000 0.052000 0.052000 1.200000 0.048000 0.057000
1517182855714535059	800 44 1.000000 0.174000 0.178000 900 41 0.900000 1.271000 1.201000 600 47 1.000000 0.052000 0.052000 1.200000 0.036000 0.043000
1517182856267077975	800 44 1.000000 0.192000 0.196000 900 41 0.900000 1.042000 0.980000 600 49 1.000000 0.052000 0.052000 1.200000 0.039000 0.047000
1517182856827318350	800 44 1.000000 0.155000 0.159000 900 41 0.900000 1.322000 1.245000 600 48 1.000000 0.052000 0.052000 1.200000 0.048000 0.057000
1517182857336130684	800 43 1.000000 0.186000 0.190000 900 41 0.900000 1.188000 1.120000 600 48 1.000000 0.052000 0.052000 1.200000 0.034000 0.041000
1517182857847542684	800 44 1.000000 0.165000 0.169000 900 41 0.900000 1.070000 1.007000 600 49 1.000000 0.052000 0.052000 1.200000 0.044000 0.053000
1517182858357365392	800 42 1.000000 0.197000 0.201000 900 41 0.900000 1.439000 1.356000 600 46 1.000000 0.051000 0.051000 1.200000 0.041000 0.049000
1517182858912973476	800 44 1.000000 0.130000 0.133000 900 41 0.900000 1.065000 1.006000 600 48 1.000000 0.052000 0.052000 1.200000 0.036000 0.043000
1517182859464911059	800 44 1.000000 0.150000 0.153000 900 41 0.900000 1.424000 1.342000 600 48 1.000000 0.051000 0.051000 1.200000 0.046000 0.055000
1517182859973013226	800 42 1.000000 0.216000 0.220000 900 41 0.900000 1.410000 1.329000 600 46 1.000000 0.052000 0.052000 1.200000 0.038000 0.045000
1517182860484797642	800 44 1.000000 0.116000 0.119000 900 41 0.900000 0.297000 0.281000 600 47 1.000000 0.051000 0.051000 1.200000 0.043000 0.051000
1517182860993668143	800 43 1.000000 0.188000 0.192000 900 41 0.900000 1.144000 1.078000 600 46 1.000000 0.052000 0.052000 1.200000 0.036000 0.043000
1517182861540972643	800 44 1.000000 0.151000 0.154000 900 41 0.900000 1.145000 1.078000 600 48 1.000000 0.052000 0.052000 1.200000 0.037000 0.044000
1517182862080073351	800 44 1.000000 0.195000 0.199000 900 41 0.900000 1.305000 1.229000 600 48 1.000000 0.052000 0.052000 1.200000 0.045000 0.054000
1517182862590079268	800 43 1.000000 0.196000 0.200000 900 41 0.900000 1.448000 1.365000 600 47 1.000000 0.052000 0.052000 1.200000 0.036000 0.043000
1517182863121259018	800 45 1.000000 0.210000 0.214000 900 41 0.900000 1.204000 1.134000 600 48 1.000000 0.052000 0.052000 1.200000 0.040000 0.048000
1517182863646047560	800 45 1.000000 0.152000 0.155000 900 41 0.900000 1.148000 1.080000 600 48 1.000000 0.052000 0.052000 1.200000 0.039000 0.047000
1517182864157203393	800 44 1.000000 0.216000 0.220000 900 41 0.900000 1.431000 1.349000 600 48 1.000000 0.052000 0.052000 1.200000 0.041000 0.049000
1517182864665425101	800 43 1.000000 0.217000 0.221000 900 41 0.900000 1.426000 1.344000 600 48 1.000000 0.051000 0.051000 1.200000 0.045000 0.054000
1517182865176451018	800 43 1.000000 0.110000 0.112000 900 41 0.900000 0.668000 0.632000 600 47 1.000000 0.052000 0.052000 1.200000 0.039000 0.047000
1517182865704367851	800 44 1.000000 0.217000 0.221000 900 41 0.900000 1.419000 1.338000 600 48 1.000000 0.052000 0.052000 1.200000 0.038000 0.045000
1517182866230860185	800 44 1.000000 0.218000 0.223000 900 41 0.900000 1.069000 1.006000 600 48 1.000000 0.051000 0.051000 1.200000 0.049000 0.059000
1517182866756280852	800 44 1.000000 0.221000 0.226000 900 41 0.900000 1.290000 1.215000 600 48 1.000000 0.052000 0.052000 1.200000 0.041000 0.049000
1517182867265147143	800 44 1.000000 0.219000 0.224000 900 41 0.900000 1.286000 1.212000 600 48 1.000000 0.052000 0.052000 1.200000 0.037000 0.044000
1517182867773823060	800 45 1.000000 0.153000 0.156000 900 41 0.900000 1.178000 1.109000 600 49 1.000000 0.052000 0.052000 1.200000 0.046000 0.055000
1517182868289182560	800 44 1.000000 0.188000 0.192000 900 41 0.900000 1.081000 1.017000 600 48 1.000000 0.052000 0.052000 1.200000 0.039000 0.047000
1517182868798074310	800 45 1.000000 0.188000 0.192000 900 41 0.900000 1.431000 1.349000 600 48 1.000000 0.051000 0.051000 1.200000 0.046000 0.055000
1517182869356983894	800 45 1.000000 0.157000 0.161000 900 41 0.900000 1.034000 0.972000 600 48 1.000000 0.051000 0.051000 1.200000 0.037000 0.044000
1517182869909870977	800 44 1.000000 0.156000 0.160000 900 41 0.900000 1.102000 1.036000 600 48 1.000000 0.052000 0.052000 1.200000 0.040000 0.048000
1517182870418896685	800 44 1.000000 0.211000 0.216000 900 41 0.900000 1.405000 1.324000 600 48 1.000000 0.052000 0.052000 1.200000 0.037000 0.044000
1517182870934421227	800 44 1.000000 0.167000 0.171000 900 41 0.900000 1.268000 1.198000 600 48 1.000000 0.052000 0.052000 1.200000 0.040000 0.048000
1517182871478175769	800 44 1.000000 0.118000 0.121000 900 41 0.900000 0.356000 0.337000 600 47 1.000000 0.052000 0.052000 1.200000 0.043000 0.051000
1517182871986747727	800 43 1.000000 0.218000 0.223000 900 41 0.900000 1.426000 1.344000 600 47 1.000000 0.052000 0.052000 1.200000 0.039000 0.047000
1517182872552935811	800 44 1.000000 0.162000 0.166000 900 41 0.900000 1.382000 1.303000 600 48 1.000000 0.051000 0.051000 1.200000 0.044000 0.053000
1517182873104956852	800 44 1.000000 0.165000 0.169000 900 41 0.900000 1.043000 0.982000 600 48 1.000000 0.052000 0.052000 1.200000 0.046000 0.055000
1517182873624819811	800 44 1.000000 0.209000 0.213000 900 41 0.900000 1.184000 1.115000 600 48 1.000000 0.052000 0.052000 1.200000 0.038000 0.045000
1517182874133390477	800 43 1.000000 0.212000 0.216000 900 41 0.900000 1.477000 1.392000 600 47 1.000000 0.052000 0.052000 1.200000 0.040000 0.048000
1517182874657212019	800 45 1.000000 0.215000 0.220000 900 41 0.900000 1.453000 1.370000 600 49 1.000000 0.052000 0.052000 1.200000 0.045000 0.054000
1517182875216997394	800 44 1.000000 0.167000 0.171000 900 41 0.900000 1.059000 0.996000 600 48 1.000000 0.051000 0.051000 1.200000 0.048000 0.057000
1517182875772893436	800 44 1.000000 0.155000 0.159000 900 41 0.900000 1.181000 1.113000 600 48 1.000000 0.052000 0.052000 1.200000 0.036000 0.043000
1517182876281072228	800 43 1.000000 0.214000 0.219000 900 41 0.900000 1.455000 1.372000 600 47 1.000000 0.052000 0.052000 1.200000 0.039000 0.047000
1517182876789244686	800 44 1.000000 0.141000 0.144000 900 41 0.900000 0.761000 0.720000 600 48 1.000000 0.052000 0.052000 1.200000 0.049000 0.059000
1517182877297249645	800 42 1.000000 0.207000 0.212000 900 40 0.900000 1.256000 1.186000 600 46 1.000000 0.052000 0.052000 1.200000 0.037000 0.044000
1517182877807945728	800 43 1.000000 0.139000 0.142000 900 41 0.900000 1.180000 1.115000 600 46 1.000000 0.052000 0.052000 1.200000 0.047000 0.056000
1517182878320465061	800 42 1.000000 0.155000 0.159000 900 40 0.900000 1.302000 1.227000 600 46 1.000000 0.052000 0.052000 1.200000 0.033000 0.039000
1517182878856852645	800 44 1.000000 0.216000 0.220000 900 41 0.900000 1.428000 1.346000 600 48 1.000000 0.052000 0.052000 1.200000 0.041000 0.049000
1517182879383569103	800 44 1.000000 0.152000 0.155000 900 41 0.900000 1.178000 1.109000 600 48 1.000000 0.052000 0.052000 1.200000 0.044000 0.053000
1517182879891601353	800 42 1.000000 0.226000 0.231000 900 41 0.900000 1.232000 1.164000 600 46 1.000000 0.052000 0.052000 1.200000 0.037000 0.044000
1517182880412420520	800 44 1.000000 0.146000 0.149000 900 41 0.900000 0.503000 0.476000 600 48 1.000000 0.051000 0.051000 1.200000 0.047000 0.056000
1517182880952641353	800 44 1.000000 0.217000 0.222000 900 41 0.900000 1.235000 1.163000 600 48 1.000000 0.052000 0.052000 1.200000 0.040000 0.048000
1517182881461502687	800 44 1.000000 0.188000 0.192000 900 41 0.900000 1.426000 1.344000 600 47 1.000000 0.051000 0.051000 1.200000 0.044000 0.053000
1517182881970006187	800 44 1.000000 0.156000 0.160000 900 41 0.900000 1.028000 0.967000 600 48 1.000000 0.051000 0.051000 1.200000 0.042000 0.050000
1517182882492809187	800 44 1.000000 0.220000 0.225000 900 41 0.900000 1.396000 1.316000 600 48 1.000000 0.052000 0.052000 1.200000 0.040000 0.048000
1517182883001762729	800 44 1.000000 0.217000 0.221000 900 41 0.900000 1.428000 1.346000 600 47 1.000000 0.051000 0.051000 1.200000 0.039000 0.047000
1517182883510369312	800 44 1.000000 0.152000 0.155000 900 41 0.900000 1.091000 1.027000 600 48 1.000000 0.052000 0.052000 1.200000 0.047000 0.056000
1517182884023606854	800 44 1.000000 0.211000 0.216000 900 41 0.900000 1.285000 1.210000 600 48 1.000000 0.052000 0.052000 1.200000 0.039000 0.047000
1517182884531672687	800 45 1.000000 0.205000 0.210000 900 41 0.900000 1.308000 1.233000 600 48 1.000000 0.052000 0.052000 1.200000 0.038000 0.045000
1517182885050525770	800 45 1.000000 0.193000 0.197000 900 41 0.900000 1.180000 1.111000 600 48 1.000000 0.052000 0.052000 1.200000 0.048000 0.057000
1517182885568500645	800 44 1.000000 0.146000 0.149000 900 41 0.900000 1.081000 1.017000 600 48 1.000000 0.051000 0.051000 1.200000 0.039000 0.047000
1517182886077398604	800 44 1.000000 0.231000 0.236000 900 41 0.900000 1.437000 1.355000 600 47 1.000000 0.051000 0.051000 1.200000 0.039000 0.047000
1517182886628968729	800 44 1.000000 0.164000 0.168000 900 41 0.900000 1.512000 1.425000 600 49 1.000000 0.052000 0.052000 1.200000 0.043000 0.051000
1517182887188911146	800 45 1.000000 0.221000 0.226000 900 41 0.900000 1.057000 0.994000 600 48 1.000000 0.052000 0.052000 1.200000 0.042000 0.050000
1517182887698163521	800 44 1.000000 0.226000 0.231000 900 41 0.900000 1.439000 1.356000 600 47 1.000000 0.052000 0.052000 1.200000 0.039000 0.047000
1517182888229311729	800 45 1.000000 0.186000 0.190000 900 41 0.900000 1.415000 1.334000 600 49 1.000000 0.051000 0.051000 1.200000 0.046000 0.055000
1517182888751298563	800 45 1.000000 0.166000 0.170000 900 41 0.900000 1.076000 1.013000 600 49 1.000000 0.052000 0.052000 1.200000 0.047000 0.056000
1517182889261598729	800 44 1.000000 0.218000 0.223000 900 41 0.900000 1.423000 1.341000 600 48 1.000000 0.052000 0.052000 1.200000 0.038000 0.045000
1517182889770252396	800 45 1.000000 0.227000 0.232000 900 42 0.900000 1.442000 1.359000 600 49 1.000000 0.051000 0.051000 1.200000 0.041000 0.049000
1517182890324933979	800 44 1.000000 0.094000 0.096000 900 41 0.900000 1.073000 1.009000 600 49 1.000000 0.052000 0.052000 1.200000 0.041000 0.049000
1517182890833642646	800 43 1.000000 0.169000 0.173000 900 41 0.900000 1.410000 1.329000 600 47 1.000000 0.052000 0.052000 1.200000 0.038000 0.045000
1517182891380944313	800 45 1.000000 0.174000 0.178000 900 41 0.900000 0.955000 0.899000 600 48 1.000000 0.052000 0.052000 1.200000 0.042000 0.050000
1517182891948168105	800 44 1.000000 0.214000 0.218000 900 41 0.900000 1.393000 1.313000 600 48 1.000000 0.052000 0.052000 1.200000 0.041000 0.049000
1517182892467634313	800 44 1.000000 0.221000 0.226000 900 41 0.900000 1.426000 1.344000 600 48 1.000000 0.051000 0.051000 1.200000 0.039000 0.047000
1517182893013059771	800 45 1.000000 0.160000 0.164000 900 41 0.900000 1.038000 0.976000 600 48 1.000000 0.052000 0.052000 1.200000 0.041000 0.049000
1517182893572983271	800 45 1.000000 0.196000 0.200000 900 41 0.900000 1.387000 1.306000 600 48 1.000000 0.052000 0.052000 1.200000 0.045000 0.054000
1517182894110785522	800 44 1.000000 0.219000 0.224000 900 41 0.900000 1.394000 1.313000 600 49 1.000000 0.052000 0.052000 1.200000 0.041000 0.049000
1517182894619711230	800 44 1.000000 0.230000 0.235000 900 41 0.900000 1.248000 1.175000 600 48 1.000000 0.052000 0.052000 1.200000 0.042000 0.050000
1517182895128157272	800 45 1.000000 0.151000 0.154000 900 41 0.900000 1.171000 1.101000 600 49 1.000000 0.052000 0.052000 1.200000 0.048000 0.057000
1517182895648826147	800 45 1.000000 0.219000 0.224000 900 41 0.900000 1.420000 1.339000 600 49 1.000000 0.052000 0.052000 1.200000 0.038000 0.045000
1517182896156903605	800 44 1.000000 0.234000 0.239000 900 41 0.900000 1.461000 1.377000 600 48 1.000000 0.051000 0.051000 1.200000 0.041000 0.049000
1517182896697540855	800 44 1.000000 0.115000 0.117000 900 41 0.900000 0.670000 0.633000 600 48 1.000000 0.052000 0.052000 1.200000 0.050000 0.060000
1517182897205735189	800 42 1.000000 0.210000 0.215000 900 41 0.900000 1.453000 1.370000 600 46 1.000000 0.051000 0.051000 1.200000 0.037000 0.044000
1517182897747740855	800 44 1.000000 0.145000 0.148000 900 41 0.900000 0.289000 0.273000 600 48 1.000000 0.052000 0.052000 1.200000 0.045000 0.054000
1517182898267492189	800 42 1.000000 0.225000 0.230000 900 40 0.900000 1.405000 1.324000 600 46 1.000000 0.052000 0.052000 1.200000 0.039000 0.047000
1517182898778222980	800 43 1.000000 0.165000 0.169000 900 41 0.900000 1.055000 0.996000 600 47 1.000000 0.052000 0.052000 1.200000 0.039000 0.047000
1517182899287101730	800 44 1.000000 0.150000 0.153000 900 41 0.900000 1.261000 1.189000 600 48 1.000000 0.052000 0.052000 1.200000 0.047000 0.056000
1517182899821015772	800 44 1.000000 0.230000 0.235000 900 41 0.900000 1.408000 1.327000 600 48 1.000000 0.052000 0.052000 1.200000 0.037000 0.044000
1517182900329309647	800 44 1.000000 0.208000 0.212000 900 41 0.900000 1.463000 1.379000 600 48 1.000000 0.052000 0.052000 1.200000 0.038000 0.045000
1517182900875022064	800 44 1.000000 0.139000 0.142000 900 41 0.900000 1.012000 0.953000 600 48 1.000000 0.052000 0.052000 1.200000 0.043000 0.051000
1517182901384130856	800 42 1.000000 0.215000 0.220000 900 41 0.900000 1.380000 1.301000 600 46 1.000000 0.052000 0.052000 1.200000 0.042000 0.050000
1517182901892551189	800 44 1.000000 0.191000 0.195000 900 41 0.900000 1.139000 1.076000 600 48 1.000000 0.052000 0.052000 1.200000 0.038000 0.045000
1517182902448925148	800 44 1.000000 0.155000 0.159000 900 41 0.900000 1.085000 1.020000 600 48 1.000000 0.052000 0.052000 1.200000 0.047000 0.056000
1517182902957212189	800 44 1.000000 0.172000 0.176000 900 41 0.900000 1.419000 1.338000 600 48 1.000000 0.052000 0.052000 1.200000 0.039000 0.047000
1517182903466055148	800 44 1.000000 0.153000 0.156000 900 41 0.900000 1.310000 1.235000 600 48 1.000000 0.052000 0.052000 1.200000 0.039000 0.047000
1517182903974461356	800 44 1.000000 0.209000 0.214000 900 41 0.900000 1.016000 0.957000 600 48 1.000000 0.052000 0.052000 1.200000 0.047000 0.056000
1517182904525038731	800 44 1.000000 0.217000 0.221000 900 41 0.900000 1.124000 1.057000 600 47 1.000000 0.052000 0.052000 1.200000 0.038000 0.045000
1517182905033779773	800 44 1.000000 0.226000 0.231000 900 41 0.900000 1.403000 1.323000 600 47 1.000000 0.052000 0.052000 1.200000 0.042000 0.050000
1517182905542187481	800 45 1.000000 0.181000 0.185000 900 41 0.900000 1.437000 1.355000 600 48 1.000000 0.051000 0.051000 1.200000 0.047000 0.056000
1517182906092954231	800 44 1.000000 0.145000 0.148000 900 41 0.900000 1.048000 0.986000 600 48 1.000000 0.051000 0.051000 1.200000 0.042000 0.050000
1517182906652927815	800 44 1.000000 0.230000 0.235000 900 41 0.900000 1.420000 1.339000 600 48 1.000000 0.051000 0.051000 1.200000 0.037000 0.044000
1517182907161673523	800 45 1.000000 0.222000 0.227000 900 41 0.900000 1.417000 1.334000 600 48 1.000000 0.052000 0.052000 1.200000 0.042000 0.050000
1517182907692887231	800 45 1.000000 0.158000 0.162000 900 41 0.900000 1.024000 0.964000 600 48 1.000000 0.052000 0.052000 1.200000 0.046000 0.055000
1517182908216324398	800 44 1.000000 0.178000 0.182000 900 41 0.900000 1.331000 1.253000 600 48 1.000000 0.052000 0.052000 1.200000 0.037000 0.044000
1517182908726706607	800 45 1.000000 0.206000 0.211000 900 41 0.900000 1.301000 1.226000 600 49 1.000000 0.051000 0.051000 1.200000 0.042000 0.050000
1517182909237537232	800 44 1.000000 0.213000 0.217000 900 41 0.900000 1.161000 1.092000 600 48 1.000000 0.052000 0.052000 1.200000 0.049000 0.059000
1517182909792863398	800 44 1.000000 0.154000 0.158000 900 41 0.900000 1.314000 1.237000 600 48 1.000000 0.052000 0.052000 1.200000 0.040000 0.048000
1517182910301068357	800 45 1.000000 0.211000 0.216000 900 41 0.900000 1.339000 1.262000 600 49 1.000000 0.052000 0.052000 1.200000 0.040000 0.048000
1517182910822250898	800 45 1.000000 0.166000 0.170000 900 41 0.900000 1.231000 1.159000 600 49 1.000000 0.051000 0.051000 1.200000 0.045000 0.054000
1517182911358088774	800 44 1.000000 0.216000 0.220000 900 41 0.900000 1.119000 1.052000 600 48 1.000000 0.052000 0.052000 1.200000 0.042000 0.050000
1517182911867022899	800 45 1.000000 0.220000 0.225000 900 41 0.900000 1.429000 1.346000 600 48 1.000000 0.052000 0.052000 1.200000 0.038000 0.045000
1517182912375675732	800 45 1.000000 0.155000 0.159000 900 41 0.900000 1.385000 1.304000 600 49 1.000000 0.051000 0.051000 1.200000 0.048000 0.057000
1517182912910269732	800 44 1.000000 0.188000 0.192000 900 41 0.900000 1.003000 0.943000 600 48 1.000000 0.051000 0.051000 1.200000 0.040000 0.048000
1517182913426185565	800 45 1.000000 0.203000 0.208000 900 41 0.900000 1.312000 1.237000 600 49 1.000000 0.052000 0.052000 1.200000 0.040000 0.048000
1517182913955482441	800 45 1.000000 0.203000 0.208000 900 41 0.900000 1.399000 1.317000 600 49 1.000000 0.052000 0.052000 1.200000 0.048000 0.057000
1517182914468348899	800 42 1.000000 0.151000 0.154000 900 41 0.900000 0.674000 0.637000 600 46 1.000000 0.051000 0.051000 1.200000 0.039000 0.047000
1517182915020956357	800 44 1.000000 0.146000 0.149000 900 41 0.900000 1.379000 1.300000 600 48 1.000000 0.052000 0.052000 1.200000 0.039000 0.047000
1517182915584927191	800 44 1.000000 0.154000 0.158000 900 41 0.900000 1.013000 0.953000 600 48 1.000000 0.052000 0.052000 1.200000 0.041000 0.049000
1517182916099327941	800 44 1.000000 0.198000 0.202000 900 41 0.900000 1.425000 1.343000 600 47 1.000000 0.051000 0.051000 1.200000 0.037000 0.044000
1517182916613988233	800 45 1.000000 0.221000 0.226000 900 41 0.900000 1.431000 1.349000 600 48 1.000000 0.051000 0.051000 1.200000 0.039000 0.047000
1517182917144435066	800 44 1.000000 0.183000 0.187000 900 41 0.900000 1.029000 0.968000 600 49 1.000000 0.052000 0.052000 1.200000 0.044000 0.053000
1517182917661201108	800 43 1.000000 0.228000 0.233000 900 41 0.900000 1.382000 1.301000 600 47 1.000000 0.052000 0.052000 1.200000 0.038000 0.045000
1517182918175004441	800 45 1.000000 0.222000 0.227000 900 41 0.900000 1.365000 1.285000 600 49 1.000000 0.052000 0.052000 1.200000 0.040000 0.048000
1517182918728894816	800 44 1.000000 0.084000 0.086000 900 41 0.900000 1.083000 1.019000 600 48 1.000000 0.052000 0.052000 1.200000 0.043000 0.051000
1517182919239671941	800 44 1.000000 0.204000 0.209000 900 41 0.900000 1.389000 1.309000 600 47 1.000000 0.052000 0.052000 1.200000 0.039000 0.047000
1517182919774182025	800 45 1.000000 0.223000 0.228000 900 41 0.900000 1.421000 1.338000 600 49 1.000000 0.052000 0.052000 1.200000 0.040000 0.048000
1517182920306513066	800 45 1.000000 0.150000 0.153000 900 41 0.900000 1.194000 1.123000 600 48 1.000000 0.052000 0.052000 1.200000 0.046000 0.055000
1517182920815233650	800 44 1.000000 0.221000 0.226000 900 41 0.900000 1.286000 1.211000 600 48 1.000000 0.051000 0.051000 1.200000 0.038000 0.045000
1517182921328386733	800 45 1.000000 0.212000 0.217000 900 41 0.900000 1.410000 1.329000 600 49 1.000000 0.052000 0.052000 1.200000 0.040000 0.048000
1517182921861428900	800 45 1.000000 0.173000 0.177000 900 41 0.900000 1.232000 1.160000 600 49 1.000000 0.052000 0.052000 1.200000 0.048000 0.057000
1517182922380782733	800 44 1.000000 0.162000 0.166000 900 41 0.900000 1.094000 1.029000 600 47 1.000000 0.052000 0.052000 1.200000 0.037000 0.044000
1517182922940983567	800 44 1.000000 0.223000 0.228000 900 41 0.900000 1.451000 1.368000 600 48 1.000000 0.052000 0.052000 1.200000 0.036000 0.043000
1517182923485650192	800 45 1.000000 0.149000 0.152000 900 41 0.900000 1.421000 1.340000 600 49 1.000000 0.052000 0.052000 1.200000 0.047000 0.056000
1517182923998029650	800 43 1.000000 0.216000 0.220000 900 41 0.900000 0.569000 0.538000 600 46 1.000000 0.052000 0.052000 1.200000 0.040000 0.048000
1517182924536628942	800 44 1.000000 0.134000 0.137000 900 41 0.900000 1.390000 1.310000 600 48 1.000000 0.052000 0.052000 1.200000 0.038000 0.045000
1517182925044958775	800 45 1.000000 0.145000 0.148000 900 41 0.900000 1.196000 1.126000 600 48 1.000000 0.052000 0.052000 1.200000 0.047000 0.056000
1517182925554390484	800 44 1.000000 0.218000 0.223000 900 41 0.900000 1.054000 0.991000 600 48 1.000000 0.052000 0.052000 1.200000 0.039000 0.047000
1517182926068057317	800 44 1.000000 0.224000 0.229000 900 41 0.900000 1.260000 1.188000 600 49 1.000000 0.052000 0.052000 1.200000 0.038000 0.045000
1517182926576942525	800 44 1.000000 0.142000 0.145000 900 41 0.900000 1.044000 0.982000 600 49 1.000000 0.052000 0.052000 1.200000 0.036000 0.043000
1517182927121071984	800 44 1.000000 0.214000 0.218000 900 41 0.900000 1.394000 1.313000 600 48 1.000000 0.052000 0.052000 1.200000 0.039000 0.047000
1517182927650910526	800 45 1.000000 0.213000 0.217000 900 41 0.900000 1.449000 1.366000 600 49 1.000000 0.052000 0.052000 1.200000 0.046000 0.055000
1517182928159193359	800 45 1.000000 0.144000 0.147000 900 41 0.900000 1.045000 0.984000 600 48 1.000000 0.052000 0.052000 1.200000 0.043000 0.051000
1517182928728944859	800 44 1.000000 0.215000 0.220000 900 41 0.900000 1.429000 1.346000 600 48 1.000000 0.052000 0.052000 1.200000 0.040000 0.048000
1517182929237739484	800 44 1.000000 0.154000 0.157000 900 41 0.900000 1.419000 1.338000 600 49 1.000000 0.052000 0.052000 1.200000 0.040000 0.048000
1517182929792990901	800 44 1.000000 0.223000 0.228000 900 41 0.900000 0.977000 0.919000 600 48 1.000000 0.052000 0.052000 1.200000 0.043000 0.051000
1517182930304742317	800 45 1.000000 0.170000 0.174000 900 41 0.900000 1.099000 1.034000 600 49 1.000000 0.052000 0.052000 1.200000 0.044000 0.053000
1517182930856921276	800 44 1.000000 0.170000 0.174000 900 41 0.900000 1.290000 1.215000 600 48 1.000000 0.052000 0.052000 1.200000 0.048000 0.057000
1517182931365015318	800 42 1.000000 0.210000 0.215000 900 41 0.900000 1.435000 1.353000 600 46 1.000000 0.052000 0.052000 1.200000 0.036000 0.043000
1517182931924897526	800 44 1.000000 0.172000 0.176000 900 41 0.900000 0.668000 0.631000 600 47 1.000000 0.051000 0.051000 1.200000 0.042000 0.050000
1517182932434942609	800 41 1.000000 0.199000 0.203000 900 40 0.900000 1.275000 1.204000 600 45 1.000000 0.051000 0.051000 1.200000 0.039000 0.047000
1517182933000987776	800 44 1.000000 0.203000 0.208000 900 41 0.900000 1.079000 1.019000 600 48 1.000000 0.051000 0.051000 1.200000 0.036000 0.043000
1517182933524016235	800 44 1.000000 0.150000 0.153000 900 41 0.900000 1.146000 1.079000 600 48 1.000000 0.051000 0.051000 1.200000 0.044000 0.053000
1517182934033227443	800 44 1.000000 0.209000 0.213000 900 41 0.900000 1.405000 1.324000 600 47 1.000000 0.052000 0.052000 1.200000 0.038000 0.045000
1517182934560965943	800 44 1.000000 0.223000 0.228000 900 41 0.900000 1.440000 1.357000 600 48 1.000000 0.052000 0.052000 1.200000 0.036000 0.043000
1517182935112928651	800 44 1.000000 0.198000 0.202000 900 41 0.900000 1.059000 0.997000 600 48 1.000000 0.052000 0.052000 1.200000 0.044000 0.053000
1517182935660968735	800 44 1.000000 0.139000 0.142000 900 41 0.900000 1.457000 1.373000 600 48 1.000000 0.052000 0.052000 1.200000 0.040000 0.048000
1517182936172160277	800 45 1.000000 0.227000 0.232000 900 41 0.900000 1.423000 1.341000 600 49 1.000000 0.051000 0.051000 1.200000 0.038000 0.045000
1517182936724930402	800 44 1.000000 0.135000 0.138000 900 41 0.900000 0.376000 0.356000 600 48 1.000000 0.052000 0.052000 1.200000 0.050000 0.060000
1517182937241660610	800 43 1.000000 0.205000 0.209000 900 41 0.900000 1.440000 1.357000 600 46 1.000000 0.052000 0.052000 1.200000 0.037000 0.044000
1517182937816963860	800 44 1.000000 0.117000 0.120000 900 41 0.900000 1.209000 1.140000 600 48 1.000000 0.051000 0.051000 1.200000 0.034000 0.041000
1517182938368994152	800 44 1.000000 0.202000 0.207000 900 41 0.900000 1.379000 1.299000 600 48 1.000000 0.051000 0.051000 1.200000 0.043000 0.051000
1517182938881987527	800 44 1.000000 0.218000 0.223000 900 41 0.900000 1.368000 1.288000 600 47 1.000000 0.052000 0.052000 1.200000 0.038000 0.045000
1517182939396631652	800 45 1.000000 0.214000 0.218000 900 41 0.900000 1.171000 1.103000 600 49 1.000000 0.051000 0.051000 1.200000 0.038000 0.045000
1517182939933191152	800 45 1.000000 0.153000 0.156000 900 41 0.900000 1.222000 1.151000 600 48 1.000000 0.052000 0.052000 1.200000 0.046000 0.055000
1517182940442285194	800 44 1.000000 0.168000 0.172000 900 41 0.900000 1.184000 1.118000 600 47 1.000000 0.052000 0.052000 1.200000 0.037000 0.044000
1517182940992979694	800 45 1.000000 0.228000 0.233000 900 41 0.900000 1.168000 1.100000 600 49 1.000000 0.052000 0.052000 1.200000 0.040000 0.048000
1517182941536065777	800 45 1.000000 0.156000 0.160000 900 41 0.900000 1.284000 1.209000 600 49 1.000000 0.052000 0.052000 1.200000 0.048000 0.057000
1517182942048849819	800 44 1.000000 0.221000 0.226000 900 41 0.900000 1.426000 1.344000 600 48 1.000000 0.052000 0.052000 1.200000 0.037000 0.044000
1517182942606193486	800 44 1.000000 0.144000 0.147000 900 41 0.900000 1.148000 1.082000 600 49 1.000000 0.052000 0.052000 1.200000 0.047000 0.056000
1517182943150363694	800 45 1.000000 0.202000 0.207000 900 41 0.900000 1.295000 1.219000 600 48 1.000000 0.052000 0.052000 1.200000 0.038000 0.045000
1517182943667068486	800 44 1.000000 0.223000 0.228000 900 41 0.900000 1.406000 1.324000 600 47 1.000000 0.052000 0.052000 1.200000 0.040000 0.048000
1517182944212954777	800 44 1.000000 0.160000 0.164000 900 41 0.900000 1.228000 1.156000 600 48 1.000000 0.052000 0.052000 1.200000 0.049000 0.059000
1517182944772962278	800 44 1.000000 0.177000 0.181000 900 41 0.900000 1.140000 1.072000 600 49 1.000000 0.052000 0.052000 1.200000 0.038000 0.045000
1517182945336223986	800 44 1.000000 0.227000 0.232000 900 41 0.900000 1.437000 1.355000 600 48 1.000000 0.052000 0.052000 1.200000 0.039000 0.047000
1517182945845080986	800 44 1.000000 0.208000 0.213000 900 41 0.900000 1.393000 1.313000 600 48 1.000000 0.052000 0.052000 1.200000 0.038000 0.045000
1517182946368472944	800 45 1.000000 0.156000 0.160000 900 41 0.900000 1.043000 0.981000 600 49 1.000000 0.052000 0.052000 1.200000 0.039000 0.047000
1517182946897008694	800 45 1.000000 0.228000 0.233000 900 41 0.900000 1.397000 1.315000 600 48 1.000000 0.052000 0.052000 1.200000 0.040000 0.048000
1517182947405970070	800 44 1.000000 0.218000 0.223000 900 41 0.900000 1.446000 1.362000 600 48 1.000000 0.052000 0.052000 1.200000 0.048000 0.057000
1517182947914331570	800 45 1.000000 0.159000 0.163000 900 41 0.900000 1.008000 0.948000 600 49 1.000000 0.052000 0.052000 1.200000 0.040000 0.048000
1517182948425457028	800 44 1.000000 0.188000 0.192000 900 41 0.900000 1.410000 1.329000 600 48 1.000000 0.052000 0.052000 1.200000 0.038000 0.045000
1517182948934557195	800 45 1.000000 0.129000 0.132000 900 41 0.900000 1.406000 1.328000 600 49 1.000000 0.052000 0.052000 1.200000 0.045000 0.054000
1517182949453924570	800 45 1.000000 0.205000 0.210000 900 41 0.900000 1.096000 1.031000 600 48 1.000000 0.052000 0.052000 1.200000 0.039000 0.047000
1517182949974032278	800 44 1.000000 0.224000 0.229000 900 41 0.900000 1.413000 1.332000 600 48 1.000000 0.052000 0.052000 1.200000 0.041000 0.049000
1517182950529043695	800 44 1.000000 0.183000 0.187000 900 41 0.900000 1.419000 1.338000 600 48 1.000000 0.051000 0.051000 1.200000 0.048000 0.057000
1517182951084980153	800 45 1.000000 0.153000 0.156000 900 41 0.900000 1.049000 0.987000 600 49 1.000000 0.052000 0.052000 1.200000 0.040000 0.048000
1517182951607770028	800 45 1.000000 0.204000 0.208000 900 41 0.900000 1.423000 1.341000 600 49 1.000000 0.052000 0.052000 1.200000 0.040000 0.048000
1517182952116433487	800 43 1.000000 0.225000 0.230000 900 41 0.900000 1.429000 1.347000 600 48 1.000000 0.052000 0.052000 1.200000 0.047000 0.056000
1517182952672891820	800 45 1.000000 0.153000 0.156000 900 41 0.900000 1.037000 0.976000 600 48 1.000000 0.052000 0.052000 1.200000 0.046000 0.055000
1517182953206141529	800 45 1.000000 0.184000 0.188000 900 41 0.900000 1.257000 1.184000 600 49 1.000000 0.052000 0.052000 1.200000 0.042000 0.050000
1517182953715060029	800 44 1.000000 0.229000 0.234000 900 41 0.900000 1.436000 1.354000 600 48 1.000000 0.052000 0.052000 1.200000 0.042000 0.050000
1517182954264965487	800 45 1.000000 0.225000 0.230000 900 41 0.900000 1.412000 1.331000 600 48 1.000000 0.052000 0.052000 1.200000 0.046000 0.055000
1517182954773349279	800 45 1.000000 0.168000 0.172000 900 41 0.900000 1.099000 1.034000 600 49 1.000000 0.052000 0.052000 1.200000 0.040000 0.048000
1517182955316994945	800 45 1.000000 0.224000 0.229000 900 41 0.900000 1.382000 1.301000 600 48 1.000000 0.052000 0.052000 1.200000 0.039000 0.047000
1517182955832754821	800 43 1.000000 0.217000 0.221000 900 41 0.900000 1.375000 1.296000 600 47 1.000000 0.052000 0.052000 1.200000 0.043000 0.051000
1517182956342551904	800 44 1.000000 0.156000 0.160000 900 41 0.900000 1.383000 1.302000 600 48 1.000000 0.052000 0.052000 1.200000 0.048000 0.057000
1517182956864453321	800 44 1.000000 0.186000 0.190000 900 41 0.900000 0.632000 0.598000 600 48 1.000000 0.052000 0.052000 1.200000 0.042000 0.050000
1517182957373397112	800 43 1.000000 0.173000 0.177000 900 41 0.900000 1.316000 1.240000 600 47 1.000000 0.052000 0.052000 1.200000 0.040000 0.048000
1517182957932967029	800 44 1.000000 0.152000 0.155000 900 41 0.900000 1.236000 1.164000 600 48 1.000000 0.052000 0.052000 1.200000 0.046000 0.055000
1517182958464978654	800 45 1.000000 0.179000 0.183000 900 41 0.900000 1.006000 0.946000 600 48 1.000000 0.052000 0.052000 1.200000 0.040000 0.048000
1517182959016305488	800 44 1.000000 0.219000 0.224000 900 41 0.900000 1.443000 1.360000 600 48 1.000000 0.052000 0.052000 1.200000 0.042000 0.050000
1517182959525196571	800 44 1.000000 0.186000 0.190000 900 41 0.900000 1.339000 1.262000 600 48 1.000000 0.052000 0.052000 1.200000 0.044000 0.053000
1517182960034040863	800 44 1.000000 0.154000 0.158000 900 41 0.900000 1.090000 1.026000 600 49 1.000000 0.052000 0.052000 1.200000 0.048000 0.057000
1517182960542386404	800 44 1.000000 0.147000 0.150000 900 41 0.900000 1.221000 1.150000 600 48 1.000000 0.052000 0.052000 1.200000 0.036000 0.043000
1517182961051308613	800 43 1.000000 0.221000 0.226000 900 41 0.900000 1.384000 1.305000 600 47 1.000000 0.052000 0.052000 1.200000 0.043000 0.051000
1517182961603357155	800 45 1.000000 0.147000 0.150000 900 41 0.900000 1.331000 1.255000 600 49 1.000000 0.052000 0.052000 1.200000 0.050000 0.060000
1517182962114369780	800 43 1.000000 0.208000 0.213000 900 41 0.900000 0.497000 0.471000 600 47 1.000000 0.051000 0.051000 1.200000 0.042000 0.050000
1517182962652095196	800 44 1.000000 0.125000 0.128000 900 41 0.900000 1.324000 1.248000 600 48 1.000000 0.052000 0.052000 1.200000 0.037000 0.044000
1517182963163403946	800 44 1.000000 0.150000 0.153000 900 41 0.900000 1.202000 1.132000 600 49 1.000000 0.052000 0.052000 1.200000 0.046000 0.055000
1517182963671895238	800 44 1.000000 0.218000 0.223000 900 41 0.900000 1.074000 1.011000 600 48 1.000000 0.052000 0.052000 1.200000 0.042000 0.050000
1517182964180619822	800 44 1.000000 0.226000 0.231000 900 41 0.900000 1.404000 1.323000 600 47 1.000000 0.051000 0.051000 1.200000 0.038000 0.045000
1517182964688961655	800 44 1.000000 0.177000 0.181000 900 41 0.900000 1.408000 1.327000 600 48 1.000000 0.052000 0.052000 1.200000 0.050000 0.060000
1517182965246832905	800 44 1.000000 0.129000 0.132000 900 41 0.900000 1.068000 1.009000 600 48 1.000000 0.052000 0.052000 1.200000 0.036000 0.043000
1517182965758266780	800 44 1.000000 0.222000 0.227000 900 41 0.900000 1.468000 1.384000 600 49 1.000000 0.052000 0.052000 1.200000 0.040000 0.048000
1517182966267163488	800 43 1.000000 0.114000 0.117000 900 41 0.900000 0.818000 0.773000 600 47 1.000000 0.051000 0.051000 1.200000 0.047000 0.056000
1517182966823243530	800 44 1.000000 0.148000 0.151000 900 41 0.900000 1.245000 1.176000 600 48 1.000000 0.052000 0.052000 1.200000 0.037000 0.044000
1517182967332376989	800 43 1.000000 0.130000 0.133000 900 40 0.900000 0.648000 0.613000 600 47 1.000000 0.052000 0.052000 1.200000 0.049000 0.059000
1517182967841303405	800 43 1.000000 0.170000 0.174000 900 41 0.900000 1.217000 1.150000 600 47 1.000000 0.051000 0.051000 1.200000 0.038000 0.045000
1517182968349750614	800 44 1.000000 0.161000 0.165000 900 41 0.900000 1.029000 0.968000 600 48 1.000000 0.052000 0.052000 1.200000 0.043000 0.051000
1517182968881424364	800 44 1.000000 0.213000 0.217000 900 41 0.900000 1.425000 1.343000 600 48 1.000000 0.051000 0.051000 1.200000 0.042000 0.050000
1517182969390180572	800 44 1.000000 0.226000 0.231000 900 41 0.900000 1.453000 1.368000 600 48 1.000000 0.052000 0.052000 1.200000 0.038000 0.045000
1517182969943922781	800 44 1.000000 0.165000 0.169000 900 41 0.900000 0.938000 0.883000 600 48 1.000000 0.052000 0.052000 1.200000 0.043000 0.051000
1517182970470185447	800 44 1.000000 0.193000 0.197000 900 41 0.900000 1.441000 1.358000 600 48 1.000000 0.052000 0.052000 1.200000 0.044000 0.053000
1517182970995147947	800 44 1.000000 0.212000 0.217000 900 41 0.900000 1.387000 1.307000 600 48 1.000000 0.051000 0.051000 1.200000 0.037000 0.044000
1517182971505564239	800 42 1.000000 0.123000 0.126000 900 41 0.900000 0.427000 0.404000 600 47 1.000000 0.052000 0.052000 1.200000 0.049000 0.059000
1517182972061001906	800 44 1.000000 0.098000 0.100000 900 41 0.900000 1.149000 1.085000 600 48 1.000000 0.051000 0.051000 1.200000 0.034000 0.041000
1517182972624965573	800 44 1.000000 0.188000 0.192000 900 41 0.900000 1.059000 0.996000 600 48 1.000000 0.052000 0.052000 1.200000 0.044000 0.053000
1517182973166335781	800 44 1.000000 0.153000 0.156000 900 41 0.900000 1.404000 1.323000 600 48 1.000000 0.052000 0.052000 1.200000 0.040000 0.048000
1517182973683709698	800 44 1.000000 0.229000 0.234000 900 41 0.900000 1.429000 1.347000 600 48 1.000000 0.052000 0.052000 1.200000 0.041000 0.049000
1517182974221705906	800 44 1.000000 0.123000 0.126000 900 41 0.900000 1.022000 0.961000 600 49 1.000000 0.052000 0.052000 1.200000 0.047000 0.056000
1517182974751361656	800 44 1.000000 0.212000 0.217000 900 41 0.900000 1.439000 1.356000 600 48 1.000000 0.052000 0.052000 1.200000 0.039000 0.047000
1517182975259848781	800 44 1.000000 0.231000 0.236000 900 41 0.900000 1.451000 1.368000 600 49 1.000000 0.052000 0.052000 1.200000 0.039000 0.047000
1517182975784079073	800 45 1.000000 0.165000 0.169000 900 41 0.900000 1.076000 1.012000 600 49 1.000000 0.051000 0.051000 1.200000 0.044000 0.053000
1517182976307120531	800 44 1.000000 0.233000 0.238000 900 41 0.900000 1.435000 1.353000 600 48 1.000000 0.052000 0.052000 1.200000 0.042000 0.050000
1517182976815858740	800 44 1.000000 0.222000 0.227000 900 41 0.900000 1.430000 1.348000 600 48 1.000000 0.052000 0.052000 1.200000 0.038000 0.045000
1517182977388977448	800 44 1.000000 0.193000 0.197000 900 41 0.900000 1.069000 1.006000 600 48 1.000000 0.051000 0.051000 1.200000 0.043000 0.051000
1517182977940898282	800 44 1.000000 0.152000 0.155000 900 41 0.900000 1.305000 1.229000 600 48 1.000000 0.052000 0.052000 1.200000 0.047000 0.056000
1517182978452032948	800 44 1.000000 0.207000 0.212000 900 41 0.900000 1.419000 1.338000 600 48 1.000000 0.052000 0.052000 1.200000 0.038000 0.045000
1517182978960286782	800 45 1.000000 0.225000 0.230000 900 41 0.900000 1.285000 1.211000 600 49 1.000000 0.052000 0.052000 1.200000 0.038000 0.045000
1517182979472934198	800 45 1.000000 0.158000 0.162000 900 41 0.900000 1.075000 1.011000 600 49 1.000000 0.052000 0.052000 1.200000 0.047000 0.056000
1517182979987400740	800 44 1.000000 0.222000 0.227000 900 41 0.900000 1.442000 1.358000 600 48 1.000000 0.052000 0.052000 1.200000 0.038000 0.045000
1517182980499711657	800 45 1.000000 0.181000 0.185000 900 41 0.900000 1.397000 1.317000 600 49 1.000000 0.052000 0.052000 1.200000 0.041000 0.049000
1517182981012766407	800 45 1.000000 0.160000 0.164000 900 41 0.900000 1.051000 0.988000 600 49 1.000000 0.052000 0.052000 1.200000 0.047000 0.056000
1517182981520988490	800 42 1.000000 0.223000 0.228000 900 41 0.900000 1.399000 1.319000 600 46 1.000000 0.051000 0.051000 1.200000 0.041000 0.049000
1517182982076995699	800 44 1.000000 0.173000 0.177000 900 41 0.900000 1.058000 1.000000 600 48 1.000000 0.052000 0.052000 1.200000 0.036000 0.043000
1517182982600598615	800 44 1.000000 0.203000 0.208000 900 41 0.900000 1.264000 1.190000 600 48 1.000000 0.052000 0.052000 1.200000 0.042000 0.050000
1517182983109287657	800 43 1.000000 0.219000 0.224000 900 41 0.900000 1.406000 1.325000 600 47 1.000000 0.052000 0.052000 1.200000 0.041000 0.049000
1517182983668985991	800 44 1.000000 0.230000 0.235000 900 41 0.900000 1.415000 1.334000 600 48 1.000000 0.052000 0.052000 1.200000 0.047000 0.056000
1517182984203784032	800 44 1.000000 0.137000 0.140000 900 41 0.900000 1.032000 0.971000 600 48 1.000000 0.052000 0.052000 1.200000 0.038000 0.045000
1517182984722216449	800 43 1.000000 0.176000 0.180000 900 41 0.900000 1.289000 1.215000 600 47 1.000000 0.052000 0.052000 1.200000 0.040000 0.048000
1517182985272894157	800 44 1.000000 0.218000 0.223000 900 41 0.900000 1.429000 1.346000 600 48 1.000000 0.052000 0.052000 1.200000 0.046000 0.055000
1517182985824929782	800 44 1.000000 0.123000 0.126000 900 41 0.900000 0.330000 0.312000 600 48 1.000000 0.052000 0.052000 1.200000 0.043000 0.051000
1517182986332926366	800 42 1.000000 0.173000 0.177000 900 41 0.900000 1.431000 1.349000 600 46 1.000000 0.052000 0.052000 1.200000 0.039000 0.047000
1517182986844097991	800 44 1.000000 0.114000 0.116000 900 41 0.900000 0.946000 0.894000 600 48 1.000000 0.052000 0.052000 1.200000 0.050000 0.060000
1517182987372814616	800 44 1.000000 0.168000 0.172000 900 41 0.900000 1.264000 1.190000 600 48 1.000000 0.052000 0.052000 1.200000 0.038000 0.045000
1517182987881576699	800 42 1.000000 0.226000 0.231000 900 41 0.900000 1.472000 1.388000 600 47 1.000000 0.052000 0.052000 1.200000 0.040000 0.048000
1517182988408169866	800 44 1.000000 0.201000 0.206000 900 41 0.900000 1.398000 1.318000 600 48 1.000000 0.052000 0.052000 1.200000 0.047000 0.056000
1517182988919373824	800 43 1.000000 0.124000 0.127000 900 41 0.900000 0.335000 0.317000 600 47 1.000000 0.051000 0.051000 1.200000 0.044000 0.053000
1517182989428748825	800 44 1.000000 0.185000 0.189000 900 41 0.900000 1.346000 1.269000 600 47 1.000000 0.051000 0.051000 1.200000 0.039000 0.047000
1517182989974190700	800 44 1.000000 0.224000 0.229000 900 41 0.900000 1.449000 1.366000 600 48 1.000000 0.052000 0.052000 1.200000 0.046000 0.055000
1517182990528981158	800 44 1.000000 0.167000 0.171000 900 41 0.900000 1.057000 0.995000 600 48 1.000000 0.052000 0.052000 1.200000 0.045000 0.054000
1517182991054319241	800 44 1.000000 0.152000 0.155000 900 41 0.900000 1.163000 1.094000 600 48 1.000000 0.052000 0.052000 1.200000 0.039000 0.047000
1517182991563135033	800 43 1.000000 0.219000 0.224000 900 41 0.900000 1.470000 1.384000 600 47 1.000000 0.052000 0.052000 1.200000 0.040000 0.048000
1517182992074114742	800 44 1.000000 0.221000 0.226000 900 41 0.900000 1.430000 1.348000 600 48 1.000000 0.052000 0.052000 1.200000 0.048000 0.057000
1517182992604073825	800 44 1.000000 0.147000 0.150000 900 41 0.900000 1.073000 1.009000 600 48 1.000000 0.052000 0.052000 1.200000 0.037000 0.044000
1517182993112104200	800 44 1.000000 0.231000 0.236000 900 41 0.900000 1.331000 1.255000 600 48 1.000000 0.052000 0.052000 1.200000 0.038000 0.045000
1517182993624338283	800 44 1.000000 0.107000 0.109000 900 41 0.900000 1.013000 0.957000 600 48 1.000000 0.052000 0.052000 1.200000 0.050000 0.060000
1517182994139924533	800 44 1.000000 0.219000 0.224000 900 41 0.900000 1.157000 1.089000 600 47 1.000000 0.052000 0.052000 1.200000 0.038000 0.045000
1517182994692967908	800 44 1.000000 0.165000 0.169000 900 41 0.900000 1.326000 1.250000 600 48 1.000000 0.052000 0.052000 1.200000 0.047000 0.056000
1517182995247546867	800 45 1.000000 0.165000 0.169000 900 41 0.900000 1.417000 1.336000 600 48 1.000000 0.052000 0.052000 1.200000 0.048000 0.057000
1517182995757450325	800 43 1.000000 0.183000 0.187000 900 41 0.900000 0.662000 0.626000 600 47 1.000000 0.052000 0.052000 1.200000 0.038000 0.045000
1517182996316927242	800 44 1.000000 0.136000 0.139000 900 41 0.900000 1.131000 1.068000 600 48 1.000000 0.052000 0.052000 1.200000 0.038000 0.045000
1517182996856385617	800 44 1.000000 0.165000 0.169000 900 41 0.900000 1.067000 1.004000 600 48 1.000000 0.052000 0.052000 1.200000 0.044000 0.053000
1517182997372645534	800 43 1.000000 0.201000 0.206000 900 41 0.900000 1.350000 1.273000 600 48 1.000000 0.051000 0.051000 1.200000 0.036000 0.043000
1517182997916916826	800 44 1.000000 0.217000 0.222000 900 41 0.900000 1.367000 1.289000 600 49 1.000000 0.051000 0.051000 1.200000 0.041000 0.049000
1517182998464973826	800 44 1.000000 0.200000 0.204000 900 41 0.900000 1.336000 1.258000 600 49 1.000000 0.052000 0.052000 1.200000 0.047000 0.056000
1517182998975994451	800 45 1.000000 0.220000 0.225000 900 41 0.900000 1.025000 0.964000 600 48 1.000000 0.052000 0.052000 1.200000 0.042000 0.050000
1517182999484678826	800 44 1.000000 0.225000 0.230000 900 41 0.900000 1.421000 1.340000 600 47 1.000000 0.052000 0.052000 1.200000 0.041000 0.049000
1517183000040970742	800 45 1.000000 0.152000 0.155000 900 41 0.900000 1.428000 1.346000 600 49 1.000000 0.052000 0.052000 1.200000 0.044000 0.053000
1517183000549135201	800 45 1.000000 0.172000 0.176000 900 41 0.900000 1.136000 1.068000 600 49 1.000000 0.052000 0.052000 1.200000 0.044000 0.053000
1517183001062451243	800 44 1.000000 0.209000 0.214000 900 41 0.900000 1.150000 1.083000 600 48 1.000000 0.052000 0.052000 1.200000 0.039000 0.047000
1517183001571058326	800 44 1.000000 0.196000 0.200000 900 41 0.900000 1.300000 1.225000 600 49 1.000000 0.052000 0.052000 1.200000 0.038000 0.045000
1517183002079822951	800 44 1.000000 0.157000 0.161000 900 41 0.900000 1.356000 1.277000 600 49 1.000000 0.052000 0.052000 1.200000 0.044000 0.053000
1517183002628891201	800 44 1.000000 0.183000 0.187000 900 41 0.900000 1.409000 1.328000 600 48 1.000000 0.052000 0.052000 1.200000 0.038000 0.045000
1517183003144019451	800 45 1.000000 0.221000 0.226000 900 41 0.900000 1.386000 1.306000 600 49 1.000000 0.052000 0.052000 1.200000 0.038000 0.045000
1517183003658615535	800 45 1.000000 0.211000 0.215000 900 41 0.900000 1.056000 0.993000 600 49 1.000000 0.052000 0.052000 1.200000 0.046000 0.055000
1517183004166456285	800 42 1.000000 0.091000 0.093000 900 41 0.900000 1.411000 1.330000 600 46 1.000000 0.052000 0.052000 1.200000 0.039000 0.047000
1517183004674156410	800 40 1.000000 0.036000 0.037000 900 40 0.900000 0.314000 0.296000 600 44 1.000000 0.052000 0.052000 1.200000 0.024000 0.028000
