#Timestamp	CPU(0) Frequency(MHz)	CPU(0) Temperature(C)	A7 Voltage(V)	A7 Current(A)	A7 Power(W)	CPU(4) Frequency(MHz)	CPU(4) Temperature(C)	A15 Voltage(V)	A15 Current(A)	A15 Power(W)	GPU Frequency(MHz)	GPU Temperature(C)	GPU Voltage(V)	GPU Current(A)	GPU Power(W)	RAM Voltage(V)	RAM Current(A)	RAM Power(W)
1518179119682763031	1100 44 1.100000 0.062000 0.070000 1200 42 1.000000 0.700000 0.711000 600 47 1.000000 0.053000 0.053000 1.200000 0.038000 0.045000
1518179120189938781	1100 44 1.100000 0.064000 0.072000 1200 42 1.000000 0.698000 0.709000 600 47 1.000000 0.053000 0.053000 1.200000 0.039000 0.047000
1518179120697233739	1100 44 1.100000 0.063000 0.071000 1200 42 1.000000 0.685000 0.695000 600 47 1.000000 0.053000 0.053000 1.200000 0.040000 0.048000
1518179121253486823	1100 49 1.100000 0.063000 0.071000 1200 44 1.000000 0.706000 0.717000 600 53 1.000000 0.053000 0.053000 1.200000 0.040000 0.048000
1518179121809419698	1100 52 1.100000 0.483000 0.540000 1200 46 1.000000 2.626000 2.691000 600 56 1.000000 0.053000 0.053000 1.200000 0.034000 0.041000
1518179122361352115	1100 54 1.100000 0.485000 0.543000 1200 47 1.000000 2.647000 2.713000 600 58 1.000000 0.053000 0.053000 1.200000 0.034000 0.041000
1518179122917413906	1100 55 1.100000 0.485000 0.543000 1200 48 1.000000 2.651000 2.717000 600 59 1.000000 0.053000 0.053000 1.200000 0.034000 0.041000
1518179123469436781	1100 56 1.100000 0.486000 0.544000 1200 49 1.000000 2.654000 2.720000 600 60 1.000000 0.054000 0.054000 1.200000 0.033000 0.039000
1518179124029375906	1100 56 1.100000 0.486000 0.544000 1200 49 1.000000 2.658000 2.724000 600 61 1.000000 0.054000 0.054000 1.200000 0.034000 0.041000
1518179124589402031	1100 57 1.100000 0.486000 0.544000 1200 50 1.000000 2.659000 2.725000 600 61 1.000000 0.054000 0.054000 1.200000 0.034000 0.041000
1518179125141409740	1100 57 1.100000 0.486000 0.544000 1200 50 1.000000 2.658000 2.724000 600 62 1.000000 0.054000 0.054000 1.200000 0.034000 0.041000
1518179125701408073	1100 58 1.100000 0.487000 0.545000 1200 51 1.000000 2.654000 2.720000 600 62 1.000000 0.055000 0.055000 1.200000 0.034000 0.041000
1518179126249418657	1100 58 1.100000 0.487000 0.545000 1200 51 1.000000 2.659000 2.725000 600 63 1.000000 0.055000 0.055000 1.200000 0.034000 0.041000
1518179126809403615	1100 58 1.100000 0.487000 0.545000 1200 51 1.000000 2.656000 2.722000 600 63 1.000000 0.055000 0.055000 1.200000 0.034000 0.041000
1518179127373382115	1100 59 1.100000 0.487000 0.545000 1200 52 1.000000 2.655000 2.724000 600 63 1.000000 0.055000 0.055000 1.200000 0.033000 0.039000
1518179127925550865	1100 59 1.100000 0.488000 0.546000 1200 52 1.000000 2.663000 2.729000 600 63 1.000000 0.055000 0.055000 1.200000 0.034000 0.041000
1518179128493378032	1100 59 1.100000 0.488000 0.546000 1200 52 1.000000 2.667000 2.733000 600 63 1.000000 0.055000 0.055000 1.200000 0.033000 0.039000
1518179129041408574	1100 59 1.100000 0.488000 0.546000 1200 52 1.000000 2.664000 2.733000 600 64 1.000000 0.055000 0.055000 1.200000 0.034000 0.041000
1518179129601377907	1100 59 1.100000 0.488000 0.546000 1200 52 1.000000 2.668000 2.734000 600 64 1.000000 0.055000 0.055000 1.200000 0.033000 0.039000
1518179130157422865	1100 59 1.100000 0.488000 0.546000 1200 52 1.000000 2.678000 2.744000 600 64 1.000000 0.055000 0.055000 1.200000 0.034000 0.041000
1518179130717380449	1100 59 1.100000 0.488000 0.546000 1200 52 1.000000 2.677000 2.743000 600 64 1.000000 0.055000 0.055000 1.200000 0.034000 0.041000
1518179131276472282	1100 60 1.100000 0.488000 0.546000 1200 53 1.000000 2.673000 2.739000 600 64 1.000000 0.055000 0.055000 1.200000 0.034000 0.041000
1518179131837385366	1100 60 1.100000 0.488000 0.546000 1200 53 1.000000 2.664000 2.730000 600 64 1.000000 0.055000 0.055000 1.200000 0.033000 0.039000
1518179132393369116	1100 60 1.100000 0.488000 0.546000 1200 53 1.000000 2.680000 2.747000 600 64 1.000000 0.055000 0.055000 1.200000 0.034000 0.041000
1518179132961387949	1100 60 1.100000 0.488000 0.546000 1200 53 1.000000 2.680000 2.747000 600 64 1.000000 0.055000 0.055000 1.200000 0.033000 0.039000
1518179133509356324	1100 60 1.100000 0.488000 0.546000 1200 53 1.000000 2.680000 2.747000 600 64 1.000000 0.055000 0.055000 1.200000 0.034000 0.041000
1518179134053321949	1100 60 1.100000 0.489000 0.547000 1200 53 1.000000 2.680000 2.747000 600 64 1.000000 0.055000 0.055000 1.200000 0.034000 0.041000
1518179134609365699	1100 60 1.100000 0.488000 0.546000 1200 53 1.000000 2.681000 2.748000 600 65 1.000000 0.055000 0.055000 1.200000 0.034000 0.041000
1518179135153406074	1100 60 1.100000 0.489000 0.547000 1200 53 1.000000 2.681000 2.748000 600 65 1.000000 0.055000 0.055000 1.200000 0.034000 0.041000
1518179135701414408	1100 60 1.100000 0.489000 0.547000 1200 53 1.000000 2.681000 2.748000 600 65 1.000000 0.055000 0.055000 1.200000 0.034000 0.041000
1518179136253447824	1100 60 1.100000 0.488000 0.546000 1200 53 1.000000 2.673000 2.739000 600 65 1.000000 0.055000 0.055000 1.200000 0.034000 0.041000
1518179136813365616	1100 60 1.100000 0.488000 0.546000 1200 53 1.000000 2.680000 2.747000 600 65 1.000000 0.055000 0.055000 1.200000 0.034000 0.041000
1518179137373382241	1100 60 1.100000 0.488000 0.546000 1200 53 1.000000 2.676000 2.742000 600 65 1.000000 0.055000 0.055000 1.200000 0.034000 0.041000
1518179137933394158	1100 60 1.100000 0.488000 0.546000 1200 53 1.000000 2.681000 2.748000 600 65 1.000000 0.055000 0.055000 1.200000 0.034000 0.041000
1518179138493409783	1100 60 1.100000 0.489000 0.547000 1200 53 1.000000 2.679000 2.745000 600 65 1.000000 0.055000 0.055000 1.200000 0.034000 0.041000
1518179139049353450	1100 60 1.100000 0.489000 0.547000 1200 53 1.000000 2.671000 2.737000 600 65 1.000000 0.055000 0.055000 1.200000 0.034000 0.041000
1518179139617357158	1100 60 1.100000 0.489000 0.547000 1200 53 1.000000 2.668000 2.734000 600 65 1.000000 0.055000 0.055000 1.200000 0.034000 0.041000
1518179140169366658	1100 60 1.100000 0.489000 0.547000 1200 53 1.000000 2.656000 2.722000 600 65 1.000000 0.055000 0.055000 1.200000 0.033000 0.039000
1518179140717367033	1100 60 1.100000 0.489000 0.547000 1200 53 1.000000 2.656000 2.722000 600 65 1.000000 0.055000 0.055000 1.200000 0.035000 0.042000
1518179141273404700	1100 60 1.100000 0.489000 0.547000 1200 53 1.000000 2.663000 2.729000 600 65 1.000000 0.055000 0.055000 1.200000 0.036000 0.043000
1518179141833353617	1100 60 1.100000 0.488000 0.546000 1200 53 1.000000 2.664000 2.730000 600 65 1.000000 0.055000 0.055000 1.200000 0.035000 0.042000
1518179142385374742	1100 60 1.100000 0.489000 0.547000 1200 53 1.000000 2.663000 2.729000 600 65 1.000000 0.055000 0.055000 1.200000 0.035000 0.042000
1518179142937361950	1100 60 1.100000 0.489000 0.547000 1200 53 1.000000 2.670000 2.736000 600 65 1.000000 0.055000 0.055000 1.200000 0.035000 0.042000
1518179143493335409	1100 60 1.100000 0.489000 0.547000 1200 53 1.000000 2.663000 2.729000 600 65 1.000000 0.055000 0.055000 1.200000 0.035000 0.042000
1518179144041395742	1100 60 1.100000 0.489000 0.547000 1200 53 1.000000 2.667000 2.733000 600 65 1.000000 0.055000 0.055000 1.200000 0.035000 0.042000
1518179144593413784	1100 61 1.100000 0.489000 0.547000 1200 54 1.000000 2.660000 2.726000 600 65 1.000000 0.055000 0.055000 1.200000 0.035000 0.042000
1518179145149362284	1100 61 1.100000 0.488000 0.546000 1200 53 1.000000 2.665000 2.731000 600 65 1.000000 0.055000 0.055000 1.200000 0.035000 0.042000
1518179145709373576	1100 60 1.100000 0.489000 0.547000 1200 54 1.000000 2.661000 2.730000 600 65 1.000000 0.055000 0.055000 1.200000 0.035000 0.042000
1518179146265367867	1100 61 1.100000 0.489000 0.547000 1200 53 1.000000 2.666000 2.732000 600 65 1.000000 0.055000 0.055000 1.200000 0.035000 0.042000
1518179146817370909	1100 61 1.100000 0.489000 0.547000 1200 53 1.000000 2.661000 2.730000 600 65 1.000000 0.055000 0.055000 1.200000 0.035000 0.042000
1518179147377349409	1100 61 1.100000 0.489000 0.547000 1200 54 1.000000 2.670000 2.736000 600 65 1.000000 0.055000 0.055000 1.200000 0.035000 0.042000
1518179147925370034	1100 61 1.100000 0.489000 0.547000 1200 54 1.000000 2.663000 2.729000 600 65 1.000000 0.055000 0.055000 1.200000 0.036000 0.043000
1518179148469371826	1100 61 1.100000 0.489000 0.547000 1200 54 1.000000 2.663000 2.729000 600 65 1.000000 0.055000 0.055000 1.200000 0.035000 0.042000
1518179149029356534	1100 61 1.100000 0.489000 0.547000 1200 54 1.000000 2.672000 2.738000 600 65 1.000000 0.055000 0.055000 1.200000 0.035000 0.042000
1518179149577380076	1100 61 1.100000 0.489000 0.547000 1200 54 1.000000 2.670000 2.736000 600 65 1.000000 0.055000 0.055000 1.200000 0.035000 0.042000
1518179150137360701	1100 61 1.100000 0.489000 0.547000 1200 54 1.000000 2.672000 2.738000 600 65 1.000000 0.055000 0.055000 1.200000 0.035000 0.042000
1518179150701392368	1100 61 1.100000 0.489000 0.547000 1200 54 1.000000 2.666000 2.735000 600 65 1.000000 0.055000 0.055000 1.200000 0.034000 0.041000
1518179151265338076	1100 61 1.100000 0.489000 0.547000 1200 54 1.000000 2.663000 2.729000 600 65 1.000000 0.055000 0.055000 1.200000 0.036000 0.043000
1518179151809368410	1100 61 1.100000 0.489000 0.547000 1200 54 1.000000 2.659000 2.725000 600 65 1.000000 0.055000 0.055000 1.200000 0.035000 0.042000
1518179152357357326	1100 61 1.100000 0.489000 0.547000 1200 53 1.000000 2.661000 2.727000 600 65 1.000000 0.055000 0.055000 1.200000 0.035000 0.042000
1518179152909355326	1100 61 1.100000 0.489000 0.547000 1200 54 1.000000 2.660000 2.726000 600 65 1.000000 0.055000 0.055000 1.200000 0.036000 0.043000
1518179153465376035	1100 61 1.100000 0.489000 0.547000 1200 54 1.000000 2.665000 2.731000 600 65 1.000000 0.055000 0.055000 1.200000 0.035000 0.042000
1518179154021332452	1100 61 1.100000 0.489000 0.547000 1200 54 1.000000 2.666000 2.732000 600 65 1.000000 0.055000 0.055000 1.200000 0.035000 0.042000
1518179154581394743	1100 61 1.100000 0.489000 0.547000 1200 54 1.000000 2.671000 2.740000 600 65 1.000000 0.055000 0.055000 1.200000 0.035000 0.042000
1518179155141350327	1100 61 1.100000 0.489000 0.547000 1200 54 1.000000 2.674000 2.740000 600 65 1.000000 0.055000 0.055000 1.200000 0.035000 0.042000
1518179155701398202	1100 61 1.100000 0.489000 0.547000 1200 54 1.000000 2.686000 2.755000 600 65 1.000000 0.055000 0.055000 1.200000 0.035000 0.042000
1518179156257405160	1100 61 1.100000 0.489000 0.547000 1200 54 1.000000 2.698000 2.768000 600 66 1.000000 0.055000 0.055000 1.200000 0.035000 0.042000
1518179156821367785	1100 61 1.100000 0.489000 0.547000 1200 54 1.000000 2.698000 2.768000 600 66 1.000000 0.055000 0.055000 1.200000 0.034000 0.041000
1518179157385338660	1100 61 1.100000 0.489000 0.547000 1200 54 1.000000 2.696000 2.763000 600 66 1.000000 0.055000 0.055000 1.200000 0.035000 0.042000
1518179157945369077	1100 61 1.100000 0.489000 0.547000 1200 54 1.000000 2.695000 2.765000 600 66 1.000000 0.055000 0.055000 1.200000 0.035000 0.042000
1518179158497391660	1100 61 1.100000 0.489000 0.547000 1200 54 1.000000 2.692000 2.761000 600 66 1.000000 0.055000 0.055000 1.200000 0.035000 0.042000
1518179159049396036	1100 61 1.100000 0.490000 0.548000 1200 54 1.000000 2.697000 2.767000 600 66 1.000000 0.055000 0.055000 1.200000 0.035000 0.042000
1518179159589374827	1100 61 1.100000 0.490000 0.548000 1200 54 1.000000 2.697000 2.764000 600 66 1.000000 0.055000 0.055000 1.200000 0.035000 0.042000
1518179160129355161	1100 61 1.100000 0.490000 0.548000 1200 54 1.000000 2.697000 2.767000 600 66 1.000000 0.055000 0.055000 1.200000 0.035000 0.042000
1518179160673400827	1100 61 1.100000 0.490000 0.548000 1200 54 1.000000 2.698000 2.768000 600 66 1.000000 0.055000 0.055000 1.200000 0.036000 0.043000
1518179161225358119	1100 61 1.100000 0.490000 0.548000 1200 54 1.000000 2.698000 2.768000 600 66 1.000000 0.055000 0.055000 1.200000 0.035000 0.042000
1518179161773378453	1100 61 1.100000 0.490000 0.548000 1200 54 1.000000 2.699000 2.769000 600 66 1.000000 0.055000 0.055000 1.200000 0.035000 0.042000
1518179162345382703	1100 61 1.100000 0.490000 0.548000 1200 54 1.000000 2.698000 2.768000 600 66 1.000000 0.055000 0.055000 1.200000 0.034000 0.041000
1518179162901365786	1100 61 1.100000 0.490000 0.548000 1200 54 1.000000 2.690000 2.759000 600 66 1.000000 0.055000 0.055000 1.200000 0.035000 0.042000
1518179163461339244	1100 61 1.100000 0.490000 0.548000 1200 54 1.000000 2.690000 2.757000 600 66 1.000000 0.055000 0.055000 1.200000 0.035000 0.042000
1518179164013345619	1100 61 1.100000 0.490000 0.548000 1200 54 1.000000 2.690000 2.757000 600 66 1.000000 0.055000 0.055000 1.200000 0.035000 0.042000
1518179164561346203	1100 61 1.100000 0.490000 0.548000 1200 54 1.000000 2.653000 2.719000 600 65 1.000000 0.055000 0.055000 1.200000 0.036000 0.043000
1518179165117402495	1100 61 1.100000 0.490000 0.548000 1200 54 1.000000 2.652000 2.718000 600 65 1.000000 0.055000 0.055000 1.200000 0.035000 0.042000
1518179165657384745	1100 61 1.100000 0.490000 0.548000 1200 54 1.000000 2.657000 2.726000 600 65 1.000000 0.055000 0.055000 1.200000 0.035000 0.042000
1518179166221324370	1100 61 1.100000 0.490000 0.548000 1200 54 1.000000 2.655000 2.721000 600 65 1.000000 0.055000 0.055000 1.200000 0.035000 0.042000
1518179166777364703	1100 61 1.100000 0.490000 0.548000 1200 54 1.000000 2.655000 2.724000 600 65 1.000000 0.055000 0.055000 1.200000 0.035000 0.042000
1518179167333360787	1100 61 1.100000 0.490000 0.548000 1200 54 1.000000 2.655000 2.721000 600 65 1.000000 0.055000 0.055000 1.200000 0.035000 0.042000
1518179167889358578	1100 61 1.100000 0.490000 0.548000 1200 54 1.000000 2.655000 2.724000 600 65 1.000000 0.055000 0.055000 1.200000 0.035000 0.042000
1518179168437401828	1100 61 1.100000 0.490000 0.548000 1200 54 1.000000 2.657000 2.726000 600 65 1.000000 0.055000 0.055000 1.200000 0.035000 0.042000
1518179168997383662	1100 61 1.100000 0.490000 0.548000 1200 54 1.000000 2.653000 2.719000 600 65 1.000000 0.055000 0.055000 1.200000 0.035000 0.042000
1518179169553384495	1100 61 1.100000 0.490000 0.548000 1200 54 1.000000 2.652000 2.718000 600 65 1.000000 0.055000 0.055000 1.200000 0.035000 0.042000
1518179170105368829	1100 61 1.100000 0.490000 0.548000 1200 54 1.000000 2.644000 2.712000 600 65 1.000000 0.055000 0.055000 1.200000 0.036000 0.043000
1518179170665337537	1100 61 1.100000 0.490000 0.548000 1200 54 1.000000 2.656000 2.725000 600 65 1.000000 0.055000 0.055000 1.200000 0.036000 0.043000
1518179171217395495	1100 61 1.100000 0.490000 0.548000 1200 54 1.000000 2.656000 2.725000 600 65 1.000000 0.055000 0.055000 1.200000 0.035000 0.042000
1518179171777376245	1100 61 1.100000 0.490000 0.548000 1200 54 1.000000 2.655000 2.721000 600 65 1.000000 0.055000 0.055000 1.200000 0.036000 0.043000
1518179172333405162	1100 61 1.100000 0.490000 0.548000 1200 54 1.000000 2.656000 2.722000 600 65 1.000000 0.055000 0.055000 1.200000 0.035000 0.042000
1518179172881371287	1100 61 1.100000 0.490000 0.548000 1200 54 1.000000 2.668000 2.737000 600 66 1.000000 0.055000 0.055000 1.200000 0.036000 0.043000
1518179173433427829	1100 61 1.100000 0.490000 0.548000 1200 54 1.000000 2.668000 2.737000 600 65 1.000000 0.055000 0.055000 1.200000 0.035000 0.042000
1518179174001363912	1100 61 1.100000 0.490000 0.548000 1200 54 1.000000 2.667000 2.736000 600 65 1.000000 0.055000 0.055000 1.200000 0.036000 0.043000
1518179174565383829	1100 61 1.100000 0.490000 0.548000 1200 54 1.000000 2.664000 2.733000 600 65 1.000000 0.055000 0.055000 1.200000 0.035000 0.042000
1518179175113364496	1100 61 1.100000 0.490000 0.548000 1200 54 1.000000 2.665000 2.734000 600 65 1.000000 0.055000 0.055000 1.200000 0.035000 0.042000
1518179175665403454	1100 61 1.100000 0.490000 0.548000 1200 54 1.000000 2.658000 2.727000 600 66 1.000000 0.055000 0.055000 1.200000 0.035000 0.042000
1518179176221354704	1100 61 1.100000 0.490000 0.548000 1200 54 1.000000 2.658000 2.727000 600 66 1.000000 0.055000 0.055000 1.200000 0.035000 0.042000
1518179176785373538	1100 61 1.100000 0.490000 0.548000 1200 54 1.000000 2.659000 2.728000 600 66 1.000000 0.055000 0.055000 1.200000 0.035000 0.042000
1518179177337378038	1100 61 1.100000 0.490000 0.548000 1200 54 1.000000 2.657000 2.723000 600 65 1.000000 0.055000 0.055000 1.200000 0.036000 0.043000
1518179177881340954	1100 61 1.100000 0.490000 0.548000 1200 54 1.000000 2.658000 2.724000 600 65 1.000000 0.055000 0.055000 1.200000 0.035000 0.042000
1518179178433392788	1100 61 1.100000 0.489000 0.547000 1200 54 1.000000 2.657000 2.723000 600 65 1.000000 0.055000 0.055000 1.200000 0.035000 0.042000
1518179178997374246	1100 61 1.100000 0.489000 0.547000 1200 54 1.000000 2.658000 2.724000 600 66 1.000000 0.055000 0.055000 1.200000 0.034000 0.041000
1518179179561318830	1100 61 1.100000 0.489000 0.547000 1200 54 1.000000 2.663000 2.729000 600 65 1.000000 0.055000 0.055000 1.200000 0.034000 0.041000
1518179180109368288	1100 61 1.100000 0.489000 0.547000 1200 54 1.000000 2.663000 2.729000 600 66 1.000000 0.055000 0.055000 1.200000 0.035000 0.042000
1518179180669358913	1100 61 1.100000 0.489000 0.547000 1200 54 1.000000 2.661000 2.727000 600 66 1.000000 0.055000 0.055000 1.200000 0.035000 0.042000
1518179181229369830	1100 61 1.100000 0.489000 0.547000 1200 54 1.000000 2.660000 2.726000 600 66 1.000000 0.055000 0.055000 1.200000 0.035000 0.042000
1518179181793367622	1100 61 1.100000 0.489000 0.547000 1200 54 1.000000 2.685000 2.754000 600 66 1.000000 0.055000 0.055000 1.200000 0.034000 0.041000
1518179182349411455	1100 61 1.100000 0.488000 0.546000 1200 54 1.000000 2.687000 2.754000 600 66 1.000000 0.055000 0.055000 1.200000 0.034000 0.041000
1518179182905383372	1100 61 1.100000 0.489000 0.547000 1200 54 1.000000 2.683000 2.750000 600 66 1.000000 0.055000 0.055000 1.200000 0.035000 0.042000
1518179183453375788	1100 61 1.100000 0.489000 0.547000 1200 54 1.000000 2.684000 2.751000 600 66 1.000000 0.055000 0.055000 1.200000 0.035000 0.042000
1518179184009352455	1100 61 1.100000 0.489000 0.547000 1200 54 1.000000 2.684000 2.751000 600 66 1.000000 0.055000 0.055000 1.200000 0.035000 0.042000
1518179184561343705	1100 61 1.100000 0.489000 0.547000 1200 54 1.000000 2.682000 2.749000 600 66 1.000000 0.055000 0.055000 1.200000 0.035000 0.042000
1518179185121392372	1100 61 1.100000 0.489000 0.547000 1200 54 1.000000 2.682000 2.749000 600 66 1.000000 0.055000 0.055000 1.200000 0.035000 0.042000
1518179185681412205	1100 61 1.100000 0.489000 0.547000 1200 54 1.000000 2.681000 2.748000 600 66 1.000000 0.055000 0.055000 1.200000 0.035000 0.042000
1518179186233371580	1100 61 1.100000 0.489000 0.547000 1200 54 1.000000 2.692000 2.759000 600 66 1.000000 0.055000 0.055000 1.200000 0.034000 0.041000
1518179186789378872	1100 61 1.100000 0.489000 0.547000 1200 54 1.000000 2.692000 2.759000 600 66 1.000000 0.055000 0.055000 1.200000 0.035000 0.042000
1518179187333394997	1100 61 1.100000 0.489000 0.547000 1200 54 1.000000 2.692000 2.759000 600 66 1.000000 0.055000 0.055000 1.200000 0.035000 0.042000
1518179187885394747	1100 61 1.100000 0.489000 0.547000 1200 54 1.000000 2.682000 2.749000 600 66 1.000000 0.055000 0.055000 1.200000 0.034000 0.041000
1518179188429350039	1100 61 1.100000 0.489000 0.547000 1200 54 1.000000 2.687000 2.754000 600 66 1.000000 0.055000 0.055000 1.200000 0.035000 0.042000
1518179188981384247	1100 61 1.100000 0.489000 0.547000 1200 54 1.000000 2.679000 2.745000 600 66 1.000000 0.055000 0.055000 1.200000 0.035000 0.042000
1518179189525387998	1100 61 1.100000 0.489000 0.547000 1200 54 1.000000 2.691000 2.760000 600 66 1.000000 0.055000 0.055000 1.200000 0.035000 0.042000
1518179190089391414	1100 61 1.100000 0.489000 0.547000 1200 54 1.000000 2.685000 2.752000 600 66 1.000000 0.055000 0.055000 1.200000 0.035000 0.042000
1518179190653355373	1100 61 1.100000 0.489000 0.547000 1200 54 1.000000 2.671000 2.737000 600 66 1.000000 0.055000 0.055000 1.200000 0.035000 0.042000
1518179191217400289	1100 61 1.100000 0.489000 0.547000 1200 54 1.000000 2.670000 2.739000 600 66 1.000000 0.055000 0.055000 1.200000 0.035000 0.042000
1518179191773397706	1100 61 1.100000 0.489000 0.547000 1200 54 1.000000 2.685000 2.752000 600 66 1.000000 0.055000 0.055000 1.200000 0.034000 0.041000
1518179192333376331	1100 61 1.100000 0.490000 0.548000 1200 54 1.000000 2.685000 2.754000 600 66 1.000000 0.055000 0.055000 1.200000 0.035000 0.042000
1518179192893390581	1100 61 1.100000 0.489000 0.547000 1200 54 1.000000 2.685000 2.754000 600 66 1.000000 0.055000 0.055000 1.200000 0.034000 0.041000
1518179193453383831	1100 61 1.100000 0.489000 0.547000 1200 54 1.000000 2.679000 2.745000 600 66 1.000000 0.055000 0.055000 1.200000 0.034000 0.041000
1518179193993424248	1100 61 1.100000 0.489000 0.547000 1200 54 1.000000 2.680000 2.747000 600 66 1.000000 0.055000 0.055000 1.200000 0.034000 0.041000
1518179194545396206	1100 61 1.100000 0.489000 0.547000 1200 54 1.000000 2.677000 2.743000 600 66 1.000000 0.055000 0.055000 1.200000 0.034000 0.041000
1518179195109401748	1100 61 1.100000 0.489000 0.547000 1200 54 1.000000 2.673000 2.742000 600 66 1.000000 0.055000 0.055000 1.200000 0.034000 0.041000
1518179195653900623	1100 61 1.100000 0.489000 0.547000 1200 54 1.000000 2.672000 2.741000 600 66 1.000000 0.055000 0.055000 1.200000 0.035000 0.042000
1518179196209368332	1100 61 1.100000 0.489000 0.547000 1200 54 1.000000 2.675000 2.741000 600 66 1.000000 0.055000 0.055000 1.200000 0.035000 0.042000
1518179196765409957	1100 61 1.100000 0.490000 0.548000 1200 54 1.000000 2.686000 2.753000 600 66 1.000000 0.055000 0.055000 1.200000 0.034000 0.041000
1518179197321390207	1100 61 1.100000 0.491000 0.549000 1200 54 1.000000 2.685000 2.752000 600 66 1.000000 0.055000 0.055000 1.200000 0.033000 0.039000
1518179197877355915	1100 61 1.100000 0.491000 0.549000 1200 54 1.000000 2.685000 2.752000 600 66 1.000000 0.055000 0.055000 1.200000 0.033000 0.039000
1518179198441326332	1100 61 1.100000 0.490000 0.548000 1200 54 1.000000 2.665000 2.731000 600 66 1.000000 0.055000 0.055000 1.200000 0.033000 0.039000
1518179199001368957	1100 61 1.100000 0.490000 0.548000 1200 54 1.000000 2.661000 2.727000 600 66 1.000000 0.055000 0.055000 1.200000 0.033000 0.039000
1518179199565386040	1100 61 1.100000 0.490000 0.548000 1200 54 1.000000 2.662000 2.731000 600 66 1.000000 0.055000 0.055000 1.200000 0.033000 0.039000
1518179200121391790	1100 61 1.100000 0.490000 0.548000 1200 54 1.000000 2.671000 2.737000 600 66 1.000000 0.055000 0.055000 1.200000 0.034000 0.041000
1518179200665383666	1100 61 1.100000 0.490000 0.548000 1200 54 1.000000 2.660000 2.726000 600 66 1.000000 0.056000 0.056000 1.200000 0.033000 0.039000
1518179201229360916	1100 61 1.100000 0.490000 0.548000 1200 54 1.000000 2.664000 2.730000 600 66 1.000000 0.055000 0.055000 1.200000 0.033000 0.039000
1518179201773309541	1100 61 1.100000 0.491000 0.549000 1200 54 1.000000 2.672000 2.738000 600 66 1.000000 0.055000 0.055000 1.200000 0.033000 0.039000
1518179202333374416	1100 61 1.100000 0.490000 0.548000 1200 54 1.000000 2.672000 2.738000 600 66 1.000000 0.055000 0.055000 1.200000 0.033000 0.039000
1518179202889361957	1100 61 1.100000 0.491000 0.549000 1200 54 1.000000 2.672000 2.738000 600 66 1.000000 0.055000 0.055000 1.200000 0.033000 0.039000
1518179203453390041	1100 61 1.100000 0.491000 0.549000 1200 54 1.000000 2.674000 2.740000 600 66 1.000000 0.055000 0.055000 1.200000 0.033000 0.039000
1518179204001358249	1100 61 1.100000 0.491000 0.549000 1200 54 1.000000 2.673000 2.739000 600 66 1.000000 0.055000 0.055000 1.200000 0.033000 0.039000
1518179204561375916	1100 61 1.100000 0.491000 0.549000 1200 54 1.000000 2.672000 2.738000 600 66 1.000000 0.055000 0.055000 1.200000 0.033000 0.039000
1518179205125361083	1100 61 1.100000 0.490000 0.548000 1200 54 1.000000 2.673000 2.742000 600 66 1.000000 0.055000 0.055000 1.200000 0.033000 0.039000
1518179205685439124	1100 61 1.100000 0.491000 0.549000 1200 54 1.000000 2.665000 2.731000 600 66 1.000000 0.055000 0.055000 1.200000 0.033000 0.039000
1518179206253345291	1100 61 1.100000 0.490000 0.548000 1200 54 1.000000 2.666000 2.732000 600 66 1.000000 0.055000 0.055000 1.200000 0.033000 0.039000
1518179206813381541	1100 61 1.100000 0.491000 0.549000 1200 54 1.000000 2.689000 2.758000 600 65 1.000000 0.055000 0.055000 1.200000 0.033000 0.039000
1518179207361351583	1100 61 1.100000 0.491000 0.549000 1200 54 1.000000 2.694000 2.761000 600 66 1.000000 0.055000 0.055000 1.200000 0.033000 0.039000
1518179207917400791	1100 61 1.100000 0.490000 0.548000 1200 54 1.000000 2.695000 2.762000 600 66 1.000000 0.055000 0.055000 1.200000 0.033000 0.039000
1518179208469382083	1100 61 1.100000 0.491000 0.549000 1200 54 1.000000 2.688000 2.755000 600 66 1.000000 0.055000 0.055000 1.200000 0.033000 0.039000
1518179209033350667	1100 61 1.100000 0.490000 0.548000 1200 54 1.000000 2.686000 2.753000 600 66 1.000000 0.055000 0.055000 1.200000 0.033000 0.039000
1518179209589352542	1100 61 1.100000 0.491000 0.549000 1200 54 1.000000 2.687000 2.754000 600 66 1.000000 0.055000 0.055000 1.200000 0.034000 0.041000
1518179210149377125	1100 61 1.100000 0.491000 0.549000 1200 54 1.000000 2.678000 2.744000 600 66 1.000000 0.055000 0.055000 1.200000 0.034000 0.041000
1518179210713322000	1100 61 1.100000 0.490000 0.548000 1200 54 1.000000 2.684000 2.751000 600 66 1.000000 0.055000 0.055000 1.200000 0.033000 0.039000
1518179211261436708	1100 61 1.100000 0.490000 0.548000 1200 54 1.000000 2.687000 2.754000 600 66 1.000000 0.056000 0.056000 1.200000 0.033000 0.039000
1518179211809403375	1100 61 1.100000 0.490000 0.548000 1200 54 1.000000 2.686000 2.755000 600 66 1.000000 0.055000 0.055000 1.200000 0.033000 0.039000
1518179212361371625	1100 61 1.100000 0.491000 0.549000 1200 54 1.000000 2.682000 2.751000 600 66 1.000000 0.055000 0.055000 1.200000 0.033000 0.039000
1518179212913391167	1100 61 1.100000 0.490000 0.548000 1200 54 1.000000 2.687000 2.754000 600 66 1.000000 0.055000 0.055000 1.200000 0.033000 0.039000
1518179213469382417	1100 61 1.100000 0.491000 0.549000 1200 54 1.000000 2.679000 2.745000 600 66 1.000000 0.055000 0.055000 1.200000 0.034000 0.041000
1518179214021395750	1100 61 1.100000 0.491000 0.549000 1200 54 1.000000 2.676000 2.742000 600 66 1.000000 0.055000 0.055000 1.200000 0.033000 0.039000
1518179214569401834	1100 61 1.100000 0.490000 0.548000 1200 54 1.000000 2.684000 2.751000 600 66 1.000000 0.055000 0.055000 1.200000 0.033000 0.039000
1518179215125360917	1100 61 1.100000 0.491000 0.549000 1200 54 1.000000 2.682000 2.751000 600 66 1.000000 0.055000 0.055000 1.200000 0.033000 0.039000
1518179215685402209	1100 61 1.100000 0.489000 0.547000 1200 54 1.000000 2.681000 2.748000 600 66 1.000000 0.055000 0.055000 1.200000 0.034000 0.041000
1518179216241388334	1100 61 1.100000 0.489000 0.547000 1200 54 1.000000 2.697000 2.767000 600 66 1.000000 0.055000 0.055000 1.200000 0.033000 0.039000
1518179216813372834	1100 61 1.100000 0.489000 0.547000 1200 54 1.000000 2.692000 2.759000 600 66 1.000000 0.055000 0.055000 1.200000 0.033000 0.039000
1518179217369413584	1100 61 1.100000 0.489000 0.547000 1200 54 1.000000 2.699000 2.766000 600 66 1.000000 0.055000 0.055000 1.200000 0.032000 0.038000
1518179217929404084	1100 61 1.100000 0.489000 0.547000 1200 54 1.000000 2.691000 2.758000 600 66 1.000000 0.055000 0.055000 1.200000 0.032000 0.038000
1518179218489393084	1100 61 1.100000 0.489000 0.547000 1200 54 1.000000 2.689000 2.758000 600 66 1.000000 0.055000 0.055000 1.200000 0.033000 0.039000
1518179219037346459	1100 61 1.100000 0.489000 0.547000 1200 54 1.000000 2.697000 2.767000 600 66 1.000000 0.055000 0.055000 1.200000 0.033000 0.039000
1518179219593406168	1100 61 1.100000 0.489000 0.547000 1200 54 1.000000 2.697000 2.767000 600 66 1.000000 0.055000 0.055000 1.200000 0.033000 0.039000
1518179220137401626	1100 61 1.100000 0.489000 0.547000 1200 54 1.000000 2.686000 2.755000 600 66 1.000000 0.055000 0.055000 1.200000 0.033000 0.039000
1518179220689385043	1100 61 1.100000 0.489000 0.547000 1200 54 1.000000 2.691000 2.760000 600 66 1.000000 0.055000 0.055000 1.200000 0.033000 0.039000
1518179221253406626	1100 61 1.100000 0.489000 0.547000 1200 54 1.000000 2.692000 2.761000 600 66 1.000000 0.055000 0.055000 1.200000 0.033000 0.039000
1518179221817432835	1100 60 1.100000 0.489000 0.547000 1200 54 1.000000 2.687000 2.756000 600 65 1.000000 0.055000 0.055000 1.200000 0.033000 0.039000
1518179222373372293	1100 61 1.100000 0.489000 0.547000 1200 54 1.000000 2.697000 2.767000 600 66 1.000000 0.055000 0.055000 1.200000 0.032000 0.038000
1518179222925410210	1100 61 1.100000 0.489000 0.547000 1200 54 1.000000 2.699000 2.769000 600 66 1.000000 0.055000 0.055000 1.200000 0.032000 0.038000
1518179223477415502	1100 61 1.100000 0.489000 0.547000 1200 54 1.000000 2.699000 2.766000 600 66 1.000000 0.055000 0.055000 1.200000 0.032000 0.038000
1518179224045388043	1100 61 1.100000 0.489000 0.547000 1200 54 1.000000 2.698000 2.765000 600 66 1.000000 0.055000 0.055000 1.200000 0.033000 0.039000
1518179224609404793	1100 61 1.100000 0.489000 0.547000 1200 54 1.000000 2.673000 2.739000 600 66 1.000000 0.055000 0.055000 1.200000 0.033000 0.039000
1518179225161457585	1100 61 1.100000 0.489000 0.547000 1200 54 1.000000 2.666000 2.732000 600 66 1.000000 0.055000 0.055000 1.200000 0.033000 0.039000
1518179225713404960	1100 61 1.100000 0.483000 0.540000 1200 54 1.000000 2.670000 2.736000 600 66 1.000000 0.055000 0.055000 1.200000 0.033000 0.039000
1518179226273341960	1100 61 1.100000 0.489000 0.547000 1200 54 1.000000 2.671000 2.737000 600 65 1.000000 0.055000 0.055000 1.200000 0.033000 0.039000
1518179226833364669	1100 61 1.100000 0.489000 0.547000 1200 54 1.000000 2.662000 2.728000 600 66 1.000000 0.055000 0.055000 1.200000 0.032000 0.038000
1518179227385386710	1100 61 1.100000 0.489000 0.547000 1200 54 1.000000 2.675000 2.741000 600 66 1.000000 0.055000 0.055000 1.200000 0.032000 0.038000
1518179227937379252	1100 61 1.100000 0.489000 0.547000 1200 54 1.000000 2.676000 2.742000 600 66 1.000000 0.055000 0.055000 1.200000 0.033000 0.039000
1518179228509335585	1100 61 1.100000 0.489000 0.547000 1200 54 1.000000 2.676000 2.742000 600 66 1.000000 0.055000 0.055000 1.200000 0.032000 0.038000
1518179229073391627	1100 61 1.100000 0.489000 0.547000 1200 54 1.000000 2.675000 2.741000 600 66 1.000000 0.055000 0.055000 1.200000 0.033000 0.039000
1518179229617386711	1100 61 1.100000 0.489000 0.547000 1200 54 1.000000 2.675000 2.741000 600 66 1.000000 0.055000 0.055000 1.200000 0.033000 0.039000
1518179230169376002	1100 61 1.100000 0.489000 0.547000 1200 54 1.000000 2.668000 2.734000 600 66 1.000000 0.055000 0.055000 1.200000 0.033000 0.039000
1518179230737375627	1100 61 1.100000 0.488000 0.546000 1200 54 1.000000 2.671000 2.737000 600 66 1.000000 0.055000 0.055000 1.200000 0.033000 0.039000
1518179231289350961	1100 61 1.100000 0.489000 0.547000 1200 54 1.000000 2.668000 2.734000 600 66 1.000000 0.055000 0.055000 1.200000 0.033000 0.039000
1518179231849469128	1100 61 1.100000 0.489000 0.547000 1200 54 1.000000 2.662000 2.728000 600 66 1.000000 0.055000 0.055000 1.200000 0.033000 0.039000
1518179232409380253	1100 61 1.100000 0.489000 0.548000 1200 54 1.000000 2.676000 2.742000 600 66 1.000000 0.055000 0.055000 1.200000 0.032000 0.038000
1518179232961365961	1100 61 1.100000 0.489000 0.547000 1200 54 1.000000 2.670000 2.736000 600 66 1.000000 0.055000 0.055000 1.200000 0.033000 0.039000
1518179233533362503	1100 61 1.100000 0.489000 0.547000 1200 54 1.000000 2.665000 2.731000 600 66 1.000000 0.055000 0.055000 1.200000 0.032000 0.038000
1518179234097362544	1100 61 1.100000 0.489000 0.547000 1200 54 1.000000 2.664000 2.730000 600 66 1.000000 0.056000 0.056000 1.200000 0.032000 0.038000
1518179234649348753	1100 61 1.100000 0.489000 0.548000 1200 54 1.000000 2.660000 2.726000 600 66 1.000000 0.055000 0.055000 1.200000 0.033000 0.039000
1518179235197389003	1100 61 1.100000 0.490000 0.548000 1200 54 1.000000 2.659000 2.725000 600 66 1.000000 0.055000 0.055000 1.200000 0.034000 0.041000
1518179235749373128	1100 61 1.100000 0.490000 0.548000 1200 54 1.000000 2.658000 2.724000 600 66 1.000000 0.055000 0.055000 1.200000 0.034000 0.041000
1518179236301354211	1100 61 1.100000 0.490000 0.548000 1200 54 1.000000 2.665000 2.731000 600 66 1.000000 0.055000 0.055000 1.200000 0.034000 0.041000
1518179236853566586	1100 61 1.100000 0.489000 0.547000 1200 54 1.000000 2.661000 2.727000 600 66 1.000000 0.055000 0.055000 1.200000 0.033000 0.039000
1518179237401397503	1100 61 1.100000 0.490000 0.548000 1200 54 1.000000 2.665000 2.731000 600 66 1.000000 0.055000 0.055000 1.200000 0.034000 0.041000
1518179237953382670	1100 61 1.100000 0.489000 0.547000 1200 54 1.000000 2.666000 2.732000 600 66 1.000000 0.055000 0.055000 1.200000 0.034000 0.041000
1518179238509361003	1100 61 1.100000 0.490000 0.548000 1200 54 1.000000 2.667000 2.733000 600 66 1.000000 0.055000 0.055000 1.200000 0.034000 0.041000
1518179239053397420	1100 61 1.100000 0.490000 0.548000 1200 54 1.000000 2.667000 2.736000 600 66 1.000000 0.055000 0.055000 1.200000 0.034000 0.041000
1518179239605383295	1100 61 1.100000 0.489000 0.547000 1200 54 1.000000 2.666000 2.732000 600 66 1.000000 0.055000 0.055000 1.200000 0.034000 0.041000
1518179240153363295	1100 61 1.100000 0.490000 0.548000 1200 54 1.000000 2.666000 2.732000 600 65 1.000000 0.055000 0.055000 1.200000 0.034000 0.041000
1518179240705364420	1100 61 1.100000 0.489000 0.547000 1200 54 1.000000 2.667000 2.733000 600 66 1.000000 0.055000 0.055000 1.200000 0.034000 0.041000
1518179241253379712	1100 61 1.100000 0.489000 0.547000 1200 54 1.000000 2.667000 2.733000 600 66 1.000000 0.055000 0.055000 1.200000 0.034000 0.041000
1518179241813346754	1100 61 1.100000 0.490000 0.548000 1200 54 1.000000 2.658000 2.724000 600 66 1.000000 0.055000 0.055000 1.200000 0.034000 0.041000
1518179242361333129	1100 61 1.100000 0.490000 0.548000 1200 54 1.000000 2.656000 2.722000 600 66 1.000000 0.055000 0.055000 1.200000 0.034000 0.041000
1518179242913345546	1100 61 1.100000 0.490000 0.548000 1200 54 1.000000 2.673000 2.739000 600 65 1.000000 0.055000 0.055000 1.200000 0.034000 0.041000
1518179243473335671	1100 61 1.100000 0.490000 0.548000 1200 54 1.000000 2.679000 2.745000 600 66 1.000000 0.055000 0.055000 1.200000 0.033000 0.039000
1518179244029361796	1100 61 1.100000 0.490000 0.548000 1200 54 1.000000 2.678000 2.744000 600 66 1.000000 0.055000 0.055000 1.200000 0.034000 0.041000
1518179244581383796	1100 61 1.100000 0.489000 0.547000 1200 54 1.000000 2.678000 2.744000 600 66 1.000000 0.055000 0.055000 1.200000 0.034000 0.041000
1518179245137379046	1100 61 1.100000 0.489000 0.547000 1200 54 1.000000 2.671000 2.737000 600 66 1.000000 0.055000 0.055000 1.200000 0.034000 0.041000
1518179245705369296	1100 61 1.100000 0.489000 0.547000 1200 54 1.000000 2.674000 2.740000 600 66 1.000000 0.055000 0.055000 1.200000 0.034000 0.041000
1518179246261389754	1100 61 1.100000 0.489000 0.547000 1200 54 1.000000 2.673000 2.739000 600 66 1.000000 0.055000 0.055000 1.200000 0.034000 0.041000
1518179246813436879	1100 61 1.100000 0.490000 0.548000 1200 54 1.000000 2.663000 2.729000 600 66 1.000000 0.055000 0.055000 1.200000 0.034000 0.041000
1518179247364038671	1100 61 1.100000 0.490000 0.548000 1200 54 1.000000 2.676000 2.742000 600 66 1.000000 0.055000 0.055000 1.200000 0.034000 0.041000
1518179247925335171	1100 61 1.100000 0.489000 0.547000 1200 54 1.000000 2.679000 2.745000 600 66 1.000000 0.055000 0.055000 1.200000 0.034000 0.041000
1518179248497367171	1100 61 1.100000 0.490000 0.548000 1200 54 1.000000 2.675000 2.741000 600 65 1.000000 0.055000 0.055000 1.200000 0.034000 0.041000
1518179249057375921	1100 61 1.100000 0.490000 0.548000 1200 54 1.000000 2.675000 2.741000 600 66 1.000000 0.055000 0.055000 1.200000 0.034000 0.041000
1518179249617364255	1100 61 1.100000 0.489000 0.547000 1200 54 1.000000 2.678000 2.744000 600 66 1.000000 0.055000 0.055000 1.200000 0.034000 0.041000
1518179250177380796	1100 61 1.100000 0.489000 0.547000 1200 54 1.000000 2.677000 2.743000 600 66 1.000000 0.055000 0.055000 1.200000 0.034000 0.041000
1518179250737347880	1100 61 1.100000 0.490000 0.548000 1200 54 1.000000 2.690000 2.757000 600 66 1.000000 0.055000 0.055000 1.200000 0.034000 0.041000
1518179251301386463	1100 61 1.100000 0.490000 0.548000 1200 54 1.000000 2.686000 2.753000 600 66 1.000000 0.055000 0.055000 1.200000 0.034000 0.041000
1518179251861402672	1100 61 1.100000 0.490000 0.548000 1200 54 1.000000 2.686000 2.753000 600 66 1.000000 0.055000 0.055000 1.200000 0.034000 0.041000
1518179252401391463	1100 61 1.100000 0.490000 0.548000 1200 54 1.000000 2.676000 2.742000 600 66 1.000000 0.055000 0.055000 1.200000 0.033000 0.039000
1518179252953394547	1100 61 1.100000 0.490000 0.548000 1200 54 1.000000 2.686000 2.753000 600 66 1.000000 0.055000 0.055000 1.200000 0.034000 0.041000
1518179253513369963	1100 61 1.100000 0.491000 0.549000 1200 54 1.000000 2.687000 2.754000 600 66 1.000000 0.055000 0.055000 1.200000 0.031000 0.037000
1518179254057367464	1100 61 1.100000 0.490000 0.548000 1200 54 1.000000 2.688000 2.755000 600 66 1.000000 0.055000 0.055000 1.200000 0.030000 0.036000
1518179254609346255	1100 61 1.100000 0.491000 0.549000 1200 54 1.000000 2.681000 2.748000 600 66 1.000000 0.055000 0.055000 1.200000 0.030000 0.036000
1518179255157354047	1100 61 1.100000 0.491000 0.549000 1200 54 1.000000 2.685000 2.752000 600 66 1.000000 0.055000 0.055000 1.200000 0.030000 0.036000
1518179255713339922	1100 61 1.100000 0.490000 0.548000 1200 54 1.000000 2.681000 2.750000 600 66 1.000000 0.055000 0.055000 1.200000 0.030000 0.036000
1518179256269398380	1100 61 1.100000 0.491000 0.549000 1200 54 1.000000 2.678000 2.744000 600 66 1.000000 0.055000 0.055000 1.200000 0.030000 0.036000
1518179256821362589	1100 61 1.100000 0.490000 0.548000 1200 54 1.000000 2.681000 2.748000 600 66 1.000000 0.055000 0.055000 1.200000 0.030000 0.036000
1518179257377371297	1100 61 1.100000 0.490000 0.548000 1200 54 1.000000 2.683000 2.750000 600 66 1.000000 0.055000 0.055000 1.200000 0.030000 0.036000
1518179257937399881	1100 61 1.100000 0.490000 0.548000 1200 54 1.000000 2.678000 2.744000 600 66 1.000000 0.055000 0.055000 1.200000 0.030000 0.036000
1518179258485362256	1100 61 1.100000 0.490000 0.548000 1200 54 1.000000 2.672000 2.738000 600 66 1.000000 0.055000 0.055000 1.200000 0.030000 0.036000
1518179259029878672	1100 61 1.100000 0.490000 0.548000 1200 54 1.000000 2.675000 2.741000 600 66 1.000000 0.055000 0.055000 1.200000 0.029000 0.035000
1518179259585378256	1100 61 1.100000 0.491000 0.549000 1200 54 1.000000 2.677000 2.743000 600 66 1.000000 0.055000 0.055000 1.200000 0.029000 0.035000
1518179260153326964	1100 61 1.100000 0.490000 0.548000 1200 54 1.000000 2.685000 2.754000 600 66 1.000000 0.055000 0.055000 1.200000 0.029000 0.035000
1518179260705365048	1100 61 1.100000 0.490000 0.548000 1200 54 1.000000 2.682000 2.749000 600 66 1.000000 0.055000 0.055000 1.200000 0.030000 0.036000
1518179261265393756	1100 61 1.100000 0.491000 0.549000 1200 54 1.000000 2.683000 2.750000 600 66 1.000000 0.055000 0.055000 1.200000 0.030000 0.036000
1518179261813349589	1100 61 1.100000 0.490000 0.548000 1200 54 1.000000 2.677000 2.743000 600 66 1.000000 0.055000 0.055000 1.200000 0.030000 0.036000
1518179262373339006	1100 61 1.100000 0.490000 0.548000 1200 54 1.000000 2.671000 2.737000 600 66 1.000000 0.055000 0.055000 1.200000 0.030000 0.036000
1518179262925381548	1100 61 1.100000 0.490000 0.548000 1200 54 1.000000 2.673000 2.742000 600 66 1.000000 0.055000 0.055000 1.200000 0.030000 0.036000
1518179263465393506	1100 61 1.100000 0.490000 0.548000 1200 54 1.000000 2.671000 2.737000 600 66 1.000000 0.055000 0.055000 1.200000 0.030000 0.036000
1518179264009353548	1100 61 1.100000 0.490000 0.548000 1200 54 1.000000 2.682000 2.749000 600 66 1.000000 0.055000 0.055000 1.200000 0.030000 0.036000
1518179264565361590	1100 61 1.100000 0.491000 0.549000 1200 54 1.000000 2.677000 2.743000 600 66 1.000000 0.055000 0.055000 1.200000 0.030000 0.036000
1518179265125368882	1100 61 1.100000 0.491000 0.549000 1200 54 1.000000 2.686000 2.753000 600 66 1.000000 0.055000 0.055000 1.200000 0.029000 0.035000
1518179265681374340	1100 61 1.100000 0.491000 0.549000 1200 54 1.000000 2.687000 2.754000 600 66 1.000000 0.055000 0.055000 1.200000 0.030000 0.036000
1518179266225389923	1100 61 1.100000 0.490000 0.548000 1200 54 1.000000 2.684000 2.751000 600 66 1.000000 0.055000 0.055000 1.200000 0.029000 0.035000
1518179266785366215	1100 61 1.100000 0.490000 0.548000 1200 54 1.000000 2.685000 2.752000 600 66 1.000000 0.055000 0.055000 1.200000 0.030000 0.036000
1518179267333380715	1100 61 1.100000 0.490000 0.548000 1200 54 1.000000 2.697000 2.767000 600 66 1.000000 0.055000 0.055000 1.200000 0.030000 0.036000
1518179267905384340	1100 61 1.100000 0.490000 0.548000 1200 54 1.000000 2.696000 2.763000 600 66 1.000000 0.055000 0.055000 1.200000 0.030000 0.036000
1518179268465356215	1100 61 1.100000 0.490000 0.548000 1200 54 1.000000 2.676000 2.742000 600 66 1.000000 0.055000 0.055000 1.200000 0.030000 0.036000
1518179269029354340	1100 61 1.100000 0.490000 0.548000 1200 54 1.000000 2.676000 2.742000 600 66 1.000000 0.055000 0.055000 1.200000 0.030000 0.036000
1518179269589378549	1100 61 1.100000 0.490000 0.548000 1200 54 1.000000 2.685000 2.752000 600 66 1.000000 0.055000 0.055000 1.200000 0.030000 0.036000
1518179270149384507	1100 61 1.100000 0.491000 0.549000 1200 54 1.000000 2.685000 2.752000 600 66 1.000000 0.055000 0.055000 1.200000 0.029000 0.035000
1518179270717356341	1100 61 1.100000 0.490000 0.548000 1200 54 1.000000 2.684000 2.751000 600 66 1.000000 0.055000 0.055000 1.200000 0.029000 0.035000
1518179271277332299	1100 61 1.100000 0.490000 0.548000 1200 54 1.000000 2.684000 2.751000 600 66 1.000000 0.055000 0.055000 1.200000 0.029000 0.035000
1518179271817427382	1100 61 1.100000 0.490000 0.548000 1200 54 1.000000 2.684000 2.751000 600 66 1.000000 0.055000 0.055000 1.200000 0.029000 0.035000
1518179272377372924	1100 61 1.100000 0.491000 0.549000 1200 54 1.000000 2.685000 2.752000 600 66 1.000000 0.055000 0.055000 1.200000 0.033000 0.039000
1518179272933343966	1100 61 1.100000 0.491000 0.549000 1200 54 1.000000 2.678000 2.744000 600 66 1.000000 0.055000 0.055000 1.200000 0.034000 0.041000
1518179273485372591	1100 61 1.100000 0.491000 0.549000 1200 54 1.000000 2.680000 2.747000 600 66 1.000000 0.055000 0.055000 1.200000 0.033000 0.039000
1518179274045347508	1100 61 1.100000 0.491000 0.549000 1200 54 1.000000 2.677000 2.743000 600 66 1.000000 0.055000 0.055000 1.200000 0.034000 0.041000
1518179274593368049	1100 61 1.100000 0.491000 0.549000 1200 54 1.000000 2.686000 2.755000 600 66 1.000000 0.055000 0.055000 1.200000 0.033000 0.039000
1518179275153517758	1100 61 1.100000 0.491000 0.549000 1200 54 1.000000 2.686000 2.755000 600 66 1.000000 0.055000 0.055000 1.200000 0.033000 0.039000
1518179275701361591	1100 61 1.100000 0.491000 0.549000 1200 54 1.000000 2.699000 2.769000 600 66 1.000000 0.055000 0.055000 1.200000 0.033000 0.039000
1518179276261364008	1100 61 1.100000 0.491000 0.549000 1200 54 1.000000 2.686000 2.755000 600 66 1.000000 0.055000 0.055000 1.200000 0.033000 0.039000
1518179276817386050	1100 61 1.100000 0.491000 0.549000 1200 54 1.000000 2.683000 2.752000 600 66 1.000000 0.055000 0.055000 1.200000 0.033000 0.039000
1518179277377379550	1100 61 1.100000 0.491000 0.549000 1200 54 1.000000 2.681000 2.748000 600 66 1.000000 0.055000 0.055000 1.200000 0.034000 0.041000
1518179277937326091	1100 61 1.100000 0.491000 0.549000 1200 54 1.000000 2.683000 2.752000 600 66 1.000000 0.055000 0.055000 1.200000 0.033000 0.039000
1518179278505376883	1100 61 1.100000 0.491000 0.549000 1200 54 1.000000 2.682000 2.749000 600 66 1.000000 0.055000 0.055000 1.200000 0.033000 0.039000
1518179279065354217	1100 61 1.100000 0.491000 0.549000 1200 54 1.000000 2.676000 2.745000 600 66 1.000000 0.056000 0.056000 1.200000 0.034000 0.041000
1518179279629370550	1100 61 1.100000 0.491000 0.549000 1200 54 1.000000 2.682000 2.751000 600 66 1.000000 0.055000 0.055000 1.200000 0.033000 0.039000
1518179280189352633	1100 61 1.100000 0.491000 0.549000 1200 54 1.000000 2.682000 2.751000 600 66 1.000000 0.055000 0.055000 1.200000 0.033000 0.039000
1518179280733378925	1100 61 1.100000 0.491000 0.549000 1200 54 1.000000 2.677000 2.743000 600 66 1.000000 0.055000 0.055000 1.200000 0.033000 0.039000
1518179281281399258	1100 61 1.100000 0.491000 0.549000 1200 54 1.000000 2.675000 2.741000 600 66 1.000000 0.055000 0.055000 1.200000 0.033000 0.039000
1518179281829354634	1100 61 1.100000 0.491000 0.549000 1200 54 1.000000 2.671000 2.737000 600 66 1.000000 0.055000 0.055000 1.200000 0.033000 0.039000
1518179282385355675	1100 61 1.100000 0.491000 0.549000 1200 54 1.000000 2.671000 2.737000 600 66 1.000000 0.055000 0.055000 1.200000 0.033000 0.039000
1518179282945367300	1100 61 1.100000 0.491000 0.549000 1200 54 1.000000 2.678000 2.744000 600 66 1.000000 0.055000 0.055000 1.200000 0.033000 0.039000
1518179283497350884	1100 61 1.100000 0.491000 0.549000 1200 54 1.000000 2.672000 2.738000 600 66 1.000000 0.055000 0.055000 1.200000 0.033000 0.039000
1518179284065355050	1100 61 1.100000 0.491000 0.549000 1200 54 1.000000 2.681000 2.748000 600 66 1.000000 0.055000 0.055000 1.200000 0.033000 0.039000
1518179284613364759	1100 61 1.100000 0.491000 0.549000 1200 54 1.000000 2.671000 2.737000 600 66 1.000000 0.055000 0.055000 1.200000 0.033000 0.039000
1518179285161394176	1100 61 1.100000 0.491000 0.549000 1200 54 1.000000 2.659000 2.725000 600 66 1.000000 0.055000 0.055000 1.200000 0.034000 0.041000
1518179285713388217	1100 61 1.100000 0.491000 0.549000 1200 54 1.000000 2.654000 2.720000 600 66 1.000000 0.055000 0.055000 1.200000 0.034000 0.041000
1518179286265375509	1100 61 1.100000 0.491000 0.549000 1200 54 1.000000 2.649000 2.715000 600 66 1.000000 0.055000 0.055000 1.200000 0.034000 0.041000
1518179286817379926	1100 61 1.100000 0.491000 0.549000 1200 54 1.000000 2.648000 2.714000 600 65 1.000000 0.055000 0.055000 1.200000 0.033000 0.039000
1518179287373350384	1100 61 1.100000 0.491000 0.549000 1200 54 1.000000 2.649000 2.715000 600 66 1.000000 0.055000 0.055000 1.200000 0.034000 0.041000
1518179287933323884	1100 61 1.100000 0.491000 0.549000 1200 54 1.000000 2.651000 2.717000 600 65 1.000000 0.055000 0.055000 1.200000 0.034000 0.041000
1518179288485369718	1100 61 1.100000 0.491000 0.549000 1200 54 1.000000 2.657000 2.723000 600 66 1.000000 0.055000 0.055000 1.200000 0.033000 0.039000
1518179289049440134	1100 61 1.100000 0.491000 0.549000 1200 54 1.000000 2.658000 2.724000 600 65 1.000000 0.055000 0.055000 1.200000 0.033000 0.039000
1518179289617336718	1100 61 1.100000 0.491000 0.549000 1200 54 1.000000 2.656000 2.722000 600 65 1.000000 0.055000 0.055000 1.200000 0.034000 0.041000
1518179290165349343	1100 61 1.100000 0.491000 0.549000 1200 54 1.000000 2.658000 2.724000 600 65 1.000000 0.055000 0.055000 1.200000 0.034000 0.041000
1518179290717356301	1100 61 1.100000 0.491000 0.549000 1200 54 1.000000 2.658000 2.724000 600 65 1.000000 0.055000 0.055000 1.200000 0.033000 0.039000
1518179291281355968	1100 61 1.100000 0.490000 0.548000 1200 54 1.000000 2.653000 2.719000 600 65 1.000000 0.055000 0.055000 1.200000 0.034000 0.041000
1518179291841356760	1100 61 1.100000 0.490000 0.548000 1200 54 1.000000 2.648000 2.714000 600 65 1.000000 0.055000 0.055000 1.200000 0.033000 0.039000
1518179292389364926	1100 61 1.100000 0.490000 0.548000 1200 54 1.000000 2.654000 2.720000 600 65 1.000000 0.055000 0.055000 1.200000 0.034000 0.041000
1518179292941374260	1100 61 1.100000 0.490000 0.548000 1200 54 1.000000 2.651000 2.717000 600 65 1.000000 0.055000 0.055000 1.200000 0.034000 0.041000
1518179293493399968	1100 61 1.100000 0.490000 0.548000 1200 54 1.000000 2.645000 2.713000 600 65 1.000000 0.055000 0.055000 1.200000 0.033000 0.039000
1518179294061443885	1100 61 1.100000 0.490000 0.548000 1200 54 1.000000 2.659000 2.725000 600 66 1.000000 0.055000 0.055000 1.200000 0.034000 0.041000
1518179294609367010	1100 61 1.100000 0.490000 0.548000 1200 54 1.000000 2.663000 2.729000 600 66 1.000000 0.055000 0.055000 1.200000 0.034000 0.041000
1518179295161381468	1100 61 1.100000 0.490000 0.548000 1200 54 1.000000 2.667000 2.733000 600 66 1.000000 0.055000 0.055000 1.200000 0.034000 0.041000
1518179295717342719	1100 61 1.100000 0.490000 0.548000 1200 54 1.000000 2.676000 2.745000 600 66 1.000000 0.055000 0.055000 1.200000 0.034000 0.041000
1518179296269366927	1100 61 1.100000 0.490000 0.548000 1200 54 1.000000 2.676000 2.745000 600 65 1.000000 0.055000 0.055000 1.200000 0.033000 0.039000
1518179296833328594	1100 61 1.100000 0.490000 0.548000 1200 54 1.000000 2.675000 2.741000 600 66 1.000000 0.055000 0.055000 1.200000 0.033000 0.039000
1518179297389375427	1100 61 1.100000 0.490000 0.548000 1200 54 1.000000 2.668000 2.734000 600 66 1.000000 0.055000 0.055000 1.200000 0.034000 0.041000
1518179297929398219	1100 61 1.100000 0.490000 0.548000 1200 54 1.000000 2.669000 2.738000 600 66 1.000000 0.055000 0.055000 1.200000 0.034000 0.041000
1518179298473377635	1100 61 1.100000 0.490000 0.548000 1200 54 1.000000 2.662000 2.731000 600 66 1.000000 0.055000 0.055000 1.200000 0.033000 0.039000
1518179299025318719	1100 61 1.100000 0.490000 0.548000 1200 54 1.000000 2.661000 2.727000 600 66 1.000000 0.055000 0.055000 1.200000 0.034000 0.041000
1518179299573395511	1100 61 1.100000 0.490000 0.548000 1200 54 1.000000 2.665000 2.731000 600 66 1.000000 0.055000 0.055000 1.200000 0.034000 0.041000
1518179300145370886	1100 61 1.100000 0.490000 0.548000 1200 54 1.000000 2.661000 2.727000 600 66 1.000000 0.055000 0.055000 1.200000 0.033000 0.039000
1518179300689382552	1100 61 1.100000 0.490000 0.548000 1200 54 1.000000 2.667000 2.733000 600 66 1.000000 0.055000 0.055000 1.200000 0.034000 0.041000
1518179301249383969	1100 61 1.100000 0.490000 0.548000 1200 54 1.000000 2.675000 2.744000 600 66 1.000000 0.055000 0.055000 1.200000 0.033000 0.039000
1518179301805356928	1100 61 1.100000 0.490000 0.548000 1200 54 1.000000 2.676000 2.742000 600 66 1.000000 0.055000 0.055000 1.200000 0.033000 0.039000
1518179302373356053	1100 61 1.100000 0.490000 0.548000 1200 54 1.000000 2.665000 2.731000 600 66 1.000000 0.055000 0.055000 1.200000 0.034000 0.041000
1518179302929383719	1100 61 1.100000 0.490000 0.548000 1200 54 1.000000 2.666000 2.735000 600 66 1.000000 0.055000 0.055000 1.200000 0.033000 0.039000
1518179303481345469	1100 61 1.100000 0.490000 0.548000 1200 54 1.000000 2.665000 2.731000 600 66 1.000000 0.055000 0.055000 1.200000 0.034000 0.041000
1518179304033411344	1100 61 1.100000 0.490000 0.548000 1200 54 1.000000 2.660000 2.729000 600 66 1.000000 0.055000 0.055000 1.200000 0.034000 0.041000
1518179304593375136	1100 61 1.100000 0.490000 0.549000 1200 54 1.000000 2.658000 2.724000 600 66 1.000000 0.055000 0.055000 1.200000 0.034000 0.041000
1518179305161368053	1100 61 1.100000 0.490000 0.548000 1200 54 1.000000 2.658000 2.724000 600 66 1.000000 0.055000 0.055000 1.200000 0.033000 0.039000
1518179305697374595	1100 61 1.100000 0.490000 0.548000 1200 54 1.000000 2.666000 2.735000 600 66 1.000000 0.055000 0.055000 1.200000 0.034000 0.041000
1518179306265338678	1100 61 1.100000 0.490000 0.548000 1200 54 1.000000 2.664000 2.730000 600 66 1.000000 0.055000 0.055000 1.200000 0.033000 0.039000
1518179306817363261	1100 61 1.100000 0.490000 0.548000 1200 54 1.000000 2.665000 2.734000 600 66 1.000000 0.055000 0.055000 1.200000 0.033000 0.039000
1518179307377327553	1100 61 1.100000 0.490000 0.548000 1200 54 1.000000 2.666000 2.735000 600 66 1.000000 0.055000 0.055000 1.200000 0.034000 0.041000
1518179307937422012	1100 61 1.100000 0.490000 0.548000 1200 54 1.000000 2.665000 2.734000 600 66 1.000000 0.055000 0.055000 1.200000 0.033000 0.039000
1518179308497349387	1100 61 1.100000 0.490000 0.548000 1200 54 1.000000 2.665000 2.734000 600 66 1.000000 0.055000 0.055000 1.200000 0.034000 0.041000
1518179309057387887	1100 61 1.100000 0.490000 0.548000 1200 54 1.000000 2.664000 2.730000 600 66 1.000000 0.055000 0.055000 1.200000 0.034000 0.041000
1518179309573403845	1100 61 1.100000 0.490000 0.548000 1200 54 1.000000 2.659000 2.725000 600 66 1.000000 0.055000 0.055000 1.200000 0.034000 0.041000
1518179310080396887	1100 54 1.100000 0.239000 0.269000 1200 52 1.000000 2.028000 2.072000 600 60 1.000000 0.055000 0.055000 1.200000 0.031000 0.037000
1518179310587095554	1100 51 1.100000 0.063000 0.071000 1200 50 1.000000 0.880000 0.894000 600 56 1.000000 0.055000 0.055000 1.200000 0.023000 0.027000
1518179311093642762	1100 49 1.100000 0.058000 0.065000 1200 48 1.000000 0.160000 0.164000 600 53 1.000000 0.055000 0.055000 1.200000 0.023000 0.027000
