#Timestamp	CPU(0) Frequency(MHz)	CPU(0) Temperature(C)	A7 Voltage(V)	A7 Current(A)	A7 Power(W)	CPU(4) Frequency(MHz)	CPU(4) Temperature(C)	A15 Voltage(V)	A15 Current(A)	A15 Power(W)	GPU Frequency(MHz)	GPU Temperature(C)	GPU Voltage(V)	GPU Current(A)	GPU Power(W)	RAM Voltage(V)	RAM Current(A)	RAM Power(W)
1517156215134442383	1300 51 1.200000 0.071000 0.086000 1700 43 1.100000 1.233000 1.442000 600 47 1.000000 0.053000 0.053000 1.200000 0.031000 0.037000
1517156215639737425	1300 52 1.200000 0.073000 0.089000 1700 44 1.100000 1.236000 1.447000 600 47 1.000000 0.053000 0.053000 1.200000 0.031000 0.037000
1517156216145066300	1300 52 1.200000 0.072000 0.088000 1700 44 1.100000 1.244000 1.455000 600 47 1.000000 0.053000 0.053000 1.200000 0.031000 0.037000
1517156216650522675	1300 52 1.200000 0.073000 0.089000 1700 44 1.100000 1.273000 1.489000 600 47 1.000000 0.053000 0.053000 1.200000 0.032000 0.038000
1517156217155789925	1300 52 1.200000 0.073000 0.089000 1700 44 1.100000 1.245000 1.457000 600 47 1.000000 0.053000 0.053000 1.200000 0.031000 0.037000
1517156217661054550	1300 52 1.200000 0.073000 0.089000 1700 44 1.100000 1.265000 1.481000 600 47 1.000000 0.053000 0.053000 1.200000 0.031000 0.037000
1517156218166382716	1300 52 1.200000 0.073000 0.089000 1700 44 1.100000 1.248000 1.461000 600 47 1.000000 0.053000 0.053000 1.200000 0.031000 0.037000
1517156218671696133	1300 52 1.200000 0.073000 0.089000 1700 44 1.100000 1.257000 1.471000 600 47 1.000000 0.053000 0.053000 1.200000 0.031000 0.037000
1517156219177032258	1300 52 1.200000 0.073000 0.089000 1700 44 1.100000 1.243000 1.455000 600 47 1.000000 0.053000 0.053000 1.200000 0.031000 0.037000
1517156219682333967	1300 52 1.200000 0.073000 0.089000 1700 44 1.100000 1.241000 1.453000 600 47 1.000000 0.053000 0.053000 1.200000 0.031000 0.037000
1517156220187727050	1300 52 1.200000 0.072000 0.088000 1700 44 1.100000 1.236000 1.447000 600 47 1.000000 0.053000 0.053000 1.200000 0.031000 0.037000
1517156220693022758	1300 52 1.200000 0.072000 0.088000 1700 44 1.100000 1.237000 1.448000 600 47 1.000000 0.053000 0.053000 1.200000 0.030000 0.036000
1517156221199052342	1300 52 1.200000 0.073000 0.089000 1700 44 1.100000 1.239000 1.450000 600 48 1.000000 0.053000 0.053000 1.200000 0.031000 0.037000
1517156221704441967	1300 52 1.200000 0.073000 0.089000 1700 44 1.100000 1.248000 1.461000 600 47 1.000000 0.053000 0.053000 1.200000 0.031000 0.037000
1517156222209872842	1300 52 1.200000 0.073000 0.089000 1700 44 1.100000 1.259000 1.474000 600 47 1.000000 0.053000 0.053000 1.200000 0.032000 0.038000
1517156222715151800	1300 52 1.200000 0.073000 0.089000 1700 44 1.100000 1.253000 1.467000 600 47 1.000000 0.053000 0.053000 1.200000 0.031000 0.037000
1517156223220419592	1300 52 1.200000 0.073000 0.089000 1700 44 1.100000 1.242000 1.454000 600 47 1.000000 0.053000 0.053000 1.200000 0.031000 0.037000
1517156223725791550	1300 52 1.200000 0.073000 0.089000 1700 44 1.100000 1.266000 1.482000 600 47 1.000000 0.053000 0.053000 1.200000 0.032000 0.038000
1517156224231104342	1300 52 1.200000 0.073000 0.089000 1700 44 1.100000 1.242000 1.454000 600 47 1.000000 0.053000 0.053000 1.200000 0.031000 0.037000
1517156224736380926	1300 52 1.200000 0.072000 0.088000 1700 44 1.100000 1.242000 1.454000 600 47 1.000000 0.053000 0.053000 1.200000 0.033000 0.039000
1517156225241714801	1300 52 1.200000 0.073000 0.089000 1700 44 1.100000 1.238000 1.449000 600 47 1.000000 0.053000 0.053000 1.200000 0.031000 0.037000
1517156225747059301	1300 52 1.200000 0.073000 0.089000 1700 44 1.100000 1.242000 1.454000 600 47 1.000000 0.053000 0.053000 1.200000 0.032000 0.038000
1517156226252396384	1300 52 1.200000 0.073000 0.089000 1700 44 1.100000 1.243000 1.455000 600 47 1.000000 0.053000 0.053000 1.200000 0.030000 0.036000
1517156226757728384	1300 52 1.200000 0.073000 0.089000 1700 44 1.100000 1.243000 1.454000 600 47 1.000000 0.053000 0.053000 1.200000 0.033000 0.039000
1517156227262987968	1300 52 1.200000 0.072000 0.088000 1700 44 1.100000 1.236000 1.447000 600 47 1.000000 0.053000 0.053000 1.200000 0.031000 0.037000
1517156227768265301	1300 52 1.200000 0.073000 0.089000 1700 44 1.100000 1.241000 1.453000 600 47 1.000000 0.053000 0.053000 1.200000 0.032000 0.038000
1517156228273709801	1300 52 1.200000 0.073000 0.089000 1700 44 1.100000 1.266000 1.482000 600 47 1.000000 0.053000 0.053000 1.200000 0.032000 0.038000
1517156228779080551	1300 52 1.200000 0.073000 0.089000 1700 44 1.100000 1.252000 1.466000 600 47 1.000000 0.053000 0.053000 1.200000 0.031000 0.037000
1517156229284366551	1300 52 1.200000 0.073000 0.089000 1700 44 1.100000 1.243000 1.454000 600 47 1.000000 0.053000 0.053000 1.200000 0.032000 0.038000
1517156229789784343	1300 52 1.200000 0.072000 0.088000 1700 44 1.100000 1.236000 1.446000 600 47 1.000000 0.053000 0.053000 1.200000 0.031000 0.037000
1517156230295150801	1300 52 1.200000 0.072000 0.088000 1700 44 1.100000 1.238000 1.449000 600 47 1.000000 0.053000 0.053000 1.200000 0.032000 0.038000
1517156230800482135	1300 52 1.200000 0.073000 0.089000 1700 44 1.100000 1.246000 1.459000 600 47 1.000000 0.053000 0.053000 1.200000 0.030000 0.036000
1517156231305832051	1300 52 1.200000 0.072000 0.088000 1700 44 1.100000 1.239000 1.450000 600 47 1.000000 0.053000 0.053000 1.200000 0.032000 0.038000
1517156231811117218	1300 52 1.200000 0.073000 0.089000 1700 44 1.100000 1.266000 1.482000 600 47 1.000000 0.053000 0.053000 1.200000 0.032000 0.038000
1517156232316470343	1300 51 1.200000 0.073000 0.089000 1700 44 1.100000 1.246000 1.457000 600 47 1.000000 0.053000 0.053000 1.200000 0.031000 0.037000
1517156232821823052	1300 52 1.200000 0.073000 0.089000 1700 43 1.100000 1.258000 1.471000 600 47 1.000000 0.053000 0.053000 1.200000 0.032000 0.038000
1517156233327208218	1300 51 1.200000 0.073000 0.089000 1700 43 1.100000 1.266000 1.481000 600 47 1.000000 0.053000 0.053000 1.200000 0.031000 0.037000
1517156233832540635	1300 52 1.200000 0.072000 0.088000 1700 43 1.100000 1.244000 1.456000 600 47 1.000000 0.053000 0.053000 1.200000 0.031000 0.037000
1517156234337903552	1300 51 1.200000 0.073000 0.089000 1700 43 1.100000 1.267000 1.482000 600 46 1.000000 0.053000 0.053000 1.200000 0.031000 0.037000
1517156234843264093	1300 51 1.200000 0.072000 0.088000 1700 43 1.100000 1.242000 1.454000 600 46 1.000000 0.053000 0.053000 1.200000 0.033000 0.039000
1517156235348533302	1300 51 1.200000 0.072000 0.088000 1700 43 1.100000 1.266000 1.482000 600 47 1.000000 0.053000 0.053000 1.200000 0.031000 0.037000
1517156235853928135	1300 51 1.200000 0.072000 0.088000 1700 43 1.100000 1.256000 1.470000 600 46 1.000000 0.053000 0.053000 1.200000 0.032000 0.038000
1517156236359295385	1300 51 1.200000 0.073000 0.089000 1700 43 1.100000 1.250000 1.462000 600 46 1.000000 0.053000 0.053000 1.200000 0.031000 0.037000
1517156236864609510	1300 51 1.200000 0.072000 0.088000 1700 43 1.100000 1.254000 1.467000 600 46 1.000000 0.053000 0.053000 1.200000 0.031000 0.037000
1517156237369967885	1300 51 1.200000 0.072000 0.088000 1700 43 1.100000 1.243000 1.455000 600 46 1.000000 0.053000 0.053000 1.200000 0.032000 0.038000
1517156237875371469	1300 51 1.200000 0.072000 0.088000 1700 43 1.100000 1.269000 1.484000 600 46 1.000000 0.053000 0.053000 1.200000 0.031000 0.037000
1517156238380686844	1300 51 1.200000 0.072000 0.088000 1700 43 1.100000 1.243000 1.454000 600 46 1.000000 0.053000 0.053000 1.200000 0.031000 0.037000
1517156238886028011	1300 51 1.200000 0.073000 0.089000 1700 43 1.100000 1.259000 1.473000 600 46 1.000000 0.053000 0.053000 1.200000 0.030000 0.036000
1517156239391357344	1300 51 1.200000 0.072000 0.088000 1700 43 1.100000 1.235000 1.444000 600 46 1.000000 0.053000 0.053000 1.200000 0.031000 0.037000
1517156239896720094	1300 51 1.200000 0.072000 0.088000 1700 43 1.100000 1.249000 1.461000 600 46 1.000000 0.053000 0.053000 1.200000 0.031000 0.037000
1517156240402193802	1300 51 1.200000 0.073000 0.089000 1700 43 1.100000 1.263000 1.477000 600 46 1.000000 0.053000 0.053000 1.200000 0.032000 0.038000
1517156240907494011	1300 51 1.200000 0.072000 0.088000 1700 43 1.100000 1.241000 1.453000 600 46 1.000000 0.053000 0.053000 1.200000 0.032000 0.038000
1517156241412854303	1300 51 1.200000 0.072000 0.088000 1700 43 1.100000 1.263000 1.477000 600 46 1.000000 0.053000 0.053000 1.200000 0.032000 0.038000
1517156241918269219	1300 51 1.200000 0.073000 0.089000 1700 43 1.100000 1.239000 1.450000 600 46 1.000000 0.053000 0.053000 1.200000 0.031000 0.037000
1517156242423633094	1300 51 1.200000 0.072000 0.088000 1700 43 1.100000 1.268000 1.484000 600 46 1.000000 0.053000 0.053000 1.200000 0.031000 0.037000
1517156242928965636	1300 51 1.200000 0.073000 0.089000 1700 43 1.100000 1.251000 1.463000 600 46 1.000000 0.053000 0.053000 1.200000 0.032000 0.038000
1517156243434351303	1300 51 1.200000 0.072000 0.088000 1700 43 1.100000 1.253000 1.466000 600 46 1.000000 0.053000 0.053000 1.200000 0.030000 0.036000
1517156243939666428	1300 51 1.200000 0.072000 0.088000 1700 43 1.100000 1.259000 1.474000 600 46 1.000000 0.053000 0.053000 1.200000 0.031000 0.037000
1517156244444951386	1300 51 1.200000 0.072000 0.088000 1700 43 1.100000 1.244000 1.456000 600 46 1.000000 0.053000 0.053000 1.200000 0.031000 0.037000
1517156244950302095	1300 51 1.200000 0.072000 0.088000 1700 43 1.100000 1.243000 1.454000 600 46 1.000000 0.053000 0.053000 1.200000 0.030000 0.036000
1517156245455712970	1300 51 1.200000 0.072000 0.088000 1700 43 1.100000 1.239000 1.449000 600 46 1.000000 0.053000 0.053000 1.200000 0.031000 0.037000
1517156245961267095	1300 51 1.200000 0.072000 0.088000 1700 43 1.100000 1.262000 1.477000 600 46 1.000000 0.053000 0.053000 1.200000 0.031000 0.037000
1517156246466653220	1300 51 1.200000 0.073000 0.089000 1700 43 1.100000 1.248000 1.461000 600 46 1.000000 0.053000 0.053000 1.200000 0.032000 0.038000
1517156246971963803	1300 51 1.200000 0.072000 0.088000 1700 43 1.100000 1.255000 1.469000 600 46 1.000000 0.053000 0.053000 1.200000 0.032000 0.038000
1517156247477224720	1300 51 1.200000 0.074000 0.090000 1700 43 1.100000 1.257000 1.471000 600 46 1.000000 0.053000 0.053000 1.200000 0.032000 0.038000
1517156247982625678	1300 51 1.200000 0.072000 0.088000 1700 43 1.100000 1.242000 1.454000 600 46 1.000000 0.053000 0.053000 1.200000 0.031000 0.037000
1517156248487960762	1300 51 1.200000 0.072000 0.088000 1700 43 1.100000 1.263000 1.478000 600 46 1.000000 0.053000 0.053000 1.200000 0.032000 0.038000
1517156248993306637	1300 51 1.200000 0.072000 0.088000 1700 43 1.100000 1.243000 1.454000 600 46 1.000000 0.053000 0.053000 1.200000 0.031000 0.037000
1517156249498681929	1300 51 1.200000 0.072000 0.088000 1700 43 1.100000 1.266000 1.481000 600 46 1.000000 0.053000 0.053000 1.200000 0.031000 0.037000
1517156250004048012	1300 51 1.200000 0.073000 0.089000 1700 43 1.100000 1.243000 1.454000 600 46 1.000000 0.053000 0.053000 1.200000 0.031000 0.037000
1517156250509645387	1300 51 1.200000 0.072000 0.088000 1700 43 1.100000 1.235000 1.446000 600 46 1.000000 0.053000 0.053000 1.200000 0.030000 0.036000
1517156251014941970	1300 51 1.200000 0.071000 0.086000 1700 43 1.100000 1.236000 1.447000 600 46 1.000000 0.053000 0.053000 1.200000 0.031000 0.037000
1517156251520200262	1300 51 1.200000 0.072000 0.088000 1700 42 1.100000 1.237000 1.448000 600 46 1.000000 0.053000 0.053000 1.200000 0.031000 0.037000
1517156252025501054	1300 51 1.200000 0.073000 0.089000 1700 43 1.100000 1.268000 1.483000 600 46 1.000000 0.053000 0.053000 1.200000 0.032000 0.038000
1517156252530858179	1300 50 1.200000 0.072000 0.088000 1700 42 1.100000 1.243000 1.455000 600 46 1.000000 0.053000 0.053000 1.200000 0.031000 0.037000
1517156253036177971	1300 50 1.200000 0.072000 0.088000 1700 42 1.100000 1.262000 1.477000 600 46 1.000000 0.053000 0.053000 1.200000 0.032000 0.038000
1517156253541520887	1300 51 1.200000 0.072000 0.088000 1700 42 1.100000 1.242000 1.453000 600 45 1.000000 0.053000 0.053000 1.200000 0.032000 0.038000
1517156254046829054	1300 50 1.200000 0.072000 0.088000 1700 42 1.100000 1.260000 1.474000 600 45 1.000000 0.053000 0.053000 1.200000 0.031000 0.037000
1517156254552091554	1300 50 1.200000 0.072000 0.088000 1700 42 1.100000 1.257000 1.471000 600 45 1.000000 0.053000 0.053000 1.200000 0.030000 0.036000
1517156255057472304	1300 50 1.200000 0.072000 0.088000 1700 42 1.100000 1.236000 1.446000 600 45 1.000000 0.053000 0.053000 1.200000 0.030000 0.036000
1517156255562823013	1300 50 1.200000 0.072000 0.088000 1700 42 1.100000 1.232000 1.441000 600 45 1.000000 0.053000 0.053000 1.200000 0.030000 0.036000
1517156256068088721	1300 50 1.200000 0.072000 0.088000 1700 42 1.100000 1.237000 1.447000 600 45 1.000000 0.053000 0.053000 1.200000 0.030000 0.036000
1517156256573481054	1300 50 1.200000 0.072000 0.088000 1700 42 1.100000 1.239000 1.449000 600 45 1.000000 0.053000 0.053000 1.200000 0.031000 0.037000
1517156257078840054	1300 50 1.200000 0.072000 0.088000 1700 42 1.100000 1.239000 1.450000 600 45 1.000000 0.053000 0.053000 1.200000 0.030000 0.036000
1517156257584096305	1300 50 1.200000 0.071000 0.086000 1700 42 1.100000 1.229000 1.439000 600 45 1.000000 0.053000 0.053000 1.200000 0.031000 0.037000
1517156258089423346	1300 50 1.200000 0.071000 0.086000 1700 42 1.100000 1.248000 1.461000 600 45 1.000000 0.053000 0.053000 1.200000 0.032000 0.038000
1517156258594765555	1300 50 1.200000 0.072000 0.088000 1700 42 1.100000 1.239000 1.450000 600 45 1.000000 0.053000 0.053000 1.200000 0.031000 0.037000
1517156259100081096	1300 50 1.200000 0.072000 0.088000 1700 42 1.100000 1.266000 1.482000 600 45 1.000000 0.053000 0.053000 1.200000 0.030000 0.036000
1517156259605292013	1300 50 1.200000 0.072000 0.088000 1700 42 1.100000 1.233000 1.443000 600 45 1.000000 0.053000 0.053000 1.200000 0.031000 0.037000
1517156260110672138	1300 50 1.200000 0.073000 0.089000 1700 42 1.100000 1.236000 1.447000 600 45 1.000000 0.053000 0.053000 1.200000 0.031000 0.037000
1517156260615975430	1300 50 1.200000 0.072000 0.088000 1700 42 1.100000 1.239000 1.450000 600 45 1.000000 0.053000 0.053000 1.200000 0.031000 0.037000
1517156261121235597	1300 50 1.200000 0.072000 0.088000 1700 42 1.100000 1.241000 1.453000 600 45 1.000000 0.053000 0.053000 1.200000 0.030000 0.036000
1517156261626572388	1300 50 1.200000 0.072000 0.088000 1700 42 1.100000 1.239000 1.450000 600 45 1.000000 0.053000 0.053000 1.200000 0.030000 0.036000
1517156262132850972	1300 47 1.200000 0.072000 0.088000 1700 42 1.100000 1.198000 1.401000 600 46 1.000000 0.053000 0.053000 1.200000 0.071000 0.085000
1517156262691268388	1300 47 1.200000 0.076000 0.092000 1700 42 1.100000 1.107000 1.295000 600 47 1.000000 0.053000 0.053000 1.200000 0.110000 0.133000
1517156263243260389	1300 53 1.200000 0.480000 0.579000 1700 44 1.100000 3.173000 3.744000 600 57 1.000000 0.053000 0.053000 1.200000 0.103000 0.124000
1517156263803266097	1300 56 1.200000 0.478000 0.576000 1700 46 1.100000 3.202000 3.778000 600 59 1.000000 0.053000 0.053000 1.200000 0.091000 0.110000
1517156264355217930	1300 57 1.200000 0.479000 0.577000 1700 47 1.100000 3.210000 3.787000 600 61 1.000000 0.053000 0.053000 1.200000 0.092000 0.111000
1517156264899255514	1300 58 1.200000 0.480000 0.578000 1700 48 1.100000 3.217000 3.796000 600 62 1.000000 0.054000 0.054000 1.200000 0.091000 0.110000
1517156265455245097	1300 59 1.200000 0.481000 0.580000 1700 49 1.100000 3.223000 3.803000 600 63 1.000000 0.054000 0.054000 1.200000 0.092000 0.111000
1517156266015267264	1300 59 1.200000 0.481000 0.580000 1700 50 1.100000 3.228000 3.809000 600 64 1.000000 0.054000 0.054000 1.200000 0.092000 0.111000
1517156266563211389	1300 60 1.200000 0.481000 0.580000 1700 50 1.100000 3.230000 3.811000 600 65 1.000000 0.054000 0.054000 1.200000 0.091000 0.110000
1517156267123250972	1300 61 1.200000 0.482000 0.581000 1700 51 1.100000 3.234000 3.816000 600 65 1.000000 0.054000 0.054000 1.200000 0.091000 0.110000
1517156267679240597	1300 61 1.200000 0.483000 0.582000 1700 51 1.100000 3.241000 3.824000 600 65 1.000000 0.055000 0.055000 1.200000 0.091000 0.110000
1517156268239240597	1300 61 1.200000 0.483000 0.582000 1700 51 1.100000 3.241000 3.824000 600 66 1.000000 0.054000 0.054000 1.200000 0.092000 0.111000
1517156268803244348	1300 62 1.200000 0.483000 0.582000 1700 52 1.100000 3.237000 3.819000 600 66 1.000000 0.055000 0.055000 1.200000 0.092000 0.111000
1517156269367232681	1300 62 1.200000 0.483000 0.582000 1700 52 1.100000 3.239000 3.822000 600 67 1.000000 0.055000 0.055000 1.200000 0.091000 0.110000
1517156269915278181	1300 62 1.200000 0.484000 0.583000 1700 52 1.100000 3.242000 3.825000 600 67 1.000000 0.055000 0.055000 1.200000 0.091000 0.110000
1517156270479247681	1300 62 1.200000 0.484000 0.583000 1700 52 1.100000 3.246000 3.833000 600 67 1.000000 0.055000 0.055000 1.200000 0.092000 0.111000
1517156271035209556	1300 63 1.200000 0.484000 0.583000 1700 53 1.100000 3.248000 3.835000 600 67 1.000000 0.055000 0.055000 1.200000 0.091000 0.110000
1517156271595254140	1300 63 1.200000 0.485000 0.584000 1700 53 1.100000 3.252000 3.840000 600 68 1.000000 0.055000 0.055000 1.200000 0.092000 0.111000
1517156272155222181	1300 63 1.200000 0.485000 0.584000 1700 53 1.100000 3.251000 3.836000 600 68 1.000000 0.055000 0.055000 1.200000 0.091000 0.110000
1517156272711226056	1300 63 1.200000 0.484000 0.583000 1700 53 1.100000 3.255000 3.840000 600 68 1.000000 0.055000 0.055000 1.200000 0.092000 0.111000
1517156273267200931	1300 63 1.200000 0.485000 0.584000 1700 53 1.100000 3.254000 3.842000 600 68 1.000000 0.055000 0.055000 1.200000 0.092000 0.111000
1517156273823222098	1300 64 1.200000 0.485000 0.584000 1700 54 1.100000 3.256000 3.845000 600 68 1.000000 0.055000 0.055000 1.200000 0.092000 0.111000
1517156274379247723	1300 64 1.200000 0.485000 0.584000 1700 54 1.100000 3.254000 3.842000 600 68 1.000000 0.055000 0.055000 1.200000 0.092000 0.111000
1517156274939234140	1300 64 1.200000 0.485000 0.584000 1700 54 1.100000 3.257000 3.846000 600 69 1.000000 0.055000 0.055000 1.200000 0.092000 0.111000
1517156275491235890	1300 64 1.200000 0.486000 0.586000 1700 54 1.100000 3.260000 3.850000 600 69 1.000000 0.055000 0.055000 1.200000 0.092000 0.111000
1517156276051251598	1300 64 1.200000 0.486000 0.586000 1700 54 1.100000 3.260000 3.850000 600 69 1.000000 0.055000 0.055000 1.200000 0.093000 0.112000
1517156276607235057	1300 64 1.200000 0.486000 0.586000 1700 54 1.100000 3.260000 3.850000 600 69 1.000000 0.055000 0.055000 1.200000 0.092000 0.111000
1517156277171245932	1300 64 1.200000 0.485000 0.584000 1700 54 1.100000 3.263000 3.853000 600 69 1.000000 0.055000 0.055000 1.200000 0.091000 0.110000
1517156277727258640	1300 64 1.200000 0.486000 0.586000 1700 54 1.100000 3.264000 3.854000 600 69 1.000000 0.055000 0.055000 1.200000 0.091000 0.110000
1517156278275193599	1300 64 1.200000 0.486000 0.586000 1700 55 1.100000 3.261000 3.851000 600 69 1.000000 0.055000 0.055000 1.200000 0.092000 0.111000
1517156278827209140	1300 65 1.200000 0.486000 0.586000 1700 55 1.100000 3.261000 3.851000 600 69 1.000000 0.055000 0.055000 1.200000 0.092000 0.111000
1517156279379248474	1300 65 1.200000 0.486000 0.586000 1700 55 1.100000 3.263000 3.853000 600 69 1.000000 0.055000 0.055000 1.200000 0.092000 0.111000
1517156279939199641	1300 65 1.200000 0.486000 0.586000 1700 55 1.100000 3.267000 3.855000 600 69 1.000000 0.055000 0.055000 1.200000 0.092000 0.111000
1517156280499246682	1300 65 1.200000 0.486000 0.586000 1700 55 1.100000 3.263000 3.853000 600 70 1.000000 0.055000 0.055000 1.200000 0.092000 0.111000
1517156281059224599	1300 65 1.200000 0.486000 0.586000 1700 55 1.100000 3.259000 3.845000 600 70 1.000000 0.055000 0.055000 1.200000 0.092000 0.111000
1517156281615255474	1300 65 1.200000 0.486000 0.586000 1700 55 1.100000 3.265000 3.852000 600 70 1.000000 0.055000 0.055000 1.200000 0.092000 0.111000
1517156282171220766	1300 65 1.200000 0.486000 0.586000 1700 55 1.100000 3.269000 3.860000 600 70 1.000000 0.055000 0.055000 1.200000 0.091000 0.110000
1517156282727266058	1300 65 1.200000 0.486000 0.586000 1700 55 1.100000 3.269000 3.860000 600 70 1.000000 0.055000 0.055000 1.200000 0.091000 0.110000
1517156283287230849	1300 65 1.200000 0.486000 0.586000 1700 55 1.100000 3.270000 3.861000 600 70 1.000000 0.055000 0.055000 1.200000 0.091000 0.110000
1517156283847208891	1300 65 1.200000 0.486000 0.586000 1700 55 1.100000 3.269000 3.860000 600 70 1.000000 0.055000 0.055000 1.200000 0.091000 0.110000
1517156284403237433	1300 65 1.200000 0.487000 0.587000 1700 55 1.100000 3.269000 3.857000 600 70 1.000000 0.055000 0.055000 1.200000 0.091000 0.110000
1517156284963192099	1300 65 1.200000 0.487000 0.587000 1700 55 1.100000 3.267000 3.858000 600 70 1.000000 0.055000 0.055000 1.200000 0.092000 0.111000
1517156285519193600	1300 65 1.200000 0.486000 0.586000 1700 55 1.100000 3.271000 3.863000 600 70 1.000000 0.055000 0.055000 1.200000 0.092000 0.111000
1517156286067685641	1300 65 1.200000 0.487000 0.587000 1700 55 1.100000 3.268000 3.859000 600 70 1.000000 0.055000 0.055000 1.200000 0.092000 0.111000
1517156286619214266	1300 65 1.200000 0.487000 0.587000 1700 56 1.100000 3.266000 3.857000 600 70 1.000000 0.055000 0.055000 1.200000 0.093000 0.112000
1517156287183206308	1300 66 1.200000 0.486000 0.586000 1700 56 1.100000 3.270000 3.861000 600 71 1.000000 0.056000 0.056000 1.200000 0.093000 0.112000
1517156287747246725	1300 66 1.200000 0.486000 0.586000 1700 56 1.100000 3.274000 3.866000 600 70 1.000000 0.055000 0.055000 1.200000 0.091000 0.110000
1517156288303261683	1300 66 1.200000 0.487000 0.587000 1700 56 1.100000 3.274000 3.866000 600 71 1.000000 0.055000 0.055000 1.200000 0.092000 0.111000
1517156288859231933	1300 66 1.200000 0.487000 0.587000 1700 56 1.100000 3.274000 3.866000 600 71 1.000000 0.055000 0.055000 1.200000 0.091000 0.110000
1517156289423238892	1300 66 1.200000 0.487000 0.587000 1700 56 1.100000 3.272000 3.864000 600 71 1.000000 0.055000 0.055000 1.200000 0.091000 0.110000
1517156289983245225	1300 66 1.200000 0.487000 0.587000 1700 56 1.100000 3.271000 3.863000 600 71 1.000000 0.055000 0.055000 1.200000 0.091000 0.110000
1517156290539232058	1300 66 1.200000 0.487000 0.587000 1700 56 1.100000 3.271000 3.863000 600 71 1.000000 0.055000 0.055000 1.200000 0.092000 0.111000
1517156291091254184	1300 66 1.200000 0.487000 0.587000 1700 56 1.100000 3.275000 3.867000 600 71 1.000000 0.055000 0.055000 1.200000 0.092000 0.111000
1517156291651264892	1300 66 1.200000 0.487000 0.587000 1700 56 1.100000 3.275000 3.867000 600 71 1.000000 0.055000 0.055000 1.200000 0.092000 0.111000
1517156292207212142	1300 66 1.200000 0.488000 0.588000 1700 56 1.100000 3.277000 3.870000 600 71 1.000000 0.055000 0.055000 1.200000 0.091000 0.110000
1517156292767233059	1300 66 1.200000 0.488000 0.588000 1700 56 1.100000 3.277000 3.870000 600 71 1.000000 0.055000 0.055000 1.200000 0.091000 0.110000
1517156293327201600	1300 66 1.200000 0.487000 0.587000 1700 56 1.100000 3.277000 3.870000 600 71 1.000000 0.056000 0.056000 1.200000 0.091000 0.110000
1517156293887201601	1300 66 1.200000 0.487000 0.587000 1700 56 1.100000 3.277000 3.870000 600 71 1.000000 0.056000 0.056000 1.200000 0.092000 0.111000
1517156294447208934	1300 66 1.200000 0.488000 0.588000 1700 56 1.100000 3.276000 3.868000 600 71 1.000000 0.056000 0.056000 1.200000 0.092000 0.111000
1517156295007257684	1300 66 1.200000 0.487000 0.587000 1700 56 1.100000 3.280000 3.873000 600 71 1.000000 0.056000 0.056000 1.200000 0.092000 0.111000
1517156295563256726	1300 66 1.200000 0.488000 0.588000 1700 56 1.100000 3.277000 3.870000 600 71 1.000000 0.055000 0.055000 1.200000 0.091000 0.110000
1517156296123195142	1300 66 1.200000 0.488000 0.588000 1700 56 1.100000 3.277000 3.870000 600 71 1.000000 0.055000 0.055000 1.200000 0.092000 0.111000
1517156296679220601	1300 66 1.200000 0.487000 0.587000 1700 56 1.100000 3.280000 3.873000 600 71 1.000000 0.056000 0.056000 1.200000 0.091000 0.110000
1517156297231269518	1300 66 1.200000 0.488000 0.588000 1700 56 1.100000 3.280000 3.873000 600 71 1.000000 0.056000 0.056000 1.200000 0.091000 0.110000
1517156297791279684	1300 66 1.200000 0.488000 0.588000 1700 56 1.100000 3.279000 3.872000 600 71 1.000000 0.056000 0.056000 1.200000 0.091000 0.110000
1517156298351263976	1300 66 1.200000 0.488000 0.588000 1700 56 1.100000 3.281000 3.874000 600 71 1.000000 0.056000 0.056000 1.200000 0.091000 0.110000
1517156298911260143	1300 66 1.200000 0.488000 0.588000 1700 56 1.100000 3.281000 3.874000 600 71 1.000000 0.055000 0.055000 1.200000 0.091000 0.110000
1517156299475259935	1300 66 1.200000 0.488000 0.588000 1700 56 1.100000 3.280000 3.873000 600 71 1.000000 0.055000 0.055000 1.200000 0.091000 0.110000
1517156300035244351	1300 66 1.200000 0.487000 0.587000 1700 56 1.100000 3.281000 3.874000 600 71 1.000000 0.056000 0.056000 1.200000 0.091000 0.110000
1517156300595244393	1300 66 1.200000 0.488000 0.588000 1700 56 1.100000 3.275000 3.867000 600 71 1.000000 0.056000 0.056000 1.200000 0.092000 0.111000
1517156301155234268	1300 67 1.200000 0.488000 0.588000 1700 56 1.100000 3.279000 3.872000 600 71 1.000000 0.056000 0.056000 1.200000 0.092000 0.111000
1517156301719260476	1300 66 1.200000 0.488000 0.588000 1700 56 1.100000 3.280000 3.873000 600 71 1.000000 0.056000 0.056000 1.200000 0.093000 0.112000
1517156302279209185	1300 67 1.200000 0.488000 0.588000 1700 56 1.100000 3.278000 3.871000 600 71 1.000000 0.055000 0.055000 1.200000 0.093000 0.112000
1517156302843243185	1300 67 1.200000 0.488000 0.588000 1700 57 1.100000 3.280000 3.873000 600 72 1.000000 0.056000 0.056000 1.200000 0.093000 0.112000
1517156303403240643	1300 67 1.200000 0.488000 0.588000 1700 57 1.100000 3.281000 3.874000 600 72 1.000000 0.056000 0.056000 1.200000 0.093000 0.112000
1517156303963226185	1300 66 1.200000 0.488000 0.588000 1700 57 1.100000 3.281000 3.874000 600 72 1.000000 0.056000 0.056000 1.200000 0.093000 0.112000
1517156304523243435	1300 67 1.200000 0.488000 0.588000 1700 57 1.100000 3.278000 3.871000 600 72 1.000000 0.056000 0.056000 1.200000 0.092000 0.111000
1517156305079265685	1300 67 1.200000 0.488000 0.588000 1700 57 1.100000 3.277000 3.870000 600 72 1.000000 0.056000 0.056000 1.200000 0.093000 0.112000
1517156305639216394	1300 67 1.200000 0.488000 0.588000 1700 57 1.100000 3.280000 3.873000 600 72 1.000000 0.056000 0.056000 1.200000 0.092000 0.111000
1517156306195226352	1300 67 1.200000 0.488000 0.588000 1700 57 1.100000 3.282000 3.876000 600 72 1.000000 0.055000 0.055000 1.200000 0.092000 0.111000
1517156306743244144	1300 67 1.200000 0.488000 0.588000 1700 57 1.100000 3.280000 3.873000 600 72 1.000000 0.055000 0.055000 1.200000 0.092000 0.111000
1517156307248417477	1300 67 1.200000 0.488000 0.588000 1700 57 1.100000 3.280000 3.873000 600 72 1.000000 0.056000 0.056000 1.200000 0.092000 0.111000
1517156307753306019	1300 63 1.200000 0.081000 0.099000 1700 54 1.100000 1.557000 1.824000 600 61 1.000000 0.056000 0.056000 1.200000 0.044000 0.053000
1517156308257923852	1300 61 1.200000 0.078000 0.095000 1700 53 1.100000 1.255000 1.469000 600 58 1.000000 0.055000 0.055000 1.200000 0.028000 0.033000
1517156308762592561	1300 60 1.200000 0.078000 0.095000 1700 52 1.100000 1.280000 1.498000 600 56 1.000000 0.055000 0.055000 1.200000 0.031000 0.037000
1517156309267177852	1300 59 1.200000 0.078000 0.095000 1700 51 1.100000 1.251000 1.464000 600 55 1.000000 0.055000 0.055000 1.200000 0.028000 0.033000
1517156309771733477	1300 58 1.200000 0.077000 0.094000 1700 50 1.100000 1.224000 1.433000 600 54 1.000000 0.055000 0.055000 1.200000 0.027000 0.032000
1517156310276336602	1300 57 1.200000 0.076000 0.092000 1700 49 1.100000 1.243000 1.455000 600 53 1.000000 0.055000 0.055000 1.200000 0.028000 0.033000
1517156310780833728	1300 57 1.200000 0.076000 0.092000 1700 49 1.100000 1.238000 1.449000 600 52 1.000000 0.054000 0.054000 1.200000 0.027000 0.032000
1517156311285425144	1300 56 1.200000 0.076000 0.092000 1700 48 1.100000 1.225000 1.434000 600 52 1.000000 0.054000 0.054000 1.200000 0.027000 0.032000
1517156311790171019	1300 56 1.200000 0.074000 0.090000 1700 48 1.100000 1.233000 1.442000 600 51 1.000000 0.054000 0.054000 1.200000 0.027000 0.032000
1517156312294798769	1300 55 1.200000 0.074000 0.090000 1700 47 1.100000 1.212000 1.418000 600 51 1.000000 0.054000 0.054000 1.200000 0.027000 0.032000
1517156312799404853	1300 55 1.200000 0.074000 0.090000 1700 47 1.100000 1.226000 1.434000 600 51 1.000000 0.054000 0.054000 1.200000 0.027000 0.032000
1517156313303990061	1300 54 1.200000 0.074000 0.090000 1700 47 1.100000 1.229000 1.437000 600 50 1.000000 0.054000 0.054000 1.200000 0.028000 0.033000
1517156313808589853	1300 54 1.200000 0.073000 0.089000 1700 46 1.100000 1.210000 1.415000 600 50 1.000000 0.054000 0.054000 1.200000 0.027000 0.032000
1517156314313259811	1300 54 1.200000 0.075000 0.091000 1700 46 1.100000 1.259000 1.474000 600 50 1.000000 0.054000 0.054000 1.200000 0.032000 0.038000
1517156314817954895	1300 54 1.200000 0.075000 0.091000 1700 46 1.100000 1.244000 1.456000 600 50 1.000000 0.054000 0.054000 1.200000 0.035000 0.042000
1517156315322639645	1300 54 1.200000 0.073000 0.089000 1700 46 1.100000 1.217000 1.425000 600 49 1.000000 0.054000 0.054000 1.200000 0.027000 0.032000
1517156315827220270	1300 53 1.200000 0.074000 0.090000 1700 46 1.100000 1.233000 1.443000 600 49 1.000000 0.054000 0.054000 1.200000 0.029000 0.035000
1517156316331995020	1300 53 1.200000 0.074000 0.090000 1700 46 1.100000 1.256000 1.470000 600 49 1.000000 0.053000 0.053000 1.200000 0.029000 0.035000
1517156316836631228	1300 53 1.200000 0.079000 0.096000 1700 45 1.100000 1.276000 1.494000 600 49 1.000000 0.053000 0.053000 1.200000 0.035000 0.042000
1517156317341215228	1300 53 1.200000 0.073000 0.089000 1700 45 1.100000 1.224000 1.433000 600 49 1.000000 0.053000 0.053000 1.200000 0.027000 0.032000
1517156317845940520	1300 53 1.200000 0.073000 0.089000 1700 45 1.100000 1.216000 1.422000 600 49 1.000000 0.053000 0.053000 1.200000 0.027000 0.032000
1517156318350621478	1300 53 1.200000 0.078000 0.095000 1700 45 1.100000 1.334000 1.562000 600 49 1.000000 0.053000 0.053000 1.200000 0.035000 0.042000
1517156318855313812	1300 52 1.200000 0.074000 0.090000 1700 45 1.100000 1.218000 1.426000 600 48 1.000000 0.053000 0.053000 1.200000 0.029000 0.035000
1517156319359916937	1300 52 1.200000 0.073000 0.089000 1700 45 1.100000 1.209000 1.415000 600 48 1.000000 0.053000 0.053000 1.200000 0.026000 0.031000
1517156319864646395	1300 52 1.200000 0.073000 0.089000 1700 45 1.100000 1.200000 1.404000 600 48 1.000000 0.053000 0.053000 1.200000 0.027000 0.032000
1517156320369365770	1300 52 1.200000 0.074000 0.090000 1700 45 1.100000 1.220000 1.428000 600 48 1.000000 0.053000 0.053000 1.200000 0.034000 0.041000
1517156320874181145	1300 52 1.200000 0.083000 0.101000 1700 45 1.100000 1.301000 1.523000 600 48 1.000000 0.053000 0.053000 1.200000 0.035000 0.042000
1517156321378843937	1300 52 1.200000 0.074000 0.090000 1700 45 1.100000 1.240000 1.452000 600 48 1.000000 0.053000 0.053000 1.200000 0.034000 0.041000
1517156321883474354	1300 52 1.200000 0.073000 0.089000 1700 44 1.100000 1.227000 1.436000 600 48 1.000000 0.054000 0.054000 1.200000 0.030000 0.036000
1517156322388087687	1300 52 1.200000 0.073000 0.089000 1700 44 1.100000 1.228000 1.436000 600 48 1.000000 0.053000 0.053000 1.200000 0.028000 0.033000
1517156322892651521	1300 52 1.200000 0.073000 0.089000 1700 44 1.100000 1.209000 1.415000 600 48 1.000000 0.053000 0.053000 1.200000 0.027000 0.032000
1517156323397267979	1300 52 1.200000 0.073000 0.089000 1700 44 1.100000 1.224000 1.433000 600 48 1.000000 0.053000 0.053000 1.200000 0.027000 0.032000
1517156323901951229	1300 52 1.200000 0.073000 0.089000 1700 44 1.100000 1.202000 1.407000 600 48 1.000000 0.053000 0.053000 1.200000 0.026000 0.031000
1517156324406569271	1300 52 1.200000 0.073000 0.089000 1700 44 1.100000 1.211000 1.418000 600 47 1.000000 0.053000 0.053000 1.200000 0.028000 0.033000
1517156324911227688	1300 52 1.200000 0.072000 0.088000 1700 44 1.100000 1.197000 1.401000 600 47 1.000000 0.053000 0.053000 1.200000 0.027000 0.032000
1517156325416405438	1300 51 1.200000 0.072000 0.088000 1700 44 1.100000 1.197000 1.401000 600 47 1.000000 0.053000 0.053000 1.200000 0.027000 0.032000
1517156325921329729	1300 51 1.200000 0.074000 0.090000 1700 44 1.100000 1.232000 1.442000 600 47 1.000000 0.053000 0.053000 1.200000 0.034000 0.041000
1517156326425991813	1300 51 1.200000 0.073000 0.089000 1700 44 1.100000 1.227000 1.436000 600 47 1.000000 0.053000 0.053000 1.200000 0.029000 0.035000
1517156326930607813	1300 51 1.200000 0.073000 0.089000 1700 44 1.100000 1.211000 1.418000 600 47 1.000000 0.053000 0.053000 1.200000 0.028000 0.033000
1517156327435753855	1300 44 1.200000 0.089000 0.108000 1700 42 1.100000 1.160000 1.357000 600 46 1.000000 0.053000 0.053000 1.200000 0.041000 0.049000
1517156327940988063	1300 42 1.200000 0.073000 0.089000 1700 41 1.100000 0.264000 0.308000 600 45 1.000000 0.053000 0.053000 1.200000 0.031000 0.037000
