#Timestamp	CPU(0) Frequency(MHz)	CPU(0) Temperature(C)	A7 Voltage(V)	A7 Current(A)	A7 Power(W)	CPU(4) Frequency(MHz)	CPU(4) Temperature(C)	A15 Voltage(V)	A15 Current(A)	A15 Power(W)	GPU Frequency(MHz)	GPU Temperature(C)	GPU Voltage(V)	GPU Current(A)	GPU Power(W)	RAM Voltage(V)	RAM Current(A)	RAM Power(W)
1517206690643328275	1100 36 1.100000 0.053000 0.060000 500 34 0.900000 0.277000 0.252000 600 39 1.000000 0.051000 0.051000 1.200000 0.041000 0.049000
1517206691156379983	1100 37 1.100000 0.387000 0.433000 500 35 0.900000 0.598000 0.542000 600 39 1.000000 0.051000 0.051000 1.200000 0.023000 0.027000
1517206691669118900	1100 37 1.100000 0.387000 0.433000 500 35 0.900000 0.598000 0.542000 600 40 1.000000 0.051000 0.051000 1.200000 0.023000 0.027000
1517206692209765108	1100 37 1.100000 0.390000 0.437000 500 35 0.900000 0.681000 0.618000 600 40 1.000000 0.051000 0.051000 1.200000 0.027000 0.032000
1517206692722991817	1100 38 1.100000 0.387000 0.433000 500 35 0.900000 0.599000 0.545000 600 40 1.000000 0.051000 0.051000 1.200000 0.023000 0.027000
1517206693236208775	1100 38 1.100000 0.388000 0.434000 500 36 0.900000 0.598000 0.544000 600 40 1.000000 0.051000 0.051000 1.200000 0.023000 0.027000
1517206693750165525	1100 38 1.100000 0.388000 0.434000 500 36 0.900000 0.604000 0.549000 600 40 1.000000 0.051000 0.051000 1.200000 0.024000 0.028000
1517206694263251234	1100 38 1.100000 0.388000 0.434000 500 36 0.900000 0.606000 0.551000 600 40 1.000000 0.051000 0.051000 1.200000 0.024000 0.028000
1517206694778515275	1100 38 1.100000 0.388000 0.434000 500 36 0.900000 0.686000 0.622000 600 40 1.000000 0.051000 0.051000 1.200000 0.030000 0.036000
1517206695291457234	1100 38 1.100000 0.388000 0.435000 500 36 0.900000 0.606000 0.551000 600 40 1.000000 0.051000 0.051000 1.200000 0.024000 0.028000
1517206695804325776	1100 38 1.100000 0.388000 0.434000 500 36 0.900000 0.605000 0.550000 600 40 1.000000 0.051000 0.051000 1.200000 0.024000 0.028000
1517206696329715442	1100 38 1.100000 0.388000 0.434000 500 36 0.900000 0.599000 0.543000 600 40 1.000000 0.051000 0.051000 1.200000 0.023000 0.027000
1517206696848463901	1100 38 1.100000 0.390000 0.437000 500 36 0.900000 0.753000 0.683000 600 41 1.000000 0.051000 0.051000 1.200000 0.036000 0.043000
1517206697361638109	1100 38 1.100000 0.388000 0.434000 500 36 0.900000 0.600000 0.544000 600 41 1.000000 0.051000 0.051000 1.200000 0.023000 0.027000
1517206697874783067	1100 38 1.100000 0.388000 0.434000 500 36 0.900000 0.600000 0.544000 600 41 1.000000 0.051000 0.051000 1.200000 0.023000 0.027000
1517206698387860359	1100 38 1.100000 0.388000 0.434000 500 36 0.900000 0.599000 0.545000 600 40 1.000000 0.051000 0.051000 1.200000 0.023000 0.027000
1517206698916325943	1100 38 1.100000 0.388000 0.434000 500 36 0.900000 0.699000 0.634000 600 41 1.000000 0.051000 0.051000 1.200000 0.032000 0.038000
1517206699429689026	1100 38 1.100000 0.388000 0.434000 500 36 0.900000 0.601000 0.545000 600 41 1.000000 0.051000 0.051000 1.200000 0.023000 0.027000
1517206699942758026	1100 38 1.100000 0.388000 0.434000 500 36 0.900000 0.599000 0.545000 600 41 1.000000 0.051000 0.051000 1.200000 0.023000 0.027000
1517206700455597901	1100 38 1.100000 0.388000 0.434000 500 36 0.900000 0.600000 0.546000 600 41 1.000000 0.051000 0.051000 1.200000 0.023000 0.027000
1517206700984637651	1100 38 1.100000 0.388000 0.434000 500 36 0.900000 0.670000 0.609000 600 41 1.000000 0.051000 0.051000 1.200000 0.029000 0.035000
1517206701497836110	1100 38 1.100000 0.389000 0.436000 500 36 0.900000 0.654000 0.593000 600 41 1.000000 0.051000 0.051000 1.200000 0.025000 0.030000
1517206702010631693	1100 38 1.100000 0.388000 0.434000 500 36 0.900000 0.600000 0.544000 600 41 1.000000 0.051000 0.051000 1.200000 0.023000 0.027000
1517206702523845735	1100 38 1.100000 0.388000 0.434000 500 36 0.900000 0.610000 0.555000 600 41 1.000000 0.051000 0.051000 1.200000 0.024000 0.028000
1517206703037092443	1100 38 1.100000 0.388000 0.434000 500 36 0.900000 0.609000 0.554000 600 41 1.000000 0.051000 0.051000 1.200000 0.024000 0.028000
1517206703550145943	1100 38 1.100000 0.389000 0.436000 500 36 0.900000 0.627000 0.569000 600 41 1.000000 0.051000 0.051000 1.200000 0.025000 0.030000
1517206704063233652	1100 38 1.100000 0.388000 0.434000 500 36 0.900000 0.609000 0.552000 600 41 1.000000 0.051000 0.051000 1.200000 0.024000 0.028000
1517206704576295485	1100 38 1.100000 0.388000 0.434000 500 36 0.900000 0.606000 0.550000 600 41 1.000000 0.051000 0.051000 1.200000 0.024000 0.028000
1517206705089400235	1100 38 1.100000 0.388000 0.434000 500 36 0.900000 0.601000 0.545000 600 41 1.000000 0.051000 0.051000 1.200000 0.023000 0.027000
1517206705623844277	1100 38 1.100000 0.389000 0.436000 500 36 0.900000 0.672000 0.610000 600 41 1.000000 0.051000 0.051000 1.200000 0.029000 0.035000
1517206706136831110	1100 38 1.100000 0.391000 0.438000 500 36 0.900000 0.689000 0.625000 600 41 1.000000 0.051000 0.051000 1.200000 0.028000 0.033000
1517206706650035902	1100 38 1.100000 0.388000 0.434000 500 36 0.900000 0.605000 0.549000 600 41 1.000000 0.051000 0.051000 1.200000 0.023000 0.027000
1517206707162997444	1100 38 1.100000 0.388000 0.434000 500 36 0.900000 0.605000 0.549000 600 41 1.000000 0.051000 0.051000 1.200000 0.023000 0.027000
1517206707676219027	1100 38 1.100000 0.388000 0.434000 500 36 0.900000 0.669000 0.607000 600 41 1.000000 0.051000 0.051000 1.200000 0.029000 0.035000
1517206708189251944	1100 38 1.100000 0.389000 0.436000 500 36 0.900000 0.615000 0.558000 600 41 1.000000 0.051000 0.051000 1.200000 0.024000 0.028000
1517206708702688527	1100 38 1.100000 0.388000 0.434000 500 36 0.900000 0.610000 0.555000 600 41 1.000000 0.051000 0.051000 1.200000 0.024000 0.028000
1517206709232778694	1100 38 1.100000 0.388000 0.434000 500 36 0.900000 0.611000 0.554000 600 41 1.000000 0.051000 0.051000 1.200000 0.024000 0.028000
1517206709746189111	1100 38 1.100000 0.388000 0.434000 500 36 0.900000 0.673000 0.611000 600 40 1.000000 0.051000 0.051000 1.200000 0.029000 0.035000
1517206710276369402	1100 38 1.100000 0.389000 0.436000 500 36 0.900000 0.609000 0.552000 600 41 1.000000 0.051000 0.051000 1.200000 0.024000 0.028000
1517206710789668486	1100 38 1.100000 0.389000 0.436000 500 36 0.900000 0.673000 0.611000 600 41 1.000000 0.051000 0.051000 1.200000 0.026000 0.031000
1517206711328386902	1100 38 1.100000 0.388000 0.434000 500 36 0.900000 0.609000 0.554000 600 41 1.000000 0.051000 0.051000 1.200000 0.024000 0.028000
1517206711841807444	1100 38 1.100000 0.388000 0.434000 500 36 0.900000 0.673000 0.611000 600 41 1.000000 0.051000 0.051000 1.200000 0.029000 0.035000
1517206712367407944	1100 38 1.100000 0.388000 0.434000 500 36 0.900000 0.609000 0.552000 600 41 1.000000 0.051000 0.051000 1.200000 0.023000 0.027000
1517206712880759611	1100 38 1.100000 0.390000 0.437000 500 36 0.900000 0.743000 0.674000 600 41 1.000000 0.051000 0.051000 1.200000 0.031000 0.037000
1517206713420378153	1100 38 1.100000 0.388000 0.434000 500 36 0.900000 0.609000 0.554000 600 41 1.000000 0.051000 0.051000 1.200000 0.024000 0.028000
1517206713933645819	1100 38 1.100000 0.387000 0.433000 500 36 0.900000 0.675000 0.614000 600 41 1.000000 0.051000 0.051000 1.200000 0.029000 0.035000
1517206714446780361	1100 38 1.100000 0.387000 0.433000 500 36 0.900000 0.615000 0.559000 600 41 1.000000 0.051000 0.051000 1.200000 0.025000 0.030000
1517206714959777111	1100 38 1.100000 0.389000 0.436000 500 36 0.900000 0.672000 0.610000 600 41 1.000000 0.051000 0.051000 1.200000 0.027000 0.032000
1517206715476256361	1100 38 1.100000 0.389000 0.436000 500 36 0.900000 0.608000 0.552000 600 40 1.000000 0.051000 0.051000 1.200000 0.024000 0.028000
1517206716000621195	1100 38 1.100000 0.389000 0.436000 500 36 0.900000 0.671000 0.609000 600 41 1.000000 0.051000 0.051000 1.200000 0.030000 0.036000
1517206716513829320	1100 38 1.100000 0.388000 0.434000 500 36 0.900000 0.607000 0.551000 600 41 1.000000 0.051000 0.051000 1.200000 0.024000 0.028000
1517206717043110903	1100 38 1.100000 0.387000 0.433000 500 36 0.900000 0.600000 0.544000 600 41 1.000000 0.051000 0.051000 1.200000 0.023000 0.027000
1517206717556265320	1100 38 1.100000 0.388000 0.434000 500 36 0.900000 0.618000 0.561000 600 41 1.000000 0.051000 0.051000 1.200000 0.024000 0.028000
1517206718069549112	1100 38 1.100000 0.388000 0.434000 500 36 0.900000 0.663000 0.602000 600 41 1.000000 0.051000 0.051000 1.200000 0.029000 0.035000
1517206718582788487	1100 38 1.100000 0.388000 0.434000 500 36 0.900000 0.600000 0.546000 600 40 1.000000 0.051000 0.051000 1.200000 0.023000 0.027000
1517206719106028862	1100 38 1.100000 0.387000 0.433000 500 36 0.900000 0.601000 0.546000 600 40 1.000000 0.051000 0.051000 1.200000 0.023000 0.027000
1517206719619203195	1100 38 1.100000 0.388000 0.434000 500 36 0.900000 0.697000 0.632000 600 40 1.000000 0.051000 0.051000 1.200000 0.028000 0.033000
1517206720132833153	1100 38 1.100000 0.388000 0.434000 500 36 0.900000 0.620000 0.562000 600 40 1.000000 0.051000 0.051000 1.200000 0.025000 0.030000
1517206720645940695	1100 38 1.100000 0.388000 0.434000 500 36 0.900000 0.606000 0.550000 600 41 1.000000 0.051000 0.051000 1.200000 0.024000 0.028000
1517206721158922654	1100 38 1.100000 0.388000 0.434000 500 36 0.900000 0.607000 0.551000 600 40 1.000000 0.051000 0.051000 1.200000 0.025000 0.030000
1517206721671820404	1100 38 1.100000 0.388000 0.434000 500 36 0.900000 0.606000 0.550000 600 41 1.000000 0.051000 0.051000 1.200000 0.023000 0.027000
1517206722184952904	1100 38 1.100000 0.388000 0.434000 500 36 0.900000 0.661000 0.600000 600 40 1.000000 0.051000 0.051000 1.200000 0.027000 0.032000
1517206722698201404	1100 38 1.100000 0.387000 0.433000 500 36 0.900000 0.609000 0.554000 600 40 1.000000 0.051000 0.051000 1.200000 0.024000 0.028000
1517206723211120070	1100 38 1.100000 0.388000 0.434000 500 36 0.900000 0.609000 0.554000 600 40 1.000000 0.051000 0.051000 1.200000 0.023000 0.027000
1517206723737652321	1100 38 1.100000 0.388000 0.434000 500 36 0.900000 0.609000 0.552000 600 40 1.000000 0.051000 0.051000 1.200000 0.023000 0.027000
1517206724251144362	1100 38 1.100000 0.390000 0.437000 500 36 0.900000 0.746000 0.677000 600 41 1.000000 0.051000 0.051000 1.200000 0.031000 0.037000
1517206724764418737	1100 38 1.100000 0.386000 0.432000 500 36 0.900000 0.605000 0.549000 600 40 1.000000 0.051000 0.051000 1.200000 0.024000 0.028000
1517206725277592654	1100 38 1.100000 0.387000 0.433000 500 36 0.900000 0.602000 0.546000 600 40 1.000000 0.051000 0.051000 1.200000 0.024000 0.028000
1517206725790694404	1100 38 1.100000 0.388000 0.434000 500 36 0.900000 0.601000 0.545000 600 40 1.000000 0.051000 0.051000 1.200000 0.023000 0.027000
1517206726303586696	1100 38 1.100000 0.391000 0.438000 500 36 0.900000 0.712000 0.646000 600 41 1.000000 0.051000 0.051000 1.200000 0.031000 0.037000
1517206726816738613	1100 38 1.100000 0.388000 0.434000 500 36 0.900000 0.599000 0.543000 600 40 1.000000 0.051000 0.051000 1.200000 0.023000 0.027000
1517206727329976279	1100 38 1.100000 0.386000 0.432000 500 36 0.900000 0.600000 0.544000 600 40 1.000000 0.051000 0.051000 1.200000 0.023000 0.027000
1517206727842835196	1100 38 1.100000 0.386000 0.432000 500 36 0.900000 0.599000 0.543000 600 40 1.000000 0.051000 0.051000 1.200000 0.023000 0.027000
1517206728376150279	1100 38 1.100000 0.388000 0.434000 500 36 0.900000 0.611000 0.554000 600 40 1.000000 0.051000 0.051000 1.200000 0.024000 0.028000
1517206728889271238	1100 38 1.100000 0.391000 0.438000 500 36 0.900000 0.650000 0.590000 600 41 1.000000 0.051000 0.051000 1.200000 0.025000 0.030000
1517206729402462863	1100 38 1.100000 0.388000 0.434000 500 36 0.900000 0.602000 0.546000 600 40 1.000000 0.051000 0.051000 1.200000 0.023000 0.027000
1517206729915418446	1100 38 1.100000 0.387000 0.433000 500 36 0.900000 0.599000 0.543000 600 40 1.000000 0.051000 0.051000 1.200000 0.023000 0.027000
1517206730438319030	1100 38 1.100000 0.386000 0.432000 500 36 0.900000 0.609000 0.552000 600 40 1.000000 0.051000 0.051000 1.200000 0.024000 0.028000
1517206730951807905	1100 38 1.100000 0.387000 0.433000 500 36 0.900000 0.679000 0.616000 600 40 1.000000 0.051000 0.051000 1.200000 0.030000 0.036000
1517206731464898071	1100 38 1.100000 0.388000 0.434000 500 36 0.900000 0.608000 0.552000 600 40 1.000000 0.051000 0.051000 1.200000 0.024000 0.028000
1517206731978277780	1100 38 1.100000 0.388000 0.434000 500 36 0.900000 0.607000 0.551000 600 40 1.000000 0.051000 0.051000 1.200000 0.023000 0.027000
1517206732516346905	1100 38 1.100000 0.388000 0.434000 500 36 0.900000 0.609000 0.552000 600 40 1.000000 0.051000 0.051000 1.200000 0.023000 0.027000
1517206733047243447	1100 38 1.100000 0.386000 0.432000 500 36 0.900000 0.654000 0.593000 600 40 1.000000 0.051000 0.051000 1.200000 0.029000 0.035000
1517206733560449947	1100 38 1.100000 0.388000 0.434000 500 36 0.900000 0.661000 0.600000 600 40 1.000000 0.051000 0.051000 1.200000 0.026000 0.031000
1517206734073552613	1100 38 1.100000 0.387000 0.433000 500 36 0.900000 0.608000 0.552000 600 40 1.000000 0.051000 0.051000 1.200000 0.023000 0.027000
1517206734610516989	1100 38 1.100000 0.388000 0.434000 500 36 0.900000 0.608000 0.552000 600 40 1.000000 0.051000 0.051000 1.200000 0.024000 0.028000
1517206735136114989	1100 38 1.100000 0.388000 0.434000 500 36 0.900000 0.647000 0.587000 600 40 1.000000 0.051000 0.051000 1.200000 0.028000 0.033000
1517206735649270197	1100 38 1.100000 0.390000 0.437000 500 36 0.900000 0.737000 0.669000 600 40 1.000000 0.051000 0.051000 1.200000 0.029000 0.035000
1517206736162206030	1100 38 1.100000 0.386000 0.432000 500 36 0.900000 0.602000 0.546000 600 40 1.000000 0.051000 0.051000 1.200000 0.023000 0.027000
1517206736676964655	1100 38 1.100000 0.386000 0.432000 500 36 0.900000 0.601000 0.545000 600 40 1.000000 0.051000 0.051000 1.200000 0.023000 0.027000
1517206737190327614	1100 38 1.100000 0.388000 0.434000 500 36 0.900000 0.642000 0.582000 600 40 1.000000 0.051000 0.051000 1.200000 0.027000 0.032000
1517206737703352739	1100 38 1.100000 0.389000 0.436000 500 36 0.900000 0.674000 0.611000 600 40 1.000000 0.051000 0.051000 1.200000 0.025000 0.030000
1517206738216312947	1100 38 1.100000 0.388000 0.434000 500 36 0.900000 0.600000 0.544000 600 40 1.000000 0.051000 0.051000 1.200000 0.023000 0.027000
1517206738729191156	1100 38 1.100000 0.387000 0.433000 500 36 0.900000 0.598000 0.542000 600 40 1.000000 0.051000 0.051000 1.200000 0.023000 0.027000
1517206739242664864	1100 38 1.100000 0.386000 0.432000 500 36 0.900000 0.632000 0.573000 600 40 1.000000 0.051000 0.051000 1.200000 0.026000 0.031000
1517206739770052614	1100 38 1.100000 0.386000 0.432000 500 36 0.900000 0.600000 0.544000 600 40 1.000000 0.051000 0.051000 1.200000 0.023000 0.027000
1517206740283208573	1100 38 1.100000 0.391000 0.438000 500 36 0.900000 0.608000 0.552000 600 40 1.000000 0.051000 0.051000 1.200000 0.024000 0.028000
1517206740796198281	1100 38 1.100000 0.388000 0.434000 500 36 0.900000 0.600000 0.544000 600 40 1.000000 0.051000 0.051000 1.200000 0.023000 0.027000
1517206741309280281	1100 38 1.100000 0.388000 0.434000 500 36 0.900000 0.657000 0.596000 600 40 1.000000 0.051000 0.051000 1.200000 0.025000 0.030000
1517206741822535614	1100 38 1.100000 0.387000 0.433000 500 36 0.900000 0.609000 0.552000 600 40 1.000000 0.051000 0.051000 1.200000 0.023000 0.027000
1517206742335554406	1100 38 1.100000 0.389000 0.436000 500 36 0.900000 0.668000 0.606000 600 41 1.000000 0.051000 0.051000 1.200000 0.026000 0.031000
1517206742848626114	1100 38 1.100000 0.387000 0.433000 500 36 0.900000 0.608000 0.552000 600 40 1.000000 0.051000 0.051000 1.200000 0.023000 0.027000
1517206743362072115	1100 38 1.100000 0.388000 0.434000 500 36 0.900000 0.667000 0.605000 600 40 1.000000 0.051000 0.051000 1.200000 0.025000 0.030000
1517206743874935531	1100 38 1.100000 0.388000 0.434000 500 36 0.900000 0.609000 0.552000 600 40 1.000000 0.051000 0.051000 1.200000 0.025000 0.030000
1517206744396706073	1100 38 1.100000 0.388000 0.434000 500 36 0.900000 0.604000 0.548000 600 40 1.000000 0.051000 0.051000 1.200000 0.023000 0.027000
1517206744910000240	1100 38 1.100000 0.388000 0.434000 500 36 0.900000 0.735000 0.667000 600 40 1.000000 0.051000 0.051000 1.200000 0.029000 0.035000
1517206745422985781	1100 38 1.100000 0.386000 0.432000 500 36 0.900000 0.612000 0.555000 600 40 1.000000 0.051000 0.051000 1.200000 0.024000 0.028000
1517206745936040615	1100 38 1.100000 0.387000 0.433000 500 36 0.900000 0.606000 0.550000 600 40 1.000000 0.051000 0.051000 1.200000 0.024000 0.028000
1517206746450916407	1100 38 1.100000 0.388000 0.434000 500 36 0.900000 0.603000 0.547000 600 40 1.000000 0.051000 0.051000 1.200000 0.023000 0.027000
1517206746964090657	1100 38 1.100000 0.390000 0.437000 500 36 0.900000 0.655000 0.594000 600 40 1.000000 0.051000 0.051000 1.200000 0.025000 0.030000
1517206747477240115	1100 38 1.100000 0.388000 0.434000 500 36 0.900000 0.607000 0.551000 600 40 1.000000 0.051000 0.051000 1.200000 0.023000 0.027000
1517206747990499407	1100 38 1.100000 0.387000 0.433000 500 36 0.900000 0.607000 0.551000 600 40 1.000000 0.051000 0.051000 1.200000 0.024000 0.028000
1517206748503348365	1100 38 1.100000 0.386000 0.432000 500 36 0.900000 0.606000 0.550000 600 40 1.000000 0.051000 0.051000 1.200000 0.023000 0.027000
1517206749016382407	1100 38 1.100000 0.388000 0.434000 500 36 0.900000 0.609000 0.552000 600 41 1.000000 0.051000 0.051000 1.200000 0.023000 0.027000
1517206749529842615	1100 38 1.100000 0.388000 0.434000 500 36 0.900000 0.626000 0.569000 600 40 1.000000 0.051000 0.051000 1.200000 0.025000 0.030000
1517206750042826990	1100 38 1.100000 0.388000 0.434000 500 36 0.900000 0.609000 0.552000 600 40 1.000000 0.051000 0.051000 1.200000 0.024000 0.028000
1517206750555533490	1100 38 1.100000 0.388000 0.434000 500 36 0.900000 0.609000 0.552000 600 40 1.000000 0.051000 0.051000 1.200000 0.024000 0.028000
1517206751083626490	1100 38 1.100000 0.386000 0.432000 500 36 0.900000 0.611000 0.556000 600 40 1.000000 0.051000 0.051000 1.200000 0.023000 0.027000
1517206751596940657	1100 38 1.100000 0.387000 0.433000 500 36 0.900000 0.699000 0.634000 600 40 1.000000 0.051000 0.051000 1.200000 0.027000 0.032000
1517206752110242907	1100 38 1.100000 0.388000 0.434000 500 36 0.900000 0.604000 0.548000 600 40 1.000000 0.051000 0.051000 1.200000 0.023000 0.027000
1517206752623048491	1100 38 1.100000 0.388000 0.434000 500 36 0.900000 0.601000 0.545000 600 40 1.000000 0.051000 0.051000 1.200000 0.023000 0.027000
1517206753136182907	1100 38 1.100000 0.388000 0.434000 500 36 0.900000 0.599000 0.543000 600 40 1.000000 0.051000 0.051000 1.200000 0.023000 0.027000
1517206753649281741	1100 38 1.100000 0.390000 0.437000 500 36 0.900000 0.708000 0.642000 600 40 1.000000 0.051000 0.051000 1.200000 0.027000 0.032000
1517206754162468449	1100 38 1.100000 0.389000 0.436000 500 36 0.900000 0.701000 0.636000 600 40 1.000000 0.051000 0.051000 1.200000 0.030000 0.036000
1517206754675417616	1100 38 1.100000 0.387000 0.433000 500 36 0.900000 0.609000 0.552000 600 40 1.000000 0.051000 0.051000 1.200000 0.025000 0.030000
1517206755188375949	1100 38 1.100000 0.387000 0.433000 500 36 0.900000 0.609000 0.552000 600 40 1.000000 0.051000 0.051000 1.200000 0.023000 0.027000
1517206755722276866	1100 38 1.100000 0.388000 0.434000 500 36 0.900000 0.608000 0.552000 600 40 1.000000 0.051000 0.051000 1.200000 0.024000 0.028000
1517206756244640824	1100 38 1.100000 0.391000 0.438000 500 36 0.900000 0.751000 0.681000 600 40 1.000000 0.051000 0.051000 1.200000 0.035000 0.042000
1517206756757502324	1100 38 1.100000 0.388000 0.434000 500 36 0.900000 0.604000 0.549000 600 40 1.000000 0.051000 0.051000 1.200000 0.024000 0.028000
1517206757271017783	1100 38 1.100000 0.387000 0.433000 500 36 0.900000 0.606000 0.550000 600 40 1.000000 0.051000 0.051000 1.200000 0.026000 0.031000
1517206757784291783	1100 38 1.100000 0.386000 0.432000 500 36 0.900000 0.608000 0.552000 600 40 1.000000 0.051000 0.051000 1.200000 0.024000 0.028000
1517206758297409158	1100 38 1.100000 0.390000 0.437000 500 36 0.900000 0.692000 0.628000 600 40 1.000000 0.051000 0.051000 1.200000 0.030000 0.036000
1517206758810735158	1100 38 1.100000 0.389000 0.436000 500 36 0.900000 0.609000 0.552000 600 40 1.000000 0.051000 0.051000 1.200000 0.024000 0.028000
1517206759323924241	1100 38 1.100000 0.388000 0.434000 500 36 0.900000 0.608000 0.552000 600 40 1.000000 0.051000 0.051000 1.200000 0.023000 0.027000
1517206759836917367	1100 38 1.100000 0.388000 0.434000 500 36 0.900000 0.610000 0.553000 600 40 1.000000 0.051000 0.051000 1.200000 0.024000 0.028000
1517206760358411450	1100 38 1.100000 0.387000 0.433000 500 36 0.900000 0.670000 0.608000 600 40 1.000000 0.051000 0.051000 1.200000 0.029000 0.035000
1517206760878245700	1100 38 1.100000 0.389000 0.436000 500 36 0.900000 0.660000 0.599000 600 40 1.000000 0.051000 0.051000 1.200000 0.027000 0.032000
1517206761391027325	1100 38 1.100000 0.387000 0.433000 500 36 0.900000 0.600000 0.544000 600 40 1.000000 0.051000 0.051000 1.200000 0.024000 0.028000
1517206761903918492	1100 38 1.100000 0.388000 0.434000 500 36 0.900000 0.602000 0.546000 600 40 1.000000 0.051000 0.051000 1.200000 0.023000 0.027000
1517206762416979075	1100 38 1.100000 0.388000 0.434000 500 36 0.900000 0.663000 0.602000 600 40 1.000000 0.051000 0.051000 1.200000 0.029000 0.035000
1517206762930074409	1100 38 1.100000 0.390000 0.437000 500 36 0.900000 0.735000 0.667000 600 40 1.000000 0.051000 0.051000 1.200000 0.029000 0.035000
1517206763442984784	1100 38 1.100000 0.387000 0.433000 500 36 0.900000 0.599000 0.543000 600 40 1.000000 0.051000 0.051000 1.200000 0.023000 0.027000
1517206763956043825	1100 38 1.100000 0.387000 0.433000 500 36 0.900000 0.598000 0.542000 600 40 1.000000 0.051000 0.051000 1.200000 0.023000 0.027000
1517206764469348534	1100 38 1.100000 0.388000 0.434000 500 36 0.900000 0.663000 0.602000 600 40 1.000000 0.051000 0.051000 1.200000 0.028000 0.033000
1517206764996285159	1100 38 1.100000 0.388000 0.434000 500 36 0.900000 0.610000 0.553000 600 40 1.000000 0.051000 0.051000 1.200000 0.023000 0.027000
1517206765513001034	1100 38 1.100000 0.391000 0.438000 500 36 0.900000 0.671000 0.609000 600 40 1.000000 0.051000 0.051000 1.200000 0.027000 0.032000
1517206766026179867	1100 38 1.100000 0.388000 0.434000 500 36 0.900000 0.608000 0.552000 600 40 1.000000 0.051000 0.051000 1.200000 0.024000 0.028000
1517206766539431659	1100 38 1.100000 0.388000 0.434000 500 36 0.900000 0.605000 0.550000 600 40 1.000000 0.051000 0.051000 1.200000 0.024000 0.028000
1517206767063376867	1100 38 1.100000 0.387000 0.433000 500 36 0.900000 0.605000 0.549000 600 40 1.000000 0.051000 0.051000 1.200000 0.024000 0.028000
1517206767580330909	1100 38 1.100000 0.389000 0.436000 500 36 0.900000 0.744000 0.675000 600 40 1.000000 0.051000 0.051000 1.200000 0.029000 0.035000
1517206768093295159	1100 38 1.100000 0.388000 0.434000 500 36 0.900000 0.606000 0.550000 600 40 1.000000 0.051000 0.051000 1.200000 0.024000 0.028000
1517206768606629534	1100 38 1.100000 0.388000 0.434000 500 36 0.900000 0.608000 0.552000 600 40 1.000000 0.051000 0.051000 1.200000 0.023000 0.027000
1517206769119799618	1100 38 1.100000 0.388000 0.434000 500 36 0.900000 0.610000 0.553000 600 40 1.000000 0.051000 0.051000 1.200000 0.024000 0.028000
1517206769632557368	1100 38 1.100000 0.389000 0.436000 500 36 0.900000 0.665000 0.603000 600 40 1.000000 0.051000 0.051000 1.200000 0.026000 0.031000
1517206770145858076	1100 38 1.100000 0.387000 0.433000 500 36 0.900000 0.600000 0.544000 600 40 1.000000 0.051000 0.051000 1.200000 0.023000 0.027000
1517206770658789451	1100 38 1.100000 0.387000 0.433000 500 36 0.900000 0.598000 0.542000 600 40 1.000000 0.051000 0.051000 1.200000 0.023000 0.027000
1517206771171911368	1100 38 1.100000 0.388000 0.434000 500 36 0.900000 0.600000 0.544000 600 40 1.000000 0.051000 0.051000 1.200000 0.023000 0.027000
1517206771700865326	1100 38 1.100000 0.388000 0.434000 500 36 0.900000 0.599000 0.543000 600 40 1.000000 0.051000 0.051000 1.200000 0.023000 0.027000
1517206772216384118	1100 38 1.100000 0.391000 0.438000 500 36 0.900000 0.619000 0.563000 600 40 1.000000 0.051000 0.051000 1.200000 0.024000 0.028000
1517206772729684535	1100 38 1.100000 0.388000 0.434000 500 36 0.900000 0.600000 0.544000 600 40 1.000000 0.051000 0.051000 1.200000 0.023000 0.027000
1517206773242855368	1100 38 1.100000 0.387000 0.433000 500 36 0.900000 0.601000 0.545000 600 40 1.000000 0.051000 0.051000 1.200000 0.023000 0.027000
1517206773755936910	1100 38 1.100000 0.387000 0.433000 500 36 0.900000 0.599000 0.543000 600 40 1.000000 0.051000 0.051000 1.200000 0.023000 0.027000
1517206774268928952	1100 38 1.100000 0.391000 0.438000 500 36 0.900000 0.690000 0.626000 600 40 1.000000 0.051000 0.051000 1.200000 0.027000 0.032000
1517206774804573327	1100 38 1.100000 0.388000 0.434000 500 36 0.900000 0.601000 0.545000 600 40 1.000000 0.051000 0.051000 1.200000 0.023000 0.027000
1517206775324318243	1100 38 1.100000 0.388000 0.434000 500 36 0.900000 0.598000 0.542000 600 40 1.000000 0.051000 0.051000 1.200000 0.023000 0.027000
1517206775837551577	1100 38 1.100000 0.387000 0.433000 500 36 0.900000 0.600000 0.546000 600 40 1.000000 0.051000 0.051000 1.200000 0.023000 0.027000
1517206776350746118	1100 38 1.100000 0.390000 0.437000 500 36 0.900000 0.722000 0.655000 600 40 1.000000 0.051000 0.051000 1.200000 0.028000 0.033000
1517206776892408535	1100 38 1.100000 0.387000 0.433000 500 36 0.900000 0.609000 0.552000 600 40 1.000000 0.051000 0.051000 1.200000 0.023000 0.027000
1517206777405607244	1100 38 1.100000 0.387000 0.433000 500 36 0.900000 0.601000 0.545000 600 40 1.000000 0.051000 0.051000 1.200000 0.023000 0.027000
1517206777919104910	1100 38 1.100000 0.387000 0.433000 500 36 0.900000 0.598000 0.542000 600 40 1.000000 0.051000 0.051000 1.200000 0.024000 0.028000
1517206778444236994	1100 38 1.100000 0.388000 0.434000 500 36 0.900000 0.608000 0.552000 600 40 1.000000 0.051000 0.051000 1.200000 0.023000 0.027000
1517206778988499869	1100 38 1.100000 0.390000 0.437000 500 36 0.900000 0.699000 0.634000 600 40 1.000000 0.051000 0.051000 1.200000 0.029000 0.035000
1517206779502233702	1100 38 1.100000 0.388000 0.434000 500 36 0.900000 0.601000 0.545000 600 40 1.000000 0.051000 0.051000 1.200000 0.029000 0.035000
1517206780015117911	1100 38 1.100000 0.387000 0.433000 500 36 0.900000 0.601000 0.545000 600 40 1.000000 0.051000 0.051000 1.200000 0.024000 0.028000
1517206780528216661	1100 38 1.100000 0.387000 0.433000 500 36 0.900000 0.608000 0.553000 600 40 1.000000 0.051000 0.051000 1.200000 0.024000 0.028000
1517206781041163036	1100 38 1.100000 0.389000 0.436000 500 36 0.900000 0.611000 0.556000 600 40 1.000000 0.051000 0.051000 1.200000 0.028000 0.033000
1517206781554429952	1100 38 1.100000 0.389000 0.436000 500 36 0.900000 0.649000 0.590000 600 40 1.000000 0.051000 0.051000 1.200000 0.028000 0.033000
1517206782067417244	1100 38 1.100000 0.388000 0.434000 500 36 0.900000 0.609000 0.554000 600 40 1.000000 0.051000 0.051000 1.200000 0.023000 0.027000
1517206782580401786	1100 38 1.100000 0.387000 0.433000 500 36 0.900000 0.609000 0.552000 600 40 1.000000 0.051000 0.051000 1.200000 0.023000 0.027000
1517206783106732911	1100 38 1.100000 0.387000 0.433000 500 36 0.900000 0.606000 0.551000 600 40 1.000000 0.051000 0.051000 1.200000 0.024000 0.028000
1517206783626598994	1100 38 1.100000 0.387000 0.433000 500 36 0.900000 0.732000 0.664000 600 40 1.000000 0.051000 0.051000 1.200000 0.028000 0.033000
1517206784139599119	1100 38 1.100000 0.387000 0.433000 500 36 0.900000 0.608000 0.553000 600 40 1.000000 0.051000 0.051000 1.200000 0.024000 0.028000
1517206784652381911	1100 38 1.100000 0.388000 0.434000 500 36 0.900000 0.607000 0.551000 600 40 1.000000 0.051000 0.051000 1.200000 0.023000 0.027000
1517206785179231161	1100 38 1.100000 0.388000 0.434000 500 36 0.900000 0.607000 0.551000 600 40 1.000000 0.051000 0.051000 1.200000 0.023000 0.027000
1517206785699127828	1100 38 1.100000 0.390000 0.437000 500 36 0.900000 0.704000 0.639000 600 40 1.000000 0.051000 0.051000 1.200000 0.029000 0.035000
1517206786212324328	1100 38 1.100000 0.387000 0.433000 500 36 0.900000 0.606000 0.550000 600 40 1.000000 0.051000 0.051000 1.200000 0.024000 0.028000
1517206786725213828	1100 38 1.100000 0.387000 0.433000 500 36 0.900000 0.606000 0.551000 600 40 1.000000 0.051000 0.051000 1.200000 0.023000 0.027000
1517206787238180453	1100 38 1.100000 0.388000 0.434000 500 36 0.900000 0.605000 0.549000 600 40 1.000000 0.051000 0.051000 1.200000 0.024000 0.028000
1517206787766582870	1100 38 1.100000 0.389000 0.436000 500 36 0.900000 0.607000 0.551000 600 40 1.000000 0.051000 0.051000 1.200000 0.023000 0.027000
1517206788279891745	1100 38 1.100000 0.388000 0.434000 500 36 0.900000 0.664000 0.602000 600 40 1.000000 0.051000 0.051000 1.200000 0.028000 0.033000
1517206788792953495	1100 38 1.100000 0.387000 0.433000 500 36 0.900000 0.612000 0.556000 600 40 1.000000 0.051000 0.051000 1.200000 0.023000 0.027000
1517206789306178787	1100 38 1.100000 0.387000 0.433000 500 35 0.900000 0.610000 0.555000 600 40 1.000000 0.051000 0.051000 1.200000 0.024000 0.028000
1517206789819410370	1100 38 1.100000 0.387000 0.433000 500 36 0.900000 0.598000 0.542000 600 40 1.000000 0.051000 0.051000 1.200000 0.023000 0.027000
1517206790332793287	1100 38 1.100000 0.390000 0.437000 500 36 0.900000 0.734000 0.666000 600 40 1.000000 0.051000 0.051000 1.200000 0.029000 0.035000
1517206790845938454	1100 38 1.100000 0.388000 0.434000 500 36 0.900000 0.605000 0.549000 600 40 1.000000 0.051000 0.051000 1.200000 0.025000 0.030000
1517206791358926620	1100 38 1.100000 0.389000 0.436000 500 36 0.900000 0.606000 0.550000 600 40 1.000000 0.051000 0.051000 1.200000 0.023000 0.027000
1517206791872169704	1100 38 1.100000 0.388000 0.435000 500 35 0.900000 0.604000 0.548000 600 40 1.000000 0.051000 0.051000 1.200000 0.023000 0.027000
1517206792385229662	1100 38 1.100000 0.387000 0.433000 500 36 0.900000 0.660000 0.595000 600 40 1.000000 0.051000 0.051000 1.200000 0.030000 0.036000
1517206792898599079	1100 38 1.100000 0.388000 0.434000 500 36 0.900000 0.666000 0.600000 600 40 1.000000 0.051000 0.051000 1.200000 0.026000 0.031000
1517206793411483829	1100 38 1.100000 0.387000 0.433000 500 35 0.900000 0.602000 0.543000 600 40 1.000000 0.051000 0.051000 1.200000 0.023000 0.027000
1517206793924665954	1100 38 1.100000 0.388000 0.434000 500 35 0.900000 0.603000 0.543000 600 40 1.000000 0.051000 0.051000 1.200000 0.024000 0.028000
1517206794450270454	1100 38 1.100000 0.388000 0.434000 500 36 0.900000 0.648000 0.583000 600 40 1.000000 0.051000 0.051000 1.200000 0.030000 0.036000
1517206794963372204	1100 38 1.100000 0.390000 0.437000 500 35 0.900000 0.735000 0.662000 600 40 1.000000 0.051000 0.051000 1.200000 0.029000 0.035000
1517206795476409662	1100 38 1.100000 0.387000 0.433000 500 36 0.900000 0.598000 0.538000 600 40 1.000000 0.051000 0.051000 1.200000 0.024000 0.028000
1517206796014876413	1100 38 1.100000 0.387000 0.433000 500 36 0.900000 0.601000 0.541000 600 40 1.000000 0.051000 0.051000 1.200000 0.023000 0.027000
1517206796528067329	1100 38 1.100000 0.387000 0.433000 500 35 0.900000 0.637000 0.573000 600 40 1.000000 0.051000 0.051000 1.200000 0.028000 0.033000
1517206797040982079	1100 38 1.100000 0.388000 0.434000 500 35 0.900000 0.668000 0.602000 600 40 1.000000 0.051000 0.051000 1.200000 0.026000 0.031000
1517206797554271996	1100 38 1.100000 0.389000 0.436000 500 35 0.900000 0.597000 0.537000 600 40 1.000000 0.051000 0.051000 1.200000 0.024000 0.028000
1517206798084264454	1100 38 1.100000 0.388000 0.434000 500 36 0.900000 0.597000 0.537000 600 40 1.000000 0.051000 0.051000 1.200000 0.024000 0.028000
1517206798600642329	1100 38 1.100000 0.388000 0.434000 500 36 0.900000 0.633000 0.570000 600 40 1.000000 0.051000 0.051000 1.200000 0.028000 0.033000
1517206799126914746	1100 38 1.100000 0.387000 0.433000 500 35 0.900000 0.593000 0.534000 600 40 1.000000 0.051000 0.051000 1.200000 0.024000 0.028000
1517206799646896705	1100 38 1.100000 0.387000 0.433000 500 35 0.900000 0.603000 0.543000 600 40 1.000000 0.051000 0.051000 1.200000 0.025000 0.030000
1517206800188727705	1100 38 1.100000 0.388000 0.434000 500 35 0.900000 0.595000 0.536000 600 40 1.000000 0.051000 0.051000 1.200000 0.024000 0.028000
1517206800702292830	1100 38 1.100000 0.388000 0.434000 500 35 0.900000 0.628000 0.566000 600 40 1.000000 0.051000 0.051000 1.200000 0.028000 0.033000
1517206801224439705	1100 38 1.100000 0.388000 0.434000 500 35 0.900000 0.596000 0.536000 600 40 1.000000 0.051000 0.051000 1.200000 0.023000 0.027000
1517206801737776830	1100 38 1.100000 0.388000 0.434000 500 35 0.900000 0.683000 0.616000 600 40 1.000000 0.051000 0.051000 1.200000 0.027000 0.032000
1517206802250756872	1100 38 1.100000 0.386000 0.432000 500 36 0.900000 0.592000 0.533000 600 40 1.000000 0.051000 0.051000 1.200000 0.023000 0.027000
1517206802764117497	1100 38 1.100000 0.387000 0.433000 500 35 0.900000 0.615000 0.554000 600 40 1.000000 0.051000 0.051000 1.200000 0.027000 0.032000
1517206803277389830	1100 38 1.100000 0.388000 0.434000 500 35 0.900000 0.595000 0.536000 600 40 1.000000 0.051000 0.051000 1.200000 0.023000 0.027000
1517206803790692205	1100 38 1.100000 0.389000 0.436000 500 36 0.900000 0.715000 0.644000 600 40 1.000000 0.051000 0.051000 1.200000 0.027000 0.032000
1517206804303609580	1100 38 1.100000 0.390000 0.437000 500 36 0.900000 0.593000 0.534000 600 40 1.000000 0.051000 0.051000 1.200000 0.023000 0.027000
1517206804816966789	1100 38 1.100000 0.388000 0.434000 500 36 0.900000 0.656000 0.591000 600 40 1.000000 0.051000 0.051000 1.200000 0.026000 0.031000
1517206805330022580	1100 38 1.100000 0.387000 0.433000 500 35 0.900000 0.603000 0.543000 600 40 1.000000 0.051000 0.051000 1.200000 0.024000 0.028000
1517206805851832497	1100 38 1.100000 0.387000 0.433000 500 35 0.900000 0.602000 0.543000 600 40 1.000000 0.051000 0.051000 1.200000 0.023000 0.027000
1517206806364924539	1100 38 1.100000 0.391000 0.438000 500 36 0.900000 0.692000 0.624000 600 40 1.000000 0.051000 0.051000 1.200000 0.028000 0.033000
1517206806878462455	1100 38 1.100000 0.388000 0.434000 500 36 0.900000 0.671000 0.605000 600 40 1.000000 0.051000 0.051000 1.200000 0.028000 0.033000
1517206807391491414	1100 38 1.100000 0.388000 0.434000 500 35 0.900000 0.604000 0.544000 600 40 1.000000 0.051000 0.051000 1.200000 0.024000 0.028000
1517206807904402956	1100 38 1.100000 0.387000 0.433000 500 36 0.900000 0.604000 0.544000 600 40 1.000000 0.051000 0.051000 1.200000 0.023000 0.027000
1517206808417653456	1100 38 1.100000 0.390000 0.437000 500 36 0.900000 0.704000 0.635000 600 40 1.000000 0.051000 0.051000 1.200000 0.028000 0.033000
1517206808931225372	1100 38 1.100000 0.387000 0.434000 500 36 0.900000 0.662000 0.597000 600 40 1.000000 0.051000 0.051000 1.200000 0.028000 0.033000
1517206809444323122	1100 38 1.100000 0.388000 0.434000 500 35 0.900000 0.592000 0.533000 600 40 1.000000 0.051000 0.051000 1.200000 0.023000 0.027000
1517206809957685081	1100 38 1.100000 0.388000 0.434000 500 35 0.900000 0.594000 0.535000 600 40 1.000000 0.051000 0.051000 1.200000 0.023000 0.027000
1517206810486330123	1100 38 1.100000 0.388000 0.434000 500 35 0.900000 0.631000 0.569000 600 40 1.000000 0.051000 0.051000 1.200000 0.025000 0.030000
1517206811006528706	1100 38 1.100000 0.388000 0.434000 500 35 0.900000 0.662000 0.597000 600 40 1.000000 0.051000 0.051000 1.200000 0.029000 0.035000
1517206811519525164	1100 38 1.100000 0.386000 0.432000 500 35 0.900000 0.594000 0.535000 600 40 1.000000 0.051000 0.051000 1.200000 0.023000 0.027000
1517206812032650831	1100 38 1.100000 0.387000 0.433000 500 35 0.900000 0.592000 0.533000 600 40 1.000000 0.051000 0.051000 1.200000 0.023000 0.027000
1517206812557940998	1100 38 1.100000 0.388000 0.434000 500 35 0.900000 0.594000 0.535000 600 40 1.000000 0.051000 0.051000 1.200000 0.023000 0.027000
1517206813076557831	1100 38 1.100000 0.391000 0.438000 500 36 0.900000 0.700000 0.631000 600 40 1.000000 0.051000 0.051000 1.200000 0.031000 0.037000
1517206813589748290	1100 38 1.100000 0.388000 0.434000 500 35 0.900000 0.594000 0.535000 600 40 1.000000 0.051000 0.051000 1.200000 0.023000 0.027000
1517206814102723540	1100 38 1.100000 0.387000 0.434000 500 35 0.900000 0.594000 0.535000 600 40 1.000000 0.051000 0.051000 1.200000 0.023000 0.027000
1517206814615994581	1100 38 1.100000 0.386000 0.432000 500 35 0.900000 0.594000 0.535000 600 40 1.000000 0.051000 0.051000 1.200000 0.023000 0.027000
1517206815142864456	1100 38 1.100000 0.390000 0.437000 500 36 0.900000 0.746000 0.672000 600 40 1.000000 0.051000 0.051000 1.200000 0.034000 0.041000
1517206815660371623	1100 38 1.100000 0.389000 0.436000 500 36 0.900000 0.594000 0.535000 600 40 1.000000 0.051000 0.051000 1.200000 0.023000 0.027000
1517206816173748707	1100 38 1.100000 0.388000 0.434000 500 35 0.900000 0.604000 0.544000 600 40 1.000000 0.051000 0.051000 1.200000 0.024000 0.028000
1517206816686842248	1100 37 1.100000 0.388000 0.434000 500 35 0.900000 0.604000 0.544000 600 40 1.000000 0.051000 0.051000 1.200000 0.024000 0.028000
1517206817220922457	1100 38 1.100000 0.387000 0.433000 500 35 0.900000 0.601000 0.541000 600 40 1.000000 0.051000 0.051000 1.200000 0.023000 0.027000
1517206817734145290	1100 38 1.100000 0.388000 0.434000 500 35 0.900000 0.727000 0.655000 600 40 1.000000 0.051000 0.051000 1.200000 0.030000 0.036000
1517206818246992415	1100 38 1.100000 0.387000 0.433000 500 35 0.900000 0.597000 0.538000 600 40 1.000000 0.051000 0.051000 1.200000 0.024000 0.028000
1517206818760087957	1100 38 1.100000 0.388000 0.434000 500 35 0.900000 0.604000 0.544000 600 40 1.000000 0.051000 0.051000 1.200000 0.023000 0.027000
1517206819296324249	1100 37 1.100000 0.388000 0.434000 500 36 0.900000 0.600000 0.540000 600 40 1.000000 0.051000 0.051000 1.200000 0.023000 0.027000
1517206819820469124	1100 38 1.100000 0.389000 0.436000 500 35 0.900000 0.665000 0.599000 600 40 1.000000 0.051000 0.051000 1.200000 0.028000 0.033000
1517206820333665957	1100 38 1.100000 0.386000 0.432000 500 35 0.900000 0.663000 0.598000 600 40 1.000000 0.051000 0.051000 1.200000 0.023000 0.027000
1517206820846805999	1100 38 1.100000 0.387000 0.433000 500 35 0.900000 0.598000 0.538000 600 40 1.000000 0.051000 0.051000 1.200000 0.023000 0.027000
1517206821380866499	1100 38 1.100000 0.388000 0.434000 500 35 0.900000 0.601000 0.541000 600 40 1.000000 0.051000 0.051000 1.200000 0.023000 0.027000
1517206821904392332	1100 38 1.100000 0.388000 0.434000 500 35 0.900000 0.668000 0.602000 600 40 1.000000 0.051000 0.051000 1.200000 0.024000 0.028000
1517206822420823249	1100 38 1.100000 0.391000 0.438000 500 35 0.900000 0.737000 0.664000 600 40 1.000000 0.051000 0.051000 1.200000 0.024000 0.028000
1517206822933970332	1100 37 1.100000 0.388000 0.434000 500 35 0.900000 0.601000 0.541000 600 40 1.000000 0.051000 0.051000 1.200000 0.023000 0.027000
1517206823456415666	1100 37 1.100000 0.386000 0.432000 500 35 0.900000 0.604000 0.544000 600 40 1.000000 0.051000 0.051000 1.200000 0.023000 0.027000
1517206823972698833	1100 38 1.100000 0.388000 0.434000 500 35 0.900000 0.665000 0.599000 600 40 1.000000 0.051000 0.051000 1.200000 0.024000 0.028000
1517206824485942041	1100 38 1.100000 0.391000 0.438000 500 36 0.900000 0.663000 0.598000 600 40 1.000000 0.051000 0.051000 1.200000 0.027000 0.032000
1517206824999162833	1100 38 1.100000 0.388000 0.434000 500 35 0.900000 0.603000 0.543000 600 40 1.000000 0.051000 0.051000 1.200000 0.023000 0.027000
1517206825512209708	1100 37 1.100000 0.388000 0.434000 500 35 0.900000 0.601000 0.541000 600 40 1.000000 0.051000 0.051000 1.200000 0.023000 0.027000
1517206826025359833	1100 37 1.100000 0.387000 0.433000 500 35 0.900000 0.661000 0.596000 600 40 1.000000 0.051000 0.051000 1.200000 0.023000 0.027000
1517206826538306833	1100 38 1.100000 0.389000 0.436000 500 36 0.900000 0.599000 0.540000 600 40 1.000000 0.051000 0.051000 1.200000 0.024000 0.028000
1517206827051390500	1100 37 1.100000 0.388000 0.434000 500 35 0.900000 0.607000 0.546000 600 40 1.000000 0.051000 0.051000 1.200000 0.025000 0.030000
1517206827564449250	1100 38 1.100000 0.388000 0.434000 500 35 0.900000 0.601000 0.541000 600 40 1.000000 0.051000 0.051000 1.200000 0.024000 0.028000
1517206828077891833	1100 38 1.100000 0.388000 0.434000 500 35 0.900000 0.660000 0.595000 600 40 1.000000 0.051000 0.051000 1.200000 0.029000 0.035000
1517206828601086125	1100 38 1.100000 0.388000 0.434000 500 35 0.900000 0.595000 0.536000 600 40 1.000000 0.051000 0.051000 1.200000 0.024000 0.028000
1517206829120293541	1100 38 1.100000 0.389000 0.436000 500 36 0.900000 0.680000 0.613000 600 40 1.000000 0.051000 0.051000 1.200000 0.029000 0.035000
1517206829633578083	1100 37 1.100000 0.387000 0.433000 500 36 0.900000 0.594000 0.535000 600 40 1.000000 0.051000 0.051000 1.200000 0.023000 0.027000
1517206830147063958	1100 38 1.100000 0.388000 0.434000 500 35 0.900000 0.600000 0.540000 600 40 1.000000 0.051000 0.051000 1.200000 0.024000 0.028000
1517206830660231583	1100 38 1.100000 0.388000 0.434000 500 35 0.900000 0.599000 0.540000 600 40 1.000000 0.051000 0.051000 1.200000 0.024000 0.028000
1517206831173142333	1100 38 1.100000 0.388000 0.434000 500 35 0.900000 0.598000 0.539000 600 40 1.000000 0.051000 0.051000 1.200000 0.023000 0.027000
1517206831686289583	1100 38 1.100000 0.387000 0.433000 500 35 0.900000 0.617000 0.556000 600 40 1.000000 0.051000 0.051000 1.200000 0.025000 0.030000
1517206832199374167	1100 38 1.100000 0.388000 0.434000 500 35 0.900000 0.603000 0.543000 600 40 1.000000 0.051000 0.051000 1.200000 0.023000 0.027000
1517206832712523750	1100 38 1.100000 0.388000 0.434000 500 35 0.900000 0.602000 0.542000 600 40 1.000000 0.051000 0.051000 1.200000 0.024000 0.028000
1517206833239425000	1100 38 1.100000 0.388000 0.434000 500 35 0.900000 0.604000 0.544000 600 40 1.000000 0.051000 0.051000 1.200000 0.024000 0.028000
1517206833752759250	1100 38 1.100000 0.389000 0.436000 500 36 0.900000 0.693000 0.625000 600 40 1.000000 0.051000 0.051000 1.200000 0.029000 0.035000
1517206834266238500	1100 38 1.100000 0.388000 0.434000 500 35 0.900000 0.602000 0.542000 600 40 1.000000 0.051000 0.051000 1.200000 0.024000 0.028000
1517206834779117084	1100 38 1.100000 0.388000 0.434000 500 35 0.900000 0.601000 0.541000 600 40 1.000000 0.051000 0.051000 1.200000 0.024000 0.028000
1517206835292248917	1100 38 1.100000 0.388000 0.434000 500 35 0.900000 0.599000 0.539000 600 40 1.000000 0.051000 0.051000 1.200000 0.024000 0.028000
1517206835805138209	1100 38 1.100000 0.390000 0.437000 500 35 0.900000 0.716000 0.645000 600 40 1.000000 0.051000 0.051000 1.200000 0.028000 0.033000
1517206836318556459	1100 38 1.100000 0.388000 0.434000 500 35 0.900000 0.595000 0.536000 600 40 1.000000 0.051000 0.051000 1.200000 0.024000 0.028000
1517206836831438876	1100 38 1.100000 0.388000 0.434000 500 35 0.900000 0.594000 0.535000 600 40 1.000000 0.051000 0.051000 1.200000 0.024000 0.028000
1517206837344537126	1100 38 1.100000 0.388000 0.434000 500 35 0.900000 0.596000 0.537000 600 40 1.000000 0.051000 0.051000 1.200000 0.023000 0.027000
1517206837857527792	1100 38 1.100000 0.390000 0.437000 500 35 0.900000 0.638000 0.574000 600 40 1.000000 0.051000 0.051000 1.200000 0.024000 0.028000
1517206838371053793	1100 38 1.100000 0.388000 0.434000 500 35 0.900000 0.596000 0.537000 600 40 1.000000 0.051000 0.051000 1.200000 0.023000 0.027000
1517206838884072001	1100 38 1.100000 0.388000 0.434000 500 35 0.900000 0.594000 0.535000 600 40 1.000000 0.051000 0.051000 1.200000 0.023000 0.027000
1517206839396955626	1100 38 1.100000 0.388000 0.434000 500 35 0.900000 0.595000 0.536000 600 40 1.000000 0.051000 0.051000 1.200000 0.023000 0.027000
1517206839925164959	1100 38 1.100000 0.388000 0.434000 500 35 0.900000 0.601000 0.541000 600 40 1.000000 0.051000 0.051000 1.200000 0.024000 0.028000
1517206840438320751	1100 38 1.100000 0.391000 0.438000 500 35 0.900000 0.706000 0.636000 600 40 1.000000 0.051000 0.051000 1.200000 0.027000 0.032000
1517206840951317210	1100 37 1.100000 0.388000 0.434000 500 35 0.900000 0.651000 0.586000 600 40 1.000000 0.051000 0.051000 1.200000 0.029000 0.035000
1517206841464170210	1100 38 1.100000 0.388000 0.434000 500 35 0.900000 0.599000 0.540000 600 40 1.000000 0.051000 0.051000 1.200000 0.023000 0.027000
1517206841977036460	1100 38 1.100000 0.388000 0.434000 500 35 0.900000 0.603000 0.543000 600 40 1.000000 0.051000 0.051000 1.200000 0.023000 0.027000
1517206842514212501	1100 38 1.100000 0.388000 0.434000 500 36 0.900000 0.638000 0.575000 600 40 1.000000 0.051000 0.051000 1.200000 0.023000 0.027000
1517206843027367168	1100 38 1.100000 0.389000 0.436000 500 35 0.900000 0.638000 0.575000 600 40 1.000000 0.051000 0.051000 1.200000 0.029000 0.035000
1517206843540442085	1100 38 1.100000 0.388000 0.434000 500 35 0.900000 0.600000 0.541000 600 40 1.000000 0.051000 0.051000 1.200000 0.024000 0.028000
1517206844053576585	1100 37 1.100000 0.388000 0.434000 500 35 0.900000 0.601000 0.542000 600 40 1.000000 0.051000 0.051000 1.200000 0.024000 0.028000
1517206844595461085	1100 38 1.100000 0.388000 0.434000 500 35 0.900000 0.604000 0.544000 600 40 1.000000 0.051000 0.051000 1.200000 0.023000 0.027000
1517206845115485002	1100 38 1.100000 0.389000 0.436000 500 35 0.900000 0.703000 0.634000 600 40 1.000000 0.051000 0.051000 1.200000 0.035000 0.042000
1517206845628593043	1100 37 1.100000 0.388000 0.434000 500 35 0.900000 0.603000 0.543000 600 40 1.000000 0.051000 0.051000 1.200000 0.023000 0.027000
1517206846141651377	1100 38 1.100000 0.388000 0.434000 500 35 0.900000 0.594000 0.535000 600 40 1.000000 0.051000 0.051000 1.200000 0.023000 0.027000
1517206846654765002	1100 38 1.100000 0.388000 0.434000 500 35 0.900000 0.594000 0.535000 600 40 1.000000 0.051000 0.051000 1.200000 0.023000 0.027000
1517206847167978794	1100 38 1.100000 0.388000 0.434000 500 35 0.900000 0.736000 0.663000 600 40 1.000000 0.051000 0.051000 1.200000 0.032000 0.038000
1517206847680890794	1100 37 1.100000 0.389000 0.436000 500 35 0.900000 0.595000 0.536000 600 40 1.000000 0.051000 0.051000 1.200000 0.023000 0.027000
1517206848194112960	1100 38 1.100000 0.388000 0.434000 500 35 0.900000 0.594000 0.535000 600 40 1.000000 0.051000 0.051000 1.200000 0.023000 0.027000
1517206848707172002	1100 37 1.100000 0.388000 0.434000 500 35 0.900000 0.594000 0.535000 600 40 1.000000 0.051000 0.051000 1.200000 0.023000 0.027000
1517206849233975919	1100 38 1.100000 0.388000 0.434000 500 35 0.900000 0.661000 0.596000 600 40 1.000000 0.051000 0.051000 1.200000 0.029000 0.035000
1517206849746966586	1100 37 1.100000 0.389000 0.436000 500 35 0.900000 0.595000 0.536000 600 40 1.000000 0.051000 0.051000 1.200000 0.025000 0.030000
1517206850259851044	1100 37 1.100000 0.388000 0.434000 500 35 0.900000 0.593000 0.534000 600 40 1.000000 0.051000 0.051000 1.200000 0.023000 0.027000
1517206850773000086	1100 37 1.100000 0.388000 0.434000 500 35 0.900000 0.594000 0.535000 600 40 1.000000 0.051000 0.051000 1.200000 0.023000 0.027000
1517206851286086586	1100 37 1.100000 0.388000 0.434000 500 35 0.900000 0.658000 0.593000 600 40 1.000000 0.051000 0.051000 1.200000 0.028000 0.033000
1517206851799129752	1100 37 1.100000 0.390000 0.437000 500 35 0.900000 0.667000 0.601000 600 40 1.000000 0.051000 0.051000 1.200000 0.027000 0.032000
1517206852312051086	1100 37 1.100000 0.388000 0.434000 500 35 0.900000 0.602000 0.543000 600 40 1.000000 0.051000 0.051000 1.200000 0.023000 0.027000
1517206852824927294	1100 37 1.100000 0.388000 0.434000 500 35 0.900000 0.598000 0.538000 600 40 1.000000 0.051000 0.051000 1.200000 0.023000 0.027000
1517206853338206628	1100 37 1.100000 0.388000 0.434000 500 35 0.900000 0.606000 0.546000 600 40 1.000000 0.051000 0.051000 1.200000 0.024000 0.028000
1517206853868525003	1100 38 1.100000 0.388000 0.434000 500 35 0.900000 0.595000 0.536000 600 40 1.000000 0.051000 0.051000 1.200000 0.024000 0.028000
1517206854381874378	1100 37 1.100000 0.391000 0.438000 500 35 0.900000 0.605000 0.545000 600 40 1.000000 0.051000 0.051000 1.200000 0.026000 0.031000
1517206854894866670	1100 37 1.100000 0.388000 0.434000 500 35 0.900000 0.595000 0.536000 600 40 1.000000 0.051000 0.051000 1.200000 0.024000 0.028000
1517206855408081795	1100 38 1.100000 0.388000 0.434000 500 35 0.900000 0.613000 0.552000 600 40 1.000000 0.051000 0.051000 1.200000 0.024000 0.028000
1517206855937308920	1100 37 1.100000 0.388000 0.434000 500 35 0.900000 0.593000 0.534000 600 40 1.000000 0.051000 0.051000 1.200000 0.024000 0.028000
1517206856451102961	1100 37 1.100000 0.391000 0.438000 500 35 0.900000 0.685000 0.617000 600 40 1.000000 0.051000 0.051000 1.200000 0.029000 0.035000
1517206856964094670	1100 38 1.100000 0.388000 0.434000 500 35 0.900000 0.597000 0.538000 600 40 1.000000 0.051000 0.051000 1.200000 0.023000 0.027000
1517206857477180670	1100 38 1.100000 0.388000 0.434000 500 35 0.900000 0.602000 0.543000 600 40 1.000000 0.051000 0.051000 1.200000 0.023000 0.027000
1517206857990567795	1100 38 1.100000 0.388000 0.434000 500 35 0.900000 0.635000 0.572000 600 40 1.000000 0.051000 0.051000 1.200000 0.023000 0.027000
1517206858503771712	1100 38 1.100000 0.390000 0.437000 500 35 0.900000 0.599000 0.539000 600 40 1.000000 0.051000 0.051000 1.200000 0.029000 0.035000
1517206859016734462	1100 37 1.100000 0.388000 0.434000 500 35 0.900000 0.620000 0.558000 600 40 1.000000 0.051000 0.051000 1.200000 0.024000 0.028000
1517206859529854087	1100 37 1.100000 0.388000 0.434000 500 35 0.900000 0.601000 0.541000 600 40 1.000000 0.051000 0.051000 1.200000 0.023000 0.027000
1517206860042897878	1100 38 1.100000 0.388000 0.434000 500 35 0.900000 0.624000 0.562000 600 40 1.000000 0.051000 0.051000 1.200000 0.023000 0.027000
1517206860574926295	1100 37 1.100000 0.388000 0.434000 500 35 0.900000 0.603000 0.543000 600 40 1.000000 0.051000 0.051000 1.200000 0.024000 0.028000
1517206861090065587	1100 37 1.100000 0.390000 0.437000 500 35 0.900000 0.694000 0.625000 600 40 1.000000 0.051000 0.051000 1.200000 0.024000 0.028000
1517206861603336545	1100 37 1.100000 0.388000 0.434000 500 35 0.900000 0.601000 0.542000 600 40 1.000000 0.051000 0.051000 1.200000 0.024000 0.028000
1517206862116580337	1100 37 1.100000 0.388000 0.434000 500 35 0.900000 0.614000 0.553000 600 40 1.000000 0.051000 0.051000 1.200000 0.023000 0.027000
1517206862629647337	1100 37 1.100000 0.388000 0.434000 500 35 0.900000 0.603000 0.543000 600 40 1.000000 0.051000 0.051000 1.200000 0.023000 0.027000
1517206863142866671	1100 38 1.100000 0.390000 0.437000 500 35 0.900000 0.704000 0.635000 600 40 1.000000 0.051000 0.051000 1.200000 0.026000 0.031000
1517206863680558254	1100 37 1.100000 0.388000 0.434000 500 35 0.900000 0.632000 0.570000 600 40 1.000000 0.051000 0.051000 1.200000 0.024000 0.028000
1517206864196831504	1100 38 1.100000 0.388000 0.434000 500 35 0.900000 0.602000 0.543000 600 40 1.000000 0.051000 0.051000 1.200000 0.023000 0.027000
1517206864710217921	1100 37 1.100000 0.388000 0.434000 500 35 0.900000 0.599000 0.540000 600 40 1.000000 0.051000 0.051000 1.200000 0.024000 0.028000
1517206865225476212	1100 38 1.100000 0.388000 0.434000 500 35 0.900000 0.601000 0.542000 600 40 1.000000 0.051000 0.051000 1.200000 0.023000 0.027000
1517206865761906546	1100 38 1.100000 0.388000 0.434000 500 35 0.900000 0.703000 0.634000 600 40 1.000000 0.051000 0.051000 1.200000 0.023000 0.027000
1517206866278457213	1100 38 1.100000 0.388000 0.434000 500 35 0.900000 0.663000 0.598000 600 40 1.000000 0.051000 0.051000 1.200000 0.027000 0.032000
1517206866791482088	1100 37 1.100000 0.388000 0.434000 500 35 0.900000 0.603000 0.543000 600 40 1.000000 0.051000 0.051000 1.200000 0.023000 0.027000
1517206867321273171	1100 37 1.100000 0.388000 0.434000 500 35 0.900000 0.599000 0.540000 600 40 1.000000 0.051000 0.051000 1.200000 0.023000 0.027000
1517206867864418004	1100 37 1.100000 0.390000 0.437000 500 35 0.900000 0.701000 0.632000 600 40 1.000000 0.051000 0.051000 1.200000 0.027000 0.032000
1517206868377952379	1100 37 1.100000 0.389000 0.436000 500 35 0.900000 0.665000 0.599000 600 40 1.000000 0.051000 0.051000 1.200000 0.026000 0.031000
1517206868891103713	1100 38 1.100000 0.388000 0.434000 500 35 0.900000 0.603000 0.543000 600 40 1.000000 0.051000 0.051000 1.200000 0.024000 0.028000
1517206869404117671	1100 37 1.100000 0.388000 0.434000 500 35 0.900000 0.604000 0.544000 600 40 1.000000 0.051000 0.051000 1.200000 0.024000 0.028000
1517206869917168421	1100 37 1.100000 0.390000 0.437000 500 35 0.900000 0.630000 0.568000 600 40 1.000000 0.051000 0.051000 1.200000 0.024000 0.028000
1517206870430763088	1100 37 1.100000 0.389000 0.436000 500 35 0.900000 0.670000 0.604000 600 40 1.000000 0.051000 0.051000 1.200000 0.028000 0.033000
1517206870943885046	1100 37 1.100000 0.388000 0.434000 500 35 0.900000 0.604000 0.544000 600 40 1.000000 0.051000 0.051000 1.200000 0.024000 0.028000
1517206871456754421	1100 37 1.100000 0.388000 0.434000 500 35 0.900000 0.603000 0.543000 600 40 1.000000 0.051000 0.051000 1.200000 0.024000 0.028000
1517206871985412380	1100 37 1.100000 0.389000 0.436000 500 35 0.900000 0.600000 0.540000 600 40 1.000000 0.051000 0.051000 1.200000 0.024000 0.028000
1517206872501154380	1100 37 1.100000 0.391000 0.438000 500 35 0.900000 0.714000 0.644000 600 40 1.000000 0.051000 0.051000 1.200000 0.031000 0.037000
1517206873014694547	1100 37 1.100000 0.388000 0.434000 500 35 0.900000 0.599000 0.540000 600 40 1.000000 0.051000 0.051000 1.200000 0.024000 0.028000
1517206873527926588	1100 37 1.100000 0.388000 0.434000 500 35 0.900000 0.601000 0.542000 600 40 1.000000 0.051000 0.051000 1.200000 0.024000 0.028000
1517206874053851880	1100 37 1.100000 0.388000 0.434000 500 35 0.900000 0.596000 0.537000 600 40 1.000000 0.051000 0.051000 1.200000 0.023000 0.027000
1517206874566824714	1100 38 1.100000 0.391000 0.438000 500 35 0.900000 0.744000 0.671000 600 40 1.000000 0.051000 0.051000 1.200000 0.032000 0.038000
1517206875079866755	1100 37 1.100000 0.388000 0.434000 500 35 0.900000 0.594000 0.535000 600 40 1.000000 0.051000 0.051000 1.200000 0.024000 0.028000
1517206875592817130	1100 37 1.100000 0.388000 0.434000 500 35 0.900000 0.594000 0.535000 600 40 1.000000 0.051000 0.051000 1.200000 0.024000 0.028000
1517206876105820714	1100 37 1.100000 0.388000 0.434000 500 35 0.900000 0.593000 0.534000 600 40 1.000000 0.051000 0.051000 1.200000 0.023000 0.027000
1517206876627550380	1100 37 1.100000 0.389000 0.436000 500 35 0.900000 0.655000 0.590000 600 40 1.000000 0.051000 0.051000 1.200000 0.024000 0.028000
1517206877147054547	1100 37 1.100000 0.388000 0.434000 500 35 0.900000 0.604000 0.544000 600 40 1.000000 0.051000 0.051000 1.200000 0.025000 0.030000
1517206877660295672	1100 37 1.100000 0.388000 0.434000 500 35 0.900000 0.594000 0.535000 600 40 1.000000 0.051000 0.051000 1.200000 0.023000 0.027000
1517206878173776172	1100 37 1.100000 0.388000 0.434000 500 35 0.900000 0.601000 0.542000 600 40 1.000000 0.051000 0.051000 1.200000 0.023000 0.027000
1517206878686868839	1100 37 1.100000 0.388000 0.434000 500 35 0.900000 0.601000 0.542000 600 40 1.000000 0.051000 0.051000 1.200000 0.023000 0.027000
1517206879200075422	1100 37 1.100000 0.388000 0.434000 500 35 0.900000 0.673000 0.607000 600 40 1.000000 0.051000 0.051000 1.200000 0.029000 0.035000
1517206879712976714	1100 37 1.100000 0.388000 0.434000 500 35 0.900000 0.603000 0.543000 600 40 1.000000 0.051000 0.051000 1.200000 0.024000 0.028000
1517206880226132548	1100 37 1.100000 0.388000 0.434000 500 35 0.900000 0.602000 0.543000 600 40 1.000000 0.051000 0.051000 1.200000 0.024000 0.028000
1517206880739323798	1100 37 1.100000 0.388000 0.434000 500 35 0.900000 0.604000 0.544000 600 40 1.000000 0.051000 0.051000 1.200000 0.023000 0.027000
1517206881260581298	1100 37 1.100000 0.388000 0.434000 500 35 0.900000 0.603000 0.543000 600 40 1.000000 0.051000 0.051000 1.200000 0.027000 0.032000
1517206881773953631	1100 37 1.100000 0.389000 0.436000 500 35 0.900000 0.612000 0.552000 600 40 1.000000 0.051000 0.051000 1.200000 0.025000 0.030000
1517206882287150131	1100 37 1.100000 0.388000 0.434000 500 35 0.900000 0.603000 0.543000 600 40 1.000000 0.051000 0.051000 1.200000 0.024000 0.028000
1517206882809671840	1100 37 1.100000 0.388000 0.434000 500 35 0.900000 0.594000 0.535000 600 40 1.000000 0.051000 0.051000 1.200000 0.024000 0.028000
1517206883339112173	1100 38 1.100000 0.388000 0.434000 500 35 0.900000 0.596000 0.537000 600 40 1.000000 0.051000 0.051000 1.200000 0.026000 0.031000
1517206883852413465	1100 37 1.100000 0.390000 0.437000 500 35 0.900000 0.686000 0.618000 600 40 1.000000 0.051000 0.051000 1.200000 0.030000 0.036000
1517206884365597215	1100 37 1.100000 0.388000 0.434000 500 35 0.900000 0.593000 0.534000 600 40 1.000000 0.051000 0.051000 1.200000 0.024000 0.028000
1517206884904554006	1100 37 1.100000 0.388000 0.434000 500 35 0.900000 0.592000 0.533000 600 40 1.000000 0.051000 0.051000 1.200000 0.023000 0.027000
1517206885424369090	1100 37 1.100000 0.388000 0.434000 500 35 0.900000 0.595000 0.536000 600 40 1.000000 0.051000 0.051000 1.200000 0.025000 0.030000
1517206885937838382	1100 38 1.100000 0.389000 0.436000 500 35 0.900000 0.710000 0.640000 600 40 1.000000 0.051000 0.051000 1.200000 0.028000 0.033000
1517206886450759382	1100 38 1.100000 0.388000 0.434000 500 35 0.900000 0.594000 0.535000 600 40 1.000000 0.051000 0.051000 1.200000 0.023000 0.027000
1517206886981863090	1100 37 1.100000 0.388000 0.434000 500 35 0.900000 0.593000 0.534000 600 40 1.000000 0.051000 0.051000 1.200000 0.023000 0.027000
1517206887500644007	1100 37 1.100000 0.388000 0.434000 500 35 0.900000 0.592000 0.533000 600 40 1.000000 0.051000 0.051000 1.200000 0.025000 0.030000
1517206888028075257	1100 37 1.100000 0.388000 0.434000 500 35 0.900000 0.638000 0.574000 600 40 1.000000 0.051000 0.051000 1.200000 0.024000 0.028000
1517206888541191840	1100 37 1.100000 0.388000 0.434000 500 35 0.900000 0.595000 0.536000 600 40 1.000000 0.051000 0.051000 1.200000 0.023000 0.027000
1517206889072347632	1100 38 1.100000 0.388000 0.434000 500 35 0.900000 0.594000 0.535000 600 40 1.000000 0.051000 0.051000 1.200000 0.023000 0.027000
1517206889588601507	1100 37 1.100000 0.388000 0.434000 500 35 0.900000 0.594000 0.535000 600 40 1.000000 0.051000 0.051000 1.200000 0.025000 0.030000
1517206890116610424	1100 37 1.100000 0.388000 0.434000 500 35 0.900000 0.593000 0.534000 600 40 1.000000 0.051000 0.051000 1.200000 0.023000 0.027000
1517206890630021049	1100 37 1.100000 0.389000 0.436000 500 35 0.900000 0.634000 0.571000 600 40 1.000000 0.051000 0.051000 1.200000 0.026000 0.031000
1517206891143071466	1100 37 1.100000 0.388000 0.434000 500 35 0.900000 0.595000 0.536000 600 40 1.000000 0.051000 0.051000 1.200000 0.023000 0.027000
1517206891656478632	1100 37 1.100000 0.388000 0.434000 500 35 0.900000 0.593000 0.534000 600 40 1.000000 0.051000 0.051000 1.200000 0.024000 0.028000
1517206892169751174	1100 37 1.100000 0.388000 0.434000 500 35 0.900000 0.594000 0.535000 600 40 1.000000 0.051000 0.051000 1.200000 0.023000 0.027000
1517206892682625091	1100 37 1.100000 0.388000 0.434000 500 35 0.900000 0.629000 0.567000 600 40 1.000000 0.051000 0.051000 1.200000 0.025000 0.030000
1517206893195604632	1100 37 1.100000 0.390000 0.437000 500 35 0.900000 0.602000 0.543000 600 40 1.000000 0.051000 0.051000 1.200000 0.025000 0.030000
1517206893708906549	1100 37 1.100000 0.388000 0.434000 500 35 0.900000 0.670000 0.604000 600 40 1.000000 0.051000 0.051000 1.200000 0.028000 0.033000
1517206894221972591	1100 37 1.100000 0.388000 0.434000 500 35 0.900000 0.595000 0.536000 600 40 1.000000 0.051000 0.051000 1.200000 0.024000 0.028000
1517206894752371091	1100 37 1.100000 0.388000 0.434000 500 35 0.900000 0.594000 0.535000 600 40 1.000000 0.051000 0.051000 1.200000 0.023000 0.027000
1517206895265732591	1100 37 1.100000 0.390000 0.437000 500 35 0.900000 0.645000 0.581000 600 40 1.000000 0.051000 0.051000 1.200000 0.029000 0.035000
1517206895779186466	1100 37 1.100000 0.388000 0.434000 500 35 0.900000 0.660000 0.595000 600 40 1.000000 0.051000 0.051000 1.200000 0.029000 0.035000
1517206896292285008	1100 37 1.100000 0.388000 0.434000 500 35 0.900000 0.599000 0.539000 600 40 1.000000 0.051000 0.051000 1.200000 0.024000 0.028000
1517206896805384925	1100 37 1.100000 0.388000 0.434000 500 35 0.900000 0.599000 0.540000 600 40 1.000000 0.051000 0.051000 1.200000 0.023000 0.027000
1517206897318944466	1100 37 1.100000 0.392000 0.439000 500 35 0.900000 0.618000 0.557000 600 40 1.000000 0.051000 0.051000 1.200000 0.029000 0.035000
1517206897832443425	1100 37 1.100000 0.388000 0.434000 500 35 0.900000 0.602000 0.543000 600 40 1.000000 0.051000 0.051000 1.200000 0.029000 0.035000
1517206898345597508	1100 37 1.100000 0.388000 0.434000 500 35 0.900000 0.603000 0.543000 600 40 1.000000 0.051000 0.051000 1.200000 0.023000 0.027000
1517206898858911300	1100 37 1.100000 0.388000 0.434000 500 35 0.900000 0.603000 0.543000 600 40 1.000000 0.051000 0.051000 1.200000 0.023000 0.027000
1517206899386913883	1100 37 1.100000 0.388000 0.434000 500 35 0.900000 0.602000 0.543000 600 40 1.000000 0.051000 0.051000 1.200000 0.026000 0.031000
1517206899907154967	1100 37 1.100000 0.389000 0.436000 500 35 0.900000 0.657000 0.592000 600 40 1.000000 0.051000 0.051000 1.200000 0.028000 0.033000
1517206900420441092	1100 37 1.100000 0.388000 0.434000 500 35 0.900000 0.603000 0.543000 600 40 1.000000 0.051000 0.051000 1.200000 0.023000 0.027000
1517206900933622675	1100 37 1.100000 0.388000 0.434000 500 35 0.900000 0.603000 0.543000 600 40 1.000000 0.051000 0.051000 1.200000 0.023000 0.027000
1517206901465295425	1100 37 1.100000 0.388000 0.434000 500 35 0.900000 0.603000 0.543000 600 40 1.000000 0.051000 0.051000 1.200000 0.023000 0.027000
1517206901978489508	1100 37 1.100000 0.390000 0.437000 500 35 0.900000 0.735000 0.662000 600 40 1.000000 0.051000 0.051000 1.200000 0.030000 0.036000
1517206902491380259	1100 37 1.100000 0.388000 0.434000 500 35 0.900000 0.603000 0.543000 600 40 1.000000 0.051000 0.051000 1.200000 0.023000 0.027000
1517206903004537175	1100 37 1.100000 0.388000 0.434000 500 35 0.900000 0.605000 0.545000 600 40 1.000000 0.051000 0.051000 1.200000 0.023000 0.027000
1517206903517738509	1100 37 1.100000 0.388000 0.434000 500 35 0.900000 0.595000 0.536000 600 40 1.000000 0.051000 0.051000 1.200000 0.023000 0.027000
1517206904043386800	1100 37 1.100000 0.389000 0.436000 500 35 0.900000 0.600000 0.540000 600 40 1.000000 0.051000 0.051000 1.200000 0.025000 0.030000
1517206904556565925	1100 37 1.100000 0.390000 0.437000 500 35 0.900000 0.734000 0.662000 600 40 1.000000 0.051000 0.051000 1.200000 0.026000 0.031000
1517206905069669801	1100 37 1.100000 0.388000 0.434000 500 35 0.900000 0.600000 0.540000 600 40 1.000000 0.051000 0.051000 1.200000 0.024000 0.028000
1517206905582859301	1100 37 1.100000 0.388000 0.434000 500 35 0.900000 0.604000 0.544000 600 40 1.000000 0.051000 0.051000 1.200000 0.024000 0.028000
1517206906119145426	1100 37 1.100000 0.388000 0.434000 500 35 0.900000 0.603000 0.543000 600 40 1.000000 0.051000 0.051000 1.200000 0.023000 0.027000
1517206906640413134	1100 37 1.100000 0.390000 0.437000 500 35 0.900000 0.719000 0.648000 600 40 1.000000 0.051000 0.051000 1.200000 0.029000 0.035000
1517206907153596884	1100 37 1.100000 0.388000 0.434000 500 35 0.900000 0.602000 0.543000 600 40 1.000000 0.051000 0.051000 1.200000 0.023000 0.027000
1517206907666648342	1100 37 1.100000 0.388000 0.434000 500 35 0.900000 0.600000 0.541000 600 40 1.000000 0.051000 0.051000 1.200000 0.023000 0.027000
1517206908200492384	1100 37 1.100000 0.388000 0.434000 500 35 0.900000 0.598000 0.538000 600 40 1.000000 0.051000 0.051000 1.200000 0.023000 0.027000
1517206908713655676	1100 37 1.100000 0.389000 0.436000 500 35 0.900000 0.666000 0.600000 600 40 1.000000 0.051000 0.051000 1.200000 0.027000 0.032000
1517206909226883426	1100 37 1.100000 0.388000 0.434000 500 35 0.900000 0.621000 0.560000 600 40 1.000000 0.051000 0.051000 1.200000 0.027000 0.032000
1517206909740132676	1100 37 1.100000 0.388000 0.434000 500 35 0.900000 0.600000 0.541000 600 40 1.000000 0.051000 0.051000 1.200000 0.023000 0.027000
1517206910260320343	1100 37 1.100000 0.388000 0.434000 500 35 0.900000 0.601000 0.542000 600 40 1.000000 0.051000 0.051000 1.200000 0.024000 0.028000
1517206910794743510	1100 37 1.100000 0.388000 0.434000 500 35 0.900000 0.667000 0.601000 600 40 1.000000 0.051000 0.051000 1.200000 0.029000 0.035000
1517206911314777468	1100 37 1.100000 0.392000 0.439000 500 35 0.900000 0.695000 0.626000 600 40 1.000000 0.051000 0.051000 1.200000 0.032000 0.038000
1517206911827624760	1100 37 1.100000 0.388000 0.434000 500 35 0.900000 0.600000 0.540000 600 40 1.000000 0.051000 0.051000 1.200000 0.023000 0.027000
1517206912340658718	1100 37 1.100000 0.388000 0.434000 500 35 0.900000 0.603000 0.543000 600 40 1.000000 0.051000 0.051000 1.200000 0.023000 0.027000
1517206912854209510	1100 37 1.100000 0.388000 0.434000 500 35 0.900000 0.669000 0.603000 600 40 1.000000 0.051000 0.051000 1.200000 0.029000 0.035000
1517206913367287301	1100 37 1.100000 0.391000 0.438000 500 35 0.900000 0.710000 0.640000 600 40 1.000000 0.051000 0.051000 1.200000 0.027000 0.032000
1517206913880429260	1100 37 1.100000 0.388000 0.434000 500 35 0.900000 0.592000 0.533000 600 40 1.000000 0.051000 0.051000 1.200000 0.024000 0.028000
1517206914393782635	1100 37 1.100000 0.388000 0.434000 500 35 0.900000 0.594000 0.535000 600 40 1.000000 0.051000 0.051000 1.200000 0.024000 0.028000
1517206914907019552	1100 37 1.100000 0.388000 0.434000 500 35 0.900000 0.658000 0.593000 600 40 1.000000 0.051000 0.051000 1.200000 0.029000 0.035000
1517206915436769635	1100 37 1.100000 0.390000 0.437000 500 35 0.900000 0.630000 0.568000 600 40 1.000000 0.051000 0.051000 1.200000 0.024000 0.028000
1517206915949947843	1100 37 1.100000 0.388000 0.434000 500 35 0.900000 0.593000 0.534000 600 40 1.000000 0.051000 0.051000 1.200000 0.025000 0.030000
1517206916462752094	1100 37 1.100000 0.388000 0.434000 500 35 0.900000 0.592000 0.533000 600 40 1.000000 0.051000 0.051000 1.200000 0.024000 0.028000
1517206916976000052	1100 37 1.100000 0.388000 0.434000 500 35 0.900000 0.658000 0.593000 600 40 1.000000 0.051000 0.051000 1.200000 0.028000 0.033000
1517206917504309844	1100 37 1.100000 0.388000 0.434000 500 35 0.900000 0.603000 0.543000 600 40 1.000000 0.051000 0.051000 1.200000 0.024000 0.028000
1517206918017750969	1100 37 1.100000 0.389000 0.436000 500 35 0.900000 0.696000 0.627000 600 40 1.000000 0.051000 0.051000 1.200000 0.026000 0.031000
1517206918530876927	1100 37 1.100000 0.388000 0.434000 500 35 0.900000 0.603000 0.543000 600 40 1.000000 0.051000 0.051000 1.200000 0.023000 0.027000
1517206919044205052	1100 37 1.100000 0.388000 0.434000 500 35 0.900000 0.608000 0.548000 600 40 1.000000 0.051000 0.051000 1.200000 0.023000 0.027000
1517206919557273427	1100 37 1.100000 0.388000 0.434000 500 35 0.900000 0.602000 0.543000 600 40 1.000000 0.051000 0.051000 1.200000 0.024000 0.028000
1517206920070521094	1100 37 1.100000 0.388000 0.434000 500 35 0.900000 0.623000 0.561000 600 40 1.000000 0.051000 0.051000 1.200000 0.024000 0.028000
1517206920583449719	1100 37 1.100000 0.388000 0.434000 500 35 0.900000 0.600000 0.540000 600 40 1.000000 0.051000 0.051000 1.200000 0.025000 0.030000
1517206921096708719	1100 37 1.100000 0.388000 0.434000 500 35 0.900000 0.619000 0.558000 600 40 1.000000 0.051000 0.051000 1.200000 0.024000 0.028000
1517206921609948886	1100 37 1.100000 0.387000 0.433000 500 35 0.900000 0.600000 0.540000 600 40 1.000000 0.051000 0.051000 1.200000 0.024000 0.028000
1517206922134295969	1100 37 1.100000 0.388000 0.434000 500 35 0.900000 0.597000 0.538000 600 40 1.000000 0.051000 0.051000 1.200000 0.024000 0.028000
1517206922652471344	1100 37 1.100000 0.388000 0.434000 500 35 0.900000 0.649000 0.585000 600 40 1.000000 0.051000 0.051000 1.200000 0.029000 0.035000
1517206923165826053	1100 37 1.100000 0.388000 0.434000 500 35 0.900000 0.624000 0.562000 600 40 1.000000 0.051000 0.051000 1.200000 0.023000 0.027000
1517206923678920011	1100 37 1.100000 0.388000 0.434000 500 35 0.900000 0.594000 0.535000 600 40 1.000000 0.051000 0.051000 1.200000 0.023000 0.027000
1517206924191934303	1100 37 1.100000 0.388000 0.434000 500 35 0.900000 0.594000 0.535000 600 40 1.000000 0.051000 0.051000 1.200000 0.024000 0.028000
1517206924705078970	1100 37 1.100000 0.390000 0.437000 500 35 0.900000 0.724000 0.653000 600 40 1.000000 0.051000 0.051000 1.200000 0.028000 0.033000
1517206925218552053	1100 37 1.100000 0.388000 0.434000 500 35 0.900000 0.634000 0.571000 600 40 1.000000 0.051000 0.051000 1.200000 0.023000 0.027000
1517206925731499386	1100 37 1.100000 0.388000 0.434000 500 35 0.900000 0.593000 0.534000 600 40 1.000000 0.051000 0.051000 1.200000 0.023000 0.027000
1517206926244537011	1100 37 1.100000 0.388000 0.434000 500 35 0.900000 0.594000 0.535000 600 40 1.000000 0.051000 0.051000 1.200000 0.023000 0.027000
1517206926776253095	1100 37 1.100000 0.389000 0.436000 500 35 0.900000 0.675000 0.608000 600 40 1.000000 0.051000 0.051000 1.200000 0.025000 0.030000
1517206927290661511	1100 37 1.100000 0.388000 0.434000 500 35 0.900000 0.648000 0.584000 600 40 1.000000 0.051000 0.051000 1.200000 0.023000 0.027000
1517206927803565762	1100 37 1.100000 0.388000 0.434000 500 35 0.900000 0.592000 0.533000 600 40 1.000000 0.051000 0.051000 1.200000 0.023000 0.027000
1517206928316656470	1100 37 1.100000 0.388000 0.434000 500 35 0.900000 0.593000 0.534000 600 40 1.000000 0.051000 0.051000 1.200000 0.023000 0.027000
1517206928847220720	1100 37 1.100000 0.388000 0.434000 500 35 0.900000 0.600000 0.541000 600 40 1.000000 0.051000 0.051000 1.200000 0.023000 0.027000
1517206929360706220	1100 37 1.100000 0.391000 0.438000 500 35 0.900000 0.737000 0.664000 600 40 1.000000 0.051000 0.051000 1.200000 0.029000 0.035000
1517206929874086178	1100 37 1.100000 0.388000 0.434000 500 35 0.900000 0.603000 0.543000 600 40 1.000000 0.051000 0.051000 1.200000 0.028000 0.033000
1517206930387004554	1100 37 1.100000 0.388000 0.434000 500 35 0.900000 0.603000 0.543000 600 40 1.000000 0.051000 0.051000 1.200000 0.024000 0.028000
1517206930900177554	1100 37 1.100000 0.388000 0.434000 500 35 0.900000 0.601000 0.541000 600 40 1.000000 0.051000 0.051000 1.200000 0.023000 0.027000
1517206931430229137	1100 37 1.100000 0.388000 0.434000 500 35 0.900000 0.657000 0.592000 600 40 1.000000 0.051000 0.051000 1.200000 0.024000 0.028000
1517206931943263429	1100 37 1.100000 0.389000 0.436000 500 35 0.900000 0.595000 0.536000 600 40 1.000000 0.051000 0.051000 1.200000 0.028000 0.033000
1517206932456147554	1100 37 1.100000 0.388000 0.434000 500 35 0.900000 0.595000 0.536000 600 40 1.000000 0.051000 0.051000 1.200000 0.023000 0.027000
1517206932969092387	1100 37 1.100000 0.388000 0.434000 500 35 0.900000 0.594000 0.535000 600 40 1.000000 0.051000 0.051000 1.200000 0.023000 0.027000
1517206933520186887	1100 37 1.100000 0.388000 0.434000 500 35 0.900000 0.592000 0.533000 600 40 1.000000 0.051000 0.051000 1.200000 0.024000 0.028000
1517206934035243554	1100 37 1.100000 0.390000 0.437000 500 35 0.900000 0.674000 0.607000 600 40 1.000000 0.051000 0.051000 1.200000 0.034000 0.041000
1517206934548442179	1100 37 1.100000 0.388000 0.434000 500 35 0.900000 0.595000 0.536000 600 40 1.000000 0.051000 0.051000 1.200000 0.024000 0.028000
1517206935061681637	1100 37 1.100000 0.387000 0.433000 500 35 0.900000 0.601000 0.542000 600 40 1.000000 0.051000 0.051000 1.200000 0.025000 0.030000
1517206935574655096	1100 37 1.100000 0.388000 0.434000 500 35 0.900000 0.600000 0.540000 600 40 1.000000 0.051000 0.051000 1.200000 0.023000 0.027000
1517206936087906638	1100 37 1.100000 0.388000 0.434000 500 35 0.900000 0.639000 0.576000 600 40 1.000000 0.051000 0.051000 1.200000 0.032000 0.038000
1517206936600793888	1100 37 1.100000 0.388000 0.434000 500 35 0.900000 0.618000 0.557000 600 40 1.000000 0.051000 0.051000 1.200000 0.023000 0.027000
1517206937113785429	1100 37 1.100000 0.388000 0.434000 500 35 0.900000 0.601000 0.541000 600 40 1.000000 0.051000 0.051000 1.200000 0.023000 0.027000
1517206937626518513	1100 37 1.100000 0.388000 0.434000 500 35 0.900000 0.602000 0.542000 600 40 1.000000 0.051000 0.051000 1.200000 0.023000 0.027000
1517206938152781846	1100 37 1.100000 0.388000 0.434000 500 35 0.900000 0.645000 0.581000 600 40 1.000000 0.051000 0.051000 1.200000 0.028000 0.033000
1517206938666001721	1100 37 1.100000 0.389000 0.436000 500 35 0.900000 0.694000 0.625000 600 40 1.000000 0.051000 0.051000 1.200000 0.024000 0.028000
1517206939178897555	1100 37 1.100000 0.388000 0.434000 500 35 0.900000 0.600000 0.541000 600 40 1.000000 0.051000 0.051000 1.200000 0.023000 0.027000
1517206939691978971	1100 37 1.100000 0.388000 0.434000 500 35 0.900000 0.601000 0.541000 600 40 1.000000 0.051000 0.051000 1.200000 0.023000 0.027000
1517206940205139013	1100 37 1.100000 0.388000 0.434000 500 35 0.900000 0.658000 0.593000 600 40 1.000000 0.051000 0.051000 1.200000 0.029000 0.035000
1517206940718407471	1100 37 1.100000 0.390000 0.437000 500 35 0.900000 0.705000 0.635000 600 40 1.000000 0.051000 0.051000 1.200000 0.026000 0.031000
1517206941231216263	1100 37 1.100000 0.388000 0.434000 500 35 0.900000 0.629000 0.567000 600 40 1.000000 0.051000 0.051000 1.200000 0.024000 0.028000
1517206941744384638	1100 37 1.100000 0.388000 0.434000 500 35 0.900000 0.602000 0.543000 600 40 1.000000 0.051000 0.051000 1.200000 0.024000 0.028000
1517206942257793513	1100 37 1.100000 0.388000 0.434000 500 35 0.900000 0.602000 0.543000 600 40 1.000000 0.051000 0.051000 1.200000 0.024000 0.028000
1517206942780285222	1100 37 1.100000 0.388000 0.434000 500 35 0.900000 0.602000 0.542000 600 40 1.000000 0.051000 0.051000 1.200000 0.024000 0.028000
1517206943293274097	1100 37 1.100000 0.390000 0.437000 500 35 0.900000 0.702000 0.633000 600 40 1.000000 0.051000 0.051000 1.200000 0.024000 0.028000
1517206943806519597	1100 37 1.100000 0.388000 0.434000 500 35 0.900000 0.599000 0.540000 600 40 1.000000 0.051000 0.051000 1.200000 0.023000 0.027000
1517206944319908347	1100 37 1.100000 0.388000 0.434000 500 35 0.900000 0.601000 0.542000 600 40 1.000000 0.051000 0.051000 1.200000 0.025000 0.030000
1517206944843342014	1100 37 1.100000 0.388000 0.434000 500 35 0.900000 0.603000 0.543000 600 40 1.000000 0.051000 0.051000 1.200000 0.023000 0.027000
1517206945360362639	1100 37 1.100000 0.391000 0.438000 500 35 0.900000 0.693000 0.625000 600 40 1.000000 0.051000 0.051000 1.200000 0.027000 0.032000
1517206945873509847	1100 37 1.100000 0.388000 0.434000 500 35 0.900000 0.604000 0.544000 600 40 1.000000 0.051000 0.051000 1.200000 0.023000 0.027000
1517206946387054472	1100 37 1.100000 0.388000 0.434000 500 35 0.900000 0.603000 0.543000 600 40 1.000000 0.051000 0.051000 1.200000 0.026000 0.031000
1517206946900159722	1100 37 1.100000 0.387000 0.433000 500 35 0.900000 0.601000 0.542000 600 40 1.000000 0.051000 0.051000 1.200000 0.023000 0.027000
1517206947413334306	1100 37 1.100000 0.390000 0.437000 500 35 0.900000 0.620000 0.559000 600 40 1.000000 0.051000 0.051000 1.200000 0.028000 0.033000
1517206947926578139	1100 37 1.100000 0.387000 0.433000 500 35 0.900000 0.598000 0.539000 600 40 1.000000 0.051000 0.051000 1.200000 0.023000 0.027000
1517206948439792764	1100 37 1.100000 0.388000 0.434000 500 35 0.900000 0.600000 0.541000 600 40 1.000000 0.051000 0.051000 1.200000 0.027000 0.032000
1517206948952778014	1100 37 1.100000 0.388000 0.434000 500 35 0.900000 0.595000 0.536000 600 40 1.000000 0.051000 0.051000 1.200000 0.023000 0.027000
1517206949481165847	1100 37 1.100000 0.388000 0.434000 500 35 0.900000 0.595000 0.536000 600 40 1.000000 0.051000 0.051000 1.200000 0.025000 0.030000
1517206950000442931	1100 37 1.100000 0.389000 0.436000 500 35 0.900000 0.651000 0.587000 600 40 1.000000 0.051000 0.051000 1.200000 0.023000 0.027000
1517206950513610514	1100 37 1.100000 0.387000 0.433000 500 35 0.900000 0.593000 0.534000 600 40 1.000000 0.051000 0.051000 1.200000 0.024000 0.028000
1517206951026853348	1100 37 1.100000 0.388000 0.434000 500 35 0.900000 0.592000 0.533000 600 40 1.000000 0.051000 0.051000 1.200000 0.025000 0.030000
1517206951539799681	1100 37 1.100000 0.387000 0.433000 500 35 0.900000 0.593000 0.534000 600 40 1.000000 0.051000 0.051000 1.200000 0.023000 0.027000
1517206952053011389	1100 37 1.100000 0.388000 0.434000 500 35 0.900000 0.612000 0.552000 600 40 1.000000 0.051000 0.051000 1.200000 0.023000 0.027000
1517206952588657431	1100 37 1.100000 0.387000 0.433000 500 35 0.900000 0.603000 0.543000 600 40 1.000000 0.051000 0.051000 1.200000 0.026000 0.031000
1517206953102192556	1100 37 1.100000 0.388000 0.434000 500 35 0.900000 0.668000 0.602000 600 40 1.000000 0.051000 0.051000 1.200000 0.029000 0.035000
1517206953615071723	1100 37 1.100000 0.388000 0.434000 500 35 0.900000 0.602000 0.542000 600 40 1.000000 0.051000 0.051000 1.200000 0.024000 0.028000
1517206954138829015	1100 37 1.100000 0.387000 0.433000 500 35 0.900000 0.602000 0.542000 600 40 1.000000 0.051000 0.051000 1.200000 0.023000 0.027000
1517206954668416598	1100 37 1.100000 0.387000 0.433000 500 35 0.900000 0.661000 0.596000 600 40 1.000000 0.051000 0.051000 1.200000 0.029000 0.035000
1517206955184762473	1100 37 1.100000 0.388000 0.434000 500 35 0.900000 0.664000 0.598000 600 40 1.000000 0.051000 0.051000 1.200000 0.029000 0.035000
1517206955698203598	1100 37 1.100000 0.387000 0.433000 500 35 0.900000 0.599000 0.540000 600 40 1.000000 0.051000 0.051000 1.200000 0.024000 0.028000
1517206956221242557	1100 37 1.100000 0.388000 0.434000 500 35 0.900000 0.600000 0.541000 600 40 1.000000 0.051000 0.051000 1.200000 0.024000 0.028000
1517206956764709848	1100 37 1.100000 0.390000 0.437000 500 35 0.900000 0.737000 0.664000 600 40 1.000000 0.051000 0.051000 1.200000 0.028000 0.033000
1517206957280821765	1100 37 1.100000 0.388000 0.434000 500 35 0.900000 0.666000 0.600000 600 40 1.000000 0.051000 0.051000 1.200000 0.029000 0.035000
1517206957794217473	1100 37 1.100000 0.387000 0.433000 500 35 0.900000 0.603000 0.543000 600 40 1.000000 0.051000 0.051000 1.200000 0.025000 0.030000
1517206958307098974	1100 37 1.100000 0.387000 0.433000 500 35 0.900000 0.600000 0.541000 600 40 1.000000 0.051000 0.051000 1.200000 0.024000 0.028000
1517206958820384224	1100 37 1.100000 0.389000 0.436000 500 35 0.900000 0.668000 0.602000 600 40 1.000000 0.051000 0.051000 1.200000 0.024000 0.028000
1517206959333653474	1100 37 1.100000 0.388000 0.434000 500 35 0.900000 0.666000 0.600000 600 40 1.000000 0.051000 0.051000 1.200000 0.029000 0.035000
1517206959846807390	1100 37 1.100000 0.387000 0.433000 500 35 0.900000 0.595000 0.536000 600 40 1.000000 0.051000 0.051000 1.200000 0.025000 0.030000
1517206960359764640	1100 37 1.100000 0.387000 0.433000 500 35 0.900000 0.592000 0.533000 600 40 1.000000 0.051000 0.051000 1.200000 0.024000 0.028000
1517206960884174974	1100 37 1.100000 0.388000 0.434000 500 35 0.900000 0.592000 0.533000 600 40 1.000000 0.051000 0.051000 1.200000 0.024000 0.028000
1517206961402931057	1100 37 1.100000 0.390000 0.437000 500 35 0.900000 0.669000 0.603000 600 40 1.000000 0.051000 0.051000 1.200000 0.032000 0.038000
1517206961916014474	1100 37 1.100000 0.387000 0.433000 500 35 0.900000 0.593000 0.534000 600 40 1.000000 0.051000 0.051000 1.200000 0.024000 0.028000
1517206962429039849	1100 37 1.100000 0.387000 0.433000 500 35 0.900000 0.591000 0.533000 600 39 1.000000 0.051000 0.051000 1.200000 0.024000 0.028000
1517206962942217266	1100 37 1.100000 0.387000 0.433000 500 35 0.900000 0.592000 0.533000 600 40 1.000000 0.051000 0.051000 1.200000 0.024000 0.028000
1517206963455163474	1100 37 1.100000 0.390000 0.437000 500 35 0.900000 0.743000 0.670000 600 40 1.000000 0.051000 0.051000 1.200000 0.034000 0.041000
1517206963968195891	1100 37 1.100000 0.387000 0.433000 500 35 0.900000 0.594000 0.535000 600 40 1.000000 0.051000 0.051000 1.200000 0.023000 0.027000
1517206964481138516	1100 37 1.100000 0.387000 0.433000 500 35 0.900000 0.592000 0.533000 600 40 1.000000 0.051000 0.051000 1.200000 0.023000 0.027000
1517206964994328683	1100 37 1.100000 0.387000 0.433000 500 35 0.900000 0.592000 0.533000 600 40 1.000000 0.051000 0.051000 1.200000 0.023000 0.027000
1517206965518944891	1100 37 1.100000 0.387000 0.433000 500 35 0.900000 0.598000 0.539000 600 40 1.000000 0.051000 0.051000 1.200000 0.024000 0.028000
1517206966036654308	1100 37 1.100000 0.390000 0.437000 500 35 0.900000 0.687000 0.619000 600 40 1.000000 0.051000 0.051000 1.200000 0.031000 0.037000
1517206966549829224	1100 37 1.100000 0.387000 0.433000 500 35 0.900000 0.601000 0.542000 600 40 1.000000 0.051000 0.051000 1.200000 0.024000 0.028000
1517206967062777183	1100 37 1.100000 0.387000 0.433000 500 35 0.900000 0.602000 0.543000 600 39 1.000000 0.051000 0.051000 1.200000 0.025000 0.030000
1517206967576109100	1100 37 1.100000 0.387000 0.433000 500 35 0.900000 0.601000 0.542000 600 40 1.000000 0.051000 0.051000 1.200000 0.023000 0.027000
1517206968089151350	1100 37 1.100000 0.388000 0.434000 500 35 0.900000 0.719000 0.648000 600 40 1.000000 0.051000 0.051000 1.200000 0.028000 0.033000
1517206968602235975	1100 37 1.100000 0.387000 0.433000 500 35 0.900000 0.594000 0.535000 600 40 1.000000 0.051000 0.051000 1.200000 0.023000 0.027000
1517206969115111975	1100 37 1.100000 0.387000 0.433000 500 35 0.900000 0.594000 0.535000 600 40 1.000000 0.051000 0.051000 1.200000 0.023000 0.027000
1517206969628209767	1100 37 1.100000 0.387000 0.433000 500 35 0.900000 0.593000 0.534000 600 40 1.000000 0.051000 0.051000 1.200000 0.023000 0.027000
1517206970143437017	1100 37 1.100000 0.387000 0.433000 500 35 0.900000 0.638000 0.575000 600 40 1.000000 0.051000 0.051000 1.200000 0.024000 0.028000
1517206970656493142	1100 37 1.100000 0.387000 0.433000 500 35 0.900000 0.592000 0.533000 600 40 1.000000 0.051000 0.051000 1.200000 0.024000 0.028000
1517206971169956225	1100 37 1.100000 0.387000 0.433000 500 35 0.900000 0.594000 0.535000 600 40 1.000000 0.051000 0.051000 1.200000 0.024000 0.028000
1517206971683203558	1100 37 1.100000 0.387000 0.433000 500 35 0.900000 0.592000 0.533000 600 40 1.000000 0.051000 0.051000 1.200000 0.023000 0.027000
1517206972205778559	1100 37 1.100000 0.387000 0.433000 500 35 0.900000 0.591000 0.533000 600 40 1.000000 0.051000 0.051000 1.200000 0.023000 0.027000
1517206972718994850	1100 37 1.100000 0.389000 0.436000 500 35 0.900000 0.629000 0.567000 600 40 1.000000 0.051000 0.051000 1.200000 0.026000 0.031000
1517206973232286017	1100 37 1.100000 0.387000 0.433000 500 35 0.900000 0.593000 0.534000 600 39 1.000000 0.051000 0.051000 1.200000 0.023000 0.027000
1517206973768544059	1100 37 1.100000 0.388000 0.434000 500 35 0.900000 0.591000 0.533000 600 39 1.000000 0.051000 0.051000 1.200000 0.023000 0.027000
1517206974288665475	1100 37 1.100000 0.387000 0.433000 500 35 0.900000 0.661000 0.596000 600 40 1.000000 0.051000 0.051000 1.200000 0.023000 0.027000
1517206974801815100	1100 37 1.100000 0.388000 0.434000 500 35 0.900000 0.635000 0.572000 600 40 1.000000 0.051000 0.051000 1.200000 0.029000 0.035000
1517206975314790184	1100 37 1.100000 0.387000 0.433000 500 35 0.900000 0.602000 0.543000 600 40 1.000000 0.051000 0.051000 1.200000 0.023000 0.027000
1517206975854757476	1100 37 1.100000 0.387000 0.433000 500 35 0.900000 0.603000 0.543000 600 40 1.000000 0.051000 0.051000 1.200000 0.023000 0.027000
1517206976368198184	1100 37 1.100000 0.387000 0.433000 500 35 0.900000 0.661000 0.596000 600 39 1.000000 0.051000 0.051000 1.200000 0.023000 0.027000
1517206976898104601	1100 37 1.100000 0.388000 0.434000 500 35 0.900000 0.597000 0.538000 600 40 1.000000 0.051000 0.051000 1.200000 0.026000 0.031000
1517206977411096309	1100 37 1.100000 0.387000 0.433000 500 35 0.900000 0.638000 0.575000 600 40 1.000000 0.051000 0.051000 1.200000 0.023000 0.027000
1517206977948428559	1100 37 1.100000 0.387000 0.433000 500 35 0.900000 0.599000 0.540000 600 40 1.000000 0.051000 0.051000 1.200000 0.023000 0.027000
1517206978461915184	1100 37 1.100000 0.387000 0.433000 500 35 0.900000 0.656000 0.591000 600 40 1.000000 0.051000 0.051000 1.200000 0.023000 0.027000
1517206978989491476	1100 37 1.100000 0.387000 0.433000 500 35 0.900000 0.597000 0.538000 600 39 1.000000 0.051000 0.051000 1.200000 0.023000 0.027000
1517206979504490351	1100 37 1.100000 0.387000 0.433000 500 35 0.900000 0.720000 0.649000 600 40 1.000000 0.051000 0.051000 1.200000 0.025000 0.030000
1517206980017978559	1100 37 1.100000 0.387000 0.433000 500 35 0.900000 0.598000 0.539000 600 39 1.000000 0.051000 0.051000 1.200000 0.023000 0.027000
1517206980531047768	1100 37 1.100000 0.387000 0.433000 500 35 0.900000 0.609000 0.549000 600 40 1.000000 0.051000 0.051000 1.200000 0.029000 0.035000
1517206981044265560	1100 37 1.100000 0.387000 0.433000 500 35 0.900000 0.600000 0.541000 600 39 1.000000 0.051000 0.051000 1.200000 0.024000 0.028000
1517206981557279101	1100 37 1.100000 0.387000 0.433000 500 35 0.900000 0.601000 0.542000 600 40 1.000000 0.051000 0.051000 1.200000 0.026000 0.031000
1517206982070594226	1100 37 1.100000 0.388000 0.434000 500 35 0.900000 0.656000 0.591000 600 39 1.000000 0.051000 0.051000 1.200000 0.024000 0.028000
1517206982583894685	1100 37 1.100000 0.388000 0.434000 500 35 0.900000 0.627000 0.565000 600 39 1.000000 0.051000 0.051000 1.200000 0.029000 0.035000
1517206983097085768	1100 37 1.100000 0.387000 0.433000 500 35 0.900000 0.604000 0.544000 600 40 1.000000 0.051000 0.051000 1.200000 0.023000 0.027000
1517206983628918560	1100 37 1.100000 0.387000 0.433000 500 35 0.900000 0.601000 0.542000 600 40 1.000000 0.051000 0.051000 1.200000 0.023000 0.027000
1517206984144455102	1100 37 1.100000 0.389000 0.436000 500 35 0.900000 0.727000 0.655000 600 40 1.000000 0.051000 0.051000 1.200000 0.025000 0.030000
1517206984658025060	1100 37 1.100000 0.387000 0.433000 500 35 0.900000 0.640000 0.577000 600 39 1.000000 0.051000 0.051000 1.200000 0.028000 0.033000
1517206985170996768	1100 37 1.100000 0.387000 0.433000 500 35 0.900000 0.601000 0.542000 600 40 1.000000 0.051000 0.051000 1.200000 0.023000 0.027000
1517206985684077852	1100 37 1.100000 0.387000 0.433000 500 35 0.900000 0.601000 0.542000 600 39 1.000000 0.051000 0.051000 1.200000 0.023000 0.027000
1517206986197305727	1100 37 1.100000 0.390000 0.437000 500 35 0.900000 0.675000 0.608000 600 40 1.000000 0.051000 0.051000 1.200000 0.027000 0.032000
1517206986710918935	1100 37 1.100000 0.387000 0.433000 500 35 0.900000 0.651000 0.587000 600 40 1.000000 0.051000 0.051000 1.200000 0.029000 0.035000
1517206987224355644	1100 37 1.100000 0.387000 0.433000 500 35 0.900000 0.599000 0.540000 600 40 1.000000 0.051000 0.051000 1.200000 0.023000 0.027000
1517206987737521644	1100 37 1.100000 0.387000 0.433000 500 35 0.900000 0.594000 0.535000 600 39 1.000000 0.051000 0.051000 1.200000 0.023000 0.027000
1517206988267936560	1100 37 1.100000 0.387000 0.433000 500 35 0.900000 0.596000 0.537000 600 40 1.000000 0.051000 0.051000 1.200000 0.027000 0.032000
1517206988781081685	1100 37 1.100000 0.388000 0.434000 500 35 0.900000 0.655000 0.590000 600 40 1.000000 0.051000 0.051000 1.200000 0.028000 0.033000
1517206989294396644	1100 37 1.100000 0.387000 0.433000 500 35 0.900000 0.592000 0.533000 600 40 1.000000 0.051000 0.051000 1.200000 0.023000 0.027000
1517206989807391061	1100 37 1.100000 0.387000 0.433000 500 35 0.900000 0.593000 0.534000 600 40 1.000000 0.051000 0.051000 1.200000 0.023000 0.027000
1517206990330815894	1100 37 1.100000 0.387000 0.433000 500 35 0.900000 0.593000 0.534000 600 39 1.000000 0.051000 0.051000 1.200000 0.023000 0.027000
1517206990848564227	1100 37 1.100000 0.388000 0.434000 500 35 0.900000 0.740000 0.667000 600 40 1.000000 0.051000 0.051000 1.200000 0.029000 0.035000
1517206991362057394	1100 37 1.100000 0.387000 0.433000 500 35 0.900000 0.599000 0.540000 600 40 1.000000 0.051000 0.051000 1.200000 0.024000 0.028000
1517206991874971894	1100 37 1.100000 0.387000 0.433000 500 35 0.900000 0.598000 0.539000 600 40 1.000000 0.051000 0.051000 1.200000 0.023000 0.027000
1517206992387863644	1100 37 1.100000 0.387000 0.433000 500 35 0.900000 0.597000 0.538000 600 39 1.000000 0.051000 0.051000 1.200000 0.023000 0.027000
1517206992918252644	1100 37 1.100000 0.387000 0.433000 500 35 0.900000 0.598000 0.539000 600 40 1.000000 0.051000 0.051000 1.200000 0.023000 0.027000
1517206993431196519	1100 37 1.100000 0.390000 0.437000 500 35 0.900000 0.678000 0.611000 600 40 1.000000 0.051000 0.051000 1.200000 0.035000 0.042000
1517206993944383103	1100 37 1.100000 0.387000 0.433000 500 35 0.900000 0.598000 0.539000 600 40 1.000000 0.051000 0.051000 1.200000 0.023000 0.027000
1517206994457083478	1100 37 1.100000 0.387000 0.433000 500 35 0.900000 0.601000 0.542000 600 40 1.000000 0.051000 0.051000 1.200000 0.023000 0.027000
1517206994984887603	1100 37 1.100000 0.387000 0.433000 500 35 0.900000 0.601000 0.542000 600 40 1.000000 0.051000 0.051000 1.200000 0.023000 0.027000
1517206995498263020	1100 37 1.100000 0.390000 0.437000 500 35 0.900000 0.739000 0.666000 600 40 1.000000 0.051000 0.051000 1.200000 0.032000 0.038000
1517206996011171686	1100 37 1.100000 0.387000 0.433000 500 35 0.900000 0.600000 0.541000 600 40 1.000000 0.051000 0.051000 1.200000 0.024000 0.028000
1517206996524050978	1100 37 1.100000 0.386000 0.432000 500 35 0.900000 0.581000 0.524000 600 39 1.000000 0.051000 0.051000 1.200000 0.024000 0.028000
1517206997064695686	1100 37 1.100000 0.385000 0.431000 500 35 0.900000 0.578000 0.521000 600 40 1.000000 0.051000 0.051000 1.200000 0.023000 0.027000
1517206997577602020	1100 37 1.100000 0.306000 0.343000 500 35 0.900000 0.515000 0.467000 600 39 1.000000 0.051000 0.051000 1.200000 0.029000 0.035000
1517206998090385562	1100 35 1.100000 0.169000 0.191000 500 34 0.900000 0.408000 0.371000 600 39 1.000000 0.051000 0.051000 1.200000 0.024000 0.028000
1517206998603991562	1100 35 1.100000 0.052000 0.059000 500 33 0.900000 0.304000 0.276000 600 37 1.000000 0.051000 0.051000 1.200000 0.027000 0.032000
1517206999139223020	1100 35 1.100000 0.052000 0.059000 500 33 0.900000 0.304000 0.276000 600 37 1.000000 0.051000 0.051000 1.200000 0.030000 0.036000
1517206999669637603	1100 35 1.100000 0.053000 0.060000 500 33 0.900000 0.320000 0.291000 600 37 1.000000 0.051000 0.051000 1.200000 0.034000 0.041000
1517207000182911104	1100 34 1.100000 0.056000 0.063000 500 33 0.900000 0.334000 0.304000 600 37 1.000000 0.051000 0.051000 1.200000 0.034000 0.041000
1517207000696624312	1100 34 1.100000 0.052000 0.059000 500 33 0.900000 0.304000 0.276000 600 37 1.000000 0.051000 0.051000 1.200000 0.028000 0.033000
1517207001220371979	1100 34 1.100000 0.052000 0.059000 500 32 0.900000 0.304000 0.276000 600 36 1.000000 0.051000 0.051000 1.200000 0.030000 0.036000
1517207001736662604	1100 33 1.100000 0.053000 0.060000 500 32 0.900000 0.298000 0.271000 600 36 1.000000 0.051000 0.051000 1.200000 0.034000 0.041000
1517207002249529437	1100 33 1.100000 0.056000 0.063000 500 32 0.900000 0.199000 0.181000 600 36 1.000000 0.050000 0.050000 1.200000 0.029000 0.035000
