#Timestamp	CPU(0) Frequency(MHz)	CPU(0) Temperature(C)	A7 Voltage(V)	A7 Current(A)	A7 Power(W)	CPU(4) Frequency(MHz)	CPU(4) Temperature(C)	A15 Voltage(V)	A15 Current(A)	A15 Power(W)	GPU Frequency(MHz)	GPU Temperature(C)	GPU Voltage(V)	GPU Current(A)	GPU Power(W)	RAM Voltage(V)	RAM Current(A)	RAM Power(W)
1517338155702478155	1400 44 1.200000 0.082000 0.101000 1300 42 1.000000 0.248000 0.265000 600 46 1.000000 0.052000 0.052000 1.200000 0.043000 0.051000
1517338156208384655	1400 43 1.200000 0.094000 0.119000 1300 41 1.000000 0.778000 0.809000 600 47 1.000000 0.052000 0.052000 1.200000 0.035000 0.042000
1517338156714527364	1400 46 1.200000 0.093000 0.118000 1300 42 1.000000 0.771000 0.802000 600 48 1.000000 0.051000 0.051000 1.200000 0.041000 0.049000
1517338157268535780	1400 49 1.200000 0.244000 0.309000 1300 44 1.000000 1.212000 1.266000 600 52 1.000000 0.052000 0.052000 1.200000 0.046000 0.055000
1517338157819778572	1400 50 1.200000 0.395000 0.498000 1300 44 1.000000 1.930000 2.022000 600 52 1.000000 0.052000 0.052000 1.200000 0.053000 0.064000
1517338158365100905	1400 50 1.200000 0.473000 0.595000 1300 45 1.000000 2.098000 2.198000 600 53 1.000000 0.052000 0.052000 1.200000 0.049000 0.059000
1517338158894524322	1400 50 1.200000 0.403000 0.506000 1300 45 1.000000 2.099000 2.203000 600 54 1.000000 0.052000 0.052000 1.200000 0.041000 0.049000
1517338159409624906	1400 52 1.200000 0.378000 0.476000 1300 46 1.000000 1.905000 2.000000 600 55 1.000000 0.052000 0.052000 1.200000 0.044000 0.053000
1517338159922160531	1400 52 1.200000 0.486000 0.610000 1300 46 1.000000 2.170000 2.274000 600 55 1.000000 0.053000 0.053000 1.200000 0.044000 0.053000
1517338160476375739	1400 52 1.200000 0.358000 0.451000 1300 46 1.000000 2.286000 2.395000 600 55 1.000000 0.053000 0.053000 1.200000 0.043000 0.051000
1517338160987457572	1400 53 1.200000 0.468000 0.588000 1300 47 1.000000 2.106000 2.204000 600 56 1.000000 0.053000 0.053000 1.200000 0.044000 0.053000
1517338161496593739	1400 53 1.200000 0.478000 0.601000 1300 47 1.000000 2.387000 2.501000 600 56 1.000000 0.053000 0.053000 1.200000 0.042000 0.050000
1517338162004301156	1400 51 1.200000 0.450000 0.567000 1300 46 1.000000 2.252000 2.360000 600 55 1.000000 0.053000 0.053000 1.200000 0.045000 0.054000
1517338162539230531	1400 52 1.200000 0.246000 0.312000 1300 47 1.000000 1.974000 2.068000 600 56 1.000000 0.052000 0.052000 1.200000 0.053000 0.064000
1517338163102800698	1400 52 1.200000 0.384000 0.484000 1300 47 1.000000 1.897000 1.986000 600 56 1.000000 0.053000 0.053000 1.200000 0.053000 0.063000
1517338163611733239	1400 53 1.200000 0.368000 0.464000 1300 47 1.000000 1.845000 1.931000 600 56 1.000000 0.052000 0.052000 1.200000 0.050000 0.060000
1517338164117538906	1400 53 1.200000 0.392000 0.494000 1300 47 1.000000 2.014000 2.108000 600 57 1.000000 0.053000 0.053000 1.200000 0.050000 0.060000
1517338164640571156	1400 53 1.200000 0.443000 0.557000 1300 47 1.000000 2.131000 2.233000 600 56 1.000000 0.053000 0.053000 1.200000 0.051000 0.061000
1517338165146372615	1400 54 1.200000 0.482000 0.605000 1300 48 1.000000 2.219000 2.325000 600 57 1.000000 0.053000 0.053000 1.200000 0.049000 0.059000
1517338165699558156	1400 53 1.200000 0.462000 0.582000 1300 47 1.000000 2.315000 2.426000 600 57 1.000000 0.053000 0.053000 1.200000 0.052000 0.062000
1517338166219483656	1400 53 1.200000 0.436000 0.548000 1300 48 1.000000 2.176000 2.280000 600 57 1.000000 0.053000 0.053000 1.200000 0.051000 0.061000
1517338166733766115	1400 54 1.200000 0.496000 0.623000 1300 48 1.000000 2.270000 2.378000 600 57 1.000000 0.053000 0.053000 1.200000 0.052000 0.062000
1517338167262741240	1400 53 1.200000 0.393000 0.496000 1300 47 1.000000 2.365000 2.478000 600 57 1.000000 0.053000 0.053000 1.200000 0.050000 0.060000
1517338167815226407	1400 54 1.200000 0.493000 0.619000 1300 48 1.000000 2.305000 2.415000 600 57 1.000000 0.053000 0.053000 1.200000 0.050000 0.060000
1517338168323105032	1400 53 1.200000 0.416000 0.524000 1300 47 1.000000 2.330000 2.441000 600 56 1.000000 0.053000 0.053000 1.200000 0.047000 0.056000
1517338168870236990	1400 53 1.200000 0.237000 0.300000 1300 48 1.000000 2.002000 2.102000 600 56 1.000000 0.053000 0.053000 1.200000 0.052000 0.062000
1517338169427080823	1400 53 1.200000 0.403000 0.508000 1300 48 1.000000 2.342000 2.454000 600 57 1.000000 0.053000 0.053000 1.200000 0.050000 0.060000
1517338169932747448	1400 54 1.200000 0.431000 0.543000 1300 48 1.000000 2.321000 2.432000 600 57 1.000000 0.053000 0.053000 1.200000 0.050000 0.060000
1517338170440690574	1400 53 1.200000 0.466000 0.585000 1300 48 1.000000 2.378000 2.492000 600 57 1.000000 0.053000 0.053000 1.200000 0.047000 0.056000
1517338170947016574	1400 52 1.200000 0.376000 0.474000 1300 48 1.000000 2.268000 2.376000 600 56 1.000000 0.053000 0.053000 1.200000 0.043000 0.051000
1517338171459774740	1400 54 1.200000 0.328000 0.414000 1300 48 1.000000 2.206000 2.311000 600 57 1.000000 0.053000 0.053000 1.200000 0.045000 0.054000
1517338171971053282	1400 51 1.200000 0.494000 0.620000 1300 47 1.000000 2.326000 2.437000 600 55 1.000000 0.053000 0.053000 1.200000 0.050000 0.060000
1517338172478309449	1400 53 1.200000 0.432000 0.543000 1300 48 1.000000 2.343000 2.455000 600 56 1.000000 0.053000 0.053000 1.200000 0.051000 0.061000
1517338172985110032	1400 52 1.200000 0.427000 0.538000 1300 47 1.000000 2.172000 2.276000 600 57 1.000000 0.053000 0.053000 1.200000 0.049000 0.059000
1517338173492206907	1400 54 1.200000 0.472000 0.593000 1300 48 1.000000 2.324000 2.435000 600 56 1.000000 0.053000 0.053000 1.200000 0.050000 0.060000
1517338173998063699	1400 50 1.200000 0.461000 0.579000 1300 48 1.000000 2.308000 2.418000 600 54 1.000000 0.053000 0.053000 1.200000 0.047000 0.056000
1517338174505717157	1400 54 1.200000 0.452000 0.572000 1300 48 1.000000 2.309000 2.419000 600 57 1.000000 0.053000 0.053000 1.200000 0.051000 0.061000
1517338175052877366	1400 53 1.200000 0.266000 0.336000 1300 48 1.000000 2.385000 2.499000 600 58 1.000000 0.053000 0.053000 1.200000 0.049000 0.059000
1517338175561685949	1400 54 1.200000 0.392000 0.494000 1300 48 1.000000 2.327000 2.438000 600 58 1.000000 0.053000 0.053000 1.200000 0.050000 0.060000
1517338176069362033	1400 54 1.200000 0.402000 0.507000 1300 48 1.000000 2.230000 2.337000 600 58 1.000000 0.053000 0.053000 1.200000 0.049000 0.059000
1517338176606463658	1400 54 1.200000 0.277000 0.352000 1300 48 1.000000 1.948000 2.041000 600 57 1.000000 0.053000 0.053000 1.200000 0.052000 0.062000
1517338177155087449	1400 54 1.200000 0.405000 0.511000 1300 48 1.000000 2.207000 2.312000 600 57 1.000000 0.053000 0.053000 1.200000 0.051000 0.061000
1517338177661057658	1400 53 1.200000 0.448000 0.564000 1300 48 1.000000 2.291000 2.405000 600 56 1.000000 0.053000 0.053000 1.200000 0.049000 0.059000
1517338178167289616	1400 52 1.200000 0.493000 0.620000 1300 48 1.000000 2.285000 2.394000 600 56 1.000000 0.053000 0.053000 1.200000 0.047000 0.056000
1517338178673562033	1400 52 1.200000 0.461000 0.579000 1300 48 1.000000 2.300000 2.410000 600 56 1.000000 0.053000 0.053000 1.200000 0.044000 0.053000
1517338179179704366	1400 54 1.200000 0.379000 0.478000 1300 48 1.000000 1.920000 2.010000 600 56 1.000000 0.053000 0.053000 1.200000 0.048000 0.057000
1517338179685348616	1400 51 1.200000 0.388000 0.490000 1300 48 1.000000 1.889000 1.977000 600 55 1.000000 0.053000 0.053000 1.200000 0.048000 0.057000
1517338180220233366	1400 54 1.200000 0.278000 0.353000 1300 48 1.000000 1.406000 1.473000 600 58 1.000000 0.053000 0.053000 1.200000 0.056000 0.067000
1517338180725896241	1400 55 1.200000 0.396000 0.499000 1300 49 1.000000 1.920000 2.010000 600 58 1.000000 0.053000 0.053000 1.200000 0.051000 0.061000
1517338181233755408	1400 53 1.200000 0.434000 0.546000 1300 48 1.000000 1.075000 1.126000 600 56 1.000000 0.053000 0.053000 1.200000 0.053000 0.064000
1517338181780303492	1400 52 1.200000 0.351000 0.442000 1300 47 1.000000 1.514000 1.589000 600 57 1.000000 0.053000 0.053000 1.200000 0.041000 0.049000
1517338182297317992	1400 54 1.200000 0.385000 0.486000 1300 48 1.000000 2.209000 2.315000 600 57 1.000000 0.053000 0.053000 1.200000 0.042000 0.050000
1517338182803416117	1400 54 1.200000 0.486000 0.610000 1300 48 1.000000 2.120000 2.219000 600 58 1.000000 0.053000 0.053000 1.200000 0.044000 0.053000
1517338183340251533	1400 54 1.200000 0.482000 0.606000 1300 48 1.000000 1.877000 1.965000 600 57 1.000000 0.053000 0.053000 1.200000 0.043000 0.051000
1517338183867776283	1400 55 1.200000 0.492000 0.618000 1300 49 1.000000 1.773000 1.856000 600 58 1.000000 0.053000 0.053000 1.200000 0.042000 0.050000
1517338184373462742	1400 55 1.200000 0.416000 0.524000 1300 49 1.000000 1.893000 1.981000 600 58 1.000000 0.053000 0.053000 1.200000 0.044000 0.053000
1517338184916283284	1400 53 1.200000 0.348000 0.439000 1300 49 1.000000 1.885000 1.973000 600 57 1.000000 0.053000 0.053000 1.200000 0.047000 0.056000
1517338185445183742	1400 54 1.200000 0.397000 0.501000 1300 49 1.000000 1.942000 2.033000 600 58 1.000000 0.053000 0.053000 1.200000 0.054000 0.065000
1517338185951238784	1400 54 1.200000 0.383000 0.483000 1300 49 1.000000 1.807000 1.891000 600 57 1.000000 0.053000 0.053000 1.200000 0.048000 0.057000
1517338186499863450	1400 55 1.200000 0.400000 0.504000 1300 49 1.000000 1.875000 1.963000 600 58 1.000000 0.053000 0.053000 1.200000 0.050000 0.060000
1517338187007724451	1400 54 1.200000 0.473000 0.595000 1300 48 1.000000 2.162000 2.265000 600 58 1.000000 0.053000 0.053000 1.200000 0.051000 0.061000
1517338187514358909	1400 54 1.200000 0.346000 0.436000 1300 49 1.000000 1.764000 1.848000 600 57 1.000000 0.053000 0.053000 1.200000 0.056000 0.067000
1517338188022104076	1400 54 1.200000 0.391000 0.493000 1300 49 1.000000 2.091000 2.191000 600 57 1.000000 0.053000 0.053000 1.200000 0.048000 0.057000
1517338188530304992	1400 53 1.200000 0.319000 0.403000 1300 48 1.000000 1.443000 1.512000 600 57 1.000000 0.053000 0.053000 1.200000 0.052000 0.062000
1517338189083430992	1400 54 1.200000 0.358000 0.451000 1300 48 1.000000 2.066000 2.169000 600 57 1.000000 0.053000 0.053000 1.200000 0.048000 0.057000
1517338189592242159	1400 54 1.200000 0.387000 0.488000 1300 48 1.000000 2.295000 2.405000 600 57 1.000000 0.053000 0.053000 1.200000 0.051000 0.061000
1517338190104400659	1400 53 1.200000 0.374000 0.471000 1300 48 1.000000 2.278000 2.387000 600 57 1.000000 0.053000 0.053000 1.200000 0.049000 0.059000
1517338190612210993	1400 53 1.200000 0.282000 0.357000 1300 48 1.000000 2.033000 2.134000 600 57 1.000000 0.053000 0.053000 1.200000 0.053000 0.064000
1517338191142464493	1400 53 1.200000 0.374000 0.471000 1300 47 1.000000 2.222000 2.328000 600 56 1.000000 0.053000 0.053000 1.200000 0.049000 0.059000
1517338191673558326	1400 53 1.200000 0.322000 0.407000 1300 48 1.000000 2.222000 2.333000 600 57 1.000000 0.053000 0.053000 1.200000 0.038000 0.045000
1517338192228196618	1400 53 1.200000 0.388000 0.489000 1300 48 1.000000 2.318000 2.429000 600 57 1.000000 0.053000 0.053000 1.200000 0.048000 0.057000
1517338192764246951	1400 55 1.200000 0.394000 0.497000 1300 48 1.000000 2.262000 2.370000 600 57 1.000000 0.053000 0.053000 1.200000 0.048000 0.057000
1517338193292235493	1400 55 1.200000 0.383000 0.483000 1300 48 1.000000 2.357000 2.470000 600 58 1.000000 0.053000 0.053000 1.200000 0.051000 0.061000
1517338193824799785	1400 54 1.200000 0.486000 0.610000 1300 48 1.000000 2.238000 2.343000 600 58 1.000000 0.053000 0.053000 1.200000 0.049000 0.059000
1517338194330507993	1400 55 1.200000 0.471000 0.592000 1300 49 1.000000 2.249000 2.356000 600 58 1.000000 0.053000 0.053000 1.200000 0.049000 0.059000
1517338194848244326	1400 54 1.200000 0.444000 0.559000 1300 48 1.000000 1.962000 2.056000 600 57 1.000000 0.053000 0.053000 1.200000 0.055000 0.066000
1517338195396270743	1400 53 1.200000 0.434000 0.545000 1300 48 1.000000 2.244000 2.351000 600 57 1.000000 0.053000 0.053000 1.200000 0.046000 0.055000
1517338195936898785	1400 54 1.200000 0.445000 0.559000 1300 48 1.000000 2.262000 2.370000 600 57 1.000000 0.053000 0.053000 1.200000 0.046000 0.055000
1517338196447077827	1400 55 1.200000 0.467000 0.588000 1300 49 1.000000 2.253000 2.361000 600 58 1.000000 0.053000 0.053000 1.200000 0.047000 0.056000
1517338196954935952	1400 53 1.200000 0.445000 0.561000 1300 48 1.000000 2.290000 2.399000 600 57 1.000000 0.053000 0.053000 1.200000 0.047000 0.056000
1517338197493412577	1400 54 1.200000 0.492000 0.618000 1300 48 1.000000 2.338000 2.450000 600 57 1.000000 0.053000 0.053000 1.200000 0.043000 0.051000
1517338198027021327	1400 54 1.200000 0.395000 0.497000 1300 48 1.000000 2.335000 2.447000 600 57 1.000000 0.053000 0.053000 1.200000 0.041000 0.049000
1517338198538090410	1400 51 1.200000 0.450000 0.567000 1300 48 1.000000 2.320000 2.431000 600 54 1.000000 0.053000 0.053000 1.200000 0.042000 0.050000
1517338199044180285	1400 54 1.200000 0.414000 0.520000 1300 48 1.000000 2.028000 2.129000 600 56 1.000000 0.053000 0.053000 1.200000 0.042000 0.050000
1517338199550240952	1400 52 1.200000 0.489000 0.614000 1300 49 1.000000 2.149000 2.252000 600 56 1.000000 0.053000 0.053000 1.200000 0.042000 0.050000
1517338200056019452	1400 55 1.200000 0.382000 0.482000 1300 49 1.000000 2.267000 2.375000 600 58 1.000000 0.053000 0.053000 1.200000 0.040000 0.048000
1517338200562575910	1400 54 1.200000 0.393000 0.496000 1300 49 1.000000 2.250000 2.358000 600 58 1.000000 0.053000 0.053000 1.200000 0.049000 0.059000
1517338201093533452	1400 55 1.200000 0.418000 0.527000 1300 49 1.000000 1.924000 2.014000 600 58 1.000000 0.053000 0.053000 1.200000 0.051000 0.061000
1517338201625847994	1400 54 1.200000 0.443000 0.558000 1300 48 1.000000 1.672000 1.752000 600 58 1.000000 0.053000 0.053000 1.200000 0.041000 0.049000
1517338202136227161	1400 55 1.200000 0.495000 0.622000 1300 49 1.000000 2.283000 2.392000 600 58 1.000000 0.053000 0.053000 1.200000 0.041000 0.049000
1517338202661929661	1400 55 1.200000 0.421000 0.530000 1300 49 1.000000 2.148000 2.251000 600 58 1.000000 0.053000 0.053000 1.200000 0.043000 0.051000
1517338203167997411	1400 54 1.200000 0.374000 0.471000 1300 49 1.000000 2.187000 2.289000 600 58 1.000000 0.053000 0.053000 1.200000 0.044000 0.053000
1517338203692038161	1400 54 1.200000 0.371000 0.469000 1300 48 1.000000 1.759000 1.843000 600 58 1.000000 0.053000 0.053000 1.200000 0.043000 0.051000
1517338204198198536	1400 55 1.200000 0.422000 0.532000 1300 49 1.000000 2.347000 2.459000 600 58 1.000000 0.053000 0.053000 1.200000 0.041000 0.049000
1517338204731084786	1400 54 1.200000 0.327000 0.413000 1300 48 1.000000 2.178000 2.282000 600 57 1.000000 0.053000 0.053000 1.200000 0.044000 0.053000
1517338205252948994	1400 54 1.200000 0.358000 0.452000 1300 48 1.000000 2.303000 2.413000 600 58 1.000000 0.053000 0.053000 1.200000 0.047000 0.056000
1517338205808218328	1400 55 1.200000 0.395000 0.498000 1300 49 1.000000 2.268000 2.376000 600 57 1.000000 0.053000 0.053000 1.200000 0.045000 0.054000
1517338206364056536	1400 55 1.200000 0.481000 0.605000 1300 49 1.000000 2.362000 2.475000 600 58 1.000000 0.053000 0.053000 1.200000 0.046000 0.055000
1517338206902618078	1400 55 1.200000 0.462000 0.580000 1300 49 1.000000 2.056000 2.152000 600 58 1.000000 0.053000 0.053000 1.200000 0.043000 0.051000
1517338207408614328	1400 52 1.200000 0.457000 0.576000 1300 49 1.000000 1.834000 1.920000 600 56 1.000000 0.053000 0.053000 1.200000 0.045000 0.054000
1517338207914330828	1400 51 1.200000 0.366000 0.461000 1300 48 1.000000 1.849000 1.934000 600 55 1.000000 0.053000 0.053000 1.200000 0.047000 0.056000
1517338208443589953	1400 54 1.200000 0.269000 0.340000 1300 48 1.000000 1.049000 1.099000 600 58 1.000000 0.053000 0.053000 1.200000 0.048000 0.057000
1517338208949517411	1400 53 1.200000 0.402000 0.507000 1300 49 1.000000 1.950000 2.041000 600 57 1.000000 0.053000 0.053000 1.200000 0.048000 0.057000
1517338209455853453	1400 52 1.200000 0.368000 0.464000 1300 49 1.000000 1.829000 1.914000 600 56 1.000000 0.053000 0.053000 1.200000 0.051000 0.061000
1517338209961950912	1400 52 1.200000 0.399000 0.503000 1300 49 1.000000 1.879000 1.967000 600 56 1.000000 0.053000 0.053000 1.200000 0.051000 0.061000
1517338210469706120	1400 54 1.200000 0.444000 0.559000 1300 48 1.000000 1.924000 2.014000 600 58 1.000000 0.053000 0.053000 1.200000 0.050000 0.060000
1517338210996445578	1400 54 1.200000 0.327000 0.413000 1300 48 1.000000 0.983000 1.030000 600 58 1.000000 0.053000 0.053000 1.200000 0.051000 0.061000
1517338211504362078	1400 54 1.200000 0.275000 0.349000 1300 48 1.000000 1.084000 1.136000 600 57 1.000000 0.053000 0.053000 1.200000 0.046000 0.055000
1517338212012158454	1400 54 1.200000 0.331000 0.417000 1300 48 1.000000 1.907000 1.994000 600 58 1.000000 0.053000 0.053000 1.200000 0.042000 0.050000
1517338212529639204	1400 55 1.200000 0.439000 0.552000 1300 49 1.000000 1.875000 1.963000 600 58 1.000000 0.053000 0.053000 1.200000 0.040000 0.048000
1517338213040286787	1400 54 1.200000 0.467000 0.587000 1300 48 1.000000 1.853000 1.938000 600 58 1.000000 0.053000 0.053000 1.200000 0.042000 0.050000
1517338213600291870	1400 54 1.200000 0.407000 0.512000 1300 48 1.000000 1.910000 1.999000 600 57 1.000000 0.053000 0.053000 1.200000 0.041000 0.049000
1517338214115297454	1400 55 1.200000 0.485000 0.609000 1300 49 1.000000 1.943000 2.032000 600 58 1.000000 0.053000 0.053000 1.200000 0.042000 0.050000
1517338214621008870	1400 55 1.200000 0.458000 0.577000 1300 49 1.000000 1.940000 2.031000 600 58 1.000000 0.053000 0.053000 1.200000 0.044000 0.053000
1517338215166147204	1400 55 1.200000 0.326000 0.412000 1300 49 1.000000 1.907000 1.996000 600 58 1.000000 0.053000 0.053000 1.200000 0.041000 0.049000
1517338215671946037	1400 55 1.200000 0.407000 0.513000 1300 49 1.000000 1.838000 1.924000 600 58 1.000000 0.053000 0.053000 1.200000 0.043000 0.051000
1517338216180681871	1400 55 1.200000 0.355000 0.448000 1300 49 1.000000 1.931000 2.019000 600 58 1.000000 0.053000 0.053000 1.200000 0.042000 0.050000
1517338216706279621	1400 55 1.200000 0.381000 0.480000 1300 49 1.000000 1.868000 1.955000 600 58 1.000000 0.053000 0.053000 1.200000 0.043000 0.051000
1517338217242726912	1400 53 1.200000 0.297000 0.375000 1300 48 1.000000 1.034000 1.085000 600 57 1.000000 0.053000 0.053000 1.200000 0.043000 0.051000
1517338217749618246	1400 52 1.200000 0.373000 0.471000 1300 48 1.000000 1.636000 1.714000 600 55 1.000000 0.053000 0.053000 1.200000 0.041000 0.049000
1517338218261988579	1400 52 1.200000 0.378000 0.477000 1300 48 1.000000 2.197000 2.302000 600 58 1.000000 0.053000 0.053000 1.200000 0.040000 0.048000
1517338218767696121	1400 52 1.200000 0.365000 0.460000 1300 49 1.000000 2.362000 2.480000 600 56 1.000000 0.053000 0.053000 1.200000 0.042000 0.050000
1517338219274381038	1400 55 1.200000 0.450000 0.567000 1300 48 1.000000 1.073000 1.124000 600 58 1.000000 0.053000 0.053000 1.200000 0.050000 0.060000
1517338219780171579	1400 55 1.200000 0.484000 0.608000 1300 49 1.000000 1.967000 2.059000 600 58 1.000000 0.053000 0.053000 1.200000 0.045000 0.054000
1517338220285938454	1400 55 1.200000 0.454000 0.572000 1300 49 1.000000 1.903000 1.992000 600 58 1.000000 0.053000 0.053000 1.200000 0.046000 0.055000
1517338220840529580	1400 54 1.200000 0.356000 0.450000 1300 48 1.000000 1.238000 1.299000 600 57 1.000000 0.053000 0.053000 1.200000 0.045000 0.054000
1517338221375494746	1400 55 1.200000 0.474000 0.596000 1300 48 1.000000 1.695000 1.774000 600 58 1.000000 0.053000 0.053000 1.200000 0.041000 0.049000
1517338221884301080	1400 53 1.200000 0.483000 0.607000 1300 48 1.000000 1.512000 1.587000 600 57 1.000000 0.053000 0.053000 1.200000 0.042000 0.050000
1517338222435698371	1400 55 1.200000 0.428000 0.538000 1300 48 1.000000 2.279000 2.388000 600 57 1.000000 0.053000 0.053000 1.200000 0.041000 0.049000
1517338222944354455	1400 55 1.200000 0.471000 0.592000 1300 49 1.000000 2.173000 2.275000 600 58 1.000000 0.053000 0.053000 1.200000 0.041000 0.049000
1517338223488236205	1400 55 1.200000 0.480000 0.603000 1300 49 1.000000 1.989000 2.082000 600 57 1.000000 0.053000 0.053000 1.200000 0.043000 0.051000
1517338224002423705	1400 55 1.200000 0.393000 0.495000 1300 49 1.000000 1.969000 2.059000 600 59 1.000000 0.053000 0.053000 1.200000 0.043000 0.051000
1517338224517916830	1400 54 1.200000 0.348000 0.440000 1300 48 1.000000 1.261000 1.321000 600 57 1.000000 0.053000 0.053000 1.200000 0.044000 0.053000
1517338225050486538	1400 54 1.200000 0.347000 0.437000 1300 48 1.000000 1.964000 2.062000 600 58 1.000000 0.053000 0.053000 1.200000 0.039000 0.047000
1517338225558194455	1400 53 1.200000 0.427000 0.537000 1300 48 1.000000 2.110000 2.211000 600 57 1.000000 0.053000 0.053000 1.200000 0.043000 0.051000
1517338226070046039	1400 51 1.200000 0.263000 0.333000 1300 48 1.000000 1.476000 1.549000 600 55 1.000000 0.053000 0.053000 1.200000 0.038000 0.045000
1517338226580722705	1400 51 1.200000 0.256000 0.325000 1300 48 1.000000 1.177000 1.233000 600 55 1.000000 0.053000 0.053000 1.200000 0.044000 0.053000
1517338227116365664	1400 53 1.200000 0.359000 0.453000 1300 48 1.000000 1.869000 1.954000 600 56 1.000000 0.053000 0.053000 1.200000 0.047000 0.056000
1517338227660306205	1400 54 1.200000 0.466000 0.586000 1300 49 1.000000 1.839000 1.925000 600 57 1.000000 0.053000 0.053000 1.200000 0.041000 0.049000
1517338228215455247	1400 54 1.200000 0.480000 0.603000 1300 49 1.000000 2.131000 2.233000 600 58 1.000000 0.053000 0.053000 1.200000 0.041000 0.049000
1517338228762159122	1400 55 1.200000 0.402000 0.507000 1300 49 1.000000 2.349000 2.466000 600 58 1.000000 0.053000 0.053000 1.200000 0.046000 0.055000
1517338229312729206	1400 55 1.200000 0.389000 0.490000 1300 49 1.000000 2.325000 2.436000 600 58 1.000000 0.053000 0.053000 1.200000 0.045000 0.054000
1517338229819607831	1400 55 1.200000 0.376000 0.474000 1300 49 1.000000 2.117000 2.216000 600 58 1.000000 0.053000 0.053000 1.200000 0.046000 0.055000
1517338230325864872	1400 55 1.200000 0.394000 0.497000 1300 49 1.000000 1.846000 1.932000 600 58 1.000000 0.053000 0.053000 1.200000 0.048000 0.057000
1517338230832016039	1400 54 1.200000 0.440000 0.554000 1300 49 1.000000 1.839000 1.925000 600 57 1.000000 0.053000 0.053000 1.200000 0.049000 0.059000
1517338231338114747	1400 55 1.200000 0.397000 0.501000 1300 49 1.000000 2.013000 2.105000 600 58 1.000000 0.053000 0.053000 1.200000 0.049000 0.059000
1517338231843992123	1400 56 1.200000 0.381000 0.480000 1300 49 1.000000 1.989000 2.080000 600 59 1.000000 0.053000 0.053000 1.200000 0.047000 0.056000
1517338232373423164	1400 55 1.200000 0.341000 0.431000 1300 49 1.000000 1.089000 1.141000 600 58 1.000000 0.053000 0.053000 1.200000 0.054000 0.065000
1517338232893145039	1400 55 1.200000 0.388000 0.489000 1300 49 1.000000 1.967000 2.057000 600 59 1.000000 0.053000 0.053000 1.200000 0.049000 0.059000
1517338233406956456	1400 55 1.200000 0.358000 0.451000 1300 49 1.000000 1.899000 1.988000 600 59 1.000000 0.053000 0.053000 1.200000 0.049000 0.059000
1517338233942957456	1400 55 1.200000 0.351000 0.444000 1300 49 1.000000 1.475000 1.545000 600 58 1.000000 0.053000 0.053000 1.200000 0.052000 0.062000
1517338234460265915	1400 54 1.200000 0.387000 0.488000 1300 48 1.000000 2.130000 2.232000 600 57 1.000000 0.053000 0.053000 1.200000 0.051000 0.061000
1517338234996289206	1400 53 1.200000 0.458000 0.577000 1300 48 1.000000 2.199000 2.304000 600 56 1.000000 0.053000 0.053000 1.200000 0.044000 0.053000
1517338235533177123	1400 54 1.200000 0.429000 0.539000 1300 48 1.000000 2.269000 2.377000 600 58 1.000000 0.053000 0.053000 1.200000 0.041000 0.049000
1517338236088274956	1400 54 1.200000 0.415000 0.522000 1300 48 1.000000 2.216000 2.322000 600 57 1.000000 0.053000 0.053000 1.200000 0.041000 0.049000
1517338236608580456	1400 55 1.200000 0.494000 0.620000 1300 49 1.000000 2.243000 2.350000 600 58 1.000000 0.053000 0.053000 1.200000 0.041000 0.049000
1517338237114223957	1400 55 1.200000 0.444000 0.559000 1300 49 1.000000 2.280000 2.389000 600 58 1.000000 0.053000 0.053000 1.200000 0.041000 0.049000
1517338237621504582	1400 55 1.200000 0.437000 0.550000 1300 49 1.000000 2.321000 2.432000 600 58 1.000000 0.053000 0.053000 1.200000 0.041000 0.049000
1517338238155512290	1400 55 1.200000 0.487000 0.612000 1300 49 1.000000 2.199000 2.308000 600 58 1.000000 0.053000 0.053000 1.200000 0.042000 0.050000
1517338238662583998	1400 52 1.200000 0.480000 0.603000 1300 48 1.000000 2.252000 2.364000 600 55 1.000000 0.053000 0.053000 1.200000 0.042000 0.050000
1517338239173634707	1400 54 1.200000 0.333000 0.420000 1300 48 1.000000 2.125000 2.231000 600 56 1.000000 0.053000 0.053000 1.200000 0.041000 0.049000
1517338239679407248	1400 52 1.200000 0.442000 0.556000 1300 49 1.000000 2.222000 2.333000 600 56 1.000000 0.053000 0.053000 1.200000 0.041000 0.049000
1517338240185590582	1400 54 1.200000 0.383000 0.483000 1300 48 1.000000 1.696000 1.777000 600 58 1.000000 0.053000 0.053000 1.200000 0.056000 0.067000
1517338240691862749	1400 55 1.200000 0.384000 0.484000 1300 49 1.000000 1.954000 2.045000 600 58 1.000000 0.053000 0.053000 1.200000 0.049000 0.059000
1517338241204234915	1400 55 1.200000 0.443000 0.557000 1300 49 1.000000 1.819000 1.904000 600 58 1.000000 0.053000 0.053000 1.200000 0.051000 0.061000
1517338241716424040	1400 55 1.200000 0.356000 0.449000 1300 49 1.000000 2.133000 2.235000 600 59 1.000000 0.053000 0.053000 1.200000 0.042000 0.050000
1517338242268254790	1400 55 1.200000 0.394000 0.497000 1300 49 1.000000 2.119000 2.218000 600 58 1.000000 0.053000 0.053000 1.200000 0.041000 0.049000
1517338242801451916	1400 55 1.200000 0.327000 0.414000 1300 49 1.000000 1.560000 1.634000 600 58 1.000000 0.053000 0.053000 1.200000 0.042000 0.050000
1517338243307233749	1400 54 1.200000 0.494000 0.621000 1300 49 1.000000 2.001000 2.095000 600 57 1.000000 0.053000 0.053000 1.200000 0.053000 0.063000
1517338243839341332	1400 54 1.200000 0.494000 0.621000 1300 48 1.000000 1.787000 1.872000 600 58 1.000000 0.053000 0.053000 1.200000 0.042000 0.050000
1517338244362569624	1400 55 1.200000 0.340000 0.429000 1300 49 1.000000 2.261000 2.369000 600 58 1.000000 0.053000 0.053000 1.200000 0.040000 0.048000
1517338244908260791	1400 55 1.200000 0.455000 0.572000 1300 49 1.000000 2.381000 2.495000 600 58 1.000000 0.053000 0.053000 1.200000 0.045000 0.054000
1517338245431577166	1400 55 1.200000 0.471000 0.592000 1300 49 1.000000 2.231000 2.338000 600 58 1.000000 0.053000 0.053000 1.200000 0.043000 0.051000
1517338245937556624	1400 55 1.200000 0.386000 0.487000 1300 49 1.000000 1.955000 2.044000 600 56 1.000000 0.053000 0.053000 1.200000 0.042000 0.050000
1517338246443245333	1400 51 1.200000 0.405000 0.511000 1300 49 1.000000 1.911000 1.998000 600 55 1.000000 0.053000 0.053000 1.200000 0.046000 0.055000
1517338246963395124	1400 55 1.200000 0.320000 0.405000 1300 49 1.000000 1.113000 1.166000 600 58 1.000000 0.053000 0.053000 1.200000 0.048000 0.057000
1517338247494609624	1400 55 1.200000 0.307000 0.388000 1300 48 1.000000 1.151000 1.206000 600 58 1.000000 0.053000 0.053000 1.200000 0.045000 0.054000
1517338248006076999	1400 55 1.200000 0.395000 0.498000 1300 49 1.000000 1.831000 1.917000 600 58 1.000000 0.053000 0.053000 1.200000 0.043000 0.051000
1517338248513659250	1400 54 1.200000 0.369000 0.465000 1300 48 1.000000 1.881000 1.969000 600 58 1.000000 0.053000 0.053000 1.200000 0.042000 0.050000
1517338249019818958	1400 55 1.200000 0.369000 0.465000 1300 49 1.000000 1.880000 1.968000 600 59 1.000000 0.053000 0.053000 1.200000 0.041000 0.049000
1517338249528204416	1400 55 1.200000 0.389000 0.490000 1300 49 1.000000 1.922000 2.010000 600 58 1.000000 0.053000 0.053000 1.200000 0.043000 0.051000
1517338250054189875	1400 55 1.200000 0.451000 0.567000 1300 49 1.000000 1.930000 2.020000 600 58 1.000000 0.053000 0.053000 1.200000 0.046000 0.055000
1517338250559991291	1400 56 1.200000 0.442000 0.557000 1300 49 1.000000 1.925000 2.015000 600 59 1.000000 0.053000 0.053000 1.200000 0.048000 0.057000
1517338251076236250	1400 55 1.200000 0.399000 0.503000 1300 49 1.000000 1.959000 2.049000 600 58 1.000000 0.053000 0.053000 1.200000 0.050000 0.060000
1517338251610807500	1400 56 1.200000 0.358000 0.452000 1300 49 1.000000 2.001000 2.093000 600 59 1.000000 0.053000 0.053000 1.200000 0.049000 0.059000
1517338252150419375	1400 55 1.200000 0.405000 0.511000 1300 49 1.000000 1.978000 2.068000 600 59 1.000000 0.053000 0.053000 1.200000 0.051000 0.061000
1517338252658006333	1400 55 1.200000 0.379000 0.478000 1300 49 1.000000 1.860000 1.947000 600 58 1.000000 0.053000 0.053000 1.200000 0.050000 0.060000
1517338253204285167	1400 55 1.200000 0.344000 0.435000 1300 49 1.000000 1.901000 1.990000 600 59 1.000000 0.053000 0.053000 1.200000 0.048000 0.057000
1517338253712106500	1400 55 1.200000 0.361000 0.455000 1300 49 1.000000 1.956000 2.045000 600 58 1.000000 0.053000 0.053000 1.200000 0.048000 0.057000
1517338254244409459	1400 54 1.200000 0.393000 0.495000 1300 49 1.000000 2.040000 2.133000 600 57 1.000000 0.053000 0.053000 1.200000 0.047000 0.056000
1517338254757050292	1400 55 1.200000 0.330000 0.418000 1300 49 1.000000 1.090000 1.142000 600 58 1.000000 0.053000 0.053000 1.200000 0.048000 0.057000
1517338255265905584	1400 55 1.200000 0.395000 0.498000 1300 49 1.000000 1.944000 2.033000 600 59 1.000000 0.053000 0.053000 1.200000 0.045000 0.054000
1517338255771478167	1400 55 1.200000 0.412000 0.519000 1300 49 1.000000 1.881000 1.969000 600 58 1.000000 0.053000 0.053000 1.200000 0.043000 0.051000
1517338256278844250	1400 56 1.200000 0.472000 0.593000 1300 49 1.000000 1.956000 2.047000 600 59 1.000000 0.053000 0.053000 1.200000 0.043000 0.051000
1517338256805793626	1400 55 1.200000 0.454000 0.570000 1300 49 1.000000 1.853000 1.940000 600 58 1.000000 0.053000 0.053000 1.200000 0.045000 0.054000
1517338257343090834	1400 55 1.200000 0.413000 0.519000 1300 49 1.000000 1.963000 2.053000 600 58 1.000000 0.053000 0.053000 1.200000 0.041000 0.049000
1517338257853892834	1400 56 1.200000 0.444000 0.559000 1300 49 1.000000 1.926000 2.014000 600 59 1.000000 0.053000 0.053000 1.200000 0.046000 0.055000
1517338258377661126	1400 54 1.200000 0.428000 0.539000 1300 49 1.000000 1.041000 1.090000 600 57 1.000000 0.053000 0.053000 1.200000 0.047000 0.056000
1517338258902978417	1400 55 1.200000 0.468000 0.588000 1300 49 1.000000 1.923000 2.011000 600 58 1.000000 0.053000 0.053000 1.200000 0.042000 0.050000
1517338259409700334	1400 55 1.200000 0.423000 0.533000 1300 49 1.000000 1.908000 1.995000 600 58 1.000000 0.053000 0.053000 1.200000 0.042000 0.050000
1517338259915529834	1400 55 1.200000 0.462000 0.582000 1300 49 1.000000 2.327000 2.438000 600 59 1.000000 0.053000 0.053000 1.200000 0.048000 0.057000
1517338260480280334	1400 55 1.200000 0.502000 0.631000 1300 49 1.000000 2.292000 2.402000 600 58 1.000000 0.053000 0.053000 1.200000 0.049000 0.059000
1517338260988995334	1400 55 1.200000 0.359000 0.453000 1300 49 1.000000 1.894000 1.984000 600 59 1.000000 0.053000 0.053000 1.200000 0.047000 0.056000
1517338261544201043	1400 55 1.200000 0.473000 0.594000 1300 49 1.000000 1.894000 1.983000 600 58 1.000000 0.053000 0.053000 1.200000 0.043000 0.051000
1517338262049734459	1400 55 1.200000 0.439000 0.553000 1300 49 1.000000 1.909000 1.998000 600 59 1.000000 0.053000 0.053000 1.200000 0.050000 0.060000
1517338262557612210	1400 55 1.200000 0.395000 0.498000 1300 49 1.000000 2.170000 2.274000 600 58 1.000000 0.053000 0.053000 1.200000 0.042000 0.050000
1517338263116224043	1400 55 1.200000 0.455000 0.573000 1300 49 1.000000 2.244000 2.356000 600 58 1.000000 0.053000 0.053000 1.200000 0.042000 0.050000
1517338263626231751	1400 56 1.200000 0.300000 0.379000 1300 49 1.000000 1.901000 1.990000 600 59 1.000000 0.053000 0.053000 1.200000 0.049000 0.059000
1517338264148288876	1400 55 1.200000 0.478000 0.601000 1300 49 1.000000 2.339000 2.451000 600 58 1.000000 0.053000 0.053000 1.200000 0.046000 0.055000
1517338264678985918	1400 55 1.200000 0.411000 0.518000 1300 49 1.000000 2.250000 2.362000 600 59 1.000000 0.053000 0.053000 1.200000 0.049000 0.059000
1517338265186501085	1400 55 1.200000 0.363000 0.458000 1300 49 1.000000 2.250000 2.358000 600 59 1.000000 0.053000 0.053000 1.200000 0.049000 0.059000
1517338265692507293	1400 53 1.200000 0.337000 0.426000 1300 49 1.000000 2.239000 2.344000 600 57 1.000000 0.053000 0.053000 1.200000 0.050000 0.060000
1517338266236289793	1400 55 1.200000 0.322000 0.408000 1300 49 1.000000 1.483000 1.554000 600 59 1.000000 0.053000 0.053000 1.200000 0.056000 0.067000
1517338266742117002	1400 53 1.200000 0.418000 0.527000 1300 49 1.000000 1.976000 2.068000 600 57 1.000000 0.053000 0.053000 1.200000 0.047000 0.056000
1517338267248364377	1400 54 1.200000 0.400000 0.505000 1300 49 1.000000 1.914000 2.002000 600 56 1.000000 0.053000 0.053000 1.200000 0.049000 0.059000
1517338267761401127	1400 53 1.200000 0.456000 0.573000 1300 49 1.000000 1.887000 1.975000 600 59 1.000000 0.053000 0.053000 1.200000 0.048000 0.057000
1517338268288351460	1400 54 1.200000 0.503000 0.632000 1300 49 1.000000 1.937000 2.028000 600 58 1.000000 0.053000 0.053000 1.200000 0.044000 0.053000
1517338268829459335	1400 55 1.200000 0.368000 0.464000 1300 49 1.000000 1.893000 1.980000 600 58 1.000000 0.053000 0.053000 1.200000 0.042000 0.050000
1517338269335642085	1400 56 1.200000 0.390000 0.492000 1300 49 1.000000 2.049000 2.147000 600 58 1.000000 0.053000 0.053000 1.200000 0.043000 0.051000
1517338269847669919	1400 55 1.200000 0.421000 0.530000 1300 49 1.000000 2.280000 2.389000 600 59 1.000000 0.053000 0.053000 1.200000 0.042000 0.050000
1517338270378740252	1400 55 1.200000 0.488000 0.613000 1300 49 1.000000 2.225000 2.336000 600 58 1.000000 0.053000 0.053000 1.200000 0.040000 0.048000
1517338270885951252	1400 56 1.200000 0.473000 0.594000 1300 49 1.000000 2.287000 2.396000 600 58 1.000000 0.053000 0.053000 1.200000 0.040000 0.048000
1517338271397824669	1400 55 1.200000 0.488000 0.613000 1300 49 1.000000 2.328000 2.439000 600 59 1.000000 0.053000 0.053000 1.200000 0.043000 0.051000
1517338271921324586	1400 55 1.200000 0.455000 0.572000 1300 49 1.000000 2.227000 2.333000 600 59 1.000000 0.053000 0.053000 1.200000 0.043000 0.051000
1517338272437314044	1400 55 1.200000 0.493000 0.620000 1300 49 1.000000 2.345000 2.457000 600 59 1.000000 0.053000 0.053000 1.200000 0.041000 0.049000
1517338272952912836	1400 55 1.200000 0.494000 0.621000 1300 49 1.000000 2.333000 2.444000 600 59 1.000000 0.053000 0.053000 1.200000 0.042000 0.050000
1517338273459105836	1400 53 1.200000 0.430000 0.540000 1300 49 1.000000 2.189000 2.294000 600 56 1.000000 0.053000 0.053000 1.200000 0.042000 0.050000
1517338273965283253	1400 55 1.200000 0.384000 0.483000 1300 49 1.000000 1.973000 2.071000 600 57 1.000000 0.053000 0.053000 1.200000 0.038000 0.045000
1517338274473120003	1400 55 1.200000 0.448000 0.564000 1300 49 1.000000 2.151000 2.254000 600 59 1.000000 0.053000 0.053000 1.200000 0.043000 0.051000
1517338274981194544	1400 55 1.200000 0.322000 0.407000 1300 49 1.000000 2.054000 2.152000 600 58 1.000000 0.053000 0.053000 1.200000 0.039000 0.047000
1517338275528261586	1400 56 1.200000 0.458000 0.577000 1300 49 1.000000 2.119000 2.220000 600 58 1.000000 0.053000 0.053000 1.200000 0.050000 0.060000
1517338276055790919	1400 56 1.200000 0.359000 0.452000 1300 50 1.000000 2.226000 2.330000 600 59 1.000000 0.053000 0.053000 1.200000 0.042000 0.050000
1517338276589171836	1400 56 1.200000 0.386000 0.486000 1300 49 1.000000 2.305000 2.415000 600 59 1.000000 0.053000 0.053000 1.200000 0.039000 0.047000
1517338277096736003	1400 56 1.200000 0.404000 0.509000 1300 50 1.000000 2.302000 2.412000 600 59 1.000000 0.053000 0.053000 1.200000 0.043000 0.051000
1517338277603054920	1400 55 1.200000 0.392000 0.495000 1300 50 1.000000 2.254000 2.362000 600 59 1.000000 0.053000 0.053000 1.200000 0.042000 0.050000
1517338278109083503	1400 54 1.200000 0.391000 0.493000 1300 50 1.000000 1.924000 2.014000 600 58 1.000000 0.053000 0.053000 1.200000 0.050000 0.060000
1517338278615157086	1400 54 1.200000 0.383000 0.482000 1300 50 1.000000 1.937000 2.028000 600 59 1.000000 0.053000 0.053000 1.200000 0.046000 0.055000
1517338279123072378	1400 55 1.200000 0.377000 0.475000 1300 49 1.000000 1.855000 1.942000 600 59 1.000000 0.053000 0.053000 1.200000 0.045000 0.054000
1517338279651277503	1400 56 1.200000 0.349000 0.440000 1300 50 1.000000 1.694000 1.775000 600 59 1.000000 0.053000 0.053000 1.200000 0.043000 0.051000
1517338280174757587	1400 55 1.200000 0.400000 0.505000 1300 49 1.000000 1.777000 1.860000 600 59 1.000000 0.053000 0.053000 1.200000 0.045000 0.054000
1517338280714465878	1400 54 1.200000 0.349000 0.442000 1300 49 1.000000 1.017000 1.065000 600 58 1.000000 0.053000 0.053000 1.200000 0.043000 0.051000
1517338281262058545	1400 55 1.200000 0.400000 0.504000 1300 49 1.000000 1.849000 1.935000 600 58 1.000000 0.053000 0.053000 1.200000 0.042000 0.050000
1517338281768157378	1400 53 1.200000 0.433000 0.545000 1300 49 1.000000 1.859000 1.946000 600 57 1.000000 0.053000 0.053000 1.200000 0.044000 0.053000
1517338282274228545	1400 52 1.200000 0.382000 0.482000 1300 49 1.000000 2.011000 2.103000 600 58 1.000000 0.053000 0.053000 1.200000 0.048000 0.057000
1517338282784244212	1400 54 1.200000 0.361000 0.455000 1300 49 1.000000 1.991000 2.084000 600 56 1.000000 0.053000 0.053000 1.200000 0.051000 0.061000
1517338283342775295	1400 54 1.200000 0.387000 0.488000 1300 49 1.000000 2.270000 2.378000 600 58 1.000000 0.053000 0.053000 1.200000 0.053000 0.064000
1517338283876784504	1400 55 1.200000 0.459000 0.577000 1300 49 1.000000 2.362000 2.475000 600 59 1.000000 0.053000 0.053000 1.200000 0.051000 0.061000
1517338284393537379	1400 56 1.200000 0.483000 0.607000 1300 49 1.000000 2.261000 2.369000 600 59 1.000000 0.053000 0.053000 1.200000 0.048000 0.057000
1517338284901312796	1400 56 1.200000 0.364000 0.459000 1300 49 1.000000 1.891000 1.979000 600 59 1.000000 0.053000 0.053000 1.200000 0.044000 0.053000
1517338285444295921	1400 55 1.200000 0.365000 0.460000 1300 49 1.000000 1.890000 1.978000 600 59 1.000000 0.053000 0.053000 1.200000 0.042000 0.050000
1517338285951959962	1400 56 1.200000 0.393000 0.495000 1300 49 1.000000 1.914000 2.003000 600 59 1.000000 0.053000 0.053000 1.200000 0.048000 0.057000
1517338286458473212	1400 56 1.200000 0.393000 0.495000 1300 50 1.000000 1.951000 2.040000 600 59 1.000000 0.053000 0.053000 1.200000 0.050000 0.060000
1517338286980625546	1400 56 1.200000 0.474000 0.596000 1300 49 1.000000 2.094000 2.194000 600 59 1.000000 0.053000 0.053000 1.200000 0.048000 0.057000
1517338287486249088	1400 56 1.200000 0.478000 0.605000 1300 50 1.000000 2.082000 2.181000 600 59 1.000000 0.053000 0.053000 1.200000 0.047000 0.056000
1517338288003585463	1400 56 1.200000 0.404000 0.510000 1300 50 1.000000 2.369000 2.482000 600 59 1.000000 0.053000 0.053000 1.200000 0.051000 0.061000
1517338288509541129	1400 56 1.200000 0.362000 0.456000 1300 50 1.000000 2.308000 2.418000 600 59 1.000000 0.053000 0.053000 1.200000 0.050000 0.060000
1517338289015622088	1400 56 1.200000 0.382000 0.482000 1300 50 1.000000 2.305000 2.415000 600 58 1.000000 0.053000 0.053000 1.200000 0.049000 0.059000
1517338289521659588	1400 55 1.200000 0.380000 0.479000 1300 50 1.000000 2.131000 2.237000 600 59 1.000000 0.053000 0.053000 1.200000 0.050000 0.060000
1517338290027757088	1400 54 1.200000 0.485000 0.611000 1300 50 1.000000 2.319000 2.430000 600 58 1.000000 0.053000 0.053000 1.200000 0.049000 0.059000
1517338290533243546	1400 55 1.200000 0.483000 0.607000 1300 49 1.000000 2.281000 2.390000 600 58 1.000000 0.053000 0.053000 1.200000 0.047000 0.056000
1517338291050561796	1400 55 1.200000 0.291000 0.368000 1300 49 1.000000 1.086000 1.138000 600 59 1.000000 0.053000 0.053000 1.200000 0.045000 0.054000
1517338291606349505	1400 55 1.200000 0.386000 0.487000 1300 49 1.000000 1.951000 2.042000 600 59 1.000000 0.053000 0.053000 1.200000 0.045000 0.054000
1517338292111971421	1400 56 1.200000 0.388000 0.489000 1300 50 1.000000 1.897000 1.984000 600 59 1.000000 0.053000 0.053000 1.200000 0.043000 0.051000
1517338292651408463	1400 55 1.200000 0.338000 0.428000 1300 49 1.000000 1.022000 1.071000 600 58 1.000000 0.053000 0.053000 1.200000 0.048000 0.057000
1517338293202952755	1400 56 1.200000 0.398000 0.502000 1300 49 1.000000 1.832000 1.918000 600 58 1.000000 0.053000 0.053000 1.200000 0.041000 0.049000
1517338293709162838	1400 56 1.200000 0.393000 0.495000 1300 49 1.000000 2.312000 2.422000 600 58 1.000000 0.053000 0.053000 1.200000 0.047000 0.056000
1517338294215171838	1400 56 1.200000 0.493000 0.620000 1300 49 1.000000 1.938000 2.027000 600 59 1.000000 0.053000 0.053000 1.200000 0.046000 0.055000
1517338294720610672	1400 48 1.200000 0.411000 0.518000 1300 47 1.000000 0.491000 0.513000 600 52 1.000000 0.053000 0.053000 1.200000 0.043000 0.051000
1517338295225793297	1400 46 1.200000 0.085000 0.108000 1300 45 1.000000 0.171000 0.179000 600 49 1.000000 0.053000 0.053000 1.200000 0.023000 0.027000
