#Timestamp	CPU(0) Frequency(MHz)	CPU(0) Temperature(C)	A7 Voltage(V)	A7 Current(A)	A7 Power(W)	CPU(4) Frequency(MHz)	CPU(4) Temperature(C)	A15 Voltage(V)	A15 Current(A)	A15 Power(W)	GPU Frequency(MHz)	GPU Temperature(C)	GPU Voltage(V)	GPU Current(A)	GPU Power(W)	RAM Voltage(V)	RAM Current(A)	RAM Power(W)
1517266559946753370	1100 37 1.100000 0.095000 0.107000 700 34 0.900000 0.342000 0.311000 600 40 1.000000 0.050000 0.050000 1.200000 0.043000 0.052000
1517266560506702829	1100 38 1.100000 0.387000 0.433000 700 35 0.900000 1.082000 0.977000 600 41 1.000000 0.051000 0.051000 1.200000 0.023000 0.027000
1517266561070652870	1100 38 1.100000 0.388000 0.434000 700 36 0.900000 1.075000 0.970000 600 42 1.000000 0.051000 0.051000 1.200000 0.027000 0.032000
1517266561634687745	1100 39 1.100000 0.389000 0.436000 700 36 0.900000 1.069000 0.965000 600 42 1.000000 0.051000 0.051000 1.200000 0.031000 0.037000
1517266562202675454	1100 39 1.100000 0.388000 0.434000 700 36 0.900000 1.087000 0.983000 600 42 1.000000 0.051000 0.051000 1.200000 0.024000 0.028000
1517266562766648496	1100 39 1.100000 0.389000 0.436000 700 36 0.900000 1.087000 0.981000 600 42 1.000000 0.051000 0.051000 1.200000 0.023000 0.027000
1517266563326637079	1100 39 1.100000 0.389000 0.436000 700 37 0.900000 1.087000 0.981000 600 42 1.000000 0.051000 0.051000 1.200000 0.023000 0.027000
1517266563894669204	1100 40 1.100000 0.389000 0.436000 700 37 0.900000 1.080000 0.975000 600 43 1.000000 0.051000 0.051000 1.200000 0.032000 0.038000
1517266564454642871	1100 40 1.100000 0.389000 0.436000 700 37 0.900000 1.079000 0.974000 600 43 1.000000 0.051000 0.051000 1.200000 0.026000 0.031000
1517266565018658829	1100 40 1.100000 0.389000 0.436000 700 37 0.900000 1.079000 0.974000 600 43 1.000000 0.051000 0.051000 1.200000 0.024000 0.028000
1517266565582624121	1100 40 1.100000 0.389000 0.436000 700 37 0.900000 1.082000 0.977000 600 43 1.000000 0.051000 0.051000 1.200000 0.024000 0.028000
1517266566142680621	1100 40 1.100000 0.389000 0.436000 700 37 0.900000 1.080000 0.975000 600 43 1.000000 0.051000 0.051000 1.200000 0.026000 0.031000
1517266566706861788	1100 40 1.100000 0.389000 0.436000 700 37 0.900000 1.086000 0.982000 600 43 1.000000 0.051000 0.051000 1.200000 0.024000 0.028000
1517266567258611579	1100 40 1.100000 0.390000 0.437000 700 37 0.900000 1.083000 0.980000 600 43 1.000000 0.051000 0.051000 1.200000 0.028000 0.033000
1517266567830637330	1100 40 1.100000 0.389000 0.436000 700 37 0.900000 1.075000 0.972000 600 43 1.000000 0.051000 0.051000 1.200000 0.029000 0.035000
1517266568386739121	1100 40 1.100000 0.389000 0.436000 700 37 0.900000 1.079000 0.976000 600 43 1.000000 0.051000 0.051000 1.200000 0.024000 0.028000
1517266568954684621	1100 40 1.100000 0.389000 0.436000 700 37 0.900000 1.085000 0.981000 600 43 1.000000 0.051000 0.051000 1.200000 0.025000 0.030000
1517266569514866246	1100 40 1.100000 0.389000 0.436000 700 37 0.900000 1.083000 0.980000 600 43 1.000000 0.051000 0.051000 1.200000 0.024000 0.028000
1517266570074780371	1100 40 1.100000 0.389000 0.436000 700 37 0.900000 1.085000 0.979000 600 43 1.000000 0.051000 0.051000 1.200000 0.029000 0.035000
1517266570638669497	1100 40 1.100000 0.389000 0.436000 700 37 0.900000 1.076000 0.973000 600 43 1.000000 0.051000 0.051000 1.200000 0.035000 0.042000
1517266571202697330	1100 40 1.100000 0.389000 0.436000 700 38 0.900000 1.088000 0.982000 600 43 1.000000 0.051000 0.051000 1.200000 0.024000 0.028000
1517266571766710997	1100 40 1.100000 0.389000 0.436000 700 38 0.900000 1.086000 0.980000 600 43 1.000000 0.051000 0.051000 1.200000 0.024000 0.028000
1517266572322706080	1100 40 1.100000 0.389000 0.436000 700 38 0.900000 1.087000 0.981000 600 44 1.000000 0.051000 0.051000 1.200000 0.024000 0.028000
1517266572878846455	1100 40 1.100000 0.389000 0.436000 700 38 0.900000 1.070000 0.966000 600 43 1.000000 0.051000 0.051000 1.200000 0.029000 0.035000
1517266573430655997	1100 41 1.100000 0.389000 0.436000 700 37 0.900000 1.078000 0.973000 600 43 1.000000 0.051000 0.051000 1.200000 0.027000 0.032000
1517266573986637580	1100 40 1.100000 0.389000 0.436000 700 37 0.900000 1.084000 0.978000 600 43 1.000000 0.051000 0.051000 1.200000 0.027000 0.032000
1517266574546849580	1100 40 1.100000 0.389000 0.436000 700 38 0.900000 1.082000 0.979000 600 43 1.000000 0.051000 0.051000 1.200000 0.024000 0.028000
1517266575106752789	1100 40 1.100000 0.389000 0.436000 700 38 0.900000 1.089000 0.985000 600 44 1.000000 0.051000 0.051000 1.200000 0.027000 0.032000
1517266575662644664	1100 40 1.100000 0.389000 0.436000 700 38 0.900000 1.078000 0.975000 600 44 1.000000 0.051000 0.051000 1.200000 0.024000 0.028000
1517266576226811081	1100 40 1.100000 0.389000 0.436000 700 38 0.900000 1.078000 0.975000 600 43 1.000000 0.051000 0.051000 1.200000 0.027000 0.032000
1517266576794846539	1100 41 1.100000 0.389000 0.436000 700 38 0.900000 1.086000 0.982000 600 44 1.000000 0.051000 0.051000 1.200000 0.027000 0.032000
1517266577354757331	1100 41 1.100000 0.390000 0.437000 700 38 0.900000 1.087000 0.981000 600 44 1.000000 0.051000 0.051000 1.200000 0.028000 0.033000
1517266577910598831	1100 41 1.100000 0.389000 0.436000 700 38 0.900000 1.087000 0.983000 600 44 1.000000 0.051000 0.051000 1.200000 0.024000 0.028000
1517266578462662372	1100 41 1.100000 0.389000 0.436000 700 38 0.900000 1.083000 0.977000 600 44 1.000000 0.051000 0.051000 1.200000 0.024000 0.028000
1517266579030455956	1100 41 1.100000 0.389000 0.436000 700 38 0.900000 1.075000 0.972000 600 44 1.000000 0.051000 0.051000 1.200000 0.026000 0.031000
1517266579590644373	1100 41 1.100000 0.389000 0.436000 700 38 0.900000 1.076000 0.973000 600 44 1.000000 0.051000 0.051000 1.200000 0.027000 0.032000
1517266580150663039	1100 41 1.100000 0.389000 0.436000 700 38 0.900000 1.084000 0.981000 600 44 1.000000 0.051000 0.051000 1.200000 0.023000 0.027000
1517266580718657498	1100 41 1.100000 0.389000 0.436000 700 38 0.900000 1.082000 0.979000 600 44 1.000000 0.051000 0.051000 1.200000 0.023000 0.027000
1517266581286810331	1100 41 1.100000 0.388000 0.434000 700 38 0.900000 1.089000 0.985000 600 44 1.000000 0.051000 0.051000 1.200000 0.024000 0.028000
1517266581842850290	1100 41 1.100000 0.389000 0.436000 700 38 0.900000 1.078000 0.975000 600 44 1.000000 0.051000 0.051000 1.200000 0.029000 0.035000
1517266582402628081	1100 41 1.100000 0.390000 0.437000 700 38 0.900000 1.071000 0.969000 600 44 1.000000 0.051000 0.051000 1.200000 0.027000 0.032000
1517266582966672665	1100 40 1.100000 0.389000 0.436000 700 38 0.900000 1.059000 0.956000 600 44 1.000000 0.051000 0.051000 1.200000 0.024000 0.028000
1517266583526778748	1100 41 1.100000 0.389000 0.436000 700 38 0.900000 1.084000 0.981000 600 44 1.000000 0.051000 0.051000 1.200000 0.024000 0.028000
1517266584082639956	1100 41 1.100000 0.388000 0.434000 700 38 0.900000 1.079000 0.974000 600 44 1.000000 0.051000 0.051000 1.200000 0.023000 0.027000
1517266584650618498	1100 41 1.100000 0.389000 0.436000 700 38 0.900000 1.084000 0.978000 600 44 1.000000 0.051000 0.051000 1.200000 0.023000 0.027000
1517266585214678873	1100 41 1.100000 0.390000 0.437000 700 38 0.900000 1.056000 0.953000 600 44 1.000000 0.051000 0.051000 1.200000 0.027000 0.032000
1517266585786766707	1100 41 1.100000 0.390000 0.437000 700 38 0.900000 1.065000 0.963000 600 44 1.000000 0.051000 0.051000 1.200000 0.026000 0.031000
1517266586330700248	1100 41 1.100000 0.389000 0.436000 700 38 0.900000 1.077000 0.974000 600 44 1.000000 0.051000 0.051000 1.200000 0.024000 0.028000
1517266586902738165	1100 41 1.100000 0.387000 0.433000 700 38 0.900000 1.086000 0.982000 600 44 1.000000 0.051000 0.051000 1.200000 0.024000 0.028000
1517266587454904082	1100 41 1.100000 0.388000 0.434000 700 38 0.900000 1.076000 0.973000 600 44 1.000000 0.051000 0.051000 1.200000 0.024000 0.028000
1517266588010562457	1100 41 1.100000 0.389000 0.436000 700 38 0.900000 1.076000 0.971000 600 44 1.000000 0.051000 0.051000 1.200000 0.031000 0.037000
1517266588566656040	1100 41 1.100000 0.389000 0.436000 700 38 0.900000 1.073000 0.971000 600 44 1.000000 0.051000 0.051000 1.200000 0.025000 0.030000
1517266589130723415	1100 41 1.100000 0.387000 0.433000 700 38 0.900000 1.086000 0.982000 600 44 1.000000 0.051000 0.051000 1.200000 0.023000 0.027000
1517266589694657540	1100 41 1.100000 0.387000 0.433000 700 38 0.900000 1.079000 0.976000 600 44 1.000000 0.051000 0.051000 1.200000 0.023000 0.027000
1517266590254769707	1100 41 1.100000 0.389000 0.436000 700 38 0.900000 1.065000 0.963000 600 44 1.000000 0.051000 0.051000 1.200000 0.024000 0.028000
1517266590806693749	1100 41 1.100000 0.390000 0.437000 700 38 0.900000 1.078000 0.973000 600 44 1.000000 0.051000 0.051000 1.200000 0.027000 0.032000
1517266591370619332	1100 41 1.100000 0.389000 0.436000 700 38 0.900000 1.075000 0.972000 600 44 1.000000 0.051000 0.051000 1.200000 0.031000 0.037000
1517266591930683707	1100 41 1.100000 0.388000 0.434000 700 38 0.900000 1.080000 0.975000 600 44 1.000000 0.051000 0.051000 1.200000 0.026000 0.031000
1517266592494772957	1100 41 1.100000 0.387000 0.433000 700 38 0.900000 1.074000 0.971000 600 44 1.000000 0.051000 0.051000 1.200000 0.024000 0.028000
1517266593066719999	1100 41 1.100000 0.388000 0.434000 700 38 0.900000 1.075000 0.970000 600 44 1.000000 0.051000 0.051000 1.200000 0.023000 0.027000
1517266593626656416	1100 41 1.100000 0.389000 0.436000 700 38 0.900000 1.086000 0.980000 600 44 1.000000 0.051000 0.051000 1.200000 0.023000 0.027000
1517266594186806374	1100 41 1.100000 0.389000 0.436000 700 38 0.900000 1.079000 0.974000 600 44 1.000000 0.051000 0.051000 1.200000 0.028000 0.033000
1517266594738768583	1100 41 1.100000 0.389000 0.436000 700 38 0.900000 1.068000 0.964000 600 44 1.000000 0.052000 0.052000 1.200000 0.028000 0.033000
1517266595290700583	1100 41 1.100000 0.387000 0.433000 700 38 0.900000 1.065000 0.961000 600 44 1.000000 0.051000 0.051000 1.200000 0.023000 0.027000
1517266595854689416	1100 41 1.100000 0.388000 0.434000 700 38 0.900000 1.074000 0.969000 600 44 1.000000 0.051000 0.051000 1.200000 0.024000 0.028000
1517266596414603416	1100 41 1.100000 0.389000 0.436000 700 38 0.900000 1.086000 0.982000 600 44 1.000000 0.051000 0.051000 1.200000 0.024000 0.028000
1517266596970723583	1100 41 1.100000 0.389000 0.436000 700 38 0.900000 1.086000 0.980000 600 44 1.000000 0.051000 0.051000 1.200000 0.026000 0.031000
1517266597534576375	1100 41 1.100000 0.388000 0.434000 700 38 0.900000 1.061000 0.958000 600 44 1.000000 0.051000 0.051000 1.200000 0.028000 0.033000
1517266598098669458	1100 41 1.100000 0.387000 0.433000 700 38 0.900000 1.072000 0.970000 600 44 1.000000 0.051000 0.051000 1.200000 0.023000 0.027000
1517266598658672458	1100 41 1.100000 0.387000 0.433000 700 38 0.900000 1.085000 0.979000 600 44 1.000000 0.051000 0.051000 1.200000 0.023000 0.027000
1517266599214715417	1100 41 1.100000 0.389000 0.436000 700 38 0.900000 1.084000 0.978000 600 44 1.000000 0.051000 0.051000 1.200000 0.028000 0.033000
1517266599770761708	1100 41 1.100000 0.389000 0.436000 700 38 0.900000 1.083000 0.980000 600 44 1.000000 0.051000 0.051000 1.200000 0.024000 0.028000
1517266600330850667	1100 41 1.100000 0.389000 0.436000 700 38 0.900000 1.056000 0.953000 600 44 1.000000 0.051000 0.051000 1.200000 0.030000 0.036000
1517266600894694500	1100 41 1.100000 0.389000 0.436000 700 38 0.900000 1.062000 0.961000 600 44 1.000000 0.051000 0.051000 1.200000 0.025000 0.030000
1517266601454756625	1100 41 1.100000 0.387000 0.433000 700 38 0.900000 1.084000 0.981000 600 44 1.000000 0.051000 0.051000 1.200000 0.025000 0.030000
1517266602018675959	1100 41 1.100000 0.389000 0.436000 700 38 0.900000 1.088000 0.982000 600 44 1.000000 0.051000 0.051000 1.200000 0.023000 0.027000
1517266602574703959	1100 41 1.100000 0.389000 0.436000 700 38 0.900000 1.079000 0.976000 600 44 1.000000 0.051000 0.051000 1.200000 0.023000 0.027000
1517266603146676167	1100 41 1.100000 0.389000 0.436000 700 38 0.900000 1.057000 0.954000 600 44 1.000000 0.051000 0.051000 1.200000 0.029000 0.035000
1517266603702707792	1100 41 1.100000 0.389000 0.436000 700 38 0.900000 1.059000 0.958000 600 44 1.000000 0.051000 0.051000 1.200000 0.033000 0.039000
1517266604262669584	1100 41 1.100000 0.387000 0.433000 700 38 0.900000 1.085000 0.979000 600 44 1.000000 0.051000 0.051000 1.200000 0.023000 0.027000
1517266604826630834	1100 41 1.100000 0.388000 0.434000 700 38 0.900000 1.087000 0.981000 600 44 1.000000 0.051000 0.051000 1.200000 0.023000 0.027000
1517266605386675417	1100 41 1.100000 0.389000 0.436000 700 38 0.900000 1.078000 0.975000 600 44 1.000000 0.051000 0.051000 1.200000 0.023000 0.027000
1517266605950752626	1100 41 1.100000 0.389000 0.436000 700 38 0.900000 1.062000 0.961000 600 44 1.000000 0.051000 0.051000 1.200000 0.032000 0.038000
1517266606514686709	1100 41 1.100000 0.389000 0.436000 700 38 0.900000 1.072000 0.970000 600 44 1.000000 0.051000 0.051000 1.200000 0.030000 0.036000
1517266607074650293	1100 41 1.100000 0.388000 0.434000 700 38 0.900000 1.089000 0.985000 600 44 1.000000 0.051000 0.051000 1.200000 0.026000 0.031000
1517266607618780918	1100 41 1.100000 0.388000 0.434000 700 38 0.900000 1.084000 0.981000 600 44 1.000000 0.051000 0.051000 1.200000 0.024000 0.028000
1517266608170651959	1100 41 1.100000 0.389000 0.436000 700 38 0.900000 1.068000 0.966000 600 44 1.000000 0.051000 0.051000 1.200000 0.027000 0.032000
1517266608734725626	1100 41 1.100000 0.389000 0.436000 700 38 0.900000 1.072000 0.970000 600 44 1.000000 0.051000 0.051000 1.200000 0.024000 0.028000
1517266609302638209	1100 41 1.100000 0.390000 0.437000 700 38 0.900000 1.071000 0.969000 600 44 1.000000 0.051000 0.051000 1.200000 0.025000 0.030000
1517266609866798168	1100 41 1.100000 0.389000 0.436000 700 38 0.900000 1.073000 0.971000 600 44 1.000000 0.051000 0.051000 1.200000 0.028000 0.033000
1517266610426650585	1100 41 1.100000 0.388000 0.434000 700 38 0.900000 1.075000 0.972000 600 44 1.000000 0.051000 0.051000 1.200000 0.024000 0.028000
1517266610978667168	1100 41 1.100000 0.388000 0.435000 700 38 0.900000 1.070000 0.966000 600 44 1.000000 0.051000 0.051000 1.200000 0.024000 0.028000
1517266611542661876	1100 41 1.100000 0.389000 0.436000 700 38 0.900000 1.076000 0.971000 600 44 1.000000 0.051000 0.051000 1.200000 0.024000 0.028000
1517266612102382710	1100 41 1.100000 0.389000 0.436000 700 38 0.900000 1.072000 0.970000 600 44 1.000000 0.051000 0.051000 1.200000 0.026000 0.031000
1517266612658697002	1100 41 1.100000 0.389000 0.436000 700 38 0.900000 1.074000 0.971000 600 44 1.000000 0.051000 0.051000 1.200000 0.034000 0.041000
1517266613210677460	1100 41 1.100000 0.389000 0.436000 700 38 0.900000 1.085000 0.981000 600 44 1.000000 0.051000 0.051000 1.200000 0.024000 0.028000
1517266613782650835	1100 41 1.100000 0.388000 0.434000 700 38 0.900000 1.073000 0.971000 600 44 1.000000 0.051000 0.051000 1.200000 0.024000 0.028000
1517266614350769460	1100 41 1.100000 0.388000 0.434000 700 38 0.900000 1.072000 0.970000 600 44 1.000000 0.051000 0.051000 1.200000 0.024000 0.028000
1517266614910702960	1100 41 1.100000 0.389000 0.436000 700 38 0.900000 1.074000 0.971000 600 44 1.000000 0.051000 0.051000 1.200000 0.027000 0.032000
1517266615482694085	1100 41 1.100000 0.389000 0.436000 700 38 0.900000 1.079000 0.976000 600 44 1.000000 0.051000 0.051000 1.200000 0.027000 0.032000
1517266616042671585	1100 41 1.100000 0.389000 0.436000 700 38 0.900000 1.082000 0.979000 600 44 1.000000 0.051000 0.051000 1.200000 0.026000 0.031000
1517266616602754377	1100 41 1.100000 0.388000 0.434000 700 38 0.900000 1.071000 0.967000 600 44 1.000000 0.051000 0.051000 1.200000 0.024000 0.028000
1517266617162653960	1100 41 1.100000 0.388000 0.435000 700 38 0.900000 1.077000 0.974000 600 44 1.000000 0.051000 0.051000 1.200000 0.028000 0.033000
1517266617722840585	1100 41 1.100000 0.388000 0.434000 700 38 0.900000 1.088000 0.984000 600 44 1.000000 0.051000 0.051000 1.200000 0.024000 0.028000
1517266618282656127	1100 41 1.100000 0.389000 0.436000 700 38 0.900000 1.077000 0.974000 600 44 1.000000 0.051000 0.051000 1.200000 0.026000 0.031000
1517266618842666002	1100 41 1.100000 0.390000 0.437000 700 38 0.900000 1.068000 0.966000 600 44 1.000000 0.051000 0.051000 1.200000 0.029000 0.035000
1517266619406702044	1100 41 1.100000 0.389000 0.436000 700 38 0.900000 1.073000 0.971000 600 44 1.000000 0.051000 0.051000 1.200000 0.029000 0.035000
1517266619954695086	1100 41 1.100000 0.388000 0.434000 700 38 0.900000 1.079000 0.976000 600 44 1.000000 0.051000 0.051000 1.200000 0.023000 0.027000
1517266620502688627	1100 41 1.100000 0.388000 0.434000 700 38 0.900000 1.082000 0.977000 600 44 1.000000 0.051000 0.051000 1.200000 0.023000 0.027000
1517266621058712711	1100 41 1.100000 0.389000 0.436000 700 38 0.900000 1.088000 0.982000 600 44 1.000000 0.051000 0.051000 1.200000 0.028000 0.033000
1517266621626673211	1100 41 1.100000 0.389000 0.436000 700 38 0.900000 1.071000 0.967000 600 44 1.000000 0.051000 0.051000 1.200000 0.030000 0.036000
1517266622182598003	1100 41 1.100000 0.389000 0.436000 700 38 0.900000 1.071000 0.969000 600 44 1.000000 0.051000 0.051000 1.200000 0.024000 0.028000
1517266622742655003	1100 41 1.100000 0.389000 0.436000 700 38 0.900000 1.072000 0.970000 600 44 1.000000 0.051000 0.051000 1.200000 0.024000 0.028000
1517266623306718753	1100 41 1.100000 0.388000 0.434000 700 38 0.900000 1.079000 0.976000 600 44 1.000000 0.051000 0.051000 1.200000 0.024000 0.028000
1517266623882565295	1100 41 1.100000 0.389000 0.436000 700 38 0.900000 1.079000 0.976000 600 44 1.000000 0.051000 0.051000 1.200000 0.026000 0.031000
1517266624438700670	1100 41 1.100000 0.389000 0.436000 700 38 0.900000 1.066000 0.964000 600 44 1.000000 0.051000 0.051000 1.200000 0.027000 0.032000
1517266624998684878	1100 41 1.100000 0.389000 0.436000 700 38 0.900000 1.059000 0.958000 600 44 1.000000 0.051000 0.051000 1.200000 0.024000 0.028000
1517266625562746503	1100 41 1.100000 0.389000 0.436000 700 38 0.900000 1.076000 0.973000 600 44 1.000000 0.051000 0.051000 1.200000 0.025000 0.030000
1517266626110689086	1100 41 1.100000 0.389000 0.436000 700 38 0.900000 1.084000 0.981000 600 44 1.000000 0.051000 0.051000 1.200000 0.024000 0.028000
1517266626670630462	1100 41 1.100000 0.388000 0.434000 700 38 0.900000 1.087000 0.983000 600 44 1.000000 0.051000 0.051000 1.200000 0.024000 0.028000
1517266627230826462	1100 41 1.100000 0.389000 0.436000 700 38 0.900000 1.076000 0.973000 600 44 1.000000 0.051000 0.051000 1.200000 0.028000 0.033000
1517266627802780337	1100 41 1.100000 0.389000 0.436000 700 38 0.900000 1.063000 0.962000 600 44 1.000000 0.051000 0.051000 1.200000 0.026000 0.031000
1517266628358707087	1100 41 1.100000 0.389000 0.436000 700 38 0.900000 1.070000 0.968000 600 44 1.000000 0.051000 0.051000 1.200000 0.024000 0.028000
1517266628918676295	1100 41 1.100000 0.389000 0.436000 700 38 0.900000 1.087000 0.981000 600 44 1.000000 0.051000 0.051000 1.200000 0.023000 0.027000
1517266629478579004	1100 41 1.100000 0.388000 0.434000 700 38 0.900000 1.086000 0.982000 600 44 1.000000 0.051000 0.051000 1.200000 0.023000 0.027000
1517266630038664545	1100 41 1.100000 0.388000 0.434000 700 38 0.900000 1.073000 0.971000 600 44 1.000000 0.051000 0.051000 1.200000 0.030000 0.036000
1517266630598697879	1100 41 1.100000 0.389000 0.436000 700 38 0.900000 1.064000 0.962000 600 44 1.000000 0.051000 0.051000 1.200000 0.027000 0.032000
1517266631166679045	1100 41 1.100000 0.390000 0.437000 700 38 0.900000 1.066000 0.964000 600 44 1.000000 0.051000 0.051000 1.200000 0.024000 0.028000
1517266631734687462	1100 41 1.100000 0.389000 0.436000 700 38 0.900000 1.080000 0.977000 600 44 1.000000 0.051000 0.051000 1.200000 0.023000 0.027000
1517266632294699962	1100 41 1.100000 0.389000 0.436000 700 38 0.900000 1.084000 0.981000 600 44 1.000000 0.051000 0.051000 1.200000 0.027000 0.032000
1517266632846882087	1100 41 1.100000 0.388000 0.435000 700 38 0.900000 1.080000 0.977000 600 44 1.000000 0.051000 0.051000 1.200000 0.024000 0.028000
1517266633410666587	1100 41 1.100000 0.389000 0.436000 700 38 0.900000 1.064000 0.962000 600 44 1.000000 0.051000 0.051000 1.200000 0.027000 0.032000
1517266633958644546	1100 41 1.100000 0.389000 0.436000 700 38 0.900000 1.071000 0.969000 600 44 1.000000 0.051000 0.051000 1.200000 0.025000 0.030000
1517266634518726087	1100 41 1.100000 0.390000 0.437000 700 38 0.900000 1.074000 0.971000 600 44 1.000000 0.051000 0.051000 1.200000 0.028000 0.033000
1517266635078740421	1100 41 1.100000 0.389000 0.436000 700 38 0.900000 1.084000 0.981000 600 44 1.000000 0.051000 0.051000 1.200000 0.023000 0.027000
1517266635638691504	1100 41 1.100000 0.388000 0.434000 700 38 0.900000 1.079000 0.976000 600 44 1.000000 0.051000 0.051000 1.200000 0.023000 0.027000
1517266636198652879	1100 41 1.100000 0.388000 0.434000 700 38 0.900000 1.069000 0.967000 600 44 1.000000 0.051000 0.051000 1.200000 0.027000 0.032000
1517266636762711254	1100 41 1.100000 0.388000 0.434000 700 38 0.900000 1.058000 0.957000 600 44 1.000000 0.051000 0.051000 1.200000 0.035000 0.042000
1517266637326743629	1100 41 1.100000 0.389000 0.436000 700 38 0.900000 1.079000 0.976000 600 44 1.000000 0.051000 0.051000 1.200000 0.024000 0.028000
1517266637886656838	1100 41 1.100000 0.389000 0.436000 700 38 0.900000 1.085000 0.981000 600 44 1.000000 0.051000 0.051000 1.200000 0.023000 0.027000
1517266638438710088	1100 41 1.100000 0.389000 0.436000 700 38 0.900000 1.081000 0.978000 600 44 1.000000 0.051000 0.051000 1.200000 0.023000 0.027000
1517266638990684630	1100 41 1.100000 0.388000 0.434000 700 38 0.900000 1.063000 0.962000 600 44 1.000000 0.052000 0.052000 1.200000 0.029000 0.035000
1517266639554663713	1100 41 1.100000 0.388000 0.434000 700 38 0.900000 1.059000 0.958000 600 44 1.000000 0.051000 0.051000 1.200000 0.029000 0.035000
1517266640122610505	1100 41 1.100000 0.389000 0.436000 700 38 0.900000 1.083000 0.980000 600 44 1.000000 0.051000 0.051000 1.200000 0.023000 0.027000
1517266640674702880	1100 41 1.100000 0.389000 0.436000 700 38 0.900000 1.084000 0.981000 600 44 1.000000 0.051000 0.051000 1.200000 0.023000 0.027000
1517266641234733088	1100 41 1.100000 0.389000 0.436000 700 38 0.900000 1.077000 0.974000 600 44 1.000000 0.051000 0.051000 1.200000 0.028000 0.033000
1517266641786886505	1100 41 1.100000 0.389000 0.436000 700 38 0.900000 1.075000 0.972000 600 44 1.000000 0.051000 0.051000 1.200000 0.024000 0.028000
1517266642354731963	1100 41 1.100000 0.388000 0.434000 700 38 0.900000 1.068000 0.966000 600 44 1.000000 0.051000 0.051000 1.200000 0.026000 0.031000
1517266642911052963	1100 41 1.100000 0.389000 0.436000 700 38 0.900000 1.083000 0.980000 600 44 1.000000 0.051000 0.051000 1.200000 0.023000 0.027000
1517266643474767297	1100 41 1.100000 0.389000 0.436000 700 38 0.900000 1.081000 0.978000 600 44 1.000000 0.051000 0.051000 1.200000 0.023000 0.027000
1517266644038703755	1100 41 1.100000 0.389000 0.436000 700 38 0.900000 1.081000 0.978000 600 44 1.000000 0.051000 0.051000 1.200000 0.023000 0.027000
1517266644590687547	1100 41 1.100000 0.389000 0.436000 700 38 0.900000 1.077000 0.974000 600 44 1.000000 0.051000 0.051000 1.200000 0.023000 0.027000
1517266645150808589	1100 41 1.100000 0.388000 0.434000 700 38 0.900000 1.072000 0.968000 600 44 1.000000 0.051000 0.051000 1.200000 0.029000 0.035000
1517266645714691880	1100 41 1.100000 0.388000 0.434000 700 38 0.900000 1.076000 0.973000 600 44 1.000000 0.051000 0.051000 1.200000 0.026000 0.031000
1517266646278633172	1100 41 1.100000 0.388000 0.434000 700 38 0.900000 1.081000 0.976000 600 44 1.000000 0.051000 0.051000 1.200000 0.023000 0.027000
1517266646842685422	1100 41 1.100000 0.389000 0.436000 700 38 0.900000 1.077000 0.972000 600 44 1.000000 0.051000 0.051000 1.200000 0.023000 0.027000
1517266647400532131	1100 41 1.100000 0.389000 0.436000 700 38 0.900000 1.075000 0.970000 600 44 1.000000 0.051000 0.051000 1.200000 0.024000 0.028000
1517266647966665756	1100 41 1.100000 0.389000 0.436000 700 38 0.900000 1.079000 0.974000 600 44 1.000000 0.051000 0.051000 1.200000 0.026000 0.031000
1517266648530653922	1100 41 1.100000 0.388000 0.434000 700 38 0.900000 1.071000 0.967000 600 44 1.000000 0.051000 0.051000 1.200000 0.028000 0.033000
1517266649086700506	1100 41 1.100000 0.389000 0.436000 700 38 0.900000 1.084000 0.981000 600 44 1.000000 0.051000 0.051000 1.200000 0.026000 0.031000
1517266649646806423	1100 41 1.100000 0.389000 0.436000 700 38 0.900000 1.079000 0.976000 600 44 1.000000 0.051000 0.051000 1.200000 0.024000 0.028000
1517266650206710839	1100 41 1.100000 0.389000 0.436000 700 38 0.900000 1.074000 0.969000 600 44 1.000000 0.052000 0.052000 1.200000 0.028000 0.033000
1517266650774677923	1100 41 1.100000 0.389000 0.436000 700 38 0.900000 1.080000 0.975000 600 44 1.000000 0.051000 0.051000 1.200000 0.024000 0.028000
1517266651342688506	1100 41 1.100000 0.388000 0.434000 700 38 0.900000 1.072000 0.970000 600 44 1.000000 0.051000 0.051000 1.200000 0.029000 0.035000
1517266651906712381	1100 41 1.100000 0.389000 0.436000 700 38 0.900000 1.070000 0.968000 600 44 1.000000 0.051000 0.051000 1.200000 0.027000 0.032000
1517266652470723048	1100 41 1.100000 0.389000 0.436000 700 38 0.900000 1.079000 0.976000 600 44 1.000000 0.051000 0.051000 1.200000 0.024000 0.028000
1517266653038671548	1100 41 1.100000 0.389000 0.436000 700 38 0.900000 1.076000 0.973000 600 44 1.000000 0.051000 0.051000 1.200000 0.024000 0.028000
1517266653590682173	1100 41 1.100000 0.389000 0.436000 700 38 0.900000 1.086000 0.982000 600 44 1.000000 0.051000 0.051000 1.200000 0.023000 0.027000
1517266654162755465	1100 41 1.100000 0.389000 0.436000 700 38 0.900000 1.065000 0.963000 600 44 1.000000 0.051000 0.051000 1.200000 0.024000 0.028000
1517266654730687757	1100 41 1.100000 0.387000 0.433000 700 38 0.900000 1.072000 0.968000 600 44 1.000000 0.051000 0.051000 1.200000 0.031000 0.037000
1517266655294649923	1100 41 1.100000 0.388000 0.434000 700 38 0.900000 1.076000 0.971000 600 44 1.000000 0.051000 0.051000 1.200000 0.026000 0.031000
1517266655850684423	1100 41 1.100000 0.389000 0.436000 700 38 0.900000 1.084000 0.978000 600 44 1.000000 0.051000 0.051000 1.200000 0.023000 0.027000
1517266656406729923	1100 41 1.100000 0.389000 0.436000 700 38 0.900000 1.079000 0.974000 600 44 1.000000 0.051000 0.051000 1.200000 0.024000 0.028000
1517266656970679673	1100 41 1.100000 0.389000 0.436000 700 38 0.900000 1.079000 0.974000 600 44 1.000000 0.051000 0.051000 1.200000 0.024000 0.028000
1517266657538608507	1100 41 1.100000 0.388000 0.434000 700 38 0.900000 1.071000 0.967000 600 44 1.000000 0.051000 0.051000 1.200000 0.028000 0.033000
1517266658098703715	1100 41 1.100000 0.389000 0.436000 700 38 0.900000 1.075000 0.972000 600 44 1.000000 0.051000 0.051000 1.200000 0.027000 0.032000
1517266658650723340	1100 41 1.100000 0.389000 0.436000 700 38 0.900000 1.077000 0.972000 600 44 1.000000 0.051000 0.051000 1.200000 0.023000 0.027000
1517266659214645007	1100 41 1.100000 0.389000 0.436000 700 38 0.900000 1.081000 0.976000 600 44 1.000000 0.051000 0.051000 1.200000 0.024000 0.028000
1517266659770886840	1100 41 1.100000 0.389000 0.436000 700 38 0.900000 1.085000 0.979000 600 44 1.000000 0.051000 0.051000 1.200000 0.023000 0.027000
1517266660330692632	1100 41 1.100000 0.388000 0.434000 700 38 0.900000 1.071000 0.967000 600 44 1.000000 0.051000 0.051000 1.200000 0.027000 0.032000
1517266660894663007	1100 41 1.100000 0.389000 0.436000 700 38 0.900000 1.070000 0.966000 600 44 1.000000 0.051000 0.051000 1.200000 0.033000 0.039000
1517266661454669507	1100 41 1.100000 0.389000 0.436000 700 38 0.900000 1.084000 0.981000 600 44 1.000000 0.051000 0.051000 1.200000 0.024000 0.028000
1517266662010625882	1100 41 1.100000 0.389000 0.436000 700 38 0.900000 1.086000 0.982000 600 44 1.000000 0.051000 0.051000 1.200000 0.023000 0.027000
1517266662566795007	1100 41 1.100000 0.389000 0.436000 700 38 0.900000 1.081000 0.976000 600 44 1.000000 0.051000 0.051000 1.200000 0.023000 0.027000
1517266663130631799	1100 41 1.100000 0.389000 0.436000 700 38 0.900000 1.071000 0.967000 600 44 1.000000 0.051000 0.051000 1.200000 0.028000 0.033000
1517266663690691883	1100 41 1.100000 0.388000 0.434000 700 38 0.900000 1.072000 0.970000 600 44 1.000000 0.051000 0.051000 1.200000 0.029000 0.035000
1517266664254627466	1100 41 1.100000 0.389000 0.436000 700 38 0.900000 1.080000 0.977000 600 44 1.000000 0.051000 0.051000 1.200000 0.025000 0.030000
1517266664822632133	1100 41 1.100000 0.390000 0.437000 700 38 0.900000 1.083000 0.977000 600 44 1.000000 0.051000 0.051000 1.200000 0.023000 0.027000
1517266665382640799	1100 41 1.100000 0.389000 0.436000 700 38 0.900000 1.070000 0.966000 600 44 1.000000 0.051000 0.051000 1.200000 0.029000 0.035000
1517266665942661091	1100 41 1.100000 0.388000 0.434000 700 38 0.900000 1.083000 0.977000 600 44 1.000000 0.051000 0.051000 1.200000 0.025000 0.030000
1517266666502723050	1100 41 1.100000 0.389000 0.436000 700 38 0.900000 1.078000 0.973000 600 44 1.000000 0.051000 0.051000 1.200000 0.028000 0.033000
1517266667074644383	1100 41 1.100000 0.389000 0.436000 700 38 0.900000 1.080000 0.975000 600 44 1.000000 0.051000 0.051000 1.200000 0.029000 0.035000
1517266667638690300	1100 41 1.100000 0.390000 0.437000 700 38 0.900000 1.083000 0.977000 600 44 1.000000 0.051000 0.051000 1.200000 0.029000 0.035000
1517266668202660341	1100 41 1.100000 0.389000 0.436000 700 38 0.900000 1.088000 0.982000 600 44 1.000000 0.051000 0.051000 1.200000 0.024000 0.028000
1517266668762743175	1100 41 1.100000 0.390000 0.437000 700 38 0.900000 1.089000 0.983000 600 44 1.000000 0.051000 0.051000 1.200000 0.023000 0.027000
1517266669334874008	1100 41 1.100000 0.390000 0.437000 700 38 0.900000 1.078000 0.973000 600 44 1.000000 0.051000 0.051000 1.200000 0.029000 0.035000
1517266669894576842	1100 41 1.100000 0.389000 0.436000 700 38 0.900000 1.067000 0.963000 600 44 1.000000 0.051000 0.051000 1.200000 0.030000 0.036000
1517266670458639008	1100 41 1.100000 0.390000 0.437000 700 38 0.900000 1.087000 0.981000 600 44 1.000000 0.051000 0.051000 1.200000 0.023000 0.027000
1517266671022660133	1100 41 1.100000 0.389000 0.436000 700 38 0.900000 1.087000 0.981000 600 44 1.000000 0.051000 0.051000 1.200000 0.024000 0.028000
1517266671578754509	1100 41 1.100000 0.390000 0.437000 700 38 0.900000 1.087000 0.981000 600 44 1.000000 0.051000 0.051000 1.200000 0.024000 0.028000
1517266672154581759	1100 41 1.100000 0.390000 0.437000 700 38 0.900000 1.072000 0.970000 600 44 1.000000 0.052000 0.052000 1.200000 0.031000 0.037000
1517266672718660425	1100 41 1.100000 0.389000 0.436000 700 38 0.900000 1.073000 0.971000 600 44 1.000000 0.051000 0.051000 1.200000 0.029000 0.035000
1517266673270651509	1100 41 1.100000 0.389000 0.436000 700 38 0.900000 1.090000 0.986000 600 44 1.000000 0.051000 0.051000 1.200000 0.023000 0.027000
1517266673833911634	1100 41 1.100000 0.389000 0.436000 700 38 0.900000 1.090000 0.986000 600 44 1.000000 0.051000 0.051000 1.200000 0.023000 0.027000
1517266674394684967	1100 41 1.100000 0.389000 0.436000 700 38 0.900000 1.089000 0.985000 600 44 1.000000 0.051000 0.051000 1.200000 0.023000 0.027000
1517266674954631092	1100 41 1.100000 0.390000 0.437000 700 38 0.900000 1.087000 0.983000 600 44 1.000000 0.051000 0.051000 1.200000 0.024000 0.028000
1517266675514673426	1100 41 1.100000 0.390000 0.437000 700 38 0.900000 1.072000 0.968000 600 44 1.000000 0.051000 0.051000 1.200000 0.029000 0.035000
1517266676078764676	1100 41 1.100000 0.389000 0.436000 700 38 0.900000 1.077000 0.972000 600 44 1.000000 0.051000 0.051000 1.200000 0.027000 0.032000
1517266676630597926	1100 41 1.100000 0.390000 0.437000 700 38 0.900000 1.082000 0.977000 600 44 1.000000 0.051000 0.051000 1.200000 0.024000 0.028000
1517266677202612134	1100 41 1.100000 0.390000 0.437000 700 38 0.900000 1.089000 0.983000 600 44 1.000000 0.051000 0.051000 1.200000 0.023000 0.027000
1517266677754618134	1100 41 1.100000 0.389000 0.436000 700 38 0.900000 1.090000 0.986000 600 44 1.000000 0.051000 0.051000 1.200000 0.023000 0.027000
1517266678318701426	1100 41 1.100000 0.390000 0.437000 700 38 0.900000 1.073000 0.968000 600 44 1.000000 0.051000 0.051000 1.200000 0.031000 0.037000
1517266678882641176	1100 41 1.100000 0.389000 0.436000 700 38 0.900000 1.075000 0.970000 600 44 1.000000 0.052000 0.052000 1.200000 0.026000 0.031000
1517266679438641009	1100 41 1.100000 0.389000 0.436000 700 38 0.900000 1.088000 0.984000 600 44 1.000000 0.051000 0.051000 1.200000 0.023000 0.027000
1517266680002652635	1100 41 1.100000 0.390000 0.437000 700 38 0.900000 1.086000 0.982000 600 44 1.000000 0.051000 0.051000 1.200000 0.023000 0.027000
1517266680566694510	1100 41 1.100000 0.389000 0.436000 700 38 0.900000 1.086000 0.980000 600 44 1.000000 0.051000 0.051000 1.200000 0.024000 0.028000
1517266681130666510	1100 41 1.100000 0.390000 0.437000 700 38 0.900000 1.077000 0.972000 600 44 1.000000 0.051000 0.051000 1.200000 0.028000 0.033000
1517266681702645343	1100 41 1.100000 0.390000 0.437000 700 38 0.900000 1.072000 0.970000 600 44 1.000000 0.051000 0.051000 1.200000 0.029000 0.035000
1517266682254716343	1100 41 1.100000 0.390000 0.437000 700 38 0.900000 1.089000 0.985000 600 44 1.000000 0.051000 0.051000 1.200000 0.023000 0.027000
1517266682810712802	1100 41 1.100000 0.390000 0.437000 700 38 0.900000 1.084000 0.981000 600 44 1.000000 0.051000 0.051000 1.200000 0.027000 0.032000
1517266683378612885	1100 41 1.100000 0.390000 0.437000 700 38 0.900000 1.090000 0.986000 600 44 1.000000 0.051000 0.051000 1.200000 0.023000 0.027000
1517266683930857552	1100 41 1.100000 0.389000 0.436000 700 38 0.900000 1.089000 0.985000 600 44 1.000000 0.051000 0.051000 1.200000 0.024000 0.028000
1517266684490698177	1100 41 1.100000 0.390000 0.437000 700 38 0.900000 1.086000 0.982000 600 44 1.000000 0.051000 0.051000 1.200000 0.025000 0.030000
1517266685050743427	1100 41 1.100000 0.390000 0.437000 700 38 0.900000 1.077000 0.974000 600 44 1.000000 0.051000 0.051000 1.200000 0.028000 0.033000
1517266685614676510	1100 41 1.100000 0.390000 0.437000 700 38 0.900000 1.086000 0.982000 600 44 1.000000 0.051000 0.051000 1.200000 0.024000 0.028000
1517266686174650969	1100 41 1.100000 0.389000 0.436000 700 38 0.900000 1.090000 0.986000 600 44 1.000000 0.051000 0.051000 1.200000 0.023000 0.027000
1517266686742687635	1100 41 1.100000 0.390000 0.437000 700 38 0.900000 1.090000 0.984000 600 44 1.000000 0.051000 0.051000 1.200000 0.024000 0.028000
1517266687294737052	1100 41 1.100000 0.390000 0.437000 700 38 0.900000 1.066000 0.962000 600 44 1.000000 0.052000 0.052000 1.200000 0.034000 0.041000
1517266687858733677	1100 41 1.100000 0.390000 0.437000 700 38 0.900000 1.077000 0.974000 600 44 1.000000 0.051000 0.051000 1.200000 0.025000 0.030000
1517266688426641594	1100 41 1.100000 0.390000 0.437000 700 38 0.900000 1.090000 0.984000 600 44 1.000000 0.051000 0.051000 1.200000 0.024000 0.028000
1517266688986636011	1100 41 1.100000 0.390000 0.437000 700 38 0.900000 1.089000 0.983000 600 44 1.000000 0.051000 0.051000 1.200000 0.023000 0.027000
1517266689546651802	1100 41 1.100000 0.390000 0.437000 700 38 0.900000 1.079000 0.974000 600 44 1.000000 0.051000 0.051000 1.200000 0.024000 0.028000
1517266690106625802	1100 41 1.100000 0.390000 0.437000 700 38 0.900000 1.084000 0.978000 600 44 1.000000 0.052000 0.052000 1.200000 0.024000 0.028000
1517266690666761053	1100 41 1.100000 0.389000 0.436000 700 38 0.900000 1.078000 0.973000 600 44 1.000000 0.051000 0.051000 1.200000 0.027000 0.032000
1517266691230728094	1100 41 1.100000 0.389000 0.436000 700 38 0.900000 1.089000 0.985000 600 44 1.000000 0.051000 0.051000 1.200000 0.024000 0.028000
1517266691798728803	1100 41 1.100000 0.390000 0.437000 700 38 0.900000 1.083000 0.980000 600 44 1.000000 0.051000 0.051000 1.200000 0.027000 0.032000
1517266692358670261	1100 41 1.100000 0.390000 0.437000 700 38 0.900000 1.090000 0.986000 600 44 1.000000 0.051000 0.051000 1.200000 0.024000 0.028000
1517266692922659719	1100 41 1.100000 0.390000 0.437000 700 38 0.900000 1.088000 0.984000 600 44 1.000000 0.051000 0.051000 1.200000 0.023000 0.027000
1517266693478595261	1100 41 1.100000 0.390000 0.437000 700 38 0.900000 1.084000 0.981000 600 44 1.000000 0.051000 0.051000 1.200000 0.025000 0.030000
1517266694030725261	1100 41 1.100000 0.390000 0.437000 700 38 0.900000 1.072000 0.970000 600 44 1.000000 0.051000 0.051000 1.200000 0.029000 0.035000
1517266694594642386	1100 41 1.100000 0.390000 0.437000 700 38 0.900000 1.087000 0.981000 600 44 1.000000 0.051000 0.051000 1.200000 0.024000 0.028000
1517266695150721928	1100 41 1.100000 0.390000 0.437000 700 38 0.900000 1.090000 0.986000 600 44 1.000000 0.051000 0.051000 1.200000 0.024000 0.028000
1517266695686852303	1100 41 1.100000 0.389000 0.436000 700 38 0.900000 1.086000 0.982000 600 44 1.000000 0.051000 0.051000 1.200000 0.023000 0.027000
1517266696250673845	1100 41 1.100000 0.390000 0.437000 700 38 0.900000 1.085000 0.981000 600 44 1.000000 0.051000 0.051000 1.200000 0.036000 0.043000
1517266696818677762	1100 41 1.100000 0.390000 0.437000 700 38 0.900000 1.077000 0.974000 600 44 1.000000 0.051000 0.051000 1.200000 0.028000 0.033000
1517266697382676553	1100 41 1.100000 0.389000 0.436000 700 38 0.900000 1.087000 0.983000 600 44 1.000000 0.051000 0.051000 1.200000 0.024000 0.028000
1517266697950801303	1100 41 1.100000 0.389000 0.436000 700 38 0.900000 1.089000 0.985000 600 44 1.000000 0.051000 0.051000 1.200000 0.024000 0.028000
1517266698514687053	1100 41 1.100000 0.390000 0.437000 700 38 0.900000 1.079000 0.976000 600 44 1.000000 0.051000 0.051000 1.200000 0.029000 0.035000
1517266699078682970	1100 41 1.100000 0.390000 0.437000 700 38 0.900000 1.087000 0.983000 600 44 1.000000 0.051000 0.051000 1.200000 0.023000 0.027000
1517266699642686137	1100 41 1.100000 0.389000 0.436000 700 38 0.900000 1.075000 0.972000 600 44 1.000000 0.051000 0.051000 1.200000 0.026000 0.031000
1517266700206691554	1100 41 1.100000 0.390000 0.437000 700 38 0.900000 1.086000 0.980000 600 44 1.000000 0.051000 0.051000 1.200000 0.024000 0.028000
1517266700766676929	1100 41 1.100000 0.390000 0.437000 700 38 0.900000 1.082000 0.977000 600 44 1.000000 0.051000 0.051000 1.200000 0.024000 0.028000
1517266701326684970	1100 41 1.100000 0.390000 0.437000 700 38 0.900000 1.088000 0.984000 600 44 1.000000 0.051000 0.051000 1.200000 0.024000 0.028000
1517266701874853554	1100 41 1.100000 0.390000 0.437000 700 38 0.900000 1.088000 0.984000 600 44 1.000000 0.051000 0.051000 1.200000 0.024000 0.028000
1517266702446480346	1100 41 1.100000 0.389000 0.436000 700 38 0.900000 1.076000 0.971000 600 44 1.000000 0.051000 0.051000 1.200000 0.028000 0.033000
1517266703010682137	1100 41 1.100000 0.390000 0.437000 700 38 0.900000 1.062000 0.958000 600 44 1.000000 0.051000 0.051000 1.200000 0.031000 0.037000
1517266703574670887	1100 41 1.100000 0.389000 0.436000 700 38 0.900000 1.089000 0.983000 600 44 1.000000 0.051000 0.051000 1.200000 0.024000 0.028000
1517266704138707012	1100 41 1.100000 0.389000 0.436000 700 38 0.900000 1.089000 0.985000 600 44 1.000000 0.051000 0.051000 1.200000 0.023000 0.027000
1517266704702395304	1100 41 1.100000 0.390000 0.437000 700 38 0.900000 1.090000 0.984000 600 44 1.000000 0.051000 0.051000 1.200000 0.023000 0.027000
1517266705254679721	1100 41 1.100000 0.389000 0.436000 700 38 0.900000 1.079000 0.974000 600 44 1.000000 0.051000 0.051000 1.200000 0.029000 0.035000
1517266705822646263	1100 41 1.100000 0.390000 0.437000 700 38 0.900000 1.077000 0.972000 600 44 1.000000 0.051000 0.051000 1.200000 0.027000 0.032000
1517266706378636888	1100 41 1.100000 0.390000 0.437000 700 38 0.900000 1.085000 0.981000 600 44 1.000000 0.051000 0.051000 1.200000 0.023000 0.027000
1517266706938710304	1100 41 1.100000 0.390000 0.437000 700 38 0.900000 1.088000 0.982000 600 44 1.000000 0.051000 0.051000 1.200000 0.024000 0.028000
1517266707510683638	1100 41 1.100000 0.389000 0.436000 700 38 0.900000 1.082000 0.979000 600 44 1.000000 0.051000 0.051000 1.200000 0.025000 0.030000
1517266708070888346	1100 41 1.100000 0.389000 0.436000 700 38 0.900000 1.083000 0.980000 600 44 1.000000 0.051000 0.051000 1.200000 0.026000 0.031000
1517266708634918596	1100 41 1.100000 0.390000 0.437000 700 38 0.900000 1.082000 0.979000 600 44 1.000000 0.051000 0.051000 1.200000 0.028000 0.033000
1517266709186709138	1100 41 1.100000 0.389000 0.436000 700 38 0.900000 1.084000 0.981000 600 44 1.000000 0.052000 0.052000 1.200000 0.025000 0.030000
1517266709746727305	1100 41 1.100000 0.389000 0.436000 700 38 0.900000 1.088000 0.984000 600 44 1.000000 0.052000 0.052000 1.200000 0.023000 0.027000
1517266710310591555	1100 41 1.100000 0.389000 0.436000 700 38 0.900000 1.088000 0.982000 600 44 1.000000 0.051000 0.051000 1.200000 0.024000 0.028000
1517266710878618847	1100 41 1.100000 0.389000 0.436000 700 38 0.900000 1.087000 0.981000 600 44 1.000000 0.051000 0.051000 1.200000 0.024000 0.028000
1517266711450862847	1100 41 1.100000 0.390000 0.437000 700 38 0.900000 1.072000 0.968000 600 44 1.000000 0.051000 0.051000 1.200000 0.027000 0.032000
1517266712006681972	1100 41 1.100000 0.389000 0.436000 700 38 0.900000 1.069000 0.965000 600 44 1.000000 0.051000 0.051000 1.200000 0.028000 0.033000
1517266712570672555	1100 41 1.100000 0.390000 0.437000 700 38 0.900000 1.089000 0.983000 600 44 1.000000 0.051000 0.051000 1.200000 0.023000 0.027000
1517266713134647889	1100 41 1.100000 0.389000 0.436000 700 38 0.900000 1.089000 0.983000 600 44 1.000000 0.051000 0.051000 1.200000 0.023000 0.027000
1517266713686689430	1100 41 1.100000 0.390000 0.437000 700 38 0.900000 1.082000 0.977000 600 44 1.000000 0.051000 0.051000 1.200000 0.027000 0.032000
1517266714238660347	1100 41 1.100000 0.389000 0.436000 700 38 0.900000 1.080000 0.975000 600 44 1.000000 0.051000 0.051000 1.200000 0.027000 0.032000
1517266714810675680	1100 41 1.100000 0.390000 0.437000 700 38 0.900000 1.068000 0.966000 600 44 1.000000 0.051000 0.051000 1.200000 0.029000 0.035000
1517266715370700555	1100 41 1.100000 0.390000 0.437000 700 38 0.900000 1.086000 0.980000 600 44 1.000000 0.051000 0.051000 1.200000 0.024000 0.028000
1517266715934708764	1100 41 1.100000 0.390000 0.437000 700 38 0.900000 1.084000 0.978000 600 44 1.000000 0.051000 0.051000 1.200000 0.028000 0.033000
1517266716494673097	1100 41 1.100000 0.389000 0.436000 700 38 0.900000 1.085000 0.981000 600 44 1.000000 0.051000 0.051000 1.200000 0.025000 0.030000
1517266717062572889	1100 41 1.100000 0.389000 0.436000 700 38 0.900000 1.086000 0.980000 600 44 1.000000 0.051000 0.051000 1.200000 0.025000 0.030000
1517266717614657139	1100 41 1.100000 0.390000 0.437000 700 38 0.900000 1.074000 0.971000 600 44 1.000000 0.051000 0.051000 1.200000 0.028000 0.033000
1517266718174696556	1100 41 1.100000 0.389000 0.436000 700 38 0.900000 1.078000 0.975000 600 44 1.000000 0.051000 0.051000 1.200000 0.028000 0.033000
1517266718742572556	1100 41 1.100000 0.389000 0.436000 700 38 0.900000 1.088000 0.984000 600 44 1.000000 0.051000 0.051000 1.200000 0.023000 0.027000
1517266719306691931	1100 41 1.100000 0.389000 0.436000 700 38 0.900000 1.086000 0.982000 600 44 1.000000 0.051000 0.051000 1.200000 0.023000 0.027000
1517266719862394889	1100 41 1.100000 0.390000 0.437000 700 38 0.900000 1.087000 0.983000 600 44 1.000000 0.051000 0.051000 1.200000 0.023000 0.027000
1517266720418644473	1100 41 1.100000 0.389000 0.436000 700 38 0.900000 1.059000 0.958000 600 44 1.000000 0.051000 0.051000 1.200000 0.035000 0.042000
1517266720970650431	1100 41 1.100000 0.390000 0.437000 700 38 0.900000 1.084000 0.978000 600 44 1.000000 0.051000 0.051000 1.200000 0.027000 0.032000
1517266721530681140	1100 41 1.100000 0.389000 0.436000 700 38 0.900000 1.090000 0.986000 600 44 1.000000 0.051000 0.051000 1.200000 0.023000 0.027000
1517266722090781806	1100 41 1.100000 0.389000 0.436000 700 38 0.900000 1.090000 0.984000 600 44 1.000000 0.051000 0.051000 1.200000 0.023000 0.027000
1517266722654675973	1100 41 1.100000 0.389000 0.436000 700 38 0.900000 1.087000 0.981000 600 44 1.000000 0.051000 0.051000 1.200000 0.024000 0.028000
1517266723222724473	1100 41 1.100000 0.389000 0.436000 700 38 0.900000 1.082000 0.977000 600 44 1.000000 0.051000 0.051000 1.200000 0.028000 0.033000
1517266723778542015	1100 41 1.100000 0.389000 0.436000 700 38 0.900000 1.066000 0.962000 600 44 1.000000 0.051000 0.051000 1.200000 0.029000 0.035000
1517266724342913473	1100 41 1.100000 0.389000 0.436000 700 38 0.900000 1.088000 0.982000 600 44 1.000000 0.051000 0.051000 1.200000 0.023000 0.027000
1517266724906691890	1100 41 1.100000 0.390000 0.437000 700 38 0.900000 1.080000 0.977000 600 44 1.000000 0.051000 0.051000 1.200000 0.025000 0.030000
1517266725474689557	1100 41 1.100000 0.390000 0.437000 700 38 0.900000 1.089000 0.985000 600 44 1.000000 0.051000 0.051000 1.200000 0.023000 0.027000
1517266726034696890	1100 41 1.100000 0.389000 0.436000 700 38 0.900000 1.086000 0.982000 600 44 1.000000 0.051000 0.051000 1.200000 0.024000 0.028000
1517266726602493348	1100 41 1.100000 0.389000 0.436000 700 38 0.900000 1.082000 0.979000 600 44 1.000000 0.051000 0.051000 1.200000 0.025000 0.030000
1517266727166651515	1100 41 1.100000 0.389000 0.436000 700 38 0.900000 1.082000 0.979000 600 44 1.000000 0.051000 0.051000 1.200000 0.024000 0.028000
1517266727734653807	1100 41 1.100000 0.389000 0.436000 700 38 0.900000 1.090000 0.986000 600 44 1.000000 0.051000 0.051000 1.200000 0.023000 0.027000
1517266728298639307	1100 41 1.100000 0.389000 0.436000 700 38 0.900000 1.090000 0.986000 600 44 1.000000 0.051000 0.051000 1.200000 0.023000 0.027000
1517266728862665849	1100 41 1.100000 0.389000 0.436000 700 38 0.900000 1.088000 0.984000 600 44 1.000000 0.051000 0.051000 1.200000 0.023000 0.027000
1517266729426728765	1100 41 1.100000 0.389000 0.436000 700 38 0.900000 1.066000 0.964000 600 44 1.000000 0.051000 0.051000 1.200000 0.031000 0.037000
1517266729990657224	1100 41 1.100000 0.389000 0.436000 700 38 0.900000 1.082000 0.979000 600 44 1.000000 0.051000 0.051000 1.200000 0.029000 0.035000
1517266730554652557	1100 41 1.100000 0.389000 0.436000 700 38 0.900000 1.090000 0.986000 600 44 1.000000 0.051000 0.051000 1.200000 0.024000 0.028000
1517266731122699307	1100 41 1.100000 0.389000 0.436000 700 38 0.900000 1.085000 0.979000 600 44 1.000000 0.051000 0.051000 1.200000 0.024000 0.028000
1517266731682652641	1100 41 1.100000 0.390000 0.437000 700 38 0.900000 1.090000 0.986000 600 44 1.000000 0.051000 0.051000 1.200000 0.026000 0.031000
1517266732246649641	1100 41 1.100000 0.389000 0.436000 700 38 0.900000 1.085000 0.979000 600 44 1.000000 0.051000 0.051000 1.200000 0.024000 0.028000
1517266732806657516	1100 41 1.100000 0.390000 0.437000 700 38 0.900000 1.083000 0.977000 600 44 1.000000 0.051000 0.051000 1.200000 0.031000 0.037000
1517266733370692724	1100 41 1.100000 0.389000 0.436000 700 38 0.900000 1.085000 0.979000 600 44 1.000000 0.051000 0.051000 1.200000 0.028000 0.033000
1517266733934706433	1100 41 1.100000 0.389000 0.436000 700 38 0.900000 1.090000 0.986000 600 44 1.000000 0.051000 0.051000 1.200000 0.023000 0.027000
1517266734498675974	1100 41 1.100000 0.389000 0.436000 700 38 0.900000 1.089000 0.985000 600 44 1.000000 0.051000 0.051000 1.200000 0.023000 0.027000
1517266735054587266	1100 41 1.100000 0.389000 0.436000 700 38 0.900000 1.089000 0.985000 600 44 1.000000 0.051000 0.051000 1.200000 0.023000 0.027000
1517266735614680266	1100 41 1.100000 0.390000 0.437000 700 38 0.900000 1.081000 0.978000 600 44 1.000000 0.051000 0.051000 1.200000 0.028000 0.033000
1517266736178674058	1100 41 1.100000 0.389000 0.436000 700 38 0.900000 1.085000 0.981000 600 44 1.000000 0.051000 0.051000 1.200000 0.031000 0.037000
1517266736742603975	1100 41 1.100000 0.389000 0.436000 700 38 0.900000 1.088000 0.982000 600 44 1.000000 0.051000 0.051000 1.200000 0.024000 0.028000
1517266737306663891	1100 41 1.100000 0.389000 0.436000 700 38 0.900000 1.086000 0.982000 600 44 1.000000 0.051000 0.051000 1.200000 0.024000 0.028000
1517266737882756225	1100 41 1.100000 0.389000 0.436000 700 38 0.900000 1.088000 0.984000 600 44 1.000000 0.051000 0.051000 1.200000 0.023000 0.027000
1517266738446706183	1100 41 1.100000 0.390000 0.437000 700 38 0.900000 1.076000 0.971000 600 44 1.000000 0.051000 0.051000 1.200000 0.029000 0.035000
1517266739006627850	1100 41 1.100000 0.389000 0.436000 700 38 0.900000 1.073000 0.968000 600 44 1.000000 0.051000 0.051000 1.200000 0.028000 0.033000
1517266739570679850	1100 41 1.100000 0.389000 0.436000 700 38 0.900000 1.089000 0.983000 600 44 1.000000 0.051000 0.051000 1.200000 0.024000 0.028000
1517266740122691975	1100 41 1.100000 0.389000 0.436000 700 38 0.900000 1.086000 0.980000 600 44 1.000000 0.051000 0.051000 1.200000 0.027000 0.032000
1517266740686689183	1100 41 1.100000 0.389000 0.436000 700 38 0.900000 1.090000 0.984000 600 44 1.000000 0.051000 0.051000 1.200000 0.024000 0.028000
1517266741242694517	1100 41 1.100000 0.389000 0.436000 700 38 0.900000 1.087000 0.983000 600 44 1.000000 0.051000 0.051000 1.200000 0.024000 0.028000
1517266741786599725	1100 41 1.100000 0.389000 0.436000 700 38 0.900000 1.080000 0.975000 600 44 1.000000 0.051000 0.051000 1.200000 0.030000 0.036000
1517266742346671434	1100 41 1.100000 0.390000 0.437000 700 38 0.900000 1.067000 0.963000 600 44 1.000000 0.051000 0.051000 1.200000 0.025000 0.030000
1517266742902687017	1100 41 1.100000 0.389000 0.436000 700 38 0.900000 1.089000 0.983000 600 44 1.000000 0.051000 0.051000 1.200000 0.023000 0.027000
1517266743454763225	1100 41 1.100000 0.389000 0.436000 700 38 0.900000 1.087000 0.981000 600 44 1.000000 0.051000 0.051000 1.200000 0.023000 0.027000
1517266744010620476	1100 41 1.100000 0.389000 0.436000 700 38 0.900000 1.087000 0.981000 600 44 1.000000 0.051000 0.051000 1.200000 0.024000 0.028000
1517266744566672726	1100 41 1.100000 0.390000 0.437000 700 38 0.900000 1.058000 0.955000 600 44 1.000000 0.051000 0.051000 1.200000 0.032000 0.038000
1517266745110678184	1100 41 1.100000 0.390000 0.437000 700 38 0.900000 1.072000 0.968000 600 44 1.000000 0.051000 0.051000 1.200000 0.029000 0.035000
1517266745674713142	1100 41 1.100000 0.389000 0.436000 700 38 0.900000 1.087000 0.981000 600 44 1.000000 0.051000 0.051000 1.200000 0.024000 0.028000
1517266746235077559	1100 41 1.100000 0.389000 0.436000 700 38 0.900000 1.085000 0.979000 600 44 1.000000 0.051000 0.051000 1.200000 0.024000 0.028000
1517266746798739059	1100 41 1.100000 0.390000 0.437000 700 38 0.900000 1.080000 0.975000 600 44 1.000000 0.051000 0.051000 1.200000 0.027000 0.032000
1517266747354641559	1100 41 1.100000 0.389000 0.436000 700 38 0.900000 1.087000 0.981000 600 44 1.000000 0.051000 0.051000 1.200000 0.024000 0.028000
1517266747914619309	1100 41 1.100000 0.390000 0.437000 700 38 0.900000 1.073000 0.968000 600 44 1.000000 0.051000 0.051000 1.200000 0.029000 0.035000
1517266748474661809	1100 41 1.100000 0.389000 0.436000 700 38 0.900000 1.089000 0.983000 600 44 1.000000 0.051000 0.051000 1.200000 0.023000 0.027000
1517266749034702518	1100 41 1.100000 0.389000 0.436000 700 38 0.900000 1.076000 0.971000 600 44 1.000000 0.051000 0.051000 1.200000 0.027000 0.032000
1517266749594689601	1100 41 1.100000 0.389000 0.436000 700 38 0.900000 1.088000 0.982000 600 44 1.000000 0.051000 0.051000 1.200000 0.023000 0.027000
1517266750154690060	1100 41 1.100000 0.389000 0.436000 700 38 0.900000 1.087000 0.981000 600 44 1.000000 0.051000 0.051000 1.200000 0.024000 0.028000
1517266750714804685	1100 41 1.100000 0.390000 0.437000 700 38 0.900000 1.072000 0.968000 600 44 1.000000 0.051000 0.051000 1.200000 0.030000 0.036000
1517266751266847435	1100 41 1.100000 0.390000 0.437000 700 38 0.900000 1.071000 0.967000 600 44 1.000000 0.051000 0.051000 1.200000 0.032000 0.038000
1517266751826632560	1100 41 1.100000 0.389000 0.436000 700 38 0.900000 1.087000 0.981000 600 44 1.000000 0.051000 0.051000 1.200000 0.023000 0.027000
1517266752394728643	1100 41 1.100000 0.389000 0.436000 700 38 0.900000 1.089000 0.983000 600 44 1.000000 0.051000 0.051000 1.200000 0.023000 0.027000
1517266752958952727	1100 41 1.100000 0.389000 0.436000 700 38 0.900000 1.089000 0.985000 600 44 1.000000 0.051000 0.051000 1.200000 0.023000 0.027000
1517266753514722060	1100 41 1.100000 0.389000 0.436000 700 38 0.900000 1.069000 0.967000 600 44 1.000000 0.051000 0.051000 1.200000 0.030000 0.036000
1517266754078656852	1100 41 1.100000 0.389000 0.436000 700 38 0.900000 1.076000 0.971000 600 44 1.000000 0.051000 0.051000 1.200000 0.027000 0.032000
1517266754642666268	1100 41 1.100000 0.389000 0.436000 700 38 0.900000 1.086000 0.980000 600 44 1.000000 0.051000 0.051000 1.200000 0.023000 0.027000
1517266755206095144	1100 41 1.100000 0.389000 0.436000 700 38 0.900000 1.085000 0.981000 600 44 1.000000 0.051000 0.051000 1.200000 0.024000 0.028000
1517266755766762644	1100 41 1.100000 0.389000 0.436000 700 38 0.900000 1.078000 0.975000 600 44 1.000000 0.051000 0.051000 1.200000 0.027000 0.032000
1517266756334749394	1100 41 1.100000 0.389000 0.436000 700 38 0.900000 1.085000 0.979000 600 44 1.000000 0.051000 0.051000 1.200000 0.025000 0.030000
1517266756898779769	1100 41 1.100000 0.389000 0.436000 700 38 0.900000 1.076000 0.971000 600 44 1.000000 0.052000 0.052000 1.200000 0.027000 0.032000
1517266757458717519	1100 41 1.100000 0.389000 0.436000 700 38 0.900000 1.089000 0.985000 600 44 1.000000 0.051000 0.051000 1.200000 0.023000 0.027000
1517266758022710394	1100 41 1.100000 0.389000 0.436000 700 38 0.900000 1.088000 0.982000 600 44 1.000000 0.051000 0.051000 1.200000 0.023000 0.027000
1517266758586677769	1100 41 1.100000 0.389000 0.436000 700 38 0.900000 1.088000 0.982000 600 44 1.000000 0.051000 0.051000 1.200000 0.023000 0.027000
1517266759150620727	1100 41 1.100000 0.389000 0.436000 700 38 0.900000 1.086000 0.980000 600 44 1.000000 0.051000 0.051000 1.200000 0.024000 0.028000
1517266759714712602	1100 41 1.100000 0.389000 0.436000 700 38 0.900000 1.066000 0.962000 600 44 1.000000 0.051000 0.051000 1.200000 0.030000 0.036000
1517266760278691352	1100 41 1.100000 0.389000 0.436000 700 38 0.900000 1.074000 0.969000 600 44 1.000000 0.051000 0.051000 1.200000 0.031000 0.037000
1517266760842692519	1100 41 1.100000 0.389000 0.436000 700 38 0.900000 1.087000 0.981000 600 44 1.000000 0.051000 0.051000 1.200000 0.023000 0.027000
1517266761398699686	1100 41 1.100000 0.389000 0.436000 700 38 0.900000 1.088000 0.982000 600 44 1.000000 0.051000 0.051000 1.200000 0.023000 0.027000
1517266761966701853	1100 41 1.100000 0.389000 0.436000 700 38 0.900000 1.084000 0.978000 600 44 1.000000 0.051000 0.051000 1.200000 0.027000 0.032000
1517266762522831311	1100 41 1.100000 0.389000 0.436000 700 38 0.900000 1.073000 0.968000 600 44 1.000000 0.051000 0.051000 1.200000 0.028000 0.033000
1517266763082636103	1100 41 1.100000 0.389000 0.436000 700 38 0.900000 1.083000 0.980000 600 44 1.000000 0.051000 0.051000 1.200000 0.026000 0.031000
1517266763650670395	1100 41 1.100000 0.389000 0.436000 700 38 0.900000 1.088000 0.984000 600 44 1.000000 0.051000 0.051000 1.200000 0.023000 0.027000
1517266764214671103	1100 41 1.100000 0.389000 0.436000 700 38 0.900000 1.088000 0.984000 600 44 1.000000 0.051000 0.051000 1.200000 0.026000 0.031000
1517266764778758353	1100 41 1.100000 0.389000 0.436000 700 38 0.900000 1.088000 0.984000 600 44 1.000000 0.051000 0.051000 1.200000 0.024000 0.028000
1517266765346674353	1100 41 1.100000 0.388000 0.434000 700 38 0.900000 1.068000 0.964000 600 44 1.000000 0.051000 0.051000 1.200000 0.027000 0.032000
1517266765914665228	1100 41 1.100000 0.389000 0.436000 700 38 0.900000 1.071000 0.967000 600 44 1.000000 0.051000 0.051000 1.200000 0.030000 0.036000
1517266766470716145	1100 41 1.100000 0.389000 0.436000 700 38 0.900000 1.076000 0.971000 600 44 1.000000 0.051000 0.051000 1.200000 0.029000 0.035000
1517266767046701853	1100 41 1.100000 0.389000 0.436000 700 38 0.900000 1.088000 0.982000 600 44 1.000000 0.051000 0.051000 1.200000 0.023000 0.027000
1517266767602696562	1100 41 1.100000 0.389000 0.436000 700 38 0.900000 1.088000 0.984000 600 44 1.000000 0.051000 0.051000 1.200000 0.024000 0.028000
1517266768170684937	1100 41 1.100000 0.389000 0.436000 700 38 0.900000 1.087000 0.981000 600 44 1.000000 0.051000 0.051000 1.200000 0.024000 0.028000
1517266768734685437	1100 41 1.100000 0.389000 0.436000 700 38 0.900000 1.061000 0.958000 600 44 1.000000 0.051000 0.051000 1.200000 0.034000 0.041000
1517266769286687479	1100 41 1.100000 0.389000 0.436000 700 38 0.900000 1.088000 0.982000 600 44 1.000000 0.051000 0.051000 1.200000 0.023000 0.027000
1517266769850690437	1100 41 1.100000 0.389000 0.436000 700 38 0.900000 1.088000 0.982000 600 44 1.000000 0.051000 0.051000 1.200000 0.024000 0.028000
1517266770418651812	1100 41 1.100000 0.388000 0.434000 700 38 0.900000 1.088000 0.984000 600 44 1.000000 0.051000 0.051000 1.200000 0.023000 0.027000
1517266770978870395	1100 41 1.100000 0.389000 0.436000 700 38 0.900000 1.082000 0.979000 600 44 1.000000 0.051000 0.051000 1.200000 0.026000 0.031000
1517266771538688062	1100 41 1.100000 0.389000 0.436000 700 38 0.900000 1.074000 0.971000 600 44 1.000000 0.051000 0.051000 1.200000 0.027000 0.032000
1517266772102646979	1100 41 1.100000 0.389000 0.436000 700 38 0.900000 1.078000 0.975000 600 44 1.000000 0.051000 0.051000 1.200000 0.026000 0.031000
1517266772670723062	1100 41 1.100000 0.388000 0.434000 700 38 0.900000 1.088000 0.984000 600 44 1.000000 0.051000 0.051000 1.200000 0.025000 0.030000
1517266773230695979	1100 41 1.100000 0.389000 0.436000 700 38 0.900000 1.088000 0.982000 600 44 1.000000 0.051000 0.051000 1.200000 0.030000 0.036000
1517266773786638979	1100 41 1.100000 0.389000 0.436000 700 38 0.900000 1.085000 0.979000 600 44 1.000000 0.051000 0.051000 1.200000 0.024000 0.028000
1517266774342700479	1100 41 1.100000 0.389000 0.436000 700 38 0.900000 1.083000 0.980000 600 44 1.000000 0.051000 0.051000 1.200000 0.025000 0.030000
1517266774906766188	1100 41 1.100000 0.389000 0.436000 700 38 0.900000 1.080000 0.977000 600 44 1.000000 0.051000 0.051000 1.200000 0.029000 0.035000
1517266775470716021	1100 41 1.100000 0.388000 0.434000 700 38 0.900000 1.068000 0.964000 600 44 1.000000 0.051000 0.051000 1.200000 0.031000 0.037000
1517266776034673021	1100 41 1.100000 0.389000 0.436000 700 38 0.900000 1.086000 0.982000 600 44 1.000000 0.051000 0.051000 1.200000 0.024000 0.028000
1517266776594701104	1100 41 1.100000 0.389000 0.436000 700 38 0.900000 1.088000 0.984000 600 44 1.000000 0.051000 0.051000 1.200000 0.025000 0.030000
1517266777158637854	1100 41 1.100000 0.389000 0.436000 700 38 0.900000 1.087000 0.983000 600 44 1.000000 0.051000 0.051000 1.200000 0.024000 0.028000
1517266777730685438	1100 41 1.100000 0.389000 0.436000 700 38 0.900000 1.077000 0.972000 600 44 1.000000 0.051000 0.051000 1.200000 0.030000 0.036000
1517266778278655646	1100 41 1.100000 0.389000 0.436000 700 38 0.900000 1.074000 0.969000 600 44 1.000000 0.051000 0.051000 1.200000 0.025000 0.030000
1517266778838614855	1100 41 1.100000 0.389000 0.436000 700 38 0.900000 1.087000 0.983000 600 44 1.000000 0.051000 0.051000 1.200000 0.024000 0.028000
1517266779395865688	1100 41 1.100000 0.389000 0.436000 700 38 0.900000 1.088000 0.984000 600 44 1.000000 0.051000 0.051000 1.200000 0.024000 0.028000
1517266779934928771	1100 41 1.100000 0.389000 0.436000 700 38 0.900000 1.075000 0.972000 600 44 1.000000 0.051000 0.051000 1.200000 0.025000 0.030000
1517266780490654397	1100 41 1.100000 0.389000 0.436000 700 38 0.900000 1.084000 0.978000 600 44 1.000000 0.051000 0.051000 1.200000 0.030000 0.036000
1517266781054681188	1100 41 1.100000 0.389000 0.436000 700 38 0.900000 1.071000 0.967000 600 44 1.000000 0.051000 0.051000 1.200000 0.028000 0.033000
1517266781614015730	1100 41 1.100000 0.389000 0.436000 700 38 0.900000 1.084000 0.981000 600 44 1.000000 0.051000 0.051000 1.200000 0.024000 0.028000
1517266782174747938	1100 41 1.100000 0.389000 0.436000 700 38 0.900000 1.075000 0.972000 600 44 1.000000 0.051000 0.051000 1.200000 0.029000 0.035000
1517266782742643772	1100 41 1.100000 0.389000 0.436000 700 38 0.900000 1.088000 0.982000 600 44 1.000000 0.051000 0.051000 1.200000 0.023000 0.027000
1517266783306716730	1100 41 1.100000 0.389000 0.436000 700 38 0.900000 1.086000 0.982000 600 44 1.000000 0.051000 0.051000 1.200000 0.024000 0.028000
1517266783850888314	1100 41 1.100000 0.389000 0.436000 700 38 0.900000 1.084000 0.981000 600 44 1.000000 0.051000 0.051000 1.200000 0.026000 0.031000
1517266784410620105	1100 41 1.100000 0.389000 0.436000 700 38 0.900000 1.081000 0.976000 600 44 1.000000 0.051000 0.051000 1.200000 0.029000 0.035000
1517266784974730230	1100 41 1.100000 0.389000 0.436000 700 38 0.900000 1.084000 0.981000 600 44 1.000000 0.051000 0.051000 1.200000 0.024000 0.028000
1517266785546718064	1100 41 1.100000 0.389000 0.436000 700 38 0.900000 1.085000 0.981000 600 44 1.000000 0.051000 0.051000 1.200000 0.025000 0.030000
1517266786110785022	1100 41 1.100000 0.389000 0.436000 700 38 0.900000 1.088000 0.984000 600 44 1.000000 0.051000 0.051000 1.200000 0.024000 0.028000
1517266786678641397	1100 41 1.100000 0.388000 0.434000 700 38 0.900000 1.080000 0.977000 600 44 1.000000 0.051000 0.051000 1.200000 0.031000 0.037000
1517266787234589647	1100 41 1.100000 0.389000 0.436000 700 38 0.900000 1.079000 0.976000 600 44 1.000000 0.051000 0.051000 1.200000 0.027000 0.032000
1517266787798590314	1100 41 1.100000 0.389000 0.436000 700 38 0.900000 1.089000 0.985000 600 44 1.000000 0.051000 0.051000 1.200000 0.023000 0.027000
1517266788358711064	1100 41 1.100000 0.389000 0.436000 700 38 0.900000 1.086000 0.982000 600 44 1.000000 0.051000 0.051000 1.200000 0.024000 0.028000
1517266788922680731	1100 41 1.100000 0.389000 0.436000 700 38 0.900000 1.087000 0.983000 600 44 1.000000 0.051000 0.051000 1.200000 0.023000 0.027000
1517266789482851314	1100 41 1.100000 0.389000 0.436000 700 38 0.900000 1.080000 0.975000 600 44 1.000000 0.051000 0.051000 1.200000 0.026000 0.031000
1517266790046610106	1100 41 1.100000 0.389000 0.436000 700 38 0.900000 1.076000 0.971000 600 44 1.000000 0.051000 0.051000 1.200000 0.029000 0.035000
1517266790610683731	1100 41 1.100000 0.389000 0.436000 700 38 0.900000 1.086000 0.982000 600 44 1.000000 0.051000 0.051000 1.200000 0.024000 0.028000
1517266791174635023	1100 41 1.100000 0.389000 0.436000 700 38 0.900000 1.089000 0.983000 600 44 1.000000 0.051000 0.051000 1.200000 0.023000 0.027000
1517266791730677440	1100 41 1.100000 0.388000 0.434000 700 38 0.900000 1.088000 0.982000 600 44 1.000000 0.051000 0.051000 1.200000 0.023000 0.027000
1517266792246906231	1100 40 1.100000 0.387000 0.433000 700 38 0.900000 1.085000 0.979000 600 44 1.000000 0.051000 0.051000 1.200000 0.026000 0.031000
1517266792756987898	1100 39 1.100000 0.362000 0.405000 700 38 0.900000 0.925000 0.835000 600 44 1.000000 0.051000 0.051000 1.200000 0.028000 0.033000
1517266793266492356	1100 38 1.100000 0.305000 0.342000 700 37 0.900000 0.735000 0.665000 600 43 1.000000 0.051000 0.051000 1.200000 0.023000 0.027000
1517266793776518356	1100 37 1.100000 0.175000 0.197000 700 36 0.900000 0.309000 0.281000 600 41 1.000000 0.051000 0.051000 1.200000 0.023000 0.027000
1517266794286624107	1100 38 1.100000 0.059000 0.067000 700 36 0.900000 0.417000 0.379000 600 40 1.000000 0.051000 0.051000 1.200000 0.030000 0.036000
1517266794796738273	1100 38 1.100000 0.053000 0.060000 700 35 0.900000 0.479000 0.433000 600 40 1.000000 0.051000 0.051000 1.200000 0.037000 0.044000
1517266795306885023	1100 37 1.100000 0.053000 0.060000 700 35 0.900000 0.423000 0.384000 600 39 1.000000 0.051000 0.051000 1.200000 0.032000 0.038000
1517266795817009815	1100 37 1.100000 0.053000 0.060000 700 35 0.900000 0.425000 0.386000 600 39 1.000000 0.051000 0.051000 1.200000 0.033000 0.039000
1517266796326778148	1100 36 1.100000 0.053000 0.060000 700 35 0.900000 0.436000 0.395000 600 39 1.000000 0.051000 0.051000 1.200000 0.034000 0.041000
1517266796836573232	1100 35 1.100000 0.053000 0.060000 700 34 0.900000 0.121000 0.110000 600 38 1.000000 0.051000 0.051000 1.200000 0.026000 0.031000
