#Timestamp	CPU(0) Frequency(MHz)	CPU(0) Temperature(C)	A7 Voltage(V)	A7 Current(A)	A7 Power(W)	CPU(4) Frequency(MHz)	CPU(4) Temperature(C)	A15 Voltage(V)	A15 Current(A)	A15 Power(W)	GPU Frequency(MHz)	GPU Temperature(C)	GPU Voltage(V)	GPU Current(A)	GPU Power(W)	RAM Voltage(V)	RAM Current(A)	RAM Power(W)
1517281444169092686	1000 31 1.100000 0.049000 0.054000 1600 28 1.100000 1.169000 1.323000 600 35 1.000000 0.051000 0.051000 1.200000 0.050000 0.060000
1517281444674932020	1000 32 1.100000 0.045000 0.049000 1600 29 1.100000 1.242000 1.407000 600 36 1.000000 0.051000 0.051000 1.200000 0.052000 0.062000
1517281445180756436	1000 33 1.100000 0.045000 0.049000 1600 29 1.100000 1.248000 1.412000 600 37 1.000000 0.051000 0.051000 1.200000 0.053000 0.064000
1517281445686476728	1000 33 1.100000 0.045000 0.049000 1600 30 1.100000 1.263000 1.430000 600 37 1.000000 0.051000 0.051000 1.200000 0.053000 0.064000
1517281446192374311	1000 33 1.100000 0.046000 0.050000 1600 30 1.100000 1.258000 1.425000 600 37 1.000000 0.051000 0.051000 1.200000 0.053000 0.064000
1517281446698146645	1000 33 1.100000 0.046000 0.050000 1600 30 1.100000 1.250000 1.415000 600 38 1.000000 0.051000 0.051000 1.200000 0.053000 0.064000
1517281447203963228	1000 34 1.100000 0.046000 0.050000 1600 30 1.100000 1.257000 1.422000 600 38 1.000000 0.051000 0.051000 1.200000 0.053000 0.064000
1517281447709940103	1000 34 1.100000 0.046000 0.050000 1600 31 1.100000 1.243000 1.407000 600 38 1.000000 0.051000 0.051000 1.200000 0.053000 0.064000
1517281448223707187	1000 40 1.000000 0.311000 0.337000 1600 33 1.100000 2.561000 2.914000 600 43 1.000000 0.052000 0.052000 1.200000 0.114000 0.138000
1517281448730489645	1000 35 1.000000 0.255000 0.277000 1600 33 1.100000 2.125000 2.416000 600 39 1.000000 0.051000 0.051000 1.200000 0.267000 0.327000
1517281449235769687	1000 34 1.000000 0.121000 0.132000 1600 32 1.100000 0.335000 0.377000 600 37 1.000000 0.052000 0.052000 1.200000 0.073000 0.088000
1517281449785224479	1000 42 1.000000 0.338000 0.366000 1600 34 1.100000 2.318000 2.637000 600 46 1.000000 0.052000 0.052000 1.200000 0.191000 0.232000
1517281450325269812	1000 44 1.000000 0.339000 0.367000 1600 36 1.100000 2.818000 3.215000 600 48 1.000000 0.052000 0.052000 1.200000 0.234000 0.284000
1517281450881354354	1000 45 1.000000 0.339000 0.367000 1600 37 1.100000 2.825000 3.223000 600 50 1.000000 0.052000 0.052000 1.200000 0.230000 0.279000
1517281451445231520	1000 47 1.000000 0.341000 0.369000 1600 38 1.100000 2.882000 3.288000 600 52 1.000000 0.052000 0.052000 1.200000 0.218000 0.265000
1517281452005205646	1000 47 1.000000 0.340000 0.368000 1600 39 1.100000 2.853000 3.255000 600 53 1.000000 0.053000 0.053000 1.200000 0.214000 0.260000
1517281452561024146	1000 49 1.000000 0.348000 0.377000 1600 39 1.100000 2.902000 3.311000 600 54 1.000000 0.053000 0.053000 1.200000 0.215000 0.261000
1517281453117246062	1000 49 1.000000 0.344000 0.373000 1600 40 1.100000 2.995000 3.417000 600 55 1.000000 0.053000 0.053000 1.200000 0.206000 0.250000
1517281453685148354	1000 50 1.000000 0.359000 0.388000 1600 40 1.100000 3.078000 3.515000 600 55 1.000000 0.052000 0.052000 1.200000 0.187000 0.227000
1517281454245113604	1000 50 1.000000 0.353000 0.382000 1600 41 1.100000 3.036000 3.464000 600 56 1.000000 0.053000 0.053000 1.200000 0.199000 0.241000
1517281454797049271	1000 51 1.000000 0.348000 0.377000 1600 41 1.100000 3.180000 3.631000 600 56 1.000000 0.053000 0.053000 1.200000 0.192000 0.233000
1517281455345001563	1000 51 1.000000 0.358000 0.387000 1600 42 1.100000 3.171000 3.621000 600 57 1.000000 0.053000 0.053000 1.200000 0.178000 0.216000
1517281455876898188	1000 52 1.000000 0.371000 0.401000 1600 42 1.100000 3.203000 3.657000 600 58 1.000000 0.053000 0.053000 1.200000 0.173000 0.210000
1517281456383319729	1000 51 1.000000 0.161000 0.176000 1600 41 1.100000 3.315000 3.789000 600 57 1.000000 0.053000 0.053000 1.200000 0.103000 0.124000
1517281456889005396	1000 50 1.100000 0.056000 0.061000 1600 41 1.100000 1.960000 2.228000 600 49 1.000000 0.053000 0.053000 1.200000 0.049000 0.059000
1517281457394555813	1000 48 1.100000 0.049000 0.053000 1600 40 1.100000 1.462000 1.656000 600 46 1.000000 0.053000 0.053000 1.200000 0.032000 0.038000
1517281457953034146	1000 48 1.000000 0.164000 0.179000 1600 40 1.100000 2.768000 3.158000 600 53 1.000000 0.053000 0.053000 1.200000 0.196000 0.238000
1517281458508886480	1000 51 1.000000 0.351000 0.380000 1600 41 1.100000 3.203000 3.657000 600 56 1.000000 0.053000 0.053000 1.200000 0.177000 0.215000
1517281459061015688	1000 51 1.000000 0.349000 0.378000 1600 41 1.100000 3.171000 3.621000 600 56 1.000000 0.053000 0.053000 1.200000 0.164000 0.199000
1517281459580992730	1000 51 1.000000 0.341000 0.369000 1600 42 1.100000 3.081000 3.518000 600 57 1.000000 0.053000 0.053000 1.200000 0.179000 0.217000
1517281460141001105	1000 52 1.000000 0.367000 0.397000 1600 42 1.100000 3.126000 3.569000 600 58 1.000000 0.053000 0.053000 1.200000 0.181000 0.219000
1517281460689028938	1000 52 1.000000 0.355000 0.384000 1600 43 1.100000 3.286000 3.752000 600 59 1.000000 0.053000 0.053000 1.200000 0.160000 0.194000
1517281461252965022	1000 53 1.000000 0.358000 0.388000 1600 43 1.100000 3.228000 3.686000 600 59 1.000000 0.053000 0.053000 1.200000 0.153000 0.185000
1517281461812938730	1000 54 1.000000 0.361000 0.390000 1600 43 1.100000 3.200000 3.654000 600 59 1.000000 0.053000 0.053000 1.200000 0.168000 0.204000
1517281462372987855	1000 53 1.000000 0.363000 0.393000 1600 44 1.100000 3.337000 3.814000 600 60 1.000000 0.053000 0.053000 1.200000 0.140000 0.170000
1517281462925004063	1000 54 1.000000 0.364000 0.394000 1600 44 1.100000 3.255000 3.717000 600 59 1.000000 0.053000 0.053000 1.200000 0.159000 0.193000
1517281463469013397	1000 54 1.000000 0.361000 0.390000 1600 44 1.100000 3.292000 3.759000 600 60 1.000000 0.053000 0.053000 1.200000 0.142000 0.172000
1517281464028986814	1000 53 1.000000 0.362000 0.392000 1600 44 1.100000 3.158000 3.606000 600 60 1.000000 0.053000 0.053000 1.200000 0.149000 0.181000
1517281464592987730	1000 54 1.000000 0.360000 0.390000 1600 44 1.100000 2.966000 3.384000 600 60 1.000000 0.053000 0.053000 1.200000 0.188000 0.228000
1517281465149062230	1000 55 1.000000 0.357000 0.386000 1600 44 1.100000 3.334000 3.807000 600 60 1.000000 0.053000 0.053000 1.200000 0.141000 0.171000
1517281465712937814	1000 55 1.000000 0.370000 0.400000 1600 45 1.100000 3.258000 3.720000 600 59 1.000000 0.053000 0.053000 1.200000 0.153000 0.185000
1517281466257159856	1000 55 1.000000 0.372000 0.403000 1600 45 1.100000 3.376000 3.855000 600 61 1.000000 0.054000 0.054000 1.200000 0.127000 0.154000
1517281466820986356	1000 56 1.000000 0.368000 0.399000 1600 45 1.100000 3.335000 3.811000 600 61 1.000000 0.053000 0.053000 1.200000 0.145000 0.176000
1517281467385013939	1000 56 1.000000 0.373000 0.403000 1600 45 1.100000 3.460000 3.954000 600 62 1.000000 0.053000 0.053000 1.200000 0.131000 0.158000
1517281467941016772	1000 54 1.000000 0.383000 0.414000 1600 45 1.100000 3.271000 3.738000 600 62 1.000000 0.053000 0.053000 1.200000 0.143000 0.173000
1517281468500903981	1000 55 1.000000 0.376000 0.407000 1600 45 1.100000 3.176000 3.626000 600 60 1.000000 0.053000 0.053000 1.200000 0.164000 0.199000
1517281469044775773	1000 56 1.000000 0.379000 0.410000 1600 45 1.100000 3.330000 3.806000 600 61 1.000000 0.053000 0.053000 1.200000 0.141000 0.171000
1517281469605103314	1000 56 1.000000 0.368000 0.398000 1600 45 1.100000 3.288000 3.754000 600 61 1.000000 0.053000 0.053000 1.200000 0.135000 0.164000
1517281470152942231	1000 56 1.000000 0.387000 0.419000 1600 45 1.100000 3.267000 3.730000 600 62 1.000000 0.053000 0.053000 1.200000 0.144000 0.174000
1517281470701039939	1000 55 1.000000 0.387000 0.419000 1600 45 1.100000 3.299000 3.770000 600 62 1.000000 0.053000 0.053000 1.200000 0.151000 0.183000
1517281471260927398	1000 55 1.000000 0.385000 0.416000 1600 45 1.100000 3.374000 3.856000 600 63 1.000000 0.054000 0.054000 1.200000 0.117000 0.141000
1517281471812828856	1000 56 1.000000 0.387000 0.419000 1600 46 1.100000 3.379000 3.862000 600 61 1.000000 0.054000 0.054000 1.200000 0.096000 0.116000
1517281472364847898	1000 56 1.000000 0.394000 0.426000 1600 46 1.100000 3.328000 3.803000 600 61 1.000000 0.053000 0.053000 1.200000 0.122000 0.147000
1517281472921192023	1000 56 1.000000 0.389000 0.422000 1600 46 1.100000 3.228000 3.686000 600 61 1.000000 0.053000 0.053000 1.200000 0.166000 0.201000
1517281473477363398	1000 56 1.000000 0.376000 0.407000 1600 46 1.100000 3.206000 3.661000 600 61 1.000000 0.053000 0.053000 1.200000 0.136000 0.164000
1517281474037019440	1000 57 1.000000 0.388000 0.420000 1600 46 1.100000 3.224000 3.681000 600 61 1.000000 0.053000 0.053000 1.200000 0.158000 0.191000
1517281474580923940	1000 57 1.000000 0.390000 0.422000 1600 46 1.100000 3.244000 3.704000 600 60 1.000000 0.054000 0.054000 1.200000 0.134000 0.162000
1517281475137076940	1000 55 1.000000 0.398000 0.431000 1600 46 1.100000 3.161000 3.609000 600 61 1.000000 0.054000 0.054000 1.200000 0.147000 0.178000
1517281475697046482	1000 56 1.000000 0.401000 0.434000 1600 46 1.100000 3.287000 3.757000 600 62 1.000000 0.053000 0.053000 1.200000 0.135000 0.163000
1517281476260966440	1000 56 1.000000 0.402000 0.435000 1600 46 1.100000 3.296000 3.767000 600 62 1.000000 0.054000 0.054000 1.200000 0.135000 0.163000
1517281476812984982	1000 56 1.000000 0.381000 0.412000 1600 46 1.100000 3.206000 3.661000 600 63 1.000000 0.054000 0.054000 1.200000 0.161000 0.195000
1517281477369051565	1000 56 1.000000 0.388000 0.420000 1600 46 1.100000 3.335000 3.811000 600 63 1.000000 0.054000 0.054000 1.200000 0.132000 0.159000
1517281477925024440	1000 57 1.000000 0.393000 0.425000 1600 46 1.100000 3.319000 3.790000 600 63 1.000000 0.054000 0.054000 1.200000 0.138000 0.167000
1517281478488782565	1000 56 1.000000 0.400000 0.433000 1600 46 1.100000 3.411000 3.898000 600 63 1.000000 0.054000 0.054000 1.200000 0.114000 0.138000
1517281479048945607	1000 56 1.000000 0.396000 0.428000 1600 46 1.100000 3.372000 3.854000 600 63 1.000000 0.054000 0.054000 1.200000 0.117000 0.141000
1517281479604916690	1000 57 1.000000 0.391000 0.423000 1600 46 1.100000 3.480000 3.977000 600 64 1.000000 0.054000 0.054000 1.200000 0.114000 0.138000
1517281480168834899	1000 57 1.000000 0.393000 0.425000 1600 47 1.100000 3.469000 3.965000 600 64 1.000000 0.054000 0.054000 1.200000 0.110000 0.133000
1517281480724921232	1000 57 1.000000 0.403000 0.436000 1600 47 1.100000 3.506000 4.014000 600 64 1.000000 0.054000 0.054000 1.200000 0.099000 0.119000
1517281481280889857	1000 57 1.000000 0.405000 0.438000 1600 47 1.100000 3.479000 3.976000 600 64 1.000000 0.054000 0.054000 1.200000 0.096000 0.116000
1517281481845023691	1000 57 1.000000 0.401000 0.434000 1600 47 1.100000 3.335000 3.811000 600 62 1.000000 0.054000 0.054000 1.200000 0.117000 0.141000
1517281482400821066	1000 57 1.000000 0.409000 0.442000 1600 47 1.100000 3.268000 3.732000 600 63 1.000000 0.054000 0.054000 1.200000 0.135000 0.163000
1517281482960957108	1000 57 1.000000 0.382000 0.413000 1600 47 1.100000 3.445000 3.937000 600 63 1.000000 0.054000 0.054000 1.200000 0.129000 0.156000
1517281483525029649	1000 57 1.000000 0.391000 0.423000 1600 47 1.100000 3.445000 3.937000 600 63 1.000000 0.054000 0.054000 1.200000 0.120000 0.145000
1517281484080895066	1000 58 1.000000 0.379000 0.410000 1600 47 1.100000 3.303000 3.772000 600 63 1.000000 0.054000 0.054000 1.200000 0.145000 0.175000
1517281484637016524	1000 57 1.000000 0.376000 0.407000 1600 47 1.100000 3.374000 3.856000 600 63 1.000000 0.054000 0.054000 1.200000 0.129000 0.156000
1517281485196935316	1000 58 1.000000 0.387000 0.419000 1600 47 1.100000 3.345000 3.823000 600 64 1.000000 0.054000 0.054000 1.200000 0.132000 0.160000
1517281485760911900	1000 57 1.000000 0.386000 0.418000 1600 47 1.100000 3.425000 3.914000 600 64 1.000000 0.054000 0.054000 1.200000 0.122000 0.147000
1517281486320937233	1000 58 1.000000 0.391000 0.423000 1600 47 1.100000 3.426000 3.915000 600 64 1.000000 0.054000 0.054000 1.200000 0.117000 0.141000
1517281486880846108	1000 58 1.000000 0.391000 0.423000 1600 47 1.100000 3.498000 3.998000 600 64 1.000000 0.054000 0.054000 1.200000 0.117000 0.141000
1517281487440859316	1000 58 1.000000 0.371000 0.402000 1600 47 1.100000 3.520000 4.030000 600 64 1.000000 0.054000 0.054000 1.200000 0.115000 0.139000
1517281487997007316	1000 58 1.000000 0.386000 0.418000 1600 47 1.100000 3.529000 4.040000 600 65 1.000000 0.054000 0.054000 1.200000 0.111000 0.134000
1517281488564922900	1000 58 1.000000 0.376000 0.407000 1600 47 1.100000 3.546000 4.060000 600 65 1.000000 0.054000 0.054000 1.200000 0.102000 0.123000
1517281489128955275	1000 58 1.000000 0.388000 0.420000 1600 47 1.100000 3.585000 4.104000 600 65 1.000000 0.054000 0.054000 1.200000 0.095000 0.115000
1517281489680900858	1000 58 1.000000 0.397000 0.429000 1600 48 1.100000 3.554000 4.062000 600 65 1.000000 0.054000 0.054000 1.200000 0.095000 0.115000
1517281490248963067	1000 58 1.000000 0.392000 0.424000 1600 48 1.100000 3.449000 3.942000 600 63 1.000000 0.054000 0.054000 1.200000 0.111000 0.134000
1517281490804920108	1000 58 1.000000 0.404000 0.437000 1600 48 1.100000 3.254000 3.716000 600 64 1.000000 0.054000 0.054000 1.200000 0.142000 0.172000
1517281491361219942	1000 58 1.000000 0.402000 0.435000 1600 48 1.100000 3.436000 3.927000 600 63 1.000000 0.054000 0.054000 1.200000 0.116000 0.140000
1517281491929217567	1000 58 1.000000 0.403000 0.436000 1600 48 1.100000 3.364000 3.845000 600 64 1.000000 0.054000 0.054000 1.200000 0.118000 0.143000
1517281492492846484	1000 59 1.000000 0.404000 0.437000 1600 48 1.100000 3.404000 3.890000 600 63 1.000000 0.054000 0.054000 1.200000 0.118000 0.143000
1517281493049043359	1000 59 1.000000 0.381000 0.412000 1600 48 1.100000 3.425000 3.914000 600 64 1.000000 0.054000 0.054000 1.200000 0.126000 0.152000
1517281493620782734	1000 59 1.000000 0.393000 0.425000 1600 48 1.100000 3.503000 4.003000 600 64 1.000000 0.054000 0.054000 1.200000 0.106000 0.128000
1517281494176988276	1000 59 1.000000 0.385000 0.416000 1600 48 1.100000 3.561000 4.077000 600 63 1.000000 0.054000 0.054000 1.200000 0.107000 0.129000
1517281494736832067	1000 59 1.000000 0.394000 0.426000 1600 48 1.100000 3.432000 3.922000 600 64 1.000000 0.054000 0.054000 1.200000 0.111000 0.134000
1517281495284959317	1000 57 1.000000 0.387000 0.419000 1600 48 1.100000 3.465000 3.960000 600 64 1.000000 0.054000 0.054000 1.200000 0.118000 0.143000
1517281495845022401	1000 58 1.000000 0.377000 0.408000 1600 48 1.100000 3.330000 3.806000 600 65 1.000000 0.054000 0.054000 1.200000 0.127000 0.153000
1517281496405093817	1000 58 1.000000 0.388000 0.420000 1600 48 1.100000 3.319000 3.793000 600 65 1.000000 0.054000 0.054000 1.200000 0.123000 0.149000
1517281496969051276	1000 58 1.000000 0.377000 0.408000 1600 48 1.100000 3.521000 4.031000 600 65 1.000000 0.054000 0.054000 1.200000 0.113000 0.136000
1517281497504879193	1000 58 1.000000 0.390000 0.422000 1600 48 1.100000 3.518000 4.028000 600 65 1.000000 0.054000 0.054000 1.200000 0.100000 0.121000
1517281498060920609	1000 58 1.000000 0.389000 0.421000 1600 48 1.100000 3.512000 4.021000 600 65 1.000000 0.054000 0.054000 1.200000 0.108000 0.130000
1517281498624890818	1000 59 1.000000 0.399000 0.432000 1600 48 1.100000 3.532000 4.044000 600 66 1.000000 0.054000 0.054000 1.200000 0.102000 0.123000
1517281499180932234	1000 59 1.000000 0.396000 0.428000 1600 48 1.100000 3.558000 4.073000 600 66 1.000000 0.054000 0.054000 1.200000 0.092000 0.111000
1517281499736920360	1000 59 1.000000 0.395000 0.427000 1600 48 1.100000 3.458000 3.952000 600 66 1.000000 0.055000 0.055000 1.200000 0.118000 0.143000
1517281500288912235	1000 59 1.000000 0.387000 0.419000 1600 48 1.100000 3.404000 3.890000 600 65 1.000000 0.054000 0.054000 1.200000 0.139000 0.168000
1517281500840947151	1000 59 1.000000 0.387000 0.419000 1600 48 1.100000 3.456000 3.950000 600 65 1.000000 0.054000 0.054000 1.200000 0.109000 0.132000
1517281501388790068	1000 59 1.000000 0.388000 0.420000 1600 48 1.100000 3.450000 3.943000 600 66 1.000000 0.054000 0.054000 1.200000 0.113000 0.137000
1517281501944912318	1000 59 1.000000 0.405000 0.438000 1600 48 1.100000 3.549000 4.056000 600 66 1.000000 0.054000 0.054000 1.200000 0.096000 0.116000
1517281502508857402	1000 59 1.000000 0.398000 0.431000 1600 48 1.100000 3.578000 4.096000 600 66 1.000000 0.054000 0.054000 1.200000 0.092000 0.111000
1517281503064930068	1000 59 1.000000 0.395000 0.427000 1600 48 1.100000 3.534000 4.046000 600 66 1.000000 0.054000 0.054000 1.200000 0.096000 0.116000
1517281503624873902	1000 60 1.000000 0.398000 0.431000 1600 48 1.100000 3.551000 4.065000 600 66 1.000000 0.054000 0.054000 1.200000 0.101000 0.122000
1517281504184834985	1000 60 1.000000 0.406000 0.439000 1600 49 1.100000 3.589000 4.102000 600 66 1.000000 0.054000 0.054000 1.200000 0.086000 0.104000
1517281504741015818	1000 59 1.000000 0.407000 0.440000 1600 49 1.100000 3.586000 4.105000 600 66 1.000000 0.054000 0.054000 1.200000 0.075000 0.090000
1517281505297053152	1000 59 1.000000 0.401000 0.434000 1600 48 1.100000 3.453000 3.946000 600 66 1.000000 0.054000 0.054000 1.200000 0.108000 0.130000
1517281505853089902	1000 59 1.000000 0.397000 0.429000 1600 48 1.100000 3.254000 3.719000 600 65 1.000000 0.055000 0.055000 1.200000 0.140000 0.169000
1517281506416962985	1000 59 1.000000 0.391000 0.423000 1600 48 1.100000 3.409000 3.896000 600 65 1.000000 0.054000 0.054000 1.200000 0.126000 0.152000
1517281506964930735	1000 59 1.000000 0.408000 0.441000 1600 49 1.100000 3.533000 4.038000 600 65 1.000000 0.054000 0.054000 1.200000 0.093000 0.112000
1517281507508961152	1000 59 1.000000 0.411000 0.445000 1600 49 1.100000 3.565000 4.081000 600 65 1.000000 0.054000 0.054000 1.200000 0.093000 0.112000
1517281508069042402	1000 60 1.000000 0.407000 0.440000 1600 49 1.100000 3.551000 4.065000 600 66 1.000000 0.054000 0.054000 1.200000 0.089000 0.107000
1517281508621024277	1000 60 1.000000 0.413000 0.447000 1600 49 1.100000 3.559000 4.075000 600 66 1.000000 0.054000 0.054000 1.200000 0.088000 0.106000
1517281509172999277	1000 58 1.000000 0.395000 0.427000 1600 49 1.100000 3.563000 4.079000 600 66 1.000000 0.054000 0.054000 1.200000 0.114000 0.138000
1517281509724952986	1000 59 1.000000 0.379000 0.410000 1600 49 1.100000 3.435000 3.926000 600 66 1.000000 0.054000 0.054000 1.200000 0.104000 0.125000
1517281510268887569	1000 59 1.000000 0.398000 0.431000 1600 49 1.100000 3.544000 4.050000 600 66 1.000000 0.055000 0.055000 1.200000 0.102000 0.123000
1517281510828930569	1000 58 1.000000 0.403000 0.436000 1600 48 1.100000 3.565000 4.081000 600 66 1.000000 0.054000 0.054000 1.200000 0.099000 0.119000
1517281511388987653	1000 59 1.000000 0.398000 0.431000 1600 49 1.100000 3.461000 3.955000 600 64 1.000000 0.054000 0.054000 1.200000 0.091000 0.110000
1517281511944773444	1000 58 1.000000 0.396000 0.428000 1600 49 1.100000 3.389000 3.873000 600 65 1.000000 0.054000 0.054000 1.200000 0.136000 0.164000
1517281512504948444	1000 59 1.000000 0.405000 0.438000 1600 49 1.100000 3.363000 3.843000 600 65 1.000000 0.054000 0.054000 1.200000 0.146000 0.177000
1517281513060841486	1000 59 1.000000 0.391000 0.423000 1600 49 1.100000 3.369000 3.850000 600 65 1.000000 0.054000 0.054000 1.200000 0.139000 0.168000
1517281513616792486	1000 59 1.000000 0.400000 0.433000 1600 49 1.100000 3.411000 3.898000 600 66 1.000000 0.054000 0.054000 1.200000 0.109000 0.131000
1517281514172803153	1000 59 1.000000 0.407000 0.440000 1600 49 1.100000 3.478000 3.975000 600 66 1.000000 0.054000 0.054000 1.200000 0.118000 0.143000
1517281514732774570	1000 59 1.000000 0.398000 0.431000 1600 49 1.100000 3.350000 3.829000 600 66 1.000000 0.054000 0.054000 1.200000 0.130000 0.157000
1517281515292877278	1000 59 1.000000 0.408000 0.441000 1600 49 1.100000 3.427000 3.917000 600 66 1.000000 0.055000 0.055000 1.200000 0.112000 0.135000
1517281515852781695	1000 59 1.000000 0.410000 0.444000 1600 49 1.100000 3.428000 3.918000 600 64 1.000000 0.054000 0.054000 1.200000 0.112000 0.135000
1517281516412779653	1000 59 1.000000 0.401000 0.434000 1600 49 1.100000 3.327000 3.799000 600 65 1.000000 0.054000 0.054000 1.200000 0.137000 0.166000
1517281516936820987	1000 59 1.000000 0.410000 0.444000 1600 49 1.100000 3.340000 3.817000 600 64 1.000000 0.054000 0.054000 1.200000 0.133000 0.161000
1517281517484763403	1000 60 1.000000 0.406000 0.439000 1600 49 1.100000 3.362000 3.842000 600 65 1.000000 0.054000 0.054000 1.200000 0.126000 0.152000
1517281518040776653	1000 60 1.000000 0.415000 0.449000 1600 49 1.100000 3.470000 3.966000 600 65 1.000000 0.054000 0.054000 1.200000 0.109000 0.132000
1517281518600764278	1000 60 1.000000 0.417000 0.451000 1600 49 1.100000 3.440000 3.931000 600 66 1.000000 0.055000 0.055000 1.200000 0.113000 0.136000
1517281519160830112	1000 60 1.000000 0.424000 0.459000 1600 49 1.100000 3.417000 3.905000 600 65 1.000000 0.055000 0.055000 1.200000 0.102000 0.123000
1517281519716772487	1000 60 1.000000 0.403000 0.436000 1600 49 1.100000 3.500000 4.000000 600 65 1.000000 0.054000 0.054000 1.200000 0.091000 0.110000
1517281520272790445	1000 60 1.000000 0.388000 0.420000 1600 49 1.100000 3.503000 4.003000 600 65 1.000000 0.055000 0.055000 1.200000 0.109000 0.132000
1517281520832822987	1000 59 1.000000 0.407000 0.440000 1600 49 1.100000 3.250000 3.711000 600 65 1.000000 0.054000 0.054000 1.200000 0.118000 0.143000
1517281521392778737	1000 59 1.000000 0.410000 0.444000 1600 49 1.100000 3.345000 3.819000 600 66 1.000000 0.054000 0.054000 1.200000 0.134000 0.162000
1517281521902233112	1000 59 1.000000 0.405000 0.438000 1600 49 1.100000 3.451000 3.944000 600 65 1.000000 0.054000 0.054000 1.200000 0.103000 0.124000
1517281522464802779	1000 59 1.000000 0.405000 0.438000 1600 49 1.100000 3.256000 3.718000 600 66 1.000000 0.054000 0.054000 1.200000 0.130000 0.157000
1517281523024751904	1000 60 1.000000 0.408000 0.441000 1600 49 1.100000 3.448000 3.941000 600 66 1.000000 0.055000 0.055000 1.200000 0.106000 0.128000
1517281523596812904	1000 60 1.000000 0.412000 0.446000 1600 49 1.100000 3.525000 4.029000 600 66 1.000000 0.054000 0.054000 1.200000 0.089000 0.107000
1517281524153132904	1000 60 1.000000 0.405000 0.438000 1600 49 1.100000 3.497000 3.997000 600 66 1.000000 0.054000 0.054000 1.200000 0.110000 0.133000
1517281524700779613	1000 59 1.000000 0.407000 0.440000 1600 49 1.100000 3.440000 3.931000 600 66 1.000000 0.054000 0.054000 1.200000 0.119000 0.144000
1517281525264933196	1000 60 1.000000 0.410000 0.444000 1600 49 1.100000 3.545000 4.059000 600 67 1.000000 0.055000 0.055000 1.200000 0.101000 0.122000
1517281525812895863	1000 60 1.000000 0.397000 0.429000 1600 49 1.100000 3.470000 3.966000 600 66 1.000000 0.055000 0.055000 1.200000 0.126000 0.152000
1517281526360926029	1000 60 1.000000 0.402000 0.435000 1600 49 1.100000 3.531000 4.035000 600 67 1.000000 0.054000 0.054000 1.200000 0.108000 0.130000
1517281526912915029	1000 60 1.000000 0.391000 0.423000 1600 49 1.100000 3.529000 4.033000 600 66 1.000000 0.055000 0.055000 1.200000 0.111000 0.134000
1517281527468885113	1000 60 1.000000 0.402000 0.435000 1600 49 1.100000 3.557000 4.072000 600 66 1.000000 0.055000 0.055000 1.200000 0.098000 0.118000
1517281528021029196	1000 60 1.000000 0.397000 0.429000 1600 49 1.100000 3.513000 4.015000 600 66 1.000000 0.055000 0.055000 1.200000 0.084000 0.101000
1517281528580914238	1000 60 1.000000 0.406000 0.439000 1600 49 1.100000 3.479000 3.976000 600 67 1.000000 0.054000 0.054000 1.200000 0.098000 0.118000
1517281529140988405	1000 60 1.000000 0.412000 0.446000 1600 49 1.100000 3.507000 4.008000 600 66 1.000000 0.055000 0.055000 1.200000 0.095000 0.115000
1517281529696827488	1000 60 1.000000 0.414000 0.448000 1600 49 1.100000 3.616000 4.133000 600 67 1.000000 0.055000 0.055000 1.200000 0.078000 0.094000
1517281530248867572	1000 60 1.000000 0.411000 0.445000 1600 49 1.100000 3.544000 4.050000 600 66 1.000000 0.054000 0.054000 1.200000 0.088000 0.106000
1517281530800907988	1000 60 1.000000 0.403000 0.436000 1600 49 1.100000 3.526000 4.030000 600 67 1.000000 0.054000 0.054000 1.200000 0.100000 0.121000
1517281531360736572	1000 60 1.000000 0.414000 0.448000 1600 49 1.100000 3.607000 4.122000 600 67 1.000000 0.055000 0.055000 1.200000 0.079000 0.095000
1517281531925002988	1000 60 1.000000 0.383000 0.414000 1600 49 1.100000 3.534000 4.039000 600 67 1.000000 0.055000 0.055000 1.200000 0.096000 0.116000
1517281532464855905	1000 60 1.000000 0.404000 0.437000 1600 49 1.100000 3.595000 4.109000 600 67 1.000000 0.055000 0.055000 1.200000 0.094000 0.113000
1517281533028894697	1000 60 1.000000 0.401000 0.434000 1600 49 1.100000 3.563000 4.079000 600 67 1.000000 0.055000 0.055000 1.200000 0.098000 0.118000
1517281533584894155	1000 60 1.000000 0.392000 0.424000 1600 49 1.100000 3.585000 4.104000 600 67 1.000000 0.055000 0.055000 1.200000 0.093000 0.112000
1517281534140939155	1000 61 1.000000 0.404000 0.437000 1600 50 1.100000 3.600000 4.122000 600 67 1.000000 0.055000 0.055000 1.200000 0.082000 0.099000
1517281534692751114	1000 61 1.000000 0.397000 0.429000 1600 50 1.100000 3.615000 4.139000 600 67 1.000000 0.054000 0.054000 1.200000 0.086000 0.104000
1517281535240948239	1000 60 1.000000 0.401000 0.434000 1600 50 1.100000 3.598000 4.119000 600 67 1.000000 0.055000 0.055000 1.200000 0.087000 0.105000
1517281535796893531	1000 61 1.000000 0.398000 0.431000 1600 50 1.100000 3.618000 4.142000 600 67 1.000000 0.055000 0.055000 1.200000 0.085000 0.102000
1517281536356956031	1000 61 1.000000 0.398000 0.431000 1600 50 1.100000 3.630000 4.156000 600 67 1.000000 0.055000 0.055000 1.200000 0.078000 0.094000
1517281536912943322	1000 61 1.000000 0.410000 0.444000 1600 50 1.100000 3.576000 4.087000 600 67 1.000000 0.055000 0.055000 1.200000 0.094000 0.113000
1517281537472973656	1000 60 1.000000 0.402000 0.435000 1600 50 1.100000 3.634000 4.160000 600 67 1.000000 0.054000 0.054000 1.200000 0.080000 0.096000
1517281538028849489	1000 61 1.000000 0.410000 0.444000 1600 50 1.100000 3.624000 4.149000 600 67 1.000000 0.055000 0.055000 1.200000 0.085000 0.102000
1517281538585021448	1000 60 1.000000 0.397000 0.429000 1600 50 1.100000 3.573000 4.091000 600 67 1.000000 0.055000 0.055000 1.200000 0.082000 0.099000
1517281539144840948	1000 60 1.000000 0.404000 0.437000 1600 50 1.100000 3.373000 3.855000 600 67 1.000000 0.055000 0.055000 1.200000 0.128000 0.155000
1517281539704932781	1000 60 1.000000 0.412000 0.446000 1600 50 1.100000 3.549000 4.063000 600 67 1.000000 0.055000 0.055000 1.200000 0.092000 0.111000
1517281540256992406	1000 61 1.000000 0.409000 0.442000 1600 50 1.100000 3.575000 4.093000 600 67 1.000000 0.055000 0.055000 1.200000 0.086000 0.104000
1517281540816932323	1000 60 1.000000 0.400000 0.433000 1600 50 1.100000 3.425000 3.914000 600 67 1.000000 0.055000 0.055000 1.200000 0.110000 0.133000
1517281541372913865	1000 61 1.000000 0.388000 0.420000 1600 50 1.100000 3.547000 4.061000 600 67 1.000000 0.054000 0.054000 1.200000 0.110000 0.133000
1517281541928826740	1000 61 1.000000 0.390000 0.422000 1600 50 1.100000 3.535000 4.040000 600 67 1.000000 0.054000 0.054000 1.200000 0.097000 0.117000
1517281542488719323	1000 61 1.000000 0.405000 0.438000 1600 50 1.100000 3.609000 4.132000 600 67 1.000000 0.055000 0.055000 1.200000 0.080000 0.096000
1517281543044853156	1000 61 1.000000 0.393000 0.425000 1600 50 1.100000 3.611000 4.134000 600 67 1.000000 0.055000 0.055000 1.200000 0.086000 0.104000
1517281543600788031	1000 61 1.000000 0.398000 0.431000 1600 50 1.100000 3.562000 4.078000 600 67 1.000000 0.055000 0.055000 1.200000 0.091000 0.110000
1517281544144808157	1000 61 1.000000 0.395000 0.427000 1600 50 1.100000 3.605000 4.127000 600 67 1.000000 0.054000 0.054000 1.200000 0.083000 0.100000
1517281544700862198	1000 61 1.000000 0.409000 0.442000 1600 50 1.100000 3.603000 4.125000 600 67 1.000000 0.054000 0.054000 1.200000 0.085000 0.102000
1517281545256785573	1000 61 1.000000 0.401000 0.434000 1600 50 1.100000 3.654000 4.183000 600 68 1.000000 0.055000 0.055000 1.200000 0.084000 0.101000
1517281545820907948	1000 61 1.000000 0.405000 0.438000 1600 50 1.100000 3.596000 4.117000 600 67 1.000000 0.055000 0.055000 1.200000 0.085000 0.102000
1517281546388939823	1000 61 1.000000 0.398000 0.431000 1600 50 1.100000 3.611000 4.127000 600 67 1.000000 0.055000 0.055000 1.200000 0.081000 0.098000
1517281546948817282	1000 61 1.000000 0.404000 0.437000 1600 50 1.100000 3.597000 4.118000 600 67 1.000000 0.055000 0.055000 1.200000 0.084000 0.101000
1517281547504860115	1000 61 1.000000 0.411000 0.445000 1600 50 1.100000 3.605000 4.127000 600 68 1.000000 0.055000 0.055000 1.200000 0.077000 0.093000
1517281548060898699	1000 61 1.000000 0.393000 0.425000 1600 50 1.100000 3.634000 4.160000 600 67 1.000000 0.055000 0.055000 1.200000 0.084000 0.101000
1517281548620866990	1000 61 1.000000 0.405000 0.438000 1600 50 1.100000 3.599000 4.120000 600 67 1.000000 0.055000 0.055000 1.200000 0.078000 0.094000
1517281549176899407	1000 61 1.000000 0.420000 0.454000 1600 50 1.100000 3.596000 4.110000 600 67 1.000000 0.054000 0.054000 1.200000 0.063000 0.076000
1517281549732743657	1000 61 1.000000 0.400000 0.433000 1600 50 1.100000 3.571000 4.081000 600 67 1.000000 0.055000 0.055000 1.200000 0.073000 0.088000
1517281550276828574	1000 61 1.000000 0.396000 0.428000 1600 50 1.100000 3.584000 4.096000 600 67 1.000000 0.055000 0.055000 1.200000 0.090000 0.108000
1517281550840792824	1000 61 1.000000 0.410000 0.444000 1600 50 1.100000 3.634000 4.160000 600 67 1.000000 0.055000 0.055000 1.200000 0.064000 0.077000
1517281551392981741	1000 61 1.000000 0.414000 0.448000 1600 50 1.100000 3.631000 4.157000 600 67 1.000000 0.055000 0.055000 1.200000 0.074000 0.089000
1517281551944877824	1000 61 1.000000 0.403000 0.436000 1600 50 1.100000 3.485000 3.983000 600 67 1.000000 0.055000 0.055000 1.200000 0.099000 0.119000
1517281552504913449	1000 61 1.000000 0.403000 0.436000 1600 50 1.100000 3.540000 4.046000 600 67 1.000000 0.054000 0.054000 1.200000 0.085000 0.102000
1517281553064866158	1000 61 1.000000 0.417000 0.451000 1600 50 1.100000 3.595000 4.109000 600 67 1.000000 0.055000 0.055000 1.200000 0.085000 0.102000
1517281553629074616	1000 61 1.000000 0.420000 0.454000 1600 50 1.100000 3.575000 4.086000 600 67 1.000000 0.054000 0.054000 1.200000 0.111000 0.134000
1517281554192964449	1000 61 1.000000 0.411000 0.445000 1600 50 1.100000 3.575000 4.086000 600 68 1.000000 0.055000 0.055000 1.200000 0.088000 0.106000
1517281554744814491	1000 61 1.000000 0.407000 0.440000 1600 50 1.100000 3.586000 4.105000 600 68 1.000000 0.055000 0.055000 1.200000 0.090000 0.108000
1517281555304833325	1000 61 1.000000 0.422000 0.457000 1600 50 1.100000 3.629000 4.155000 600 68 1.000000 0.055000 0.055000 1.200000 0.077000 0.093000
1517281555860896325	1000 61 1.000000 0.419000 0.453000 1600 50 1.100000 3.600000 4.122000 600 68 1.000000 0.055000 0.055000 1.200000 0.076000 0.091000
1517281556420842116	1000 61 1.000000 0.416000 0.450000 1600 50 1.100000 3.625000 4.150000 600 67 1.000000 0.055000 0.055000 1.200000 0.066000 0.079000
1517281556964979991	1000 61 1.000000 0.411000 0.445000 1600 50 1.100000 3.589000 4.109000 600 68 1.000000 0.055000 0.055000 1.200000 0.083000 0.100000
1517281557516853616	1000 61 1.000000 0.422000 0.457000 1600 50 1.100000 3.575000 4.093000 600 68 1.000000 0.055000 0.055000 1.200000 0.068000 0.082000
1517281558064897492	1000 61 1.000000 0.412000 0.446000 1600 50 1.100000 3.604000 4.126000 600 68 1.000000 0.055000 0.055000 1.200000 0.074000 0.089000
1517281558616946242	1000 61 1.000000 0.409000 0.442000 1600 50 1.100000 3.630000 4.156000 600 68 1.000000 0.054000 0.054000 1.200000 0.068000 0.082000
1517281559172792242	1000 61 1.000000 0.404000 0.437000 1600 50 1.100000 3.624000 4.149000 600 68 1.000000 0.055000 0.055000 1.200000 0.072000 0.087000
1517281559732853033	1000 61 1.000000 0.411000 0.445000 1600 50 1.100000 3.629000 4.147000 600 68 1.000000 0.055000 0.055000 1.200000 0.072000 0.087000
1517281560296859658	1000 61 1.000000 0.405000 0.438000 1600 50 1.100000 3.568000 4.085000 600 67 1.000000 0.055000 0.055000 1.200000 0.080000 0.096000
1517281560852877617	1000 61 1.000000 0.414000 0.448000 1600 50 1.100000 3.585000 4.104000 600 67 1.000000 0.055000 0.055000 1.200000 0.065000 0.078000
1517281561404881034	1000 61 1.000000 0.424000 0.459000 1600 50 1.100000 3.636000 4.163000 600 68 1.000000 0.055000 0.055000 1.200000 0.055000 0.066000
1517281561968794450	1000 61 1.000000 0.420000 0.454000 1600 50 1.100000 3.642000 4.170000 600 68 1.000000 0.054000 0.054000 1.200000 0.061000 0.073000
1517281562520973284	1000 61 1.000000 0.401000 0.434000 1600 50 1.100000 3.614000 4.138000 600 67 1.000000 0.055000 0.055000 1.200000 0.073000 0.088000
1517281563080999159	1000 61 1.000000 0.411000 0.445000 1600 50 1.100000 3.541000 4.054000 600 67 1.000000 0.055000 0.055000 1.200000 0.085000 0.102000
1517281563632888950	1000 61 1.000000 0.419000 0.453000 1600 50 1.100000 3.603000 4.125000 600 68 1.000000 0.054000 0.054000 1.200000 0.078000 0.094000
1517281564193000909	1000 61 1.000000 0.417000 0.451000 1600 50 1.100000 3.531000 4.042000 600 67 1.000000 0.055000 0.055000 1.200000 0.067000 0.081000
1517281564748930659	1000 61 1.000000 0.415000 0.449000 1600 50 1.100000 3.597000 4.118000 600 68 1.000000 0.054000 0.054000 1.200000 0.080000 0.096000
1517281565305058201	1000 61 1.000000 0.414000 0.448000 1600 50 1.100000 3.593000 4.113000 600 68 1.000000 0.055000 0.055000 1.200000 0.081000 0.098000
1517281565864887659	1000 60 1.000000 0.414000 0.448000 1600 50 1.100000 3.450000 3.943000 600 68 1.000000 0.055000 0.055000 1.200000 0.092000 0.111000
1517281566421067826	1000 61 1.000000 0.422000 0.457000 1600 50 1.100000 3.433000 3.923000 600 67 1.000000 0.055000 0.055000 1.200000 0.100000 0.121000
1517281566980983201	1000 60 1.000000 0.417000 0.451000 1600 50 1.100000 3.547000 4.061000 600 68 1.000000 0.055000 0.055000 1.200000 0.092000 0.111000
1517281567537045868	1000 61 1.000000 0.408000 0.441000 1600 50 1.100000 3.489000 3.994000 600 68 1.000000 0.054000 0.054000 1.200000 0.100000 0.121000
1517281568096873451	1000 61 1.000000 0.414000 0.448000 1600 50 1.100000 3.539000 4.052000 600 68 1.000000 0.055000 0.055000 1.200000 0.083000 0.100000
1517281568648831701	1000 61 1.000000 0.423000 0.458000 1600 50 1.100000 3.591000 4.104000 600 68 1.000000 0.055000 0.055000 1.200000 0.074000 0.089000
1517281569212945868	1000 61 1.000000 0.429000 0.464000 1600 50 1.100000 3.528000 4.032000 600 67 1.000000 0.055000 0.055000 1.200000 0.068000 0.082000
1517281569772911993	1000 61 1.000000 0.409000 0.442000 1600 50 1.100000 3.594000 4.115000 600 68 1.000000 0.055000 0.055000 1.200000 0.095000 0.115000
1517281570312942493	1000 61 1.000000 0.418000 0.452000 1600 50 1.100000 3.598000 4.119000 600 68 1.000000 0.055000 0.055000 1.200000 0.087000 0.105000
1517281570876829826	1000 61 1.000000 0.421000 0.455000 1600 50 1.100000 3.481000 3.978000 600 67 1.000000 0.055000 0.055000 1.200000 0.103000 0.124000
1517281571428828618	1000 61 1.000000 0.421000 0.455000 1600 50 1.100000 3.507000 4.008000 600 67 1.000000 0.055000 0.055000 1.200000 0.081000 0.098000
1517281571992908660	1000 61 1.000000 0.413000 0.447000 1600 50 1.100000 3.600000 4.122000 600 68 1.000000 0.055000 0.055000 1.200000 0.085000 0.102000
1517281572540852702	1000 61 1.000000 0.422000 0.457000 1600 50 1.100000 3.592000 4.112000 600 68 1.000000 0.055000 0.055000 1.200000 0.081000 0.098000
1517281573104982743	1000 61 1.000000 0.417000 0.451000 1600 50 1.100000 3.575000 4.093000 600 67 1.000000 0.055000 0.055000 1.200000 0.067000 0.081000
1517281573661202868	1000 61 1.000000 0.419000 0.453000 1600 50 1.100000 3.469000 3.965000 600 68 1.000000 0.055000 0.055000 1.200000 0.104000 0.126000
1517281574224781368	1000 61 1.000000 0.423000 0.458000 1600 50 1.100000 3.535000 4.040000 600 68 1.000000 0.055000 0.055000 1.200000 0.079000 0.095000
1517281574784888160	1000 61 1.000000 0.427000 0.462000 1600 50 1.100000 3.565000 4.074000 600 68 1.000000 0.055000 0.055000 1.200000 0.075000 0.090000
1517281575352879827	1000 61 1.000000 0.430000 0.465000 1600 50 1.100000 3.452000 3.945000 600 68 1.000000 0.055000 0.055000 1.200000 0.080000 0.096000
1517281575912766535	1000 61 1.000000 0.428000 0.463000 1600 50 1.100000 3.585000 4.097000 600 67 1.000000 0.055000 0.055000 1.200000 0.075000 0.090000
1517281576468824494	1000 61 1.000000 0.421000 0.455000 1600 50 1.100000 3.532000 4.037000 600 68 1.000000 0.055000 0.055000 1.200000 0.079000 0.095000
1517281577028813494	1000 61 1.000000 0.420000 0.454000 1600 50 1.100000 3.544000 4.050000 600 66 1.000000 0.055000 0.055000 1.200000 0.079000 0.095000
1517281577592863369	1000 61 1.000000 0.425000 0.460000 1600 50 1.100000 3.488000 3.986000 600 67 1.000000 0.055000 0.055000 1.200000 0.114000 0.138000
1517281578144810077	1000 61 1.000000 0.427000 0.462000 1600 50 1.100000 3.511000 4.013000 600 67 1.000000 0.055000 0.055000 1.200000 0.076000 0.092000
1517281578704768786	1000 61 1.000000 0.399000 0.432000 1600 50 1.100000 3.508000 4.009000 600 67 1.000000 0.055000 0.055000 1.200000 0.104000 0.126000
1517281579264727619	1000 61 1.000000 0.415000 0.449000 1600 50 1.100000 3.518000 4.021000 600 68 1.000000 0.054000 0.054000 1.200000 0.097000 0.117000
1517281579819515869	1000 61 1.000000 0.415000 0.449000 1600 50 1.100000 3.595000 4.116000 600 68 1.000000 0.055000 0.055000 1.200000 0.079000 0.095000
1517281580360963036	1000 61 1.000000 0.418000 0.452000 1600 50 1.100000 3.538000 4.043000 600 67 1.000000 0.055000 0.055000 1.200000 0.095000 0.115000
1517281580916825619	1000 61 1.000000 0.422000 0.457000 1600 50 1.100000 3.518000 4.021000 600 67 1.000000 0.055000 0.055000 1.200000 0.091000 0.110000
1517281581472739328	1000 61 1.000000 0.421000 0.455000 1600 50 1.100000 3.589000 4.109000 600 67 1.000000 0.055000 0.055000 1.200000 0.077000 0.093000
1517281582032989994	1000 61 1.000000 0.419000 0.453000 1600 50 1.100000 3.535000 4.040000 600 67 1.000000 0.055000 0.055000 1.200000 0.071000 0.085000
1517281582588761786	1000 61 1.000000 0.406000 0.439000 1600 50 1.100000 3.499000 3.999000 600 67 1.000000 0.054000 0.054000 1.200000 0.100000 0.121000
1517281583140884161	1000 61 1.000000 0.415000 0.449000 1600 50 1.100000 3.534000 4.039000 600 67 1.000000 0.055000 0.055000 1.200000 0.081000 0.098000
1517281583692933661	1000 61 1.000000 0.425000 0.460000 1600 50 1.100000 3.581000 4.100000 600 68 1.000000 0.055000 0.055000 1.200000 0.088000 0.106000
1517281584248804536	1000 61 1.000000 0.414000 0.448000 1600 50 1.100000 3.497000 3.997000 600 67 1.000000 0.055000 0.055000 1.200000 0.120000 0.145000
1517281584796888286	1000 61 1.000000 0.425000 0.460000 1600 50 1.100000 3.474000 3.970000 600 67 1.000000 0.055000 0.055000 1.200000 0.079000 0.095000
1517281585348817245	1000 61 1.000000 0.414000 0.448000 1600 50 1.100000 3.544000 4.057000 600 68 1.000000 0.055000 0.055000 1.200000 0.092000 0.111000
1517281585900652911	1000 61 1.000000 0.420000 0.454000 1600 50 1.100000 3.534000 4.039000 600 67 1.000000 0.055000 0.055000 1.200000 0.080000 0.096000
1517281586464865995	1000 61 1.000000 0.422000 0.457000 1600 50 1.100000 3.602000 4.124000 600 68 1.000000 0.055000 0.055000 1.200000 0.071000 0.085000
1517281587024743537	1000 61 1.000000 0.417000 0.451000 1600 50 1.100000 3.592000 4.112000 600 68 1.000000 0.055000 0.055000 1.200000 0.084000 0.101000
1517281587572772078	1000 62 1.000000 0.424000 0.459000 1600 50 1.100000 3.585000 4.104000 600 68 1.000000 0.055000 0.055000 1.200000 0.061000 0.073000
1517281588128772537	1000 61 1.000000 0.425000 0.460000 1600 50 1.100000 3.592000 4.105000 600 68 1.000000 0.055000 0.055000 1.200000 0.090000 0.108000
1517281588684750828	1000 61 1.000000 0.430000 0.465000 1600 50 1.100000 3.577000 4.088000 600 68 1.000000 0.055000 0.055000 1.200000 0.066000 0.079000
1517281589248675912	1000 61 1.000000 0.421000 0.455000 1600 50 1.100000 3.608000 4.131000 600 68 1.000000 0.055000 0.055000 1.200000 0.065000 0.078000
1517281589808797370	1000 61 1.000000 0.423000 0.458000 1600 50 1.100000 3.601000 4.123000 600 67 1.000000 0.055000 0.055000 1.200000 0.065000 0.078000
1517281590364760287	1000 61 1.000000 0.425000 0.460000 1600 50 1.100000 3.581000 4.093000 600 68 1.000000 0.055000 0.055000 1.200000 0.070000 0.084000
1517281590916773745	1000 61 1.000000 0.418000 0.452000 1600 50 1.100000 3.596000 4.117000 600 68 1.000000 0.055000 0.055000 1.200000 0.078000 0.094000
1517281591476640745	1000 61 1.000000 0.421000 0.455000 1600 50 1.100000 3.592000 4.112000 600 68 1.000000 0.054000 0.054000 1.200000 0.062000 0.074000
1517281592024835496	1000 61 1.000000 0.427000 0.462000 1600 50 1.100000 3.597000 4.118000 600 68 1.000000 0.055000 0.055000 1.200000 0.062000 0.074000
1517281592580904496	1000 61 1.000000 0.406000 0.439000 1600 50 1.100000 3.625000 4.150000 600 67 1.000000 0.055000 0.055000 1.200000 0.087000 0.105000
1517281593144844079	1000 61 1.000000 0.412000 0.446000 1600 50 1.100000 3.546000 4.053000 600 68 1.000000 0.055000 0.055000 1.200000 0.082000 0.099000
1517281593700676871	1000 61 1.000000 0.413000 0.447000 1600 50 1.100000 3.554000 4.062000 600 68 1.000000 0.055000 0.055000 1.200000 0.070000 0.084000
1517281594260795079	1000 61 1.000000 0.415000 0.449000 1600 50 1.100000 3.622000 4.147000 600 67 1.000000 0.055000 0.055000 1.200000 0.066000 0.079000
1517281594820765996	1000 61 1.000000 0.407000 0.440000 1600 50 1.100000 3.561000 4.070000 600 68 1.000000 0.055000 0.055000 1.200000 0.079000 0.095000
1517281595372776329	1000 61 1.000000 0.418000 0.452000 1600 50 1.100000 3.639000 4.166000 600 68 1.000000 0.055000 0.055000 1.200000 0.055000 0.066000
1517281595928570371	1000 62 1.000000 0.404000 0.437000 1600 50 1.100000 3.635000 4.162000 600 68 1.000000 0.055000 0.055000 1.200000 0.083000 0.100000
1517281596484734329	1000 61 1.000000 0.414000 0.448000 1600 50 1.100000 3.643000 4.171000 600 68 1.000000 0.055000 0.055000 1.200000 0.059000 0.071000
1517281597048772871	1000 61 1.000000 0.417000 0.451000 1600 50 1.100000 3.620000 4.144000 600 68 1.000000 0.055000 0.055000 1.200000 0.068000 0.082000
1517281597600821538	1000 61 1.000000 0.414000 0.448000 1600 50 1.100000 3.616000 4.140000 600 68 1.000000 0.055000 0.055000 1.200000 0.059000 0.071000
1517281598160784871	1000 61 1.000000 0.412000 0.446000 1600 50 1.100000 3.632000 4.158000 600 68 1.000000 0.055000 0.055000 1.200000 0.061000 0.073000
1517281598716796288	1000 61 1.000000 0.397000 0.429000 1600 50 1.100000 3.591000 4.111000 600 68 1.000000 0.055000 0.055000 1.200000 0.076000 0.091000
1517281599276786788	1000 61 1.000000 0.406000 0.439000 1600 50 1.100000 3.619000 4.143000 600 68 1.000000 0.055000 0.055000 1.200000 0.069000 0.083000
1517281599832922163	1000 61 1.000000 0.398000 0.431000 1600 50 1.100000 3.649000 4.178000 600 68 1.000000 0.055000 0.055000 1.200000 0.081000 0.098000
1517281600380702455	1000 61 1.000000 0.413000 0.447000 1600 50 1.100000 3.484000 3.982000 600 68 1.000000 0.055000 0.055000 1.200000 0.095000 0.115000
1517281600932730913	1000 61 1.000000 0.403000 0.436000 1600 50 1.100000 3.615000 4.139000 600 68 1.000000 0.055000 0.055000 1.200000 0.081000 0.098000
1517281601496738247	1000 62 1.000000 0.399000 0.432000 1600 50 1.100000 3.621000 4.146000 600 68 1.000000 0.055000 0.055000 1.200000 0.094000 0.113000
1517281602060812455	1000 62 1.000000 0.404000 0.437000 1600 50 1.100000 3.626000 4.151000 600 68 1.000000 0.055000 0.055000 1.200000 0.076000 0.092000
1517281602608672122	1000 62 1.000000 0.403000 0.436000 1600 50 1.100000 3.618000 4.142000 600 68 1.000000 0.055000 0.055000 1.200000 0.078000 0.094000
1517281603164840539	1000 62 1.000000 0.409000 0.442000 1600 50 1.100000 3.626000 4.151000 600 68 1.000000 0.055000 0.055000 1.200000 0.074000 0.089000
1517281603728901789	1000 61 1.000000 0.409000 0.442000 1600 50 1.100000 3.571000 4.088000 600 68 1.000000 0.055000 0.055000 1.200000 0.074000 0.089000
1517281604300647330	1000 62 1.000000 0.415000 0.449000 1600 50 1.100000 3.520000 4.030000 600 68 1.000000 0.055000 0.055000 1.200000 0.087000 0.105000
1517281604864769747	1000 62 1.000000 0.409000 0.442000 1600 50 1.100000 3.646000 4.174000 600 68 1.000000 0.055000 0.055000 1.200000 0.066000 0.079000
1517281605420704997	1000 62 1.000000 0.403000 0.436000 1600 50 1.100000 3.635000 4.162000 600 68 1.000000 0.055000 0.055000 1.200000 0.074000 0.089000
1517281605964781539	1000 62 1.000000 0.393000 0.425000 1600 50 1.100000 3.660000 4.190000 600 68 1.000000 0.055000 0.055000 1.200000 0.089000 0.107000
1517281606516734997	1000 62 1.000000 0.407000 0.440000 1600 51 1.100000 3.639000 4.166000 600 68 1.000000 0.055000 0.055000 1.200000 0.080000 0.096000
1517281607068756456	1000 61 1.000000 0.403000 0.436000 1600 51 1.100000 3.531000 4.035000 600 68 1.000000 0.055000 0.055000 1.200000 0.079000 0.095000
1517281607632811289	1000 62 1.000000 0.412000 0.446000 1600 50 1.100000 3.584000 4.103000 600 68 1.000000 0.055000 0.055000 1.200000 0.091000 0.110000
1517281608180826706	1000 62 1.000000 0.406000 0.439000 1600 50 1.100000 3.549000 4.056000 600 68 1.000000 0.055000 0.055000 1.200000 0.092000 0.111000
1517281608740772456	1000 62 1.000000 0.410000 0.444000 1600 50 1.100000 3.523000 4.026000 600 68 1.000000 0.055000 0.055000 1.200000 0.089000 0.107000
1517281609296710748	1000 62 1.000000 0.418000 0.452000 1600 50 1.100000 3.608000 4.131000 600 68 1.000000 0.055000 0.055000 1.200000 0.070000 0.084000
1517281609844730123	1000 62 1.000000 0.409000 0.442000 1600 51 1.100000 3.583000 4.102000 600 66 1.000000 0.055000 0.055000 1.200000 0.079000 0.095000
1517281610404810581	1000 61 1.000000 0.411000 0.445000 1600 51 1.100000 3.567000 4.077000 600 67 1.000000 0.055000 0.055000 1.200000 0.088000 0.106000
1517281610952720873	1000 62 1.000000 0.423000 0.458000 1600 50 1.100000 3.582000 4.101000 600 68 1.000000 0.055000 0.055000 1.200000 0.074000 0.089000
1517281611508746123	1000 62 1.000000 0.426000 0.461000 1600 50 1.100000 3.551000 4.058000 600 67 1.000000 0.055000 0.055000 1.200000 0.080000 0.096000
1517281612068741873	1000 62 1.000000 0.412000 0.446000 1600 51 1.100000 3.619000 4.143000 600 68 1.000000 0.055000 0.055000 1.200000 0.076000 0.091000
1517281612624764915	1000 62 1.000000 0.419000 0.453000 1600 51 1.100000 3.584000 4.103000 600 68 1.000000 0.055000 0.055000 1.200000 0.073000 0.088000
1517281613172617081	1000 62 1.000000 0.417000 0.451000 1600 51 1.100000 3.617000 4.141000 600 68 1.000000 0.055000 0.055000 1.200000 0.072000 0.087000
1517281613728709540	1000 62 1.000000 0.419000 0.453000 1600 51 1.100000 3.550000 4.064000 600 68 1.000000 0.055000 0.055000 1.200000 0.080000 0.096000
1517281614284713498	1000 62 1.000000 0.414000 0.448000 1600 51 1.100000 3.616000 4.140000 600 68 1.000000 0.055000 0.055000 1.200000 0.061000 0.073000
1517281614844710623	1000 62 1.000000 0.415000 0.449000 1600 51 1.100000 3.535000 4.047000 600 68 1.000000 0.055000 0.055000 1.200000 0.072000 0.087000
1517281615396630748	1000 62 1.000000 0.417000 0.451000 1600 51 1.100000 3.551000 4.065000 600 68 1.000000 0.055000 0.055000 1.200000 0.062000 0.075000
1517281615956773915	1000 62 1.000000 0.401000 0.434000 1600 51 1.100000 3.652000 4.181000 600 68 1.000000 0.055000 0.055000 1.200000 0.073000 0.088000
1517281616512677623	1000 62 1.000000 0.399000 0.432000 1600 51 1.100000 3.630000 4.156000 600 68 1.000000 0.055000 0.055000 1.200000 0.069000 0.083000
1517281617060826207	1000 62 1.000000 0.414000 0.448000 1600 51 1.100000 3.613000 4.136000 600 68 1.000000 0.055000 0.055000 1.200000 0.080000 0.096000
1517281617616677665	1000 62 1.000000 0.414000 0.448000 1600 51 1.100000 3.623000 4.148000 600 68 1.000000 0.055000 0.055000 1.200000 0.068000 0.082000
1517281618172754332	1000 62 1.000000 0.419000 0.453000 1600 51 1.100000 3.660000 4.190000 600 68 1.000000 0.055000 0.055000 1.200000 0.062000 0.074000
1517281618724763540	1000 62 1.000000 0.405000 0.438000 1600 51 1.100000 3.620000 4.144000 600 68 1.000000 0.055000 0.055000 1.200000 0.074000 0.089000
1517281619276740749	1000 62 1.000000 0.419000 0.453000 1600 51 1.100000 3.595000 4.109000 600 68 1.000000 0.055000 0.055000 1.200000 0.080000 0.096000
1517281619824626541	1000 62 1.000000 0.414000 0.448000 1600 51 1.100000 3.619000 4.143000 600 68 1.000000 0.055000 0.055000 1.200000 0.068000 0.082000
1517281620372644541	1000 62 1.000000 0.415000 0.449000 1600 51 1.100000 3.604000 4.119000 600 68 1.000000 0.055000 0.055000 1.200000 0.079000 0.095000
1517281620936762874	1000 62 1.000000 0.425000 0.460000 1600 51 1.100000 3.625000 4.150000 600 68 1.000000 0.055000 0.055000 1.200000 0.053000 0.064000
1517281621496733874	1000 62 1.000000 0.412000 0.446000 1600 51 1.100000 3.577000 4.095000 600 68 1.000000 0.055000 0.055000 1.200000 0.080000 0.096000
1517281622052740832	1000 61 1.000000 0.414000 0.448000 1600 51 1.100000 3.632000 4.158000 600 68 1.000000 0.055000 0.055000 1.200000 0.062000 0.074000
1517281622612826083	1000 60 1.000000 0.420000 0.454000 1600 51 1.100000 3.521000 4.031000 600 68 1.000000 0.055000 0.055000 1.200000 0.082000 0.099000
1517281623172767874	1000 61 1.000000 0.409000 0.442000 1600 51 1.100000 3.486000 3.991000 600 68 1.000000 0.055000 0.055000 1.200000 0.093000 0.112000
1517281623717562999	1000 62 1.000000 0.419000 0.453000 1600 51 1.100000 3.561000 4.070000 600 68 1.000000 0.055000 0.055000 1.200000 0.078000 0.094000
1517281624276752083	1000 61 1.000000 0.419000 0.453000 1600 51 1.100000 3.549000 4.056000 600 69 1.000000 0.055000 0.055000 1.200000 0.064000 0.077000
1517281624836764291	1000 62 1.000000 0.422000 0.457000 1600 51 1.100000 3.565000 4.081000 600 68 1.000000 0.055000 0.055000 1.200000 0.069000 0.083000
1517281625396649666	1000 62 1.000000 0.420000 0.454000 1600 51 1.100000 3.605000 4.127000 600 68 1.000000 0.055000 0.055000 1.200000 0.064000 0.077000
1517281625944054208	1000 62 1.000000 0.421000 0.455000 1600 51 1.100000 3.556000 4.071000 600 68 1.000000 0.055000 0.055000 1.200000 0.071000 0.085000
1517281626504761000	1000 62 1.000000 0.419000 0.453000 1600 51 1.100000 3.619000 4.143000 600 69 1.000000 0.055000 0.055000 1.200000 0.064000 0.077000
1517281627064604041	1000 62 1.000000 0.422000 0.457000 1600 51 1.100000 3.628000 4.154000 600 68 1.000000 0.055000 0.055000 1.200000 0.064000 0.077000
1517281627612717958	1000 62 1.000000 0.426000 0.461000 1600 51 1.100000 3.605000 4.127000 600 68 1.000000 0.055000 0.055000 1.200000 0.069000 0.083000
1517281628168613375	1000 62 1.000000 0.398000 0.431000 1600 51 1.100000 3.624000 4.149000 600 69 1.000000 0.055000 0.055000 1.200000 0.068000 0.082000
1517281628728903667	1000 62 1.000000 0.414000 0.448000 1600 51 1.100000 3.648000 4.176000 600 68 1.000000 0.055000 0.055000 1.200000 0.069000 0.083000
1517281629300676000	1000 62 1.000000 0.404000 0.437000 1600 51 1.100000 3.564000 4.080000 600 69 1.000000 0.055000 0.055000 1.200000 0.080000 0.096000
1517281629856917125	1000 62 1.000000 0.400000 0.433000 1600 51 1.100000 3.646000 4.174000 600 69 1.000000 0.055000 0.055000 1.200000 0.083000 0.100000
1517281630408609542	1000 62 1.000000 0.406000 0.439000 1600 51 1.100000 3.632000 4.158000 600 69 1.000000 0.055000 0.055000 1.200000 0.068000 0.082000
1517281630964715625	1000 62 1.000000 0.407000 0.440000 1600 51 1.100000 3.632000 4.158000 600 69 1.000000 0.055000 0.055000 1.200000 0.072000 0.087000
1517281631512724209	1000 62 1.000000 0.405000 0.438000 1600 51 1.100000 3.646000 4.174000 600 69 1.000000 0.055000 0.055000 1.200000 0.083000 0.100000
1517281632064683917	1000 62 1.000000 0.403000 0.436000 1600 51 1.100000 3.634000 4.160000 600 69 1.000000 0.055000 0.055000 1.200000 0.071000 0.085000
1517281632624604292	1000 63 1.000000 0.412000 0.446000 1600 51 1.100000 3.647000 4.175000 600 69 1.000000 0.055000 0.055000 1.200000 0.065000 0.078000
1517281633184698792	1000 62 1.000000 0.413000 0.447000 1600 51 1.100000 3.646000 4.174000 600 69 1.000000 0.055000 0.055000 1.200000 0.063000 0.076000
1517281633744691334	1000 62 1.000000 0.411000 0.445000 1600 51 1.100000 3.644000 4.172000 600 69 1.000000 0.055000 0.055000 1.200000 0.068000 0.082000
1517281634300760042	1000 62 1.000000 0.394000 0.426000 1600 51 1.100000 3.617000 4.141000 600 69 1.000000 0.055000 0.055000 1.200000 0.084000 0.101000
1517281634856630792	1000 62 1.000000 0.400000 0.433000 1600 51 1.100000 3.649000 4.178000 600 69 1.000000 0.055000 0.055000 1.200000 0.071000 0.085000
1517281635412692751	1000 63 1.000000 0.409000 0.442000 1600 51 1.100000 3.639000 4.166000 600 69 1.000000 0.055000 0.055000 1.200000 0.069000 0.083000
1517281635976705584	1000 62 1.000000 0.414000 0.448000 1600 51 1.100000 3.649000 4.178000 600 69 1.000000 0.055000 0.055000 1.200000 0.065000 0.078000
1517281636532508084	1000 62 1.000000 0.416000 0.450000 1600 51 1.100000 3.546000 4.053000 600 69 1.000000 0.055000 0.055000 1.200000 0.072000 0.087000
1517281637088772584	1000 62 1.000000 0.410000 0.444000 1600 51 1.100000 3.565000 4.074000 600 69 1.000000 0.055000 0.055000 1.200000 0.075000 0.090000
1517281637640750334	1000 62 1.000000 0.415000 0.449000 1600 51 1.100000 3.646000 4.174000 600 69 1.000000 0.055000 0.055000 1.200000 0.073000 0.088000
1517281638196626793	1000 63 1.000000 0.412000 0.446000 1600 51 1.100000 3.657000 4.187000 600 69 1.000000 0.055000 0.055000 1.200000 0.064000 0.077000
1517281638748724001	1000 63 1.000000 0.419000 0.453000 1600 51 1.100000 3.621000 4.146000 600 69 1.000000 0.055000 0.055000 1.200000 0.061000 0.073000
1517281639304676710	1000 62 1.000000 0.417000 0.451000 1600 51 1.100000 3.638000 4.165000 600 68 1.000000 0.055000 0.055000 1.200000 0.054000 0.065000
1517281639860764126	1000 63 1.000000 0.421000 0.455000 1600 51 1.100000 3.598000 4.119000 600 68 1.000000 0.055000 0.055000 1.200000 0.080000 0.096000
1517281640404763585	1000 63 1.000000 0.410000 0.444000 1600 51 1.100000 3.602000 4.124000 600 69 1.000000 0.055000 0.055000 1.200000 0.081000 0.098000
1517281640960751835	1000 63 1.000000 0.408000 0.441000 1600 51 1.100000 3.591000 4.111000 600 68 1.000000 0.055000 0.055000 1.200000 0.079000 0.095000
1517281641512799751	1000 62 1.000000 0.403000 0.436000 1600 51 1.100000 3.608000 4.131000 600 69 1.000000 0.055000 0.055000 1.200000 0.084000 0.101000
1517281642064682502	1000 63 1.000000 0.401000 0.434000 1600 51 1.100000 3.617000 4.141000 600 69 1.000000 0.055000 0.055000 1.200000 0.074000 0.089000
1517281642628784168	1000 63 1.000000 0.403000 0.436000 1600 51 1.100000 3.645000 4.173000 600 69 1.000000 0.055000 0.055000 1.200000 0.082000 0.099000
1517281643184721043	1000 63 1.000000 0.407000 0.440000 1600 51 1.100000 3.591000 4.111000 600 68 1.000000 0.055000 0.055000 1.200000 0.098000 0.118000
1517281643736813585	1000 63 1.000000 0.415000 0.449000 1600 51 1.100000 3.634000 4.160000 600 69 1.000000 0.055000 0.055000 1.200000 0.075000 0.090000
1517281644296775710	1000 62 1.000000 0.408000 0.441000 1600 51 1.100000 3.601000 4.123000 600 69 1.000000 0.055000 0.055000 1.200000 0.076000 0.092000
1517281644848771294	1000 62 1.000000 0.412000 0.446000 1600 52 1.100000 3.561000 4.070000 600 69 1.000000 0.055000 0.055000 1.200000 0.100000 0.121000
1517281645400726502	1000 63 1.000000 0.412000 0.446000 1600 52 1.100000 3.542000 4.048000 600 69 1.000000 0.055000 0.055000 1.200000 0.093000 0.112000
1517281645956797960	1000 63 1.000000 0.415000 0.449000 1600 52 1.100000 3.608000 4.131000 600 69 1.000000 0.055000 0.055000 1.200000 0.081000 0.098000
1517281646512704210	1000 63 1.000000 0.416000 0.450000 1600 52 1.100000 3.607000 4.130000 600 69 1.000000 0.055000 0.055000 1.200000 0.071000 0.085000
1517281647072692210	1000 62 1.000000 0.409000 0.442000 1600 52 1.100000 3.558000 4.073000 600 68 1.000000 0.055000 0.055000 1.200000 0.102000 0.123000
1517281647640565336	1000 63 1.000000 0.410000 0.444000 1600 51 1.100000 3.529000 4.033000 600 69 1.000000 0.055000 0.055000 1.200000 0.087000 0.105000
1517281648192605169	1000 63 1.000000 0.423000 0.458000 1600 52 1.100000 3.569000 4.079000 600 68 1.000000 0.055000 0.055000 1.200000 0.083000 0.100000
1517281648748855961	1000 63 1.000000 0.424000 0.459000 1600 51 1.100000 3.610000 4.133000 600 69 1.000000 0.055000 0.055000 1.200000 0.053000 0.064000
1517281649308864044	1000 63 1.000000 0.426000 0.461000 1600 52 1.100000 3.621000 4.146000 600 69 1.000000 0.055000 0.055000 1.200000 0.070000 0.084000
1517281649864767086	1000 63 1.000000 0.424000 0.459000 1600 51 1.100000 3.611000 4.134000 600 69 1.000000 0.055000 0.055000 1.200000 0.068000 0.082000
1517281650424709753	1000 63 1.000000 0.420000 0.454000 1600 52 1.100000 3.617000 4.141000 600 69 1.000000 0.055000 0.055000 1.200000 0.073000 0.088000
1517281650984665836	1000 63 1.000000 0.425000 0.460000 1600 52 1.100000 3.629000 4.155000 600 69 1.000000 0.055000 0.055000 1.200000 0.058000 0.070000
1517281651540738211	1000 63 1.000000 0.421000 0.455000 1600 52 1.100000 3.634000 4.160000 600 69 1.000000 0.055000 0.055000 1.200000 0.053000 0.064000
1517281652104751044	1000 63 1.000000 0.416000 0.450000 1600 51 1.100000 3.634000 4.160000 600 69 1.000000 0.055000 0.055000 1.200000 0.074000 0.089000
1517281652660755794	1000 63 1.000000 0.400000 0.433000 1600 52 1.100000 3.650000 4.179000 600 69 1.000000 0.055000 0.055000 1.200000 0.074000 0.089000
1517281653216905420	1000 63 1.000000 0.420000 0.454000 1600 52 1.100000 3.640000 4.167000 600 69 1.000000 0.055000 0.055000 1.200000 0.064000 0.077000
1517281653776651170	1000 63 1.000000 0.416000 0.450000 1600 51 1.100000 3.664000 4.195000 600 69 1.000000 0.055000 0.055000 1.200000 0.068000 0.082000
1517281654336700378	1000 63 1.000000 0.414000 0.448000 1600 52 1.100000 3.636000 4.163000 600 69 1.000000 0.055000 0.055000 1.200000 0.057000 0.068000
1517281654884776795	1000 63 1.000000 0.422000 0.457000 1600 52 1.100000 3.615000 4.139000 600 69 1.000000 0.055000 0.055000 1.200000 0.054000 0.065000
1517281655432704211	1000 63 1.000000 0.421000 0.455000 1600 52 1.100000 3.635000 4.162000 600 69 1.000000 0.055000 0.055000 1.200000 0.059000 0.071000
1517281655984800087	1000 63 1.000000 0.418000 0.452000 1600 52 1.100000 3.638000 4.165000 600 69 1.000000 0.055000 0.055000 1.200000 0.056000 0.067000
1517281656548844962	1000 63 1.000000 0.420000 0.454000 1600 52 1.100000 3.647000 4.168000 600 69 1.000000 0.055000 0.055000 1.200000 0.054000 0.065000
1517281657100846503	1000 63 1.000000 0.424000 0.459000 1600 52 1.100000 3.639000 4.166000 600 69 1.000000 0.055000 0.055000 1.200000 0.047000 0.056000
1517281657644735045	1000 63 1.000000 0.429000 0.464000 1600 52 1.100000 3.599000 4.120000 600 69 1.000000 0.055000 0.055000 1.200000 0.054000 0.065000
1517281658208641920	1000 63 1.000000 0.414000 0.448000 1600 52 1.100000 3.617000 4.141000 600 69 1.000000 0.055000 0.055000 1.200000 0.063000 0.076000
1517281658764710295	1000 63 1.000000 0.416000 0.450000 1600 52 1.100000 3.549000 4.063000 600 69 1.000000 0.055000 0.055000 1.200000 0.070000 0.084000
1517281659324714420	1000 63 1.000000 0.400000 0.433000 1600 52 1.100000 3.581000 4.100000 600 69 1.000000 0.055000 0.055000 1.200000 0.066000 0.079000
1517281659888687504	1000 63 1.000000 0.418000 0.452000 1600 52 1.100000 3.642000 4.170000 600 69 1.000000 0.055000 0.055000 1.200000 0.058000 0.070000
1517281660436765670	1000 63 1.000000 0.421000 0.455000 1600 52 1.100000 3.623000 4.148000 600 69 1.000000 0.055000 0.055000 1.200000 0.062000 0.074000
1517281660992708920	1000 63 1.000000 0.424000 0.459000 1600 52 1.100000 3.599000 4.120000 600 69 1.000000 0.055000 0.055000 1.200000 0.071000 0.085000
1517281661556689712	1000 63 1.000000 0.417000 0.451000 1600 52 1.100000 3.598000 4.119000 600 69 1.000000 0.055000 0.055000 1.200000 0.070000 0.084000
1517281662112680587	1000 63 1.000000 0.423000 0.458000 1600 52 1.100000 3.638000 4.165000 600 69 1.000000 0.055000 0.055000 1.200000 0.064000 0.077000
1517281662660749129	1000 63 1.000000 0.427000 0.462000 1600 52 1.100000 3.629000 4.155000 600 69 1.000000 0.055000 0.055000 1.200000 0.056000 0.067000
1517281663212576296	1000 63 1.000000 0.415000 0.449000 1600 52 1.100000 3.643000 4.171000 600 69 1.000000 0.055000 0.055000 1.200000 0.062000 0.074000
1517281663764670796	1000 63 1.000000 0.414000 0.448000 1600 52 1.100000 3.657000 4.187000 600 69 1.000000 0.055000 0.055000 1.200000 0.059000 0.071000
1517281664324572588	1000 63 1.000000 0.417000 0.451000 1600 52 1.100000 3.645000 4.173000 600 70 1.000000 0.055000 0.055000 1.200000 0.061000 0.073000
1517281664884642213	1000 63 1.000000 0.409000 0.442000 1600 52 1.100000 3.660000 4.190000 600 70 1.000000 0.055000 0.055000 1.200000 0.067000 0.081000
1517281665444624588	1000 63 1.000000 0.416000 0.450000 1600 52 1.100000 3.645000 4.173000 600 70 1.000000 0.055000 0.055000 1.200000 0.071000 0.085000
1517281666004737254	1000 63 1.000000 0.416000 0.450000 1600 52 1.100000 3.658000 4.188000 600 70 1.000000 0.055000 0.055000 1.200000 0.062000 0.074000
1517281666564579713	1000 63 1.000000 0.422000 0.457000 1600 52 1.100000 3.648000 4.176000 600 70 1.000000 0.055000 0.055000 1.200000 0.056000 0.067000
1517281667116734880	1000 63 1.000000 0.425000 0.460000 1600 52 1.100000 3.670000 4.202000 600 69 1.000000 0.055000 0.055000 1.200000 0.050000 0.060000
1517281667668611671	1000 63 1.000000 0.418000 0.452000 1600 52 1.100000 3.657000 4.187000 600 70 1.000000 0.055000 0.055000 1.200000 0.061000 0.073000
1517281668224656713	1000 63 1.000000 0.422000 0.457000 1600 52 1.100000 3.567000 4.077000 600 69 1.000000 0.055000 0.055000 1.200000 0.078000 0.094000
1517281668780773088	1000 63 1.000000 0.426000 0.461000 1600 52 1.100000 3.610000 4.133000 600 69 1.000000 0.055000 0.055000 1.200000 0.068000 0.082000
1517281669340589880	1000 63 1.000000 0.417000 0.451000 1600 52 1.100000 3.545000 4.059000 600 69 1.000000 0.055000 0.055000 1.200000 0.073000 0.088000
1517281669900562796	1000 63 1.000000 0.422000 0.457000 1600 52 1.100000 3.598000 4.112000 600 69 1.000000 0.055000 0.055000 1.200000 0.063000 0.076000
1517281670448591713	1000 63 1.000000 0.425000 0.460000 1600 52 1.100000 3.633000 4.159000 600 69 1.000000 0.055000 0.055000 1.200000 0.062000 0.074000
1517281670996615963	1000 63 1.000000 0.427000 0.462000 1600 52 1.100000 3.655000 4.184000 600 69 1.000000 0.055000 0.055000 1.200000 0.058000 0.070000
1517281671556759672	1000 63 1.000000 0.429000 0.464000 1600 52 1.100000 3.631000 4.157000 600 69 1.000000 0.055000 0.055000 1.200000 0.046000 0.055000
1517281672112722880	1000 63 1.000000 0.428000 0.463000 1600 52 1.100000 3.558000 4.073000 600 69 1.000000 0.055000 0.055000 1.200000 0.071000 0.085000
1517281672668766838	1000 63 1.000000 0.432000 0.467000 1600 52 1.100000 3.634000 4.160000 600 69 1.000000 0.055000 0.055000 1.200000 0.051000 0.061000
1517281673224679964	1000 63 1.000000 0.418000 0.452000 1600 52 1.100000 3.659000 4.189000 600 69 1.000000 0.055000 0.055000 1.200000 0.057000 0.068000
1517281673772672047	1000 63 1.000000 0.414000 0.448000 1600 52 1.100000 3.657000 4.187000 600 69 1.000000 0.055000 0.055000 1.200000 0.067000 0.081000
1517281674320760547	1000 63 1.000000 0.416000 0.450000 1600 52 1.100000 3.620000 4.144000 600 69 1.000000 0.055000 0.055000 1.200000 0.068000 0.082000
1517281674868665630	1000 63 1.000000 0.424000 0.459000 1600 52 1.100000 3.668000 4.199000 600 69 1.000000 0.055000 0.055000 1.200000 0.054000 0.065000
1517281675420555464	1000 63 1.000000 0.423000 0.458000 1600 52 1.100000 3.622000 4.147000 600 70 1.000000 0.055000 0.055000 1.200000 0.049000 0.059000
1517281675968559714	1000 63 1.000000 0.427000 0.462000 1600 52 1.100000 3.615000 4.139000 600 69 1.000000 0.055000 0.055000 1.200000 0.051000 0.061000
1517281676528692589	1000 63 1.000000 0.424000 0.459000 1600 52 1.100000 3.642000 4.170000 600 69 1.000000 0.055000 0.055000 1.200000 0.058000 0.070000
1517281677076698964	1000 63 1.000000 0.426000 0.461000 1600 52 1.100000 3.621000 4.146000 600 69 1.000000 0.055000 0.055000 1.200000 0.070000 0.084000
1517281677640646756	1000 63 1.000000 0.426000 0.461000 1600 52 1.100000 3.644000 4.172000 600 69 1.000000 0.055000 0.055000 1.200000 0.049000 0.059000
1517281678192741214	1000 63 1.000000 0.429000 0.464000 1600 52 1.100000 3.637000 4.157000 600 69 1.000000 0.055000 0.055000 1.200000 0.065000 0.078000
1517281678740629298	1000 63 1.000000 0.427000 0.462000 1600 52 1.100000 3.648000 4.176000 600 70 1.000000 0.055000 0.055000 1.200000 0.047000 0.056000
1517281679300643339	1000 63 1.000000 0.428000 0.463000 1600 52 1.100000 3.669000 4.201000 600 70 1.000000 0.055000 0.055000 1.200000 0.045000 0.054000
1517281679844641298	1000 63 1.000000 0.429000 0.464000 1600 52 1.100000 3.661000 4.191000 600 69 1.000000 0.055000 0.055000 1.200000 0.046000 0.055000
1517281680404762881	1000 63 1.000000 0.423000 0.458000 1600 52 1.100000 3.581000 4.093000 600 69 1.000000 0.055000 0.055000 1.200000 0.053000 0.063000
1517281680964623131	1000 63 1.000000 0.430000 0.465000 1600 52 1.100000 3.641000 4.168000 600 69 1.000000 0.055000 0.055000 1.200000 0.060000 0.072000
1517281681524616298	1000 63 1.000000 0.429000 0.464000 1600 52 1.100000 3.665000 4.196000 600 70 1.000000 0.055000 0.055000 1.200000 0.054000 0.065000
1517281682080837340	1000 63 1.000000 0.425000 0.460000 1600 52 1.100000 3.674000 4.206000 600 70 1.000000 0.055000 0.055000 1.200000 0.053000 0.064000
1517281682644667256	1000 63 1.000000 0.426000 0.461000 1600 52 1.100000 3.641000 4.168000 600 70 1.000000 0.055000 0.055000 1.200000 0.053000 0.063000
1517281683200651673	1000 63 1.000000 0.424000 0.459000 1600 52 1.100000 3.647000 4.175000 600 70 1.000000 0.055000 0.055000 1.200000 0.048000 0.057000
1517281683752625631	1000 63 1.000000 0.425000 0.460000 1600 52 1.100000 3.647000 4.175000 600 70 1.000000 0.055000 0.055000 1.200000 0.057000 0.068000
1517281684312645673	1000 63 1.000000 0.426000 0.461000 1600 52 1.100000 3.637000 4.164000 600 69 1.000000 0.055000 0.055000 1.200000 0.053000 0.064000
1517281684876578340	1000 63 1.000000 0.426000 0.461000 1600 52 1.100000 3.655000 4.184000 600 70 1.000000 0.055000 0.055000 1.200000 0.049000 0.059000
1517281685440622132	1000 63 1.000000 0.427000 0.462000 1600 52 1.100000 3.629000 4.155000 600 70 1.000000 0.055000 0.055000 1.200000 0.047000 0.056000
1517281685992568090	1000 63 1.000000 0.425000 0.460000 1600 52 1.100000 3.670000 4.202000 600 70 1.000000 0.055000 0.055000 1.200000 0.049000 0.059000
1517281686552571007	1000 63 1.000000 0.426000 0.461000 1600 52 1.100000 3.677000 4.210000 600 70 1.000000 0.055000 0.055000 1.200000 0.047000 0.056000
1517281687108618090	1000 63 1.000000 0.429000 0.464000 1600 52 1.100000 3.668000 4.199000 600 70 1.000000 0.055000 0.055000 1.200000 0.042000 0.050000
1517281687660559590	1000 63 1.000000 0.426000 0.461000 1600 52 1.100000 3.666000 4.197000 600 70 1.000000 0.055000 0.055000 1.200000 0.045000 0.054000
1517281688220578049	1000 63 1.000000 0.429000 0.464000 1600 52 1.100000 3.678000 4.211000 600 70 1.000000 0.055000 0.055000 1.200000 0.042000 0.050000
1517281688780531715	1000 63 1.000000 0.427000 0.462000 1600 52 1.100000 3.677000 4.210000 600 70 1.000000 0.055000 0.055000 1.200000 0.049000 0.059000
1517281689340696965	1000 63 1.000000 0.430000 0.465000 1600 52 1.100000 3.565000 4.081000 600 70 1.000000 0.055000 0.055000 1.200000 0.046000 0.055000
1517281689888535257	1000 63 1.000000 0.431000 0.466000 1600 52 1.100000 3.648000 4.176000 600 70 1.000000 0.055000 0.055000 1.200000 0.048000 0.057000
1517281690452675341	1000 63 1.000000 0.425000 0.460000 1600 52 1.100000 3.664000 4.195000 600 70 1.000000 0.055000 0.055000 1.200000 0.051000 0.061000
1517281691012808507	1000 63 1.000000 0.417000 0.451000 1600 52 1.100000 3.634000 4.160000 600 70 1.000000 0.055000 0.055000 1.200000 0.061000 0.073000
1517281691576717549	1000 63 1.000000 0.419000 0.453000 1600 52 1.100000 3.606000 4.128000 600 70 1.000000 0.055000 0.055000 1.200000 0.058000 0.070000
1517281692136702466	1000 63 1.000000 0.428000 0.463000 1600 52 1.100000 3.663000 4.194000 600 70 1.000000 0.055000 0.055000 1.200000 0.047000 0.056000
1517281692700628966	1000 63 1.000000 0.421000 0.455000 1600 52 1.100000 3.649000 4.178000 600 70 1.000000 0.055000 0.055000 1.200000 0.059000 0.071000
1517281693252543091	1000 63 1.000000 0.429000 0.464000 1600 52 1.100000 3.653000 4.182000 600 70 1.000000 0.055000 0.055000 1.200000 0.051000 0.061000
1517281693808741924	1000 63 1.000000 0.430000 0.465000 1600 52 1.100000 3.655000 4.184000 600 70 1.000000 0.055000 0.055000 1.200000 0.043000 0.051000
1517281694356660049	1000 63 1.000000 0.429000 0.464000 1600 52 1.100000 3.680000 4.213000 600 70 1.000000 0.055000 0.055000 1.200000 0.039000 0.047000
1517281694912708508	1000 63 1.000000 0.430000 0.465000 1600 52 1.100000 3.663000 4.194000 600 70 1.000000 0.055000 0.055000 1.200000 0.043000 0.051000
1517281695468644300	1000 63 1.000000 0.428000 0.463000 1600 52 1.100000 3.674000 4.206000 600 70 1.000000 0.055000 0.055000 1.200000 0.044000 0.053000
1517281696024618341	1000 63 1.000000 0.429000 0.464000 1600 52 1.100000 3.626000 4.151000 600 70 1.000000 0.055000 0.055000 1.200000 0.045000 0.054000
1517281696592624550	1000 63 1.000000 0.429000 0.464000 1600 52 1.100000 3.665000 4.196000 600 70 1.000000 0.055000 0.055000 1.200000 0.047000 0.056000
1517281697152766508	1000 63 1.000000 0.426000 0.461000 1600 52 1.100000 3.669000 4.201000 600 70 1.000000 0.055000 0.055000 1.200000 0.063000 0.076000
1517281697708654841	1000 63 1.000000 0.430000 0.465000 1600 52 1.100000 3.659000 4.189000 600 70 1.000000 0.055000 0.055000 1.200000 0.048000 0.057000
1517281698264707092	1000 63 1.000000 0.431000 0.466000 1600 52 1.100000 3.660000 4.190000 600 70 1.000000 0.055000 0.055000 1.200000 0.047000 0.056000
1517281698824596842	1000 63 1.000000 0.429000 0.464000 1600 52 1.100000 3.642000 4.170000 600 70 1.000000 0.055000 0.055000 1.200000 0.058000 0.070000
1517281699384723175	1000 63 1.000000 0.429000 0.464000 1600 52 1.100000 3.653000 4.182000 600 70 1.000000 0.055000 0.055000 1.200000 0.047000 0.056000
1517281699960767842	1000 63 1.000000 0.411000 0.445000 1600 52 1.100000 3.654000 4.183000 600 70 1.000000 0.055000 0.055000 1.200000 0.069000 0.083000
1517281700516773717	1000 63 1.000000 0.427000 0.462000 1600 52 1.100000 3.636000 4.163000 600 70 1.000000 0.055000 0.055000 1.200000 0.055000 0.066000
1517281701076759425	1000 63 1.000000 0.429000 0.464000 1600 52 1.100000 3.487000 3.985000 600 70 1.000000 0.055000 0.055000 1.200000 0.065000 0.078000
1517281701636678592	1000 63 1.000000 0.428000 0.463000 1600 52 1.100000 3.632000 4.158000 600 70 1.000000 0.055000 0.055000 1.200000 0.059000 0.071000
1517281702192625175	1000 62 1.000000 0.426000 0.461000 1600 52 1.100000 3.598000 4.119000 600 69 1.000000 0.055000 0.055000 1.200000 0.055000 0.066000
1517281702736696509	1000 63 1.000000 0.427000 0.462000 1600 52 1.100000 3.567000 4.084000 600 70 1.000000 0.055000 0.055000 1.200000 0.067000 0.081000
1517281703288731050	1000 63 1.000000 0.431000 0.466000 1600 52 1.100000 3.635000 4.162000 600 70 1.000000 0.055000 0.055000 1.200000 0.059000 0.071000
1517281703848729092	1000 63 1.000000 0.421000 0.455000 1600 52 1.100000 3.541000 4.054000 600 70 1.000000 0.055000 0.055000 1.200000 0.083000 0.100000
1517281704400648967	1000 63 1.000000 0.427000 0.462000 1600 52 1.100000 3.544000 4.050000 600 70 1.000000 0.055000 0.055000 1.200000 0.082000 0.099000
1517281704960704759	1000 63 1.000000 0.423000 0.458000 1600 52 1.100000 3.629000 4.155000 600 70 1.000000 0.055000 0.055000 1.200000 0.058000 0.070000
1517281705512727301	1000 63 1.000000 0.423000 0.458000 1600 52 1.100000 3.647000 4.175000 600 70 1.000000 0.055000 0.055000 1.200000 0.056000 0.067000
1517281706068599384	1000 63 1.000000 0.422000 0.457000 1600 52 1.100000 3.635000 4.162000 600 70 1.000000 0.055000 0.055000 1.200000 0.062000 0.074000
1517281706624679134	1000 63 1.000000 0.427000 0.462000 1600 52 1.100000 3.661000 4.191000 600 70 1.000000 0.055000 0.055000 1.200000 0.049000 0.059000
1517281707184619968	1000 63 1.000000 0.423000 0.458000 1600 52 1.100000 3.626000 4.151000 600 70 1.000000 0.055000 0.055000 1.200000 0.054000 0.065000
1517281707748729676	1000 63 1.000000 0.428000 0.463000 1600 52 1.100000 3.654000 4.183000 600 70 1.000000 0.055000 0.055000 1.200000 0.044000 0.053000
1517281708304574759	1000 63 1.000000 0.426000 0.461000 1600 52 1.100000 3.653000 4.182000 600 70 1.000000 0.055000 0.055000 1.200000 0.050000 0.060000
1517281708856778468	1000 63 1.000000 0.430000 0.465000 1600 52 1.100000 3.666000 4.197000 600 70 1.000000 0.055000 0.055000 1.200000 0.044000 0.053000
1517281709424648343	1000 64 1.000000 0.420000 0.454000 1600 52 1.100000 3.670000 4.202000 600 70 1.000000 0.055000 0.055000 1.200000 0.047000 0.056000
1517281709984692593	1000 64 1.000000 0.426000 0.461000 1600 52 1.100000 3.660000 4.190000 600 70 1.000000 0.055000 0.055000 1.200000 0.048000 0.057000
1517281710544755593	1000 63 1.000000 0.430000 0.465000 1600 52 1.100000 3.647000 4.175000 600 70 1.000000 0.055000 0.055000 1.200000 0.044000 0.053000
1517281711104657176	1000 63 1.000000 0.432000 0.467000 1600 52 1.100000 3.640000 4.167000 600 70 1.000000 0.055000 0.055000 1.200000 0.043000 0.051000
1517281711664595093	1000 63 1.000000 0.427000 0.462000 1600 52 1.100000 3.652000 4.181000 600 70 1.000000 0.055000 0.055000 1.200000 0.052000 0.062000
1517281712224585885	1000 63 1.000000 0.430000 0.465000 1600 52 1.100000 3.648000 4.176000 600 70 1.000000 0.055000 0.055000 1.200000 0.048000 0.057000
1517281712788652052	1000 63 1.000000 0.428000 0.463000 1600 52 1.100000 3.618000 4.142000 600 70 1.000000 0.055000 0.055000 1.200000 0.049000 0.059000
1517281713344588760	1000 63 1.000000 0.427000 0.462000 1600 52 1.100000 3.615000 4.139000 600 70 1.000000 0.055000 0.055000 1.200000 0.045000 0.054000
1517281713904734968	1000 62 1.000000 0.432000 0.467000 1600 52 1.100000 3.679000 4.212000 600 70 1.000000 0.055000 0.055000 1.200000 0.042000 0.050000
1517281714464724885	1000 63 1.000000 0.432000 0.467000 1600 52 1.100000 3.512000 4.014000 600 69 1.000000 0.055000 0.055000 1.200000 0.095000 0.114000
1517281715024688427	1000 63 1.000000 0.429000 0.464000 1600 52 1.100000 3.594000 4.115000 600 70 1.000000 0.055000 0.055000 1.200000 0.065000 0.078000
1517281715584755677	1000 63 1.000000 0.431000 0.466000 1600 52 1.100000 3.598000 4.119000 600 69 1.000000 0.055000 0.055000 1.200000 0.050000 0.060000
1517281716140746677	1000 63 1.000000 0.430000 0.465000 1600 52 1.100000 3.604000 4.126000 600 69 1.000000 0.055000 0.055000 1.200000 0.068000 0.082000
1517281716696694802	1000 63 1.000000 0.430000 0.465000 1600 52 1.100000 3.584000 4.103000 600 70 1.000000 0.055000 0.055000 1.200000 0.067000 0.081000
1517281717260650010	1000 63 1.000000 0.431000 0.466000 1600 52 1.100000 3.671000 4.203000 600 70 1.000000 0.055000 0.055000 1.200000 0.041000 0.049000
1517281717820600261	1000 63 1.000000 0.433000 0.468000 1600 52 1.100000 3.647000 4.175000 600 70 1.000000 0.055000 0.055000 1.200000 0.061000 0.073000
1517281718364696719	1000 63 1.000000 0.426000 0.461000 1600 52 1.100000 3.676000 4.209000 600 70 1.000000 0.055000 0.055000 1.200000 0.047000 0.056000
1517281718920725636	1000 62 1.000000 0.427000 0.462000 1600 52 1.100000 3.651000 4.180000 600 69 1.000000 0.055000 0.055000 1.200000 0.058000 0.070000
1517281719425752844	1000 54 1.000000 0.431000 0.466000 1600 50 1.100000 2.525000 2.878000 600 58 1.000000 0.055000 0.055000 1.200000 0.070000 0.084000
1517281719930216886	1000 50 1.000000 0.430000 0.465000 1600 48 1.100000 0.261000 0.296000 600 53 1.000000 0.055000 0.055000 1.200000 0.036000 0.043000
1517281720434656469	1000 48 1.000000 0.427000 0.462000 1600 46 1.100000 0.264000 0.299000 600 51 1.000000 0.055000 0.055000 1.200000 0.039000 0.047000
1517281720938990886	1000 47 1.000000 0.428000 0.463000 1600 45 1.100000 0.249000 0.283000 600 49 1.000000 0.054000 0.054000 1.200000 0.035000 0.042000
1517281721443795428	1000 45 1.000000 0.426000 0.461000 1600 44 1.100000 0.244000 0.277000 600 48 1.000000 0.054000 0.054000 1.200000 0.034000 0.041000
1517281721948275636	1000 44 1.000000 0.428000 0.463000 1600 43 1.100000 0.234000 0.266000 600 47 1.000000 0.053000 0.053000 1.200000 0.031000 0.037000
1517281722452708178	1000 44 1.000000 0.426000 0.461000 1600 42 1.100000 0.255000 0.289000 600 46 1.000000 0.053000 0.053000 1.200000 0.033000 0.039000
1517281722957206553	1000 43 1.000000 0.424000 0.459000 1600 42 1.100000 0.251000 0.285000 600 45 1.000000 0.053000 0.053000 1.200000 0.036000 0.043000
1517281723461776595	1000 42 1.000000 0.425000 0.461000 1600 41 1.100000 0.247000 0.280000 600 44 1.000000 0.053000 0.053000 1.200000 0.035000 0.042000
1517281723966190970	1000 42 1.000000 0.427000 0.463000 1600 40 1.100000 0.231000 0.262000 600 44 1.000000 0.053000 0.053000 1.200000 0.032000 0.038000
1517281724470601345	1000 41 1.000000 0.427000 0.462000 1600 40 1.100000 0.227000 0.258000 600 43 1.000000 0.053000 0.053000 1.200000 0.030000 0.036000
1517281724974919136	1000 41 1.000000 0.426000 0.461000 1600 40 1.100000 0.224000 0.254000 600 43 1.000000 0.053000 0.053000 1.200000 0.034000 0.041000
1517281725479355178	1000 40 1.000000 0.406000 0.440000 1600 39 1.100000 0.219000 0.249000 600 42 1.000000 0.053000 0.053000 1.200000 0.030000 0.036000
1517281725983698387	1000 40 1.000000 0.331000 0.359000 1600 38 1.100000 0.221000 0.251000 600 42 1.000000 0.053000 0.053000 1.200000 0.043000 0.051000
1517281726488255387	1000 39 1.000000 0.332000 0.360000 1600 38 1.100000 0.219000 0.249000 600 42 1.000000 0.053000 0.053000 1.200000 0.034000 0.041000
1517281726992619220	1000 39 1.000000 0.332000 0.360000 1600 38 1.100000 0.209000 0.237000 600 41 1.000000 0.053000 0.053000 1.200000 0.028000 0.033000
1517281727496917428	1000 39 1.000000 0.331000 0.359000 1600 37 1.100000 0.222000 0.252000 600 41 1.000000 0.052000 0.052000 1.200000 0.031000 0.037000
1517281728001153928	1000 38 1.000000 0.332000 0.360000 1600 37 1.100000 0.241000 0.274000 600 41 1.000000 0.053000 0.053000 1.200000 0.029000 0.035000
1517281728505425595	1000 38 1.000000 0.332000 0.360000 1600 37 1.100000 0.211000 0.239000 600 40 1.000000 0.053000 0.053000 1.200000 0.028000 0.033000
1517281729009714095	1000 38 1.000000 0.332000 0.360000 1600 37 1.100000 0.228000 0.259000 600 40 1.000000 0.052000 0.052000 1.200000 0.027000 0.032000
1517281729514018095	1000 38 1.000000 0.332000 0.360000 1600 36 1.100000 0.228000 0.259000 600 40 1.000000 0.052000 0.052000 1.200000 0.029000 0.035000
1517281730018208929	1000 37 1.000000 0.330000 0.358000 1600 36 1.100000 0.215000 0.244000 600 40 1.000000 0.052000 0.052000 1.200000 0.034000 0.041000
1517281730522395387	1000 37 1.000000 0.332000 0.360000 1600 36 1.100000 0.237000 0.269000 600 40 1.000000 0.052000 0.052000 1.200000 0.028000 0.033000
1517281731026673595	1000 37 1.000000 0.332000 0.360000 1600 36 1.100000 0.215000 0.244000 600 39 1.000000 0.052000 0.052000 1.200000 0.029000 0.035000
1517281731531277304	1000 37 1.000000 0.330000 0.358000 1600 36 1.100000 0.337000 0.383000 600 39 1.000000 0.052000 0.052000 1.200000 0.032000 0.038000
1517281732035684346	1000 37 1.000000 0.331000 0.359000 1600 35 1.100000 0.236000 0.268000 600 39 1.000000 0.052000 0.052000 1.200000 0.028000 0.033000
1517281732539963179	1000 37 1.000000 0.330000 0.358000 1600 35 1.100000 0.211000 0.240000 600 39 1.000000 0.052000 0.052000 1.200000 0.030000 0.036000
1517281733044145929	1000 36 1.000000 0.332000 0.360000 1600 35 1.100000 0.227000 0.258000 600 39 1.000000 0.052000 0.052000 1.200000 0.028000 0.033000
1517281733548783387	1000 37 1.000000 0.332000 0.360000 1600 35 1.100000 0.226000 0.257000 600 39 1.000000 0.052000 0.052000 1.200000 0.029000 0.035000
1517281734053176221	1000 37 1.000000 0.331000 0.359000 1600 35 1.100000 0.414000 0.470000 600 39 1.000000 0.052000 0.052000 1.200000 0.030000 0.036000
1517281734557497513	1000 36 1.000000 0.332000 0.360000 1600 35 1.100000 0.234000 0.266000 600 38 1.000000 0.052000 0.052000 1.200000 0.031000 0.037000
1517281735061715054	1000 36 1.000000 0.332000 0.360000 1600 35 1.100000 0.214000 0.243000 600 38 1.000000 0.052000 0.052000 1.200000 0.028000 0.033000
1517281735566048638	1000 36 1.000000 0.331000 0.359000 1600 35 1.100000 0.217000 0.246000 600 38 1.000000 0.052000 0.052000 1.200000 0.027000 0.032000
1517281736070325346	1000 36 1.000000 0.332000 0.360000 1600 34 1.100000 0.228000 0.259000 600 38 1.000000 0.052000 0.052000 1.200000 0.028000 0.033000
1517281736574879513	1000 36 1.000000 0.332000 0.360000 1600 34 1.100000 0.308000 0.350000 600 38 1.000000 0.052000 0.052000 1.200000 0.033000 0.039000
1517281737079365096	1000 36 1.000000 0.330000 0.358000 1600 34 1.100000 0.239000 0.271000 600 38 1.000000 0.052000 0.052000 1.200000 0.033000 0.039000
1517281737583850638	1000 36 1.000000 0.333000 0.361000 1600 34 1.100000 0.226000 0.257000 600 38 1.000000 0.052000 0.052000 1.200000 0.027000 0.032000
1517281738088276055	1000 35 1.000000 0.328000 0.355000 1600 34 1.100000 0.218000 0.247000 600 38 1.000000 0.052000 0.052000 1.200000 0.037000 0.044000
1517281738592570555	1000 35 1.000000 0.236000 0.256000 1600 34 1.100000 0.201000 0.228000 600 37 1.000000 0.052000 0.052000 1.200000 0.026000 0.031000
1517281739096856763	1000 35 1.000000 0.238000 0.260000 1600 34 1.100000 0.204000 0.232000 600 37 1.000000 0.052000 0.052000 1.200000 0.025000 0.030000
1517281739601158930	1000 35 1.000000 0.236000 0.256000 1600 34 1.100000 0.212000 0.241000 600 37 1.000000 0.052000 0.052000 1.200000 0.030000 0.036000
1517281740105408388	1000 35 1.000000 0.238000 0.259000 1600 33 1.100000 0.231000 0.262000 600 37 1.000000 0.052000 0.052000 1.200000 0.027000 0.032000
1517281740609489305	1000 35 1.000000 0.236000 0.258000 1600 33 1.100000 0.211000 0.240000 600 37 1.000000 0.052000 0.052000 1.200000 0.028000 0.033000
1517281741113750097	1000 34 1.000000 0.238000 0.259000 1600 33 1.100000 0.219000 0.249000 600 37 1.000000 0.052000 0.052000 1.200000 0.025000 0.030000
1517281741618368013	1000 34 1.000000 0.237000 0.257000 1600 33 1.100000 0.343000 0.390000 600 37 1.000000 0.052000 0.052000 1.200000 0.028000 0.033000
1517281742122871888	1000 34 1.000000 0.236000 0.256000 1600 33 1.100000 0.209000 0.237000 600 37 1.000000 0.052000 0.052000 1.200000 0.027000 0.032000
1517281742627140889	1000 34 1.000000 0.237000 0.257000 1600 33 1.100000 0.227000 0.258000 600 37 1.000000 0.052000 0.052000 1.200000 0.024000 0.028000
1517281743131594139	1000 34 1.000000 0.236000 0.256000 1600 33 1.100000 0.210000 0.238000 600 37 1.000000 0.051000 0.051000 1.200000 0.025000 0.030000
1517281743636160014	1000 35 1.000000 0.234000 0.254000 1600 33 1.100000 0.223000 0.253000 600 37 1.000000 0.051000 0.051000 1.200000 0.038000 0.045000
1517281744140449472	1000 34 1.000000 0.237000 0.257000 1600 33 1.100000 0.202000 0.229000 600 37 1.000000 0.051000 0.051000 1.200000 0.025000 0.030000
1517281744644702097	1000 34 1.000000 0.237000 0.257000 1600 33 1.100000 0.200000 0.227000 600 36 1.000000 0.052000 0.052000 1.200000 0.025000 0.030000
1517281745149066764	1000 34 1.000000 0.237000 0.257000 1600 32 1.100000 0.227000 0.258000 600 36 1.000000 0.052000 0.052000 1.200000 0.026000 0.031000
1517281745653315681	1000 34 1.000000 0.236000 0.256000 1600 32 1.100000 0.214000 0.243000 600 36 1.000000 0.052000 0.052000 1.200000 0.027000 0.032000
1517281746157489556	1000 34 1.000000 0.237000 0.257000 1600 32 1.100000 0.198000 0.225000 600 36 1.000000 0.052000 0.052000 1.200000 0.026000 0.031000
1517281746662038514	1000 34 1.000000 0.238000 0.258000 1600 32 1.100000 0.326000 0.370000 600 36 1.000000 0.052000 0.052000 1.200000 0.028000 0.033000
1517281747166506306	1000 34 1.000000 0.234000 0.254000 1600 32 1.100000 0.224000 0.254000 600 36 1.000000 0.052000 0.052000 1.200000 0.036000 0.043000
1517281747670713097	1000 34 1.000000 0.236000 0.256000 1600 32 1.100000 0.214000 0.243000 600 36 1.000000 0.051000 0.051000 1.200000 0.025000 0.030000
1517281748174980014	1000 34 1.000000 0.237000 0.257000 1600 32 1.100000 0.230000 0.261000 600 36 1.000000 0.052000 0.052000 1.200000 0.028000 0.033000
1517281748679398223	1000 34 1.000000 0.237000 0.259000 1600 32 1.100000 0.203000 0.231000 600 36 1.000000 0.052000 0.052000 1.200000 0.028000 0.033000
1517281749183695056	1000 33 1.000000 0.183000 0.200000 1600 31 1.100000 0.204000 0.232000 600 36 1.000000 0.052000 0.052000 1.200000 0.024000 0.028000
1517281749687949264	1000 33 1.000000 0.142000 0.155000 1600 31 1.100000 0.200000 0.228000 600 36 1.000000 0.052000 0.052000 1.200000 0.024000 0.028000
1517281750192193056	1000 33 1.000000 0.142000 0.155000 1600 31 1.100000 0.194000 0.221000 600 36 1.000000 0.052000 0.052000 1.200000 0.023000 0.027000
1517281750696609556	1000 33 1.000000 0.142000 0.155000 1600 31 1.100000 0.222000 0.253000 600 35 1.000000 0.051000 0.051000 1.200000 0.025000 0.030000
1517281751200884140	1000 32 1.000000 0.142000 0.155000 1600 31 1.100000 0.196000 0.223000 600 35 1.000000 0.051000 0.051000 1.200000 0.024000 0.028000
1517281751705478640	1000 33 1.000000 0.144000 0.157000 1600 31 1.100000 0.334000 0.380000 600 35 1.000000 0.051000 0.051000 1.200000 0.028000 0.033000
1517281752209953556	1000 32 1.000000 0.142000 0.155000 1600 31 1.100000 0.221000 0.251000 600 35 1.000000 0.051000 0.051000 1.200000 0.024000 0.028000
1517281752714211723	1000 32 1.000000 0.143000 0.156000 1600 31 1.100000 0.195000 0.221000 600 35 1.000000 0.052000 0.052000 1.200000 0.023000 0.027000
1517281753218572348	1000 32 1.000000 0.142000 0.155000 1600 31 1.100000 0.218000 0.248000 600 35 1.000000 0.051000 0.051000 1.200000 0.023000 0.027000
1517281753723073848	1000 33 1.000000 0.142000 0.155000 1600 31 1.100000 0.213000 0.242000 600 35 1.000000 0.051000 0.051000 1.200000 0.032000 0.038000
1517281754227573223	1000 32 1.000000 0.142000 0.155000 1600 31 1.100000 0.197000 0.224000 600 35 1.000000 0.051000 0.051000 1.200000 0.023000 0.027000
1517281754731952848	1000 32 1.000000 0.142000 0.155000 1600 31 1.100000 0.198000 0.225000 600 35 1.000000 0.051000 0.051000 1.200000 0.023000 0.027000
1517281755236170723	1000 32 1.000000 0.139000 0.152000 1600 30 1.100000 0.193000 0.219000 600 35 1.000000 0.051000 0.051000 1.200000 0.031000 0.037000
1517281755740508932	1000 32 1.000000 0.142000 0.155000 1600 30 1.100000 0.192000 0.218000 600 35 1.000000 0.051000 0.051000 1.200000 0.025000 0.030000
1517281756244802140	1000 32 1.000000 0.142000 0.155000 1600 30 1.100000 0.197000 0.224000 600 35 1.000000 0.051000 0.051000 1.200000 0.023000 0.027000
1517281756749342057	1000 32 1.000000 0.144000 0.157000 1600 30 1.100000 0.299000 0.339000 600 35 1.000000 0.051000 0.051000 1.200000 0.026000 0.031000
1517281757253664849	1000 32 1.000000 0.142000 0.155000 1600 30 1.100000 0.222000 0.253000 600 35 1.000000 0.051000 0.051000 1.200000 0.024000 0.028000
1517281757757906557	1000 32 1.000000 0.141000 0.154000 1600 30 1.100000 0.200000 0.227000 600 35 1.000000 0.051000 0.051000 1.200000 0.024000 0.028000
1517281758262174765	1000 32 1.000000 0.142000 0.155000 1600 30 1.100000 0.203000 0.231000 600 34 1.000000 0.051000 0.051000 1.200000 0.023000 0.027000
1517281758766443932	1000 32 1.000000 0.142000 0.155000 1600 30 1.100000 0.193000 0.220000 600 34 1.000000 0.051000 0.051000 1.200000 0.024000 0.028000
1517281759270610224	1000 32 1.000000 0.142000 0.155000 1600 30 1.100000 0.195000 0.222000 600 34 1.000000 0.051000 0.051000 1.200000 0.024000 0.028000
1517281759774727932	1000 31 1.000000 0.141000 0.154000 1600 30 1.100000 0.194000 0.221000 600 34 1.000000 0.051000 0.051000 1.200000 0.024000 0.028000
1517281760278922016	1000 32 1.000000 0.142000 0.155000 1600 30 1.100000 0.192000 0.218000 600 34 1.000000 0.052000 0.052000 1.200000 0.024000 0.028000
1517281760783313641	1000 31 1.000000 0.142000 0.155000 1600 30 1.100000 0.191000 0.217000 600 34 1.000000 0.051000 0.051000 1.200000 0.023000 0.027000
1517281761287559932	1000 31 1.000000 0.140000 0.153000 1600 30 1.100000 0.193000 0.220000 600 34 1.000000 0.051000 0.051000 1.200000 0.026000 0.031000
1517281761792146557	1000 31 1.000000 0.142000 0.155000 1600 30 1.100000 0.196000 0.223000 600 34 1.000000 0.051000 0.051000 1.200000 0.030000 0.036000
1517281762296475891	1000 31 1.000000 0.141000 0.154000 1600 30 1.100000 0.210000 0.239000 600 34 1.000000 0.051000 0.051000 1.200000 0.024000 0.028000
1517281762800770891	1000 31 1.000000 0.141000 0.154000 1600 30 1.100000 0.217000 0.247000 600 34 1.000000 0.051000 0.051000 1.200000 0.026000 0.031000
1517281763304927058	1000 31 1.000000 0.141000 0.154000 1600 30 1.100000 0.195000 0.222000 600 34 1.000000 0.051000 0.051000 1.200000 0.025000 0.030000
1517281763809395683	1000 32 1.000000 0.142000 0.155000 1600 30 1.100000 0.213000 0.242000 600 34 1.000000 0.051000 0.051000 1.200000 0.024000 0.028000
1517281764313655766	1000 31 1.000000 0.142000 0.155000 1600 30 1.100000 0.195000 0.222000 600 34 1.000000 0.051000 0.051000 1.200000 0.025000 0.030000
1517281764817971474	1000 31 1.000000 0.142000 0.155000 1600 30 1.100000 0.196000 0.223000 600 34 1.000000 0.051000 0.051000 1.200000 0.023000 0.027000
1517281765322124308	1000 31 1.000000 0.142000 0.155000 1600 29 1.100000 0.190000 0.216000 600 34 1.000000 0.051000 0.051000 1.200000 0.024000 0.028000
1517281765826383475	1000 31 1.000000 0.142000 0.155000 1600 29 1.100000 0.189000 0.215000 600 34 1.000000 0.051000 0.051000 1.200000 0.023000 0.027000
1517281766330654891	1000 31 1.000000 0.142000 0.155000 1600 29 1.100000 0.206000 0.234000 600 34 1.000000 0.051000 0.051000 1.200000 0.030000 0.036000
1517281766835322100	1000 31 1.000000 0.141000 0.154000 1600 29 1.100000 0.199000 0.226000 600 34 1.000000 0.051000 0.051000 1.200000 0.028000 0.033000
1517281767339743350	1000 31 1.000000 0.141000 0.154000 1600 29 1.100000 0.195000 0.221000 600 34 1.000000 0.051000 0.051000 1.200000 0.023000 0.027000
1517281767844140058	1000 31 1.000000 0.142000 0.155000 1600 29 1.100000 0.193000 0.220000 600 34 1.000000 0.051000 0.051000 1.200000 0.023000 0.027000
1517281768348435267	1000 31 1.000000 0.142000 0.155000 1600 29 1.100000 0.193000 0.219000 600 34 1.000000 0.051000 0.051000 1.200000 0.023000 0.027000
1517281768852773975	1000 31 1.000000 0.142000 0.155000 1600 29 1.100000 0.204000 0.232000 600 34 1.000000 0.051000 0.051000 1.200000 0.025000 0.030000
1517281769356992850	1000 31 1.000000 0.142000 0.155000 1600 29 1.100000 0.220000 0.250000 600 34 1.000000 0.051000 0.051000 1.200000 0.023000 0.027000
1517281769861137558	1000 31 1.000000 0.142000 0.155000 1600 29 1.100000 0.194000 0.221000 600 34 1.000000 0.051000 0.051000 1.200000 0.023000 0.027000
1517281770365362600	1000 31 1.000000 0.142000 0.155000 1600 29 1.100000 0.211000 0.240000 600 34 1.000000 0.051000 0.051000 1.200000 0.024000 0.028000
1517281770869572309	1000 31 1.000000 0.141000 0.154000 1600 29 1.100000 0.206000 0.234000 600 33 1.000000 0.051000 0.051000 1.200000 0.024000 0.028000
1517281771373743017	1000 30 1.000000 0.140000 0.153000 1600 29 1.100000 0.194000 0.220000 600 33 1.000000 0.051000 0.051000 1.200000 0.023000 0.027000
1517281771878324350	1000 31 1.000000 0.141000 0.154000 1600 29 1.100000 0.335000 0.381000 600 34 1.000000 0.051000 0.051000 1.200000 0.026000 0.031000
1517281772382722475	1000 31 1.000000 0.141000 0.154000 1600 29 1.100000 0.196000 0.223000 600 33 1.000000 0.051000 0.051000 1.200000 0.023000 0.027000
1517281772886941684	1000 31 1.000000 0.141000 0.154000 1600 29 1.100000 0.202000 0.229000 600 33 1.000000 0.051000 0.051000 1.200000 0.023000 0.027000
1517281773391355226	1000 31 1.000000 0.142000 0.155000 1600 29 1.100000 0.192000 0.218000 600 33 1.000000 0.051000 0.051000 1.200000 0.023000 0.027000
1517281773895808642	1000 31 1.000000 0.142000 0.155000 1600 29 1.100000 0.194000 0.220000 600 34 1.000000 0.051000 0.051000 1.200000 0.024000 0.028000
1517281774400174267	1000 31 1.000000 0.147000 0.161000 1600 29 1.100000 0.420000 0.477000 600 33 1.000000 0.051000 0.051000 1.200000 0.025000 0.030000
1517281774904466351	1000 30 1.000000 0.142000 0.155000 1600 29 1.100000 0.203000 0.231000 600 33 1.000000 0.051000 0.051000 1.200000 0.023000 0.027000
1517281775408817559	1000 30 1.000000 0.141000 0.154000 1600 29 1.100000 0.199000 0.226000 600 33 1.000000 0.051000 0.051000 1.200000 0.024000 0.028000
1517281775913143767	1000 30 1.000000 0.142000 0.155000 1600 29 1.100000 0.217000 0.247000 600 33 1.000000 0.051000 0.051000 1.200000 0.023000 0.027000
1517281776417446268	1000 30 1.000000 0.141000 0.154000 1600 29 1.100000 0.195000 0.222000 600 33 1.000000 0.051000 0.051000 1.200000 0.024000 0.028000
1517281776922000226	1000 30 1.000000 0.141000 0.154000 1600 29 1.100000 0.329000 0.374000 600 33 1.000000 0.051000 0.051000 1.200000 0.030000 0.036000
1517281777426394851	1000 30 1.000000 0.142000 0.155000 1600 29 1.100000 0.210000 0.239000 600 33 1.000000 0.051000 0.051000 1.200000 0.024000 0.028000
1517281777930641559	1000 30 1.000000 0.142000 0.155000 1600 29 1.100000 0.190000 0.216000 600 33 1.000000 0.051000 0.051000 1.200000 0.023000 0.027000
1517281778434849893	1000 30 1.000000 0.142000 0.155000 1600 29 1.100000 0.197000 0.224000 600 33 1.000000 0.051000 0.051000 1.200000 0.024000 0.028000
1517281778939278351	1000 30 1.000000 0.142000 0.155000 1600 29 1.100000 0.195000 0.222000 600 33 1.000000 0.051000 0.051000 1.200000 0.024000 0.028000
1517281779443624685	1000 30 1.000000 0.142000 0.155000 1600 29 1.100000 0.206000 0.234000 600 33 1.000000 0.051000 0.051000 1.200000 0.023000 0.027000
1517281779947931143	1000 30 1.000000 0.140000 0.153000 1600 28 1.100000 0.223000 0.254000 600 33 1.000000 0.051000 0.051000 1.200000 0.024000 0.028000
1517281780452136601	1000 30 1.000000 0.142000 0.155000 1600 29 1.100000 0.189000 0.215000 600 33 1.000000 0.051000 0.051000 1.200000 0.024000 0.028000
1517281780956322310	1000 30 1.000000 0.142000 0.155000 1600 28 1.100000 0.215000 0.245000 600 33 1.000000 0.051000 0.051000 1.200000 0.023000 0.027000
1517281781460606976	1000 30 1.000000 0.141000 0.154000 1600 28 1.100000 0.208000 0.237000 600 33 1.000000 0.051000 0.051000 1.200000 0.025000 0.030000
1517281781966419560	1000 32 1.000000 0.142000 0.155000 1600 28 1.100000 0.303000 0.344000 600 33 1.000000 0.051000 0.051000 1.200000 0.028000 0.033000
1517281782471749893	1000 30 1.100000 0.064000 0.070000 1600 28 1.100000 0.706000 0.799000 600 33 1.000000 0.051000 0.051000 1.200000 0.044000 0.053000
1517281782976645518	1000 30 1.100000 0.045000 0.049000 1600 28 1.100000 0.190000 0.216000 600 33 1.000000 0.051000 0.051000 1.200000 0.022000 0.026000
