#Timestamp	CPU(0) Frequency(MHz)	CPU(0) Temperature(C)	A7 Voltage(V)	A7 Current(A)	A7 Power(W)	CPU(4) Frequency(MHz)	CPU(4) Temperature(C)	A15 Voltage(V)	A15 Current(A)	A15 Power(W)	GPU Frequency(MHz)	GPU Temperature(C)	GPU Voltage(V)	GPU Current(A)	GPU Power(W)	RAM Voltage(V)	RAM Current(A)	RAM Power(W)
1518061189548979056	600 41 0.900000 0.027000 0.025000 700 40 0.900000 0.382000 0.348000 600 44 1.000000 0.053000 0.053000 1.200000 0.042000 0.050000
1518061190062884098	600 41 0.900000 0.030000 0.028000 700 40 0.900000 0.367000 0.334000 600 44 1.000000 0.053000 0.053000 1.200000 0.030000 0.036000
1518061190573999181	600 41 0.900000 0.030000 0.028000 700 40 0.900000 0.369000 0.336000 600 45 1.000000 0.053000 0.053000 1.200000 0.032000 0.038000
1518061191086722889	600 41 0.900000 0.031000 0.029000 700 40 0.900000 0.377000 0.343000 600 45 1.000000 0.053000 0.053000 1.200000 0.035000 0.042000
1518061191597962806	600 41 0.900000 0.030000 0.028000 700 40 0.900000 0.369000 0.336000 600 45 1.000000 0.053000 0.053000 1.200000 0.032000 0.038000
1518061192162662098	600 43 0.900000 0.030000 0.028000 700 41 0.900000 0.379000 0.345000 600 46 1.000000 0.053000 0.053000 1.200000 0.036000 0.043000
1518061192730642056	600 44 0.900000 0.219000 0.207000 700 41 0.900000 1.345000 1.217000 600 48 1.000000 0.053000 0.053000 1.200000 0.031000 0.037000
1518061193290628640	600 45 0.900000 0.219000 0.207000 700 42 0.900000 1.345000 1.217000 600 49 1.000000 0.053000 0.053000 1.200000 0.031000 0.037000
1518061193850618098	600 46 0.900000 0.219000 0.207000 700 42 0.900000 1.347000 1.219000 600 50 1.000000 0.053000 0.053000 1.200000 0.031000 0.037000
1518061194414589973	600 46 0.900000 0.220000 0.208000 700 43 0.900000 1.348000 1.219000 600 50 1.000000 0.053000 0.053000 1.200000 0.031000 0.037000
1518061194974604140	600 46 0.900000 0.219000 0.207000 700 43 0.900000 1.348000 1.219000 600 50 1.000000 0.053000 0.053000 1.200000 0.031000 0.037000
1518061195530580640	600 47 0.900000 0.220000 0.208000 700 43 0.900000 1.346000 1.218000 600 51 1.000000 0.053000 0.053000 1.200000 0.030000 0.036000
1518061196094527015	600 47 0.900000 0.219000 0.207000 700 43 0.900000 1.345000 1.217000 600 51 1.000000 0.053000 0.053000 1.200000 0.031000 0.037000
1518061196658578057	600 47 0.900000 0.219000 0.207000 700 44 0.900000 1.350000 1.221000 600 51 1.000000 0.053000 0.053000 1.200000 0.030000 0.036000
1518061197214615265	600 47 0.900000 0.220000 0.208000 700 44 0.900000 1.349000 1.220000 600 51 1.000000 0.053000 0.053000 1.200000 0.031000 0.037000
1518061197774617682	600 47 0.900000 0.220000 0.208000 700 44 0.900000 1.349000 1.220000 600 51 1.000000 0.053000 0.053000 1.200000 0.030000 0.036000
1518061198334516140	600 47 0.900000 0.220000 0.208000 700 44 0.900000 1.350000 1.221000 600 51 1.000000 0.053000 0.053000 1.200000 0.031000 0.037000
1518061198882579307	600 47 0.900000 0.220000 0.208000 700 44 0.900000 1.351000 1.222000 600 51 1.000000 0.053000 0.053000 1.200000 0.031000 0.037000
1518061199446529807	600 47 0.900000 0.220000 0.208000 700 44 0.900000 1.350000 1.221000 600 52 1.000000 0.053000 0.053000 1.200000 0.031000 0.037000
1518061200006589390	600 47 0.900000 0.219000 0.207000 700 44 0.900000 1.349000 1.220000 600 52 1.000000 0.053000 0.053000 1.200000 0.031000 0.037000
1518061200570545724	600 47 0.900000 0.220000 0.208000 700 44 0.900000 1.346000 1.218000 600 52 1.000000 0.053000 0.053000 1.200000 0.031000 0.037000
1518061201130536391	600 47 0.900000 0.219000 0.207000 700 44 0.900000 1.348000 1.219000 600 52 1.000000 0.053000 0.053000 1.200000 0.031000 0.037000
1518061201682651224	600 48 0.900000 0.220000 0.208000 700 44 0.900000 1.342000 1.214000 600 52 1.000000 0.053000 0.053000 1.200000 0.031000 0.037000
1518061202250500057	600 48 0.900000 0.220000 0.208000 700 44 0.900000 1.344000 1.216000 600 52 1.000000 0.053000 0.053000 1.200000 0.031000 0.037000
1518061202814575141	600 48 0.900000 0.219000 0.207000 700 44 0.900000 1.341000 1.213000 600 52 1.000000 0.053000 0.053000 1.200000 0.031000 0.037000
1518061203374594766	600 48 0.900000 0.220000 0.208000 700 44 0.900000 1.341000 1.213000 600 52 1.000000 0.053000 0.053000 1.200000 0.030000 0.036000
1518061203930557599	600 48 0.900000 0.219000 0.207000 700 44 0.900000 1.346000 1.218000 600 52 1.000000 0.054000 0.054000 1.200000 0.031000 0.037000
1518061204490590724	600 48 0.900000 0.219000 0.207000 700 45 0.900000 1.340000 1.212000 600 52 1.000000 0.053000 0.053000 1.200000 0.031000 0.037000
1518061205046511058	600 48 0.900000 0.220000 0.208000 700 45 0.900000 1.344000 1.216000 600 52 1.000000 0.054000 0.054000 1.200000 0.031000 0.037000
1518061205618536141	600 48 0.900000 0.220000 0.208000 700 45 0.900000 1.340000 1.212000 600 52 1.000000 0.053000 0.053000 1.200000 0.031000 0.037000
1518061206182505266	600 48 0.900000 0.219000 0.207000 700 45 0.900000 1.350000 1.221000 600 52 1.000000 0.053000 0.053000 1.200000 0.030000 0.036000
1518061206738646641	600 48 0.900000 0.220000 0.208000 700 45 0.900000 1.348000 1.219000 600 52 1.000000 0.053000 0.053000 1.200000 0.030000 0.036000
1518061207282631558	600 48 0.900000 0.220000 0.208000 700 45 0.900000 1.348000 1.219000 600 52 1.000000 0.054000 0.054000 1.200000 0.031000 0.037000
1518061207838573183	600 48 0.900000 0.220000 0.208000 700 45 0.900000 1.355000 1.226000 600 52 1.000000 0.053000 0.053000 1.200000 0.030000 0.036000
1518061208398616266	600 48 0.900000 0.219000 0.207000 700 45 0.900000 1.349000 1.220000 600 52 1.000000 0.053000 0.053000 1.200000 0.031000 0.037000
1518061208954619266	600 48 0.900000 0.220000 0.208000 700 45 0.900000 1.347000 1.219000 600 52 1.000000 0.053000 0.053000 1.200000 0.031000 0.037000
1518061209510564892	600 48 0.900000 0.219000 0.207000 700 45 0.900000 1.355000 1.226000 600 52 1.000000 0.053000 0.053000 1.200000 0.030000 0.036000
1518061210070644350	600 48 0.900000 0.220000 0.208000 700 45 0.900000 1.349000 1.220000 600 52 1.000000 0.054000 0.054000 1.200000 0.031000 0.037000
1518061210634560850	600 48 0.900000 0.220000 0.208000 700 45 0.900000 1.356000 1.227000 600 52 1.000000 0.053000 0.053000 1.200000 0.031000 0.037000
1518061211178579267	600 48 0.900000 0.220000 0.208000 700 45 0.900000 1.357000 1.228000 600 52 1.000000 0.053000 0.053000 1.200000 0.030000 0.036000
1518061211730599475	600 48 0.900000 0.220000 0.208000 700 45 0.900000 1.358000 1.228000 600 52 1.000000 0.053000 0.053000 1.200000 0.031000 0.037000
1518061212290589809	600 48 0.900000 0.220000 0.208000 700 45 0.900000 1.358000 1.228000 600 52 1.000000 0.053000 0.053000 1.200000 0.030000 0.036000
1518061212854583350	600 48 0.900000 0.219000 0.207000 700 45 0.900000 1.355000 1.226000 600 52 1.000000 0.053000 0.053000 1.200000 0.030000 0.036000
1518061213422600975	600 48 0.900000 0.220000 0.208000 700 45 0.900000 1.353000 1.224000 600 52 1.000000 0.053000 0.053000 1.200000 0.031000 0.037000
1518061213974626642	600 48 0.900000 0.221000 0.209000 700 45 0.900000 1.357000 1.228000 600 52 1.000000 0.053000 0.053000 1.200000 0.031000 0.037000
1518061214526557642	600 48 0.900000 0.220000 0.208000 700 45 0.900000 1.358000 1.228000 600 52 1.000000 0.053000 0.053000 1.200000 0.031000 0.037000
1518061215086595601	600 48 0.900000 0.220000 0.208000 700 45 0.900000 1.352000 1.223000 600 52 1.000000 0.053000 0.053000 1.200000 0.031000 0.037000
1518061215650554892	600 48 0.900000 0.219000 0.207000 700 45 0.900000 1.356000 1.227000 600 52 1.000000 0.053000 0.053000 1.200000 0.031000 0.037000
1518061216206600851	600 48 0.900000 0.221000 0.209000 700 45 0.900000 1.359000 1.229000 600 52 1.000000 0.053000 0.053000 1.200000 0.030000 0.036000
1518061216758568559	600 48 0.900000 0.220000 0.208000 700 45 0.900000 1.359000 1.229000 600 52 1.000000 0.054000 0.054000 1.200000 0.030000 0.036000
1518061217318562892	600 48 0.900000 0.220000 0.208000 700 45 0.900000 1.359000 1.229000 600 52 1.000000 0.053000 0.053000 1.200000 0.030000 0.036000
1518061217874622809	600 48 0.900000 0.220000 0.208000 700 45 0.900000 1.352000 1.223000 600 52 1.000000 0.053000 0.053000 1.200000 0.030000 0.036000
1518061218430520643	600 48 0.900000 0.220000 0.208000 700 45 0.900000 1.353000 1.224000 600 52 1.000000 0.053000 0.053000 1.200000 0.031000 0.037000
1518061218982608476	600 48 0.900000 0.219000 0.207000 700 45 0.900000 1.354000 1.225000 600 52 1.000000 0.053000 0.053000 1.200000 0.031000 0.037000
1518061219534557268	600 48 0.900000 0.221000 0.209000 700 45 0.900000 1.351000 1.222000 600 52 1.000000 0.054000 0.054000 1.200000 0.031000 0.037000
1518061220094557559	600 48 0.900000 0.220000 0.208000 700 45 0.900000 1.352000 1.223000 600 52 1.000000 0.053000 0.053000 1.200000 0.031000 0.037000
1518061220646625476	600 48 0.900000 0.220000 0.208000 700 45 0.900000 1.349000 1.220000 600 53 1.000000 0.053000 0.053000 1.200000 0.031000 0.037000
1518061221214544893	600 48 0.900000 0.221000 0.209000 700 45 0.900000 1.359000 1.231000 600 52 1.000000 0.053000 0.053000 1.200000 0.031000 0.037000
1518061221766649060	600 48 0.900000 0.220000 0.208000 700 45 0.900000 1.352000 1.223000 600 52 1.000000 0.054000 0.054000 1.200000 0.032000 0.038000
1518061222326678601	600 48 0.900000 0.221000 0.209000 700 45 0.900000 1.356000 1.228000 600 53 1.000000 0.054000 0.054000 1.200000 0.032000 0.038000
1518061222886542143	600 48 0.900000 0.219000 0.207000 700 45 0.900000 1.356000 1.227000 600 52 1.000000 0.053000 0.053000 1.200000 0.032000 0.038000
1518061223442549560	600 48 0.900000 0.220000 0.208000 700 45 0.900000 1.352000 1.223000 600 52 1.000000 0.053000 0.053000 1.200000 0.031000 0.037000
1518061224002517935	600 48 0.900000 0.220000 0.208000 700 45 0.900000 1.355000 1.226000 600 52 1.000000 0.053000 0.053000 1.200000 0.031000 0.037000
1518061224558645852	600 48 0.900000 0.219000 0.207000 700 45 0.900000 1.352000 1.224000 600 52 1.000000 0.053000 0.053000 1.200000 0.031000 0.037000
1518061225130665268	600 48 0.900000 0.220000 0.208000 700 45 0.900000 1.349000 1.220000 600 53 1.000000 0.053000 0.053000 1.200000 0.031000 0.037000
1518061225694584393	600 48 0.900000 0.220000 0.208000 700 45 0.900000 1.356000 1.227000 600 53 1.000000 0.054000 0.054000 1.200000 0.031000 0.037000
1518061226254678477	600 48 0.900000 0.220000 0.208000 700 45 0.900000 1.354000 1.225000 600 53 1.000000 0.053000 0.053000 1.200000 0.031000 0.037000
1518061226818651560	600 48 0.900000 0.220000 0.208000 700 45 0.900000 1.355000 1.226000 600 53 1.000000 0.053000 0.053000 1.200000 0.031000 0.037000
1518061227382646060	600 48 0.900000 0.221000 0.209000 700 45 0.900000 1.356000 1.227000 600 53 1.000000 0.053000 0.053000 1.200000 0.031000 0.037000
1518061227946549477	600 48 0.900000 0.221000 0.209000 700 45 0.900000 1.357000 1.228000 600 53 1.000000 0.053000 0.053000 1.200000 0.030000 0.036000
1518061228494614019	600 48 0.900000 0.221000 0.209000 700 45 0.900000 1.352000 1.223000 600 53 1.000000 0.053000 0.053000 1.200000 0.030000 0.036000
1518061229046598019	600 48 0.900000 0.220000 0.208000 700 45 0.900000 1.351000 1.222000 600 53 1.000000 0.054000 0.054000 1.200000 0.031000 0.037000
1518061229602583061	600 48 0.900000 0.221000 0.209000 700 45 0.900000 1.348000 1.219000 600 52 1.000000 0.053000 0.053000 1.200000 0.031000 0.037000
1518061230146629019	600 48 0.900000 0.221000 0.209000 700 45 0.900000 1.356000 1.227000 600 53 1.000000 0.053000 0.053000 1.200000 0.031000 0.037000
1518061230706645686	600 48 0.900000 0.221000 0.209000 700 45 0.900000 1.357000 1.229000 600 53 1.000000 0.053000 0.053000 1.200000 0.030000 0.036000
1518061231270615686	600 48 0.900000 0.221000 0.209000 700 45 0.900000 1.357000 1.228000 600 53 1.000000 0.054000 0.054000 1.200000 0.030000 0.036000
1518061231826619894	600 48 0.900000 0.221000 0.209000 700 45 0.900000 1.357000 1.228000 600 53 1.000000 0.053000 0.053000 1.200000 0.030000 0.036000
1518061232382558769	600 48 0.900000 0.221000 0.209000 700 45 0.900000 1.358000 1.228000 600 53 1.000000 0.053000 0.053000 1.200000 0.030000 0.036000
1518061232946614894	600 48 0.900000 0.221000 0.209000 700 45 0.900000 1.357000 1.229000 600 53 1.000000 0.053000 0.053000 1.200000 0.031000 0.037000
1518061233502602936	600 48 0.900000 0.221000 0.209000 700 45 0.900000 1.357000 1.228000 600 53 1.000000 0.053000 0.053000 1.200000 0.030000 0.036000
1518061234074634394	600 48 0.900000 0.221000 0.209000 700 45 0.900000 1.356000 1.227000 600 53 1.000000 0.054000 0.054000 1.200000 0.031000 0.037000
1518061234626599103	600 48 0.900000 0.221000 0.209000 700 45 0.900000 1.352000 1.223000 600 53 1.000000 0.054000 0.054000 1.200000 0.030000 0.036000
1518061235198633270	600 48 0.900000 0.221000 0.209000 700 45 0.900000 1.358000 1.230000 600 53 1.000000 0.053000 0.053000 1.200000 0.030000 0.036000
1518061235750609103	600 48 0.900000 0.221000 0.209000 700 45 0.900000 1.357000 1.228000 600 53 1.000000 0.053000 0.053000 1.200000 0.030000 0.036000
1518061236302624228	600 48 0.900000 0.221000 0.209000 700 45 0.900000 1.354000 1.225000 600 53 1.000000 0.054000 0.054000 1.200000 0.030000 0.036000
1518061236862655186	600 48 0.900000 0.221000 0.209000 700 45 0.900000 1.349000 1.220000 600 53 1.000000 0.054000 0.054000 1.200000 0.031000 0.037000
1518061237422640520	600 48 0.900000 0.221000 0.209000 700 45 0.900000 1.349000 1.220000 600 52 1.000000 0.054000 0.054000 1.200000 0.030000 0.036000
1518061237974629478	600 48 0.900000 0.221000 0.209000 700 45 0.900000 1.350000 1.221000 600 53 1.000000 0.054000 0.054000 1.200000 0.030000 0.036000
1518061238550553103	600 48 0.900000 0.221000 0.209000 700 45 0.900000 1.352000 1.223000 600 53 1.000000 0.053000 0.053000 1.200000 0.031000 0.037000
1518061239118630853	600 48 0.900000 0.221000 0.209000 700 45 0.900000 1.347000 1.219000 600 53 1.000000 0.053000 0.053000 1.200000 0.031000 0.037000
1518061239674594603	600 48 0.900000 0.221000 0.209000 700 45 0.900000 1.354000 1.225000 600 53 1.000000 0.053000 0.053000 1.200000 0.030000 0.036000
1518061240226578479	600 48 0.900000 0.221000 0.209000 700 45 0.900000 1.347000 1.219000 600 53 1.000000 0.053000 0.053000 1.200000 0.030000 0.036000
1518061240790612145	600 48 0.900000 0.221000 0.209000 700 45 0.900000 1.346000 1.218000 600 53 1.000000 0.053000 0.053000 1.200000 0.030000 0.036000
1518061241330595937	600 48 0.900000 0.221000 0.209000 700 45 0.900000 1.345000 1.217000 600 53 1.000000 0.053000 0.053000 1.200000 0.031000 0.037000
1518061241890643520	600 48 0.900000 0.221000 0.209000 700 45 0.900000 1.354000 1.225000 600 53 1.000000 0.053000 0.053000 1.200000 0.030000 0.036000
1518061242462610145	600 48 0.900000 0.221000 0.209000 700 45 0.900000 1.349000 1.220000 600 53 1.000000 0.054000 0.054000 1.200000 0.030000 0.036000
1518061243010627062	600 48 0.900000 0.221000 0.209000 700 45 0.900000 1.351000 1.222000 600 53 1.000000 0.053000 0.053000 1.200000 0.030000 0.036000
1518061243574606896	600 48 0.900000 0.221000 0.209000 700 45 0.900000 1.352000 1.223000 600 53 1.000000 0.054000 0.054000 1.200000 0.030000 0.036000
1518061244126599771	600 48 0.900000 0.221000 0.209000 700 45 0.900000 1.350000 1.221000 600 53 1.000000 0.053000 0.053000 1.200000 0.031000 0.037000
1518061244698608021	600 48 0.900000 0.221000 0.209000 700 45 0.900000 1.356000 1.227000 600 53 1.000000 0.053000 0.053000 1.200000 0.030000 0.036000
1518061245258576854	600 48 0.900000 0.221000 0.209000 700 45 0.900000 1.352000 1.223000 600 53 1.000000 0.054000 0.054000 1.200000 0.030000 0.036000
1518061245822587479	600 48 0.900000 0.221000 0.209000 700 45 0.900000 1.349000 1.220000 600 53 1.000000 0.054000 0.054000 1.200000 0.030000 0.036000
1518061246378540813	600 48 0.900000 0.221000 0.209000 700 45 0.900000 1.345000 1.217000 600 53 1.000000 0.053000 0.053000 1.200000 0.030000 0.036000
1518061246926599688	600 48 0.900000 0.221000 0.209000 700 45 0.900000 1.349000 1.220000 600 53 1.000000 0.054000 0.054000 1.200000 0.030000 0.036000
1518061247482574438	600 48 0.900000 0.221000 0.209000 700 45 0.900000 1.354000 1.225000 600 53 1.000000 0.053000 0.053000 1.200000 0.030000 0.036000
1518061248046664438	600 48 0.900000 0.221000 0.209000 700 45 0.900000 1.350000 1.221000 600 53 1.000000 0.053000 0.053000 1.200000 0.030000 0.036000
1518061248610600980	600 48 0.900000 0.221000 0.209000 700 45 0.900000 1.346000 1.219000 600 53 1.000000 0.053000 0.053000 1.200000 0.031000 0.037000
1518061249186619605	600 48 0.900000 0.221000 0.209000 700 45 0.900000 1.355000 1.226000 600 53 1.000000 0.053000 0.053000 1.200000 0.030000 0.036000
1518061249734671813	600 48 0.900000 0.221000 0.209000 700 45 0.900000 1.356000 1.227000 600 53 1.000000 0.054000 0.054000 1.200000 0.030000 0.036000
1518061250286551271	600 48 0.900000 0.221000 0.209000 700 45 0.900000 1.354000 1.225000 600 53 1.000000 0.053000 0.053000 1.200000 0.030000 0.036000
1518061250850557646	600 48 0.900000 0.221000 0.209000 700 45 0.900000 1.351000 1.222000 600 53 1.000000 0.053000 0.053000 1.200000 0.030000 0.036000
1518061251406636730	600 48 0.900000 0.221000 0.209000 700 45 0.900000 1.351000 1.222000 600 53 1.000000 0.054000 0.054000 1.200000 0.030000 0.036000
1518061251970602397	600 48 0.900000 0.221000 0.209000 700 45 0.900000 1.337000 1.209000 600 53 1.000000 0.053000 0.053000 1.200000 0.030000 0.036000
1518061252522635147	600 48 0.900000 0.221000 0.209000 700 45 0.900000 1.342000 1.215000 600 53 1.000000 0.053000 0.053000 1.200000 0.030000 0.036000
1518061253082606730	600 48 0.900000 0.221000 0.209000 700 45 0.900000 1.346000 1.218000 600 53 1.000000 0.054000 0.054000 1.200000 0.030000 0.036000
1518061253634611230	600 48 0.900000 0.221000 0.209000 700 45 0.900000 1.349000 1.220000 600 53 1.000000 0.053000 0.053000 1.200000 0.030000 0.036000
1518061254198603189	600 48 0.900000 0.221000 0.209000 700 45 0.900000 1.348000 1.219000 600 53 1.000000 0.053000 0.053000 1.200000 0.030000 0.036000
1518061254766505272	600 48 0.900000 0.221000 0.209000 700 45 0.900000 1.349000 1.222000 600 53 1.000000 0.054000 0.054000 1.200000 0.030000 0.036000
1518061255330545480	600 48 0.900000 0.221000 0.209000 700 45 0.900000 1.349000 1.220000 600 53 1.000000 0.053000 0.053000 1.200000 0.030000 0.036000
1518061255894617772	600 48 0.900000 0.221000 0.209000 700 45 0.900000 1.348000 1.219000 600 53 1.000000 0.053000 0.053000 1.200000 0.030000 0.036000
1518061256446546605	600 48 0.900000 0.221000 0.209000 700 45 0.900000 1.346000 1.219000 600 53 1.000000 0.053000 0.053000 1.200000 0.030000 0.036000
1518061257006602939	600 48 0.900000 0.221000 0.209000 700 45 0.900000 1.344000 1.217000 600 53 1.000000 0.054000 0.054000 1.200000 0.030000 0.036000
1518061257570539314	600 48 0.900000 0.221000 0.209000 700 45 0.900000 1.343000 1.215000 600 53 1.000000 0.053000 0.053000 1.200000 0.030000 0.036000
1518061258122877731	600 48 0.900000 0.221000 0.209000 700 45 0.900000 1.349000 1.222000 600 53 1.000000 0.054000 0.054000 1.200000 0.031000 0.037000
1518061258710656689	600 48 0.900000 0.220000 0.208000 700 45 0.900000 1.336000 1.209000 600 53 1.000000 0.053000 0.053000 1.200000 0.030000 0.036000
1518061259262555856	600 48 0.900000 0.221000 0.209000 700 45 0.900000 1.349000 1.222000 600 53 1.000000 0.053000 0.053000 1.200000 0.030000 0.036000
1518061259826566148	600 48 0.900000 0.221000 0.209000 700 45 0.900000 1.349000 1.220000 600 53 1.000000 0.054000 0.054000 1.200000 0.030000 0.036000
1518061260390593898	600 48 0.900000 0.221000 0.209000 700 45 0.900000 1.345000 1.218000 600 53 1.000000 0.053000 0.053000 1.200000 0.030000 0.036000
1518061260946646356	600 48 0.900000 0.221000 0.209000 700 45 0.900000 1.339000 1.213000 600 53 1.000000 0.053000 0.053000 1.200000 0.030000 0.036000
1518061261497205106	600 48 0.900000 0.221000 0.209000 700 45 0.900000 1.344000 1.217000 600 53 1.000000 0.053000 0.053000 1.200000 0.031000 0.037000
1518061262066598106	600 48 0.900000 0.221000 0.209000 700 45 0.900000 1.349000 1.220000 600 53 1.000000 0.054000 0.054000 1.200000 0.032000 0.038000
1518061262634662190	600 48 0.900000 0.220000 0.208000 700 45 0.900000 1.349000 1.220000 600 53 1.000000 0.053000 0.053000 1.200000 0.031000 0.037000
1518061263194620481	600 48 0.900000 0.218000 0.206000 700 45 0.900000 1.349000 1.220000 600 53 1.000000 0.053000 0.053000 1.200000 0.034000 0.041000
1518061263754576273	600 48 0.900000 0.221000 0.209000 700 45 0.900000 1.349000 1.220000 600 53 1.000000 0.054000 0.054000 1.200000 0.032000 0.038000
1518061264314598065	600 48 0.900000 0.221000 0.209000 700 45 0.900000 1.349000 1.220000 600 53 1.000000 0.053000 0.053000 1.200000 0.032000 0.038000
1518061264862704898	600 49 0.900000 0.221000 0.209000 700 45 0.900000 1.348000 1.219000 600 53 1.000000 0.054000 0.054000 1.200000 0.031000 0.037000
1518061265430572773	600 48 0.900000 0.221000 0.209000 700 45 0.900000 1.349000 1.222000 600 53 1.000000 0.053000 0.053000 1.200000 0.032000 0.038000
1518061265982600815	600 48 0.900000 0.221000 0.209000 700 45 0.900000 1.353000 1.224000 600 53 1.000000 0.053000 0.053000 1.200000 0.032000 0.038000
1518061266546576773	600 48 0.900000 0.221000 0.209000 700 45 0.900000 1.347000 1.219000 600 53 1.000000 0.053000 0.053000 1.200000 0.031000 0.037000
1518061267098609107	600 48 0.900000 0.221000 0.209000 700 45 0.900000 1.351000 1.222000 600 53 1.000000 0.054000 0.054000 1.200000 0.031000 0.037000
1518061267650573857	600 48 0.900000 0.221000 0.209000 700 45 0.900000 1.350000 1.221000 600 53 1.000000 0.053000 0.053000 1.200000 0.031000 0.037000
1518061268198634649	600 48 0.900000 0.221000 0.209000 700 45 0.900000 1.351000 1.222000 600 53 1.000000 0.054000 0.054000 1.200000 0.031000 0.037000
1518061268762880690	600 48 0.900000 0.221000 0.209000 700 45 0.900000 1.351000 1.222000 600 53 1.000000 0.053000 0.053000 1.200000 0.031000 0.037000
1518061269314667774	600 48 0.900000 0.221000 0.209000 700 45 0.900000 1.351000 1.222000 600 53 1.000000 0.053000 0.053000 1.200000 0.033000 0.039000
1518061269866638649	600 48 0.900000 0.221000 0.209000 700 45 0.900000 1.351000 1.222000 600 53 1.000000 0.054000 0.054000 1.200000 0.032000 0.038000
1518061270422636982	600 48 0.900000 0.221000 0.209000 700 45 0.900000 1.351000 1.222000 600 53 1.000000 0.054000 0.054000 1.200000 0.031000 0.037000
1518061270982587024	600 48 0.900000 0.221000 0.209000 700 45 0.900000 1.350000 1.221000 600 53 1.000000 0.053000 0.053000 1.200000 0.031000 0.037000
1518061271538630941	600 48 0.900000 0.220000 0.208000 700 45 0.900000 1.350000 1.221000 600 53 1.000000 0.053000 0.053000 1.200000 0.031000 0.037000
1518061272098567941	600 48 0.900000 0.221000 0.209000 700 45 0.900000 1.346000 1.218000 600 53 1.000000 0.053000 0.053000 1.200000 0.031000 0.037000
1518061272650599024	600 48 0.900000 0.221000 0.209000 700 45 0.900000 1.351000 1.222000 600 53 1.000000 0.054000 0.054000 1.200000 0.031000 0.037000
1518061273226635691	600 48 0.900000 0.221000 0.209000 700 45 0.900000 1.340000 1.214000 600 53 1.000000 0.053000 0.053000 1.200000 0.031000 0.037000
1518061273782606233	600 48 0.900000 0.221000 0.209000 700 45 0.900000 1.343000 1.215000 600 53 1.000000 0.053000 0.053000 1.200000 0.031000 0.037000
1518061274346623108	600 49 0.900000 0.221000 0.209000 700 45 0.900000 1.346000 1.218000 600 53 1.000000 0.053000 0.053000 1.200000 0.032000 0.038000
1518061274898588691	600 48 0.900000 0.221000 0.209000 700 45 0.900000 1.343000 1.216000 600 53 1.000000 0.054000 0.054000 1.200000 0.032000 0.038000
1518061275462601524	600 48 0.900000 0.221000 0.209000 700 45 0.900000 1.350000 1.223000 600 53 1.000000 0.053000 0.053000 1.200000 0.031000 0.037000
1518061276026543566	600 49 0.900000 0.221000 0.209000 700 45 0.900000 1.351000 1.222000 600 53 1.000000 0.053000 0.053000 1.200000 0.031000 0.037000
1518061276582628441	600 48 0.900000 0.221000 0.209000 700 45 0.900000 1.348000 1.221000 600 53 1.000000 0.053000 0.053000 1.200000 0.032000 0.038000
1518061277154640275	600 48 0.900000 0.221000 0.209000 700 45 0.900000 1.346000 1.218000 600 53 1.000000 0.054000 0.054000 1.200000 0.031000 0.037000
1518061277718572941	600 48 0.900000 0.221000 0.209000 700 45 0.900000 1.343000 1.216000 600 53 1.000000 0.053000 0.053000 1.200000 0.031000 0.037000
1518061278282627900	600 49 0.900000 0.221000 0.209000 700 45 0.900000 1.343000 1.215000 600 53 1.000000 0.054000 0.054000 1.200000 0.031000 0.037000
1518061278838675608	600 48 0.900000 0.221000 0.209000 700 45 0.900000 1.345000 1.217000 600 53 1.000000 0.054000 0.054000 1.200000 0.032000 0.038000
1518061279402587650	600 48 0.900000 0.220000 0.208000 700 45 0.900000 1.346000 1.218000 600 53 1.000000 0.053000 0.053000 1.200000 0.032000 0.038000
1518061279962620067	600 48 0.900000 0.221000 0.209000 700 45 0.900000 1.348000 1.219000 600 53 1.000000 0.054000 0.054000 1.200000 0.031000 0.037000
1518061280526639817	600 48 0.900000 0.221000 0.209000 700 45 0.900000 1.344000 1.216000 600 53 1.000000 0.053000 0.053000 1.200000 0.031000 0.037000
1518061281090558817	600 48 0.900000 0.221000 0.209000 700 45 0.900000 1.359000 1.231000 600 53 1.000000 0.053000 0.053000 1.200000 0.031000 0.037000
1518061281658599942	600 49 0.900000 0.221000 0.209000 700 45 0.900000 1.359000 1.229000 600 53 1.000000 0.053000 0.053000 1.200000 0.031000 0.037000
1518061282218589275	600 49 0.900000 0.221000 0.209000 700 45 0.900000 1.359000 1.229000 600 53 1.000000 0.053000 0.053000 1.200000 0.031000 0.037000
1518061282770599942	600 48 0.900000 0.220000 0.208000 700 45 0.900000 1.354000 1.226000 600 53 1.000000 0.053000 0.053000 1.200000 0.031000 0.037000
1518061283334634442	600 48 0.900000 0.220000 0.208000 700 45 0.900000 1.357000 1.228000 600 53 1.000000 0.053000 0.053000 1.200000 0.031000 0.037000
1518061283894611400	600 49 0.900000 0.220000 0.208000 700 45 0.900000 1.357000 1.228000 600 53 1.000000 0.053000 0.053000 1.200000 0.031000 0.037000
1518061284450612317	600 48 0.900000 0.220000 0.208000 700 45 0.900000 1.356000 1.228000 600 53 1.000000 0.053000 0.053000 1.200000 0.032000 0.038000
1518061284998635692	600 48 0.900000 0.221000 0.209000 700 45 0.900000 1.362000 1.233000 600 53 1.000000 0.053000 0.053000 1.200000 0.032000 0.038000
1518061285554596026	600 49 0.900000 0.220000 0.208000 700 45 0.900000 1.359000 1.229000 600 53 1.000000 0.053000 0.053000 1.200000 0.032000 0.038000
1518061286110670359	600 48 0.900000 0.221000 0.209000 700 45 0.900000 1.362000 1.232000 600 53 1.000000 0.053000 0.053000 1.200000 0.032000 0.038000
1518061286670595776	600 48 0.900000 0.221000 0.209000 700 45 0.900000 1.363000 1.233000 600 53 1.000000 0.053000 0.053000 1.200000 0.031000 0.037000
1518061287234586859	600 48 0.900000 0.221000 0.209000 700 45 0.900000 1.360000 1.232000 600 53 1.000000 0.053000 0.053000 1.200000 0.031000 0.037000
1518061287798609068	600 49 0.900000 0.221000 0.209000 700 45 0.900000 1.354000 1.226000 600 53 1.000000 0.054000 0.054000 1.200000 0.031000 0.037000
1518061288362583526	600 48 0.900000 0.221000 0.209000 700 45 0.900000 1.352000 1.223000 600 53 1.000000 0.053000 0.053000 1.200000 0.032000 0.038000
1518061288918617359	600 49 0.900000 0.221000 0.209000 700 45 0.900000 1.354000 1.225000 600 53 1.000000 0.053000 0.053000 1.200000 0.032000 0.038000
1518061289478615068	600 49 0.900000 0.221000 0.209000 700 45 0.900000 1.362000 1.233000 600 53 1.000000 0.053000 0.053000 1.200000 0.032000 0.038000
1518061290038565401	600 49 0.900000 0.221000 0.209000 700 45 0.900000 1.357000 1.228000 600 53 1.000000 0.053000 0.053000 1.200000 0.031000 0.037000
1518061290594615693	600 49 0.900000 0.221000 0.209000 700 45 0.900000 1.363000 1.233000 600 53 1.000000 0.053000 0.053000 1.200000 0.031000 0.037000
1518061291146521318	600 48 0.900000 0.221000 0.209000 700 45 0.900000 1.363000 1.233000 600 53 1.000000 0.053000 0.053000 1.200000 0.031000 0.037000
1518061291694598110	600 48 0.900000 0.221000 0.209000 700 45 0.900000 1.363000 1.234000 600 53 1.000000 0.054000 0.054000 1.200000 0.032000 0.038000
1518061292258545651	600 49 0.900000 0.221000 0.209000 700 45 0.900000 1.363000 1.234000 600 53 1.000000 0.053000 0.053000 1.200000 0.031000 0.037000
1518061292822619568	600 49 0.900000 0.221000 0.209000 700 45 0.900000 1.363000 1.233000 600 53 1.000000 0.054000 0.054000 1.200000 0.032000 0.038000
1518061293378644610	600 49 0.900000 0.220000 0.208000 700 45 0.900000 1.363000 1.233000 600 53 1.000000 0.054000 0.054000 1.200000 0.031000 0.037000
1518061293926599235	600 49 0.900000 0.221000 0.209000 700 45 0.900000 1.355000 1.227000 600 53 1.000000 0.053000 0.053000 1.200000 0.031000 0.037000
1518061294494634360	600 49 0.900000 0.221000 0.209000 700 45 0.900000 1.355000 1.226000 600 53 1.000000 0.054000 0.054000 1.200000 0.032000 0.038000
1518061295038584735	600 49 0.900000 0.221000 0.209000 700 45 0.900000 1.353000 1.225000 600 53 1.000000 0.053000 0.053000 1.200000 0.031000 0.037000
1518061295606619943	600 49 0.900000 0.221000 0.209000 700 45 0.900000 1.354000 1.226000 600 53 1.000000 0.054000 0.054000 1.200000 0.031000 0.037000
1518061296174615069	600 48 0.900000 0.221000 0.209000 700 45 0.900000 1.359000 1.229000 600 53 1.000000 0.054000 0.054000 1.200000 0.032000 0.038000
1518061296726601485	600 48 0.900000 0.221000 0.209000 700 45 0.900000 1.360000 1.232000 600 53 1.000000 0.053000 0.053000 1.200000 0.033000 0.039000
1518061297282625527	600 48 0.900000 0.221000 0.209000 700 45 0.900000 1.359000 1.229000 600 53 1.000000 0.053000 0.053000 1.200000 0.033000 0.039000
1518061297834631360	600 48 0.900000 0.221000 0.209000 700 45 0.900000 1.360000 1.232000 600 53 1.000000 0.053000 0.053000 1.200000 0.033000 0.039000
1518061298394633152	600 49 0.900000 0.221000 0.209000 700 45 0.900000 1.355000 1.226000 600 53 1.000000 0.053000 0.053000 1.200000 0.033000 0.039000
1518061298942614236	600 49 0.900000 0.221000 0.209000 700 45 0.900000 1.354000 1.225000 600 53 1.000000 0.054000 0.054000 1.200000 0.033000 0.039000
1518061299498587027	600 48 0.900000 0.220000 0.208000 700 45 0.900000 1.353000 1.225000 600 53 1.000000 0.053000 0.053000 1.200000 0.033000 0.039000
1518061300050554777	600 48 0.900000 0.221000 0.209000 700 45 0.900000 1.357000 1.228000 600 53 1.000000 0.054000 0.054000 1.200000 0.033000 0.039000
1518061300614616819	600 49 0.900000 0.221000 0.209000 700 45 0.900000 1.360000 1.230000 600 53 1.000000 0.053000 0.053000 1.200000 0.033000 0.039000
1518061301166654694	600 48 0.900000 0.221000 0.209000 700 45 0.900000 1.360000 1.232000 600 53 1.000000 0.054000 0.054000 1.200000 0.033000 0.039000
1518061301718640236	600 49 0.900000 0.221000 0.209000 700 46 0.900000 1.360000 1.232000 600 53 1.000000 0.053000 0.053000 1.200000 0.032000 0.038000
1518061302286593111	600 49 0.900000 0.221000 0.209000 700 45 0.900000 1.361000 1.233000 600 53 1.000000 0.053000 0.053000 1.200000 0.033000 0.039000
1518061302846647778	600 48 0.900000 0.221000 0.209000 700 45 0.900000 1.360000 1.232000 600 53 1.000000 0.053000 0.053000 1.200000 0.033000 0.039000
1518061303410598111	600 48 0.900000 0.221000 0.209000 700 45 0.900000 1.360000 1.232000 600 53 1.000000 0.053000 0.053000 1.200000 0.033000 0.039000
1518061303970570069	600 49 0.900000 0.221000 0.209000 700 45 0.900000 1.357000 1.229000 600 53 1.000000 0.054000 0.054000 1.200000 0.033000 0.039000
1518061304534559986	600 48 0.900000 0.221000 0.209000 700 45 0.900000 1.359000 1.229000 600 53 1.000000 0.053000 0.053000 1.200000 0.033000 0.039000
1518061305098595528	600 48 0.900000 0.221000 0.209000 700 45 0.900000 1.360000 1.230000 600 53 1.000000 0.053000 0.053000 1.200000 0.032000 0.038000
1518061305646594695	600 49 0.900000 0.221000 0.209000 700 45 0.900000 1.359000 1.229000 600 53 1.000000 0.053000 0.053000 1.200000 0.033000 0.039000
1518061306210576320	600 49 0.900000 0.221000 0.209000 700 45 0.900000 1.360000 1.230000 600 53 1.000000 0.053000 0.053000 1.200000 0.033000 0.039000
1518061306786620903	600 49 0.900000 0.221000 0.209000 700 45 0.900000 1.360000 1.230000 600 53 1.000000 0.053000 0.053000 1.200000 0.033000 0.039000
1518061307350619487	600 49 0.900000 0.221000 0.209000 700 45 0.900000 1.360000 1.230000 600 53 1.000000 0.053000 0.053000 1.200000 0.033000 0.039000
1518061307902628695	600 49 0.900000 0.221000 0.209000 700 45 0.900000 1.361000 1.231000 600 53 1.000000 0.054000 0.054000 1.200000 0.033000 0.039000
1518061308474591695	600 49 0.900000 0.221000 0.209000 700 45 0.900000 1.359000 1.229000 600 53 1.000000 0.053000 0.053000 1.200000 0.033000 0.039000
1518061309030606612	600 49 0.900000 0.221000 0.209000 700 45 0.900000 1.358000 1.228000 600 53 1.000000 0.053000 0.053000 1.200000 0.034000 0.041000
1518061309582577320	600 49 0.900000 0.221000 0.209000 700 45 0.900000 1.356000 1.227000 600 53 1.000000 0.053000 0.053000 1.200000 0.033000 0.039000
1518061310126639404	600 49 0.900000 0.221000 0.209000 700 45 0.900000 1.353000 1.224000 600 53 1.000000 0.054000 0.054000 1.200000 0.033000 0.039000
1518061310674597570	600 49 0.900000 0.221000 0.209000 700 45 0.900000 1.349000 1.220000 600 53 1.000000 0.054000 0.054000 1.200000 0.033000 0.039000
1518061311230609737	600 48 0.900000 0.221000 0.209000 700 45 0.900000 1.346000 1.218000 600 53 1.000000 0.053000 0.053000 1.200000 0.033000 0.039000
1518061311778638529	600 48 0.900000 0.221000 0.209000 700 45 0.900000 1.346000 1.218000 600 53 1.000000 0.053000 0.053000 1.200000 0.033000 0.039000
1518061312338575695	600 48 0.900000 0.221000 0.209000 700 45 0.900000 1.349000 1.220000 600 53 1.000000 0.053000 0.053000 1.200000 0.033000 0.039000
1518061312898595154	600 48 0.900000 0.221000 0.209000 700 45 0.900000 1.345000 1.217000 600 53 1.000000 0.053000 0.053000 1.200000 0.033000 0.039000
1518061313454596946	600 48 0.900000 0.221000 0.209000 700 45 0.900000 1.345000 1.217000 600 53 1.000000 0.053000 0.053000 1.200000 0.033000 0.039000
1518061313994624612	600 48 0.900000 0.220000 0.208000 700 45 0.900000 1.347000 1.219000 600 53 1.000000 0.053000 0.053000 1.200000 0.033000 0.039000
1518061314562563237	600 49 0.900000 0.220000 0.208000 700 45 0.900000 1.342000 1.214000 600 53 1.000000 0.054000 0.054000 1.200000 0.033000 0.039000
1518061315122546487	600 49 0.900000 0.221000 0.209000 700 45 0.900000 1.351000 1.222000 600 53 1.000000 0.053000 0.053000 1.200000 0.032000 0.038000
1518061315674650321	600 48 0.900000 0.221000 0.209000 700 45 0.900000 1.346000 1.218000 600 53 1.000000 0.053000 0.053000 1.200000 0.033000 0.039000
1518061316238548654	600 49 0.900000 0.221000 0.209000 700 45 0.900000 1.343000 1.215000 600 53 1.000000 0.053000 0.053000 1.200000 0.033000 0.039000
1518061316798600779	600 48 0.900000 0.221000 0.209000 700 45 0.900000 1.347000 1.219000 600 53 1.000000 0.054000 0.054000 1.200000 0.033000 0.039000
1518061317350625154	600 49 0.900000 0.221000 0.209000 700 45 0.900000 1.343000 1.215000 600 53 1.000000 0.053000 0.053000 1.200000 0.033000 0.039000
1518061317914605738	600 49 0.900000 0.221000 0.209000 700 45 0.900000 1.345000 1.217000 600 53 1.000000 0.054000 0.054000 1.200000 0.033000 0.039000
1518061318466564071	600 49 0.900000 0.221000 0.209000 700 45 0.900000 1.345000 1.217000 600 53 1.000000 0.053000 0.053000 1.200000 0.033000 0.039000
1518061319030595696	600 49 0.900000 0.221000 0.209000 700 45 0.900000 1.346000 1.218000 600 53 1.000000 0.053000 0.053000 1.200000 0.033000 0.039000
1518061319582573155	600 49 0.900000 0.221000 0.209000 700 45 0.900000 1.345000 1.217000 600 53 1.000000 0.053000 0.053000 1.200000 0.033000 0.039000
1518061320138662488	600 49 0.900000 0.221000 0.209000 700 45 0.900000 1.351000 1.222000 600 53 1.000000 0.054000 0.054000 1.200000 0.033000 0.039000
1518061320694592196	600 49 0.900000 0.221000 0.209000 700 45 0.900000 1.352000 1.223000 600 53 1.000000 0.053000 0.053000 1.200000 0.033000 0.039000
1518061321270603488	600 48 0.900000 0.221000 0.209000 700 45 0.900000 1.350000 1.221000 600 53 1.000000 0.053000 0.053000 1.200000 0.033000 0.039000
1518061321834599947	600 49 0.900000 0.221000 0.209000 700 45 0.900000 1.347000 1.219000 600 53 1.000000 0.053000 0.053000 1.200000 0.033000 0.039000
1518061322382663238	600 49 0.900000 0.221000 0.209000 700 45 0.900000 1.344000 1.216000 600 53 1.000000 0.053000 0.053000 1.200000 0.033000 0.039000
1518061322946630322	600 49 0.900000 0.221000 0.209000 700 45 0.900000 1.346000 1.218000 600 53 1.000000 0.054000 0.054000 1.200000 0.033000 0.039000
1518061323494566738	600 48 0.900000 0.221000 0.209000 700 45 0.900000 1.343000 1.215000 600 53 1.000000 0.053000 0.053000 1.200000 0.033000 0.039000
1518061324058626572	600 49 0.900000 0.221000 0.209000 700 45 0.900000 1.343000 1.215000 600 53 1.000000 0.053000 0.053000 1.200000 0.033000 0.039000
1518061324614627947	600 49 0.900000 0.221000 0.209000 700 45 0.900000 1.351000 1.222000 600 53 1.000000 0.053000 0.053000 1.200000 0.033000 0.039000
1518061325182632530	600 49 0.900000 0.221000 0.209000 700 45 0.900000 1.351000 1.222000 600 53 1.000000 0.053000 0.053000 1.200000 0.032000 0.038000
1518061325746621780	600 49 0.900000 0.221000 0.209000 700 45 0.900000 1.352000 1.223000 600 53 1.000000 0.053000 0.053000 1.200000 0.033000 0.039000
1518061326310615655	600 49 0.900000 0.221000 0.209000 700 45 0.900000 1.360000 1.230000 600 53 1.000000 0.054000 0.054000 1.200000 0.032000 0.038000
1518061326870616156	600 49 0.900000 0.221000 0.209000 700 45 0.900000 1.358000 1.228000 600 53 1.000000 0.053000 0.053000 1.200000 0.033000 0.039000
1518061327414649697	600 48 0.900000 0.221000 0.209000 700 45 0.900000 1.353000 1.224000 600 53 1.000000 0.053000 0.053000 1.200000 0.033000 0.039000
1518061327982655572	600 49 0.900000 0.221000 0.209000 700 45 0.900000 1.354000 1.225000 600 53 1.000000 0.053000 0.053000 1.200000 0.033000 0.039000
1518061328546572489	600 49 0.900000 0.221000 0.209000 700 45 0.900000 1.349000 1.220000 600 53 1.000000 0.053000 0.053000 1.200000 0.033000 0.039000
1518061329098642406	600 49 0.900000 0.221000 0.209000 700 45 0.900000 1.360000 1.230000 600 53 1.000000 0.053000 0.053000 1.200000 0.032000 0.038000
1518061329650599656	600 49 0.900000 0.221000 0.209000 700 45 0.900000 1.361000 1.231000 600 53 1.000000 0.053000 0.053000 1.200000 0.032000 0.038000
1518061330202586573	600 49 0.900000 0.221000 0.209000 700 45 0.900000 1.361000 1.231000 600 53 1.000000 0.053000 0.053000 1.200000 0.033000 0.039000
1518061330766590656	600 49 0.900000 0.221000 0.209000 700 45 0.900000 1.361000 1.231000 600 53 1.000000 0.054000 0.054000 1.200000 0.032000 0.038000
1518061331314611448	600 49 0.900000 0.221000 0.209000 700 45 0.900000 1.360000 1.230000 600 53 1.000000 0.053000 0.053000 1.200000 0.030000 0.036000
1518061331870656323	600 49 0.900000 0.221000 0.209000 700 45 0.900000 1.357000 1.228000 600 53 1.000000 0.053000 0.053000 1.200000 0.030000 0.036000
1518061332422590031	600 49 0.900000 0.221000 0.209000 700 45 0.900000 1.356000 1.227000 600 53 1.000000 0.054000 0.054000 1.200000 0.029000 0.035000
1518061332970607198	600 49 0.900000 0.221000 0.209000 700 46 0.900000 1.359000 1.229000 600 53 1.000000 0.053000 0.053000 1.200000 0.029000 0.035000
1518061333522629948	600 49 0.900000 0.221000 0.209000 700 45 0.900000 1.355000 1.226000 600 53 1.000000 0.053000 0.053000 1.200000 0.030000 0.036000
1518061334086622406	600 49 0.900000 0.221000 0.209000 700 45 0.900000 1.359000 1.229000 600 53 1.000000 0.053000 0.053000 1.200000 0.030000 0.036000
1518061334646603156	600 49 0.900000 0.222000 0.210000 700 45 0.900000 1.361000 1.233000 600 53 1.000000 0.054000 0.054000 1.200000 0.029000 0.035000
1518061335210609240	600 49 0.900000 0.222000 0.210000 700 45 0.900000 1.362000 1.233000 600 53 1.000000 0.053000 0.053000 1.200000 0.029000 0.035000
1518061335766585323	600 49 0.900000 0.221000 0.209000 700 46 0.900000 1.360000 1.230000 600 53 1.000000 0.053000 0.053000 1.200000 0.029000 0.035000
1518061336326592782	600 48 0.900000 0.221000 0.209000 700 45 0.900000 1.360000 1.232000 600 53 1.000000 0.054000 0.054000 1.200000 0.029000 0.035000
1518061336870634782	600 49 0.900000 0.221000 0.209000 700 45 0.900000 1.359000 1.229000 600 53 1.000000 0.053000 0.053000 1.200000 0.029000 0.035000
1518061337430608615	600 48 0.900000 0.221000 0.209000 700 45 0.900000 1.360000 1.232000 600 53 1.000000 0.054000 0.054000 1.200000 0.030000 0.036000
1518061337986626282	600 49 0.900000 0.222000 0.210000 700 45 0.900000 1.354000 1.225000 600 53 1.000000 0.054000 0.054000 1.200000 0.030000 0.036000
1518061338550660365	600 49 0.900000 0.221000 0.209000 700 46 0.900000 1.354000 1.225000 600 53 1.000000 0.054000 0.054000 1.200000 0.030000 0.036000
1518061339122564699	600 49 0.900000 0.221000 0.209000 700 45 0.900000 1.360000 1.230000 600 53 1.000000 0.054000 0.054000 1.200000 0.030000 0.036000
1518061339686610324	600 49 0.900000 0.221000 0.209000 700 45 0.900000 1.368000 1.238000 600 53 1.000000 0.054000 0.054000 1.200000 0.030000 0.036000
1518061340246516157	600 49 0.900000 0.221000 0.209000 700 45 0.900000 1.365000 1.235000 600 53 1.000000 0.054000 0.054000 1.200000 0.030000 0.036000
1518061340810591407	600 49 0.900000 0.221000 0.209000 700 45 0.900000 1.365000 1.235000 600 53 1.000000 0.053000 0.053000 1.200000 0.030000 0.036000
1518061341378577657	600 49 0.900000 0.221000 0.209000 700 45 0.900000 1.356000 1.228000 600 53 1.000000 0.054000 0.054000 1.200000 0.030000 0.036000
1518061341938625657	600 49 0.900000 0.221000 0.209000 700 45 0.900000 1.357000 1.228000 600 53 1.000000 0.054000 0.054000 1.200000 0.030000 0.036000
1518061342496906282	600 48 0.900000 0.221000 0.209000 700 45 0.900000 1.356000 1.227000 600 53 1.000000 0.053000 0.053000 1.200000 0.030000 0.036000
1518061343054595032	600 49 0.900000 0.221000 0.209000 700 45 0.900000 1.350000 1.221000 600 53 1.000000 0.053000 0.053000 1.200000 0.030000 0.036000
1518061343622554783	600 49 0.900000 0.221000 0.209000 700 45 0.900000 1.357000 1.228000 600 53 1.000000 0.054000 0.054000 1.200000 0.030000 0.036000
1518061344186637199	600 49 0.900000 0.221000 0.209000 700 45 0.900000 1.356000 1.227000 600 53 1.000000 0.054000 0.054000 1.200000 0.029000 0.035000
1518061344746651116	600 49 0.900000 0.221000 0.209000 700 45 0.900000 1.356000 1.227000 600 53 1.000000 0.053000 0.053000 1.200000 0.030000 0.036000
1518061345310605283	600 49 0.900000 0.221000 0.209000 700 45 0.900000 1.356000 1.227000 600 53 1.000000 0.053000 0.053000 1.200000 0.030000 0.036000
1518061345870608616	600 48 0.900000 0.221000 0.209000 700 45 0.900000 1.354000 1.225000 600 53 1.000000 0.054000 0.054000 1.200000 0.031000 0.037000
1518061346434561616	600 49 0.900000 0.221000 0.209000 700 45 0.900000 1.349000 1.220000 600 53 1.000000 0.053000 0.053000 1.200000 0.030000 0.036000
1518061347010608866	600 48 0.900000 0.221000 0.209000 700 45 0.900000 1.346000 1.218000 600 53 1.000000 0.053000 0.053000 1.200000 0.030000 0.036000
1518061347566628408	600 49 0.900000 0.221000 0.209000 700 45 0.900000 1.355000 1.226000 600 53 1.000000 0.054000 0.054000 1.200000 0.029000 0.035000
1518061348130641575	600 49 0.900000 0.221000 0.209000 700 46 0.900000 1.350000 1.221000 600 53 1.000000 0.054000 0.054000 1.200000 0.030000 0.036000
1518061348682558325	600 49 0.900000 0.221000 0.209000 700 45 0.900000 1.351000 1.222000 600 53 1.000000 0.053000 0.053000 1.200000 0.030000 0.036000
1518061349238618658	600 49 0.900000 0.221000 0.209000 700 45 0.900000 1.355000 1.226000 600 53 1.000000 0.053000 0.053000 1.200000 0.030000 0.036000
1518061349786574992	600 48 0.900000 0.221000 0.209000 700 45 0.900000 1.348000 1.219000 600 53 1.000000 0.054000 0.054000 1.200000 0.030000 0.036000
1518061350354577158	600 49 0.900000 0.221000 0.209000 700 45 0.900000 1.350000 1.221000 600 53 1.000000 0.054000 0.054000 1.200000 0.030000 0.036000
1518061350902613867	600 49 0.900000 0.221000 0.209000 700 45 0.900000 1.346000 1.218000 600 53 1.000000 0.053000 0.053000 1.200000 0.030000 0.036000
1518061351462626158	600 49 0.900000 0.221000 0.209000 700 45 0.900000 1.346000 1.218000 600 53 1.000000 0.054000 0.054000 1.200000 0.030000 0.036000
1518061352006599325	600 49 0.900000 0.221000 0.209000 700 45 0.900000 1.352000 1.223000 600 53 1.000000 0.053000 0.053000 1.200000 0.030000 0.036000
1518061352558627034	600 49 0.900000 0.221000 0.209000 700 45 0.900000 1.354000 1.225000 600 53 1.000000 0.054000 0.054000 1.200000 0.029000 0.035000
1518061353122649242	600 49 0.900000 0.222000 0.210000 700 45 0.900000 1.357000 1.228000 600 53 1.000000 0.053000 0.053000 1.200000 0.029000 0.035000
1518061353682703409	600 49 0.900000 0.221000 0.209000 700 45 0.900000 1.354000 1.225000 600 53 1.000000 0.053000 0.053000 1.200000 0.029000 0.035000
1518061354250687742	600 49 0.900000 0.221000 0.209000 700 46 0.900000 1.352000 1.223000 600 53 1.000000 0.053000 0.053000 1.200000 0.030000 0.036000
1518061354794632659	600 49 0.900000 0.221000 0.209000 700 45 0.900000 1.349000 1.220000 600 53 1.000000 0.054000 0.054000 1.200000 0.030000 0.036000
1518061355370626034	600 48 0.900000 0.221000 0.209000 700 45 0.900000 1.345000 1.217000 600 53 1.000000 0.054000 0.054000 1.200000 0.030000 0.036000
1518061355926639326	600 49 0.900000 0.221000 0.209000 700 45 0.900000 1.345000 1.217000 600 53 1.000000 0.053000 0.053000 1.200000 0.030000 0.036000
1518061356486650909	600 49 0.900000 0.221000 0.209000 700 45 0.900000 1.352000 1.223000 600 53 1.000000 0.054000 0.054000 1.200000 0.030000 0.036000
1518061357042591076	600 48 0.900000 0.221000 0.209000 700 46 0.900000 1.349000 1.220000 600 53 1.000000 0.053000 0.053000 1.200000 0.030000 0.036000
1518061357598597743	600 49 0.900000 0.221000 0.209000 700 45 0.900000 1.354000 1.225000 600 53 1.000000 0.054000 0.054000 1.200000 0.029000 0.035000
1518061358154645909	600 49 0.900000 0.221000 0.209000 700 45 0.900000 1.354000 1.225000 600 53 1.000000 0.054000 0.054000 1.200000 0.029000 0.035000
1518061358710646659	600 49 0.900000 0.221000 0.209000 700 45 0.900000 1.354000 1.226000 600 53 1.000000 0.053000 0.053000 1.200000 0.029000 0.035000
1518061359258636243	600 49 0.900000 0.221000 0.209000 700 45 0.900000 1.346000 1.218000 600 53 1.000000 0.054000 0.054000 1.200000 0.029000 0.035000
1518061359822587451	600 49 0.900000 0.221000 0.209000 700 45 0.900000 1.348000 1.219000 600 53 1.000000 0.053000 0.053000 1.200000 0.030000 0.036000
1518061360386555118	600 49 0.900000 0.221000 0.209000 700 45 0.900000 1.346000 1.218000 600 53 1.000000 0.054000 0.054000 1.200000 0.030000 0.036000
1518061360934650035	600 49 0.900000 0.221000 0.209000 700 45 0.900000 1.342000 1.214000 600 53 1.000000 0.053000 0.053000 1.200000 0.030000 0.036000
1518061361494597576	600 49 0.900000 0.221000 0.209000 700 45 0.900000 1.346000 1.218000 600 53 1.000000 0.053000 0.053000 1.200000 0.030000 0.036000
1518061362058595451	600 49 0.900000 0.221000 0.209000 700 45 0.900000 1.348000 1.219000 600 53 1.000000 0.053000 0.053000 1.200000 0.030000 0.036000
1518061362602633785	600 49 0.900000 0.221000 0.209000 700 45 0.900000 1.354000 1.225000 600 53 1.000000 0.054000 0.054000 1.200000 0.029000 0.035000
1518061363150664243	600 49 0.900000 0.221000 0.209000 700 45 0.900000 1.353000 1.224000 600 53 1.000000 0.054000 0.054000 1.200000 0.029000 0.035000
1518061363702598160	600 49 0.900000 0.221000 0.209000 700 45 0.900000 1.354000 1.225000 600 53 1.000000 0.053000 0.053000 1.200000 0.030000 0.036000
1518061364266615160	600 49 0.900000 0.221000 0.209000 700 45 0.900000 1.355000 1.226000 600 53 1.000000 0.054000 0.054000 1.200000 0.029000 0.035000
1518061364818664160	600 49 0.900000 0.221000 0.209000 700 45 0.900000 1.355000 1.226000 600 53 1.000000 0.053000 0.053000 1.200000 0.029000 0.035000
1518061365374603327	600 49 0.900000 0.221000 0.209000 700 45 0.900000 1.349000 1.220000 600 53 1.000000 0.053000 0.053000 1.200000 0.030000 0.036000
1518061365934623702	600 49 0.900000 0.221000 0.209000 700 45 0.900000 1.349000 1.220000 600 53 1.000000 0.053000 0.053000 1.200000 0.029000 0.035000
1518061366494596827	600 49 0.900000 0.221000 0.209000 700 45 0.900000 1.349000 1.220000 600 53 1.000000 0.053000 0.053000 1.200000 0.029000 0.035000
1518061367046618994	600 49 0.900000 0.221000 0.209000 700 45 0.900000 1.352000 1.223000 600 53 1.000000 0.054000 0.054000 1.200000 0.029000 0.035000
1518061367602622119	600 49 0.900000 0.221000 0.209000 700 45 0.900000 1.347000 1.219000 600 53 1.000000 0.053000 0.053000 1.200000 0.029000 0.035000
1518061368166600160	600 49 0.900000 0.221000 0.209000 700 46 0.900000 1.355000 1.226000 600 53 1.000000 0.054000 0.054000 1.200000 0.028000 0.033000
1518061368730536036	600 49 0.900000 0.222000 0.210000 700 45 0.900000 1.359000 1.229000 600 53 1.000000 0.053000 0.053000 1.200000 0.029000 0.035000
1518061369294650077	600 49 0.900000 0.221000 0.209000 700 45 0.900000 1.355000 1.226000 600 53 1.000000 0.054000 0.054000 1.200000 0.029000 0.035000
1518061369850702536	600 49 0.900000 0.222000 0.210000 700 46 0.900000 1.366000 1.236000 600 53 1.000000 0.054000 0.054000 1.200000 0.029000 0.035000
1518061370406552911	600 49 0.900000 0.221000 0.209000 700 45 0.900000 1.364000 1.234000 600 53 1.000000 0.053000 0.053000 1.200000 0.029000 0.035000
1518061370970598744	600 49 0.900000 0.222000 0.210000 700 45 0.900000 1.368000 1.238000 600 53 1.000000 0.054000 0.054000 1.200000 0.029000 0.035000
1518061371518738119	600 49 0.900000 0.221000 0.209000 700 45 0.900000 1.364000 1.234000 600 53 1.000000 0.054000 0.054000 1.200000 0.028000 0.033000
1518061372074569328	600 49 0.900000 0.221000 0.209000 700 45 0.900000 1.368000 1.238000 600 53 1.000000 0.054000 0.054000 1.200000 0.029000 0.035000
1518061372634642578	600 49 0.900000 0.221000 0.209000 700 46 0.900000 1.373000 1.242000 600 53 1.000000 0.053000 0.053000 1.200000 0.029000 0.035000
1518061373182632369	600 49 0.900000 0.221000 0.209000 700 45 0.900000 1.374000 1.243000 600 53 1.000000 0.054000 0.054000 1.200000 0.029000 0.035000
1518061373750654911	600 49 0.900000 0.221000 0.209000 700 46 0.900000 1.374000 1.243000 600 53 1.000000 0.053000 0.053000 1.200000 0.029000 0.035000
1518061374306681870	600 49 0.900000 0.222000 0.210000 700 45 0.900000 1.374000 1.243000 600 53 1.000000 0.054000 0.054000 1.200000 0.028000 0.033000
1518061374862566786	600 49 0.900000 0.221000 0.209000 700 46 0.900000 1.373000 1.242000 600 53 1.000000 0.053000 0.053000 1.200000 0.029000 0.035000
1518061375426637661	600 49 0.900000 0.221000 0.209000 700 45 0.900000 1.374000 1.243000 600 53 1.000000 0.053000 0.053000 1.200000 0.029000 0.035000
1518061375990569745	600 48 0.900000 0.221000 0.209000 700 46 0.900000 1.374000 1.243000 600 53 1.000000 0.053000 0.053000 1.200000 0.029000 0.035000
1518061376554688745	600 49 0.900000 0.222000 0.210000 700 45 0.900000 1.371000 1.240000 600 53 1.000000 0.054000 0.054000 1.200000 0.029000 0.035000
1518061377106656828	600 49 0.900000 0.222000 0.210000 700 45 0.900000 1.370000 1.239000 600 53 1.000000 0.053000 0.053000 1.200000 0.029000 0.035000
1518061377658670662	600 49 0.900000 0.221000 0.209000 700 46 0.900000 1.375000 1.244000 600 53 1.000000 0.054000 0.054000 1.200000 0.029000 0.035000
1518061378222673203	600 49 0.900000 0.221000 0.209000 700 45 0.900000 1.374000 1.244000 600 53 1.000000 0.054000 0.054000 1.200000 0.029000 0.035000
1518061378786643037	600 49 0.900000 0.221000 0.209000 700 45 0.900000 1.374000 1.244000 600 53 1.000000 0.053000 0.053000 1.200000 0.029000 0.035000
1518061379354599912	600 49 0.900000 0.221000 0.209000 700 45 0.900000 1.374000 1.243000 600 53 1.000000 0.054000 0.054000 1.200000 0.029000 0.035000
1518061379906613245	600 49 0.900000 0.222000 0.210000 700 46 0.900000 1.374000 1.243000 600 53 1.000000 0.053000 0.053000 1.200000 0.028000 0.033000
1518061380470634287	600 49 0.900000 0.221000 0.209000 700 46 0.900000 1.375000 1.245000 600 53 1.000000 0.054000 0.054000 1.200000 0.029000 0.035000
1518061381022652079	600 49 0.900000 0.221000 0.209000 700 45 0.900000 1.374000 1.243000 600 53 1.000000 0.053000 0.053000 1.200000 0.029000 0.035000
1518061381582616579	600 49 0.900000 0.222000 0.210000 700 46 0.900000 1.371000 1.240000 600 53 1.000000 0.054000 0.054000 1.200000 0.029000 0.035000
1518061382142537412	600 49 0.900000 0.221000 0.209000 700 45 0.900000 1.366000 1.236000 600 53 1.000000 0.054000 0.054000 1.200000 0.029000 0.035000
1518061382702592329	600 49 0.900000 0.221000 0.209000 700 46 0.900000 1.370000 1.239000 600 53 1.000000 0.053000 0.053000 1.200000 0.028000 0.033000
1518061383282592746	600 49 0.900000 0.221000 0.209000 700 46 0.900000 1.371000 1.242000 600 53 1.000000 0.053000 0.053000 1.200000 0.029000 0.035000
1518061383842630787	600 49 0.900000 0.222000 0.210000 700 46 0.900000 1.363000 1.234000 600 53 1.000000 0.053000 0.053000 1.200000 0.029000 0.035000
1518061384402669746	600 49 0.900000 0.221000 0.209000 700 46 0.900000 1.365000 1.236000 600 53 1.000000 0.053000 0.053000 1.200000 0.029000 0.035000
1518061384958612996	600 49 0.900000 0.221000 0.209000 700 45 0.900000 1.361000 1.231000 600 53 1.000000 0.053000 0.053000 1.200000 0.029000 0.035000
1518061385522626538	600 49 0.900000 0.222000 0.210000 700 46 0.900000 1.351000 1.222000 600 53 1.000000 0.053000 0.053000 1.200000 0.029000 0.035000
1518061386070666829	600 49 0.900000 0.221000 0.209000 700 46 0.900000 1.349000 1.220000 600 53 1.000000 0.054000 0.054000 1.200000 0.030000 0.036000
1518061386626590788	600 49 0.900000 0.221000 0.209000 700 45 0.900000 1.352000 1.223000 600 53 1.000000 0.053000 0.053000 1.200000 0.028000 0.033000
1518061387194538996	600 49 0.900000 0.222000 0.210000 700 46 0.900000 1.353000 1.224000 600 53 1.000000 0.053000 0.053000 1.200000 0.029000 0.035000
1518061387758598371	600 49 0.900000 0.222000 0.210000 700 45 0.900000 1.346000 1.218000 600 53 1.000000 0.054000 0.054000 1.200000 0.029000 0.035000
1518061388318530955	600 49 0.900000 0.221000 0.209000 700 45 0.900000 1.348000 1.219000 600 53 1.000000 0.053000 0.053000 1.200000 0.029000 0.035000
1518061388866597913	600 49 0.900000 0.221000 0.209000 700 46 0.900000 1.352000 1.223000 600 53 1.000000 0.053000 0.053000 1.200000 0.029000 0.035000
1518061389422639746	600 49 0.900000 0.222000 0.210000 700 46 0.900000 1.353000 1.224000 600 53 1.000000 0.054000 0.054000 1.200000 0.029000 0.035000
1518061389974628996	600 49 0.900000 0.221000 0.209000 700 45 0.900000 1.349000 1.220000 600 53 1.000000 0.053000 0.053000 1.200000 0.029000 0.035000
1518061390530640246	600 49 0.900000 0.221000 0.209000 700 46 0.900000 1.351000 1.222000 600 53 1.000000 0.054000 0.054000 1.200000 0.029000 0.035000
1518061391094644330	600 49 0.900000 0.221000 0.209000 700 46 0.900000 1.356000 1.227000 600 53 1.000000 0.053000 0.053000 1.200000 0.029000 0.035000
1518061391658580747	600 49 0.900000 0.222000 0.210000 700 46 0.900000 1.357000 1.228000 600 53 1.000000 0.053000 0.053000 1.200000 0.028000 0.033000
1518061392222615705	600 49 0.900000 0.222000 0.210000 700 46 0.900000 1.357000 1.228000 600 53 1.000000 0.054000 0.054000 1.200000 0.028000 0.033000
1518061392786666747	600 49 0.900000 0.221000 0.209000 700 46 0.900000 1.356000 1.227000 600 53 1.000000 0.054000 0.054000 1.200000 0.028000 0.033000
1518061393338579080	600 49 0.900000 0.221000 0.209000 700 45 0.900000 1.353000 1.224000 600 53 1.000000 0.054000 0.054000 1.200000 0.029000 0.035000
1518061393894653372	600 49 0.900000 0.221000 0.209000 700 45 0.900000 1.352000 1.223000 600 53 1.000000 0.053000 0.053000 1.200000 0.029000 0.035000
1518061394442666914	600 49 0.900000 0.222000 0.210000 700 45 0.900000 1.351000 1.222000 600 53 1.000000 0.053000 0.053000 1.200000 0.029000 0.035000
1518061394994606914	600 49 0.900000 0.222000 0.210000 700 46 0.900000 1.351000 1.222000 600 53 1.000000 0.053000 0.053000 1.200000 0.029000 0.035000
1518061395554646622	600 49 0.900000 0.221000 0.209000 700 46 0.900000 1.352000 1.223000 600 53 1.000000 0.053000 0.053000 1.200000 0.029000 0.035000
1518061396102593039	600 49 0.900000 0.221000 0.209000 700 46 0.900000 1.352000 1.223000 600 53 1.000000 0.053000 0.053000 1.200000 0.029000 0.035000
1518061396670629372	600 49 0.900000 0.222000 0.210000 700 46 0.900000 1.357000 1.228000 600 53 1.000000 0.053000 0.053000 1.200000 0.028000 0.033000
1518061397234632914	600 49 0.900000 0.221000 0.209000 700 46 0.900000 1.356000 1.227000 600 53 1.000000 0.054000 0.054000 1.200000 0.028000 0.033000
1518061397790566331	600 49 0.900000 0.221000 0.209000 700 46 0.900000 1.354000 1.225000 600 53 1.000000 0.053000 0.053000 1.200000 0.028000 0.033000
1518061398350579997	600 49 0.900000 0.221000 0.209000 700 46 0.900000 1.350000 1.221000 600 53 1.000000 0.054000 0.054000 1.200000 0.029000 0.035000
1518061398914616997	600 49 0.900000 0.221000 0.209000 700 45 0.900000 1.350000 1.221000 600 53 1.000000 0.054000 0.054000 1.200000 0.029000 0.035000
1518061399478567789	600 49 0.900000 0.221000 0.209000 700 46 0.900000 1.354000 1.225000 600 53 1.000000 0.053000 0.053000 1.200000 0.029000 0.035000
1518061400046529373	600 49 0.900000 0.221000 0.209000 700 46 0.900000 1.352000 1.223000 600 53 1.000000 0.053000 0.053000 1.200000 0.031000 0.037000
1518061400594625248	600 49 0.900000 0.221000 0.209000 700 46 0.900000 1.354000 1.225000 600 53 1.000000 0.053000 0.053000 1.200000 0.032000 0.038000
1518061401158561331	600 49 0.900000 0.221000 0.209000 700 45 0.900000 1.353000 1.224000 600 53 1.000000 0.053000 0.053000 1.200000 0.032000 0.038000
1518061401714652164	600 49 0.900000 0.221000 0.209000 700 46 0.900000 1.353000 1.224000 600 53 1.000000 0.053000 0.053000 1.200000 0.032000 0.038000
1518061402266552040	600 49 0.900000 0.221000 0.209000 700 46 0.900000 1.354000 1.225000 600 53 1.000000 0.053000 0.053000 1.200000 0.032000 0.038000
1518061402814619998	600 49 0.900000 0.221000 0.209000 700 46 0.900000 1.353000 1.224000 600 53 1.000000 0.053000 0.053000 1.200000 0.032000 0.038000
1518061403382571081	600 49 0.900000 0.221000 0.209000 700 45 0.900000 1.348000 1.219000 600 53 1.000000 0.053000 0.053000 1.200000 0.032000 0.038000
1518061403950626165	600 49 0.900000 0.221000 0.209000 700 46 0.900000 1.351000 1.222000 600 53 1.000000 0.053000 0.053000 1.200000 0.032000 0.038000
1518061404522618915	600 49 0.900000 0.221000 0.209000 700 46 0.900000 1.353000 1.224000 600 53 1.000000 0.053000 0.053000 1.200000 0.032000 0.038000
1518061405086551082	600 49 0.900000 0.221000 0.209000 700 46 0.900000 1.347000 1.219000 600 53 1.000000 0.054000 0.054000 1.200000 0.032000 0.038000
1518061405646550707	600 49 0.900000 0.221000 0.209000 700 46 0.900000 1.354000 1.225000 600 53 1.000000 0.053000 0.053000 1.200000 0.032000 0.038000
1518061406210580165	600 49 0.900000 0.221000 0.209000 700 46 0.900000 1.354000 1.225000 600 53 1.000000 0.054000 0.054000 1.200000 0.032000 0.038000
1518061406766588582	600 49 0.900000 0.221000 0.209000 700 45 0.900000 1.354000 1.225000 600 53 1.000000 0.054000 0.054000 1.200000 0.032000 0.038000
1518061407330558415	600 49 0.900000 0.221000 0.209000 700 46 0.900000 1.354000 1.225000 600 53 1.000000 0.054000 0.054000 1.200000 0.032000 0.038000
1518061407886576790	600 49 0.900000 0.221000 0.209000 700 46 0.900000 1.349000 1.220000 600 53 1.000000 0.053000 0.053000 1.200000 0.032000 0.038000
1518061408446591457	600 49 0.900000 0.220000 0.208000 700 46 0.900000 1.353000 1.224000 600 53 1.000000 0.053000 0.053000 1.200000 0.032000 0.038000
1518061409002629999	600 49 0.900000 0.221000 0.209000 700 46 0.900000 1.349000 1.220000 600 53 1.000000 0.053000 0.053000 1.200000 0.032000 0.038000
1518061409558617624	600 49 0.900000 0.221000 0.209000 700 46 0.900000 1.350000 1.221000 600 53 1.000000 0.053000 0.053000 1.200000 0.032000 0.038000
1518061410122617249	600 49 0.900000 0.221000 0.209000 700 46 0.900000 1.354000 1.225000 600 53 1.000000 0.053000 0.053000 1.200000 0.032000 0.038000
1518061410674583041	600 49 0.900000 0.221000 0.209000 700 46 0.900000 1.353000 1.224000 600 53 1.000000 0.054000 0.054000 1.200000 0.032000 0.038000
1518061411222615582	600 49 0.900000 0.221000 0.209000 700 46 0.900000 1.353000 1.224000 600 53 1.000000 0.053000 0.053000 1.200000 0.032000 0.038000
1518061411798586666	600 49 0.900000 0.221000 0.209000 700 45 0.900000 1.354000 1.225000 600 53 1.000000 0.053000 0.053000 1.200000 0.032000 0.038000
1518061412346566332	600 49 0.900000 0.221000 0.209000 700 45 0.900000 1.354000 1.225000 600 53 1.000000 0.053000 0.053000 1.200000 0.032000 0.038000
1518061412894612082	600 49 0.900000 0.221000 0.209000 700 46 0.900000 1.354000 1.225000 600 53 1.000000 0.054000 0.054000 1.200000 0.032000 0.038000
1518061413458609916	600 49 0.900000 0.221000 0.209000 700 46 0.900000 1.353000 1.224000 600 53 1.000000 0.054000 0.054000 1.200000 0.032000 0.038000
1518061414022658416	600 49 0.900000 0.221000 0.209000 700 46 0.900000 1.349000 1.220000 600 53 1.000000 0.053000 0.053000 1.200000 0.032000 0.038000
1518061414574561249	600 49 0.900000 0.221000 0.209000 700 46 0.900000 1.349000 1.220000 600 53 1.000000 0.053000 0.053000 1.200000 0.033000 0.039000
1518061415130605374	600 49 0.900000 0.221000 0.209000 700 46 0.900000 1.357000 1.228000 600 53 1.000000 0.053000 0.053000 1.200000 0.032000 0.038000
1518061415678599124	600 49 0.900000 0.221000 0.209000 700 46 0.900000 1.357000 1.228000 600 53 1.000000 0.054000 0.054000 1.200000 0.032000 0.038000
1518061416242556583	600 49 0.900000 0.221000 0.209000 700 46 0.900000 1.359000 1.229000 600 53 1.000000 0.053000 0.053000 1.200000 0.032000 0.038000
1518061416806625791	600 49 0.900000 0.221000 0.209000 700 45 0.900000 1.358000 1.228000 600 53 1.000000 0.054000 0.054000 1.200000 0.032000 0.038000
1518061417374576875	600 49 0.900000 0.221000 0.209000 700 46 0.900000 1.358000 1.228000 600 53 1.000000 0.053000 0.053000 1.200000 0.032000 0.038000
1518061417946571291	600 49 0.900000 0.221000 0.209000 700 46 0.900000 1.357000 1.228000 600 53 1.000000 0.053000 0.053000 1.200000 0.032000 0.038000
1518061418510609500	600 49 0.900000 0.221000 0.209000 700 46 0.900000 1.348000 1.219000 600 53 1.000000 0.053000 0.053000 1.200000 0.033000 0.039000
1518061419058647750	600 49 0.900000 0.221000 0.209000 700 46 0.900000 1.359000 1.229000 600 53 1.000000 0.053000 0.053000 1.200000 0.032000 0.038000
1518061419610554958	600 49 0.900000 0.221000 0.209000 700 46 0.900000 1.349000 1.220000 600 53 1.000000 0.054000 0.054000 1.200000 0.033000 0.039000
1518061420174606458	600 49 0.900000 0.221000 0.209000 700 46 0.900000 1.353000 1.224000 600 53 1.000000 0.053000 0.053000 1.200000 0.032000 0.038000
1518061420722526292	600 49 0.900000 0.221000 0.209000 700 45 0.900000 1.354000 1.225000 600 53 1.000000 0.054000 0.054000 1.200000 0.033000 0.039000
1518061421278623625	600 49 0.900000 0.221000 0.209000 700 46 0.900000 1.354000 1.225000 600 53 1.000000 0.054000 0.054000 1.200000 0.032000 0.038000
1518061421842576959	600 49 0.900000 0.221000 0.209000 700 46 0.900000 1.354000 1.225000 600 53 1.000000 0.053000 0.053000 1.200000 0.032000 0.038000
1518061422398586084	600 49 0.900000 0.221000 0.209000 700 46 0.900000 1.352000 1.223000 600 53 1.000000 0.053000 0.053000 1.200000 0.033000 0.039000
1518061422950552959	600 49 0.900000 0.221000 0.209000 700 46 0.900000 1.351000 1.222000 600 53 1.000000 0.054000 0.054000 1.200000 0.032000 0.038000
1518061423506623417	600 49 0.900000 0.221000 0.209000 700 46 0.900000 1.357000 1.228000 600 53 1.000000 0.053000 0.053000 1.200000 0.032000 0.038000
1518061424074560167	600 49 0.900000 0.221000 0.209000 700 46 0.900000 1.348000 1.221000 600 53 1.000000 0.053000 0.053000 1.200000 0.032000 0.038000
1518061424634616917	600 49 0.900000 0.221000 0.209000 700 46 0.900000 1.352000 1.223000 600 53 1.000000 0.053000 0.053000 1.200000 0.032000 0.038000
1518061425206603834	600 49 0.900000 0.221000 0.209000 700 46 0.900000 1.356000 1.227000 600 53 1.000000 0.053000 0.053000 1.200000 0.033000 0.039000
1518061425774561292	600 49 0.900000 0.221000 0.209000 700 46 0.900000 1.352000 1.223000 600 53 1.000000 0.054000 0.054000 1.200000 0.033000 0.039000
1518061426338558542	600 49 0.900000 0.221000 0.209000 700 46 0.900000 1.357000 1.228000 600 53 1.000000 0.054000 0.054000 1.200000 0.033000 0.039000
1518061426898576959	600 49 0.900000 0.221000 0.209000 700 46 0.900000 1.356000 1.227000 600 53 1.000000 0.053000 0.053000 1.200000 0.032000 0.038000
1518061427470630959	600 49 0.900000 0.221000 0.209000 700 46 0.900000 1.352000 1.224000 600 53 1.000000 0.053000 0.053000 1.200000 0.032000 0.038000
1518061428038635918	600 49 0.900000 0.221000 0.209000 700 46 0.900000 1.360000 1.230000 600 53 1.000000 0.053000 0.053000 1.200000 0.032000 0.038000
1518061428586547084	600 49 0.900000 0.221000 0.209000 700 46 0.900000 1.361000 1.231000 600 53 1.000000 0.054000 0.054000 1.200000 0.032000 0.038000
1518061429142591126	600 49 0.900000 0.221000 0.209000 700 46 0.900000 1.358000 1.230000 600 53 1.000000 0.054000 0.054000 1.200000 0.032000 0.038000
1518061429718564668	600 49 0.900000 0.221000 0.209000 700 46 0.900000 1.355000 1.226000 600 53 1.000000 0.054000 0.054000 1.200000 0.032000 0.038000
1518061430270601460	600 49 0.900000 0.221000 0.209000 700 46 0.900000 1.356000 1.227000 600 53 1.000000 0.053000 0.053000 1.200000 0.033000 0.039000
1518061430842572960	600 49 0.900000 0.220000 0.208000 700 46 0.900000 1.350000 1.223000 600 53 1.000000 0.053000 0.053000 1.200000 0.032000 0.038000
1518061431406616293	600 49 0.900000 0.221000 0.209000 700 46 0.900000 1.355000 1.227000 600 53 1.000000 0.054000 0.054000 1.200000 0.033000 0.039000
1518061431962588335	600 49 0.900000 0.221000 0.209000 700 46 0.900000 1.358000 1.228000 600 53 1.000000 0.053000 0.053000 1.200000 0.032000 0.038000
1518061432514609501	600 49 0.900000 0.221000 0.209000 700 46 0.900000 1.356000 1.227000 600 53 1.000000 0.053000 0.053000 1.200000 0.033000 0.039000
1518061433070609960	600 49 0.900000 0.221000 0.209000 700 46 0.900000 1.360000 1.230000 600 53 1.000000 0.054000 0.054000 1.200000 0.032000 0.038000
1518061433622610377	600 49 0.900000 0.221000 0.209000 700 46 0.900000 1.360000 1.230000 600 53 1.000000 0.054000 0.054000 1.200000 0.032000 0.038000
1518061434174604418	600 49 0.900000 0.222000 0.210000 700 46 0.900000 1.360000 1.230000 600 53 1.000000 0.053000 0.053000 1.200000 0.030000 0.036000
1518061434734583543	600 49 0.900000 0.221000 0.209000 700 46 0.900000 1.355000 1.226000 600 53 1.000000 0.053000 0.053000 1.200000 0.031000 0.037000
1518061435290576210	600 49 0.900000 0.222000 0.210000 700 46 0.900000 1.355000 1.226000 600 53 1.000000 0.053000 0.053000 1.200000 0.031000 0.037000
1518061435838658294	600 49 0.900000 0.221000 0.209000 700 46 0.900000 1.354000 1.225000 600 53 1.000000 0.053000 0.053000 1.200000 0.031000 0.037000
1518061436402646044	600 49 0.900000 0.221000 0.209000 700 46 0.900000 1.354000 1.225000 600 53 1.000000 0.054000 0.054000 1.200000 0.031000 0.037000
1518061436954714210	600 49 0.900000 0.221000 0.209000 700 46 0.900000 1.354000 1.225000 600 53 1.000000 0.053000 0.053000 1.200000 0.031000 0.037000
1518061437526610377	600 49 0.900000 0.221000 0.209000 700 46 0.900000 1.358000 1.228000 600 53 1.000000 0.053000 0.053000 1.200000 0.031000 0.037000
1518061438090535252	600 49 0.900000 0.221000 0.209000 700 45 0.900000 1.360000 1.230000 600 53 1.000000 0.054000 0.054000 1.200000 0.030000 0.036000
1518061438654626127	600 49 0.900000 0.221000 0.209000 700 46 0.900000 1.360000 1.230000 600 53 1.000000 0.053000 0.053000 1.200000 0.031000 0.037000
1518061439218645502	600 49 0.900000 0.221000 0.209000 700 46 0.900000 1.360000 1.232000 600 53 1.000000 0.054000 0.054000 1.200000 0.031000 0.037000
1518061439774639877	600 49 0.900000 0.221000 0.209000 700 46 0.900000 1.359000 1.231000 600 53 1.000000 0.053000 0.053000 1.200000 0.031000 0.037000
1518061440342556961	600 49 0.900000 0.221000 0.209000 700 46 0.900000 1.356000 1.228000 600 53 1.000000 0.054000 0.054000 1.200000 0.031000 0.037000
1518061440910572002	600 49 0.900000 0.221000 0.209000 700 46 0.900000 1.358000 1.230000 600 53 1.000000 0.053000 0.053000 1.200000 0.031000 0.037000
1518061441470524711	600 49 0.900000 0.221000 0.209000 700 46 0.900000 1.359000 1.229000 600 53 1.000000 0.053000 0.053000 1.200000 0.031000 0.037000
1518061442034631336	600 49 0.900000 0.221000 0.209000 700 46 0.900000 1.360000 1.230000 600 53 1.000000 0.053000 0.053000 1.200000 0.031000 0.037000
1518061442594571461	600 49 0.900000 0.221000 0.209000 700 46 0.900000 1.358000 1.230000 600 53 1.000000 0.053000 0.053000 1.200000 0.031000 0.037000
1518061443158612336	600 49 0.900000 0.221000 0.209000 700 46 0.900000 1.359000 1.229000 600 53 1.000000 0.053000 0.053000 1.200000 0.031000 0.037000
1518061443714538878	600 49 0.900000 0.222000 0.210000 700 46 0.900000 1.363000 1.233000 600 53 1.000000 0.054000 0.054000 1.200000 0.031000 0.037000
1518061444266555503	600 49 0.900000 0.222000 0.210000 700 46 0.900000 1.369000 1.238000 600 53 1.000000 0.054000 0.054000 1.200000 0.031000 0.037000
1518061444814688253	600 49 0.900000 0.221000 0.209000 700 46 0.900000 1.367000 1.238000 600 53 1.000000 0.053000 0.053000 1.200000 0.031000 0.037000
1518061445366585003	600 49 0.900000 0.221000 0.209000 700 46 0.900000 1.366000 1.236000 600 53 1.000000 0.053000 0.053000 1.200000 0.030000 0.036000
1518061445918577420	600 49 0.900000 0.221000 0.209000 700 46 0.900000 1.364000 1.234000 600 53 1.000000 0.054000 0.054000 1.200000 0.031000 0.037000
1518061446478607670	600 49 0.900000 0.221000 0.209000 700 46 0.900000 1.357000 1.229000 600 53 1.000000 0.054000 0.054000 1.200000 0.031000 0.037000
1518061447042623420	600 49 0.900000 0.221000 0.209000 700 46 0.900000 1.367000 1.238000 600 53 1.000000 0.053000 0.053000 1.200000 0.031000 0.037000
1518061447606591920	600 49 0.900000 0.221000 0.209000 700 46 0.900000 1.369000 1.240000 600 53 1.000000 0.054000 0.054000 1.200000 0.030000 0.036000
1518061448166611503	600 49 0.900000 0.221000 0.209000 700 46 0.900000 1.369000 1.240000 600 53 1.000000 0.053000 0.053000 1.200000 0.031000 0.037000
1518061448722550837	600 49 0.900000 0.221000 0.209000 700 46 0.900000 1.368000 1.239000 600 53 1.000000 0.054000 0.054000 1.200000 0.030000 0.036000
1518061449274587337	600 49 0.900000 0.222000 0.210000 700 46 0.900000 1.368000 1.239000 600 53 1.000000 0.053000 0.053000 1.200000 0.031000 0.037000
1518061449814645795	600 49 0.900000 0.221000 0.209000 700 46 0.900000 1.368000 1.239000 600 53 1.000000 0.054000 0.054000 1.200000 0.030000 0.036000
1518061450378612670	600 49 0.900000 0.221000 0.209000 700 46 0.900000 1.369000 1.240000 600 53 1.000000 0.054000 0.054000 1.200000 0.030000 0.036000
1518061450934773879	600 49 0.900000 0.221000 0.209000 700 46 0.900000 1.368000 1.238000 600 53 1.000000 0.054000 0.054000 1.200000 0.030000 0.036000
1518061451490609712	600 49 0.900000 0.221000 0.209000 700 46 0.900000 1.363000 1.233000 600 53 1.000000 0.053000 0.053000 1.200000 0.031000 0.037000
1518061452050636170	600 49 0.900000 0.221000 0.209000 700 46 0.900000 1.366000 1.236000 600 53 1.000000 0.054000 0.054000 1.200000 0.031000 0.037000
1518061452606631671	600 49 0.900000 0.221000 0.209000 700 46 0.900000 1.368000 1.238000 600 53 1.000000 0.053000 0.053000 1.200000 0.030000 0.036000
1518061453154694004	600 49 0.900000 0.221000 0.209000 700 46 0.900000 1.369000 1.240000 600 53 1.000000 0.053000 0.053000 1.200000 0.031000 0.037000
1518061453718620879	600 49 0.900000 0.221000 0.209000 700 46 0.900000 1.368000 1.238000 600 53 1.000000 0.053000 0.053000 1.200000 0.031000 0.037000
1518061454270579962	600 49 0.900000 0.221000 0.209000 700 46 0.900000 1.368000 1.238000 600 53 1.000000 0.053000 0.053000 1.200000 0.031000 0.037000
1518061454834587379	600 49 0.900000 0.221000 0.209000 700 46 0.900000 1.360000 1.230000 600 53 1.000000 0.053000 0.053000 1.200000 0.031000 0.037000
1518061455390678171	600 49 0.900000 0.221000 0.209000 700 46 0.900000 1.357000 1.228000 600 53 1.000000 0.053000 0.053000 1.200000 0.031000 0.037000
1518061455949242254	600 49 0.900000 0.221000 0.209000 700 46 0.900000 1.364000 1.234000 600 53 1.000000 0.053000 0.053000 1.200000 0.031000 0.037000
1518061456506605254	600 49 0.900000 0.221000 0.209000 700 46 0.900000 1.363000 1.233000 600 53 1.000000 0.053000 0.053000 1.200000 0.031000 0.037000
1518061457062582629	600 49 0.900000 0.221000 0.209000 700 46 0.900000 1.368000 1.238000 600 53 1.000000 0.053000 0.053000 1.200000 0.031000 0.037000
1518061457618672379	600 49 0.900000 0.221000 0.209000 700 46 0.900000 1.360000 1.232000 600 53 1.000000 0.054000 0.054000 1.200000 0.031000 0.037000
1518061458178598130	600 49 0.900000 0.221000 0.209000 700 46 0.900000 1.366000 1.236000 600 53 1.000000 0.054000 0.054000 1.200000 0.031000 0.037000
1518061458734628880	600 49 0.900000 0.221000 0.209000 700 46 0.900000 1.349000 1.220000 600 53 1.000000 0.054000 0.054000 1.200000 0.031000 0.037000
1518061459298614588	600 49 0.900000 0.221000 0.209000 700 46 0.900000 1.357000 1.228000 600 53 1.000000 0.053000 0.053000 1.200000 0.031000 0.037000
1518061459846614213	600 49 0.900000 0.221000 0.209000 700 46 0.900000 1.352000 1.223000 600 53 1.000000 0.053000 0.053000 1.200000 0.031000 0.037000
1518061460390653713	600 49 0.900000 0.221000 0.209000 700 46 0.900000 1.354000 1.226000 600 53 1.000000 0.053000 0.053000 1.200000 0.031000 0.037000
1518061460942610297	600 49 0.900000 0.221000 0.209000 700 46 0.900000 1.353000 1.224000 600 53 1.000000 0.053000 0.053000 1.200000 0.031000 0.037000
1518061461514618338	600 49 0.900000 0.221000 0.209000 700 46 0.900000 1.356000 1.227000 600 53 1.000000 0.053000 0.053000 1.200000 0.031000 0.037000
1518061462066632547	600 49 0.900000 0.221000 0.209000 700 46 0.900000 1.348000 1.219000 600 53 1.000000 0.054000 0.054000 1.200000 0.031000 0.037000
1518061462630549130	600 49 0.900000 0.221000 0.209000 700 46 0.900000 1.357000 1.228000 600 53 1.000000 0.054000 0.054000 1.200000 0.031000 0.037000
1518061463170631297	600 49 0.900000 0.221000 0.209000 700 46 0.900000 1.353000 1.224000 600 53 1.000000 0.053000 0.053000 1.200000 0.031000 0.037000
1518061463718564005	600 49 0.900000 0.221000 0.209000 700 46 0.900000 1.355000 1.226000 600 53 1.000000 0.054000 0.054000 1.200000 0.031000 0.037000
1518061464294553505	600 49 0.900000 0.221000 0.209000 700 46 0.900000 1.356000 1.227000 600 53 1.000000 0.053000 0.053000 1.200000 0.031000 0.037000
1518061464858527339	600 49 0.900000 0.221000 0.209000 700 46 0.900000 1.356000 1.228000 600 53 1.000000 0.053000 0.053000 1.200000 0.031000 0.037000
1518061465414661380	600 49 0.900000 0.221000 0.209000 700 46 0.900000 1.354000 1.225000 600 53 1.000000 0.054000 0.054000 1.200000 0.031000 0.037000
1518061465974681464	600 49 0.900000 0.221000 0.209000 700 46 0.900000 1.353000 1.225000 600 53 1.000000 0.053000 0.053000 1.200000 0.031000 0.037000
1518061466542567922	600 49 0.900000 0.221000 0.209000 700 46 0.900000 1.354000 1.225000 600 53 1.000000 0.053000 0.053000 1.200000 0.031000 0.037000
1518061467094554047	600 49 0.900000 0.221000 0.209000 700 46 0.900000 1.357000 1.228000 600 53 1.000000 0.053000 0.053000 1.200000 0.031000 0.037000
1518061467650605131	600 49 0.900000 0.221000 0.209000 700 46 0.900000 1.357000 1.228000 600 53 1.000000 0.053000 0.053000 1.200000 0.031000 0.037000
1518061468218584422	600 49 0.900000 0.222000 0.210000 700 46 0.900000 1.357000 1.228000 600 53 1.000000 0.053000 0.053000 1.200000 0.031000 0.037000
1518061468782558464	600 49 0.900000 0.220000 0.208000 700 46 0.900000 1.354000 1.225000 600 53 1.000000 0.054000 0.054000 1.200000 0.031000 0.037000
1518061469334590506	600 49 0.900000 0.221000 0.209000 700 46 0.900000 1.353000 1.224000 600 53 1.000000 0.054000 0.054000 1.200000 0.030000 0.036000
1518061469886584923	600 49 0.900000 0.220000 0.208000 700 46 0.900000 1.351000 1.222000 600 53 1.000000 0.054000 0.054000 1.200000 0.030000 0.036000
1518061470446559048	600 49 0.900000 0.220000 0.208000 700 46 0.900000 1.349000 1.220000 600 53 1.000000 0.054000 0.054000 1.200000 0.030000 0.036000
1518061471006561423	600 49 0.900000 0.221000 0.209000 700 46 0.900000 1.351000 1.222000 600 53 1.000000 0.053000 0.053000 1.200000 0.030000 0.036000
1518061471570571381	600 49 0.900000 0.221000 0.209000 700 46 0.900000 1.355000 1.226000 600 53 1.000000 0.053000 0.053000 1.200000 0.030000 0.036000
1518061472126620590	600 49 0.900000 0.221000 0.209000 700 46 0.900000 1.357000 1.228000 600 53 1.000000 0.054000 0.054000 1.200000 0.030000 0.036000
1518061472690596048	600 49 0.900000 0.221000 0.209000 700 46 0.900000 1.355000 1.226000 600 53 1.000000 0.054000 0.054000 1.200000 0.030000 0.036000
1518061473242634715	600 49 0.900000 0.221000 0.209000 700 46 0.900000 1.368000 1.239000 600 53 1.000000 0.053000 0.053000 1.200000 0.030000 0.036000
1518061473790668965	600 49 0.900000 0.220000 0.208000 700 46 0.900000 1.361000 1.231000 600 53 1.000000 0.054000 0.054000 1.200000 0.030000 0.036000
1518061474366518381	600 49 0.900000 0.221000 0.209000 700 46 0.900000 1.358000 1.230000 600 53 1.000000 0.054000 0.054000 1.200000 0.031000 0.037000
1518061474926639548	600 49 0.900000 0.221000 0.209000 700 46 0.900000 1.359000 1.229000 600 53 1.000000 0.053000 0.053000 1.200000 0.030000 0.036000
1518061475473667590	600 49 0.900000 0.220000 0.208000 700 46 0.900000 1.364000 1.234000 600 53 1.000000 0.054000 0.054000 1.200000 0.031000 0.037000
1518061476038544090	600 49 0.900000 0.220000 0.208000 700 46 0.900000 1.361000 1.231000 600 53 1.000000 0.053000 0.053000 1.200000 0.030000 0.036000
1518061476590584590	600 49 0.900000 0.221000 0.209000 700 46 0.900000 1.366000 1.236000 600 53 1.000000 0.054000 0.054000 1.200000 0.030000 0.036000
1518061477146528007	600 49 0.900000 0.220000 0.208000 700 46 0.900000 1.366000 1.236000 600 53 1.000000 0.053000 0.053000 1.200000 0.030000 0.036000
1518061477702598423	600 49 0.900000 0.221000 0.209000 700 46 0.900000 1.366000 1.236000 600 53 1.000000 0.054000 0.054000 1.200000 0.030000 0.036000
1518061478266514507	600 49 0.900000 0.221000 0.209000 700 46 0.900000 1.365000 1.235000 600 53 1.000000 0.053000 0.053000 1.200000 0.030000 0.036000
1518061478818580090	600 49 0.900000 0.221000 0.209000 700 46 0.900000 1.365000 1.235000 600 53 1.000000 0.053000 0.053000 1.200000 0.030000 0.036000
1518061479370642715	600 49 0.900000 0.221000 0.209000 700 46 0.900000 1.365000 1.235000 600 53 1.000000 0.053000 0.053000 1.200000 0.030000 0.036000
1518061479938546590	600 49 0.900000 0.221000 0.209000 700 46 0.900000 1.361000 1.231000 600 53 1.000000 0.053000 0.053000 1.200000 0.030000 0.036000
1518061480502569216	600 49 0.900000 0.221000 0.209000 700 46 0.900000 1.357000 1.229000 600 53 1.000000 0.053000 0.053000 1.200000 0.030000 0.036000
1518061481062590507	600 49 0.900000 0.220000 0.208000 700 46 0.900000 1.356000 1.227000 600 53 1.000000 0.053000 0.053000 1.200000 0.030000 0.036000
1518061481618575466	600 49 0.900000 0.220000 0.208000 700 46 0.900000 1.367000 1.237000 600 53 1.000000 0.054000 0.054000 1.200000 0.030000 0.036000
1518061482178586799	600 49 0.900000 0.221000 0.209000 700 46 0.900000 1.367000 1.237000 600 53 1.000000 0.054000 0.054000 1.200000 0.029000 0.035000
1518061482742600549	600 49 0.900000 0.220000 0.208000 700 46 0.900000 1.367000 1.237000 600 53 1.000000 0.053000 0.053000 1.200000 0.030000 0.036000
1518061483306537924	600 49 0.900000 0.221000 0.209000 700 46 0.900000 1.367000 1.237000 600 53 1.000000 0.054000 0.054000 1.200000 0.030000 0.036000
1518061483862596841	600 49 0.900000 0.220000 0.208000 700 46 0.900000 1.366000 1.236000 600 53 1.000000 0.053000 0.053000 1.200000 0.030000 0.036000
1518061484418578091	600 49 0.900000 0.220000 0.208000 700 46 0.900000 1.366000 1.236000 600 53 1.000000 0.053000 0.053000 1.200000 0.030000 0.036000
1518061484970618799	600 49 0.900000 0.220000 0.208000 700 46 0.900000 1.361000 1.231000 600 53 1.000000 0.053000 0.053000 1.200000 0.030000 0.036000
1518061485522661841	600 49 0.900000 0.221000 0.209000 700 46 0.900000 1.359000 1.229000 600 53 1.000000 0.053000 0.053000 1.200000 0.030000 0.036000
1518061486074598508	600 49 0.900000 0.221000 0.209000 700 46 0.900000 1.359000 1.229000 600 53 1.000000 0.053000 0.053000 1.200000 0.030000 0.036000
1518061486634630550	600 49 0.900000 0.221000 0.209000 700 46 0.900000 1.366000 1.236000 600 53 1.000000 0.054000 0.054000 1.200000 0.030000 0.036000
1518061487206552466	600 49 0.900000 0.221000 0.209000 700 46 0.900000 1.368000 1.238000 600 53 1.000000 0.054000 0.054000 1.200000 0.030000 0.036000
1518061487758562591	600 49 0.900000 0.221000 0.209000 700 46 0.900000 1.358000 1.228000 600 53 1.000000 0.053000 0.053000 1.200000 0.030000 0.036000
1518061488310555341	600 49 0.900000 0.220000 0.208000 700 46 0.900000 1.359000 1.229000 600 53 1.000000 0.054000 0.054000 1.200000 0.030000 0.036000
1518061488858580133	600 49 0.900000 0.220000 0.208000 700 46 0.900000 1.359000 1.229000 600 53 1.000000 0.053000 0.053000 1.200000 0.030000 0.036000
1518061489414647675	600 49 0.900000 0.221000 0.209000 700 46 0.900000 1.360000 1.230000 600 53 1.000000 0.054000 0.054000 1.200000 0.030000 0.036000
1518061489970588717	600 49 0.900000 0.221000 0.209000 700 46 0.900000 1.359000 1.229000 600 53 1.000000 0.053000 0.053000 1.200000 0.030000 0.036000
1518061490530590842	600 49 0.900000 0.221000 0.209000 700 46 0.900000 1.359000 1.229000 600 53 1.000000 0.054000 0.054000 1.200000 0.030000 0.036000
1518061491094522300	600 49 0.900000 0.221000 0.209000 700 46 0.900000 1.355000 1.226000 600 53 1.000000 0.053000 0.053000 1.200000 0.030000 0.036000
1518061491654527383	600 49 0.900000 0.221000 0.209000 700 46 0.900000 1.353000 1.224000 600 53 1.000000 0.053000 0.053000 1.200000 0.030000 0.036000
1518061492218648009	600 49 0.900000 0.221000 0.209000 700 46 0.900000 1.355000 1.226000 600 53 1.000000 0.053000 0.053000 1.200000 0.030000 0.036000
1518061492778640217	600 49 0.900000 0.221000 0.209000 700 46 0.900000 1.357000 1.228000 600 53 1.000000 0.053000 0.053000 1.200000 0.030000 0.036000
1518061493334584425	600 49 0.900000 0.220000 0.208000 700 46 0.900000 1.354000 1.225000 600 53 1.000000 0.054000 0.054000 1.200000 0.030000 0.036000
1518061493902567925	600 49 0.900000 0.221000 0.209000 700 46 0.900000 1.358000 1.228000 600 53 1.000000 0.054000 0.054000 1.200000 0.030000 0.036000
1518061494462611592	600 49 0.900000 0.221000 0.209000 700 46 0.900000 1.351000 1.222000 600 53 1.000000 0.053000 0.053000 1.200000 0.030000 0.036000
1518061495022615884	600 49 0.900000 0.221000 0.209000 700 46 0.900000 1.357000 1.228000 600 53 1.000000 0.053000 0.053000 1.200000 0.030000 0.036000
1518061495574542426	600 49 0.900000 0.221000 0.209000 700 46 0.900000 1.349000 1.220000 600 53 1.000000 0.053000 0.053000 1.200000 0.030000 0.036000
1518061496126628634	600 49 0.900000 0.221000 0.209000 700 46 0.900000 1.359000 1.229000 600 53 1.000000 0.053000 0.053000 1.200000 0.030000 0.036000
1518061496690572592	600 49 0.900000 0.221000 0.209000 700 46 0.900000 1.357000 1.228000 600 53 1.000000 0.053000 0.053000 1.200000 0.030000 0.036000
1518061497238643134	600 49 0.900000 0.221000 0.209000 700 46 0.900000 1.352000 1.223000 600 53 1.000000 0.054000 0.054000 1.200000 0.030000 0.036000
1518061497806590343	600 49 0.900000 0.220000 0.208000 700 46 0.900000 1.356000 1.227000 600 53 1.000000 0.053000 0.053000 1.200000 0.030000 0.036000
1518061498374596884	600 49 0.900000 0.221000 0.209000 700 46 0.900000 1.352000 1.223000 600 53 1.000000 0.053000 0.053000 1.200000 0.030000 0.036000
1518061498934577718	600 49 0.900000 0.220000 0.208000 700 46 0.900000 1.348000 1.221000 600 53 1.000000 0.054000 0.054000 1.200000 0.030000 0.036000
1518061499482670343	600 49 0.900000 0.220000 0.208000 700 46 0.900000 1.353000 1.224000 600 53 1.000000 0.053000 0.053000 1.200000 0.030000 0.036000
1518061500030618301	600 49 0.900000 0.221000 0.209000 700 46 0.900000 1.354000 1.225000 600 53 1.000000 0.053000 0.053000 1.200000 0.030000 0.036000
1518061500598600676	600 49 0.900000 0.221000 0.209000 700 46 0.900000 1.353000 1.224000 600 53 1.000000 0.053000 0.053000 1.200000 0.030000 0.036000
1518061501150606385	600 49 0.900000 0.221000 0.209000 700 46 0.900000 1.358000 1.228000 600 53 1.000000 0.053000 0.053000 1.200000 0.030000 0.036000
1518061501718630676	600 49 0.900000 0.221000 0.209000 700 46 0.900000 1.353000 1.224000 600 53 1.000000 0.053000 0.053000 1.200000 0.030000 0.036000
1518061502286625760	600 49 0.900000 0.221000 0.209000 700 46 0.900000 1.351000 1.222000 600 53 1.000000 0.054000 0.054000 1.200000 0.030000 0.036000
1518061502842618051	600 49 0.900000 0.220000 0.208000 700 46 0.900000 1.353000 1.224000 600 53 1.000000 0.054000 0.054000 1.200000 0.030000 0.036000
1518061503394613968	600 49 0.900000 0.221000 0.209000 700 46 0.900000 1.346000 1.218000 600 53 1.000000 0.053000 0.053000 1.200000 0.031000 0.037000
1518061503950574052	600 49 0.900000 0.222000 0.210000 700 46 0.900000 1.345000 1.217000 600 53 1.000000 0.054000 0.054000 1.200000 0.031000 0.037000
1518061504502627635	600 49 0.900000 0.222000 0.210000 700 46 0.900000 1.346000 1.218000 600 53 1.000000 0.054000 0.054000 1.200000 0.031000 0.037000
1518061505066564593	600 49 0.900000 0.221000 0.209000 700 46 0.900000 1.342000 1.214000 600 53 1.000000 0.053000 0.053000 1.200000 0.031000 0.037000
1518061505622595968	600 49 0.900000 0.223000 0.211000 700 46 0.900000 1.352000 1.223000 600 53 1.000000 0.054000 0.054000 1.200000 0.031000 0.037000
1518061506178605677	600 49 0.900000 0.223000 0.211000 700 46 0.900000 1.351000 1.224000 600 53 1.000000 0.053000 0.053000 1.200000 0.031000 0.037000
1518061506738607052	600 49 0.900000 0.222000 0.210000 700 46 0.900000 1.352000 1.223000 600 53 1.000000 0.053000 0.053000 1.200000 0.031000 0.037000
1518061507302519177	600 49 0.900000 0.222000 0.210000 700 46 0.900000 1.353000 1.224000 600 53 1.000000 0.054000 0.054000 1.200000 0.031000 0.037000
1518061507862615302	600 49 0.900000 0.222000 0.210000 700 46 0.900000 1.351000 1.222000 600 53 1.000000 0.053000 0.053000 1.200000 0.031000 0.037000
1518061508434582344	600 49 0.900000 0.222000 0.210000 700 46 0.900000 1.346000 1.218000 600 53 1.000000 0.054000 0.054000 1.200000 0.031000 0.037000
1518061508990617261	600 49 0.900000 0.222000 0.210000 700 46 0.900000 1.343000 1.215000 600 53 1.000000 0.054000 0.054000 1.200000 0.032000 0.038000
1518061509546637636	600 49 0.900000 0.223000 0.211000 700 46 0.900000 1.346000 1.218000 600 53 1.000000 0.054000 0.054000 1.200000 0.031000 0.037000
1518061510102639344	600 49 0.900000 0.223000 0.211000 700 46 0.900000 1.352000 1.223000 600 53 1.000000 0.054000 0.054000 1.200000 0.031000 0.037000
1518061510658607677	600 49 0.900000 0.222000 0.210000 700 46 0.900000 1.352000 1.223000 600 53 1.000000 0.053000 0.053000 1.200000 0.031000 0.037000
1518061511222586761	600 49 0.900000 0.223000 0.211000 700 46 0.900000 1.352000 1.223000 600 53 1.000000 0.053000 0.053000 1.200000 0.031000 0.037000
1518061511786506928	600 49 0.900000 0.222000 0.210000 700 46 0.900000 1.353000 1.225000 600 53 1.000000 0.054000 0.054000 1.200000 0.031000 0.037000
1518061512330570386	600 49 0.900000 0.223000 0.211000 700 46 0.900000 1.352000 1.223000 600 53 1.000000 0.053000 0.053000 1.200000 0.031000 0.037000
1518061512898592678	600 49 0.900000 0.222000 0.210000 700 46 0.900000 1.346000 1.218000 600 53 1.000000 0.053000 0.053000 1.200000 0.031000 0.037000
1518061513474558803	600 49 0.900000 0.222000 0.210000 700 46 0.900000 1.352000 1.223000 600 53 1.000000 0.054000 0.054000 1.200000 0.031000 0.037000
1518061514042538636	600 49 0.900000 0.222000 0.210000 700 46 0.900000 1.342000 1.214000 600 53 1.000000 0.053000 0.053000 1.200000 0.031000 0.037000
1518061514598568845	600 49 0.900000 0.222000 0.210000 700 46 0.900000 1.352000 1.223000 600 53 1.000000 0.053000 0.053000 1.200000 0.031000 0.037000
1518061515150644928	600 49 0.900000 0.222000 0.210000 700 46 0.900000 1.352000 1.223000 600 53 1.000000 0.053000 0.053000 1.200000 0.031000 0.037000
1518061515702577678	600 49 0.900000 0.222000 0.210000 700 46 0.900000 1.352000 1.223000 600 53 1.000000 0.053000 0.053000 1.200000 0.031000 0.037000
1518061516213028011	600 48 0.900000 0.222000 0.210000 700 46 0.900000 0.879000 0.792000 600 50 1.000000 0.054000 0.054000 1.200000 0.031000 0.037000
1518061516723368261	600 48 0.900000 0.223000 0.211000 700 45 0.900000 0.752000 0.678000 600 50 1.000000 0.054000 0.054000 1.200000 0.031000 0.037000
1518061517233498178	600 45 0.900000 0.223000 0.211000 700 45 0.900000 0.447000 0.406000 600 49 1.000000 0.053000 0.053000 1.200000 0.031000 0.037000
1518061517743736303	600 44 0.900000 0.222000 0.210000 700 44 0.900000 0.090000 0.082000 600 48 1.000000 0.053000 0.053000 1.200000 0.031000 0.037000
1518061518253641595	600 44 0.900000 0.222000 0.210000 700 44 0.900000 0.087000 0.079000 600 47 1.000000 0.053000 0.053000 1.200000 0.031000 0.037000
1518061518763990387	600 44 0.900000 0.222000 0.210000 700 43 0.900000 0.088000 0.080000 600 47 1.000000 0.053000 0.053000 1.200000 0.031000 0.037000
1518061519274246512	600 43 0.900000 0.222000 0.210000 700 43 0.900000 0.098000 0.089000 600 46 1.000000 0.053000 0.053000 1.200000 0.031000 0.037000
1518061519784179262	600 43 0.900000 0.221000 0.209000 700 43 0.900000 0.106000 0.096000 600 46 1.000000 0.053000 0.053000 1.200000 0.030000 0.036000
1518061520294181387	600 43 0.900000 0.221000 0.209000 700 43 0.900000 0.099000 0.090000 600 46 1.000000 0.053000 0.053000 1.200000 0.031000 0.037000
1518061520804253345	600 43 0.900000 0.221000 0.209000 700 42 0.900000 0.092000 0.083000 600 46 1.000000 0.053000 0.053000 1.200000 0.031000 0.037000
1518061521314259970	600 43 0.900000 0.221000 0.209000 700 42 0.900000 0.087000 0.079000 600 46 1.000000 0.053000 0.053000 1.200000 0.031000 0.037000
1518061521824362179	600 42 0.900000 0.221000 0.209000 700 42 0.900000 0.087000 0.079000 600 45 1.000000 0.053000 0.053000 1.200000 0.030000 0.036000
1518061522334324720	600 42 0.900000 0.221000 0.209000 700 42 0.900000 0.088000 0.080000 600 45 1.000000 0.053000 0.053000 1.200000 0.031000 0.037000
1518061522844417887	600 42 0.900000 0.220000 0.208000 700 42 0.900000 0.086000 0.078000 600 45 1.000000 0.053000 0.053000 1.200000 0.031000 0.037000
1518061523354348887	600 42 0.900000 0.222000 0.210000 700 42 0.900000 0.085000 0.077000 600 45 1.000000 0.053000 0.053000 1.200000 0.030000 0.036000
1518061523864347096	600 42 0.900000 0.221000 0.209000 700 42 0.900000 0.087000 0.079000 600 45 1.000000 0.053000 0.053000 1.200000 0.030000 0.036000
1518061524374385554	600 42 0.900000 0.221000 0.209000 700 42 0.900000 0.088000 0.080000 600 45 1.000000 0.053000 0.053000 1.200000 0.031000 0.037000
1518061524884414679	600 42 0.900000 0.221000 0.209000 700 41 0.900000 0.086000 0.078000 600 45 1.000000 0.053000 0.053000 1.200000 0.031000 0.037000
1518061525394278263	600 42 0.900000 0.221000 0.209000 700 41 0.900000 0.085000 0.077000 600 45 1.000000 0.053000 0.053000 1.200000 0.031000 0.037000
1518061525904413096	600 42 0.900000 0.221000 0.209000 700 41 0.900000 0.086000 0.078000 600 45 1.000000 0.053000 0.053000 1.200000 0.031000 0.037000
1518061526414488596	600 42 0.900000 0.221000 0.209000 700 41 0.900000 0.086000 0.078000 600 45 1.000000 0.053000 0.053000 1.200000 0.031000 0.037000
1518061526924583304	600 41 0.900000 0.221000 0.209000 700 41 0.900000 0.103000 0.093000 600 44 1.000000 0.053000 0.053000 1.200000 0.031000 0.037000
1518061527434709429	600 42 0.900000 0.221000 0.209000 700 41 0.900000 0.086000 0.078000 600 45 1.000000 0.053000 0.053000 1.200000 0.031000 0.037000
1518061527944882513	600 41 0.900000 0.221000 0.209000 700 41 0.900000 0.091000 0.082000 600 44 1.000000 0.053000 0.053000 1.200000 0.031000 0.037000
1518061528454853930	600 41 0.900000 0.221000 0.209000 700 41 0.900000 0.102000 0.092000 600 44 1.000000 0.053000 0.053000 1.200000 0.031000 0.037000
1518061528965044596	600 41 0.900000 0.221000 0.209000 700 41 0.900000 0.097000 0.088000 600 44 1.000000 0.053000 0.053000 1.200000 0.031000 0.037000
1518061529475367680	600 41 0.900000 0.221000 0.209000 700 41 0.900000 0.091000 0.082000 600 44 1.000000 0.053000 0.053000 1.200000 0.031000 0.037000
1518061529985401638	600 41 0.900000 0.221000 0.209000 700 41 0.900000 0.098000 0.089000 600 44 1.000000 0.053000 0.053000 1.200000 0.031000 0.037000
1518061530495518930	600 41 0.900000 0.221000 0.209000 700 41 0.900000 0.102000 0.093000 600 44 1.000000 0.053000 0.053000 1.200000 0.030000 0.036000
1518061531005468847	600 41 0.900000 0.221000 0.209000 700 41 0.900000 0.092000 0.083000 600 44 1.000000 0.053000 0.053000 1.200000 0.031000 0.037000
1518061531515667930	600 41 0.900000 0.221000 0.209000 700 41 0.900000 0.094000 0.085000 600 44 1.000000 0.053000 0.053000 1.200000 0.031000 0.037000
1518061532025797555	600 41 0.900000 0.221000 0.209000 700 41 0.900000 0.102000 0.093000 600 44 1.000000 0.053000 0.053000 1.200000 0.031000 0.037000
1518061532535892763	600 41 0.900000 0.221000 0.209000 700 41 0.900000 0.095000 0.086000 600 44 1.000000 0.053000 0.053000 1.200000 0.031000 0.037000
1518061533045868388	600 41 0.900000 0.221000 0.209000 700 41 0.900000 0.092000 0.083000 600 44 1.000000 0.053000 0.053000 1.200000 0.031000 0.037000
1518061533556086638	600 41 0.900000 0.221000 0.209000 700 41 0.900000 0.101000 0.092000 600 44 1.000000 0.053000 0.053000 1.200000 0.031000 0.037000
1518061534066118472	600 41 0.900000 0.221000 0.209000 700 41 0.900000 0.085000 0.077000 600 44 1.000000 0.053000 0.053000 1.200000 0.031000 0.037000
1518061534576197389	600 41 0.900000 0.221000 0.209000 700 41 0.900000 0.088000 0.080000 600 44 1.000000 0.053000 0.053000 1.200000 0.030000 0.036000
1518061535086268014	600 41 0.900000 0.221000 0.209000 700 41 0.900000 0.095000 0.086000 600 44 1.000000 0.053000 0.053000 1.200000 0.031000 0.037000
1518061535596444639	600 41 0.900000 0.221000 0.209000 700 41 0.900000 0.103000 0.093000 600 44 1.000000 0.053000 0.053000 1.200000 0.031000 0.037000
1518061536106358139	600 41 0.900000 0.221000 0.209000 700 41 0.900000 0.094000 0.085000 600 44 1.000000 0.053000 0.053000 1.200000 0.031000 0.037000
1518061536616416347	600 41 0.900000 0.220000 0.208000 700 41 0.900000 0.089000 0.081000 600 44 1.000000 0.053000 0.053000 1.200000 0.031000 0.037000
1518061537126308056	600 41 0.900000 0.221000 0.209000 700 41 0.900000 0.100000 0.091000 600 44 1.000000 0.053000 0.053000 1.200000 0.031000 0.037000
1518061537636393306	600 41 0.900000 0.213000 0.201000 700 40 0.900000 0.100000 0.091000 600 44 1.000000 0.053000 0.053000 1.200000 0.031000 0.037000
1518061538146563847	600 40 0.900000 0.145000 0.137000 700 40 0.900000 0.088000 0.080000 600 44 1.000000 0.053000 0.053000 1.200000 0.029000 0.035000
1518061538657029847	600 40 0.900000 0.026000 0.024000 700 40 0.900000 0.146000 0.133000 600 44 1.000000 0.053000 0.053000 1.200000 0.029000 0.035000
1518061539167216889	600 40 0.900000 0.026000 0.024000 700 40 0.900000 0.097000 0.088000 600 43 1.000000 0.053000 0.053000 1.200000 0.024000 0.028000
