#Timestamp	CPU(0) Frequency(MHz)	CPU(0) Temperature(C)	A7 Voltage(V)	A7 Current(A)	A7 Power(W)	CPU(4) Frequency(MHz)	CPU(4) Temperature(C)	A15 Voltage(V)	A15 Current(A)	A15 Power(W)	GPU Frequency(MHz)	GPU Temperature(C)	GPU Voltage(V)	GPU Current(A)	GPU Power(W)	RAM Voltage(V)	RAM Current(A)	RAM Power(W)
1538436739659393806	300 28 0.900000 0.038000 0.034000 900 23 0.900000 1.369000 1.293000 600 32 1.000000 0.050000 0.050000 1.200000 0.038000 0.045000
1538436740215269681	300 29 0.900000 0.106000 0.096000 900 24 0.900000 1.790000 1.693000 600 33 1.000000 0.050000 0.050000 1.200000 0.026000 0.031000
1538436740779408764	300 30 0.900000 0.106000 0.096000 900 25 0.900000 1.790000 1.693000 600 35 1.000000 0.050000 0.050000 1.200000 0.025000 0.030000
1538436741347332389	300 31 0.900000 0.107000 0.097000 900 26 0.900000 1.790000 1.693000 600 35 1.000000 0.050000 0.050000 1.200000 0.026000 0.031000
1538436741907262806	300 31 0.900000 0.106000 0.096000 900 26 0.900000 1.792000 1.695000 600 36 1.000000 0.050000 0.050000 1.200000 0.026000 0.031000
1538436742459395973	300 31 0.900000 0.106000 0.096000 900 26 0.900000 1.786000 1.689000 600 36 1.000000 0.050000 0.050000 1.200000 0.026000 0.031000
1538436743027252723	300 32 0.900000 0.106000 0.096000 900 27 0.900000 1.794000 1.697000 600 36 1.000000 0.050000 0.050000 1.200000 0.025000 0.030000
1538436743583338264	300 32 0.900000 0.106000 0.096000 900 27 0.900000 1.794000 1.697000 600 37 1.000000 0.050000 0.050000 1.200000 0.025000 0.030000
1538436744147373473	300 32 0.900000 0.106000 0.096000 900 27 0.900000 1.794000 1.697000 600 37 1.000000 0.050000 0.050000 1.200000 0.025000 0.030000
1538436744707232473	300 32 0.900000 0.106000 0.096000 900 27 0.900000 1.794000 1.697000 600 37 1.000000 0.050000 0.050000 1.200000 0.025000 0.030000
1538436745275427181	300 32 0.900000 0.106000 0.096000 900 28 0.900000 1.794000 1.697000 600 37 1.000000 0.050000 0.050000 1.200000 0.025000 0.030000
1538436745831333723	300 33 0.900000 0.106000 0.096000 900 28 0.900000 1.795000 1.698000 600 37 1.000000 0.050000 0.050000 1.200000 0.026000 0.031000
1538436746399273515	300 33 0.900000 0.107000 0.097000 900 28 0.900000 1.795000 1.698000 600 38 1.000000 0.050000 0.050000 1.200000 0.026000 0.031000
1538436746959312015	300 33 0.900000 0.107000 0.097000 900 28 0.900000 1.794000 1.697000 600 38 1.000000 0.050000 0.050000 1.200000 0.025000 0.030000
1538436747511362765	300 33 0.900000 0.106000 0.096000 900 28 0.900000 1.787000 1.690000 600 38 1.000000 0.050000 0.050000 1.200000 0.025000 0.030000
1538436748067394640	300 33 0.900000 0.106000 0.096000 900 28 0.900000 1.783000 1.686000 600 38 1.000000 0.050000 0.050000 1.200000 0.025000 0.030000
1538436748627254890	300 33 0.900000 0.106000 0.096000 900 28 0.900000 1.787000 1.690000 600 38 1.000000 0.050000 0.050000 1.200000 0.025000 0.030000
1538436749195332307	300 33 0.900000 0.106000 0.096000 900 28 0.900000 1.789000 1.692000 600 38 1.000000 0.050000 0.050000 1.200000 0.025000 0.030000
1538436749751321890	300 33 0.900000 0.107000 0.097000 900 28 0.900000 1.792000 1.695000 600 38 1.000000 0.050000 0.050000 1.200000 0.025000 0.030000
1538436750311401140	300 33 0.900000 0.107000 0.097000 900 28 0.900000 1.790000 1.693000 600 38 1.000000 0.050000 0.050000 1.200000 0.025000 0.030000
1538436750875356515	300 33 0.900000 0.106000 0.096000 900 28 0.900000 1.788000 1.691000 600 38 1.000000 0.050000 0.050000 1.200000 0.026000 0.031000
1538436751447242640	300 33 0.900000 0.106000 0.096000 900 28 0.900000 1.791000 1.694000 600 38 1.000000 0.050000 0.050000 1.200000 0.026000 0.031000
1538436752003335390	300 33 0.900000 0.107000 0.097000 900 29 0.900000 1.788000 1.691000 600 38 1.000000 0.050000 0.050000 1.200000 0.025000 0.030000
1538436752567374099	300 33 0.900000 0.106000 0.096000 900 29 0.900000 1.796000 1.699000 600 38 1.000000 0.050000 0.050000 1.200000 0.025000 0.030000
1538436753123206640	300 33 0.900000 0.106000 0.096000 900 29 0.900000 1.794000 1.697000 600 38 1.000000 0.050000 0.050000 1.200000 0.025000 0.030000
1538436753683310349	300 33 0.900000 0.106000 0.096000 900 29 0.900000 1.789000 1.692000 600 38 1.000000 0.050000 0.050000 1.200000 0.025000 0.030000
1538436754251367224	300 33 0.900000 0.106000 0.096000 900 29 0.900000 1.790000 1.693000 600 38 1.000000 0.050000 0.050000 1.200000 0.025000 0.030000
1538436754807335599	300 34 0.900000 0.106000 0.096000 900 29 0.900000 1.783000 1.686000 600 38 1.000000 0.050000 0.050000 1.200000 0.025000 0.030000
1538436755367284891	300 34 0.900000 0.106000 0.096000 900 29 0.900000 1.791000 1.694000 600 38 1.000000 0.050000 0.050000 1.200000 0.026000 0.031000
1538436755931320266	300 34 0.900000 0.106000 0.096000 900 29 0.900000 1.794000 1.697000 600 38 1.000000 0.050000 0.050000 1.200000 0.026000 0.031000
1538436756499364474	300 34 0.900000 0.106000 0.096000 900 29 0.900000 1.793000 1.696000 600 39 1.000000 0.050000 0.050000 1.200000 0.025000 0.030000
1538436757063324474	300 34 0.900000 0.107000 0.097000 900 29 0.900000 1.797000 1.699000 600 38 1.000000 0.050000 0.050000 1.200000 0.025000 0.030000
1538436757627339641	300 34 0.900000 0.106000 0.096000 900 29 0.900000 1.797000 1.699000 600 38 1.000000 0.050000 0.050000 1.200000 0.025000 0.030000
1538436758179263558	300 34 0.900000 0.106000 0.096000 900 29 0.900000 1.797000 1.699000 600 39 1.000000 0.050000 0.050000 1.200000 0.025000 0.030000
1538436758731310766	300 34 0.900000 0.106000 0.096000 900 29 0.900000 1.794000 1.697000 600 39 1.000000 0.050000 0.050000 1.200000 0.025000 0.030000
1538436759283310725	300 34 0.900000 0.106000 0.096000 900 29 0.900000 1.785000 1.690000 600 39 1.000000 0.050000 0.050000 1.200000 0.025000 0.030000
1538436759847316725	300 34 0.900000 0.106000 0.096000 900 29 0.900000 1.790000 1.695000 600 39 1.000000 0.050000 0.050000 1.200000 0.025000 0.030000
1538436760403310225	300 34 0.900000 0.106000 0.096000 900 29 0.900000 1.787000 1.692000 600 39 1.000000 0.050000 0.050000 1.200000 0.026000 0.031000
1538436760971226266	300 34 0.900000 0.107000 0.097000 900 29 0.900000 1.798000 1.700000 600 39 1.000000 0.051000 0.051000 1.200000 0.025000 0.030000
1538436761535323600	300 34 0.900000 0.107000 0.097000 900 29 0.900000 1.793000 1.696000 600 39 1.000000 0.051000 0.051000 1.200000 0.026000 0.031000
1538436762087335683	300 34 0.900000 0.107000 0.097000 900 29 0.900000 1.787000 1.690000 600 39 1.000000 0.050000 0.050000 1.200000 0.026000 0.031000
1538436762651317017	300 34 0.900000 0.107000 0.097000 900 29 0.900000 1.784000 1.687000 600 39 1.000000 0.050000 0.050000 1.200000 0.026000 0.031000
1538436763219333683	300 34 0.900000 0.106000 0.096000 900 29 0.900000 1.790000 1.693000 600 39 1.000000 0.050000 0.050000 1.200000 0.026000 0.031000
1538436763787394183	300 34 0.900000 0.106000 0.096000 900 29 0.900000 1.791000 1.694000 600 39 1.000000 0.051000 0.051000 1.200000 0.025000 0.030000
1538436764355342267	300 34 0.900000 0.106000 0.096000 900 29 0.900000 1.795000 1.698000 600 39 1.000000 0.051000 0.051000 1.200000 0.025000 0.030000
1538436764923245434	300 34 0.900000 0.107000 0.097000 900 29 0.900000 1.795000 1.698000 600 39 1.000000 0.050000 0.050000 1.200000 0.026000 0.031000
1538436765479400309	300 34 0.900000 0.106000 0.096000 900 29 0.900000 1.796000 1.699000 600 39 1.000000 0.050000 0.050000 1.200000 0.026000 0.031000
1538436766043400309	300 34 0.900000 0.107000 0.097000 900 29 0.900000 1.795000 1.698000 600 39 1.000000 0.050000 0.050000 1.200000 0.025000 0.030000
1538436766607323225	300 34 0.900000 0.107000 0.097000 900 29 0.900000 1.794000 1.697000 600 39 1.000000 0.050000 0.050000 1.200000 0.025000 0.030000
1538436767167332642	300 34 0.900000 0.106000 0.096000 900 29 0.900000 1.794000 1.697000 600 39 1.000000 0.050000 0.050000 1.200000 0.026000 0.031000
1538436767735335642	300 34 0.900000 0.106000 0.096000 900 29 0.900000 1.788000 1.691000 600 39 1.000000 0.051000 0.051000 1.200000 0.025000 0.030000
1538436768303331059	300 34 0.900000 0.107000 0.097000 900 29 0.900000 1.795000 1.698000 600 39 1.000000 0.050000 0.050000 1.200000 0.025000 0.030000
1538436768863346059	300 34 0.900000 0.107000 0.097000 900 29 0.900000 1.795000 1.698000 600 39 1.000000 0.050000 0.050000 1.200000 0.025000 0.030000
1538436769415271976	300 34 0.900000 0.106000 0.096000 900 29 0.900000 1.796000 1.699000 600 39 1.000000 0.050000 0.050000 1.200000 0.025000 0.030000
1538436769963321601	300 34 0.900000 0.107000 0.097000 900 29 0.900000 1.795000 1.698000 600 39 1.000000 0.051000 0.051000 1.200000 0.026000 0.031000
1538436770527322768	300 34 0.900000 0.106000 0.096000 900 29 0.900000 1.794000 1.697000 600 39 1.000000 0.050000 0.050000 1.200000 0.026000 0.031000
1538436771091347893	300 34 0.900000 0.106000 0.096000 900 29 0.900000 1.796000 1.699000 600 39 1.000000 0.050000 0.050000 1.200000 0.026000 0.031000
1538436771655417601	300 34 0.900000 0.107000 0.097000 900 29 0.900000 1.790000 1.693000 600 39 1.000000 0.050000 0.050000 1.200000 0.026000 0.031000
1538436772219275184	300 34 0.900000 0.107000 0.097000 900 29 0.900000 1.787000 1.690000 600 39 1.000000 0.050000 0.050000 1.200000 0.026000 0.031000
1538436772783331059	300 34 0.900000 0.107000 0.097000 900 29 0.900000 1.789000 1.692000 600 39 1.000000 0.050000 0.050000 1.200000 0.026000 0.031000
1538436773339340018	300 34 0.900000 0.107000 0.097000 900 29 0.900000 1.797000 1.699000 600 39 1.000000 0.050000 0.050000 1.200000 0.025000 0.030000
1538436773899362726	300 34 0.900000 0.107000 0.097000 900 29 0.900000 1.795000 1.698000 600 39 1.000000 0.050000 0.050000 1.200000 0.025000 0.030000
1538436774459326101	300 34 0.900000 0.107000 0.097000 900 29 0.900000 1.813000 1.715000 600 39 1.000000 0.050000 0.050000 1.200000 0.025000 0.030000
1538436775027384393	300 34 0.900000 0.107000 0.097000 900 29 0.900000 1.812000 1.714000 600 39 1.000000 0.051000 0.051000 1.200000 0.026000 0.031000
1538436775595328310	300 34 0.900000 0.106000 0.096000 900 29 0.900000 1.811000 1.713000 600 39 1.000000 0.050000 0.050000 1.200000 0.026000 0.031000
1538436776151352560	300 34 0.900000 0.107000 0.097000 900 29 0.900000 1.806000 1.708000 600 39 1.000000 0.050000 0.050000 1.200000 0.026000 0.031000
1538436776715356310	300 34 0.900000 0.107000 0.097000 900 29 0.900000 1.812000 1.714000 600 39 1.000000 0.050000 0.050000 1.200000 0.026000 0.031000
1538436777283394560	300 34 0.900000 0.106000 0.096000 900 29 0.900000 1.812000 1.714000 600 39 1.000000 0.050000 0.050000 1.200000 0.026000 0.031000
1538436777835328435	300 34 0.900000 0.107000 0.097000 900 29 0.900000 1.812000 1.714000 600 39 1.000000 0.050000 0.050000 1.200000 0.025000 0.030000
1538436778399330185	300 34 0.900000 0.107000 0.097000 900 29 0.900000 1.813000 1.715000 600 39 1.000000 0.051000 0.051000 1.200000 0.025000 0.030000
1538436778967309227	300 34 0.900000 0.107000 0.097000 900 29 0.900000 1.813000 1.715000 600 39 1.000000 0.050000 0.050000 1.200000 0.025000 0.030000
1538436779531334060	300 34 0.900000 0.107000 0.097000 900 29 0.900000 1.813000 1.715000 600 39 1.000000 0.051000 0.051000 1.200000 0.025000 0.030000
1538436780099257977	300 34 0.900000 0.107000 0.097000 900 29 0.900000 1.813000 1.715000 600 39 1.000000 0.050000 0.050000 1.200000 0.025000 0.030000
1538436780663325060	300 34 0.900000 0.107000 0.097000 900 29 0.900000 1.811000 1.713000 600 39 1.000000 0.051000 0.051000 1.200000 0.026000 0.031000
1538436781231238644	300 34 0.900000 0.106000 0.096000 900 29 0.900000 1.810000 1.712000 600 39 1.000000 0.050000 0.050000 1.200000 0.026000 0.031000
1538436781787359477	300 34 0.900000 0.107000 0.097000 900 29 0.900000 1.813000 1.715000 600 39 1.000000 0.051000 0.051000 1.200000 0.025000 0.030000
1538436782355357519	300 34 0.900000 0.107000 0.097000 900 29 0.900000 1.812000 1.714000 600 39 1.000000 0.050000 0.050000 1.200000 0.025000 0.030000
1538436782923350519	300 34 0.900000 0.107000 0.097000 900 29 0.900000 1.811000 1.713000 600 39 1.000000 0.050000 0.050000 1.200000 0.025000 0.030000
1538436783479302936	300 34 0.900000 0.107000 0.097000 900 29 0.900000 1.813000 1.715000 600 39 1.000000 0.051000 0.051000 1.200000 0.026000 0.031000
1538436784039375811	300 34 0.900000 0.106000 0.096000 900 29 0.900000 1.813000 1.715000 600 39 1.000000 0.050000 0.050000 1.200000 0.025000 0.030000
1538436784587380603	300 34 0.900000 0.106000 0.096000 900 29 0.900000 1.812000 1.714000 600 39 1.000000 0.050000 0.050000 1.200000 0.026000 0.031000
1538436785151370228	300 34 0.900000 0.107000 0.097000 900 29 0.900000 1.812000 1.714000 600 39 1.000000 0.050000 0.050000 1.200000 0.026000 0.031000
1538436785719350728	300 34 0.900000 0.107000 0.097000 900 29 0.900000 1.798000 1.700000 600 39 1.000000 0.050000 0.050000 1.200000 0.025000 0.030000
1538436786287339978	300 34 0.900000 0.107000 0.097000 900 29 0.900000 1.799000 1.701000 600 39 1.000000 0.051000 0.051000 1.200000 0.025000 0.030000
1538436786851341436	300 34 0.900000 0.106000 0.096000 900 30 0.900000 1.799000 1.701000 600 39 1.000000 0.050000 0.050000 1.200000 0.025000 0.030000
1538436787419337895	300 34 0.900000 0.107000 0.097000 900 29 0.900000 1.799000 1.701000 600 39 1.000000 0.051000 0.051000 1.200000 0.025000 0.030000
1538436787987235811	300 34 0.900000 0.107000 0.097000 900 29 0.900000 1.798000 1.700000 600 39 1.000000 0.051000 0.051000 1.200000 0.025000 0.030000
1538436788555322978	300 34 0.900000 0.106000 0.096000 900 29 0.900000 1.797000 1.699000 600 39 1.000000 0.050000 0.050000 1.200000 0.025000 0.030000
1538436789119266728	300 34 0.900000 0.106000 0.096000 900 30 0.900000 1.788000 1.691000 600 39 1.000000 0.051000 0.051000 1.200000 0.025000 0.030000
1538436789683371311	300 34 0.900000 0.107000 0.097000 900 29 0.900000 1.792000 1.695000 600 39 1.000000 0.050000 0.050000 1.200000 0.026000 0.031000
1538436790239336603	300 34 0.900000 0.107000 0.097000 900 29 0.900000 1.790000 1.693000 600 39 1.000000 0.051000 0.051000 1.200000 0.025000 0.030000
1538436790799345603	300 34 0.900000 0.107000 0.097000 900 29 0.900000 1.790000 1.693000 600 39 1.000000 0.051000 0.051000 1.200000 0.025000 0.030000
1538436791355344478	300 34 0.900000 0.107000 0.097000 900 30 0.900000 1.791000 1.694000 600 39 1.000000 0.050000 0.050000 1.200000 0.025000 0.030000
1538436791915395687	300 34 0.900000 0.106000 0.096000 900 30 0.900000 1.794000 1.697000 600 39 1.000000 0.051000 0.051000 1.200000 0.025000 0.030000
1538436792467332978	300 34 0.900000 0.107000 0.097000 900 29 0.900000 1.794000 1.697000 600 39 1.000000 0.050000 0.050000 1.200000 0.025000 0.030000
1538436793031333395	300 34 0.900000 0.107000 0.097000 900 29 0.900000 1.794000 1.697000 600 39 1.000000 0.051000 0.051000 1.200000 0.025000 0.030000
1538436793591358395	300 34 0.900000 0.107000 0.097000 900 29 0.900000 1.794000 1.697000 600 39 1.000000 0.050000 0.050000 1.200000 0.026000 0.031000
1538436794143341604	300 34 0.900000 0.106000 0.096000 900 29 0.900000 1.793000 1.696000 600 39 1.000000 0.050000 0.050000 1.200000 0.026000 0.031000
1538436794707248479	300 34 0.900000 0.107000 0.097000 900 29 0.900000 1.798000 1.700000 600 39 1.000000 0.050000 0.050000 1.200000 0.025000 0.030000
1538436795275336312	300 34 0.900000 0.106000 0.096000 900 29 0.900000 1.798000 1.700000 600 39 1.000000 0.051000 0.051000 1.200000 0.025000 0.030000
1538436795843309271	300 34 0.900000 0.107000 0.097000 900 30 0.900000 1.795000 1.698000 600 39 1.000000 0.051000 0.051000 1.200000 0.025000 0.030000
1538436796419299646	300 34 0.900000 0.107000 0.097000 900 29 0.900000 1.784000 1.687000 600 39 1.000000 0.050000 0.050000 1.200000 0.025000 0.030000
1538436796987371937	300 34 0.900000 0.107000 0.097000 900 29 0.900000 1.794000 1.697000 600 39 1.000000 0.050000 0.050000 1.200000 0.025000 0.030000
1538436797555331854	300 34 0.900000 0.106000 0.096000 900 29 0.900000 1.782000 1.685000 600 39 1.000000 0.050000 0.050000 1.200000 0.026000 0.031000
1538436798123315521	300 34 0.900000 0.107000 0.097000 900 29 0.900000 1.781000 1.684000 600 39 1.000000 0.050000 0.050000 1.200000 0.026000 0.031000
1538436798691306146	300 34 0.900000 0.107000 0.097000 900 29 0.900000 1.794000 1.697000 600 39 1.000000 0.051000 0.051000 1.200000 0.025000 0.030000
1538436799255335896	300 34 0.900000 0.107000 0.097000 900 29 0.900000 1.795000 1.698000 600 39 1.000000 0.051000 0.051000 1.200000 0.025000 0.030000
1538436799807349063	300 34 0.900000 0.107000 0.097000 900 30 0.900000 1.791000 1.694000 600 39 1.000000 0.050000 0.050000 1.200000 0.025000 0.030000
1538436800367243104	300 34 0.900000 0.107000 0.097000 900 29 0.900000 1.789000 1.692000 600 39 1.000000 0.051000 0.051000 1.200000 0.025000 0.030000
1538436800935328479	300 34 0.900000 0.107000 0.097000 900 30 0.900000 1.786000 1.689000 600 39 1.000000 0.051000 0.051000 1.200000 0.025000 0.030000
1538436801491301271	300 34 0.900000 0.107000 0.097000 900 29 0.900000 1.791000 1.694000 600 39 1.000000 0.051000 0.051000 1.200000 0.025000 0.030000
1538436802047381563	300 34 0.900000 0.106000 0.096000 900 30 0.900000 1.787000 1.690000 600 39 1.000000 0.051000 0.051000 1.200000 0.025000 0.030000
1538436802611335605	300 34 0.900000 0.107000 0.097000 900 30 0.900000 1.791000 1.694000 600 39 1.000000 0.050000 0.050000 1.200000 0.025000 0.030000
1538436803175260021	300 34 0.900000 0.107000 0.097000 900 30 0.900000 1.794000 1.697000 600 39 1.000000 0.050000 0.050000 1.200000 0.025000 0.030000
1538436803735334730	300 34 0.900000 0.107000 0.097000 900 29 0.900000 1.794000 1.697000 600 39 1.000000 0.050000 0.050000 1.200000 0.025000 0.030000
1538436804295625688	300 34 0.900000 0.107000 0.097000 900 30 0.900000 1.794000 1.697000 600 39 1.000000 0.051000 0.051000 1.200000 0.026000 0.031000
1538436804863356188	300 34 0.900000 0.106000 0.096000 900 30 0.900000 1.788000 1.691000 600 39 1.000000 0.050000 0.050000 1.200000 0.026000 0.031000
1538436805431381397	300 34 0.900000 0.107000 0.097000 900 30 0.900000 1.793000 1.696000 600 40 1.000000 0.050000 0.050000 1.200000 0.025000 0.030000
1538436805991339522	300 34 0.900000 0.107000 0.097000 900 30 0.900000 1.792000 1.695000 600 39 1.000000 0.050000 0.050000 1.200000 0.026000 0.031000
1538436806555334438	300 34 0.900000 0.106000 0.096000 900 30 0.900000 1.790000 1.693000 600 39 1.000000 0.050000 0.050000 1.200000 0.026000 0.031000
1538436807123274814	300 34 0.900000 0.106000 0.096000 900 29 0.900000 1.795000 1.698000 600 39 1.000000 0.050000 0.050000 1.200000 0.025000 0.030000
1538436807691372980	300 34 0.900000 0.107000 0.097000 900 30 0.900000 1.793000 1.696000 600 39 1.000000 0.050000 0.050000 1.200000 0.025000 0.030000
1538436808255336189	300 34 0.900000 0.107000 0.097000 900 30 0.900000 1.799000 1.701000 600 39 1.000000 0.050000 0.050000 1.200000 0.026000 0.031000
1538436808815267189	300 34 0.900000 0.107000 0.097000 900 30 0.900000 1.794000 1.697000 600 39 1.000000 0.050000 0.050000 1.200000 0.026000 0.031000
1538436809383310272	300 34 0.900000 0.107000 0.097000 900 30 0.900000 1.789000 1.692000 600 39 1.000000 0.050000 0.050000 1.200000 0.026000 0.031000
1538436809943243689	300 34 0.900000 0.106000 0.096000 900 30 0.900000 1.792000 1.695000 600 39 1.000000 0.050000 0.050000 1.200000 0.028000 0.033000
1538436810507366731	300 34 0.900000 0.107000 0.097000 900 30 0.900000 1.788000 1.691000 600 39 1.000000 0.051000 0.051000 1.200000 0.028000 0.033000
1538436811075295439	300 34 0.900000 0.106000 0.096000 900 30 0.900000 1.792000 1.695000 600 39 1.000000 0.050000 0.050000 1.200000 0.028000 0.033000
1538436811639336689	300 34 0.900000 0.107000 0.097000 900 30 0.900000 1.797000 1.699000 600 39 1.000000 0.051000 0.051000 1.200000 0.028000 0.033000
1538436812203361939	300 34 0.900000 0.107000 0.097000 900 30 0.900000 1.796000 1.699000 600 39 1.000000 0.051000 0.051000 1.200000 0.028000 0.033000
1538436812743264773	300 35 0.900000 0.107000 0.097000 900 30 0.900000 1.796000 1.699000 600 40 1.000000 0.050000 0.050000 1.200000 0.028000 0.033000
1538436813303333731	300 34 0.900000 0.107000 0.097000 900 30 0.900000 1.794000 1.697000 600 39 1.000000 0.051000 0.051000 1.200000 0.027000 0.032000
1538436813867334731	300 34 0.900000 0.106000 0.096000 900 30 0.900000 1.789000 1.692000 600 39 1.000000 0.051000 0.051000 1.200000 0.028000 0.033000
1538436814431317856	300 34 0.900000 0.106000 0.096000 900 30 0.900000 1.784000 1.687000 600 39 1.000000 0.051000 0.051000 1.200000 0.028000 0.033000
1538436814995293731	300 34 0.900000 0.107000 0.097000 900 30 0.900000 1.784000 1.687000 600 39 1.000000 0.051000 0.051000 1.200000 0.028000 0.033000
1538436815563320690	300 34 0.900000 0.107000 0.097000 900 30 0.900000 1.783000 1.686000 600 39 1.000000 0.051000 0.051000 1.200000 0.028000 0.033000
1538436816127329023	300 34 0.900000 0.107000 0.097000 900 30 0.900000 1.796000 1.699000 600 39 1.000000 0.051000 0.051000 1.200000 0.028000 0.033000
1538436816683317606	300 34 0.900000 0.106000 0.096000 900 30 0.900000 1.796000 1.699000 600 39 1.000000 0.050000 0.050000 1.200000 0.028000 0.033000
1538436817247351856	300 34 0.900000 0.107000 0.097000 900 30 0.900000 1.797000 1.699000 600 39 1.000000 0.050000 0.050000 1.200000 0.028000 0.033000
1538436817815346690	300 34 0.900000 0.106000 0.096000 900 30 0.900000 1.794000 1.697000 600 39 1.000000 0.051000 0.051000 1.200000 0.028000 0.033000
1538436818383340107	300 34 0.900000 0.107000 0.097000 900 30 0.900000 1.794000 1.697000 600 39 1.000000 0.050000 0.050000 1.200000 0.028000 0.033000
1538436818943346023	300 34 0.900000 0.106000 0.096000 900 30 0.900000 1.784000 1.687000 600 39 1.000000 0.050000 0.050000 1.200000 0.028000 0.033000
1538436819507337398	300 34 0.900000 0.106000 0.096000 900 30 0.900000 1.792000 1.695000 600 39 1.000000 0.050000 0.050000 1.200000 0.028000 0.033000
1538436820071404773	300 34 0.900000 0.107000 0.097000 900 29 0.900000 1.792000 1.695000 600 39 1.000000 0.050000 0.050000 1.200000 0.028000 0.033000
1538436820639321274	300 34 0.900000 0.107000 0.097000 900 29 0.900000 1.793000 1.696000 600 39 1.000000 0.051000 0.051000 1.200000 0.027000 0.032000
1538436821203292274	300 34 0.900000 0.106000 0.096000 900 30 0.900000 1.793000 1.696000 600 39 1.000000 0.051000 0.051000 1.200000 0.028000 0.033000
1538436821771315024	300 34 0.900000 0.107000 0.097000 900 30 0.900000 1.794000 1.697000 600 39 1.000000 0.051000 0.051000 1.200000 0.027000 0.032000
1538436822339358565	300 34 0.900000 0.106000 0.096000 900 30 0.900000 1.794000 1.697000 600 39 1.000000 0.050000 0.050000 1.200000 0.028000 0.033000
1538436822899410065	300 34 0.900000 0.106000 0.096000 900 29 0.900000 1.790000 1.693000 600 39 1.000000 0.050000 0.050000 1.200000 0.028000 0.033000
1538436823463358691	300 34 0.900000 0.106000 0.096000 900 29 0.900000 1.785000 1.688000 600 39 1.000000 0.050000 0.050000 1.200000 0.028000 0.033000
1538436824027396316	300 34 0.900000 0.107000 0.097000 900 30 0.900000 1.794000 1.697000 600 40 1.000000 0.050000 0.050000 1.200000 0.028000 0.033000
1538436824595354732	300 34 0.900000 0.107000 0.097000 900 30 0.900000 1.794000 1.697000 600 40 1.000000 0.050000 0.050000 1.200000 0.027000 0.032000
1538436825163261441	300 34 0.900000 0.107000 0.097000 900 30 0.900000 1.794000 1.697000 600 39 1.000000 0.051000 0.051000 1.200000 0.028000 0.033000
1538436825731304941	300 34 0.900000 0.107000 0.097000 900 30 0.900000 1.794000 1.697000 600 39 1.000000 0.051000 0.051000 1.200000 0.028000 0.033000
1538436826291289733	300 34 0.900000 0.107000 0.097000 900 30 0.900000 1.794000 1.697000 600 39 1.000000 0.051000 0.051000 1.200000 0.027000 0.032000
1538436826851327816	300 34 0.900000 0.107000 0.097000 900 30 0.900000 1.793000 1.696000 600 39 1.000000 0.051000 0.051000 1.200000 0.028000 0.033000
1538436827403492524	300 34 0.900000 0.107000 0.097000 900 30 0.900000 1.786000 1.689000 600 39 1.000000 0.050000 0.050000 1.200000 0.028000 0.033000
1538436827967497358	300 34 0.900000 0.106000 0.096000 900 30 0.900000 1.794000 1.697000 600 39 1.000000 0.050000 0.050000 1.200000 0.030000 0.036000
1538436828535382941	300 34 0.900000 0.106000 0.096000 900 30 0.900000 1.793000 1.696000 600 39 1.000000 0.050000 0.050000 1.200000 0.028000 0.033000
1538436829103333691	300 34 0.900000 0.107000 0.097000 900 30 0.900000 1.793000 1.696000 600 39 1.000000 0.050000 0.050000 1.200000 0.028000 0.033000
1538436829655335025	300 34 0.900000 0.106000 0.096000 900 30 0.900000 1.782000 1.685000 600 39 1.000000 0.050000 0.050000 1.200000 0.028000 0.033000
1538436830223283941	300 34 0.900000 0.107000 0.097000 900 30 0.900000 1.785000 1.688000 600 39 1.000000 0.050000 0.050000 1.200000 0.028000 0.033000
1538436830787370358	300 35 0.900000 0.107000 0.097000 900 30 0.900000 1.790000 1.693000 600 39 1.000000 0.050000 0.050000 1.200000 0.028000 0.033000
1538436831351285191	300 34 0.900000 0.107000 0.097000 900 29 0.900000 1.803000 1.705000 600 40 1.000000 0.050000 0.050000 1.200000 0.028000 0.033000
1538436831911268650	300 35 0.900000 0.107000 0.097000 900 30 0.900000 1.815000 1.718000 600 40 1.000000 0.050000 0.050000 1.200000 0.028000 0.033000
1538436832455354608	300 35 0.900000 0.107000 0.097000 900 30 0.900000 1.810000 1.712000 600 39 1.000000 0.050000 0.050000 1.200000 0.027000 0.032000
1538436833011344567	300 35 0.900000 0.106000 0.096000 900 30 0.900000 1.809000 1.711000 600 40 1.000000 0.050000 0.050000 1.200000 0.027000 0.032000
1538436833579334692	300 34 0.900000 0.107000 0.097000 900 30 0.900000 1.808000 1.710000 600 39 1.000000 0.051000 0.051000 1.200000 0.028000 0.033000
1538436834147236650	300 34 0.900000 0.107000 0.097000 900 30 0.900000 1.816000 1.717000 600 39 1.000000 0.050000 0.050000 1.200000 0.027000 0.032000
1538436834703334359	300 35 0.900000 0.107000 0.097000 900 30 0.900000 1.813000 1.715000 600 40 1.000000 0.051000 0.051000 1.200000 0.027000 0.032000
1538436835263318859	300 34 0.900000 0.107000 0.097000 900 30 0.900000 1.806000 1.708000 600 40 1.000000 0.051000 0.051000 1.200000 0.028000 0.033000
1538436835827331609	300 35 0.900000 0.107000 0.097000 900 30 0.900000 1.809000 1.711000 600 39 1.000000 0.051000 0.051000 1.200000 0.028000 0.033000
1538436836395348609	300 34 0.900000 0.107000 0.097000 900 30 0.900000 1.804000 1.706000 600 40 1.000000 0.050000 0.050000 1.200000 0.028000 0.033000
1538436836963360984	300 34 0.900000 0.107000 0.097000 900 30 0.900000 1.811000 1.713000 600 40 1.000000 0.051000 0.051000 1.200000 0.028000 0.033000
1538436837527519901	300 35 0.900000 0.107000 0.097000 900 30 0.900000 1.817000 1.718000 600 40 1.000000 0.050000 0.050000 1.200000 0.027000 0.032000
1538436838091371901	300 35 0.900000 0.107000 0.097000 900 30 0.900000 1.809000 1.711000 600 40 1.000000 0.050000 0.050000 1.200000 0.028000 0.033000
1538436838659349234	300 35 0.900000 0.107000 0.097000 900 30 0.900000 1.814000 1.716000 600 40 1.000000 0.050000 0.050000 1.200000 0.028000 0.033000
1538436839219272692	300 34 0.900000 0.107000 0.097000 900 30 0.900000 1.816000 1.717000 600 40 1.000000 0.050000 0.050000 1.200000 0.028000 0.033000
1538436839787350526	300 34 0.900000 0.106000 0.096000 900 30 0.900000 1.808000 1.710000 600 40 1.000000 0.050000 0.050000 1.200000 0.028000 0.033000
1538436840347365318	300 35 0.900000 0.107000 0.097000 900 30 0.900000 1.817000 1.718000 600 40 1.000000 0.050000 0.050000 1.200000 0.028000 0.033000
1538436840903343568	300 35 0.900000 0.107000 0.097000 900 30 0.900000 1.816000 1.717000 600 40 1.000000 0.050000 0.050000 1.200000 0.027000 0.032000
1538436841467340026	300 34 0.900000 0.107000 0.097000 900 30 0.900000 1.814000 1.716000 600 40 1.000000 0.051000 0.051000 1.200000 0.028000 0.033000
1538436842027324193	300 35 0.900000 0.107000 0.097000 900 30 0.900000 1.799000 1.701000 600 40 1.000000 0.050000 0.050000 1.200000 0.027000 0.032000
1538436842587340818	300 34 0.900000 0.107000 0.097000 900 30 0.900000 1.794000 1.697000 600 39 1.000000 0.051000 0.051000 1.200000 0.027000 0.032000
1538436843155329901	300 34 0.900000 0.107000 0.097000 900 30 0.900000 1.793000 1.696000 600 39 1.000000 0.050000 0.050000 1.200000 0.028000 0.033000
1538436843719357985	300 34 0.900000 0.107000 0.097000 900 30 0.900000 1.793000 1.696000 600 39 1.000000 0.050000 0.050000 1.200000 0.027000 0.032000
1538436844287315110	300 34 0.900000 0.107000 0.097000 900 30 0.900000 1.794000 1.697000 600 40 1.000000 0.050000 0.050000 1.200000 0.028000 0.033000
1538436844843347818	300 34 0.900000 0.107000 0.097000 900 30 0.900000 1.795000 1.698000 600 40 1.000000 0.050000 0.050000 1.200000 0.027000 0.032000
1538436845407332943	300 35 0.900000 0.107000 0.097000 900 30 0.900000 1.795000 1.698000 600 39 1.000000 0.050000 0.050000 1.200000 0.027000 0.032000
1538436845975341777	300 35 0.900000 0.107000 0.097000 900 30 0.900000 1.793000 1.696000 600 39 1.000000 0.050000 0.050000 1.200000 0.027000 0.032000
1538436846543246027	300 35 0.900000 0.107000 0.097000 900 30 0.900000 1.793000 1.696000 600 40 1.000000 0.051000 0.051000 1.200000 0.027000 0.032000
1538436847111340693	300 34 0.900000 0.107000 0.097000 900 30 0.900000 1.794000 1.697000 600 40 1.000000 0.050000 0.050000 1.200000 0.027000 0.032000
1538436847675329652	300 35 0.900000 0.106000 0.096000 900 30 0.900000 1.785000 1.688000 600 40 1.000000 0.050000 0.050000 1.200000 0.027000 0.032000
1538436848243349777	300 34 0.900000 0.106000 0.096000 900 30 0.900000 1.784000 1.687000 600 40 1.000000 0.051000 0.051000 1.200000 0.028000 0.033000
1538436848807368027	300 35 0.900000 0.107000 0.097000 900 30 0.900000 1.795000 1.698000 600 39 1.000000 0.050000 0.050000 1.200000 0.028000 0.033000
1538436849375376944	300 34 0.900000 0.107000 0.097000 900 30 0.900000 1.795000 1.698000 600 40 1.000000 0.050000 0.050000 1.200000 0.027000 0.032000
1538436849943314277	300 34 0.900000 0.106000 0.096000 900 30 0.900000 1.795000 1.698000 600 39 1.000000 0.050000 0.050000 1.200000 0.028000 0.033000
1538436850499337610	300 34 0.900000 0.107000 0.097000 900 30 0.900000 1.795000 1.698000 600 39 1.000000 0.050000 0.050000 1.200000 0.028000 0.033000
1538436851055345902	300 34 0.900000 0.107000 0.097000 900 30 0.900000 1.787000 1.690000 600 39 1.000000 0.051000 0.051000 1.200000 0.028000 0.033000
1538436851619392402	300 34 0.900000 0.107000 0.097000 900 30 0.900000 1.787000 1.690000 600 39 1.000000 0.050000 0.050000 1.200000 0.028000 0.033000
1538436852171363319	300 34 0.900000 0.107000 0.097000 900 30 0.900000 1.795000 1.698000 600 39 1.000000 0.050000 0.050000 1.200000 0.028000 0.033000
1538436852739257319	300 34 0.900000 0.106000 0.096000 900 30 0.900000 1.794000 1.697000 600 39 1.000000 0.051000 0.051000 1.200000 0.028000 0.033000
1538436853307339402	300 34 0.900000 0.107000 0.097000 900 30 0.900000 1.801000 1.703000 600 39 1.000000 0.051000 0.051000 1.200000 0.028000 0.033000
1538436853859325152	300 35 0.900000 0.107000 0.097000 900 30 0.900000 1.818000 1.719000 600 39 1.000000 0.050000 0.050000 1.200000 0.028000 0.033000
1538436854415381153	300 34 0.900000 0.106000 0.096000 900 30 0.900000 1.820000 1.721000 600 40 1.000000 0.050000 0.050000 1.200000 0.028000 0.033000
1538436854979448028	300 35 0.900000 0.107000 0.097000 900 30 0.900000 1.827000 1.730000 600 39 1.000000 0.050000 0.050000 1.200000 0.028000 0.033000
1538436855543362569	300 35 0.900000 0.107000 0.097000 900 30 0.900000 1.822000 1.723000 600 40 1.000000 0.051000 0.051000 1.200000 0.028000 0.033000
1538436856111321153	300 35 0.900000 0.107000 0.097000 900 30 0.900000 1.817000 1.718000 600 40 1.000000 0.050000 0.050000 1.200000 0.028000 0.033000
1538436856675365361	300 35 0.900000 0.107000 0.097000 900 30 0.900000 1.811000 1.713000 600 40 1.000000 0.051000 0.051000 1.200000 0.027000 0.032000
1538436857231383195	300 35 0.900000 0.107000 0.097000 900 30 0.900000 1.817000 1.718000 600 40 1.000000 0.050000 0.050000 1.200000 0.028000 0.033000
1538436857791352445	300 34 0.900000 0.107000 0.097000 900 30 0.900000 1.827000 1.728000 600 40 1.000000 0.051000 0.051000 1.200000 0.027000 0.032000
1538436858359313278	300 35 0.900000 0.107000 0.097000 900 30 0.900000 1.827000 1.728000 600 40 1.000000 0.050000 0.050000 1.200000 0.028000 0.033000
1538436858915403153	300 35 0.900000 0.107000 0.097000 900 30 0.900000 1.824000 1.725000 600 39 1.000000 0.051000 0.051000 1.200000 0.028000 0.033000
1538436859463358653	300 35 0.900000 0.107000 0.097000 900 30 0.900000 1.826000 1.727000 600 39 1.000000 0.050000 0.050000 1.200000 0.028000 0.033000
1538436860023364487	300 35 0.900000 0.106000 0.096000 900 30 0.900000 1.827000 1.728000 600 40 1.000000 0.050000 0.050000 1.200000 0.027000 0.032000
1538436860583461195	300 35 0.900000 0.106000 0.096000 900 30 0.900000 1.824000 1.725000 600 40 1.000000 0.050000 0.050000 1.200000 0.028000 0.033000
1538436861151349362	300 35 0.900000 0.107000 0.097000 900 30 0.900000 1.822000 1.723000 600 40 1.000000 0.050000 0.050000 1.200000 0.028000 0.033000
1538436861715339778	300 35 0.900000 0.107000 0.097000 900 30 0.900000 1.822000 1.723000 600 40 1.000000 0.050000 0.050000 1.200000 0.027000 0.032000
1538436862283271778	300 35 0.900000 0.107000 0.097000 900 30 0.900000 1.827000 1.728000 600 40 1.000000 0.050000 0.050000 1.200000 0.027000 0.032000
1538436862851354154	300 35 0.900000 0.107000 0.097000 900 30 0.900000 1.827000 1.728000 600 40 1.000000 0.050000 0.050000 1.200000 0.028000 0.033000
1538436863415282820	300 35 0.900000 0.106000 0.096000 900 30 0.900000 1.827000 1.728000 600 40 1.000000 0.051000 0.051000 1.200000 0.028000 0.033000
1538436863983361862	300 35 0.900000 0.107000 0.097000 900 30 0.900000 1.826000 1.727000 600 40 1.000000 0.051000 0.051000 1.200000 0.028000 0.033000
1538436864547272820	300 35 0.900000 0.107000 0.097000 900 30 0.900000 1.826000 1.727000 600 40 1.000000 0.050000 0.050000 1.200000 0.028000 0.033000
1538436865115348945	300 35 0.900000 0.107000 0.097000 900 30 0.900000 1.809000 1.711000 600 40 1.000000 0.051000 0.051000 1.200000 0.028000 0.033000
1538436865675353404	300 35 0.900000 0.106000 0.096000 900 30 0.900000 1.806000 1.708000 600 40 1.000000 0.051000 0.051000 1.200000 0.028000 0.033000
1538436866243281571	300 35 0.900000 0.107000 0.097000 900 30 0.900000 1.792000 1.695000 600 39 1.000000 0.050000 0.050000 1.200000 0.027000 0.032000
1538436866799366237	300 35 0.900000 0.107000 0.097000 900 30 0.900000 1.793000 1.696000 600 40 1.000000 0.050000 0.050000 1.200000 0.028000 0.033000
1538436867363357404	300 35 0.900000 0.107000 0.097000 900 30 0.900000 1.793000 1.696000 600 40 1.000000 0.051000 0.051000 1.200000 0.028000 0.033000
1538436867939345154	300 35 0.900000 0.106000 0.096000 900 30 0.900000 1.793000 1.696000 600 40 1.000000 0.050000 0.050000 1.200000 0.028000 0.033000
1538436868507336654	300 35 0.900000 0.107000 0.097000 900 30 0.900000 1.792000 1.695000 600 40 1.000000 0.051000 0.051000 1.200000 0.028000 0.033000
1538436869063334321	300 35 0.900000 0.107000 0.097000 900 30 0.900000 1.791000 1.694000 600 40 1.000000 0.050000 0.050000 1.200000 0.028000 0.033000
1538436869631342904	300 35 0.900000 0.107000 0.097000 900 30 0.900000 1.793000 1.696000 600 40 1.000000 0.050000 0.050000 1.200000 0.028000 0.033000
1538436870199406154	300 35 0.900000 0.107000 0.097000 900 30 0.900000 1.792000 1.695000 600 39 1.000000 0.050000 0.050000 1.200000 0.027000 0.032000
1538436870755250696	300 34 0.900000 0.106000 0.096000 900 30 0.900000 1.781000 1.684000 600 40 1.000000 0.051000 0.051000 1.200000 0.027000 0.032000
1538436871323387446	300 34 0.900000 0.107000 0.097000 900 30 0.900000 1.787000 1.690000 600 40 1.000000 0.050000 0.050000 1.200000 0.027000 0.032000
1538436871887349113	300 34 0.900000 0.107000 0.097000 900 30 0.900000 1.791000 1.694000 600 40 1.000000 0.050000 0.050000 1.200000 0.028000 0.033000
1538436872439433196	300 34 0.900000 0.107000 0.097000 900 30 0.900000 1.786000 1.689000 600 40 1.000000 0.051000 0.051000 1.200000 0.028000 0.033000
1538436872995319655	300 35 0.900000 0.107000 0.097000 900 30 0.900000 1.787000 1.690000 600 39 1.000000 0.050000 0.050000 1.200000 0.028000 0.033000
1538436873555270446	300 35 0.900000 0.107000 0.097000 900 30 0.900000 1.787000 1.690000 600 39 1.000000 0.050000 0.050000 1.200000 0.028000 0.033000
1538436874119374572	300 35 0.900000 0.107000 0.097000 900 30 0.900000 1.785000 1.688000 600 40 1.000000 0.050000 0.050000 1.200000 0.028000 0.033000
1538436874691376905	300 35 0.900000 0.107000 0.097000 900 30 0.900000 1.786000 1.689000 600 40 1.000000 0.050000 0.050000 1.200000 0.027000 0.032000
1538436875251401905	300 35 0.900000 0.107000 0.097000 900 30 0.900000 1.791000 1.694000 600 40 1.000000 0.050000 0.050000 1.200000 0.027000 0.032000
1538436875819313863	300 35 0.900000 0.107000 0.097000 900 30 0.900000 1.787000 1.690000 600 40 1.000000 0.050000 0.050000 1.200000 0.027000 0.032000
1538436876379364780	300 35 0.900000 0.107000 0.097000 900 30 0.900000 1.792000 1.695000 600 39 1.000000 0.050000 0.050000 1.200000 0.028000 0.033000
1538436876947373614	300 35 0.900000 0.107000 0.097000 900 30 0.900000 1.790000 1.693000 600 40 1.000000 0.050000 0.050000 1.200000 0.028000 0.033000
1538436877507347655	300 35 0.900000 0.107000 0.097000 900 30 0.900000 1.795000 1.698000 600 39 1.000000 0.050000 0.050000 1.200000 0.027000 0.032000
1538436878075420197	300 34 0.900000 0.107000 0.097000 900 30 0.900000 1.785000 1.688000 600 39 1.000000 0.050000 0.050000 1.200000 0.028000 0.033000
1538436878643321364	300 35 0.900000 0.106000 0.096000 900 30 0.900000 1.784000 1.687000 600 40 1.000000 0.050000 0.050000 1.200000 0.028000 0.033000
1538436879195333572	300 34 0.900000 0.107000 0.097000 900 30 0.900000 1.784000 1.687000 600 39 1.000000 0.050000 0.050000 1.200000 0.028000 0.033000
1538436879763315156	300 34 0.900000 0.106000 0.096000 900 30 0.900000 1.776000 1.680000 600 39 1.000000 0.050000 0.050000 1.200000 0.029000 0.035000
1538436880327340406	300 34 0.900000 0.106000 0.096000 900 30 0.900000 1.771000 1.675000 600 40 1.000000 0.050000 0.050000 1.200000 0.029000 0.035000
1538436880895271281	300 35 0.900000 0.107000 0.097000 900 30 0.900000 1.778000 1.681000 600 39 1.000000 0.050000 0.050000 1.200000 0.028000 0.033000
1538436881463245906	300 34 0.900000 0.106000 0.096000 900 30 0.900000 1.778000 1.681000 600 40 1.000000 0.050000 0.050000 1.200000 0.028000 0.033000
1538436882031332989	300 34 0.900000 0.107000 0.097000 900 30 0.900000 1.784000 1.687000 600 40 1.000000 0.051000 0.051000 1.200000 0.028000 0.033000
1538436882591399323	300 34 0.900000 0.107000 0.097000 900 30 0.900000 1.785000 1.688000 600 40 1.000000 0.051000 0.051000 1.200000 0.028000 0.033000
1538436883159336823	300 34 0.900000 0.107000 0.097000 900 30 0.900000 1.785000 1.688000 600 40 1.000000 0.050000 0.050000 1.200000 0.027000 0.032000
1538436883727324531	300 34 0.900000 0.106000 0.096000 900 30 0.900000 1.784000 1.687000 600 39 1.000000 0.050000 0.050000 1.200000 0.028000 0.033000
1538436884283351614	300 34 0.900000 0.106000 0.096000 900 30 0.900000 1.770000 1.674000 600 40 1.000000 0.050000 0.050000 1.200000 0.028000 0.033000
1538436884855265364	300 35 0.900000 0.106000 0.096000 900 30 0.900000 1.776000 1.680000 600 40 1.000000 0.050000 0.050000 1.200000 0.028000 0.033000
1538436885415359781	300 34 0.900000 0.106000 0.096000 900 30 0.900000 1.777000 1.681000 600 39 1.000000 0.050000 0.050000 1.200000 0.028000 0.033000
1538436885983330865	300 34 0.900000 0.107000 0.097000 900 30 0.900000 1.777000 1.681000 600 40 1.000000 0.051000 0.051000 1.200000 0.028000 0.033000
1538436886547257698	300 34 0.900000 0.107000 0.097000 900 30 0.900000 1.785000 1.688000 600 39 1.000000 0.050000 0.050000 1.200000 0.028000 0.033000
1538436887103308073	300 34 0.900000 0.107000 0.097000 900 30 0.900000 1.784000 1.687000 600 40 1.000000 0.051000 0.051000 1.200000 0.028000 0.033000
1538436887667322698	300 34 0.900000 0.107000 0.097000 900 30 0.900000 1.792000 1.695000 600 40 1.000000 0.050000 0.050000 1.200000 0.028000 0.033000
1538436888231419115	300 35 0.900000 0.107000 0.097000 900 30 0.900000 1.795000 1.699000 600 40 1.000000 0.050000 0.050000 1.200000 0.028000 0.033000
1538436888799411032	300 34 0.900000 0.107000 0.097000 900 30 0.900000 1.798000 1.700000 600 40 1.000000 0.051000 0.051000 1.200000 0.028000 0.033000
1538436889363273240	300 34 0.900000 0.107000 0.097000 900 30 0.900000 1.805000 1.707000 600 40 1.000000 0.050000 0.050000 1.200000 0.028000 0.033000
1538436889927461948	300 35 0.900000 0.107000 0.097000 900 30 0.900000 1.802000 1.704000 600 40 1.000000 0.050000 0.050000 1.200000 0.028000 0.033000
1538436890483390740	300 35 0.900000 0.107000 0.097000 900 30 0.900000 1.807000 1.709000 600 40 1.000000 0.050000 0.050000 1.200000 0.028000 0.033000
1538436891051331532	300 35 0.900000 0.107000 0.097000 900 30 0.900000 1.807000 1.709000 600 40 1.000000 0.050000 0.050000 1.200000 0.028000 0.033000
1538436891607257490	300 35 0.900000 0.107000 0.097000 900 30 0.900000 1.807000 1.709000 600 40 1.000000 0.051000 0.051000 1.200000 0.028000 0.033000
1538436892167353324	300 35 0.900000 0.106000 0.096000 900 30 0.900000 1.807000 1.711000 600 40 1.000000 0.051000 0.051000 1.200000 0.028000 0.033000
1538436892731336282	300 34 0.900000 0.107000 0.097000 900 30 0.900000 1.807000 1.711000 600 40 1.000000 0.050000 0.050000 1.200000 0.028000 0.033000
1538436893299376741	300 34 0.900000 0.106000 0.096000 900 30 0.900000 1.807000 1.709000 600 40 1.000000 0.051000 0.051000 1.200000 0.029000 0.035000
1538436893855247949	300 35 0.900000 0.107000 0.097000 900 30 0.900000 1.806000 1.708000 600 40 1.000000 0.051000 0.051000 1.200000 0.028000 0.033000
1538436894423390116	300 34 0.900000 0.107000 0.097000 900 30 0.900000 1.793000 1.696000 600 40 1.000000 0.050000 0.050000 1.200000 0.028000 0.033000
1538436894979354782	300 34 0.900000 0.107000 0.097000 900 30 0.900000 1.806000 1.708000 600 39 1.000000 0.050000 0.050000 1.200000 0.028000 0.033000
1538436895547269407	300 35 0.900000 0.107000 0.097000 900 30 0.900000 1.808000 1.710000 600 40 1.000000 0.050000 0.050000 1.200000 0.028000 0.033000
1538436896107253074	300 35 0.900000 0.107000 0.097000 900 30 0.900000 1.807000 1.709000 600 40 1.000000 0.050000 0.050000 1.200000 0.028000 0.033000
1538436896675392991	300 35 0.900000 0.107000 0.097000 900 30 0.900000 1.807000 1.709000 600 39 1.000000 0.050000 0.050000 1.200000 0.029000 0.035000
1538436897243393033	300 35 0.900000 0.107000 0.097000 900 29 0.900000 1.800000 1.702000 600 40 1.000000 0.050000 0.050000 1.200000 0.028000 0.033000
1538436897799340616	300 34 0.900000 0.107000 0.097000 900 30 0.900000 1.799000 1.701000 600 40 1.000000 0.050000 0.050000 1.200000 0.028000 0.033000
1538436898363264199	300 34 0.900000 0.106000 0.096000 900 30 0.900000 1.805000 1.707000 600 40 1.000000 0.050000 0.050000 1.200000 0.028000 0.033000
1538436898927347825	300 35 0.900000 0.106000 0.096000 900 30 0.900000 1.797000 1.699000 600 40 1.000000 0.050000 0.050000 1.200000 0.028000 0.033000
1538436899491416241	300 35 0.900000 0.106000 0.096000 900 30 0.900000 1.801000 1.703000 600 40 1.000000 0.051000 0.051000 1.200000 0.028000 0.033000
1538436900059335408	300 35 0.900000 0.107000 0.097000 900 30 0.900000 1.800000 1.702000 600 40 1.000000 0.050000 0.050000 1.200000 0.028000 0.033000
1538436900619272783	300 34 0.900000 0.107000 0.097000 900 30 0.900000 1.804000 1.706000 600 40 1.000000 0.050000 0.050000 1.200000 0.028000 0.033000
1538436901187330950	300 34 0.900000 0.107000 0.097000 900 30 0.900000 1.806000 1.708000 600 40 1.000000 0.051000 0.051000 1.200000 0.028000 0.033000
1538436901755344575	300 35 0.900000 0.107000 0.097000 900 30 0.900000 1.801000 1.703000 600 39 1.000000 0.050000 0.050000 1.200000 0.028000 0.033000
1538436902319282908	300 35 0.900000 0.106000 0.096000 900 30 0.900000 1.794000 1.697000 600 40 1.000000 0.050000 0.050000 1.200000 0.029000 0.035000
1538436902887415950	300 35 0.900000 0.107000 0.097000 900 30 0.900000 1.799000 1.701000 600 40 1.000000 0.050000 0.050000 1.200000 0.029000 0.035000
1538436903447343825	300 35 0.900000 0.107000 0.097000 900 30 0.900000 1.807000 1.709000 600 40 1.000000 0.050000 0.050000 1.200000 0.027000 0.032000
1538436904011363033	300 35 0.900000 0.106000 0.096000 900 30 0.900000 1.805000 1.707000 600 40 1.000000 0.050000 0.050000 1.200000 0.028000 0.033000
1538436904575257409	300 34 0.900000 0.106000 0.096000 900 30 0.900000 1.804000 1.706000 600 40 1.000000 0.051000 0.051000 1.200000 0.029000 0.035000
1538436905143362617	300 34 0.900000 0.106000 0.096000 900 30 0.900000 1.805000 1.707000 600 40 1.000000 0.050000 0.050000 1.200000 0.029000 0.035000
1538436905699304825	300 34 0.900000 0.107000 0.097000 900 30 0.900000 1.807000 1.709000 600 40 1.000000 0.050000 0.050000 1.200000 0.029000 0.035000
1538436906251386367	300 35 0.900000 0.107000 0.097000 900 30 0.900000 1.805000 1.707000 600 40 1.000000 0.050000 0.050000 1.200000 0.028000 0.033000
1538436906815339242	300 35 0.900000 0.106000 0.096000 900 30 0.900000 1.798000 1.700000 600 40 1.000000 0.051000 0.051000 1.200000 0.029000 0.035000
1538436907375383534	300 35 0.900000 0.107000 0.097000 900 30 0.900000 1.807000 1.709000 600 40 1.000000 0.051000 0.051000 1.200000 0.028000 0.033000
1538436907943363951	300 35 0.900000 0.106000 0.096000 900 30 0.900000 1.807000 1.709000 600 40 1.000000 0.050000 0.050000 1.200000 0.028000 0.033000
1538436908499353576	300 35 0.900000 0.107000 0.097000 900 30 0.900000 1.806000 1.708000 600 40 1.000000 0.050000 0.050000 1.200000 0.028000 0.033000
1538436909067330201	300 35 0.900000 0.107000 0.097000 900 30 0.900000 1.805000 1.707000 600 40 1.000000 0.050000 0.050000 1.200000 0.028000 0.033000
1538436909623275742	300 35 0.900000 0.106000 0.096000 900 30 0.900000 1.805000 1.707000 600 40 1.000000 0.051000 0.051000 1.200000 0.028000 0.033000
1538436910175337951	300 35 0.900000 0.106000 0.096000 900 30 0.900000 1.806000 1.708000 600 39 1.000000 0.051000 0.051000 1.200000 0.029000 0.035000
1538436910743384618	300 35 0.900000 0.106000 0.096000 900 30 0.900000 1.806000 1.708000 600 40 1.000000 0.050000 0.050000 1.200000 0.028000 0.033000
1538436911307356409	300 35 0.900000 0.107000 0.097000 900 30 0.900000 1.804000 1.706000 600 39 1.000000 0.051000 0.051000 1.200000 0.028000 0.033000
1538436911867357701	300 35 0.900000 0.107000 0.097000 900 30 0.900000 1.802000 1.706000 600 40 1.000000 0.051000 0.051000 1.200000 0.028000 0.033000
1538436912427338993	300 34 0.900000 0.107000 0.097000 900 30 0.900000 1.793000 1.696000 600 40 1.000000 0.050000 0.050000 1.200000 0.028000 0.033000
1538436912987342826	300 34 0.900000 0.107000 0.097000 900 30 0.900000 1.794000 1.697000 600 40 1.000000 0.050000 0.050000 1.200000 0.028000 0.033000
1538436913547306160	300 34 0.900000 0.107000 0.097000 900 30 0.900000 1.797000 1.699000 600 40 1.000000 0.050000 0.050000 1.200000 0.028000 0.033000
1538436914103362910	300 34 0.900000 0.106000 0.096000 900 30 0.900000 1.793000 1.696000 600 40 1.000000 0.050000 0.050000 1.200000 0.028000 0.033000
1538436914667295618	300 34 0.900000 0.107000 0.097000 900 30 0.900000 1.792000 1.695000 600 40 1.000000 0.050000 0.050000 1.200000 0.028000 0.033000
1538436915235314618	300 34 0.900000 0.107000 0.097000 900 30 0.900000 1.790000 1.693000 600 40 1.000000 0.050000 0.050000 1.200000 0.029000 0.035000
1538436915787352077	300 35 0.900000 0.107000 0.097000 900 30 0.900000 1.795000 1.698000 600 39 1.000000 0.050000 0.050000 1.200000 0.028000 0.033000
1538436916339252743	300 34 0.900000 0.107000 0.097000 900 30 0.900000 1.801000 1.703000 600 40 1.000000 0.050000 0.050000 1.200000 0.028000 0.033000
1538436916891335785	300 35 0.900000 0.107000 0.097000 900 30 0.900000 1.798000 1.700000 600 40 1.000000 0.050000 0.050000 1.200000 0.028000 0.033000
1538436917459282118	300 35 0.900000 0.107000 0.097000 900 30 0.900000 1.795000 1.698000 600 40 1.000000 0.050000 0.050000 1.200000 0.028000 0.033000
1538436918023240327	300 34 0.900000 0.107000 0.097000 900 30 0.900000 1.794000 1.697000 600 40 1.000000 0.050000 0.050000 1.200000 0.028000 0.033000
1538436918587343035	300 35 0.900000 0.107000 0.097000 900 30 0.900000 1.795000 1.698000 600 40 1.000000 0.051000 0.051000 1.200000 0.028000 0.033000
1538436919151347535	300 34 0.900000 0.106000 0.096000 900 30 0.900000 1.796000 1.699000 600 40 1.000000 0.051000 0.051000 1.200000 0.028000 0.033000
1538436919719349494	300 34 0.900000 0.106000 0.096000 900 30 0.900000 1.791000 1.694000 600 40 1.000000 0.051000 0.051000 1.200000 0.028000 0.033000
1538436920283372119	300 34 0.900000 0.106000 0.096000 900 30 0.900000 1.801000 1.703000 600 40 1.000000 0.050000 0.050000 1.200000 0.028000 0.033000
1538436920847372910	300 34 0.900000 0.107000 0.097000 900 30 0.900000 1.802000 1.704000 600 40 1.000000 0.051000 0.051000 1.200000 0.028000 0.033000
1538436921415275952	300 34 0.900000 0.107000 0.097000 900 30 0.900000 1.801000 1.703000 600 40 1.000000 0.050000 0.050000 1.200000 0.028000 0.033000
1538436921983350952	300 34 0.900000 0.107000 0.097000 900 30 0.900000 1.801000 1.703000 600 40 1.000000 0.050000 0.050000 1.200000 0.028000 0.033000
1538436922547253036	300 34 0.900000 0.107000 0.097000 900 30 0.900000 1.788000 1.691000 600 40 1.000000 0.051000 0.051000 1.200000 0.028000 0.033000
1538436923103361494	300 34 0.900000 0.107000 0.097000 900 30 0.900000 1.796000 1.699000 600 40 1.000000 0.050000 0.050000 1.200000 0.028000 0.033000
1538436923655392994	300 35 0.900000 0.107000 0.097000 900 30 0.900000 1.802000 1.704000 600 40 1.000000 0.051000 0.051000 1.200000 0.028000 0.033000
1538436924211315703	300 34 0.900000 0.107000 0.097000 900 30 0.900000 1.802000 1.704000 600 40 1.000000 0.051000 0.051000 1.200000 0.029000 0.035000
1538436924775260994	300 35 0.900000 0.107000 0.097000 900 30 0.900000 1.797000 1.699000 600 39 1.000000 0.051000 0.051000 1.200000 0.028000 0.033000
1538436925339250911	300 34 0.900000 0.107000 0.097000 900 30 0.900000 1.808000 1.710000 600 39 1.000000 0.050000 0.050000 1.200000 0.028000 0.033000
1538436925907254744	300 34 0.900000 0.107000 0.097000 900 30 0.900000 1.808000 1.710000 600 40 1.000000 0.051000 0.051000 1.200000 0.028000 0.033000
1538436926467434078	300 34 0.900000 0.107000 0.097000 900 30 0.900000 1.804000 1.708000 600 39 1.000000 0.050000 0.050000 1.200000 0.028000 0.033000
1538436927035265786	300 35 0.900000 0.107000 0.097000 900 30 0.900000 1.797000 1.699000 600 40 1.000000 0.050000 0.050000 1.200000 0.028000 0.033000
1538436927603365620	300 35 0.900000 0.106000 0.096000 900 30 0.900000 1.795000 1.698000 600 40 1.000000 0.050000 0.050000 1.200000 0.028000 0.033000
1538436928167327411	300 35 0.900000 0.107000 0.097000 900 30 0.900000 1.807000 1.709000 600 40 1.000000 0.050000 0.050000 1.200000 0.029000 0.035000
1538436928735340203	300 34 0.900000 0.106000 0.096000 900 30 0.900000 1.808000 1.710000 600 40 1.000000 0.051000 0.051000 1.200000 0.029000 0.035000
1538436929299327578	300 35 0.900000 0.107000 0.097000 900 30 0.900000 1.807000 1.709000 600 40 1.000000 0.051000 0.051000 1.200000 0.028000 0.033000
1538436929867345412	300 35 0.900000 0.107000 0.097000 900 30 0.900000 1.806000 1.708000 600 40 1.000000 0.050000 0.050000 1.200000 0.028000 0.033000
1538436930423384745	300 35 0.900000 0.106000 0.096000 900 30 0.900000 1.804000 1.706000 600 39 1.000000 0.050000 0.050000 1.200000 0.028000 0.033000
1538436930991320953	300 34 0.900000 0.106000 0.096000 900 30 0.900000 1.804000 1.706000 600 39 1.000000 0.050000 0.050000 1.200000 0.028000 0.033000
1538436931559395828	300 35 0.900000 0.107000 0.097000 900 30 0.900000 1.807000 1.709000 600 39 1.000000 0.051000 0.051000 1.200000 0.028000 0.033000
1538436932127341620	300 35 0.900000 0.107000 0.097000 900 30 0.900000 1.799000 1.701000 600 40 1.000000 0.050000 0.050000 1.200000 0.028000 0.033000
1538436932695273245	300 34 0.900000 0.107000 0.097000 900 30 0.900000 1.792000 1.695000 600 40 1.000000 0.050000 0.050000 1.200000 0.028000 0.033000
1538436933255422620	300 35 0.900000 0.106000 0.096000 900 30 0.900000 1.808000 1.710000 600 40 1.000000 0.050000 0.050000 1.200000 0.028000 0.033000
1538436933823353787	300 35 0.900000 0.107000 0.097000 900 30 0.900000 1.809000 1.711000 600 40 1.000000 0.050000 0.050000 1.200000 0.028000 0.033000
1538436934391287495	300 35 0.900000 0.107000 0.097000 900 30 0.900000 1.805000 1.707000 600 40 1.000000 0.050000 0.050000 1.200000 0.028000 0.033000
1538436934959399412	300 35 0.900000 0.107000 0.097000 900 30 0.900000 1.804000 1.706000 600 40 1.000000 0.050000 0.050000 1.200000 0.028000 0.033000
1538436935527408412	300 34 0.900000 0.106000 0.096000 900 30 0.900000 1.804000 1.706000 600 40 1.000000 0.050000 0.050000 1.200000 0.028000 0.033000
1538436936079252329	300 34 0.900000 0.107000 0.097000 900 30 0.900000 1.787000 1.690000 600 40 1.000000 0.050000 0.050000 1.200000 0.028000 0.033000
1538436936647314496	300 35 0.900000 0.107000 0.097000 900 30 0.900000 1.788000 1.691000 600 40 1.000000 0.050000 0.050000 1.200000 0.028000 0.033000
1538436937199346621	300 35 0.900000 0.107000 0.097000 900 30 0.900000 1.797000 1.699000 600 40 1.000000 0.050000 0.050000 1.200000 0.029000 0.035000
1538436937763352746	300 35 0.900000 0.107000 0.097000 900 30 0.900000 1.798000 1.700000 600 40 1.000000 0.050000 0.050000 1.200000 0.028000 0.033000
1538436938327411579	300 34 0.900000 0.107000 0.097000 900 30 0.900000 1.798000 1.700000 600 40 1.000000 0.050000 0.050000 1.200000 0.028000 0.033000
1538436938883390621	300 35 0.900000 0.107000 0.097000 900 30 0.900000 1.797000 1.699000 600 40 1.000000 0.050000 0.050000 1.200000 0.028000 0.033000
1538436939447330121	300 35 0.900000 0.107000 0.097000 900 30 0.900000 1.797000 1.699000 600 40 1.000000 0.050000 0.050000 1.200000 0.028000 0.033000
1538436940011266079	300 35 0.900000 0.106000 0.096000 900 30 0.900000 1.790000 1.693000 600 40 1.000000 0.051000 0.051000 1.200000 0.029000 0.035000
1538436940575386746	300 35 0.900000 0.106000 0.096000 900 30 0.900000 1.788000 1.691000 600 40 1.000000 0.050000 0.050000 1.200000 0.029000 0.035000
1538436941143260455	300 34 0.900000 0.107000 0.097000 900 30 0.900000 1.784000 1.687000 600 40 1.000000 0.051000 0.051000 1.200000 0.029000 0.035000
1538436941695327830	300 34 0.900000 0.107000 0.097000 900 30 0.900000 1.798000 1.700000 600 40 1.000000 0.050000 0.050000 1.200000 0.029000 0.035000
1538436942263370955	300 34 0.900000 0.106000 0.096000 900 30 0.900000 1.797000 1.699000 600 40 1.000000 0.050000 0.050000 1.200000 0.028000 0.033000
1538436942815303538	300 35 0.900000 0.107000 0.097000 900 30 0.900000 1.798000 1.700000 600 40 1.000000 0.051000 0.051000 1.200000 0.028000 0.033000
1538436943383305913	300 35 0.900000 0.106000 0.096000 900 30 0.900000 1.798000 1.700000 600 40 1.000000 0.050000 0.050000 1.200000 0.029000 0.035000
1538436943943299747	300 34 0.900000 0.107000 0.097000 900 30 0.900000 1.799000 1.701000 600 40 1.000000 0.051000 0.051000 1.200000 0.029000 0.035000
1538436944511351413	300 35 0.900000 0.107000 0.097000 900 30 0.900000 1.793000 1.696000 600 40 1.000000 0.050000 0.050000 1.200000 0.028000 0.033000
1538436945079350538	300 35 0.900000 0.107000 0.097000 900 30 0.900000 1.783000 1.686000 600 40 1.000000 0.050000 0.050000 1.200000 0.029000 0.035000
1538436945643333122	300 35 0.900000 0.107000 0.097000 900 30 0.900000 1.789000 1.692000 600 40 1.000000 0.050000 0.050000 1.200000 0.028000 0.033000
1538436946207243622	300 35 0.900000 0.107000 0.097000 900 30 0.900000 1.788000 1.693000 600 39 1.000000 0.051000 0.051000 1.200000 0.028000 0.033000
1538436946759266747	300 35 0.900000 0.107000 0.097000 900 30 0.900000 1.788000 1.691000 600 39 1.000000 0.050000 0.050000 1.200000 0.028000 0.033000
1538436947323393622	300 34 0.900000 0.107000 0.097000 900 30 0.900000 1.787000 1.690000 600 39 1.000000 0.050000 0.050000 1.200000 0.029000 0.035000
1538436947887349830	300 34 0.900000 0.106000 0.096000 900 30 0.900000 1.787000 1.692000 600 40 1.000000 0.050000 0.050000 1.200000 0.028000 0.033000
1538436948455366955	300 35 0.900000 0.107000 0.097000 900 30 0.900000 1.787000 1.690000 600 40 1.000000 0.050000 0.050000 1.200000 0.029000 0.035000
1538436949015398789	300 34 0.900000 0.107000 0.097000 900 30 0.900000 1.784000 1.687000 600 40 1.000000 0.050000 0.050000 1.200000 0.028000 0.033000
1538436949575268456	300 35 0.900000 0.107000 0.097000 900 30 0.900000 1.784000 1.689000 600 39 1.000000 0.050000 0.050000 1.200000 0.027000 0.032000
1538436950139325956	300 34 0.900000 0.107000 0.097000 900 30 0.900000 1.787000 1.692000 600 40 1.000000 0.050000 0.050000 1.200000 0.027000 0.032000
1538436950699329706	300 34 0.900000 0.107000 0.097000 900 30 0.900000 1.787000 1.692000 600 39 1.000000 0.050000 0.050000 1.200000 0.026000 0.031000
1538436951259360747	300 35 0.900000 0.106000 0.096000 900 30 0.900000 1.780000 1.685000 600 40 1.000000 0.050000 0.050000 1.200000 0.027000 0.032000
1538436951815271372	300 34 0.900000 0.107000 0.097000 900 30 0.900000 1.780000 1.685000 600 39 1.000000 0.051000 0.051000 1.200000 0.026000 0.031000
1538436952379336623	300 34 0.900000 0.107000 0.097000 900 30 0.900000 1.773000 1.679000 600 39 1.000000 0.051000 0.051000 1.200000 0.027000 0.032000
1538436952947343331	300 35 0.900000 0.107000 0.097000 900 30 0.900000 1.781000 1.686000 600 40 1.000000 0.050000 0.050000 1.200000 0.026000 0.031000
1538436953507323998	300 35 0.900000 0.106000 0.096000 900 30 0.900000 1.786000 1.691000 600 39 1.000000 0.050000 0.050000 1.200000 0.026000 0.031000
1538436954083247706	300 34 0.900000 0.107000 0.097000 900 30 0.900000 1.788000 1.691000 600 39 1.000000 0.051000 0.051000 1.200000 0.026000 0.031000
1538436954639261414	300 35 0.900000 0.107000 0.097000 900 30 0.900000 1.781000 1.686000 600 39 1.000000 0.050000 0.050000 1.200000 0.026000 0.031000
1538436955203341415	300 34 0.900000 0.106000 0.096000 900 30 0.900000 1.777000 1.681000 600 39 1.000000 0.051000 0.051000 1.200000 0.026000 0.031000
1538436955767306123	300 34 0.900000 0.106000 0.096000 900 30 0.900000 1.784000 1.687000 600 40 1.000000 0.050000 0.050000 1.200000 0.026000 0.031000
1538436956323338956	300 34 0.900000 0.106000 0.096000 900 30 0.900000 1.784000 1.689000 600 40 1.000000 0.051000 0.051000 1.200000 0.026000 0.031000
1538436956887425956	300 34 0.900000 0.106000 0.096000 900 30 0.900000 1.786000 1.691000 600 39 1.000000 0.050000 0.050000 1.200000 0.027000 0.032000
1538436957451419123	300 34 0.900000 0.107000 0.097000 900 30 0.900000 1.779000 1.684000 600 39 1.000000 0.051000 0.051000 1.200000 0.027000 0.032000
1538436958019335290	300 34 0.900000 0.107000 0.097000 900 30 0.900000 1.784000 1.689000 600 39 1.000000 0.050000 0.050000 1.200000 0.027000 0.032000
1538436958571293707	300 35 0.900000 0.107000 0.097000 900 30 0.900000 1.781000 1.684000 600 40 1.000000 0.051000 0.051000 1.200000 0.026000 0.031000
1538436959127325832	300 34 0.900000 0.107000 0.097000 900 30 0.900000 1.779000 1.682000 600 39 1.000000 0.051000 0.051000 1.200000 0.026000 0.031000
1538436959683250373	300 35 0.900000 0.106000 0.096000 900 30 0.900000 1.786000 1.689000 600 40 1.000000 0.051000 0.051000 1.200000 0.026000 0.031000
1538436960251358707	300 34 0.900000 0.106000 0.096000 900 30 0.900000 1.777000 1.681000 600 39 1.000000 0.050000 0.050000 1.200000 0.026000 0.031000
1538436960807400790	300 34 0.900000 0.107000 0.097000 900 30 0.900000 1.787000 1.690000 600 39 1.000000 0.050000 0.050000 1.200000 0.026000 0.031000
1538436961383357624	300 34 0.900000 0.107000 0.097000 900 30 0.900000 1.775000 1.679000 600 40 1.000000 0.050000 0.050000 1.200000 0.026000 0.031000
1538436961951265582	300 34 0.900000 0.107000 0.097000 900 30 0.900000 1.781000 1.684000 600 40 1.000000 0.050000 0.050000 1.200000 0.027000 0.032000
1538436962515363874	300 34 0.900000 0.106000 0.096000 900 30 0.900000 1.773000 1.677000 600 40 1.000000 0.051000 0.051000 1.200000 0.026000 0.031000
1538436963083261749	300 34 0.900000 0.107000 0.097000 900 30 0.900000 1.786000 1.689000 600 39 1.000000 0.051000 0.051000 1.200000 0.026000 0.031000
1538436963651375791	300 34 0.900000 0.107000 0.097000 900 30 0.900000 1.781000 1.686000 600 40 1.000000 0.050000 0.050000 1.200000 0.026000 0.031000
1538436964207350832	300 34 0.900000 0.106000 0.096000 900 30 0.900000 1.784000 1.689000 600 40 1.000000 0.050000 0.050000 1.200000 0.026000 0.031000
1538436964771341582	300 34 0.900000 0.107000 0.097000 900 30 0.900000 1.783000 1.686000 600 40 1.000000 0.050000 0.050000 1.200000 0.026000 0.031000
1538436965323352707	300 34 0.900000 0.107000 0.097000 900 30 0.900000 1.776000 1.680000 600 39 1.000000 0.051000 0.051000 1.200000 0.026000 0.031000
1538436965887322791	300 34 0.900000 0.106000 0.096000 900 30 0.900000 1.775000 1.679000 600 40 1.000000 0.051000 0.051000 1.200000 0.026000 0.031000
1538436966451326041	300 34 0.900000 0.106000 0.096000 900 30 0.900000 1.779000 1.682000 600 40 1.000000 0.050000 0.050000 1.200000 0.027000 0.032000
1538436967015247416	300 34 0.900000 0.106000 0.096000 900 30 0.900000 1.787000 1.690000 600 39 1.000000 0.050000 0.050000 1.200000 0.026000 0.031000
1538436967579409874	300 34 0.900000 0.106000 0.096000 900 30 0.900000 1.797000 1.699000 600 39 1.000000 0.050000 0.050000 1.200000 0.026000 0.031000
1538436968139279208	300 34 0.900000 0.107000 0.097000 900 30 0.900000 1.796000 1.700000 600 40 1.000000 0.051000 0.051000 1.200000 0.026000 0.031000
1538436968707368749	300 34 0.900000 0.106000 0.096000 900 30 0.900000 1.802000 1.704000 600 39 1.000000 0.050000 0.050000 1.200000 0.026000 0.031000
1538436969271265333	300 34 0.900000 0.106000 0.096000 900 30 0.900000 1.793000 1.696000 600 40 1.000000 0.050000 0.050000 1.200000 0.026000 0.031000
1538436969835420041	300 34 0.900000 0.106000 0.096000 900 30 0.900000 1.795000 1.699000 600 40 1.000000 0.050000 0.050000 1.200000 0.026000 0.031000
1538436970399401958	300 34 0.900000 0.106000 0.096000 900 30 0.900000 1.806000 1.710000 600 40 1.000000 0.050000 0.050000 1.200000 0.026000 0.031000
1538436970963326291	300 34 0.900000 0.107000 0.097000 900 30 0.900000 1.821000 1.724000 600 40 1.000000 0.050000 0.050000 1.200000 0.026000 0.031000
1538436971531375291	300 34 0.900000 0.107000 0.097000 900 30 0.900000 1.821000 1.724000 600 40 1.000000 0.050000 0.050000 1.200000 0.026000 0.031000
1538436972091302375	300 34 0.900000 0.107000 0.097000 900 29 0.900000 1.821000 1.724000 600 40 1.000000 0.050000 0.050000 1.200000 0.026000 0.031000
1538436972659364750	300 34 0.900000 0.107000 0.097000 900 30 0.900000 1.817000 1.720000 600 40 1.000000 0.050000 0.050000 1.200000 0.026000 0.031000
1538436973219272542	300 34 0.900000 0.107000 0.097000 900 30 0.900000 1.807000 1.709000 600 40 1.000000 0.051000 0.051000 1.200000 0.026000 0.031000
1538436973783277458	300 35 0.900000 0.107000 0.097000 900 30 0.900000 1.813000 1.715000 600 40 1.000000 0.050000 0.050000 1.200000 0.026000 0.031000
1538436974351357292	300 35 0.900000 0.106000 0.096000 900 30 0.900000 1.811000 1.713000 600 40 1.000000 0.050000 0.050000 1.200000 0.026000 0.031000
1538436974911252584	300 34 0.900000 0.106000 0.096000 900 30 0.900000 1.806000 1.710000 600 39 1.000000 0.050000 0.050000 1.200000 0.026000 0.031000
1538436975479348625	300 34 0.900000 0.107000 0.097000 900 30 0.900000 1.820000 1.723000 600 40 1.000000 0.051000 0.051000 1.200000 0.026000 0.031000
1538436976055430917	300 35 0.900000 0.107000 0.097000 900 30 0.900000 1.820000 1.723000 600 40 1.000000 0.050000 0.050000 1.200000 0.026000 0.031000
1538436976623275709	300 35 0.900000 0.106000 0.096000 900 30 0.900000 1.821000 1.724000 600 40 1.000000 0.050000 0.050000 1.200000 0.026000 0.031000
1538436977187272126	300 35 0.900000 0.107000 0.097000 900 30 0.900000 1.812000 1.715000 600 40 1.000000 0.050000 0.050000 1.200000 0.026000 0.031000
1538436977755308917	300 34 0.900000 0.106000 0.096000 900 30 0.900000 1.806000 1.708000 600 39 1.000000 0.051000 0.051000 1.200000 0.026000 0.031000
1538436978323367084	300 34 0.900000 0.106000 0.096000 900 30 0.900000 1.805000 1.707000 600 39 1.000000 0.050000 0.050000 1.200000 0.026000 0.031000
1538436978887370209	300 34 0.900000 0.107000 0.097000 900 30 0.900000 1.819000 1.722000 600 39 1.000000 0.051000 0.051000 1.200000 0.027000 0.032000
1538436979451320042	300 34 0.900000 0.106000 0.096000 900 29 0.900000 1.814000 1.717000 600 40 1.000000 0.050000 0.050000 1.200000 0.026000 0.031000
1538436980011363626	300 34 0.900000 0.107000 0.097000 900 30 0.900000 1.802000 1.704000 600 40 1.000000 0.050000 0.050000 1.200000 0.027000 0.032000
1538436980567253376	300 34 0.900000 0.106000 0.096000 900 30 0.900000 1.802000 1.704000 600 39 1.000000 0.050000 0.050000 1.200000 0.026000 0.031000
1538436981123338626	300 35 0.900000 0.107000 0.097000 900 29 0.900000 1.803000 1.705000 600 39 1.000000 0.050000 0.050000 1.200000 0.026000 0.031000
1538436981683338418	300 34 0.900000 0.107000 0.097000 900 30 0.900000 1.790000 1.695000 600 39 1.000000 0.050000 0.050000 1.200000 0.027000 0.032000
1538436982243304793	300 34 0.900000 0.106000 0.096000 900 29 0.900000 1.788000 1.691000 600 39 1.000000 0.050000 0.050000 1.200000 0.027000 0.032000
1538436982807342668	300 34 0.900000 0.107000 0.097000 900 30 0.900000 1.790000 1.693000 600 39 1.000000 0.050000 0.050000 1.200000 0.026000 0.031000
1538436983363345501	300 34 0.900000 0.106000 0.096000 900 30 0.900000 1.794000 1.697000 600 39 1.000000 0.050000 0.050000 1.200000 0.026000 0.031000
1538436983923257585	300 34 0.900000 0.107000 0.097000 900 29 0.900000 1.795000 1.698000 600 39 1.000000 0.050000 0.050000 1.200000 0.027000 0.032000
1538436984483337460	300 34 0.900000 0.106000 0.096000 900 30 0.900000 1.795000 1.698000 600 39 1.000000 0.050000 0.050000 1.200000 0.027000 0.032000
1538436985051283168	300 34 0.900000 0.107000 0.097000 900 30 0.900000 1.794000 1.697000 600 39 1.000000 0.050000 0.050000 1.200000 0.026000 0.031000
1538436985619399377	300 34 0.900000 0.106000 0.096000 900 29 0.900000 1.794000 1.697000 600 39 1.000000 0.050000 0.050000 1.200000 0.026000 0.031000
1538436986187277210	300 34 0.900000 0.106000 0.096000 900 30 0.900000 1.793000 1.696000 600 39 1.000000 0.051000 0.051000 1.200000 0.027000 0.032000
1538436986755360252	300 34 0.900000 0.106000 0.096000 900 29 0.900000 1.787000 1.690000 600 39 1.000000 0.050000 0.050000 1.200000 0.027000 0.032000
1538436987299876710	300 34 0.900000 0.107000 0.097000 900 29 0.900000 1.795000 1.698000 600 39 1.000000 0.050000 0.050000 1.200000 0.026000 0.031000
1538436987863337210	300 34 0.900000 0.107000 0.097000 900 30 0.900000 1.793000 1.696000 600 39 1.000000 0.051000 0.051000 1.200000 0.026000 0.031000
1538436988419324752	300 34 0.900000 0.106000 0.096000 900 30 0.900000 1.793000 1.696000 600 39 1.000000 0.051000 0.051000 1.200000 0.026000 0.031000
1538436988983323127	300 34 0.900000 0.106000 0.096000 900 29 0.900000 1.794000 1.697000 600 39 1.000000 0.050000 0.050000 1.200000 0.027000 0.032000
1538436989547319127	300 34 0.900000 0.106000 0.096000 900 29 0.900000 1.795000 1.699000 600 39 1.000000 0.051000 0.051000 1.200000 0.027000 0.032000
1538436990115321044	300 34 0.900000 0.106000 0.096000 900 29 0.900000 1.795000 1.699000 600 39 1.000000 0.050000 0.050000 1.200000 0.026000 0.031000
1538436990679355002	300 34 0.900000 0.107000 0.097000 900 29 0.900000 1.796000 1.700000 600 39 1.000000 0.050000 0.050000 1.200000 0.027000 0.032000
1538436991247342252	300 34 0.900000 0.107000 0.097000 900 29 0.900000 1.792000 1.697000 600 39 1.000000 0.050000 0.050000 1.200000 0.027000 0.032000
1538436991811329169	300 34 0.900000 0.107000 0.097000 900 29 0.900000 1.782000 1.685000 600 39 1.000000 0.050000 0.050000 1.200000 0.026000 0.031000
1538436992367336419	300 34 0.900000 0.106000 0.096000 900 29 0.900000 1.781000 1.684000 600 40 1.000000 0.051000 0.051000 1.200000 0.026000 0.031000
1538436992935350044	300 34 0.900000 0.106000 0.096000 900 29 0.900000 1.786000 1.689000 600 39 1.000000 0.050000 0.050000 1.200000 0.026000 0.031000
1538436993495333169	300 34 0.900000 0.107000 0.097000 900 29 0.900000 1.791000 1.694000 600 39 1.000000 0.051000 0.051000 1.200000 0.027000 0.032000
1538436994059320294	300 34 0.900000 0.106000 0.096000 900 29 0.900000 1.791000 1.694000 600 39 1.000000 0.050000 0.050000 1.200000 0.027000 0.032000
1538436994619382586	300 34 0.900000 0.106000 0.096000 900 30 0.900000 1.792000 1.695000 600 39 1.000000 0.050000 0.050000 1.200000 0.027000 0.032000
1538436995179329836	300 34 0.900000 0.106000 0.096000 900 30 0.900000 1.788000 1.691000 600 39 1.000000 0.051000 0.051000 1.200000 0.027000 0.032000
1538436995731307669	300 34 0.900000 0.107000 0.097000 900 29 0.900000 1.783000 1.688000 600 39 1.000000 0.050000 0.050000 1.200000 0.027000 0.032000
1538436996299370836	300 34 0.900000 0.106000 0.096000 900 29 0.900000 1.787000 1.690000 600 39 1.000000 0.050000 0.050000 1.200000 0.026000 0.031000
1538436996867354253	300 34 0.900000 0.107000 0.097000 900 30 0.900000 1.791000 1.694000 600 39 1.000000 0.051000 0.051000 1.200000 0.026000 0.031000
1538436997423242086	300 34 0.900000 0.107000 0.097000 900 30 0.900000 1.793000 1.696000 600 39 1.000000 0.050000 0.050000 1.200000 0.027000 0.032000
1538436997979312545	300 34 0.900000 0.107000 0.097000 900 29 0.900000 1.782000 1.685000 600 39 1.000000 0.050000 0.050000 1.200000 0.026000 0.031000
1538436998543271336	300 34 0.900000 0.107000 0.097000 900 29 0.900000 1.790000 1.693000 600 39 1.000000 0.050000 0.050000 1.200000 0.026000 0.031000
1538436999111324420	300 34 0.900000 0.106000 0.096000 900 30 0.900000 1.786000 1.689000 600 40 1.000000 0.050000 0.050000 1.200000 0.027000 0.032000
1538436999659327212	300 34 0.900000 0.107000 0.097000 900 29 0.900000 1.786000 1.689000 600 39 1.000000 0.050000 0.050000 1.200000 0.027000 0.032000
1538437000227296420	300 34 0.900000 0.106000 0.096000 900 30 0.900000 1.785000 1.688000 600 39 1.000000 0.050000 0.050000 1.200000 0.026000 0.031000
1538437000795268920	300 34 0.900000 0.106000 0.096000 900 29 0.900000 1.792000 1.695000 600 39 1.000000 0.050000 0.050000 1.200000 0.026000 0.031000
1538437001355330170	300 34 0.900000 0.107000 0.097000 900 30 0.900000 1.787000 1.690000 600 39 1.000000 0.051000 0.051000 1.200000 0.026000 0.031000
1538437001911299795	300 34 0.900000 0.106000 0.096000 900 30 0.900000 1.783000 1.686000 600 39 1.000000 0.051000 0.051000 1.200000 0.026000 0.031000
1538437002487383879	300 35 0.900000 0.106000 0.096000 900 30 0.900000 1.787000 1.690000 600 39 1.000000 0.050000 0.050000 1.200000 0.027000 0.032000
1538437003051313795	300 34 0.900000 0.107000 0.097000 900 29 0.900000 1.783000 1.686000 600 39 1.000000 0.050000 0.050000 1.200000 0.026000 0.031000
1538437003619352754	300 34 0.900000 0.106000 0.096000 900 29 0.900000 1.786000 1.689000 600 39 1.000000 0.051000 0.051000 1.200000 0.027000 0.032000
1538437004187322670	300 34 0.900000 0.107000 0.097000 900 29 0.900000 1.793000 1.696000 600 39 1.000000 0.050000 0.050000 1.200000 0.027000 0.032000
1538437004751386295	300 34 0.900000 0.107000 0.097000 900 30 0.900000 1.794000 1.697000 600 39 1.000000 0.050000 0.050000 1.200000 0.026000 0.031000
1538437005315254629	300 34 0.900000 0.106000 0.096000 900 29 0.900000 1.795000 1.698000 600 39 1.000000 0.050000 0.050000 1.200000 0.026000 0.031000
1538437005883363421	300 34 0.900000 0.106000 0.096000 900 29 0.900000 1.793000 1.696000 600 39 1.000000 0.050000 0.050000 1.200000 0.026000 0.031000
1538437006451371921	300 34 0.900000 0.107000 0.097000 900 29 0.900000 1.785000 1.688000 600 39 1.000000 0.051000 0.051000 1.200000 0.026000 0.031000
1538437007015338004	300 34 0.900000 0.106000 0.096000 900 29 0.900000 1.780000 1.683000 600 39 1.000000 0.051000 0.051000 1.200000 0.026000 0.031000
1538437007579251504	300 34 0.900000 0.106000 0.096000 900 29 0.900000 1.784000 1.689000 600 39 1.000000 0.051000 0.051000 1.200000 0.027000 0.032000
1538437008139268046	300 34 0.900000 0.107000 0.097000 900 29 0.900000 1.782000 1.685000 600 39 1.000000 0.051000 0.051000 1.200000 0.027000 0.032000
1538437008695235713	300 34 0.900000 0.106000 0.096000 900 30 0.900000 1.794000 1.697000 600 39 1.000000 0.050000 0.050000 1.200000 0.026000 0.031000
1538437009263331629	300 34 0.900000 0.106000 0.096000 900 30 0.900000 1.793000 1.696000 600 39 1.000000 0.050000 0.050000 1.200000 0.026000 0.031000
1538437009827281671	300 34 0.900000 0.107000 0.097000 900 29 0.900000 1.793000 1.696000 600 39 1.000000 0.050000 0.050000 1.200000 0.026000 0.031000
1538437010375245296	300 34 0.900000 0.107000 0.097000 900 29 0.900000 1.794000 1.697000 600 39 1.000000 0.050000 0.050000 1.200000 0.026000 0.031000
1538437010927340880	300 34 0.900000 0.107000 0.097000 900 29 0.900000 1.791000 1.694000 600 39 1.000000 0.051000 0.051000 1.200000 0.026000 0.031000
1538437011487319630	300 34 0.900000 0.107000 0.097000 900 30 0.900000 1.787000 1.690000 600 39 1.000000 0.050000 0.050000 1.200000 0.026000 0.031000
1538437012051366963	300 34 0.900000 0.106000 0.096000 900 30 0.900000 1.787000 1.690000 600 39 1.000000 0.050000 0.050000 1.200000 0.026000 0.031000
1538437012615403505	300 34 0.900000 0.106000 0.096000 900 30 0.900000 1.793000 1.696000 600 39 1.000000 0.050000 0.050000 1.200000 0.027000 0.032000
1538437013179415380	300 34 0.900000 0.106000 0.096000 900 29 0.900000 1.802000 1.704000 600 39 1.000000 0.050000 0.050000 1.200000 0.026000 0.031000
1538437013727346255	300 34 0.900000 0.107000 0.097000 900 29 0.900000 1.802000 1.706000 600 39 1.000000 0.050000 0.050000 1.200000 0.026000 0.031000
1538437014295318755	300 34 0.900000 0.106000 0.096000 900 30 0.900000 1.800000 1.702000 600 39 1.000000 0.050000 0.050000 1.200000 0.026000 0.031000
1538437014851298713	300 34 0.900000 0.107000 0.097000 900 30 0.900000 1.801000 1.703000 600 39 1.000000 0.050000 0.050000 1.200000 0.026000 0.031000
1538437015415381005	300 34 0.900000 0.106000 0.096000 900 30 0.900000 1.797000 1.699000 600 39 1.000000 0.050000 0.050000 1.200000 0.026000 0.031000
1538437015983335880	300 34 0.900000 0.106000 0.096000 900 29 0.900000 1.799000 1.701000 600 40 1.000000 0.050000 0.050000 1.200000 0.026000 0.031000
1538437016551248339	300 35 0.900000 0.106000 0.096000 900 30 0.900000 1.802000 1.704000 600 39 1.000000 0.050000 0.050000 1.200000 0.026000 0.031000
1538437017119279047	300 34 0.900000 0.107000 0.097000 900 29 0.900000 1.807000 1.711000 600 40 1.000000 0.050000 0.050000 1.200000 0.026000 0.031000
1538437017675334672	300 34 0.900000 0.107000 0.097000 900 30 0.900000 1.808000 1.710000 600 40 1.000000 0.050000 0.050000 1.200000 0.026000 0.031000
1538437018231253964	300 34 0.900000 0.107000 0.097000 900 30 0.900000 1.807000 1.709000 600 40 1.000000 0.051000 0.051000 1.200000 0.025000 0.030000
1538437018791350839	300 34 0.900000 0.107000 0.097000 900 30 0.900000 1.806000 1.708000 600 39 1.000000 0.050000 0.050000 1.200000 0.025000 0.030000
1538437019355333172	300 34 0.900000 0.107000 0.097000 900 30 0.900000 1.807000 1.709000 600 39 1.000000 0.050000 0.050000 1.200000 0.025000 0.030000
1538437019923322131	300 34 0.900000 0.107000 0.097000 900 30 0.900000 1.808000 1.710000 600 39 1.000000 0.051000 0.051000 1.200000 0.025000 0.030000
1538437020483326339	300 34 0.900000 0.107000 0.097000 900 30 0.900000 1.806000 1.708000 600 39 1.000000 0.051000 0.051000 1.200000 0.025000 0.030000
1538437021051329589	300 34 0.900000 0.107000 0.097000 900 29 0.900000 1.799000 1.701000 600 39 1.000000 0.051000 0.051000 1.200000 0.026000 0.031000
1538437021603398172	300 34 0.900000 0.107000 0.097000 900 29 0.900000 1.805000 1.707000 600 39 1.000000 0.051000 0.051000 1.200000 0.026000 0.031000
1538437022159371923	300 34 0.900000 0.107000 0.097000 900 30 0.900000 1.807000 1.709000 600 40 1.000000 0.050000 0.050000 1.200000 0.025000 0.030000
1538437022727313964	300 34 0.900000 0.107000 0.097000 900 29 0.900000 1.807000 1.709000 600 39 1.000000 0.050000 0.050000 1.200000 0.026000 0.031000
1538437023283262714	300 34 0.900000 0.107000 0.097000 900 30 0.900000 1.807000 1.709000 600 39 1.000000 0.050000 0.050000 1.200000 0.026000 0.031000
1538437023851396631	300 34 0.900000 0.107000 0.097000 900 29 0.900000 1.807000 1.709000 600 39 1.000000 0.051000 0.051000 1.200000 0.026000 0.031000
1538437024407310423	300 34 0.900000 0.107000 0.097000 900 30 0.900000 1.807000 1.709000 600 39 1.000000 0.051000 0.051000 1.200000 0.026000 0.031000
1538437024963407215	300 34 0.900000 0.107000 0.097000 900 30 0.900000 1.803000 1.705000 600 39 1.000000 0.051000 0.051000 1.200000 0.026000 0.031000
1538437025531314631	300 34 0.900000 0.107000 0.097000 900 30 0.900000 1.806000 1.708000 600 39 1.000000 0.050000 0.050000 1.200000 0.026000 0.031000
1538437026095360381	300 34 0.900000 0.107000 0.097000 900 30 0.900000 1.812000 1.714000 600 39 1.000000 0.051000 0.051000 1.200000 0.026000 0.031000
1538437026659326965	300 34 0.900000 0.107000 0.097000 900 30 0.900000 1.810000 1.712000 600 39 1.000000 0.050000 0.050000 1.200000 0.026000 0.031000
1538437027219370715	300 34 0.900000 0.107000 0.097000 900 29 0.900000 1.808000 1.710000 600 39 1.000000 0.051000 0.051000 1.200000 0.026000 0.031000
1538437027779315007	300 34 0.900000 0.107000 0.097000 900 29 0.900000 1.808000 1.710000 600 39 1.000000 0.050000 0.050000 1.200000 0.026000 0.031000
1538437028343362340	300 34 0.900000 0.107000 0.097000 900 29 0.900000 1.808000 1.710000 600 39 1.000000 0.050000 0.050000 1.200000 0.026000 0.031000
1538437028911340465	300 34 0.900000 0.107000 0.097000 900 30 0.900000 1.807000 1.709000 600 39 1.000000 0.050000 0.050000 1.200000 0.026000 0.031000
1538437029463352298	300 34 0.900000 0.107000 0.097000 900 30 0.900000 1.808000 1.710000 600 39 1.000000 0.050000 0.050000 1.200000 0.026000 0.031000
1538437030019341298	300 34 0.900000 0.107000 0.097000 900 30 0.900000 1.807000 1.709000 600 40 1.000000 0.051000 0.051000 1.200000 0.026000 0.031000
1538437030583332049	300 34 0.900000 0.107000 0.097000 900 30 0.900000 1.798000 1.700000 600 39 1.000000 0.051000 0.051000 1.200000 0.026000 0.031000
1538437031135330799	300 34 0.900000 0.106000 0.096000 900 30 0.900000 1.807000 1.709000 600 39 1.000000 0.050000 0.050000 1.200000 0.026000 0.031000
1538437031695300090	300 34 0.900000 0.107000 0.097000 900 29 0.900000 1.808000 1.710000 600 39 1.000000 0.051000 0.051000 1.200000 0.026000 0.031000
1538437032263386757	300 34 0.900000 0.107000 0.097000 900 30 0.900000 1.800000 1.702000 600 40 1.000000 0.051000 0.051000 1.200000 0.026000 0.031000
1538437032831408924	300 34 0.900000 0.107000 0.097000 900 30 0.900000 1.795000 1.698000 600 39 1.000000 0.051000 0.051000 1.200000 0.026000 0.031000
1538437033399346966	300 34 0.900000 0.107000 0.097000 900 30 0.900000 1.808000 1.710000 600 40 1.000000 0.050000 0.050000 1.200000 0.026000 0.031000
1538437033963350216	300 34 0.900000 0.107000 0.097000 900 30 0.900000 1.807000 1.709000 600 39 1.000000 0.050000 0.050000 1.200000 0.027000 0.032000
1538437034527369341	300 34 0.900000 0.107000 0.097000 900 30 0.900000 1.800000 1.702000 600 39 1.000000 0.051000 0.051000 1.200000 0.026000 0.031000
1538437035091323466	300 34 0.900000 0.107000 0.097000 900 30 0.900000 1.802000 1.704000 600 39 1.000000 0.050000 0.050000 1.200000 0.026000 0.031000
1538437035639260341	300 34 0.900000 0.108000 0.098000 900 30 0.900000 1.801000 1.703000 600 40 1.000000 0.051000 0.051000 1.200000 0.026000 0.031000
1538437036191331383	300 34 0.900000 0.107000 0.097000 900 30 0.900000 1.813000 1.716000 600 39 1.000000 0.051000 0.051000 1.200000 0.026000 0.031000
1538437036755341049	300 34 0.900000 0.107000 0.097000 900 30 0.900000 1.798000 1.702000 600 39 1.000000 0.050000 0.050000 1.200000 0.026000 0.031000
1538437037323357508	300 34 0.900000 0.107000 0.097000 900 30 0.900000 1.798000 1.700000 600 40 1.000000 0.050000 0.050000 1.200000 0.026000 0.031000
1538437037867378299	300 34 0.900000 0.107000 0.097000 900 30 0.900000 1.797000 1.699000 600 39 1.000000 0.050000 0.050000 1.200000 0.026000 0.031000
1538437038427414299	300 34 0.900000 0.107000 0.097000 900 30 0.900000 1.804000 1.706000 600 40 1.000000 0.051000 0.051000 1.200000 0.026000 0.031000
1538437038983347550	300 34 0.900000 0.107000 0.097000 900 30 0.900000 1.793000 1.696000 600 40 1.000000 0.050000 0.050000 1.200000 0.026000 0.031000
1538437039551380550	300 34 0.900000 0.107000 0.097000 900 29 0.900000 1.786000 1.689000 600 39 1.000000 0.050000 0.050000 1.200000 0.025000 0.030000
1538437040115358091	300 34 0.900000 0.107000 0.097000 900 30 0.900000 1.800000 1.702000 600 40 1.000000 0.051000 0.051000 1.200000 0.026000 0.031000
1538437040683331300	300 34 0.900000 0.107000 0.097000 900 30 0.900000 1.798000 1.700000 600 40 1.000000 0.050000 0.050000 1.200000 0.026000 0.031000
1538437041251254383	300 34 0.900000 0.107000 0.097000 900 29 0.900000 1.800000 1.702000 600 40 1.000000 0.050000 0.050000 1.200000 0.026000 0.031000
1538437041819261717	300 34 0.900000 0.107000 0.097000 900 30 0.900000 1.797000 1.699000 600 39 1.000000 0.050000 0.050000 1.200000 0.026000 0.031000
1538437042379324175	300 34 0.900000 0.107000 0.097000 900 29 0.900000 1.788000 1.691000 600 39 1.000000 0.050000 0.050000 1.200000 0.026000 0.031000
1538437042943394883	300 34 0.900000 0.107000 0.097000 900 29 0.900000 1.794000 1.697000 600 39 1.000000 0.051000 0.051000 1.200000 0.026000 0.031000
1538437043511365592	300 34 0.900000 0.106000 0.096000 900 29 0.900000 1.793000 1.696000 600 39 1.000000 0.051000 0.051000 1.200000 0.026000 0.031000
1538437044063309050	300 34 0.900000 0.107000 0.097000 900 30 0.900000 1.801000 1.703000 600 39 1.000000 0.050000 0.050000 1.200000 0.026000 0.031000
1538437044615274384	300 34 0.900000 0.107000 0.097000 900 30 0.900000 1.796000 1.699000 600 39 1.000000 0.050000 0.050000 1.200000 0.026000 0.031000
1538437045171418592	300 34 0.900000 0.107000 0.097000 900 30 0.900000 1.802000 1.704000 600 39 1.000000 0.050000 0.050000 1.200000 0.026000 0.031000
1538437045727325300	300 34 0.900000 0.107000 0.097000 900 29 0.900000 1.791000 1.694000 600 39 1.000000 0.050000 0.050000 1.200000 0.026000 0.031000
1538437046283270467	300 34 0.900000 0.107000 0.097000 900 29 0.900000 1.795000 1.698000 600 39 1.000000 0.051000 0.051000 1.200000 0.026000 0.031000
1538437046843329925	300 34 0.900000 0.107000 0.097000 900 30 0.900000 1.796000 1.699000 600 39 1.000000 0.050000 0.050000 1.200000 0.026000 0.031000
1538437047352204301	300 34 0.900000 0.107000 0.097000 900 29 0.900000 1.794000 1.697000 600 36 1.000000 0.050000 0.050000 1.200000 0.026000 0.031000
1538437047860973384	300 32 0.900000 0.107000 0.097000 900 29 0.900000 0.578000 0.543000 600 34 1.000000 0.050000 0.050000 1.200000 0.027000 0.032000
1538437048369606176	300 32 0.900000 0.107000 0.097000 900 28 0.900000 0.572000 0.537000 600 33 1.000000 0.050000 0.050000 1.200000 0.026000 0.031000
1538437048878021426	300 31 0.900000 0.107000 0.097000 900 28 0.900000 0.567000 0.532000 600 32 1.000000 0.050000 0.050000 1.200000 0.026000 0.031000
1538437049386679551	300 30 0.900000 0.107000 0.097000 900 27 0.900000 0.578000 0.543000 600 32 1.000000 0.050000 0.050000 1.200000 0.026000 0.031000
1538437049895211051	300 28 0.900000 0.107000 0.097000 900 27 0.900000 0.119000 0.113000 600 31 1.000000 0.050000 0.050000 1.200000 0.026000 0.031000
1538437050403655426	300 27 0.900000 0.107000 0.097000 900 26 0.900000 0.089000 0.084000 600 30 1.000000 0.050000 0.050000 1.200000 0.025000 0.030000
1538437050912157509	300 27 0.900000 0.106000 0.096000 900 26 0.900000 0.090000 0.085000 600 30 1.000000 0.050000 0.050000 1.200000 0.026000 0.031000
1538437051420570218	300 26 0.900000 0.106000 0.096000 900 25 0.900000 0.090000 0.085000 600 29 1.000000 0.050000 0.050000 1.200000 0.026000 0.031000
1538437051929102884	300 26 0.900000 0.107000 0.097000 900 25 0.900000 0.091000 0.086000 600 29 1.000000 0.050000 0.050000 1.200000 0.026000 0.031000
1538437052437586176	300 26 0.900000 0.106000 0.096000 900 25 0.900000 0.088000 0.083000 600 29 1.000000 0.050000 0.050000 1.200000 0.025000 0.030000
1538437052946167301	300 26 0.900000 0.106000 0.096000 900 24 0.900000 0.091000 0.086000 600 29 1.000000 0.050000 0.050000 1.200000 0.026000 0.031000
1538437053454688218	300 25 0.900000 0.106000 0.096000 900 24 0.900000 0.104000 0.098000 600 29 1.000000 0.050000 0.050000 1.200000 0.026000 0.031000
1538437053963227135	300 25 0.900000 0.106000 0.096000 900 24 0.900000 0.103000 0.097000 600 28 1.000000 0.050000 0.050000 1.200000 0.026000 0.031000
1538437054471724843	300 25 0.900000 0.106000 0.096000 900 24 0.900000 0.093000 0.088000 600 28 1.000000 0.050000 0.050000 1.200000 0.026000 0.031000
1538437054980211468	300 25 0.900000 0.106000 0.096000 900 24 0.900000 0.108000 0.102000 600 28 1.000000 0.050000 0.050000 1.200000 0.026000 0.031000
1538437055488546135	300 25 0.900000 0.106000 0.096000 900 24 0.900000 0.099000 0.094000 600 28 1.000000 0.050000 0.050000 1.200000 0.026000 0.031000
1538437055997261927	300 25 0.900000 0.106000 0.096000 900 24 0.900000 0.096000 0.091000 600 28 1.000000 0.050000 0.050000 1.200000 0.026000 0.031000
1538437056505667093	300 25 0.900000 0.106000 0.096000 900 23 0.900000 0.089000 0.084000 600 28 1.000000 0.050000 0.050000 1.200000 0.025000 0.030000
1538437057014198010	300 25 0.900000 0.106000 0.096000 900 23 0.900000 0.090000 0.085000 600 27 1.000000 0.050000 0.050000 1.200000 0.026000 0.031000
1538437057522753968	300 24 0.900000 0.106000 0.096000 900 23 0.900000 0.089000 0.084000 600 27 1.000000 0.050000 0.050000 1.200000 0.026000 0.031000
1538437058031114635	300 24 0.900000 0.106000 0.096000 900 23 0.900000 0.086000 0.081000 600 27 1.000000 0.050000 0.050000 1.200000 0.026000 0.031000
1538437058539695010	300 24 0.900000 0.106000 0.096000 900 23 0.900000 0.087000 0.082000 600 27 1.000000 0.050000 0.050000 1.200000 0.025000 0.030000
1538437059048122677	300 24 0.900000 0.106000 0.096000 900 23 0.900000 0.089000 0.084000 600 27 1.000000 0.050000 0.050000 1.200000 0.026000 0.031000
1538437059556587427	300 24 0.900000 0.106000 0.096000 900 23 0.900000 0.089000 0.084000 600 27 1.000000 0.050000 0.050000 1.200000 0.026000 0.031000
1538437060065359885	300 24 0.900000 0.106000 0.096000 900 23 0.900000 0.092000 0.087000 600 27 1.000000 0.050000 0.050000 1.200000 0.026000 0.031000
1538437060573816927	300 24 0.900000 0.106000 0.096000 900 23 0.900000 0.104000 0.098000 600 27 1.000000 0.050000 0.050000 1.200000 0.026000 0.031000
1538437061082428386	300 24 0.900000 0.106000 0.096000 900 23 0.900000 0.100000 0.095000 600 27 1.000000 0.050000 0.050000 1.200000 0.026000 0.031000
1538437061591191969	300 24 0.900000 0.106000 0.096000 900 23 0.900000 0.092000 0.087000 600 27 1.000000 0.050000 0.050000 1.200000 0.026000 0.031000
1538437062099773886	300 24 0.900000 0.106000 0.096000 900 23 0.900000 0.111000 0.105000 600 27 1.000000 0.050000 0.050000 1.200000 0.026000 0.031000
1538437062608254719	300 24 0.900000 0.106000 0.096000 900 23 0.900000 0.089000 0.084000 600 27 1.000000 0.050000 0.050000 1.200000 0.026000 0.031000
1538437063116817927	300 24 0.900000 0.106000 0.096000 900 23 0.900000 0.087000 0.082000 600 27 1.000000 0.050000 0.050000 1.200000 0.026000 0.031000
1538437063625568969	300 24 0.900000 0.106000 0.096000 900 23 0.900000 0.086000 0.081000 600 27 1.000000 0.050000 0.050000 1.200000 0.026000 0.031000
1538437064134151219	300 24 0.900000 0.106000 0.096000 900 22 0.900000 0.087000 0.082000 600 27 1.000000 0.050000 0.050000 1.200000 0.026000 0.031000
1538437064642651344	300 24 0.900000 0.106000 0.096000 900 22 0.900000 0.089000 0.084000 600 26 1.000000 0.050000 0.050000 1.200000 0.026000 0.031000
1538437065151220261	300 24 0.900000 0.106000 0.096000 900 22 0.900000 0.087000 0.082000 600 27 1.000000 0.050000 0.050000 1.200000 0.026000 0.031000
1538437065659680636	300 24 0.900000 0.106000 0.096000 900 22 0.900000 0.087000 0.082000 600 27 1.000000 0.050000 0.050000 1.200000 0.026000 0.031000
1538437066168121511	300 24 0.900000 0.106000 0.096000 900 22 0.900000 0.085000 0.080000 600 27 1.000000 0.050000 0.050000 1.200000 0.026000 0.031000
1538437066676831761	300 24 0.900000 0.106000 0.096000 900 22 0.900000 0.087000 0.082000 600 26 1.000000 0.050000 0.050000 1.200000 0.026000 0.031000
1538437067185350261	300 24 0.900000 0.106000 0.096000 900 22 0.900000 0.092000 0.087000 600 26 1.000000 0.050000 0.050000 1.200000 0.026000 0.031000
1538437067694048136	300 24 0.900000 0.106000 0.096000 900 22 0.900000 0.104000 0.098000 600 26 1.000000 0.050000 0.050000 1.200000 0.026000 0.031000
1538437068202562303	300 23 0.900000 0.106000 0.096000 900 22 0.900000 0.103000 0.097000 600 26 1.000000 0.050000 0.050000 1.200000 0.026000 0.031000
1538437068711208928	300 23 0.900000 0.106000 0.096000 900 22 0.900000 0.086000 0.081000 600 26 1.000000 0.050000 0.050000 1.200000 0.026000 0.031000
1538437069219833303	300 24 0.900000 0.106000 0.096000 900 22 0.900000 0.088000 0.083000 600 26 1.000000 0.050000 0.050000 1.200000 0.026000 0.031000
1538437069728358637	300 23 0.900000 0.106000 0.096000 900 22 0.900000 0.088000 0.083000 600 26 1.000000 0.050000 0.050000 1.200000 0.026000 0.031000
1538437070236976970	300 23 0.900000 0.106000 0.096000 900 22 0.900000 0.088000 0.083000 600 26 1.000000 0.050000 0.050000 1.200000 0.026000 0.031000
1538437070745540345	300 23 0.900000 0.106000 0.096000 900 22 0.900000 0.086000 0.081000 600 26 1.000000 0.050000 0.050000 1.200000 0.026000 0.031000
1538437071254202345	300 23 0.900000 0.106000 0.096000 900 22 0.900000 0.085000 0.080000 600 26 1.000000 0.050000 0.050000 1.200000 0.026000 0.031000
1538437071762836887	300 23 0.900000 0.106000 0.096000 900 22 0.900000 0.087000 0.082000 600 26 1.000000 0.050000 0.050000 1.200000 0.026000 0.031000
1538437072271242804	300 23 0.900000 0.106000 0.096000 900 22 0.900000 0.087000 0.082000 600 26 1.000000 0.050000 0.050000 1.200000 0.026000 0.031000
1538437072779723845	300 23 0.900000 0.106000 0.096000 900 22 0.900000 0.088000 0.083000 600 26 1.000000 0.050000 0.050000 1.200000 0.026000 0.031000
1538437073288025304	300 23 0.900000 0.106000 0.096000 900 22 0.900000 0.098000 0.093000 600 26 1.000000 0.050000 0.050000 1.200000 0.026000 0.031000
1538437073796730845	300 23 0.900000 0.106000 0.096000 900 22 0.900000 0.086000 0.081000 600 26 1.000000 0.050000 0.050000 1.200000 0.026000 0.031000
1538437074305293262	300 23 0.900000 0.106000 0.096000 900 22 0.900000 0.089000 0.084000 600 26 1.000000 0.050000 0.050000 1.200000 0.026000 0.031000
1538437074813918429	300 23 0.900000 0.106000 0.096000 900 22 0.900000 0.099000 0.094000 600 26 1.000000 0.050000 0.050000 1.200000 0.026000 0.031000
1538437075322403554	300 23 0.900000 0.106000 0.096000 900 22 0.900000 0.105000 0.099000 600 26 1.000000 0.050000 0.050000 1.200000 0.026000 0.031000
1538437075830966887	300 23 0.900000 0.106000 0.096000 900 22 0.900000 0.089000 0.084000 600 26 1.000000 0.050000 0.050000 1.200000 0.026000 0.031000
1538437076339674346	300 23 0.900000 0.106000 0.096000 900 22 0.900000 0.102000 0.096000 600 26 1.000000 0.050000 0.050000 1.200000 0.026000 0.031000
1538437076848054471	300 23 0.900000 0.106000 0.096000 900 22 0.900000 0.101000 0.095000 600 26 1.000000 0.050000 0.050000 1.200000 0.026000 0.031000
1538437077356718096	300 23 0.900000 0.106000 0.096000 900 22 0.900000 0.092000 0.087000 600 26 1.000000 0.050000 0.050000 1.200000 0.026000 0.031000
1538437077865257888	300 23 0.900000 0.106000 0.096000 900 22 0.900000 0.107000 0.101000 600 26 1.000000 0.050000 0.050000 1.200000 0.026000 0.031000
1538437078373869304	300 23 0.900000 0.106000 0.096000 900 22 0.900000 0.099000 0.094000 600 26 1.000000 0.049000 0.049000 1.200000 0.026000 0.031000
1538437078882277346	300 23 0.900000 0.106000 0.096000 900 22 0.900000 0.092000 0.087000 600 26 1.000000 0.050000 0.050000 1.200000 0.026000 0.031000
1538437079390771429	300 23 0.900000 0.106000 0.096000 900 22 0.900000 0.108000 0.102000 600 26 1.000000 0.050000 0.050000 1.200000 0.026000 0.031000
1538437079899311263	300 23 0.900000 0.106000 0.096000 900 22 0.900000 0.097000 0.092000 600 26 1.000000 0.050000 0.050000 1.200000 0.026000 0.031000
1538437080407723346	300 23 0.900000 0.106000 0.096000 900 22 0.900000 0.089000 0.084000 600 26 1.000000 0.050000 0.050000 1.200000 0.026000 0.031000
1538437080916337221	300 23 0.900000 0.106000 0.096000 900 22 0.900000 0.107000 0.101000 600 26 1.000000 0.050000 0.050000 1.200000 0.026000 0.031000
1538437081424779971	300 23 0.900000 0.106000 0.096000 900 22 0.900000 0.091000 0.086000 600 26 1.000000 0.050000 0.050000 1.200000 0.026000 0.031000
1538437081933464013	300 23 0.900000 0.106000 0.096000 900 22 0.900000 0.098000 0.093000 600 26 1.000000 0.050000 0.050000 1.200000 0.026000 0.031000
1538437082442001305	300 23 0.900000 0.106000 0.096000 900 22 0.900000 0.105000 0.099000 600 26 1.000000 0.050000 0.050000 1.200000 0.026000 0.031000
1538437082950633971	300 23 0.900000 0.106000 0.096000 900 22 0.900000 0.092000 0.087000 600 26 1.000000 0.050000 0.050000 1.200000 0.026000 0.031000
1538437083459197722	300 23 0.900000 0.106000 0.096000 900 22 0.900000 0.103000 0.097000 600 26 1.000000 0.050000 0.050000 1.200000 0.026000 0.031000
1538437083967771638	300 23 0.900000 0.106000 0.096000 900 22 0.900000 0.105000 0.099000 600 26 1.000000 0.050000 0.050000 1.200000 0.026000 0.031000
1538437084476229763	300 23 0.900000 0.106000 0.096000 900 22 0.900000 0.088000 0.083000 600 26 1.000000 0.050000 0.050000 1.200000 0.026000 0.031000
1538437084984795138	300 23 0.900000 0.106000 0.096000 900 22 0.900000 0.105000 0.099000 600 26 1.000000 0.050000 0.050000 1.200000 0.026000 0.031000
1538437085493464013	300 23 0.900000 0.106000 0.096000 900 22 0.900000 0.101000 0.095000 600 26 1.000000 0.050000 0.050000 1.200000 0.026000 0.031000
1538437086002043847	300 23 0.900000 0.106000 0.096000 900 21 0.900000 0.092000 0.087000 600 26 1.000000 0.050000 0.050000 1.200000 0.026000 0.031000
1538437086510722514	300 23 0.900000 0.106000 0.096000 900 21 0.900000 0.087000 0.082000 600 26 1.000000 0.050000 0.050000 1.200000 0.026000 0.031000
1538437087019082930	300 23 0.900000 0.060000 0.054000 900 21 0.900000 0.083000 0.078000 600 26 1.000000 0.050000 0.050000 1.200000 0.024000 0.028000
1538437087527615764	300 23 0.900000 0.060000 0.054000 900 21 0.900000 0.084000 0.079000 600 26 1.000000 0.049000 0.049000 1.200000 0.024000 0.028000
1538437088036217014	300 22 0.900000 0.045000 0.041000 900 21 0.900000 0.107000 0.101000 600 26 1.000000 0.050000 0.050000 1.200000 0.024000 0.028000
1538437088544948639	300 22 0.900000 0.036000 0.032000 900 21 0.900000 0.092000 0.087000 600 26 1.000000 0.050000 0.050000 1.200000 0.023000 0.027000
1538437089053468722	300 22 0.900000 0.036000 0.032000 900 21 0.900000 0.093000 0.088000 600 25 1.000000 0.050000 0.050000 1.200000 0.023000 0.027000
1538437089561988722	300 22 0.900000 0.036000 0.032000 900 21 0.900000 0.102000 0.096000 600 25 1.000000 0.050000 0.050000 1.200000 0.023000 0.027000
1538437090070581264	300 22 0.900000 0.036000 0.032000 900 21 0.900000 0.090000 0.085000 600 25 1.000000 0.050000 0.050000 1.200000 0.023000 0.027000
1538437090579372431	300 22 0.900000 0.031000 0.028000 900 21 0.900000 0.114000 0.108000 600 25 1.000000 0.050000 0.050000 1.200000 0.025000 0.030000
1538437091087988556	300 22 0.900000 0.013000 0.011000 900 21 0.900000 0.103000 0.097000 600 25 1.000000 0.050000 0.050000 1.200000 0.023000 0.027000
