#Timestamp	CPU(0) Frequency(MHz)	CPU(0) Temperature(C)	A7 Voltage(V)	A7 Current(A)	A7 Power(W)	CPU(4) Frequency(MHz)	CPU(4) Temperature(C)	A15 Voltage(V)	A15 Current(A)	A15 Power(W)	GPU Frequency(MHz)	GPU Temperature(C)	GPU Voltage(V)	GPU Current(A)	GPU Power(W)	RAM Voltage(V)	RAM Current(A)	RAM Power(W)
1518200985316296096	1000 40 1.100000 0.050000 0.056000 600 39 0.900000 0.247000 0.225000 600 43 1.000000 0.053000 0.053000 1.200000 0.035000 0.042000
1518200985828662179	1000 40 1.100000 0.052000 0.057000 600 39 0.900000 0.328000 0.298000 600 44 1.000000 0.053000 0.053000 1.200000 0.030000 0.036000
1518200986343157971	1000 40 1.100000 0.052000 0.057000 600 39 0.900000 0.330000 0.300000 600 44 1.000000 0.053000 0.053000 1.200000 0.032000 0.038000
1518200986855718846	1000 40 1.100000 0.051000 0.056000 600 39 0.900000 0.329000 0.299000 600 43 1.000000 0.053000 0.053000 1.200000 0.034000 0.041000
1518200987368145138	1000 40 1.100000 0.051000 0.056000 600 39 0.900000 0.330000 0.300000 600 44 1.000000 0.053000 0.053000 1.200000 0.034000 0.041000
1518200987882838971	1000 40 1.100000 0.051000 0.056000 600 39 0.900000 0.327000 0.297000 600 43 1.000000 0.053000 0.053000 1.200000 0.034000 0.041000
1518200988443067929	1000 42 1.000000 0.095000 0.104000 600 40 0.900000 0.337000 0.306000 600 45 1.000000 0.053000 0.053000 1.200000 0.035000 0.042000
1518200989007072596	1000 44 1.000000 0.421000 0.455000 600 41 0.900000 1.153000 1.041000 600 46 1.000000 0.053000 0.053000 1.200000 0.035000 0.042000
1518200989579083096	1000 44 1.000000 0.422000 0.457000 600 41 0.900000 1.159000 1.046000 600 47 1.000000 0.053000 0.053000 1.200000 0.035000 0.042000
1518200990155020763	1000 45 1.000000 0.422000 0.457000 600 42 0.900000 1.152000 1.040000 600 48 1.000000 0.053000 0.053000 1.200000 0.036000 0.043000
1518200990703099846	1000 45 1.000000 0.422000 0.457000 600 42 0.900000 1.159000 1.046000 600 48 1.000000 0.053000 0.053000 1.200000 0.035000 0.042000
1518200991267099680	1000 45 1.000000 0.422000 0.457000 600 42 0.900000 1.156000 1.043000 600 48 1.000000 0.053000 0.053000 1.200000 0.035000 0.042000
1518200991839041930	1000 45 1.000000 0.422000 0.457000 600 43 0.900000 1.158000 1.045000 600 48 1.000000 0.053000 0.053000 1.200000 0.035000 0.042000
1518200992411095555	1000 46 1.000000 0.422000 0.457000 600 43 0.900000 1.160000 1.047000 600 49 1.000000 0.053000 0.053000 1.200000 0.036000 0.043000
1518200992975054055	1000 46 1.000000 0.422000 0.457000 600 43 0.900000 1.163000 1.050000 600 49 1.000000 0.053000 0.053000 1.200000 0.035000 0.042000
1518200993523083847	1000 46 1.000000 0.423000 0.458000 600 43 0.900000 1.162000 1.049000 600 49 1.000000 0.053000 0.053000 1.200000 0.035000 0.042000
1518200994091060805	1000 46 1.000000 0.423000 0.458000 600 43 0.900000 1.159000 1.046000 600 49 1.000000 0.053000 0.053000 1.200000 0.035000 0.042000
1518200994663061389	1000 46 1.000000 0.423000 0.458000 600 43 0.900000 1.162000 1.049000 600 49 1.000000 0.053000 0.053000 1.200000 0.035000 0.042000
1518200995243083597	1000 46 1.000000 0.423000 0.458000 600 43 0.900000 1.155000 1.042000 600 49 1.000000 0.053000 0.053000 1.200000 0.035000 0.042000
1518200995807029972	1000 46 1.000000 0.423000 0.458000 600 43 0.900000 1.164000 1.051000 600 49 1.000000 0.053000 0.053000 1.200000 0.035000 0.042000
1518200996371058680	1000 46 1.000000 0.423000 0.458000 600 43 0.900000 1.165000 1.051000 600 49 1.000000 0.053000 0.053000 1.200000 0.035000 0.042000
1518200996939008222	1000 46 1.000000 0.423000 0.458000 600 43 0.900000 1.160000 1.047000 600 49 1.000000 0.053000 0.053000 1.200000 0.035000 0.042000
1518200997506974681	1000 46 1.000000 0.423000 0.458000 600 43 0.900000 1.159000 1.046000 600 49 1.000000 0.053000 0.053000 1.200000 0.035000 0.042000
1518200998071068472	1000 46 1.000000 0.423000 0.458000 600 44 0.900000 1.161000 1.048000 600 49 1.000000 0.053000 0.053000 1.200000 0.035000 0.042000
1518200998639152306	1000 46 1.000000 0.423000 0.458000 600 44 0.900000 1.160000 1.047000 600 49 1.000000 0.053000 0.053000 1.200000 0.035000 0.042000
1518200999195105431	1000 46 1.000000 0.423000 0.458000 600 44 0.900000 1.165000 1.051000 600 50 1.000000 0.053000 0.053000 1.200000 0.035000 0.042000
1518200999759037389	1000 46 1.000000 0.423000 0.458000 600 44 0.900000 1.165000 1.051000 600 49 1.000000 0.053000 0.053000 1.200000 0.035000 0.042000
1518201000327051598	1000 47 1.000000 0.423000 0.458000 600 44 0.900000 1.165000 1.051000 600 49 1.000000 0.053000 0.053000 1.200000 0.035000 0.042000
1518201000874995098	1000 47 1.000000 0.423000 0.458000 600 44 0.900000 1.166000 1.052000 600 50 1.000000 0.053000 0.053000 1.200000 0.035000 0.042000
1518201001447121264	1000 47 1.000000 0.423000 0.458000 600 44 0.900000 1.162000 1.049000 600 49 1.000000 0.053000 0.053000 1.200000 0.035000 0.042000
1518201002011083056	1000 47 1.000000 0.423000 0.458000 600 44 0.900000 1.160000 1.047000 600 50 1.000000 0.053000 0.053000 1.200000 0.036000 0.043000
1518201002575059723	1000 47 1.000000 0.423000 0.458000 600 44 0.900000 1.164000 1.051000 600 49 1.000000 0.053000 0.053000 1.200000 0.036000 0.043000
1518201003125621265	1000 47 1.000000 0.423000 0.458000 600 44 0.900000 1.164000 1.051000 600 50 1.000000 0.053000 0.053000 1.200000 0.036000 0.043000
1518201003699040140	1000 47 1.000000 0.423000 0.458000 600 44 0.900000 1.162000 1.049000 600 50 1.000000 0.053000 0.053000 1.200000 0.035000 0.042000
1518201004270969390	1000 47 1.000000 0.423000 0.458000 600 44 0.900000 1.165000 1.051000 600 50 1.000000 0.053000 0.053000 1.200000 0.035000 0.042000
1518201004839064973	1000 47 1.000000 0.423000 0.458000 600 44 0.900000 1.166000 1.052000 600 50 1.000000 0.053000 0.053000 1.200000 0.035000 0.042000
1518201005407048973	1000 47 1.000000 0.423000 0.458000 600 44 0.900000 1.166000 1.052000 600 50 1.000000 0.053000 0.053000 1.200000 0.036000 0.043000
1518201005958965098	1000 47 1.000000 0.423000 0.458000 600 44 0.900000 1.162000 1.049000 600 50 1.000000 0.053000 0.053000 1.200000 0.035000 0.042000
1518201006519095265	1000 47 1.000000 0.423000 0.458000 600 44 0.900000 1.166000 1.052000 600 50 1.000000 0.053000 0.053000 1.200000 0.036000 0.043000
1518201007087061098	1000 47 1.000000 0.423000 0.458000 600 44 0.900000 1.159000 1.046000 600 50 1.000000 0.053000 0.053000 1.200000 0.036000 0.043000
1518201007659061515	1000 47 1.000000 0.423000 0.458000 600 44 0.900000 1.159000 1.046000 600 50 1.000000 0.053000 0.053000 1.200000 0.035000 0.042000
1518201008211073015	1000 47 1.000000 0.423000 0.458000 600 44 0.900000 1.168000 1.054000 600 50 1.000000 0.053000 0.053000 1.200000 0.035000 0.042000
1518201008779056474	1000 47 1.000000 0.423000 0.458000 600 44 0.900000 1.169000 1.055000 600 50 1.000000 0.053000 0.053000 1.200000 0.035000 0.042000
1518201009343029015	1000 47 1.000000 0.423000 0.458000 600 44 0.900000 1.168000 1.054000 600 50 1.000000 0.053000 0.053000 1.200000 0.034000 0.041000
1518201009911077807	1000 47 1.000000 0.423000 0.458000 600 44 0.900000 1.168000 1.054000 600 50 1.000000 0.053000 0.053000 1.200000 0.032000 0.038000
1518201010467143765	1000 47 1.000000 0.423000 0.458000 600 44 0.900000 1.165000 1.051000 600 50 1.000000 0.053000 0.053000 1.200000 0.033000 0.039000
1518201011027077141	1000 47 1.000000 0.422000 0.457000 600 44 0.900000 1.164000 1.051000 600 50 1.000000 0.053000 0.053000 1.200000 0.033000 0.039000
1518201011591063849	1000 47 1.000000 0.423000 0.458000 600 44 0.900000 1.166000 1.052000 600 50 1.000000 0.053000 0.053000 1.200000 0.033000 0.039000
1518201012163073224	1000 47 1.000000 0.423000 0.458000 600 44 0.900000 1.166000 1.052000 600 50 1.000000 0.053000 0.053000 1.200000 0.034000 0.041000
1518201012726984641	1000 47 1.000000 0.423000 0.458000 600 44 0.900000 1.169000 1.055000 600 50 1.000000 0.053000 0.053000 1.200000 0.032000 0.038000
1518201013271032016	1000 47 1.000000 0.423000 0.458000 600 44 0.900000 1.169000 1.055000 600 50 1.000000 0.053000 0.053000 1.200000 0.033000 0.039000
1518201013835080641	1000 47 1.000000 0.423000 0.458000 600 44 0.900000 1.169000 1.055000 600 50 1.000000 0.053000 0.053000 1.200000 0.033000 0.039000
1518201014399013224	1000 47 1.000000 0.423000 0.458000 600 44 0.900000 1.168000 1.054000 600 50 1.000000 0.053000 0.053000 1.200000 0.033000 0.039000
1518201014963083599	1000 47 1.000000 0.423000 0.458000 600 44 0.900000 1.168000 1.054000 600 50 1.000000 0.053000 0.053000 1.200000 0.033000 0.039000
1518201015543081349	1000 47 1.000000 0.422000 0.457000 600 44 0.900000 1.168000 1.054000 600 50 1.000000 0.053000 0.053000 1.200000 0.033000 0.039000
1518201016103122933	1000 47 1.000000 0.423000 0.458000 600 44 0.900000 1.167000 1.053000 600 50 1.000000 0.053000 0.053000 1.200000 0.034000 0.041000
1518201016671062225	1000 47 1.000000 0.423000 0.458000 600 44 0.900000 1.168000 1.054000 600 50 1.000000 0.053000 0.053000 1.200000 0.033000 0.039000
1518201017239098058	1000 47 1.000000 0.422000 0.457000 600 44 0.900000 1.168000 1.054000 600 50 1.000000 0.053000 0.053000 1.200000 0.033000 0.039000
1518201017798997225	1000 47 1.000000 0.422000 0.457000 600 44 0.900000 1.168000 1.054000 600 50 1.000000 0.053000 0.053000 1.200000 0.032000 0.038000
1518201018350974225	1000 47 1.000000 0.423000 0.458000 600 44 0.900000 1.168000 1.054000 600 50 1.000000 0.053000 0.053000 1.200000 0.032000 0.038000
1518201018899111100	1000 47 1.000000 0.422000 0.457000 600 44 0.900000 1.168000 1.054000 600 50 1.000000 0.053000 0.053000 1.200000 0.033000 0.039000
1518201019459062767	1000 47 1.000000 0.423000 0.458000 600 44 0.900000 1.168000 1.054000 600 50 1.000000 0.053000 0.053000 1.200000 0.033000 0.039000
1518201020031088808	1000 47 1.000000 0.423000 0.458000 600 44 0.900000 1.168000 1.054000 600 50 1.000000 0.053000 0.053000 1.200000 0.033000 0.039000
1518201020595204350	1000 47 1.000000 0.422000 0.457000 600 44 0.900000 1.168000 1.054000 600 50 1.000000 0.053000 0.053000 1.200000 0.033000 0.039000
1518201021159103558	1000 47 1.000000 0.423000 0.458000 600 44 0.900000 1.168000 1.054000 600 50 1.000000 0.053000 0.053000 1.200000 0.033000 0.039000
1518201021719101267	1000 47 1.000000 0.423000 0.458000 600 44 0.900000 1.169000 1.055000 600 50 1.000000 0.053000 0.053000 1.200000 0.032000 0.038000
1518201022291004142	1000 47 1.000000 0.423000 0.458000 600 44 0.900000 1.159000 1.046000 600 50 1.000000 0.053000 0.053000 1.200000 0.032000 0.038000
1518201022863123017	1000 47 1.000000 0.423000 0.458000 600 44 0.900000 1.169000 1.055000 600 50 1.000000 0.053000 0.053000 1.200000 0.033000 0.039000
1518201023427056725	1000 47 1.000000 0.423000 0.458000 600 44 0.900000 1.158000 1.045000 600 50 1.000000 0.053000 0.053000 1.200000 0.032000 0.038000
1518201023995034684	1000 47 1.000000 0.423000 0.458000 600 44 0.900000 1.163000 1.050000 600 50 1.000000 0.054000 0.054000 1.200000 0.033000 0.039000
1518201024571134517	1000 47 1.000000 0.422000 0.457000 600 44 0.900000 1.167000 1.053000 600 50 1.000000 0.053000 0.053000 1.200000 0.034000 0.041000
1518201025139067142	1000 47 1.000000 0.422000 0.457000 600 44 0.900000 1.163000 1.050000 600 50 1.000000 0.053000 0.053000 1.200000 0.033000 0.039000
1518201025687152976	1000 47 1.000000 0.423000 0.458000 600 44 0.900000 1.159000 1.046000 600 50 1.000000 0.053000 0.053000 1.200000 0.033000 0.039000
1518201026251043684	1000 47 1.000000 0.423000 0.458000 600 44 0.900000 1.164000 1.051000 600 50 1.000000 0.053000 0.053000 1.200000 0.033000 0.039000
1518201026823079809	1000 47 1.000000 0.423000 0.458000 600 44 0.900000 1.164000 1.051000 600 50 1.000000 0.053000 0.053000 1.200000 0.033000 0.039000
1518201027379126934	1000 47 1.000000 0.422000 0.457000 600 44 0.900000 1.168000 1.054000 600 50 1.000000 0.053000 0.053000 1.200000 0.033000 0.039000
1518201027931085768	1000 47 1.000000 0.423000 0.458000 600 44 0.900000 1.159000 1.046000 600 50 1.000000 0.053000 0.053000 1.200000 0.033000 0.039000
1518201028502966268	1000 47 1.000000 0.423000 0.458000 600 44 0.900000 1.165000 1.051000 600 50 1.000000 0.053000 0.053000 1.200000 0.033000 0.039000
1518201029075045059	1000 47 1.000000 0.423000 0.458000 600 44 0.900000 1.169000 1.055000 600 50 1.000000 0.053000 0.053000 1.200000 0.033000 0.039000
1518201029627009434	1000 47 1.000000 0.423000 0.458000 600 44 0.900000 1.160000 1.047000 600 50 1.000000 0.053000 0.053000 1.200000 0.033000 0.039000
1518201030187113726	1000 47 1.000000 0.424000 0.459000 600 44 0.900000 1.168000 1.054000 600 50 1.000000 0.053000 0.053000 1.200000 0.035000 0.042000
1518201030739170143	1000 47 1.000000 0.426000 0.461000 600 44 0.900000 1.159000 1.046000 600 50 1.000000 0.053000 0.053000 1.200000 0.035000 0.042000
1518201031287093935	1000 47 1.000000 0.427000 0.462000 600 44 0.900000 1.167000 1.053000 600 50 1.000000 0.053000 0.053000 1.200000 0.034000 0.041000
1518201031851034518	1000 47 1.000000 0.426000 0.461000 600 44 0.900000 1.164000 1.051000 600 50 1.000000 0.053000 0.053000 1.200000 0.034000 0.041000
1518201032411164893	1000 47 1.000000 0.426000 0.461000 600 44 0.900000 1.167000 1.053000 600 50 1.000000 0.053000 0.053000 1.200000 0.034000 0.041000
1518201032975001726	1000 47 1.000000 0.426000 0.461000 600 44 0.900000 1.164000 1.051000 600 50 1.000000 0.053000 0.053000 1.200000 0.034000 0.041000
1518201033539044893	1000 47 1.000000 0.427000 0.462000 600 44 0.900000 1.169000 1.055000 600 50 1.000000 0.053000 0.053000 1.200000 0.034000 0.041000
1518201034103062352	1000 47 1.000000 0.427000 0.462000 600 44 0.900000 1.170000 1.056000 600 50 1.000000 0.053000 0.053000 1.200000 0.034000 0.041000
1518201034671008643	1000 47 1.000000 0.427000 0.462000 600 44 0.900000 1.165000 1.051000 600 50 1.000000 0.053000 0.053000 1.200000 0.034000 0.041000
1518201035235057268	1000 47 1.000000 0.427000 0.463000 600 44 0.900000 1.160000 1.047000 600 50 1.000000 0.053000 0.053000 1.200000 0.034000 0.041000
1518201035807003227	1000 47 1.000000 0.426000 0.461000 600 44 0.900000 1.159000 1.046000 600 50 1.000000 0.053000 0.053000 1.200000 0.034000 0.041000
1518201036367151644	1000 47 1.000000 0.426000 0.461000 600 44 0.900000 1.166000 1.052000 600 50 1.000000 0.053000 0.053000 1.200000 0.034000 0.041000
1518201036935092685	1000 47 1.000000 0.427000 0.462000 600 44 0.900000 1.165000 1.051000 600 50 1.000000 0.053000 0.053000 1.200000 0.034000 0.041000
1518201037507055352	1000 47 1.000000 0.427000 0.462000 600 44 0.900000 1.169000 1.055000 600 50 1.000000 0.053000 0.053000 1.200000 0.034000 0.041000
1518201038075022810	1000 47 1.000000 0.426000 0.462000 600 44 0.900000 1.170000 1.058000 600 50 1.000000 0.053000 0.053000 1.200000 0.034000 0.041000
1518201038627082769	1000 47 1.000000 0.426000 0.462000 600 44 0.900000 1.165000 1.051000 600 50 1.000000 0.053000 0.053000 1.200000 0.034000 0.041000
1518201039191038019	1000 47 1.000000 0.427000 0.463000 600 44 0.900000 1.164000 1.051000 600 50 1.000000 0.053000 0.053000 1.200000 0.034000 0.041000
1518201039763056477	1000 47 1.000000 0.427000 0.462000 600 44 0.900000 1.160000 1.047000 600 50 1.000000 0.053000 0.053000 1.200000 0.034000 0.041000
1518201040319071102	1000 47 1.000000 0.426000 0.462000 600 44 0.900000 1.172000 1.058000 600 50 1.000000 0.053000 0.053000 1.200000 0.034000 0.041000
1518201040883103477	1000 47 1.000000 0.426000 0.462000 600 44 0.900000 1.167000 1.053000 600 50 1.000000 0.053000 0.053000 1.200000 0.035000 0.042000
1518201041435062519	1000 47 1.000000 0.426000 0.462000 600 44 0.900000 1.172000 1.058000 600 50 1.000000 0.053000 0.053000 1.200000 0.034000 0.041000
1518201041999040353	1000 47 1.000000 0.426000 0.462000 600 44 0.900000 1.173000 1.059000 600 50 1.000000 0.053000 0.053000 1.200000 0.034000 0.041000
1518201042559038519	1000 47 1.000000 0.426000 0.462000 600 44 0.900000 1.174000 1.060000 600 50 1.000000 0.053000 0.053000 1.200000 0.034000 0.041000
1518201043123023019	1000 47 1.000000 0.426000 0.462000 600 44 0.900000 1.174000 1.060000 600 50 1.000000 0.053000 0.053000 1.200000 0.034000 0.041000
1518201043698971728	1000 47 1.000000 0.426000 0.462000 600 44 0.900000 1.169000 1.055000 600 50 1.000000 0.053000 0.053000 1.200000 0.034000 0.041000
1518201044255035061	1000 47 1.000000 0.426000 0.462000 600 44 0.900000 1.169000 1.055000 600 50 1.000000 0.053000 0.053000 1.200000 0.034000 0.041000
1518201044831008311	1000 47 1.000000 0.426000 0.462000 600 44 0.900000 1.162000 1.049000 600 50 1.000000 0.053000 0.053000 1.200000 0.034000 0.041000
1518201045395003395	1000 47 1.000000 0.426000 0.461000 600 44 0.900000 1.169000 1.055000 600 50 1.000000 0.053000 0.053000 1.200000 0.034000 0.041000
1518201045958995353	1000 47 1.000000 0.426000 0.461000 600 44 0.900000 1.173000 1.059000 600 50 1.000000 0.053000 0.053000 1.200000 0.033000 0.039000
1518201046503095561	1000 47 1.000000 0.426000 0.461000 600 44 0.900000 1.172000 1.058000 600 50 1.000000 0.053000 0.053000 1.200000 0.034000 0.041000
1518201047071071145	1000 47 1.000000 0.427000 0.463000 600 44 0.900000 1.173000 1.059000 600 50 1.000000 0.053000 0.053000 1.200000 0.034000 0.041000
1518201047639018687	1000 47 1.000000 0.426000 0.461000 600 44 0.900000 1.174000 1.060000 600 50 1.000000 0.053000 0.053000 1.200000 0.035000 0.042000
1518201048199059062	1000 47 1.000000 0.427000 0.462000 600 44 0.900000 1.169000 1.055000 600 50 1.000000 0.053000 0.053000 1.200000 0.034000 0.041000
1518201048767067312	1000 47 1.000000 0.426000 0.461000 600 44 0.900000 1.169000 1.055000 600 50 1.000000 0.053000 0.053000 1.200000 0.035000 0.042000
1518201049331008103	1000 47 1.000000 0.426000 0.461000 600 44 0.900000 1.167000 1.053000 600 50 1.000000 0.053000 0.053000 1.200000 0.034000 0.041000
1518201049895044353	1000 47 1.000000 0.426000 0.461000 600 44 0.900000 1.174000 1.060000 600 50 1.000000 0.053000 0.053000 1.200000 0.034000 0.041000
1518201050467080145	1000 47 1.000000 0.426000 0.461000 600 44 0.900000 1.173000 1.059000 600 50 1.000000 0.053000 0.053000 1.200000 0.034000 0.041000
1518201051031116270	1000 47 1.000000 0.425000 0.461000 600 44 0.900000 1.173000 1.059000 600 50 1.000000 0.053000 0.053000 1.200000 0.033000 0.039000
1518201051579056854	1000 47 1.000000 0.424000 0.459000 600 44 0.900000 1.172000 1.058000 600 50 1.000000 0.053000 0.053000 1.200000 0.033000 0.039000
1518201052139010104	1000 47 1.000000 0.424000 0.459000 600 44 0.900000 1.173000 1.059000 600 50 1.000000 0.053000 0.053000 1.200000 0.033000 0.039000
1518201052703044520	1000 47 1.000000 0.424000 0.459000 600 44 0.900000 1.172000 1.058000 600 50 1.000000 0.053000 0.053000 1.200000 0.033000 0.039000
1518201053275066646	1000 47 1.000000 0.424000 0.459000 600 44 0.900000 1.170000 1.056000 600 50 1.000000 0.053000 0.053000 1.200000 0.033000 0.039000
1518201053834991521	1000 47 1.000000 0.424000 0.459000 600 44 0.900000 1.163000 1.050000 600 50 1.000000 0.053000 0.053000 1.200000 0.033000 0.039000
1518201054403082187	1000 47 1.000000 0.424000 0.459000 600 44 0.900000 1.173000 1.059000 600 50 1.000000 0.053000 0.053000 1.200000 0.033000 0.039000
1518201054967053854	1000 47 1.000000 0.424000 0.459000 600 44 0.900000 1.173000 1.059000 600 50 1.000000 0.053000 0.053000 1.200000 0.032000 0.038000
1518201055531119312	1000 47 1.000000 0.424000 0.459000 600 44 0.900000 1.173000 1.059000 600 50 1.000000 0.053000 0.053000 1.200000 0.033000 0.039000
1518201056099056104	1000 47 1.000000 0.424000 0.460000 600 44 0.900000 1.172000 1.058000 600 50 1.000000 0.053000 0.053000 1.200000 0.033000 0.039000
1518201056667032938	1000 47 1.000000 0.424000 0.459000 600 44 0.900000 1.172000 1.058000 600 50 1.000000 0.053000 0.053000 1.200000 0.033000 0.039000
1518201057235096771	1000 47 1.000000 0.424000 0.460000 600 44 0.900000 1.171000 1.057000 600 50 1.000000 0.053000 0.053000 1.200000 0.033000 0.039000
1518201057807084646	1000 47 1.000000 0.424000 0.460000 600 44 0.900000 1.162000 1.049000 600 50 1.000000 0.053000 0.053000 1.200000 0.033000 0.039000
1518201058367008313	1000 47 1.000000 0.424000 0.459000 600 44 0.900000 1.163000 1.050000 600 50 1.000000 0.053000 0.053000 1.200000 0.032000 0.038000
1518201058935062855	1000 47 1.000000 0.424000 0.459000 600 44 0.900000 1.159000 1.046000 600 50 1.000000 0.053000 0.053000 1.200000 0.033000 0.039000
1518201059503119438	1000 47 1.000000 0.424000 0.459000 600 44 0.900000 1.152000 1.040000 600 50 1.000000 0.053000 0.053000 1.200000 0.033000 0.039000
1518201060071056230	1000 47 1.000000 0.424000 0.459000 600 44 0.900000 1.155000 1.042000 600 50 1.000000 0.053000 0.053000 1.200000 0.033000 0.039000
1518201060639038230	1000 47 1.000000 0.424000 0.459000 600 44 0.900000 1.158000 1.045000 600 50 1.000000 0.053000 0.053000 1.200000 0.033000 0.039000
1518201061211102021	1000 47 1.000000 0.424000 0.459000 600 44 0.900000 1.163000 1.050000 600 50 1.000000 0.053000 0.053000 1.200000 0.033000 0.039000
1518201061775054688	1000 47 1.000000 0.424000 0.460000 600 44 0.900000 1.157000 1.044000 600 50 1.000000 0.053000 0.053000 1.200000 0.032000 0.038000
1518201062343064938	1000 47 1.000000 0.424000 0.459000 600 44 0.900000 1.157000 1.044000 600 50 1.000000 0.053000 0.053000 1.200000 0.032000 0.038000
1518201062898997647	1000 47 1.000000 0.424000 0.459000 600 44 0.900000 1.153000 1.041000 600 50 1.000000 0.053000 0.053000 1.200000 0.032000 0.038000
1518201063451124147	1000 47 1.000000 0.424000 0.459000 600 44 0.900000 1.161000 1.048000 600 50 1.000000 0.053000 0.053000 1.200000 0.033000 0.039000
1518201064023020647	1000 47 1.000000 0.424000 0.459000 600 44 0.900000 1.153000 1.041000 600 50 1.000000 0.053000 0.053000 1.200000 0.033000 0.039000
1518201064575095980	1000 47 1.000000 0.424000 0.460000 600 44 0.900000 1.155000 1.042000 600 50 1.000000 0.053000 0.053000 1.200000 0.033000 0.039000
1518201065143080522	1000 47 1.000000 0.424000 0.459000 600 44 0.900000 1.158000 1.045000 600 50 1.000000 0.053000 0.053000 1.200000 0.033000 0.039000
1518201065715099064	1000 47 1.000000 0.424000 0.459000 600 44 0.900000 1.160000 1.047000 600 50 1.000000 0.053000 0.053000 1.200000 0.033000 0.039000
1518201066279078355	1000 47 1.000000 0.424000 0.459000 600 44 0.900000 1.159000 1.046000 600 50 1.000000 0.053000 0.053000 1.200000 0.033000 0.039000
1518201066851009189	1000 47 1.000000 0.424000 0.460000 600 44 0.900000 1.156000 1.043000 600 50 1.000000 0.053000 0.053000 1.200000 0.033000 0.039000
1518201067418988606	1000 47 1.000000 0.424000 0.459000 600 44 0.900000 1.162000 1.049000 600 50 1.000000 0.053000 0.053000 1.200000 0.033000 0.039000
1518201067983058397	1000 47 1.000000 0.424000 0.460000 600 44 0.900000 1.159000 1.046000 600 50 1.000000 0.053000 0.053000 1.200000 0.033000 0.039000
1518201068543069022	1000 47 1.000000 0.424000 0.460000 600 44 0.900000 1.158000 1.045000 600 50 1.000000 0.053000 0.053000 1.200000 0.033000 0.039000
1518201069099073481	1000 47 1.000000 0.424000 0.460000 600 44 0.900000 1.162000 1.049000 600 50 1.000000 0.053000 0.053000 1.200000 0.032000 0.038000
1518201069671070272	1000 47 1.000000 0.424000 0.460000 600 44 0.900000 1.158000 1.045000 600 50 1.000000 0.053000 0.053000 1.200000 0.033000 0.039000
1518201070222986314	1000 47 1.000000 0.424000 0.460000 600 44 0.900000 1.163000 1.050000 600 50 1.000000 0.053000 0.053000 1.200000 0.032000 0.038000
1518201070775054064	1000 47 1.000000 0.424000 0.460000 600 44 0.900000 1.164000 1.051000 600 50 1.000000 0.053000 0.053000 1.200000 0.033000 0.039000
1518201071339052564	1000 47 1.000000 0.424000 0.460000 600 44 0.900000 1.159000 1.046000 600 50 1.000000 0.053000 0.053000 1.200000 0.032000 0.038000
1518201071895049064	1000 47 1.000000 0.423000 0.458000 600 44 0.900000 1.155000 1.042000 600 50 1.000000 0.053000 0.053000 1.200000 0.032000 0.038000
1518201072463042523	1000 47 1.000000 0.423000 0.458000 600 44 0.900000 1.155000 1.042000 600 50 1.000000 0.053000 0.053000 1.200000 0.031000 0.037000
1518201073023120523	1000 47 1.000000 0.423000 0.458000 600 44 0.900000 1.163000 1.050000 600 50 1.000000 0.053000 0.053000 1.200000 0.031000 0.037000
1518201073587035981	1000 47 1.000000 0.422000 0.457000 600 44 0.900000 1.158000 1.045000 600 50 1.000000 0.053000 0.053000 1.200000 0.031000 0.037000
1518201074139103190	1000 47 1.000000 0.423000 0.458000 600 44 0.900000 1.155000 1.042000 600 50 1.000000 0.053000 0.053000 1.200000 0.031000 0.037000
1518201074707107356	1000 47 1.000000 0.423000 0.458000 600 44 0.900000 1.175000 1.061000 600 50 1.000000 0.053000 0.053000 1.200000 0.031000 0.037000
1518201075275065356	1000 47 1.000000 0.423000 0.458000 600 44 0.900000 1.177000 1.062000 600 50 1.000000 0.053000 0.053000 1.200000 0.031000 0.037000
1518201075839100107	1000 47 1.000000 0.422000 0.457000 600 44 0.900000 1.178000 1.063000 600 50 1.000000 0.053000 0.053000 1.200000 0.031000 0.037000
1518201076407076815	1000 47 1.000000 0.422000 0.457000 600 44 0.900000 1.175000 1.061000 600 50 1.000000 0.053000 0.053000 1.200000 0.031000 0.037000
1518201076967106690	1000 47 1.000000 0.423000 0.458000 600 44 0.900000 1.170000 1.056000 600 50 1.000000 0.053000 0.053000 1.200000 0.031000 0.037000
1518201077529416648	1000 47 1.000000 0.422000 0.457000 600 44 0.900000 1.177000 1.062000 600 50 1.000000 0.053000 0.053000 1.200000 0.031000 0.037000
1518201078098998565	1000 47 1.000000 0.422000 0.457000 600 44 0.900000 1.174000 1.060000 600 50 1.000000 0.053000 0.053000 1.200000 0.031000 0.037000
1518201078659076190	1000 47 1.000000 0.423000 0.458000 600 44 0.900000 1.179000 1.064000 600 50 1.000000 0.053000 0.053000 1.200000 0.030000 0.036000
1518201079223072399	1000 47 1.000000 0.423000 0.458000 600 44 0.900000 1.179000 1.064000 600 50 1.000000 0.053000 0.053000 1.200000 0.031000 0.037000
1518201079779064149	1000 47 1.000000 0.422000 0.457000 600 44 0.900000 1.180000 1.065000 600 50 1.000000 0.053000 0.053000 1.200000 0.031000 0.037000
1518201080335051190	1000 47 1.000000 0.423000 0.458000 600 44 0.900000 1.180000 1.065000 600 50 1.000000 0.053000 0.053000 1.200000 0.031000 0.037000
1518201080907081190	1000 47 1.000000 0.423000 0.458000 600 44 0.900000 1.179000 1.064000 600 50 1.000000 0.053000 0.053000 1.200000 0.031000 0.037000
1518201081483055191	1000 47 1.000000 0.423000 0.458000 600 44 0.900000 1.172000 1.058000 600 50 1.000000 0.053000 0.053000 1.200000 0.031000 0.037000
1518201082043112649	1000 47 1.000000 0.423000 0.458000 600 44 0.900000 1.173000 1.059000 600 50 1.000000 0.053000 0.053000 1.200000 0.031000 0.037000
1518201082611110816	1000 47 1.000000 0.423000 0.458000 600 44 0.900000 1.180000 1.065000 600 50 1.000000 0.053000 0.053000 1.200000 0.031000 0.037000
1518201083171082399	1000 47 1.000000 0.423000 0.458000 600 44 0.900000 1.179000 1.064000 600 50 1.000000 0.053000 0.053000 1.200000 0.031000 0.037000
1518201083735010524	1000 47 1.000000 0.423000 0.458000 600 44 0.900000 1.180000 1.065000 600 50 1.000000 0.053000 0.053000 1.200000 0.030000 0.036000
1518201084303096274	1000 47 1.000000 0.423000 0.458000 600 44 0.900000 1.180000 1.065000 600 50 1.000000 0.053000 0.053000 1.200000 0.031000 0.037000
1518201084875057649	1000 47 1.000000 0.423000 0.458000 600 44 0.900000 1.180000 1.065000 600 50 1.000000 0.053000 0.053000 1.200000 0.031000 0.037000
1518201085447096233	1000 47 1.000000 0.423000 0.458000 600 44 0.900000 1.176000 1.061000 600 50 1.000000 0.054000 0.054000 1.200000 0.031000 0.037000
1518201086007044108	1000 47 1.000000 0.422000 0.457000 600 44 0.900000 1.170000 1.056000 600 50 1.000000 0.053000 0.053000 1.200000 0.031000 0.037000
1518201086571078941	1000 47 1.000000 0.423000 0.458000 600 44 0.900000 1.180000 1.065000 600 50 1.000000 0.053000 0.053000 1.200000 0.030000 0.036000
1518201087139090275	1000 47 1.000000 0.423000 0.458000 600 44 0.900000 1.180000 1.065000 600 50 1.000000 0.053000 0.053000 1.200000 0.031000 0.037000
1518201087707119316	1000 47 1.000000 0.422000 0.457000 600 44 0.900000 1.180000 1.065000 600 50 1.000000 0.053000 0.053000 1.200000 0.031000 0.037000
1518201088271118400	1000 47 1.000000 0.423000 0.458000 600 44 0.900000 1.180000 1.067000 600 50 1.000000 0.053000 0.053000 1.200000 0.031000 0.037000
1518201088839093233	1000 47 1.000000 0.423000 0.458000 600 44 0.900000 1.179000 1.064000 600 50 1.000000 0.053000 0.053000 1.200000 0.031000 0.037000
1518201089402318650	1000 47 1.000000 0.423000 0.458000 600 44 0.900000 1.179000 1.064000 600 50 1.000000 0.053000 0.053000 1.200000 0.031000 0.037000
1518201089967067275	1000 47 1.000000 0.423000 0.458000 600 44 0.900000 1.179000 1.064000 600 50 1.000000 0.053000 0.053000 1.200000 0.031000 0.037000
1518201090535072358	1000 47 1.000000 0.423000 0.458000 600 44 0.900000 1.180000 1.065000 600 50 1.000000 0.053000 0.053000 1.200000 0.031000 0.037000
1518201091107103525	1000 47 1.000000 0.423000 0.458000 600 44 0.900000 1.183000 1.068000 600 50 1.000000 0.053000 0.053000 1.200000 0.030000 0.036000
1518201091667068400	1000 47 1.000000 0.423000 0.458000 600 44 0.900000 1.183000 1.068000 600 50 1.000000 0.053000 0.053000 1.200000 0.031000 0.037000
1518201092223100275	1000 47 1.000000 0.423000 0.458000 600 44 0.900000 1.177000 1.062000 600 50 1.000000 0.053000 0.053000 1.200000 0.033000 0.039000
1518201092787129984	1000 47 1.000000 0.423000 0.458000 600 44 0.900000 1.178000 1.063000 600 50 1.000000 0.053000 0.053000 1.200000 0.033000 0.039000
1518201093339084525	1000 47 1.000000 0.423000 0.458000 600 44 0.900000 1.174000 1.060000 600 50 1.000000 0.053000 0.053000 1.200000 0.033000 0.039000
1518201093891083692	1000 47 1.000000 0.423000 0.458000 600 44 0.900000 1.176000 1.061000 600 50 1.000000 0.053000 0.053000 1.200000 0.033000 0.039000
1518201094466984400	1000 47 1.000000 0.423000 0.458000 600 44 0.900000 1.174000 1.060000 600 50 1.000000 0.053000 0.053000 1.200000 0.033000 0.039000
1518201095027110401	1000 47 1.000000 0.423000 0.458000 600 44 0.900000 1.175000 1.061000 600 50 1.000000 0.053000 0.053000 1.200000 0.033000 0.039000
1518201095587080526	1000 47 1.000000 0.423000 0.458000 600 44 0.900000 1.174000 1.060000 600 50 1.000000 0.053000 0.053000 1.200000 0.032000 0.038000
1518201096159063067	1000 47 1.000000 0.423000 0.458000 600 44 0.900000 1.169000 1.055000 600 50 1.000000 0.053000 0.053000 1.200000 0.032000 0.038000
1518201096723094817	1000 47 1.000000 0.423000 0.458000 600 44 0.900000 1.165000 1.051000 600 50 1.000000 0.053000 0.053000 1.200000 0.033000 0.039000
1518201097279097276	1000 47 1.000000 0.423000 0.458000 600 44 0.900000 1.168000 1.054000 600 50 1.000000 0.053000 0.053000 1.200000 0.033000 0.039000
1518201097845257526	1000 47 1.000000 0.423000 0.458000 600 44 0.900000 1.170000 1.056000 600 50 1.000000 0.053000 0.053000 1.200000 0.032000 0.038000
1518201098411077484	1000 47 1.000000 0.423000 0.458000 600 44 0.900000 1.171000 1.057000 600 50 1.000000 0.053000 0.053000 1.200000 0.032000 0.038000
1518201098979064818	1000 47 1.000000 0.423000 0.458000 600 44 0.900000 1.171000 1.057000 600 50 1.000000 0.053000 0.053000 1.200000 0.032000 0.038000
1518201099531044693	1000 47 1.000000 0.423000 0.458000 600 44 0.900000 1.167000 1.053000 600 50 1.000000 0.053000 0.053000 1.200000 0.032000 0.038000
1518201100091074026	1000 47 1.000000 0.423000 0.458000 600 44 0.900000 1.171000 1.057000 600 50 1.000000 0.053000 0.053000 1.200000 0.032000 0.038000
1518201100659048860	1000 47 1.000000 0.423000 0.458000 600 44 0.900000 1.167000 1.053000 600 50 1.000000 0.053000 0.053000 1.200000 0.033000 0.039000
1518201101230997693	1000 47 1.000000 0.423000 0.458000 600 44 0.900000 1.165000 1.051000 600 50 1.000000 0.053000 0.053000 1.200000 0.033000 0.039000
1518201101791031485	1000 47 1.000000 0.423000 0.458000 600 44 0.900000 1.175000 1.061000 600 50 1.000000 0.053000 0.053000 1.200000 0.033000 0.039000
1518201102350984818	1000 47 1.000000 0.423000 0.458000 600 44 0.900000 1.171000 1.057000 600 50 1.000000 0.053000 0.053000 1.200000 0.033000 0.039000
1518201102915068526	1000 47 1.000000 0.423000 0.458000 600 44 0.900000 1.165000 1.051000 600 50 1.000000 0.053000 0.053000 1.200000 0.033000 0.039000
1518201103486957902	1000 47 1.000000 0.423000 0.458000 600 44 0.900000 1.171000 1.057000 600 50 1.000000 0.053000 0.053000 1.200000 0.033000 0.039000
1518201104055071443	1000 47 1.000000 0.423000 0.458000 600 44 0.900000 1.172000 1.060000 600 50 1.000000 0.053000 0.053000 1.200000 0.033000 0.039000
1518201104623096277	1000 47 1.000000 0.423000 0.458000 600 44 0.900000 1.174000 1.060000 600 50 1.000000 0.053000 0.053000 1.200000 0.032000 0.038000
1518201105187077860	1000 47 1.000000 0.423000 0.458000 600 44 0.900000 1.166000 1.052000 600 50 1.000000 0.053000 0.053000 1.200000 0.033000 0.039000
1518201105755058818	1000 47 1.000000 0.423000 0.458000 600 44 0.900000 1.168000 1.054000 600 50 1.000000 0.053000 0.053000 1.200000 0.033000 0.039000
1518201106315078860	1000 47 1.000000 0.423000 0.458000 600 44 0.900000 1.163000 1.050000 600 50 1.000000 0.053000 0.053000 1.200000 0.033000 0.039000
1518201106875017860	1000 47 1.000000 0.423000 0.458000 600 44 0.900000 1.175000 1.061000 600 50 1.000000 0.053000 0.053000 1.200000 0.032000 0.038000
1518201107439088860	1000 47 1.000000 0.423000 0.458000 600 44 0.900000 1.176000 1.061000 600 50 1.000000 0.053000 0.053000 1.200000 0.033000 0.039000
1518201108007085319	1000 47 1.000000 0.423000 0.458000 600 44 0.900000 1.175000 1.061000 600 50 1.000000 0.053000 0.053000 1.200000 0.032000 0.038000
1518201108571082152	1000 47 1.000000 0.423000 0.458000 600 44 0.900000 1.170000 1.056000 600 50 1.000000 0.053000 0.053000 1.200000 0.033000 0.039000
1518201109123043444	1000 47 1.000000 0.423000 0.458000 600 44 0.900000 1.167000 1.053000 600 50 1.000000 0.053000 0.053000 1.200000 0.033000 0.039000
1518201109683086569	1000 47 1.000000 0.423000 0.458000 600 44 0.900000 1.169000 1.055000 600 50 1.000000 0.053000 0.053000 1.200000 0.033000 0.039000
1518201110255026569	1000 47 1.000000 0.423000 0.458000 600 44 0.900000 1.169000 1.055000 600 50 1.000000 0.053000 0.053000 1.200000 0.033000 0.039000
1518201110823079402	1000 47 1.000000 0.423000 0.458000 600 44 0.900000 1.163000 1.050000 600 50 1.000000 0.053000 0.053000 1.200000 0.033000 0.039000
1518201111387097736	1000 47 1.000000 0.423000 0.458000 600 44 0.900000 1.169000 1.055000 600 50 1.000000 0.053000 0.053000 1.200000 0.033000 0.039000
1518201111951032194	1000 47 1.000000 0.423000 0.458000 600 44 0.900000 1.169000 1.055000 600 50 1.000000 0.053000 0.053000 1.200000 0.033000 0.039000
1518201112519097444	1000 47 1.000000 0.423000 0.458000 600 44 0.900000 1.165000 1.051000 600 50 1.000000 0.053000 0.053000 1.200000 0.033000 0.039000
1518201113091076486	1000 47 1.000000 0.422000 0.457000 600 44 0.900000 1.165000 1.051000 600 50 1.000000 0.053000 0.053000 1.200000 0.031000 0.037000
1518201113659065069	1000 47 1.000000 0.422000 0.457000 600 44 0.900000 1.167000 1.053000 600 50 1.000000 0.053000 0.053000 1.200000 0.033000 0.039000
1518201114219082986	1000 47 1.000000 0.422000 0.457000 600 44 0.900000 1.162000 1.049000 600 50 1.000000 0.053000 0.053000 1.200000 0.033000 0.039000
1518201114779015736	1000 47 1.000000 0.422000 0.457000 600 44 0.900000 1.168000 1.054000 600 50 1.000000 0.053000 0.053000 1.200000 0.033000 0.039000
1518201115363036195	1000 47 1.000000 0.423000 0.458000 600 44 0.900000 1.169000 1.055000 600 50 1.000000 0.053000 0.053000 1.200000 0.032000 0.038000
1518201115923026695	1000 47 1.000000 0.422000 0.457000 600 44 0.900000 1.169000 1.057000 600 50 1.000000 0.053000 0.053000 1.200000 0.032000 0.038000
1518201116491018945	1000 47 1.000000 0.422000 0.457000 600 44 0.900000 1.169000 1.055000 600 50 1.000000 0.053000 0.053000 1.200000 0.033000 0.039000
1518201117039118111	1000 47 1.000000 0.423000 0.458000 600 44 0.900000 1.168000 1.054000 600 50 1.000000 0.053000 0.053000 1.200000 0.033000 0.039000
1518201117607018862	1000 47 1.000000 0.422000 0.457000 600 44 0.900000 1.164000 1.051000 600 50 1.000000 0.053000 0.053000 1.200000 0.033000 0.039000
1518201118178946945	1000 47 1.000000 0.422000 0.457000 600 44 0.900000 1.168000 1.054000 600 50 1.000000 0.053000 0.053000 1.200000 0.033000 0.039000
1518201118751063487	1000 47 1.000000 0.422000 0.457000 600 44 0.900000 1.159000 1.046000 600 50 1.000000 0.053000 0.053000 1.200000 0.032000 0.038000
1518201119307076153	1000 47 1.000000 0.422000 0.457000 600 44 0.900000 1.169000 1.055000 600 50 1.000000 0.053000 0.053000 1.200000 0.032000 0.038000
1518201119855076237	1000 47 1.000000 0.422000 0.457000 600 44 0.900000 1.168000 1.054000 600 50 1.000000 0.053000 0.053000 1.200000 0.032000 0.038000
1518201120419067737	1000 47 1.000000 0.422000 0.457000 600 44 0.900000 1.169000 1.055000 600 50 1.000000 0.053000 0.053000 1.200000 0.032000 0.038000
1518201120978975237	1000 47 1.000000 0.422000 0.457000 600 44 0.900000 1.168000 1.054000 600 50 1.000000 0.053000 0.053000 1.200000 0.032000 0.038000
1518201121535069820	1000 47 1.000000 0.422000 0.457000 600 44 0.900000 1.169000 1.055000 600 50 1.000000 0.053000 0.053000 1.200000 0.033000 0.039000
1518201122099043904	1000 47 1.000000 0.422000 0.457000 600 44 0.900000 1.163000 1.050000 600 50 1.000000 0.053000 0.053000 1.200000 0.032000 0.038000
1518201122671092029	1000 47 1.000000 0.422000 0.457000 600 44 0.900000 1.159000 1.046000 600 50 1.000000 0.053000 0.053000 1.200000 0.032000 0.038000
1518201123243053404	1000 47 1.000000 0.422000 0.457000 600 44 0.900000 1.166000 1.052000 600 50 1.000000 0.053000 0.053000 1.200000 0.033000 0.039000
1518201123791007112	1000 47 1.000000 0.422000 0.457000 600 44 0.900000 1.170000 1.056000 600 50 1.000000 0.053000 0.053000 1.200000 0.032000 0.038000
1518201124347064737	1000 47 1.000000 0.422000 0.457000 600 44 0.900000 1.169000 1.055000 600 50 1.000000 0.053000 0.053000 1.200000 0.032000 0.038000
1518201124895044321	1000 47 1.000000 0.422000 0.457000 600 44 0.900000 1.169000 1.055000 600 50 1.000000 0.053000 0.053000 1.200000 0.032000 0.038000
1518201125443090362	1000 47 1.000000 0.422000 0.457000 600 44 0.900000 1.171000 1.059000 600 50 1.000000 0.053000 0.053000 1.200000 0.033000 0.039000
1518201126007120696	1000 47 1.000000 0.422000 0.457000 600 44 0.900000 1.174000 1.062000 600 50 1.000000 0.053000 0.053000 1.200000 0.032000 0.038000
1518201126558989946	1000 47 1.000000 0.422000 0.457000 600 44 0.900000 1.178000 1.063000 600 50 1.000000 0.053000 0.053000 1.200000 0.033000 0.039000
1518201127123029571	1000 47 1.000000 0.422000 0.457000 600 44 0.900000 1.178000 1.066000 600 50 1.000000 0.053000 0.053000 1.200000 0.033000 0.039000
1518201127687090154	1000 47 1.000000 0.422000 0.457000 600 44 0.900000 1.177000 1.062000 600 50 1.000000 0.053000 0.053000 1.200000 0.033000 0.039000
1518201128251062863	1000 47 1.000000 0.422000 0.457000 600 44 0.900000 1.179000 1.064000 600 50 1.000000 0.053000 0.053000 1.200000 0.032000 0.038000
1518201128807184196	1000 47 1.000000 0.422000 0.457000 600 44 0.900000 1.179000 1.064000 600 50 1.000000 0.053000 0.053000 1.200000 0.032000 0.038000
1518201129363077571	1000 47 1.000000 0.422000 0.457000 600 44 0.900000 1.179000 1.064000 600 50 1.000000 0.053000 0.053000 1.200000 0.032000 0.038000
1518201129923069780	1000 47 1.000000 0.422000 0.457000 600 44 0.900000 1.179000 1.064000 600 50 1.000000 0.053000 0.053000 1.200000 0.032000 0.038000
1518201130483077155	1000 47 1.000000 0.422000 0.457000 600 44 0.900000 1.180000 1.065000 600 50 1.000000 0.053000 0.053000 1.200000 0.032000 0.038000
1518201131039129821	1000 47 1.000000 0.422000 0.457000 600 44 0.900000 1.179000 1.064000 600 50 1.000000 0.053000 0.053000 1.200000 0.032000 0.038000
1518201131599080738	1000 47 1.000000 0.422000 0.457000 600 44 0.900000 1.179000 1.066000 600 50 1.000000 0.053000 0.053000 1.200000 0.033000 0.039000
1518201132159115155	1000 47 1.000000 0.422000 0.457000 600 44 0.900000 1.178000 1.063000 600 50 1.000000 0.053000 0.053000 1.200000 0.032000 0.038000
1518201132711035697	1000 47 1.000000 0.422000 0.457000 600 44 0.900000 1.176000 1.061000 600 50 1.000000 0.053000 0.053000 1.200000 0.032000 0.038000
1518201133275029822	1000 47 1.000000 0.424000 0.460000 600 45 0.900000 1.173000 1.059000 600 50 1.000000 0.053000 0.053000 1.200000 0.033000 0.039000
1518201133847096780	1000 47 1.000000 0.425000 0.460000 600 44 0.900000 1.171000 1.059000 600 50 1.000000 0.053000 0.053000 1.200000 0.033000 0.039000
1518201134403112530	1000 47 1.000000 0.425000 0.460000 600 44 0.900000 1.173000 1.059000 600 50 1.000000 0.053000 0.053000 1.200000 0.033000 0.039000
1518201134975108155	1000 47 1.000000 0.425000 0.461000 600 44 0.900000 1.174000 1.060000 600 50 1.000000 0.053000 0.053000 1.200000 0.033000 0.039000
1518201135534989572	1000 47 1.000000 0.425000 0.460000 600 44 0.900000 1.170000 1.056000 600 50 1.000000 0.053000 0.053000 1.200000 0.033000 0.039000
1518201136103189739	1000 47 1.000000 0.425000 0.460000 600 44 0.900000 1.172000 1.058000 600 50 1.000000 0.054000 0.054000 1.200000 0.033000 0.039000
1518201136675105822	1000 47 1.000000 0.425000 0.460000 600 44 0.900000 1.173000 1.061000 600 50 1.000000 0.054000 0.054000 1.200000 0.033000 0.039000
1518201137239074447	1000 47 1.000000 0.425000 0.460000 600 44 0.900000 1.177000 1.062000 600 50 1.000000 0.053000 0.053000 1.200000 0.033000 0.039000
1518201137791090114	1000 47 1.000000 0.425000 0.460000 600 44 0.900000 1.177000 1.065000 600 50 1.000000 0.053000 0.053000 1.200000 0.033000 0.039000
1518201138355091072	1000 47 1.000000 0.425000 0.460000 600 44 0.900000 1.169000 1.055000 600 50 1.000000 0.053000 0.053000 1.200000 0.032000 0.038000
1518201138923077156	1000 47 1.000000 0.425000 0.461000 600 44 0.900000 1.170000 1.058000 600 50 1.000000 0.053000 0.053000 1.200000 0.033000 0.039000
1518201139487107031	1000 47 1.000000 0.425000 0.460000 600 45 0.900000 1.169000 1.057000 600 50 1.000000 0.053000 0.053000 1.200000 0.033000 0.039000
1518201140055093698	1000 47 1.000000 0.425000 0.460000 600 44 0.900000 1.168000 1.054000 600 50 1.000000 0.054000 0.054000 1.200000 0.033000 0.039000
1518201140615134989	1000 47 1.000000 0.425000 0.460000 600 44 0.900000 1.171000 1.057000 600 50 1.000000 0.053000 0.053000 1.200000 0.033000 0.039000
1518201141183058698	1000 47 1.000000 0.425000 0.460000 600 44 0.900000 1.178000 1.063000 600 50 1.000000 0.053000 0.053000 1.200000 0.033000 0.039000
1518201141747068531	1000 47 1.000000 0.425000 0.460000 600 44 0.900000 1.174000 1.060000 600 50 1.000000 0.053000 0.053000 1.200000 0.033000 0.039000
1518201142311057073	1000 47 1.000000 0.425000 0.460000 600 44 0.900000 1.173000 1.059000 600 50 1.000000 0.053000 0.053000 1.200000 0.033000 0.039000
1518201142879067781	1000 47 1.000000 0.425000 0.460000 600 44 0.900000 1.168000 1.054000 600 50 1.000000 0.053000 0.053000 1.200000 0.033000 0.039000
1518201143435107156	1000 47 1.000000 0.425000 0.460000 600 44 0.900000 1.166000 1.052000 600 50 1.000000 0.053000 0.053000 1.200000 0.033000 0.039000
1518201144007121865	1000 47 1.000000 0.424000 0.459000 600 44 0.900000 1.167000 1.053000 600 50 1.000000 0.053000 0.053000 1.200000 0.033000 0.039000
1518201144567133990	1000 47 1.000000 0.424000 0.459000 600 44 0.900000 1.163000 1.050000 600 50 1.000000 0.053000 0.053000 1.200000 0.033000 0.039000
1518201145135066156	1000 47 1.000000 0.425000 0.460000 600 44 0.900000 1.161000 1.048000 600 50 1.000000 0.053000 0.053000 1.200000 0.033000 0.039000
1518201145699029573	1000 47 1.000000 0.425000 0.461000 600 44 0.900000 1.164000 1.051000 600 50 1.000000 0.053000 0.053000 1.200000 0.034000 0.041000
1518201146259080573	1000 47 1.000000 0.425000 0.461000 600 44 0.900000 1.160000 1.047000 600 50 1.000000 0.053000 0.053000 1.200000 0.033000 0.039000
1518201146811057448	1000 47 1.000000 0.425000 0.460000 600 44 0.900000 1.163000 1.050000 600 50 1.000000 0.053000 0.053000 1.200000 0.033000 0.039000
1518201147375062490	1000 47 1.000000 0.425000 0.460000 600 44 0.900000 1.160000 1.047000 600 50 1.000000 0.053000 0.053000 1.200000 0.034000 0.041000
1518201147935044698	1000 47 1.000000 0.425000 0.460000 600 44 0.900000 1.155000 1.042000 600 50 1.000000 0.053000 0.053000 1.200000 0.033000 0.039000
1518201148499080282	1000 47 1.000000 0.425000 0.460000 600 44 0.900000 1.162000 1.049000 600 50 1.000000 0.053000 0.053000 1.200000 0.033000 0.039000
1518201149067044157	1000 47 1.000000 0.425000 0.460000 600 44 0.900000 1.159000 1.046000 600 50 1.000000 0.053000 0.053000 1.200000 0.034000 0.041000
1518201149635022490	1000 47 1.000000 0.425000 0.460000 600 44 0.900000 1.165000 1.051000 600 50 1.000000 0.053000 0.053000 1.200000 0.033000 0.039000
1518201150195085324	1000 47 1.000000 0.424000 0.459000 600 44 0.900000 1.165000 1.051000 600 50 1.000000 0.053000 0.053000 1.200000 0.033000 0.039000
1518201150771031240	1000 47 1.000000 0.425000 0.460000 600 44 0.900000 1.164000 1.051000 600 50 1.000000 0.053000 0.053000 1.200000 0.033000 0.039000
1518201151339060699	1000 47 1.000000 0.424000 0.459000 600 44 0.900000 1.164000 1.051000 600 50 1.000000 0.053000 0.053000 1.200000 0.033000 0.039000
1518201151903067866	1000 47 1.000000 0.424000 0.459000 600 44 0.900000 1.164000 1.051000 600 50 1.000000 0.053000 0.053000 1.200000 0.033000 0.039000
1518201152471057324	1000 47 1.000000 0.424000 0.459000 600 44 0.900000 1.163000 1.050000 600 50 1.000000 0.053000 0.053000 1.200000 0.033000 0.039000
1518201153043087324	1000 47 1.000000 0.424000 0.459000 600 44 0.900000 1.159000 1.046000 600 50 1.000000 0.053000 0.053000 1.200000 0.033000 0.039000
1518201153611145907	1000 47 1.000000 0.425000 0.460000 600 44 0.900000 1.165000 1.051000 600 50 1.000000 0.053000 0.053000 1.200000 0.033000 0.039000
1518201154178990574	1000 47 1.000000 0.423000 0.458000 600 44 0.900000 1.166000 1.052000 600 50 1.000000 0.053000 0.053000 1.200000 0.033000 0.039000
1518201154739035991	1000 47 1.000000 0.424000 0.459000 600 44 0.900000 1.165000 1.051000 600 50 1.000000 0.053000 0.053000 1.200000 0.033000 0.039000
1518201155307058866	1000 47 1.000000 0.423000 0.458000 600 44 0.900000 1.162000 1.049000 600 50 1.000000 0.053000 0.053000 1.200000 0.033000 0.039000
1518201155883028658	1000 47 1.000000 0.423000 0.458000 600 44 0.900000 1.165000 1.051000 600 50 1.000000 0.053000 0.053000 1.200000 0.033000 0.039000
1518201156443064158	1000 47 1.000000 0.423000 0.458000 600 44 0.900000 1.159000 1.048000 600 50 1.000000 0.053000 0.053000 1.200000 0.033000 0.039000
1518201157011079200	1000 47 1.000000 0.423000 0.458000 600 44 0.900000 1.159000 1.046000 600 50 1.000000 0.053000 0.053000 1.200000 0.032000 0.038000
1518201157583006075	1000 47 1.000000 0.424000 0.459000 600 44 0.900000 1.165000 1.051000 600 50 1.000000 0.053000 0.053000 1.200000 0.032000 0.038000
1518201158150954450	1000 47 1.000000 0.424000 0.460000 600 44 0.900000 1.165000 1.051000 600 50 1.000000 0.053000 0.053000 1.200000 0.032000 0.038000
1518201158711048075	1000 47 1.000000 0.424000 0.460000 600 44 0.900000 1.165000 1.051000 600 50 1.000000 0.053000 0.053000 1.200000 0.032000 0.038000
1518201159270996200	1000 47 1.000000 0.424000 0.459000 600 44 0.900000 1.165000 1.051000 600 50 1.000000 0.053000 0.053000 1.200000 0.033000 0.039000
1518201159835066033	1000 47 1.000000 0.423000 0.458000 600 44 0.900000 1.159000 1.046000 600 50 1.000000 0.053000 0.053000 1.200000 0.033000 0.039000
1518201160399169492	1000 47 1.000000 0.424000 0.459000 600 44 0.900000 1.154000 1.042000 600 50 1.000000 0.053000 0.053000 1.200000 0.032000 0.038000
1518201160959078867	1000 47 1.000000 0.423000 0.458000 600 44 0.900000 1.156000 1.043000 600 50 1.000000 0.053000 0.053000 1.200000 0.032000 0.038000
1518201161527020242	1000 47 1.000000 0.423000 0.458000 600 44 0.900000 1.167000 1.053000 600 50 1.000000 0.053000 0.053000 1.200000 0.032000 0.038000
1518201162099064659	1000 47 1.000000 0.423000 0.458000 600 44 0.900000 1.172000 1.060000 600 50 1.000000 0.053000 0.053000 1.200000 0.033000 0.039000
1518201162667051034	1000 47 1.000000 0.423000 0.458000 600 45 0.900000 1.175000 1.061000 600 50 1.000000 0.053000 0.053000 1.200000 0.032000 0.038000
1518201163231064784	1000 47 1.000000 0.423000 0.458000 600 44 0.900000 1.176000 1.064000 600 50 1.000000 0.053000 0.053000 1.200000 0.033000 0.039000
1518201163799006034	1000 47 1.000000 0.424000 0.460000 600 44 0.900000 1.175000 1.061000 600 50 1.000000 0.053000 0.053000 1.200000 0.033000 0.039000
1518201164355060700	1000 47 1.000000 0.423000 0.458000 600 44 0.900000 1.172000 1.058000 600 50 1.000000 0.053000 0.053000 1.200000 0.033000 0.039000
1518201164919113284	1000 47 1.000000 0.423000 0.458000 600 44 0.900000 1.169000 1.055000 600 50 1.000000 0.053000 0.053000 1.200000 0.033000 0.039000
1518201165487059034	1000 47 1.000000 0.424000 0.459000 600 44 0.900000 1.176000 1.064000 600 50 1.000000 0.053000 0.053000 1.200000 0.032000 0.038000
1518201166067088242	1000 47 1.000000 0.424000 0.459000 600 44 0.900000 1.175000 1.061000 600 50 1.000000 0.053000 0.053000 1.200000 0.033000 0.039000
1518201166635083159	1000 47 1.000000 0.424000 0.459000 600 44 0.900000 1.176000 1.064000 600 50 1.000000 0.053000 0.053000 1.200000 0.033000 0.039000
1518201167203039701	1000 47 1.000000 0.423000 0.458000 600 44 0.900000 1.176000 1.064000 600 50 1.000000 0.053000 0.053000 1.200000 0.032000 0.038000
1518201167767120159	1000 47 1.000000 0.424000 0.459000 600 44 0.900000 1.175000 1.061000 600 50 1.000000 0.053000 0.053000 1.200000 0.032000 0.038000
1518201168318977993	1000 47 1.000000 0.423000 0.458000 600 44 0.900000 1.175000 1.061000 600 50 1.000000 0.053000 0.053000 1.200000 0.032000 0.038000
1518201168883019243	1000 47 1.000000 0.423000 0.458000 600 44 0.900000 1.174000 1.060000 600 50 1.000000 0.053000 0.053000 1.200000 0.033000 0.039000
1518201169459068451	1000 47 1.000000 0.423000 0.458000 600 44 0.900000 1.175000 1.061000 600 50 1.000000 0.053000 0.053000 1.200000 0.032000 0.038000
1518201170015003201	1000 47 1.000000 0.423000 0.458000 600 45 0.900000 1.170000 1.056000 600 50 1.000000 0.053000 0.053000 1.200000 0.032000 0.038000
1518201170587000160	1000 47 1.000000 0.423000 0.458000 600 44 0.900000 1.165000 1.051000 600 50 1.000000 0.053000 0.053000 1.200000 0.032000 0.038000
1518201171143055826	1000 47 1.000000 0.423000 0.458000 600 44 0.900000 1.172000 1.058000 600 50 1.000000 0.053000 0.053000 1.200000 0.032000 0.038000
1518201171715041243	1000 47 1.000000 0.424000 0.459000 600 44 0.900000 1.165000 1.051000 600 50 1.000000 0.053000 0.053000 1.200000 0.032000 0.038000
1518201172286976160	1000 47 1.000000 0.423000 0.458000 600 44 0.900000 1.170000 1.056000 600 50 1.000000 0.053000 0.053000 1.200000 0.033000 0.039000
1518201172855016201	1000 47 1.000000 0.424000 0.459000 600 44 0.900000 1.172000 1.058000 600 50 1.000000 0.053000 0.053000 1.200000 0.032000 0.038000
1518201173423089118	1000 47 1.000000 0.423000 0.458000 600 44 0.900000 1.166000 1.052000 600 50 1.000000 0.053000 0.053000 1.200000 0.033000 0.039000
1518201173975109035	1000 47 1.000000 0.423000 0.458000 600 44 0.900000 1.166000 1.052000 600 50 1.000000 0.053000 0.053000 1.200000 0.032000 0.038000
1518201174535052868	1000 47 1.000000 0.423000 0.458000 600 44 0.900000 1.170000 1.056000 600 50 1.000000 0.053000 0.053000 1.200000 0.033000 0.039000
1518201175107105493	1000 47 1.000000 0.423000 0.458000 600 45 0.900000 1.171000 1.057000 600 50 1.000000 0.053000 0.053000 1.200000 0.034000 0.041000
1518201175667034327	1000 47 1.000000 0.423000 0.458000 600 44 0.900000 1.175000 1.061000 600 50 1.000000 0.053000 0.053000 1.200000 0.034000 0.041000
1518201176231109619	1000 47 1.000000 0.423000 0.458000 600 44 0.900000 1.168000 1.054000 600 50 1.000000 0.053000 0.053000 1.200000 0.034000 0.041000
1518201176799053077	1000 47 1.000000 0.423000 0.458000 600 44 0.900000 1.172000 1.058000 600 50 1.000000 0.053000 0.053000 1.200000 0.034000 0.041000
1518201177359030327	1000 47 1.000000 0.424000 0.459000 600 44 0.900000 1.184000 1.071000 600 50 1.000000 0.053000 0.053000 1.200000 0.034000 0.041000
1518201177923026827	1000 47 1.000000 0.424000 0.459000 600 44 0.900000 1.177000 1.062000 600 50 1.000000 0.053000 0.053000 1.200000 0.034000 0.041000
1518201178491089327	1000 47 1.000000 0.423000 0.458000 600 44 0.900000 1.176000 1.064000 600 50 1.000000 0.053000 0.053000 1.200000 0.033000 0.039000
1518201179059055577	1000 47 1.000000 0.423000 0.458000 600 45 0.900000 1.178000 1.063000 600 50 1.000000 0.054000 0.054000 1.200000 0.034000 0.041000
1518201179611100827	1000 47 1.000000 0.423000 0.458000 600 44 0.900000 1.184000 1.071000 600 50 1.000000 0.053000 0.053000 1.200000 0.034000 0.041000
1518201180171102036	1000 47 1.000000 0.424000 0.459000 600 45 0.900000 1.173000 1.061000 600 50 1.000000 0.053000 0.053000 1.200000 0.033000 0.039000
1518201180714994369	1000 47 1.000000 0.423000 0.458000 600 44 0.900000 1.180000 1.067000 600 50 1.000000 0.053000 0.053000 1.200000 0.034000 0.041000
1518201181279063411	1000 47 1.000000 0.424000 0.459000 600 45 0.900000 1.175000 1.063000 600 50 1.000000 0.053000 0.053000 1.200000 0.034000 0.041000
1518201181843051453	1000 47 1.000000 0.424000 0.459000 600 44 0.900000 1.184000 1.071000 600 50 1.000000 0.053000 0.053000 1.200000 0.034000 0.041000
1518201182411096411	1000 47 1.000000 0.423000 0.458000 600 44 0.900000 1.179000 1.066000 600 50 1.000000 0.053000 0.053000 1.200000 0.033000 0.039000
1518201182967082244	1000 47 1.000000 0.423000 0.458000 600 45 0.900000 1.178000 1.066000 600 50 1.000000 0.053000 0.053000 1.200000 0.034000 0.041000
1518201183535025494	1000 47 1.000000 0.423000 0.458000 600 45 0.900000 1.174000 1.062000 600 50 1.000000 0.053000 0.053000 1.200000 0.034000 0.041000
1518201184099108786	1000 47 1.000000 0.423000 0.458000 600 44 0.900000 1.173000 1.061000 600 50 1.000000 0.053000 0.053000 1.200000 0.034000 0.041000
1518201184663142161	1000 47 1.000000 0.423000 0.458000 600 45 0.900000 1.176000 1.061000 600 50 1.000000 0.053000 0.053000 1.200000 0.033000 0.039000
1518201185215187411	1000 47 1.000000 0.423000 0.458000 600 44 0.900000 1.175000 1.063000 600 50 1.000000 0.053000 0.053000 1.200000 0.034000 0.041000
1518201185775089745	1000 47 1.000000 0.424000 0.459000 600 44 0.900000 1.183000 1.068000 600 50 1.000000 0.053000 0.053000 1.200000 0.034000 0.041000
1518201186343134495	1000 47 1.000000 0.423000 0.458000 600 45 0.900000 1.183000 1.068000 600 50 1.000000 0.053000 0.053000 1.200000 0.034000 0.041000
1518201186915006536	1000 47 1.000000 0.423000 0.458000 600 44 0.900000 1.183000 1.068000 600 50 1.000000 0.053000 0.053000 1.200000 0.034000 0.041000
1518201187471105120	1000 47 1.000000 0.423000 0.458000 600 45 0.900000 1.182000 1.069000 600 50 1.000000 0.053000 0.053000 1.200000 0.034000 0.041000
1518201188039009787	1000 47 1.000000 0.423000 0.458000 600 45 0.900000 1.172000 1.060000 600 50 1.000000 0.053000 0.053000 1.200000 0.034000 0.041000
1518201188599071287	1000 47 1.000000 0.423000 0.458000 600 44 0.900000 1.177000 1.065000 600 50 1.000000 0.053000 0.053000 1.200000 0.034000 0.041000
1518201189151052287	1000 47 1.000000 0.423000 0.458000 600 44 0.900000 1.176000 1.064000 600 50 1.000000 0.053000 0.053000 1.200000 0.034000 0.041000
1518201189719012287	1000 47 1.000000 0.423000 0.458000 600 44 0.900000 1.177000 1.065000 600 50 1.000000 0.053000 0.053000 1.200000 0.034000 0.041000
1518201190283099037	1000 47 1.000000 0.423000 0.458000 600 44 0.900000 1.183000 1.070000 600 50 1.000000 0.053000 0.053000 1.200000 0.033000 0.039000
1518201190851004704	1000 47 1.000000 0.423000 0.458000 600 44 0.900000 1.184000 1.071000 600 50 1.000000 0.053000 0.053000 1.200000 0.034000 0.041000
1518201191423009954	1000 47 1.000000 0.424000 0.459000 600 44 0.900000 1.182000 1.067000 600 50 1.000000 0.053000 0.053000 1.200000 0.034000 0.041000
1518201191991038870	1000 47 1.000000 0.423000 0.458000 600 44 0.900000 1.177000 1.065000 600 50 1.000000 0.053000 0.053000 1.200000 0.034000 0.041000
1518201192555073829	1000 47 1.000000 0.423000 0.458000 600 45 0.900000 1.175000 1.061000 600 50 1.000000 0.053000 0.053000 1.200000 0.034000 0.041000
1518201193127071954	1000 47 1.000000 0.423000 0.458000 600 44 0.900000 1.174000 1.060000 600 50 1.000000 0.053000 0.053000 1.200000 0.034000 0.041000
1518201193683150579	1000 47 1.000000 0.423000 0.458000 600 44 0.900000 1.183000 1.068000 600 50 1.000000 0.053000 0.053000 1.200000 0.033000 0.039000
1518201194247034329	1000 47 1.000000 0.423000 0.458000 600 44 0.900000 1.176000 1.061000 600 50 1.000000 0.053000 0.053000 1.200000 0.033000 0.039000
1518201194819079537	1000 47 1.000000 0.423000 0.458000 600 44 0.900000 1.177000 1.062000 600 50 1.000000 0.053000 0.053000 1.200000 0.034000 0.041000
1518201195367094829	1000 47 1.000000 0.424000 0.459000 600 44 0.900000 1.177000 1.062000 600 50 1.000000 0.053000 0.053000 1.200000 0.034000 0.041000
1518201195915041954	1000 47 1.000000 0.424000 0.459000 600 44 0.900000 1.178000 1.063000 600 50 1.000000 0.053000 0.053000 1.200000 0.033000 0.039000
1518201196470987788	1000 47 1.000000 0.424000 0.459000 600 44 0.900000 1.177000 1.062000 600 50 1.000000 0.053000 0.053000 1.200000 0.034000 0.041000
1518201197035073163	1000 47 1.000000 0.424000 0.459000 600 44 0.900000 1.170000 1.056000 600 50 1.000000 0.053000 0.053000 1.200000 0.033000 0.039000
1518201197611063371	1000 47 1.000000 0.424000 0.459000 600 44 0.900000 1.165000 1.051000 600 50 1.000000 0.053000 0.053000 1.200000 0.033000 0.039000
1518201198175047538	1000 47 1.000000 0.424000 0.459000 600 44 0.900000 1.175000 1.061000 600 50 1.000000 0.053000 0.053000 1.200000 0.033000 0.039000
1518201198735083788	1000 47 1.000000 0.424000 0.459000 600 44 0.900000 1.175000 1.061000 600 50 1.000000 0.053000 0.053000 1.200000 0.033000 0.039000
1518201199303009538	1000 47 1.000000 0.424000 0.460000 600 44 0.900000 1.175000 1.061000 600 50 1.000000 0.053000 0.053000 1.200000 0.033000 0.039000
1518201199867091080	1000 47 1.000000 0.424000 0.459000 600 44 0.900000 1.175000 1.061000 600 50 1.000000 0.053000 0.053000 1.200000 0.034000 0.041000
1518201200415077705	1000 47 1.000000 0.424000 0.459000 600 44 0.900000 1.175000 1.061000 600 50 1.000000 0.053000 0.053000 1.200000 0.034000 0.041000
1518201200975063205	1000 47 1.000000 0.424000 0.459000 600 44 0.900000 1.175000 1.061000 600 50 1.000000 0.053000 0.053000 1.200000 0.033000 0.039000
1518201201527099163	1000 47 1.000000 0.424000 0.459000 600 44 0.900000 1.169000 1.055000 600 50 1.000000 0.054000 0.054000 1.200000 0.033000 0.039000
1518201202095060830	1000 47 1.000000 0.424000 0.459000 600 44 0.900000 1.168000 1.054000 600 50 1.000000 0.053000 0.053000 1.200000 0.033000 0.039000
1518201202655051330	1000 47 1.000000 0.424000 0.459000 600 44 0.900000 1.175000 1.061000 600 50 1.000000 0.053000 0.053000 1.200000 0.033000 0.039000
1518201203226987122	1000 47 1.000000 0.424000 0.459000 600 44 0.900000 1.174000 1.060000 600 50 1.000000 0.053000 0.053000 1.200000 0.033000 0.039000
1518201203798957413	1000 47 1.000000 0.424000 0.459000 600 44 0.900000 1.175000 1.061000 600 50 1.000000 0.053000 0.053000 1.200000 0.033000 0.039000
1518201204355061747	1000 47 1.000000 0.424000 0.459000 600 44 0.900000 1.175000 1.061000 600 50 1.000000 0.053000 0.053000 1.200000 0.033000 0.039000
1518201204911182872	1000 47 1.000000 0.424000 0.460000 600 44 0.900000 1.175000 1.061000 600 50 1.000000 0.053000 0.053000 1.200000 0.033000 0.039000
1518201205475081872	1000 47 1.000000 0.424000 0.459000 600 44 0.900000 1.174000 1.060000 600 50 1.000000 0.053000 0.053000 1.200000 0.033000 0.039000
1518201206043110580	1000 47 1.000000 0.424000 0.459000 600 44 0.900000 1.174000 1.060000 600 50 1.000000 0.053000 0.053000 1.200000 0.033000 0.039000
1518201206611016789	1000 47 1.000000 0.424000 0.459000 600 44 0.900000 1.170000 1.056000 600 50 1.000000 0.053000 0.053000 1.200000 0.034000 0.041000
1518201207183038081	1000 47 1.000000 0.424000 0.459000 600 44 0.900000 1.172000 1.058000 600 50 1.000000 0.053000 0.053000 1.200000 0.033000 0.039000
1518201207751060914	1000 47 1.000000 0.424000 0.459000 600 44 0.900000 1.169000 1.055000 600 50 1.000000 0.053000 0.053000 1.200000 0.033000 0.039000
1518201208307149039	1000 47 1.000000 0.424000 0.459000 600 44 0.900000 1.162000 1.049000 600 50 1.000000 0.053000 0.053000 1.200000 0.033000 0.039000
1518201208867097039	1000 47 1.000000 0.424000 0.459000 600 44 0.900000 1.168000 1.054000 600 50 1.000000 0.053000 0.053000 1.200000 0.032000 0.038000
1518201209431033789	1000 47 1.000000 0.424000 0.459000 600 44 0.900000 1.166000 1.052000 600 50 1.000000 0.053000 0.053000 1.200000 0.033000 0.039000
1518201209995033331	1000 47 1.000000 0.424000 0.459000 600 44 0.900000 1.171000 1.057000 600 50 1.000000 0.054000 0.054000 1.200000 0.033000 0.039000
1518201210559050498	1000 47 1.000000 0.424000 0.459000 600 44 0.900000 1.165000 1.051000 600 50 1.000000 0.053000 0.053000 1.200000 0.033000 0.039000
1518201211123037623	1000 47 1.000000 0.424000 0.460000 600 44 0.900000 1.169000 1.055000 600 50 1.000000 0.053000 0.053000 1.200000 0.033000 0.039000
1518201211687058748	1000 47 1.000000 0.424000 0.459000 600 44 0.900000 1.165000 1.051000 600 50 1.000000 0.053000 0.053000 1.200000 0.033000 0.039000
1518201212259063831	1000 47 1.000000 0.424000 0.460000 600 44 0.900000 1.167000 1.053000 600 50 1.000000 0.053000 0.053000 1.200000 0.033000 0.039000
1518201212827081623	1000 47 1.000000 0.424000 0.459000 600 44 0.900000 1.178000 1.063000 600 50 1.000000 0.053000 0.053000 1.200000 0.033000 0.039000
1518201213383047040	1000 47 1.000000 0.424000 0.459000 600 44 0.900000 1.177000 1.062000 600 50 1.000000 0.053000 0.053000 1.200000 0.033000 0.039000
1518201213936087873	1000 47 1.000000 0.424000 0.459000 600 44 0.900000 1.172000 1.058000 600 50 1.000000 0.053000 0.053000 1.200000 0.033000 0.039000
1518201214503116290	1000 47 1.000000 0.424000 0.459000 600 44 0.900000 1.177000 1.062000 600 50 1.000000 0.053000 0.053000 1.200000 0.033000 0.039000
1518201215055020498	1000 47 1.000000 0.424000 0.459000 600 44 0.900000 1.180000 1.065000 600 50 1.000000 0.053000 0.053000 1.200000 0.033000 0.039000
1518201215611042123	1000 47 1.000000 0.424000 0.459000 600 44 0.900000 1.177000 1.062000 600 50 1.000000 0.053000 0.053000 1.200000 0.032000 0.038000
1518201216163053957	1000 47 1.000000 0.423000 0.458000 600 44 0.900000 1.179000 1.064000 600 50 1.000000 0.053000 0.053000 1.200000 0.031000 0.037000
1518201216723001498	1000 47 1.000000 0.423000 0.458000 600 44 0.900000 1.178000 1.063000 600 50 1.000000 0.053000 0.053000 1.200000 0.029000 0.035000
1518201217287050748	1000 47 1.000000 0.423000 0.458000 600 44 0.900000 1.175000 1.061000 600 50 1.000000 0.053000 0.053000 1.200000 0.029000 0.035000
1518201217847045707	1000 47 1.000000 0.423000 0.458000 600 44 0.900000 1.174000 1.060000 600 50 1.000000 0.053000 0.053000 1.200000 0.029000 0.035000
1518201218415071040	1000 47 1.000000 0.423000 0.458000 600 44 0.900000 1.171000 1.057000 600 50 1.000000 0.053000 0.053000 1.200000 0.030000 0.036000
1518201218982993790	1000 47 1.000000 0.423000 0.458000 600 44 0.900000 1.172000 1.058000 600 50 1.000000 0.053000 0.053000 1.200000 0.030000 0.036000
1518201219551065582	1000 47 1.000000 0.423000 0.458000 600 44 0.900000 1.181000 1.066000 600 50 1.000000 0.053000 0.053000 1.200000 0.030000 0.036000
1518201220119015457	1000 47 1.000000 0.423000 0.458000 600 44 0.900000 1.180000 1.065000 600 50 1.000000 0.053000 0.053000 1.200000 0.029000 0.035000
1518201220682982790	1000 47 1.000000 0.423000 0.458000 600 44 0.900000 1.178000 1.063000 600 50 1.000000 0.053000 0.053000 1.200000 0.029000 0.035000
1518201221239112707	1000 47 1.000000 0.423000 0.458000 600 44 0.900000 1.176000 1.061000 600 50 1.000000 0.053000 0.053000 1.200000 0.029000 0.035000
1518201221807040707	1000 47 1.000000 0.423000 0.458000 600 44 0.900000 1.172000 1.058000 600 50 1.000000 0.053000 0.053000 1.200000 0.029000 0.035000
1518201222379051791	1000 47 1.000000 0.423000 0.458000 600 44 0.900000 1.176000 1.061000 600 50 1.000000 0.053000 0.053000 1.200000 0.029000 0.035000
1518201222947054624	1000 47 1.000000 0.423000 0.458000 600 44 0.900000 1.177000 1.062000 600 50 1.000000 0.053000 0.053000 1.200000 0.030000 0.036000
1518201223519080874	1000 47 1.000000 0.423000 0.458000 600 44 0.900000 1.182000 1.067000 600 50 1.000000 0.053000 0.053000 1.200000 0.030000 0.036000
1518201224087053916	1000 47 1.000000 0.423000 0.458000 600 44 0.900000 1.181000 1.066000 600 50 1.000000 0.053000 0.053000 1.200000 0.030000 0.036000
1518201224643074249	1000 47 1.000000 0.423000 0.458000 600 44 0.900000 1.180000 1.065000 600 50 1.000000 0.053000 0.053000 1.200000 0.030000 0.036000
1518201225215030749	1000 47 1.000000 0.423000 0.458000 600 44 0.900000 1.175000 1.061000 600 50 1.000000 0.053000 0.053000 1.200000 0.030000 0.036000
1518201225771041791	1000 47 1.000000 0.423000 0.458000 600 44 0.900000 1.180000 1.065000 600 50 1.000000 0.053000 0.053000 1.200000 0.030000 0.036000
1518201226335118875	1000 47 1.000000 0.423000 0.458000 600 44 0.900000 1.175000 1.061000 600 50 1.000000 0.053000 0.053000 1.200000 0.030000 0.036000
1518201226887002041	1000 47 1.000000 0.423000 0.458000 600 44 0.900000 1.172000 1.058000 600 50 1.000000 0.053000 0.053000 1.200000 0.029000 0.035000
1518201227454982458	1000 47 1.000000 0.423000 0.458000 600 44 0.900000 1.177000 1.062000 600 50 1.000000 0.053000 0.053000 1.200000 0.030000 0.036000
1518201228007094250	1000 47 1.000000 0.423000 0.458000 600 44 0.900000 1.181000 1.066000 600 50 1.000000 0.053000 0.053000 1.200000 0.030000 0.036000
1518201228567076125	1000 47 1.000000 0.423000 0.458000 600 44 0.900000 1.181000 1.066000 600 50 1.000000 0.053000 0.053000 1.200000 0.030000 0.036000
1518201229134998542	1000 47 1.000000 0.423000 0.458000 600 44 0.900000 1.175000 1.061000 600 50 1.000000 0.053000 0.053000 1.200000 0.030000 0.036000
1518201229699123625	1000 47 1.000000 0.423000 0.458000 600 44 0.900000 1.164000 1.051000 600 50 1.000000 0.053000 0.053000 1.200000 0.030000 0.036000
1518201230259055667	1000 47 1.000000 0.423000 0.458000 600 44 0.900000 1.160000 1.047000 600 50 1.000000 0.053000 0.053000 1.200000 0.030000 0.036000
1518201230811088708	1000 47 1.000000 0.423000 0.458000 600 44 0.900000 1.158000 1.045000 600 50 1.000000 0.053000 0.053000 1.200000 0.030000 0.036000
1518201231375102208	1000 47 1.000000 0.423000 0.458000 600 44 0.900000 1.159000 1.046000 600 50 1.000000 0.053000 0.053000 1.200000 0.030000 0.036000
1518201231939104000	1000 47 1.000000 0.423000 0.458000 600 44 0.900000 1.160000 1.047000 600 50 1.000000 0.053000 0.053000 1.200000 0.030000 0.036000
1518201232511061834	1000 47 1.000000 0.423000 0.458000 600 44 0.900000 1.163000 1.050000 600 50 1.000000 0.053000 0.053000 1.200000 0.030000 0.036000
1518201233082967292	1000 47 1.000000 0.423000 0.458000 600 44 0.900000 1.162000 1.049000 600 50 1.000000 0.053000 0.053000 1.200000 0.030000 0.036000
1518201233639023834	1000 47 1.000000 0.423000 0.458000 600 44 0.900000 1.162000 1.049000 600 50 1.000000 0.053000 0.053000 1.200000 0.030000 0.036000
1518201234199058959	1000 47 1.000000 0.423000 0.458000 600 44 0.900000 1.162000 1.051000 600 50 1.000000 0.053000 0.053000 1.200000 0.030000 0.036000
1518201234779087126	1000 47 1.000000 0.423000 0.458000 600 44 0.900000 1.162000 1.049000 600 50 1.000000 0.053000 0.053000 1.200000 0.030000 0.036000
1518201235339079167	1000 47 1.000000 0.423000 0.458000 600 44 0.900000 1.158000 1.047000 600 50 1.000000 0.053000 0.053000 1.200000 0.030000 0.036000
1518201235895087084	1000 47 1.000000 0.423000 0.458000 600 44 0.900000 1.162000 1.051000 600 50 1.000000 0.053000 0.053000 1.200000 0.029000 0.035000
1518201236467063626	1000 47 1.000000 0.423000 0.458000 600 44 0.900000 1.162000 1.049000 600 50 1.000000 0.053000 0.053000 1.200000 0.029000 0.035000
1518201237027036501	1000 47 1.000000 0.423000 0.458000 600 44 0.900000 1.162000 1.049000 600 50 1.000000 0.053000 0.053000 1.200000 0.032000 0.038000
1518201237579009209	1000 47 1.000000 0.423000 0.458000 600 44 0.900000 1.163000 1.050000 600 50 1.000000 0.053000 0.053000 1.200000 0.033000 0.039000
1518201238146975793	1000 47 1.000000 0.423000 0.458000 600 44 0.900000 1.162000 1.049000 600 50 1.000000 0.053000 0.053000 1.200000 0.033000 0.039000
1518201238711070293	1000 47 1.000000 0.423000 0.458000 600 44 0.900000 1.162000 1.051000 600 50 1.000000 0.053000 0.053000 1.200000 0.033000 0.039000
1518201239278988751	1000 47 1.000000 0.423000 0.458000 600 44 0.900000 1.159000 1.048000 600 50 1.000000 0.053000 0.053000 1.200000 0.033000 0.039000
1518201239847017376	1000 47 1.000000 0.423000 0.458000 600 44 0.900000 1.156000 1.046000 600 50 1.000000 0.053000 0.053000 1.200000 0.033000 0.039000
1518201240411098585	1000 47 1.000000 0.423000 0.458000 600 44 0.900000 1.162000 1.051000 600 50 1.000000 0.053000 0.053000 1.200000 0.033000 0.039000
1518201240971102710	1000 47 1.000000 0.423000 0.458000 600 44 0.900000 1.162000 1.051000 600 50 1.000000 0.053000 0.053000 1.200000 0.033000 0.039000
1518201241531062543	1000 47 1.000000 0.423000 0.458000 600 44 0.900000 1.163000 1.050000 600 50 1.000000 0.053000 0.053000 1.200000 0.033000 0.039000
1518201242087122543	1000 47 1.000000 0.423000 0.458000 600 44 0.900000 1.162000 1.051000 600 50 1.000000 0.053000 0.053000 1.200000 0.033000 0.039000
1518201242651127001	1000 47 1.000000 0.423000 0.458000 600 44 0.900000 1.162000 1.049000 600 50 1.000000 0.053000 0.053000 1.200000 0.034000 0.041000
1518201243219078210	1000 47 1.000000 0.423000 0.458000 600 44 0.900000 1.161000 1.048000 600 50 1.000000 0.053000 0.053000 1.200000 0.033000 0.039000
1518201243787052502	1000 47 1.000000 0.423000 0.458000 600 44 0.900000 1.162000 1.049000 600 50 1.000000 0.053000 0.053000 1.200000 0.033000 0.039000
1518201244351117752	1000 47 1.000000 0.423000 0.458000 600 44 0.900000 1.156000 1.043000 600 50 1.000000 0.053000 0.053000 1.200000 0.033000 0.039000
1518201244902984293	1000 47 1.000000 0.423000 0.458000 600 44 0.900000 1.158000 1.045000 600 50 1.000000 0.053000 0.053000 1.200000 0.033000 0.039000
1518201245467029668	1000 47 1.000000 0.423000 0.458000 600 44 0.900000 1.153000 1.041000 600 50 1.000000 0.053000 0.053000 1.200000 0.033000 0.039000
1518201246031107794	1000 47 1.000000 0.423000 0.458000 600 44 0.900000 1.151000 1.039000 600 50 1.000000 0.053000 0.053000 1.200000 0.033000 0.039000
1518201246598978335	1000 47 1.000000 0.423000 0.458000 600 44 0.900000 1.155000 1.042000 600 50 1.000000 0.053000 0.053000 1.200000 0.033000 0.039000
1518201247143074919	1000 47 1.000000 0.423000 0.458000 600 44 0.900000 1.161000 1.048000 600 50 1.000000 0.053000 0.053000 1.200000 0.033000 0.039000
1518201247731102585	1000 47 1.000000 0.423000 0.458000 600 44 0.900000 1.167000 1.053000 600 50 1.000000 0.053000 0.053000 1.200000 0.033000 0.039000
1518201248295085002	1000 47 1.000000 0.423000 0.458000 600 44 0.900000 1.163000 1.050000 600 50 1.000000 0.054000 0.054000 1.200000 0.033000 0.039000
1518201248855066877	1000 47 1.000000 0.423000 0.458000 600 44 0.900000 1.167000 1.053000 600 50 1.000000 0.053000 0.053000 1.200000 0.033000 0.039000
1518201249419036919	1000 47 1.000000 0.423000 0.458000 600 44 0.900000 1.165000 1.051000 600 50 1.000000 0.053000 0.053000 1.200000 0.033000 0.039000
1518201249987067586	1000 47 1.000000 0.423000 0.458000 600 44 0.900000 1.161000 1.048000 600 50 1.000000 0.053000 0.053000 1.200000 0.033000 0.039000
1518201250551096877	1000 47 1.000000 0.423000 0.458000 600 44 0.900000 1.161000 1.048000 600 50 1.000000 0.053000 0.053000 1.200000 0.033000 0.039000
1518201251115066502	1000 47 1.000000 0.423000 0.458000 600 44 0.900000 1.162000 1.049000 600 50 1.000000 0.053000 0.053000 1.200000 0.033000 0.039000
1518201251683080003	1000 47 1.000000 0.423000 0.458000 600 44 0.900000 1.164000 1.051000 600 50 1.000000 0.053000 0.053000 1.200000 0.033000 0.039000
1518201252239100669	1000 47 1.000000 0.422000 0.457000 600 44 0.900000 1.162000 1.049000 600 50 1.000000 0.053000 0.053000 1.200000 0.033000 0.039000
1518201252807009961	1000 47 1.000000 0.423000 0.458000 600 44 0.900000 1.172000 1.058000 600 50 1.000000 0.053000 0.053000 1.200000 0.033000 0.039000
1518201253371110003	1000 47 1.000000 0.423000 0.458000 600 44 0.900000 1.168000 1.054000 600 50 1.000000 0.053000 0.053000 1.200000 0.033000 0.039000
1518201253931053336	1000 47 1.000000 0.423000 0.458000 600 44 0.900000 1.163000 1.050000 600 50 1.000000 0.053000 0.053000 1.200000 0.033000 0.039000
1518201254491056003	1000 47 1.000000 0.423000 0.458000 600 44 0.900000 1.167000 1.053000 600 50 1.000000 0.053000 0.053000 1.200000 0.033000 0.039000
1518201255055076086	1000 47 1.000000 0.423000 0.458000 600 44 0.900000 1.168000 1.057000 600 50 1.000000 0.053000 0.053000 1.200000 0.033000 0.039000
1518201255615024628	1000 47 1.000000 0.423000 0.458000 600 44 0.900000 1.166000 1.052000 600 50 1.000000 0.053000 0.053000 1.200000 0.033000 0.039000
1518201256171050253	1000 47 1.000000 0.423000 0.458000 600 44 0.900000 1.163000 1.050000 600 50 1.000000 0.053000 0.053000 1.200000 0.033000 0.039000
1518201256742992336	1000 47 1.000000 0.423000 0.458000 600 44 0.900000 1.169000 1.055000 600 50 1.000000 0.053000 0.053000 1.200000 0.033000 0.039000
1518201257299072837	1000 47 1.000000 0.423000 0.458000 600 44 0.900000 1.172000 1.058000 600 50 1.000000 0.053000 0.053000 1.200000 0.033000 0.039000
1518201257843105253	1000 47 1.000000 0.423000 0.458000 600 44 0.900000 1.172000 1.058000 600 50 1.000000 0.053000 0.053000 1.200000 0.034000 0.041000
1518201258407123920	1000 47 1.000000 0.423000 0.458000 600 44 0.900000 1.167000 1.053000 600 50 1.000000 0.053000 0.053000 1.200000 0.033000 0.039000
1518201258971119420	1000 47 1.000000 0.423000 0.458000 600 44 0.900000 1.163000 1.050000 600 50 1.000000 0.053000 0.053000 1.200000 0.034000 0.041000
1518201259535059128	1000 47 1.000000 0.423000 0.458000 600 44 0.900000 1.161000 1.048000 600 50 1.000000 0.053000 0.053000 1.200000 0.034000 0.041000
1518201260099058962	1000 47 1.000000 0.423000 0.458000 600 44 0.900000 1.163000 1.050000 600 50 1.000000 0.053000 0.053000 1.200000 0.034000 0.041000
1518201260663087129	1000 47 1.000000 0.423000 0.458000 600 44 0.900000 1.164000 1.051000 600 50 1.000000 0.053000 0.053000 1.200000 0.034000 0.041000
1518201261215123212	1000 47 1.000000 0.423000 0.458000 600 44 0.900000 1.172000 1.058000 600 50 1.000000 0.053000 0.053000 1.200000 0.034000 0.041000
1518201261775040212	1000 47 1.000000 0.423000 0.458000 600 44 0.900000 1.172000 1.060000 600 50 1.000000 0.053000 0.053000 1.200000 0.033000 0.039000
1518201262335130462	1000 47 1.000000 0.423000 0.458000 600 44 0.900000 1.172000 1.060000 600 50 1.000000 0.053000 0.053000 1.200000 0.034000 0.041000
1518201262915039421	1000 47 1.000000 0.423000 0.458000 600 44 0.900000 1.172000 1.060000 600 50 1.000000 0.053000 0.053000 1.200000 0.033000 0.039000
1518201263487017962	1000 47 1.000000 0.423000 0.458000 600 44 0.900000 1.171000 1.057000 600 50 1.000000 0.053000 0.053000 1.200000 0.034000 0.041000
1518201264047032962	1000 47 1.000000 0.423000 0.458000 600 44 0.900000 1.160000 1.049000 600 50 1.000000 0.053000 0.053000 1.200000 0.034000 0.041000
1518201264619081587	1000 47 1.000000 0.423000 0.458000 600 44 0.900000 1.161000 1.050000 600 50 1.000000 0.053000 0.053000 1.200000 0.034000 0.041000
1518201265191025337	1000 47 1.000000 0.423000 0.458000 600 44 0.900000 1.157000 1.044000 600 50 1.000000 0.053000 0.053000 1.200000 0.033000 0.039000
1518201265755097421	1000 47 1.000000 0.423000 0.458000 600 44 0.900000 1.164000 1.053000 600 50 1.000000 0.053000 0.053000 1.200000 0.034000 0.041000
1518201266319019129	1000 47 1.000000 0.423000 0.458000 600 44 0.900000 1.163000 1.050000 600 50 1.000000 0.053000 0.053000 1.200000 0.035000 0.042000
1518201266879022546	1000 47 1.000000 0.423000 0.458000 600 44 0.900000 1.164000 1.051000 600 50 1.000000 0.053000 0.053000 1.200000 0.034000 0.041000
1518201267451077546	1000 47 1.000000 0.423000 0.458000 600 44 0.900000 1.159000 1.046000 600 50 1.000000 0.053000 0.053000 1.200000 0.034000 0.041000
1518201268019065129	1000 47 1.000000 0.423000 0.458000 600 44 0.900000 1.164000 1.051000 600 50 1.000000 0.053000 0.053000 1.200000 0.034000 0.041000
1518201268587048421	1000 47 1.000000 0.423000 0.458000 600 44 0.900000 1.157000 1.044000 600 50 1.000000 0.053000 0.053000 1.200000 0.034000 0.041000
1518201269139053546	1000 47 1.000000 0.423000 0.458000 600 44 0.900000 1.164000 1.051000 600 50 1.000000 0.053000 0.053000 1.200000 0.033000 0.039000
1518201269699012921	1000 47 1.000000 0.423000 0.458000 600 44 0.900000 1.165000 1.054000 600 50 1.000000 0.053000 0.053000 1.200000 0.034000 0.041000
1518201270267055171	1000 47 1.000000 0.423000 0.458000 600 44 0.900000 1.164000 1.051000 600 50 1.000000 0.053000 0.053000 1.200000 0.034000 0.041000
1518201270823031213	1000 47 1.000000 0.423000 0.458000 600 44 0.900000 1.164000 1.053000 600 50 1.000000 0.053000 0.053000 1.200000 0.034000 0.041000
1518201271391091922	1000 47 1.000000 0.423000 0.458000 600 44 0.900000 1.165000 1.054000 600 50 1.000000 0.053000 0.053000 1.200000 0.034000 0.041000
1518201271959096880	1000 47 1.000000 0.423000 0.458000 600 44 0.900000 1.162000 1.049000 600 50 1.000000 0.053000 0.053000 1.200000 0.033000 0.039000
1518201272515054005	1000 47 1.000000 0.423000 0.458000 600 44 0.900000 1.156000 1.043000 600 50 1.000000 0.053000 0.053000 1.200000 0.033000 0.039000
1518201273083059547	1000 47 1.000000 0.423000 0.458000 600 44 0.900000 1.163000 1.050000 600 50 1.000000 0.053000 0.053000 1.200000 0.034000 0.041000
1518201273635150172	1000 47 1.000000 0.423000 0.458000 600 44 0.900000 1.164000 1.051000 600 50 1.000000 0.053000 0.053000 1.200000 0.034000 0.041000
1518201274195006797	1000 47 1.000000 0.423000 0.458000 600 44 0.900000 1.164000 1.051000 600 50 1.000000 0.053000 0.053000 1.200000 0.033000 0.039000
1518201274763111505	1000 47 1.000000 0.423000 0.458000 600 44 0.900000 1.164000 1.051000 600 50 1.000000 0.053000 0.053000 1.200000 0.034000 0.041000
1518201275330994172	1000 47 1.000000 0.423000 0.458000 600 44 0.900000 1.164000 1.051000 600 50 1.000000 0.053000 0.053000 1.200000 0.034000 0.041000
1518201275903104464	1000 47 1.000000 0.423000 0.458000 600 44 0.900000 1.164000 1.051000 600 50 1.000000 0.053000 0.053000 1.200000 0.034000 0.041000
1518201276451038172	1000 47 1.000000 0.423000 0.458000 600 44 0.900000 1.164000 1.051000 600 50 1.000000 0.053000 0.053000 1.200000 0.034000 0.041000
1518201277019069131	1000 47 1.000000 0.423000 0.458000 600 44 0.900000 1.163000 1.050000 600 50 1.000000 0.053000 0.053000 1.200000 0.034000 0.041000
1518201277587088589	1000 47 1.000000 0.423000 0.458000 600 44 0.900000 1.162000 1.049000 600 50 1.000000 0.053000 0.053000 1.200000 0.034000 0.041000
1518201278135085922	1000 47 1.000000 0.423000 0.458000 600 44 0.900000 1.163000 1.050000 600 50 1.000000 0.054000 0.054000 1.200000 0.034000 0.041000
1518201278695107547	1000 47 1.000000 0.423000 0.458000 600 44 0.900000 1.164000 1.051000 600 50 1.000000 0.053000 0.053000 1.200000 0.034000 0.041000
1518201279263138256	1000 47 1.000000 0.423000 0.458000 600 44 0.900000 1.163000 1.050000 600 50 1.000000 0.053000 0.053000 1.200000 0.034000 0.041000
1518201279831083631	1000 47 1.000000 0.423000 0.458000 600 44 0.900000 1.163000 1.050000 600 50 1.000000 0.053000 0.053000 1.200000 0.034000 0.041000
1518201280343086423	1000 47 1.000000 0.423000 0.458000 600 44 0.900000 1.164000 1.051000 600 50 1.000000 0.053000 0.053000 1.200000 0.034000 0.041000
1518201280854755548	1000 45 1.000000 0.423000 0.458000 600 44 0.900000 0.977000 0.881000 600 48 1.000000 0.053000 0.053000 1.200000 0.035000 0.042000
1518201281366417464	1000 45 1.000000 0.422000 0.457000 600 44 0.900000 0.658000 0.592000 600 47 1.000000 0.053000 0.053000 1.200000 0.034000 0.041000
1518201281878000298	1000 44 1.000000 0.422000 0.457000 600 43 0.900000 0.661000 0.595000 600 47 1.000000 0.053000 0.053000 1.200000 0.035000 0.042000
1518201282389533881	1000 44 1.000000 0.422000 0.457000 600 43 0.900000 0.663000 0.597000 600 46 1.000000 0.053000 0.053000 1.200000 0.034000 0.041000
1518201282901172423	1000 43 1.000000 0.422000 0.457000 600 43 0.900000 0.403000 0.366000 600 46 1.000000 0.053000 0.053000 1.200000 0.034000 0.041000
1518201283412688381	1000 43 1.000000 0.422000 0.457000 600 42 0.900000 0.087000 0.079000 600 45 1.000000 0.053000 0.053000 1.200000 0.034000 0.041000
1518201283924003256	1000 42 1.000000 0.422000 0.457000 600 42 0.900000 0.087000 0.079000 600 44 1.000000 0.053000 0.053000 1.200000 0.034000 0.041000
1518201284435489881	1000 42 1.000000 0.422000 0.457000 600 42 0.900000 0.094000 0.085000 600 44 1.000000 0.053000 0.053000 1.200000 0.034000 0.041000
1518201284946946090	1000 42 1.000000 0.422000 0.457000 600 42 0.900000 0.095000 0.086000 600 44 1.000000 0.053000 0.053000 1.200000 0.034000 0.041000
1518201285458483840	1000 42 1.000000 0.422000 0.457000 600 41 0.900000 0.091000 0.082000 600 44 1.000000 0.053000 0.053000 1.200000 0.034000 0.041000
1518201285970072298	1000 42 1.000000 0.422000 0.457000 600 41 0.900000 0.084000 0.076000 600 44 1.000000 0.053000 0.053000 1.200000 0.035000 0.042000
1518201286481429298	1000 42 1.000000 0.422000 0.457000 600 41 0.900000 0.087000 0.079000 600 44 1.000000 0.053000 0.053000 1.200000 0.034000 0.041000
1518201286992805798	1000 41 1.000000 0.422000 0.457000 600 41 0.900000 0.092000 0.083000 600 43 1.000000 0.053000 0.053000 1.200000 0.034000 0.041000
1518201287504323840	1000 41 1.000000 0.422000 0.457000 600 41 0.900000 0.093000 0.084000 600 43 1.000000 0.053000 0.053000 1.200000 0.034000 0.041000
1518201288016099715	1000 41 1.000000 0.422000 0.457000 600 41 0.900000 0.089000 0.081000 600 43 1.000000 0.053000 0.053000 1.200000 0.034000 0.041000
1518201288527681090	1000 41 1.000000 0.421000 0.456000 600 41 0.900000 0.087000 0.079000 600 43 1.000000 0.053000 0.053000 1.200000 0.034000 0.041000
1518201289039241465	1000 41 1.000000 0.421000 0.456000 600 41 0.900000 0.086000 0.078000 600 43 1.000000 0.053000 0.053000 1.200000 0.035000 0.042000
1518201289550625215	1000 41 1.000000 0.421000 0.456000 600 41 0.900000 0.092000 0.083000 600 43 1.000000 0.053000 0.053000 1.200000 0.034000 0.041000
1518201290061991840	1000 41 1.000000 0.421000 0.456000 600 41 0.900000 0.094000 0.085000 600 43 1.000000 0.053000 0.053000 1.200000 0.034000 0.041000
1518201290573363382	1000 41 1.000000 0.421000 0.456000 600 40 0.900000 0.088000 0.080000 600 43 1.000000 0.053000 0.053000 1.200000 0.034000 0.041000
1518201291084971174	1000 41 1.000000 0.422000 0.457000 600 40 0.900000 0.085000 0.077000 600 43 1.000000 0.053000 0.053000 1.200000 0.034000 0.041000
1518201291596527841	1000 41 1.000000 0.422000 0.457000 600 40 0.900000 0.089000 0.081000 600 43 1.000000 0.053000 0.053000 1.200000 0.034000 0.041000
1518201292108046591	1000 41 1.000000 0.421000 0.456000 600 40 0.900000 0.093000 0.084000 600 42 1.000000 0.053000 0.053000 1.200000 0.034000 0.041000
1518201292619651882	1000 41 1.000000 0.422000 0.457000 600 40 0.900000 0.078000 0.071000 600 42 1.000000 0.053000 0.053000 1.200000 0.034000 0.041000
1518201293131156132	1000 40 1.000000 0.422000 0.457000 600 40 0.900000 0.079000 0.072000 600 42 1.000000 0.053000 0.053000 1.200000 0.034000 0.041000
1518201293642438424	1000 40 1.000000 0.421000 0.456000 600 40 0.900000 0.080000 0.072000 600 42 1.000000 0.053000 0.053000 1.200000 0.035000 0.042000
1518201294153946258	1000 40 1.000000 0.421000 0.456000 600 40 0.900000 0.086000 0.078000 600 42 1.000000 0.053000 0.053000 1.200000 0.035000 0.042000
1518201294665429633	1000 40 1.000000 0.421000 0.456000 600 40 0.900000 0.091000 0.082000 600 42 1.000000 0.053000 0.053000 1.200000 0.035000 0.042000
1518201295177060466	1000 40 1.000000 0.421000 0.456000 600 40 0.900000 0.091000 0.082000 600 42 1.000000 0.053000 0.053000 1.200000 0.035000 0.042000
1518201295688499424	1000 40 1.000000 0.421000 0.456000 600 40 0.900000 0.089000 0.081000 600 42 1.000000 0.053000 0.053000 1.200000 0.035000 0.042000
1518201296200087174	1000 40 1.000000 0.421000 0.456000 600 40 0.900000 0.086000 0.078000 600 42 1.000000 0.053000 0.053000 1.200000 0.035000 0.042000
1518201296711870133	1000 40 1.000000 0.421000 0.456000 600 40 0.900000 0.089000 0.081000 600 42 1.000000 0.053000 0.053000 1.200000 0.034000 0.041000
1518201297223484550	1000 40 1.000000 0.421000 0.456000 600 40 0.900000 0.090000 0.082000 600 42 1.000000 0.053000 0.053000 1.200000 0.034000 0.041000
1518201297734836883	1000 40 1.000000 0.421000 0.456000 600 40 0.900000 0.093000 0.084000 600 42 1.000000 0.053000 0.053000 1.200000 0.034000 0.041000
1518201298246262091	1000 40 1.000000 0.421000 0.456000 600 40 0.900000 0.093000 0.084000 600 42 1.000000 0.053000 0.053000 1.200000 0.035000 0.042000
1518201298760514300	1000 40 1.000000 0.287000 0.311000 600 39 0.900000 0.082000 0.074000 600 42 1.000000 0.053000 0.053000 1.200000 0.031000 0.037000
1518201299272600008	1000 39 1.100000 0.047000 0.051000 600 38 0.900000 0.112000 0.102000 600 42 1.000000 0.053000 0.053000 1.200000 0.023000 0.027000
1518201299784325342	1000 38 1.100000 0.046000 0.050000 600 38 0.900000 0.070000 0.063000 600 42 1.000000 0.053000 0.053000 1.200000 0.023000 0.027000
