#Timestamp	CPU(0) Frequency(MHz)	CPU(0) Temperature(C)	A7 Voltage(V)	A7 Current(A)	A7 Power(W)	CPU(4) Frequency(MHz)	CPU(4) Temperature(C)	A15 Voltage(V)	A15 Current(A)	A15 Power(W)	GPU Frequency(MHz)	GPU Temperature(C)	GPU Voltage(V)	GPU Current(A)	GPU Power(W)	RAM Voltage(V)	RAM Current(A)	RAM Power(W)
1538200349603518209	1100 25 1.100000 0.051000 0.058000 500 21 0.900000 0.182000 0.165000 600 26 1.000000 0.050000 0.050000 1.200000 0.038000 0.045000
1538200350155514376	1100 26 1.100000 0.470000 0.526000 500 23 0.900000 0.944000 0.852000 600 28 1.000000 0.050000 0.050000 1.200000 0.035000 0.042000
1538200350711536126	1100 27 1.100000 0.471000 0.527000 500 23 0.900000 0.945000 0.855000 600 28 1.000000 0.050000 0.050000 1.200000 0.035000 0.042000
1538200351255616334	1100 27 1.100000 0.473000 0.530000 500 23 0.900000 0.946000 0.854000 600 29 1.000000 0.050000 0.050000 1.200000 0.034000 0.041000
1538200351811451043	1100 27 1.100000 0.471000 0.527000 500 24 0.900000 0.946000 0.854000 600 29 1.000000 0.050000 0.050000 1.200000 0.033000 0.039000
1538200352371543293	1100 27 1.100000 0.472000 0.529000 500 24 0.900000 0.947000 0.855000 600 29 1.000000 0.050000 0.050000 1.200000 0.033000 0.039000
1538200352923568418	1100 28 1.100000 0.471000 0.527000 500 24 0.900000 0.946000 0.854000 600 29 1.000000 0.050000 0.050000 1.200000 0.033000 0.039000
1538200353487494501	1100 28 1.100000 0.471000 0.527000 500 24 0.900000 0.947000 0.855000 600 29 1.000000 0.050000 0.050000 1.200000 0.033000 0.039000
1538200354043480959	1100 28 1.100000 0.471000 0.527000 500 24 0.900000 0.946000 0.854000 600 30 1.000000 0.050000 0.050000 1.200000 0.034000 0.041000
1538200354611520668	1100 28 1.100000 0.471000 0.527000 500 25 0.900000 0.946000 0.854000 600 30 1.000000 0.050000 0.050000 1.200000 0.034000 0.041000
1538200355171575501	1100 28 1.100000 0.472000 0.529000 500 24 0.900000 0.947000 0.855000 600 30 1.000000 0.050000 0.050000 1.200000 0.036000 0.043000
1538200355727475251	1100 28 1.100000 0.472000 0.529000 500 25 0.900000 0.946000 0.854000 600 30 1.000000 0.050000 0.050000 1.200000 0.035000 0.042000
1538200356283469501	1100 28 1.100000 0.470000 0.526000 500 25 0.900000 0.946000 0.854000 600 30 1.000000 0.050000 0.050000 1.200000 0.035000 0.042000
1538200356839487376	1100 28 1.100000 0.474000 0.531000 500 25 0.900000 0.947000 0.855000 600 30 1.000000 0.050000 0.050000 1.200000 0.033000 0.039000
1538200357399513710	1100 28 1.100000 0.473000 0.530000 500 25 0.900000 0.947000 0.855000 600 30 1.000000 0.050000 0.050000 1.200000 0.033000 0.039000
1538200357967421293	1100 28 1.100000 0.472000 0.529000 500 25 0.900000 0.946000 0.854000 600 30 1.000000 0.050000 0.050000 1.200000 0.033000 0.039000
1538200358523458752	1100 28 1.100000 0.473000 0.530000 500 25 0.900000 0.947000 0.855000 600 30 1.000000 0.050000 0.050000 1.200000 0.033000 0.039000
1538200359095506627	1100 28 1.100000 0.474000 0.531000 500 25 0.900000 0.946000 0.854000 600 30 1.000000 0.050000 0.050000 1.200000 0.033000 0.039000
1538200359643513502	1100 28 1.100000 0.471000 0.527000 500 25 0.900000 0.947000 0.855000 600 30 1.000000 0.050000 0.050000 1.200000 0.035000 0.042000
1538200360207472752	1100 28 1.100000 0.473000 0.530000 500 25 0.900000 0.947000 0.855000 600 30 1.000000 0.050000 0.050000 1.200000 0.034000 0.041000
1538200360767507960	1100 28 1.100000 0.472000 0.529000 500 25 0.900000 0.946000 0.854000 600 30 1.000000 0.050000 0.050000 1.200000 0.034000 0.041000
1538200361323423835	1100 28 1.100000 0.475000 0.532000 500 25 0.900000 0.948000 0.856000 600 30 1.000000 0.050000 0.050000 1.200000 0.033000 0.039000
1538200361883489710	1100 28 1.100000 0.474000 0.531000 500 25 0.900000 0.947000 0.855000 600 30 1.000000 0.050000 0.050000 1.200000 0.033000 0.039000
1538200362447532627	1100 28 1.100000 0.475000 0.532000 500 25 0.900000 0.948000 0.856000 600 30 1.000000 0.050000 0.050000 1.200000 0.033000 0.039000
1538200362999475336	1100 28 1.100000 0.475000 0.532000 500 25 0.900000 0.946000 0.854000 600 30 1.000000 0.050000 0.050000 1.200000 0.033000 0.039000
1538200363559546169	1100 28 1.100000 0.474000 0.531000 500 25 0.900000 0.946000 0.854000 600 30 1.000000 0.050000 0.050000 1.200000 0.033000 0.039000
1538200364123681211	1100 28 1.100000 0.473000 0.530000 500 25 0.900000 0.947000 0.855000 600 30 1.000000 0.050000 0.050000 1.200000 0.033000 0.039000
1538200364687524002	1100 28 1.100000 0.473000 0.530000 500 25 0.900000 0.945000 0.853000 600 30 1.000000 0.050000 0.050000 1.200000 0.034000 0.041000
1538200365243409669	1100 28 1.100000 0.470000 0.526000 500 25 0.900000 0.947000 0.855000 600 30 1.000000 0.050000 0.050000 1.200000 0.034000 0.041000
1538200365807485711	1100 28 1.100000 0.474000 0.531000 500 25 0.900000 0.948000 0.856000 600 30 1.000000 0.050000 0.050000 1.200000 0.033000 0.039000
1538200366367531544	1100 29 1.100000 0.474000 0.531000 500 25 0.900000 0.948000 0.856000 600 30 1.000000 0.050000 0.050000 1.200000 0.033000 0.039000
1538200366931463503	1100 29 1.100000 0.474000 0.531000 500 25 0.900000 0.948000 0.856000 600 30 1.000000 0.050000 0.050000 1.200000 0.033000 0.039000
1538200367495503378	1100 29 1.100000 0.474000 0.531000 500 25 0.900000 0.948000 0.856000 600 30 1.000000 0.050000 0.050000 1.200000 0.033000 0.039000
1538200368051464919	1100 29 1.100000 0.473000 0.530000 500 25 0.900000 0.946000 0.854000 600 30 1.000000 0.050000 0.050000 1.200000 0.032000 0.038000
1538200368611515586	1100 29 1.100000 0.473000 0.530000 500 25 0.900000 0.946000 0.854000 600 30 1.000000 0.050000 0.050000 1.200000 0.033000 0.039000
1538200369179503336	1100 29 1.100000 0.473000 0.530000 500 25 0.900000 0.946000 0.854000 600 30 1.000000 0.050000 0.050000 1.200000 0.034000 0.041000
1538200369739504086	1100 29 1.100000 0.472000 0.529000 500 25 0.900000 0.947000 0.855000 600 30 1.000000 0.050000 0.050000 1.200000 0.034000 0.041000
1538200370307518670	1100 29 1.100000 0.473000 0.530000 500 25 0.900000 0.958000 0.865000 600 30 1.000000 0.050000 0.050000 1.200000 0.032000 0.038000
1538200370867524420	1100 29 1.100000 0.472000 0.529000 500 25 0.900000 0.959000 0.865000 600 31 1.000000 0.050000 0.050000 1.200000 0.032000 0.038000
1538200371427464837	1100 29 1.100000 0.473000 0.530000 500 25 0.900000 0.958000 0.865000 600 30 1.000000 0.050000 0.050000 1.200000 0.033000 0.039000
1538200371983439628	1100 29 1.100000 0.472000 0.529000 500 25 0.900000 0.958000 0.865000 600 30 1.000000 0.050000 0.050000 1.200000 0.032000 0.038000
1538200372539448670	1100 29 1.100000 0.472000 0.529000 500 25 0.900000 0.959000 0.865000 600 30 1.000000 0.050000 0.050000 1.200000 0.032000 0.038000
1538200373095462170	1100 29 1.100000 0.475000 0.532000 500 25 0.900000 0.957000 0.864000 600 30 1.000000 0.050000 0.050000 1.200000 0.034000 0.041000
1538200373663494087	1100 29 1.100000 0.473000 0.530000 500 25 0.900000 0.957000 0.864000 600 30 1.000000 0.050000 0.050000 1.200000 0.034000 0.041000
1538200374219504212	1100 29 1.100000 0.471000 0.527000 500 25 0.900000 0.958000 0.865000 600 30 1.000000 0.050000 0.050000 1.200000 0.033000 0.039000
1538200374783525337	1100 29 1.100000 0.475000 0.532000 500 25 0.900000 0.957000 0.864000 600 30 1.000000 0.050000 0.050000 1.200000 0.035000 0.042000
1538200375339426129	1100 29 1.100000 0.475000 0.532000 500 25 0.900000 0.958000 0.865000 600 30 1.000000 0.050000 0.050000 1.200000 0.034000 0.041000
1538200375891454920	1100 29 1.100000 0.475000 0.532000 500 25 0.900000 0.958000 0.865000 600 30 1.000000 0.050000 0.050000 1.200000 0.034000 0.041000
1538200376443486545	1100 29 1.100000 0.475000 0.532000 500 25 0.900000 0.958000 0.865000 600 30 1.000000 0.050000 0.050000 1.200000 0.035000 0.042000
1538200377011507421	1100 29 1.100000 0.473000 0.530000 500 25 0.900000 0.957000 0.864000 600 30 1.000000 0.050000 0.050000 1.200000 0.035000 0.042000
1538200377571500504	1100 29 1.100000 0.473000 0.530000 500 25 0.900000 0.957000 0.864000 600 31 1.000000 0.050000 0.050000 1.200000 0.033000 0.039000
1538200378123528546	1100 29 1.100000 0.473000 0.530000 500 25 0.900000 0.957000 0.864000 600 30 1.000000 0.050000 0.050000 1.200000 0.035000 0.042000
1538200378679437962	1100 29 1.100000 0.473000 0.530000 500 25 0.900000 0.958000 0.865000 600 30 1.000000 0.050000 0.050000 1.200000 0.034000 0.041000
1538200379235553171	1100 29 1.100000 0.473000 0.530000 500 25 0.900000 0.958000 0.865000 600 30 1.000000 0.050000 0.050000 1.200000 0.034000 0.041000
1538200379795481838	1100 29 1.100000 0.475000 0.532000 500 25 0.900000 0.958000 0.865000 600 30 1.000000 0.050000 0.050000 1.200000 0.033000 0.039000
1538200380367512546	1100 29 1.100000 0.475000 0.532000 500 25 0.900000 0.958000 0.865000 600 31 1.000000 0.050000 0.050000 1.200000 0.035000 0.042000
1538200380931495754	1100 29 1.100000 0.475000 0.532000 500 25 0.900000 0.958000 0.865000 600 31 1.000000 0.050000 0.050000 1.200000 0.034000 0.041000
1538200381495580796	1100 29 1.100000 0.475000 0.532000 500 25 0.900000 0.959000 0.865000 600 30 1.000000 0.050000 0.050000 1.200000 0.035000 0.042000
1538200382063513838	1100 29 1.100000 0.475000 0.532000 500 25 0.900000 0.958000 0.865000 600 31 1.000000 0.050000 0.050000 1.200000 0.035000 0.042000
1538200382615613880	1100 29 1.100000 0.474000 0.531000 500 25 0.900000 0.957000 0.864000 600 31 1.000000 0.050000 0.050000 1.200000 0.036000 0.043000
1538200383179527838	1100 29 1.100000 0.474000 0.531000 500 25 0.900000 0.957000 0.864000 600 31 1.000000 0.050000 0.050000 1.200000 0.035000 0.042000
1538200383743501380	1100 29 1.100000 0.473000 0.530000 500 25 0.900000 0.958000 0.865000 600 31 1.000000 0.050000 0.050000 1.200000 0.033000 0.039000
1538200384307467088	1100 29 1.100000 0.473000 0.530000 500 25 0.900000 0.959000 0.865000 600 31 1.000000 0.050000 0.050000 1.200000 0.033000 0.039000
1538200384859569088	1100 29 1.100000 0.473000 0.530000 500 25 0.900000 0.959000 0.865000 600 31 1.000000 0.050000 0.050000 1.200000 0.034000 0.041000
1538200385423492963	1100 29 1.100000 0.473000 0.530000 500 25 0.900000 0.958000 0.865000 600 31 1.000000 0.050000 0.050000 1.200000 0.034000 0.041000
1538200385979479172	1100 29 1.100000 0.472000 0.529000 500 25 0.900000 0.958000 0.865000 600 31 1.000000 0.050000 0.050000 1.200000 0.035000 0.042000
1538200386539523463	1100 29 1.100000 0.473000 0.530000 500 25 0.900000 0.958000 0.865000 600 31 1.000000 0.050000 0.050000 1.200000 0.035000 0.042000
1538200387103576838	1100 29 1.100000 0.473000 0.530000 500 25 0.900000 0.957000 0.864000 600 31 1.000000 0.050000 0.050000 1.200000 0.035000 0.042000
1538200387667539380	1100 29 1.100000 0.475000 0.532000 500 25 0.900000 0.957000 0.864000 600 31 1.000000 0.050000 0.050000 1.200000 0.035000 0.042000
1538200388219513339	1100 29 1.100000 0.477000 0.534000 500 25 0.900000 0.957000 0.864000 600 31 1.000000 0.050000 0.050000 1.200000 0.034000 0.041000
1538200388771449922	1100 29 1.100000 0.477000 0.534000 500 26 0.900000 0.957000 0.864000 600 31 1.000000 0.050000 0.050000 1.200000 0.033000 0.039000
1538200389335881005	1100 29 1.100000 0.478000 0.535000 500 26 0.900000 0.957000 0.864000 600 31 1.000000 0.050000 0.050000 1.200000 0.034000 0.041000
1538200389895411964	1100 29 1.100000 0.475000 0.532000 500 25 0.900000 0.957000 0.864000 600 31 1.000000 0.050000 0.050000 1.200000 0.034000 0.041000
1538200390463533797	1100 29 1.100000 0.475000 0.532000 500 25 0.900000 0.953000 0.860000 600 31 1.000000 0.050000 0.050000 1.200000 0.034000 0.041000
1538200391031516506	1100 29 1.100000 0.476000 0.533000 500 25 0.900000 0.954000 0.861000 600 31 1.000000 0.050000 0.050000 1.200000 0.034000 0.041000
1538200391587533881	1100 29 1.100000 0.475000 0.532000 500 25 0.900000 0.957000 0.864000 600 31 1.000000 0.050000 0.050000 1.200000 0.034000 0.041000
1538200392131539422	1100 29 1.100000 0.474000 0.531000 500 25 0.900000 0.956000 0.863000 600 31 1.000000 0.050000 0.050000 1.200000 0.035000 0.042000
1538200392687456172	1100 29 1.100000 0.475000 0.532000 500 25 0.900000 0.956000 0.863000 600 31 1.000000 0.050000 0.050000 1.200000 0.035000 0.042000
1538200393251548422	1100 29 1.100000 0.478000 0.535000 500 26 0.900000 0.956000 0.863000 600 31 1.000000 0.050000 0.050000 1.200000 0.033000 0.039000
1538200393803402631	1100 29 1.100000 0.477000 0.534000 500 25 0.900000 0.956000 0.863000 600 30 1.000000 0.050000 0.050000 1.200000 0.034000 0.041000
1538200394363517256	1100 29 1.100000 0.477000 0.534000 500 25 0.900000 0.957000 0.864000 600 31 1.000000 0.050000 0.050000 1.200000 0.033000 0.039000
1538200394919483631	1100 29 1.100000 0.477000 0.534000 500 25 0.900000 0.956000 0.863000 600 31 1.000000 0.050000 0.050000 1.200000 0.033000 0.039000
1538200395475440131	1100 29 1.100000 0.477000 0.534000 500 26 0.900000 0.956000 0.863000 600 31 1.000000 0.050000 0.050000 1.200000 0.035000 0.042000
1538200396035510381	1100 29 1.100000 0.473000 0.530000 500 25 0.900000 0.955000 0.862000 600 31 1.000000 0.050000 0.050000 1.200000 0.034000 0.041000
1538200396591522840	1100 29 1.100000 0.476000 0.533000 500 25 0.900000 0.956000 0.863000 600 31 1.000000 0.050000 0.050000 1.200000 0.035000 0.042000
1538200397155386465	1100 29 1.100000 0.473000 0.530000 500 25 0.900000 0.956000 0.863000 600 31 1.000000 0.050000 0.050000 1.200000 0.036000 0.043000
1538200397715425923	1100 29 1.100000 0.477000 0.534000 500 25 0.900000 0.957000 0.864000 600 31 1.000000 0.050000 0.050000 1.200000 0.033000 0.039000
1538200398271455048	1100 29 1.100000 0.477000 0.534000 500 25 0.900000 0.957000 0.864000 600 31 1.000000 0.050000 0.050000 1.200000 0.033000 0.039000
1538200398831461381	1100 29 1.100000 0.477000 0.534000 500 26 0.900000 0.956000 0.863000 600 31 1.000000 0.050000 0.050000 1.200000 0.033000 0.039000
1538200399383511382	1100 29 1.100000 0.477000 0.534000 500 25 0.900000 0.955000 0.862000 600 31 1.000000 0.050000 0.050000 1.200000 0.033000 0.039000
1538200399947557465	1100 29 1.100000 0.477000 0.534000 500 25 0.900000 0.957000 0.864000 600 31 1.000000 0.050000 0.050000 1.200000 0.033000 0.039000
1538200400503545548	1100 29 1.100000 0.475000 0.532000 500 25 0.900000 0.956000 0.863000 600 31 1.000000 0.050000 0.050000 1.200000 0.035000 0.042000
1538200401067467882	1100 29 1.100000 0.477000 0.534000 500 25 0.900000 0.956000 0.863000 600 31 1.000000 0.050000 0.050000 1.200000 0.034000 0.041000
1538200401631445465	1100 29 1.100000 0.475000 0.532000 500 25 0.900000 0.955000 0.862000 600 31 1.000000 0.050000 0.050000 1.200000 0.036000 0.043000
1538200402195494549	1100 29 1.100000 0.475000 0.532000 500 25 0.900000 0.955000 0.862000 600 31 1.000000 0.050000 0.050000 1.200000 0.036000 0.043000
1538200402759501007	1100 29 1.100000 0.474000 0.531000 500 25 0.900000 0.957000 0.864000 600 31 1.000000 0.050000 0.050000 1.200000 0.033000 0.039000
1538200403315450382	1100 29 1.100000 0.475000 0.532000 500 25 0.900000 0.957000 0.864000 600 31 1.000000 0.050000 0.050000 1.200000 0.033000 0.039000
1538200403879493674	1100 29 1.100000 0.473000 0.530000 500 25 0.900000 0.957000 0.864000 600 31 1.000000 0.050000 0.050000 1.200000 0.033000 0.039000
1538200404443429591	1100 29 1.100000 0.474000 0.531000 500 25 0.900000 0.956000 0.863000 600 31 1.000000 0.050000 0.050000 1.200000 0.033000 0.039000
1538200404999446091	1100 29 1.100000 0.475000 0.532000 500 25 0.900000 0.955000 0.862000 600 31 1.000000 0.050000 0.050000 1.200000 0.034000 0.041000
1538200405563517424	1100 29 1.100000 0.475000 0.532000 500 25 0.900000 0.955000 0.862000 600 31 1.000000 0.050000 0.050000 1.200000 0.034000 0.041000
1538200406131530632	1100 29 1.100000 0.474000 0.531000 500 25 0.900000 0.956000 0.863000 600 31 1.000000 0.050000 0.050000 1.200000 0.036000 0.043000
1538200406687575757	1100 29 1.100000 0.477000 0.534000 500 25 0.900000 0.957000 0.864000 600 31 1.000000 0.050000 0.050000 1.200000 0.031000 0.037000
1538200407255517633	1100 29 1.100000 0.477000 0.534000 500 25 0.900000 0.956000 0.863000 600 31 1.000000 0.050000 0.050000 1.200000 0.031000 0.037000
1538200407815470216	1100 29 1.100000 0.477000 0.534000 500 25 0.900000 0.957000 0.864000 600 31 1.000000 0.050000 0.050000 1.200000 0.031000 0.037000
1538200408371517966	1100 29 1.100000 0.477000 0.534000 500 25 0.900000 0.956000 0.863000 600 31 1.000000 0.050000 0.050000 1.200000 0.031000 0.037000
1538200408927435258	1100 29 1.100000 0.473000 0.530000 500 25 0.900000 0.956000 0.863000 600 31 1.000000 0.050000 0.050000 1.200000 0.032000 0.038000
1538200409495532341	1100 29 1.100000 0.474000 0.531000 500 25 0.900000 0.956000 0.863000 600 31 1.000000 0.050000 0.050000 1.200000 0.031000 0.037000
1538200410055896425	1100 29 1.100000 0.475000 0.532000 500 25 0.900000 0.955000 0.862000 600 31 1.000000 0.050000 0.050000 1.200000 0.032000 0.038000
1538200410607539508	1100 29 1.100000 0.474000 0.531000 500 25 0.900000 0.955000 0.862000 600 31 1.000000 0.050000 0.050000 1.200000 0.033000 0.039000
1538200411167469591	1100 29 1.100000 0.474000 0.531000 500 25 0.900000 0.956000 0.863000 600 31 1.000000 0.050000 0.050000 1.200000 0.033000 0.039000
1538200411727431050	1100 29 1.100000 0.477000 0.534000 500 25 0.900000 0.955000 0.862000 600 31 1.000000 0.050000 0.050000 1.200000 0.031000 0.037000
1538200412291513466	1100 29 1.100000 0.477000 0.534000 500 25 0.900000 0.956000 0.863000 600 31 1.000000 0.050000 0.050000 1.200000 0.031000 0.037000
1538200412863517467	1100 29 1.100000 0.477000 0.534000 500 25 0.900000 0.955000 0.862000 600 31 1.000000 0.050000 0.050000 1.200000 0.031000 0.037000
1538200413427464050	1100 29 1.100000 0.477000 0.534000 500 25 0.900000 0.955000 0.862000 600 31 1.000000 0.050000 0.050000 1.200000 0.031000 0.037000
1538200413995517467	1100 29 1.100000 0.475000 0.532000 500 25 0.900000 0.954000 0.861000 600 31 1.000000 0.050000 0.050000 1.200000 0.031000 0.037000
1538200414559450050	1100 29 1.100000 0.475000 0.532000 500 25 0.900000 0.955000 0.862000 600 31 1.000000 0.050000 0.050000 1.200000 0.032000 0.038000
1538200415115492925	1100 29 1.100000 0.476000 0.533000 500 25 0.900000 0.955000 0.862000 600 31 1.000000 0.050000 0.050000 1.200000 0.033000 0.039000
1538200415671521092	1100 29 1.100000 0.474000 0.531000 500 25 0.900000 0.956000 0.863000 600 31 1.000000 0.050000 0.050000 1.200000 0.031000 0.037000
1538200416227430592	1100 29 1.100000 0.476000 0.533000 500 25 0.900000 0.956000 0.863000 600 31 1.000000 0.050000 0.050000 1.200000 0.031000 0.037000
1538200416791523967	1100 29 1.100000 0.477000 0.534000 500 25 0.900000 0.956000 0.863000 600 31 1.000000 0.050000 0.050000 1.200000 0.031000 0.037000
1538200417343475217	1100 29 1.100000 0.475000 0.532000 500 25 0.900000 0.956000 0.863000 600 31 1.000000 0.050000 0.050000 1.200000 0.031000 0.037000
1538200417907449467	1100 29 1.100000 0.476000 0.533000 500 26 0.900000 0.956000 0.863000 600 31 1.000000 0.050000 0.050000 1.200000 0.031000 0.037000
1538200418475507009	1100 29 1.100000 0.477000 0.534000 500 25 0.900000 0.955000 0.862000 600 31 1.000000 0.050000 0.050000 1.200000 0.033000 0.039000
1538200419043486842	1100 29 1.100000 0.477000 0.534000 500 25 0.900000 0.954000 0.861000 600 31 1.000000 0.050000 0.050000 1.200000 0.032000 0.038000
1538200419603499301	1100 29 1.100000 0.477000 0.534000 500 25 0.900000 0.955000 0.862000 600 31 1.000000 0.050000 0.050000 1.200000 0.031000 0.037000
1538200420167540176	1100 29 1.100000 0.477000 0.534000 500 25 0.900000 0.955000 0.862000 600 31 1.000000 0.050000 0.050000 1.200000 0.032000 0.038000
1538200420731478842	1100 29 1.100000 0.477000 0.534000 500 25 0.900000 0.955000 0.862000 600 31 1.000000 0.050000 0.050000 1.200000 0.032000 0.038000
1538200421295472926	1100 29 1.100000 0.477000 0.534000 500 25 0.900000 0.956000 0.863000 600 31 1.000000 0.050000 0.050000 1.200000 0.032000 0.038000
1538200421859490801	1100 29 1.100000 0.476000 0.533000 500 25 0.900000 0.956000 0.863000 600 31 1.000000 0.050000 0.050000 1.200000 0.032000 0.038000
1538200422419432509	1100 29 1.100000 0.475000 0.532000 500 25 0.900000 0.956000 0.863000 600 31 1.000000 0.050000 0.050000 1.200000 0.032000 0.038000
1538200422983873926	1100 29 1.100000 0.475000 0.532000 500 25 0.900000 0.955000 0.862000 600 31 1.000000 0.050000 0.050000 1.200000 0.033000 0.039000
1538200423547523926	1100 29 1.100000 0.475000 0.532000 500 25 0.900000 0.954000 0.861000 600 31 1.000000 0.050000 0.050000 1.200000 0.033000 0.039000
1538200424111492968	1100 29 1.100000 0.478000 0.535000 500 25 0.900000 0.956000 0.863000 600 31 1.000000 0.050000 0.050000 1.200000 0.032000 0.038000
1538200424675484760	1100 29 1.100000 0.477000 0.534000 500 25 0.900000 0.956000 0.863000 600 31 1.000000 0.050000 0.050000 1.200000 0.033000 0.039000
1538200425239491343	1100 29 1.100000 0.477000 0.534000 500 25 0.900000 0.956000 0.863000 600 31 1.000000 0.050000 0.050000 1.200000 0.033000 0.039000
1538200425803499343	1100 29 1.100000 0.478000 0.535000 500 26 0.900000 0.956000 0.863000 600 31 1.000000 0.050000 0.050000 1.200000 0.034000 0.041000
1538200426367527385	1100 29 1.100000 0.477000 0.534000 500 25 0.900000 0.956000 0.863000 600 31 1.000000 0.050000 0.050000 1.200000 0.035000 0.042000
1538200426927442302	1100 29 1.100000 0.476000 0.533000 500 25 0.900000 0.956000 0.863000 600 31 1.000000 0.050000 0.050000 1.200000 0.034000 0.041000
1538200427487516427	1100 29 1.100000 0.476000 0.533000 500 25 0.900000 0.955000 0.862000 600 31 1.000000 0.050000 0.050000 1.200000 0.036000 0.043000
1538200428043480385	1100 29 1.100000 0.477000 0.534000 500 25 0.900000 0.956000 0.863000 600 31 1.000000 0.050000 0.050000 1.200000 0.035000 0.042000
1538200428603519427	1100 29 1.100000 0.476000 0.533000 500 25 0.900000 0.955000 0.862000 600 31 1.000000 0.050000 0.050000 1.200000 0.034000 0.041000
1538200429163458052	1100 29 1.100000 0.477000 0.534000 500 25 0.900000 0.955000 0.862000 600 31 1.000000 0.050000 0.050000 1.200000 0.035000 0.042000
1538200429727524302	1100 29 1.100000 0.474000 0.531000 500 25 0.900000 0.955000 0.862000 600 31 1.000000 0.050000 0.050000 1.200000 0.035000 0.042000
1538200430283447760	1100 29 1.100000 0.475000 0.532000 500 25 0.900000 0.955000 0.862000 600 31 1.000000 0.050000 0.050000 1.200000 0.036000 0.043000
1538200430847505510	1100 29 1.100000 0.475000 0.532000 500 25 0.900000 0.955000 0.862000 600 31 1.000000 0.050000 0.050000 1.200000 0.036000 0.043000
1538200431399500594	1100 29 1.100000 0.474000 0.531000 500 25 0.900000 0.954000 0.861000 600 31 1.000000 0.050000 0.050000 1.200000 0.035000 0.042000
1538200431967517510	1100 29 1.100000 0.473000 0.530000 500 25 0.900000 0.956000 0.863000 600 31 1.000000 0.050000 0.050000 1.200000 0.035000 0.042000
1538200432523541011	1100 29 1.100000 0.473000 0.530000 500 25 0.900000 0.956000 0.863000 600 31 1.000000 0.050000 0.050000 1.200000 0.035000 0.042000
1538200433079410552	1100 29 1.100000 0.477000 0.534000 500 25 0.900000 0.957000 0.864000 600 31 1.000000 0.050000 0.050000 1.200000 0.033000 0.039000
1538200433647490927	1100 29 1.100000 0.478000 0.535000 500 25 0.900000 0.956000 0.863000 600 31 1.000000 0.050000 0.050000 1.200000 0.034000 0.041000
1538200434199580261	1100 29 1.100000 0.478000 0.535000 500 25 0.900000 0.957000 0.864000 600 31 1.000000 0.050000 0.050000 1.200000 0.035000 0.042000
1538200434763485136	1100 29 1.100000 0.477000 0.534000 500 25 0.900000 0.956000 0.863000 600 31 1.000000 0.050000 0.050000 1.200000 0.035000 0.042000
1538200435315491969	1100 29 1.100000 0.477000 0.534000 500 26 0.900000 0.956000 0.863000 600 31 1.000000 0.050000 0.050000 1.200000 0.034000 0.041000
1538200435875515094	1100 29 1.100000 0.476000 0.533000 500 25 0.900000 0.956000 0.863000 600 31 1.000000 0.050000 0.050000 1.200000 0.035000 0.042000
1538200436435469136	1100 29 1.100000 0.475000 0.532000 500 25 0.900000 0.955000 0.862000 600 31 1.000000 0.050000 0.050000 1.200000 0.035000 0.042000
1538200436991497469	1100 29 1.100000 0.476000 0.533000 500 25 0.900000 0.956000 0.863000 600 31 1.000000 0.050000 0.050000 1.200000 0.035000 0.042000
1538200437559424011	1100 29 1.100000 0.474000 0.531000 500 25 0.900000 0.956000 0.863000 600 31 1.000000 0.050000 0.050000 1.200000 0.034000 0.041000
1538200438103451886	1100 29 1.100000 0.478000 0.535000 500 25 0.900000 0.956000 0.863000 600 31 1.000000 0.050000 0.050000 1.200000 0.034000 0.041000
1538200438671415595	1100 29 1.100000 0.477000 0.534000 500 25 0.900000 0.956000 0.863000 600 31 1.000000 0.050000 0.050000 1.200000 0.033000 0.039000
1538200439235511261	1100 29 1.100000 0.478000 0.535000 500 25 0.900000 0.956000 0.863000 600 31 1.000000 0.050000 0.050000 1.200000 0.035000 0.042000
1538200439795492386	1100 29 1.100000 0.478000 0.535000 500 25 0.900000 0.955000 0.862000 600 31 1.000000 0.050000 0.050000 1.200000 0.036000 0.043000
1538200440351502345	1100 29 1.100000 0.478000 0.535000 500 25 0.900000 0.955000 0.862000 600 31 1.000000 0.050000 0.050000 1.200000 0.036000 0.043000
1538200440907505220	1100 29 1.100000 0.475000 0.532000 500 25 0.900000 0.956000 0.863000 600 30 1.000000 0.050000 0.050000 1.200000 0.036000 0.043000
1538200441467547387	1100 29 1.100000 0.477000 0.534000 500 25 0.900000 0.956000 0.863000 600 30 1.000000 0.050000 0.050000 1.200000 0.035000 0.042000
1538200442027503178	1100 29 1.100000 0.475000 0.532000 500 25 0.900000 0.955000 0.862000 600 31 1.000000 0.050000 0.050000 1.200000 0.035000 0.042000
1538200442591465512	1100 29 1.100000 0.478000 0.535000 500 25 0.900000 0.957000 0.864000 600 31 1.000000 0.050000 0.050000 1.200000 0.034000 0.041000
1538200443155474303	1100 29 1.100000 0.477000 0.534000 500 25 0.900000 0.957000 0.864000 600 31 1.000000 0.050000 0.050000 1.200000 0.034000 0.041000
1538200443703506679	1100 29 1.100000 0.477000 0.534000 500 25 0.900000 0.957000 0.864000 600 31 1.000000 0.050000 0.050000 1.200000 0.033000 0.039000
1538200444267532762	1100 29 1.100000 0.476000 0.533000 500 25 0.900000 0.956000 0.863000 600 31 1.000000 0.050000 0.050000 1.200000 0.034000 0.041000
1538200444831523512	1100 29 1.100000 0.472000 0.529000 500 25 0.900000 0.956000 0.863000 600 31 1.000000 0.050000 0.050000 1.200000 0.034000 0.041000
1538200445391456804	1100 29 1.100000 0.472000 0.529000 500 25 0.900000 0.956000 0.863000 600 31 1.000000 0.050000 0.050000 1.200000 0.034000 0.041000
1538200445955506429	1100 29 1.100000 0.473000 0.529000 500 25 0.900000 0.955000 0.862000 600 31 1.000000 0.050000 0.050000 1.200000 0.035000 0.042000
1538200446515505012	1100 29 1.100000 0.472000 0.529000 500 25 0.900000 0.955000 0.862000 600 31 1.000000 0.050000 0.050000 1.200000 0.035000 0.042000
1538200447071522596	1100 29 1.100000 0.473000 0.530000 500 25 0.900000 0.957000 0.864000 600 31 1.000000 0.050000 0.050000 1.200000 0.033000 0.039000
1538200447635505762	1100 29 1.100000 0.472000 0.529000 500 25 0.900000 0.957000 0.864000 600 31 1.000000 0.050000 0.050000 1.200000 0.033000 0.039000
1538200448195480304	1100 29 1.100000 0.472000 0.529000 500 25 0.900000 0.957000 0.864000 600 31 1.000000 0.050000 0.050000 1.200000 0.033000 0.039000
1538200448759412471	1100 29 1.100000 0.474000 0.531000 500 25 0.900000 0.956000 0.863000 600 31 1.000000 0.050000 0.050000 1.200000 0.033000 0.039000
1538200449315480429	1100 29 1.100000 0.473000 0.530000 500 25 0.900000 0.955000 0.862000 600 31 1.000000 0.050000 0.050000 1.200000 0.034000 0.041000
1538200449875576304	1100 29 1.100000 0.475000 0.532000 500 25 0.900000 0.956000 0.863000 600 31 1.000000 0.050000 0.050000 1.200000 0.034000 0.041000
1538200450427461471	1100 29 1.100000 0.472000 0.529000 500 25 0.900000 0.956000 0.863000 600 31 1.000000 0.050000 0.050000 1.200000 0.034000 0.041000
1538200450991535346	1100 29 1.100000 0.473000 0.530000 500 25 0.900000 0.956000 0.863000 600 30 1.000000 0.050000 0.050000 1.200000 0.035000 0.042000
1538200451547420388	1100 29 1.100000 0.475000 0.532000 500 25 0.900000 0.957000 0.864000 600 31 1.000000 0.050000 0.050000 1.200000 0.033000 0.039000
1538200452115490096	1100 29 1.100000 0.475000 0.532000 500 25 0.900000 0.955000 0.862000 600 31 1.000000 0.050000 0.050000 1.200000 0.032000 0.038000
1538200452671517971	1100 29 1.100000 0.475000 0.532000 500 25 0.900000 0.960000 0.866000 600 31 1.000000 0.050000 0.050000 1.200000 0.033000 0.039000
1538200453227437055	1100 29 1.100000 0.475000 0.532000 500 25 0.900000 0.960000 0.866000 600 31 1.000000 0.050000 0.050000 1.200000 0.034000 0.041000
1538200453783529430	1100 29 1.100000 0.471000 0.527000 500 25 0.900000 0.960000 0.866000 600 31 1.000000 0.050000 0.050000 1.200000 0.033000 0.039000
1538200454331558846	1100 29 1.100000 0.474000 0.531000 500 25 0.900000 0.959000 0.865000 600 31 1.000000 0.050000 0.050000 1.200000 0.033000 0.039000
1538200454883494013	1100 29 1.100000 0.473000 0.530000 500 25 0.900000 0.959000 0.865000 600 31 1.000000 0.050000 0.050000 1.200000 0.034000 0.041000
1538200455451514680	1100 29 1.100000 0.473000 0.530000 500 25 0.900000 0.959000 0.865000 600 31 1.000000 0.050000 0.050000 1.200000 0.035000 0.042000
1538200456015535972	1100 29 1.100000 0.474000 0.531000 500 26 0.900000 0.960000 0.866000 600 31 1.000000 0.050000 0.050000 1.200000 0.034000 0.041000
1538200456571517722	1100 29 1.100000 0.475000 0.532000 500 26 0.900000 0.960000 0.866000 600 31 1.000000 0.050000 0.050000 1.200000 0.033000 0.039000
1538200457123504097	1100 29 1.100000 0.474000 0.530000 500 25 0.900000 0.960000 0.866000 600 31 1.000000 0.050000 0.050000 1.200000 0.033000 0.039000
1538200457683463764	1100 29 1.100000 0.475000 0.532000 500 25 0.900000 0.959000 0.865000 600 31 1.000000 0.050000 0.050000 1.200000 0.033000 0.039000
1538200458243454347	1100 29 1.100000 0.475000 0.532000 500 25 0.900000 0.959000 0.865000 600 31 1.000000 0.050000 0.050000 1.200000 0.034000 0.041000
1538200458803424805	1100 29 1.100000 0.475000 0.532000 500 25 0.900000 0.960000 0.866000 600 31 1.000000 0.050000 0.050000 1.200000 0.033000 0.039000
1538200459363519347	1100 29 1.100000 0.475000 0.532000 500 25 0.900000 0.960000 0.866000 600 31 1.000000 0.050000 0.050000 1.200000 0.034000 0.041000
1538200459931503222	1100 29 1.100000 0.475000 0.532000 500 25 0.900000 0.959000 0.865000 600 31 1.000000 0.050000 0.050000 1.200000 0.034000 0.041000
1538200460491548389	1100 29 1.100000 0.472000 0.529000 500 25 0.900000 0.960000 0.866000 600 31 1.000000 0.050000 0.050000 1.200000 0.034000 0.041000
1538200461047580931	1100 29 1.100000 0.474000 0.531000 500 25 0.900000 0.960000 0.866000 600 31 1.000000 0.050000 0.050000 1.200000 0.033000 0.039000
1538200461615553431	1100 29 1.100000 0.475000 0.532000 500 25 0.900000 0.960000 0.866000 600 31 1.000000 0.050000 0.050000 1.200000 0.033000 0.039000
1538200462175535014	1100 29 1.100000 0.474000 0.531000 500 25 0.900000 0.960000 0.866000 600 31 1.000000 0.050000 0.050000 1.200000 0.033000 0.039000
1538200462727497139	1100 29 1.100000 0.473000 0.530000 500 25 0.900000 0.960000 0.866000 600 30 1.000000 0.050000 0.050000 1.200000 0.033000 0.039000
1538200463279499681	1100 29 1.100000 0.472000 0.529000 500 25 0.900000 0.960000 0.866000 600 31 1.000000 0.050000 0.050000 1.200000 0.034000 0.041000
1538200463831596556	1100 29 1.100000 0.474000 0.531000 500 25 0.900000 0.960000 0.866000 600 31 1.000000 0.050000 0.050000 1.200000 0.035000 0.042000
1538200464395518223	1100 29 1.100000 0.472000 0.529000 500 25 0.900000 0.960000 0.866000 600 31 1.000000 0.050000 0.050000 1.200000 0.036000 0.043000
1538200464947492056	1100 29 1.100000 0.473000 0.530000 500 25 0.900000 0.959000 0.865000 600 31 1.000000 0.050000 0.050000 1.200000 0.036000 0.043000
1538200465499511598	1100 29 1.100000 0.474000 0.531000 500 25 0.900000 0.959000 0.865000 600 31 1.000000 0.050000 0.050000 1.200000 0.034000 0.041000
1538200466055510306	1100 29 1.100000 0.475000 0.532000 500 25 0.900000 0.960000 0.866000 600 31 1.000000 0.050000 0.050000 1.200000 0.035000 0.042000
1538200466615509765	1100 29 1.100000 0.472000 0.529000 500 25 0.900000 0.960000 0.866000 600 31 1.000000 0.050000 0.050000 1.200000 0.035000 0.042000
1538200467171497473	1100 29 1.100000 0.473000 0.530000 500 25 0.900000 0.960000 0.866000 600 30 1.000000 0.050000 0.050000 1.200000 0.035000 0.042000
1538200467727505515	1100 29 1.100000 0.473000 0.530000 500 25 0.900000 0.960000 0.866000 600 31 1.000000 0.050000 0.050000 1.200000 0.035000 0.042000
1538200468287536056	1100 29 1.100000 0.470000 0.526000 500 25 0.900000 0.960000 0.866000 600 31 1.000000 0.050000 0.050000 1.200000 0.034000 0.041000
1538200468855506890	1100 29 1.100000 0.472000 0.529000 500 25 0.900000 0.960000 0.866000 600 31 1.000000 0.050000 0.050000 1.200000 0.035000 0.042000
1538200469415569390	1100 29 1.100000 0.473000 0.530000 500 25 0.900000 0.960000 0.866000 600 30 1.000000 0.050000 0.050000 1.200000 0.035000 0.042000
1538200469979510640	1100 29 1.100000 0.472000 0.529000 500 25 0.900000 0.960000 0.866000 600 31 1.000000 0.050000 0.050000 1.200000 0.035000 0.042000
1538200470539504057	1100 29 1.100000 0.475000 0.532000 500 25 0.900000 0.960000 0.866000 600 31 1.000000 0.050000 0.050000 1.200000 0.033000 0.039000
1538200471095426098	1100 29 1.100000 0.475000 0.532000 500 25 0.900000 0.959000 0.865000 600 31 1.000000 0.050000 0.050000 1.200000 0.034000 0.041000
1538200471659474015	1100 29 1.100000 0.475000 0.532000 500 25 0.900000 0.959000 0.865000 600 31 1.000000 0.050000 0.050000 1.200000 0.035000 0.042000
1538200472211525057	1100 29 1.100000 0.475000 0.532000 500 26 0.900000 0.959000 0.865000 600 31 1.000000 0.050000 0.050000 1.200000 0.036000 0.043000
1538200472779486807	1100 29 1.100000 0.471000 0.527000 500 25 0.900000 0.957000 0.864000 600 31 1.000000 0.050000 0.050000 1.200000 0.035000 0.042000
1538200473339465974	1100 29 1.100000 0.471000 0.527000 500 25 0.900000 0.951000 0.858000 600 31 1.000000 0.050000 0.050000 1.200000 0.034000 0.041000
1538200473895420432	1100 29 1.100000 0.473000 0.530000 500 25 0.900000 0.952000 0.859000 600 31 1.000000 0.050000 0.050000 1.200000 0.035000 0.042000
1538200474447532141	1100 29 1.100000 0.472000 0.529000 500 25 0.900000 0.952000 0.859000 600 30 1.000000 0.050000 0.050000 1.200000 0.035000 0.042000
1538200475011463224	1100 29 1.100000 0.471000 0.527000 500 25 0.900000 0.951000 0.858000 600 30 1.000000 0.050000 0.050000 1.200000 0.036000 0.043000
1538200475575493099	1100 29 1.100000 0.474000 0.531000 500 25 0.900000 0.952000 0.859000 600 30 1.000000 0.050000 0.050000 1.200000 0.034000 0.041000
1538200476131487432	1100 29 1.100000 0.475000 0.532000 500 25 0.900000 0.951000 0.858000 600 30 1.000000 0.050000 0.050000 1.200000 0.035000 0.042000
1538200476691456307	1100 29 1.100000 0.474000 0.531000 500 25 0.900000 0.951000 0.858000 600 30 1.000000 0.050000 0.050000 1.200000 0.035000 0.042000
1538200477255521558	1100 29 1.100000 0.474000 0.531000 500 25 0.900000 0.951000 0.858000 600 31 1.000000 0.050000 0.050000 1.200000 0.035000 0.042000
1538200477827511933	1100 29 1.100000 0.474000 0.531000 500 25 0.900000 0.952000 0.859000 600 30 1.000000 0.050000 0.050000 1.200000 0.035000 0.042000
1538200478391564058	1100 29 1.100000 0.474000 0.531000 500 25 0.900000 0.951000 0.858000 600 30 1.000000 0.050000 0.050000 1.200000 0.034000 0.041000
1538200478951485016	1100 29 1.100000 0.472000 0.529000 500 25 0.900000 0.950000 0.857000 600 31 1.000000 0.050000 0.050000 1.200000 0.035000 0.042000
1538200479507439224	1100 29 1.100000 0.473000 0.530000 500 25 0.900000 0.952000 0.859000 600 31 1.000000 0.050000 0.050000 1.200000 0.033000 0.039000
1538200480067479933	1100 29 1.100000 0.473000 0.530000 500 25 0.900000 0.952000 0.859000 600 31 1.000000 0.050000 0.050000 1.200000 0.033000 0.039000
1538200480631434141	1100 29 1.100000 0.473000 0.530000 500 25 0.900000 0.951000 0.858000 600 31 1.000000 0.050000 0.050000 1.200000 0.033000 0.039000
1538200481195496808	1100 29 1.100000 0.473000 0.530000 500 25 0.900000 0.951000 0.858000 600 31 1.000000 0.050000 0.050000 1.200000 0.035000 0.042000
1538200481759506516	1100 29 1.100000 0.472000 0.529000 500 25 0.900000 0.950000 0.857000 600 31 1.000000 0.050000 0.050000 1.200000 0.035000 0.042000
1538200482315437516	1100 29 1.100000 0.473000 0.530000 500 25 0.900000 0.951000 0.858000 600 31 1.000000 0.050000 0.050000 1.200000 0.034000 0.041000
1538200482871531892	1100 29 1.100000 0.473000 0.530000 500 25 0.900000 0.951000 0.858000 600 31 1.000000 0.050000 0.050000 1.200000 0.034000 0.041000
1538200483435418142	1100 29 1.100000 0.474000 0.531000 500 25 0.900000 0.952000 0.859000 600 30 1.000000 0.050000 0.050000 1.200000 0.033000 0.039000
1538200483987515058	1100 29 1.100000 0.476000 0.533000 500 25 0.900000 0.952000 0.859000 600 31 1.000000 0.050000 0.050000 1.200000 0.031000 0.037000
1538200484547548517	1100 29 1.100000 0.476000 0.533000 500 25 0.900000 0.952000 0.859000 600 31 1.000000 0.050000 0.050000 1.200000 0.031000 0.037000
1538200485115483100	1100 29 1.100000 0.476000 0.533000 500 25 0.900000 0.951000 0.858000 600 31 1.000000 0.050000 0.050000 1.200000 0.031000 0.037000
1538200485655485434	1100 29 1.100000 0.472000 0.529000 500 25 0.900000 0.951000 0.858000 600 31 1.000000 0.050000 0.050000 1.200000 0.033000 0.039000
1538200486219503892	1100 29 1.100000 0.475000 0.532000 500 25 0.900000 0.951000 0.858000 600 31 1.000000 0.050000 0.050000 1.200000 0.032000 0.038000
1538200486775433892	1100 29 1.100000 0.475000 0.532000 500 25 0.900000 0.951000 0.858000 600 31 1.000000 0.050000 0.050000 1.200000 0.033000 0.039000
1538200487339471142	1100 29 1.100000 0.474000 0.531000 500 25 0.900000 0.951000 0.858000 600 31 1.000000 0.050000 0.050000 1.200000 0.033000 0.039000
1538200487907566309	1100 29 1.100000 0.475000 0.532000 500 25 0.900000 0.951000 0.858000 600 31 1.000000 0.050000 0.050000 1.200000 0.033000 0.039000
1538200488467496517	1100 29 1.100000 0.476000 0.533000 500 25 0.900000 0.952000 0.859000 600 31 1.000000 0.050000 0.050000 1.200000 0.032000 0.038000
1538200489019509434	1100 29 1.100000 0.476000 0.533000 500 26 0.900000 0.952000 0.859000 600 31 1.000000 0.050000 0.050000 1.200000 0.031000 0.037000
1538200489579447642	1100 29 1.100000 0.476000 0.533000 500 25 0.900000 0.952000 0.859000 600 31 1.000000 0.050000 0.050000 1.200000 0.032000 0.038000
1538200490147471184	1100 29 1.100000 0.476000 0.533000 500 26 0.900000 0.952000 0.859000 600 31 1.000000 0.050000 0.050000 1.200000 0.031000 0.037000
1538200490715510267	1100 29 1.100000 0.476000 0.533000 500 25 0.900000 0.952000 0.859000 600 31 1.000000 0.050000 0.050000 1.200000 0.032000 0.038000
1538200491267482684	1100 29 1.100000 0.476000 0.533000 500 25 0.900000 0.952000 0.859000 600 31 1.000000 0.050000 0.050000 1.200000 0.032000 0.038000
1538200491827440934	1100 29 1.100000 0.476000 0.533000 500 25 0.900000 0.951000 0.858000 600 31 1.000000 0.050000 0.050000 1.200000 0.034000 0.041000
1538200492391546351	1100 29 1.100000 0.474000 0.531000 500 25 0.900000 0.951000 0.858000 600 31 1.000000 0.050000 0.050000 1.200000 0.033000 0.039000
1538200492943548643	1100 29 1.100000 0.474000 0.531000 500 26 0.900000 0.960000 0.866000 600 31 1.000000 0.050000 0.050000 1.200000 0.034000 0.041000
1538200493499572726	1100 29 1.100000 0.476000 0.533000 500 26 0.900000 0.973000 0.878000 600 31 1.000000 0.050000 0.050000 1.200000 0.031000 0.037000
1538200494051463518	1100 29 1.100000 0.476000 0.533000 500 25 0.900000 0.973000 0.878000 600 31 1.000000 0.050000 0.050000 1.200000 0.031000 0.037000
1538200494611512435	1100 29 1.100000 0.476000 0.533000 500 25 0.900000 0.973000 0.878000 600 31 1.000000 0.050000 0.050000 1.200000 0.031000 0.037000
1538200495167531351	1100 29 1.100000 0.474000 0.531000 500 25 0.900000 0.973000 0.878000 600 31 1.000000 0.050000 0.050000 1.200000 0.031000 0.037000
1538200495727550476	1100 29 1.100000 0.476000 0.533000 500 25 0.900000 0.971000 0.876000 600 31 1.000000 0.050000 0.050000 1.200000 0.031000 0.037000
1538200496279481185	1100 29 1.100000 0.474000 0.531000 500 25 0.900000 0.972000 0.877000 600 31 1.000000 0.050000 0.050000 1.200000 0.032000 0.038000
1538200496839545935	1100 29 1.100000 0.474000 0.531000 500 26 0.900000 0.971000 0.876000 600 31 1.000000 0.050000 0.050000 1.200000 0.033000 0.039000
1538200497403559393	1100 29 1.100000 0.474000 0.531000 500 25 0.900000 0.972000 0.877000 600 31 1.000000 0.050000 0.050000 1.200000 0.034000 0.041000
1538200497959518935	1100 29 1.100000 0.474000 0.531000 500 25 0.900000 0.971000 0.876000 600 31 1.000000 0.050000 0.050000 1.200000 0.034000 0.041000
1538200498527485185	1100 29 1.100000 0.472000 0.529000 500 26 0.900000 0.973000 0.878000 600 31 1.000000 0.050000 0.050000 1.200000 0.031000 0.037000
1538200499091537435	1100 29 1.100000 0.471000 0.527000 500 25 0.900000 0.973000 0.878000 600 31 1.000000 0.050000 0.050000 1.200000 0.031000 0.037000
1538200499659527685	1100 29 1.100000 0.474000 0.531000 500 25 0.900000 0.973000 0.878000 600 30 1.000000 0.050000 0.050000 1.200000 0.032000 0.038000
1538200500223548060	1100 29 1.100000 0.474000 0.531000 500 26 0.900000 0.973000 0.878000 600 31 1.000000 0.050000 0.050000 1.200000 0.031000 0.037000
1538200500775526894	1100 29 1.100000 0.473000 0.530000 500 26 0.900000 0.973000 0.878000 600 31 1.000000 0.050000 0.050000 1.200000 0.032000 0.038000
1538200501327523269	1100 29 1.100000 0.473000 0.530000 500 25 0.900000 0.971000 0.876000 600 31 1.000000 0.050000 0.050000 1.200000 0.036000 0.043000
1538200501887603519	1100 29 1.100000 0.472000 0.529000 500 25 0.900000 0.971000 0.876000 600 31 1.000000 0.050000 0.050000 1.200000 0.035000 0.042000
1538200502459491227	1100 29 1.100000 0.473000 0.530000 500 26 0.900000 0.971000 0.876000 600 31 1.000000 0.050000 0.050000 1.200000 0.036000 0.043000
1538200503015426352	1100 29 1.100000 0.475000 0.532000 500 26 0.900000 0.973000 0.878000 600 31 1.000000 0.050000 0.050000 1.200000 0.035000 0.042000
1538200503571497852	1100 29 1.100000 0.475000 0.532000 500 26 0.900000 0.972000 0.877000 600 31 1.000000 0.050000 0.050000 1.200000 0.034000 0.041000
1538200504131501852	1100 29 1.100000 0.475000 0.532000 500 26 0.900000 0.972000 0.877000 600 31 1.000000 0.050000 0.050000 1.200000 0.035000 0.042000
1538200504683505519	1100 29 1.100000 0.472000 0.529000 500 26 0.900000 0.973000 0.878000 600 31 1.000000 0.050000 0.050000 1.200000 0.035000 0.042000
1538200505243521478	1100 29 1.100000 0.471000 0.527000 500 26 0.900000 0.973000 0.878000 600 31 1.000000 0.050000 0.050000 1.200000 0.035000 0.042000
1538200505799559603	1100 29 1.100000 0.473000 0.530000 500 25 0.900000 0.972000 0.877000 600 31 1.000000 0.050000 0.050000 1.200000 0.035000 0.042000
1538200506363561894	1100 29 1.100000 0.474000 0.531000 500 25 0.900000 0.973000 0.878000 600 31 1.000000 0.050000 0.050000 1.200000 0.035000 0.042000
1538200506935437769	1100 29 1.100000 0.472000 0.529000 500 25 0.900000 0.972000 0.877000 600 31 1.000000 0.050000 0.050000 1.200000 0.036000 0.043000
1538200507499522561	1100 29 1.100000 0.474000 0.531000 500 26 0.900000 0.973000 0.878000 600 31 1.000000 0.050000 0.050000 1.200000 0.034000 0.041000
1538200508059472520	1100 29 1.100000 0.475000 0.532000 500 26 0.900000 0.973000 0.878000 600 31 1.000000 0.050000 0.050000 1.200000 0.035000 0.042000
1538200508627504020	1100 29 1.100000 0.474000 0.531000 500 25 0.900000 0.973000 0.878000 600 31 1.000000 0.050000 0.050000 1.200000 0.034000 0.041000
1538200509183546020	1100 29 1.100000 0.474000 0.531000 500 25 0.900000 0.972000 0.877000 600 31 1.000000 0.050000 0.050000 1.200000 0.037000 0.044000
1538200509731458645	1100 29 1.100000 0.475000 0.532000 500 26 0.900000 0.973000 0.878000 600 31 1.000000 0.050000 0.050000 1.200000 0.037000 0.044000
1538200510291489561	1100 29 1.100000 0.475000 0.532000 500 25 0.900000 0.972000 0.877000 600 31 1.000000 0.050000 0.050000 1.200000 0.036000 0.043000
1538200510855517853	1100 29 1.100000 0.473000 0.530000 500 26 0.900000 0.973000 0.878000 600 31 1.000000 0.050000 0.050000 1.200000 0.037000 0.044000
1538200511415436270	1100 29 1.100000 0.473000 0.530000 500 25 0.900000 0.972000 0.877000 600 31 1.000000 0.050000 0.050000 1.200000 0.036000 0.043000
1538200511979558478	1100 29 1.100000 0.473000 0.530000 500 26 0.900000 0.973000 0.878000 600 31 1.000000 0.050000 0.050000 1.200000 0.036000 0.043000
1538200512519526937	1100 29 1.100000 0.472000 0.529000 500 25 0.900000 0.973000 0.878000 600 31 1.000000 0.050000 0.050000 1.200000 0.037000 0.044000
1538200513079476770	1100 29 1.100000 0.474000 0.531000 500 25 0.900000 0.972000 0.877000 600 31 1.000000 0.050000 0.050000 1.200000 0.037000 0.044000
1538200513635498395	1100 29 1.100000 0.472000 0.529000 500 25 0.900000 0.965000 0.871000 600 31 1.000000 0.050000 0.050000 1.200000 0.036000 0.043000
1538200514187472687	1100 29 1.100000 0.472000 0.529000 500 25 0.900000 0.960000 0.866000 600 31 1.000000 0.050000 0.050000 1.200000 0.036000 0.043000
1538200514739488854	1100 29 1.100000 0.473000 0.530000 500 25 0.900000 0.954000 0.861000 600 31 1.000000 0.050000 0.050000 1.200000 0.036000 0.043000
1538200515291515062	1100 29 1.100000 0.473000 0.530000 500 25 0.900000 0.954000 0.861000 600 31 1.000000 0.050000 0.050000 1.200000 0.036000 0.043000
1538200515839393229	1100 29 1.100000 0.473000 0.530000 500 25 0.900000 0.955000 0.862000 600 31 1.000000 0.050000 0.050000 1.200000 0.035000 0.042000
1538200516399503937	1100 29 1.100000 0.473000 0.530000 500 25 0.900000 0.955000 0.862000 600 31 1.000000 0.050000 0.050000 1.200000 0.036000 0.043000
1538200516963458646	1100 29 1.100000 0.472000 0.529000 500 26 0.900000 0.955000 0.862000 600 31 1.000000 0.050000 0.050000 1.200000 0.036000 0.043000
1538200517527476437	1100 29 1.100000 0.471000 0.527000 500 25 0.900000 0.956000 0.863000 600 31 1.000000 0.050000 0.050000 1.200000 0.036000 0.043000
1538200518091399104	1100 29 1.100000 0.472000 0.529000 500 26 0.900000 0.955000 0.862000 600 31 1.000000 0.050000 0.050000 1.200000 0.036000 0.043000
1538200518643507479	1100 29 1.100000 0.473000 0.530000 500 25 0.900000 0.955000 0.862000 600 31 1.000000 0.050000 0.050000 1.200000 0.037000 0.044000
1538200519203501354	1100 29 1.100000 0.473000 0.530000 500 25 0.900000 0.955000 0.862000 600 31 1.000000 0.050000 0.050000 1.200000 0.036000 0.043000
1538200519763462438	1100 29 1.100000 0.473000 0.530000 500 25 0.900000 0.955000 0.862000 600 30 1.000000 0.050000 0.050000 1.200000 0.036000 0.043000
1538200520331499146	1100 29 1.100000 0.472000 0.529000 500 25 0.900000 0.955000 0.862000 600 31 1.000000 0.050000 0.050000 1.200000 0.035000 0.042000
1538200520899505313	1100 29 1.100000 0.473000 0.530000 500 25 0.900000 0.955000 0.862000 600 31 1.000000 0.050000 0.050000 1.200000 0.035000 0.042000
1538200521447459354	1100 29 1.100000 0.475000 0.532000 500 25 0.900000 0.955000 0.862000 600 31 1.000000 0.050000 0.050000 1.200000 0.032000 0.038000
1538200522007501605	1100 29 1.100000 0.475000 0.532000 500 25 0.900000 0.955000 0.862000 600 31 1.000000 0.050000 0.050000 1.200000 0.032000 0.038000
1538200522559582188	1100 29 1.100000 0.475000 0.532000 500 25 0.900000 0.955000 0.862000 600 31 1.000000 0.050000 0.050000 1.200000 0.033000 0.039000
1538200523115506855	1100 29 1.100000 0.475000 0.532000 500 25 0.900000 0.954000 0.860000 600 31 1.000000 0.050000 0.050000 1.200000 0.033000 0.039000
1538200523679518521	1100 29 1.100000 0.475000 0.532000 500 25 0.900000 0.954000 0.861000 600 31 1.000000 0.050000 0.050000 1.200000 0.035000 0.042000
1538200524243442438	1100 29 1.100000 0.474000 0.531000 500 25 0.900000 0.954000 0.861000 600 31 1.000000 0.050000 0.050000 1.200000 0.034000 0.041000
1538200524795523730	1100 29 1.100000 0.471000 0.527000 500 25 0.900000 0.954000 0.861000 600 31 1.000000 0.050000 0.050000 1.200000 0.035000 0.042000
1538200525355450272	1100 29 1.100000 0.473000 0.530000 500 25 0.900000 0.955000 0.862000 600 31 1.000000 0.050000 0.050000 1.200000 0.033000 0.039000
1538200525911452647	1100 29 1.100000 0.472000 0.529000 500 25 0.900000 0.954000 0.861000 600 31 1.000000 0.050000 0.050000 1.200000 0.034000 0.041000
1538200526475553313	1100 29 1.100000 0.475000 0.532000 500 25 0.900000 0.956000 0.863000 600 31 1.000000 0.050000 0.050000 1.200000 0.032000 0.038000
1538200527031475688	1100 29 1.100000 0.475000 0.532000 500 25 0.900000 0.955000 0.862000 600 31 1.000000 0.050000 0.050000 1.200000 0.032000 0.038000
1538200527591479189	1100 29 1.100000 0.475000 0.532000 500 25 0.900000 0.954000 0.861000 600 30 1.000000 0.050000 0.050000 1.200000 0.032000 0.038000
1538200528143454730	1100 29 1.100000 0.475000 0.532000 500 25 0.900000 0.954000 0.861000 600 31 1.000000 0.050000 0.050000 1.200000 0.034000 0.041000
1538200528711518189	1100 29 1.100000 0.475000 0.532000 500 25 0.900000 0.955000 0.862000 600 31 1.000000 0.050000 0.050000 1.200000 0.034000 0.041000
1538200529263492980	1100 29 1.100000 0.475000 0.532000 500 25 0.900000 0.955000 0.862000 600 30 1.000000 0.050000 0.050000 1.200000 0.033000 0.039000
1538200529823471730	1100 29 1.100000 0.475000 0.532000 500 25 0.900000 0.954000 0.861000 600 31 1.000000 0.050000 0.050000 1.200000 0.034000 0.041000
1538200530403588231	1100 29 1.100000 0.473000 0.530000 500 25 0.900000 0.955000 0.862000 600 30 1.000000 0.050000 0.050000 1.200000 0.034000 0.041000
1538200530967441189	1100 29 1.100000 0.473000 0.530000 500 25 0.900000 0.955000 0.862000 600 31 1.000000 0.050000 0.050000 1.200000 0.032000 0.038000
1538200531527545814	1100 29 1.100000 0.473000 0.530000 500 25 0.900000 0.955000 0.862000 600 31 1.000000 0.050000 0.050000 1.200000 0.032000 0.038000
1538200532091522772	1100 29 1.100000 0.473000 0.530000 500 25 0.900000 0.955000 0.862000 600 31 1.000000 0.050000 0.050000 1.200000 0.033000 0.039000
1538200532647513772	1100 29 1.100000 0.474000 0.531000 500 25 0.900000 0.954000 0.861000 600 31 1.000000 0.050000 0.050000 1.200000 0.033000 0.039000
1538200533207419814	1100 29 1.100000 0.473000 0.530000 500 25 0.900000 0.954000 0.861000 600 31 1.000000 0.050000 0.050000 1.200000 0.033000 0.039000
1538200533763512439	1100 29 1.100000 0.472000 0.529000 500 25 0.900000 0.954000 0.861000 600 31 1.000000 0.050000 0.050000 1.200000 0.034000 0.041000
1538200534327502856	1100 29 1.100000 0.474000 0.531000 500 25 0.900000 0.953000 0.860000 600 31 1.000000 0.050000 0.050000 1.200000 0.035000 0.042000
1538200534887471773	1100 29 1.100000 0.473000 0.530000 500 25 0.900000 0.952000 0.859000 600 31 1.000000 0.050000 0.050000 1.200000 0.034000 0.041000
1538200535451465898	1100 29 1.100000 0.475000 0.532000 500 25 0.900000 0.954000 0.861000 600 31 1.000000 0.050000 0.050000 1.200000 0.032000 0.038000
1538200536003583773	1100 29 1.100000 0.475000 0.532000 500 25 0.900000 0.954000 0.861000 600 31 1.000000 0.050000 0.050000 1.200000 0.032000 0.038000
1538200536567487481	1100 29 1.100000 0.475000 0.532000 500 25 0.900000 0.954000 0.861000 600 31 1.000000 0.050000 0.050000 1.200000 0.032000 0.038000
1538200537127552023	1100 29 1.100000 0.472000 0.529000 500 25 0.900000 0.954000 0.861000 600 31 1.000000 0.050000 0.050000 1.200000 0.032000 0.038000
1538200537679386481	1100 29 1.100000 0.473000 0.530000 500 25 0.900000 0.954000 0.861000 600 31 1.000000 0.050000 0.050000 1.200000 0.033000 0.039000
1538200538235489523	1100 29 1.100000 0.474000 0.531000 500 25 0.900000 0.953000 0.860000 600 31 1.000000 0.050000 0.050000 1.200000 0.033000 0.039000
1538200538795512690	1100 29 1.100000 0.473000 0.530000 500 25 0.900000 0.953000 0.860000 600 31 1.000000 0.050000 0.050000 1.200000 0.035000 0.042000
1538200539355494648	1100 29 1.100000 0.472000 0.529000 500 25 0.900000 0.954000 0.861000 600 31 1.000000 0.050000 0.050000 1.200000 0.035000 0.042000
1538200539919562398	1100 29 1.100000 0.473000 0.530000 500 25 0.900000 0.954000 0.861000 600 30 1.000000 0.050000 0.050000 1.200000 0.036000 0.043000
1538200540483463148	1100 29 1.100000 0.475000 0.532000 500 25 0.900000 0.954000 0.861000 600 31 1.000000 0.050000 0.050000 1.200000 0.034000 0.041000
1538200541039511190	1100 29 1.100000 0.474000 0.531000 500 25 0.900000 0.954000 0.861000 600 31 1.000000 0.050000 0.050000 1.200000 0.033000 0.039000
1538200541603441274	1100 29 1.100000 0.474000 0.531000 500 25 0.900000 0.954000 0.861000 600 31 1.000000 0.050000 0.050000 1.200000 0.034000 0.041000
1538200542147496940	1100 29 1.100000 0.474000 0.531000 500 26 0.900000 0.954000 0.861000 600 31 1.000000 0.050000 0.050000 1.200000 0.034000 0.041000
1538200542711512315	1100 29 1.100000 0.474000 0.531000 500 25 0.900000 0.954000 0.861000 600 31 1.000000 0.050000 0.050000 1.200000 0.034000 0.041000
1538200543267444607	1100 29 1.100000 0.471000 0.527000 500 25 0.900000 0.954000 0.861000 600 30 1.000000 0.050000 0.050000 1.200000 0.034000 0.041000
1538200543819539857	1100 29 1.100000 0.472000 0.529000 500 25 0.900000 0.953000 0.860000 600 31 1.000000 0.050000 0.050000 1.200000 0.036000 0.043000
1538200544379482399	1100 29 1.100000 0.472000 0.529000 500 25 0.900000 0.953000 0.860000 600 30 1.000000 0.050000 0.050000 1.200000 0.036000 0.043000
1538200544943499482	1100 29 1.100000 0.474000 0.531000 500 25 0.900000 0.954000 0.861000 600 30 1.000000 0.050000 0.050000 1.200000 0.034000 0.041000
1538200545499532816	1100 29 1.100000 0.474000 0.531000 500 25 0.900000 0.954000 0.861000 600 31 1.000000 0.050000 0.050000 1.200000 0.034000 0.041000
1538200546071523899	1100 29 1.100000 0.474000 0.531000 500 25 0.900000 0.954000 0.861000 600 31 1.000000 0.050000 0.050000 1.200000 0.034000 0.041000
1538200546623453149	1100 29 1.100000 0.473000 0.530000 500 25 0.900000 0.955000 0.862000 600 30 1.000000 0.050000 0.050000 1.200000 0.034000 0.041000
1538200547187513358	1100 29 1.100000 0.473000 0.530000 500 25 0.900000 0.954000 0.861000 600 31 1.000000 0.050000 0.050000 1.200000 0.034000 0.041000
1538200547739463941	1100 29 1.100000 0.472000 0.529000 500 25 0.900000 0.954000 0.861000 600 31 1.000000 0.050000 0.050000 1.200000 0.034000 0.041000
1538200548303524733	1100 29 1.100000 0.473000 0.530000 500 25 0.900000 0.954000 0.861000 600 31 1.000000 0.050000 0.050000 1.200000 0.035000 0.042000
1538200548855504024	1100 29 1.100000 0.470000 0.526000 500 25 0.900000 0.954000 0.861000 600 31 1.000000 0.050000 0.050000 1.200000 0.035000 0.042000
1538200549423509691	1100 29 1.100000 0.470000 0.526000 500 25 0.900000 0.954000 0.861000 600 31 1.000000 0.050000 0.050000 1.200000 0.036000 0.043000
1538200549987517483	1100 29 1.100000 0.471000 0.527000 500 25 0.900000 0.954000 0.861000 600 31 1.000000 0.050000 0.050000 1.200000 0.034000 0.041000
1538200550551621983	1100 29 1.100000 0.472000 0.529000 500 25 0.900000 0.954000 0.861000 600 31 1.000000 0.050000 0.050000 1.200000 0.034000 0.041000
1538200551115561983	1100 29 1.100000 0.471000 0.527000 500 25 0.900000 0.954000 0.861000 600 31 1.000000 0.050000 0.050000 1.200000 0.034000 0.041000
1538200551671475650	1100 29 1.100000 0.472000 0.529000 500 25 0.900000 0.954000 0.861000 600 31 1.000000 0.050000 0.050000 1.200000 0.034000 0.041000
1538200552231428941	1100 29 1.100000 0.472000 0.529000 500 25 0.900000 0.954000 0.861000 600 31 1.000000 0.050000 0.050000 1.200000 0.034000 0.041000
1538200552791647650	1100 29 1.100000 0.473000 0.530000 500 25 0.900000 0.954000 0.861000 600 31 1.000000 0.050000 0.050000 1.200000 0.034000 0.041000
1538200553359499192	1100 29 1.100000 0.472000 0.529000 500 25 0.900000 0.954000 0.861000 600 31 1.000000 0.050000 0.050000 1.200000 0.035000 0.042000
1538200553919463650	1100 29 1.100000 0.474000 0.531000 500 25 0.900000 0.954000 0.861000 600 31 1.000000 0.050000 0.050000 1.200000 0.034000 0.041000
1538200554479443442	1100 29 1.100000 0.475000 0.532000 500 25 0.900000 0.959000 0.865000 600 31 1.000000 0.050000 0.050000 1.200000 0.036000 0.043000
1538200555039579650	1100 29 1.100000 0.475000 0.532000 500 25 0.900000 0.959000 0.865000 600 31 1.000000 0.050000 0.050000 1.200000 0.036000 0.043000
1538200555595509692	1100 29 1.100000 0.474000 0.531000 500 25 0.900000 0.958000 0.865000 600 31 1.000000 0.050000 0.050000 1.200000 0.036000 0.043000
1538200556151428692	1100 29 1.100000 0.471000 0.527000 500 25 0.900000 0.959000 0.865000 600 31 1.000000 0.050000 0.050000 1.200000 0.037000 0.044000
1538200556711493234	1100 29 1.100000 0.472000 0.529000 500 25 0.900000 0.958000 0.865000 600 30 1.000000 0.050000 0.050000 1.200000 0.035000 0.042000
1538200557279570150	1100 29 1.100000 0.471000 0.527000 500 25 0.900000 0.957000 0.864000 600 31 1.000000 0.050000 0.050000 1.200000 0.036000 0.043000
1538200557839514650	1100 29 1.100000 0.470000 0.526000 500 25 0.900000 0.957000 0.864000 600 31 1.000000 0.050000 0.050000 1.200000 0.036000 0.043000
1538200558403482484	1100 29 1.100000 0.474000 0.531000 500 25 0.900000 0.958000 0.865000 600 31 1.000000 0.050000 0.050000 1.200000 0.032000 0.038000
1538200558959472192	1100 29 1.100000 0.475000 0.532000 500 25 0.900000 0.957000 0.864000 600 31 1.000000 0.050000 0.050000 1.200000 0.033000 0.039000
1538200559523428026	1100 29 1.100000 0.474000 0.531000 500 25 0.900000 0.958000 0.865000 600 31 1.000000 0.050000 0.050000 1.200000 0.034000 0.041000
1538200560087477442	1100 29 1.100000 0.475000 0.532000 500 25 0.900000 0.959000 0.865000 600 31 1.000000 0.050000 0.050000 1.200000 0.033000 0.039000
1538200560659519234	1100 29 1.100000 0.475000 0.532000 500 25 0.900000 0.959000 0.865000 600 31 1.000000 0.050000 0.050000 1.200000 0.033000 0.039000
1538200561215413318	1100 29 1.100000 0.474000 0.531000 500 25 0.900000 0.957000 0.864000 600 31 1.000000 0.050000 0.050000 1.200000 0.033000 0.039000
1538200561775521568	1100 29 1.100000 0.473000 0.530000 500 25 0.900000 0.958000 0.865000 600 31 1.000000 0.050000 0.050000 1.200000 0.034000 0.041000
1538200562327421651	1100 29 1.100000 0.474000 0.531000 500 25 0.900000 0.958000 0.865000 600 31 1.000000 0.050000 0.050000 1.200000 0.034000 0.041000
1538200562883489151	1100 29 1.100000 0.473000 0.530000 500 25 0.900000 0.959000 0.865000 600 31 1.000000 0.050000 0.050000 1.200000 0.032000 0.038000
1538200563439497484	1100 29 1.100000 0.473000 0.530000 500 25 0.900000 0.959000 0.865000 600 31 1.000000 0.050000 0.050000 1.200000 0.032000 0.038000
1538200563999540776	1100 29 1.100000 0.472000 0.529000 500 25 0.900000 0.958000 0.865000 600 31 1.000000 0.050000 0.050000 1.200000 0.033000 0.039000
1538200564563460735	1100 29 1.100000 0.472000 0.529000 500 25 0.900000 0.957000 0.864000 600 30 1.000000 0.050000 0.050000 1.200000 0.034000 0.041000
1538200565119435235	1100 29 1.100000 0.473000 0.530000 500 25 0.900000 0.958000 0.865000 600 31 1.000000 0.050000 0.050000 1.200000 0.034000 0.041000
1538200565679404026	1100 29 1.100000 0.473000 0.530000 500 25 0.900000 0.959000 0.865000 600 31 1.000000 0.050000 0.050000 1.200000 0.033000 0.039000
1538200566247478485	1100 29 1.100000 0.473000 0.530000 500 25 0.900000 0.959000 0.865000 600 31 1.000000 0.050000 0.050000 1.200000 0.033000 0.039000
1538200566807469902	1100 29 1.100000 0.474000 0.531000 500 25 0.900000 0.959000 0.865000 600 30 1.000000 0.050000 0.050000 1.200000 0.032000 0.038000
1538200567355501485	1100 29 1.100000 0.475000 0.532000 500 25 0.900000 0.959000 0.865000 600 31 1.000000 0.050000 0.050000 1.200000 0.032000 0.038000
1538200567899454527	1100 29 1.100000 0.474000 0.531000 500 25 0.900000 0.959000 0.865000 600 31 1.000000 0.050000 0.050000 1.200000 0.032000 0.038000
1538200568459469027	1100 29 1.100000 0.475000 0.532000 500 25 0.900000 0.959000 0.865000 600 31 1.000000 0.050000 0.050000 1.200000 0.032000 0.038000
1538200569015477943	1100 29 1.100000 0.471000 0.527000 500 25 0.900000 0.958000 0.865000 600 30 1.000000 0.050000 0.050000 1.200000 0.033000 0.039000
1538200569571421110	1100 29 1.100000 0.472000 0.529000 500 25 0.900000 0.958000 0.865000 600 31 1.000000 0.050000 0.050000 1.200000 0.032000 0.038000
1538200570127517985	1100 29 1.100000 0.473000 0.530000 500 25 0.900000 0.958000 0.865000 600 31 1.000000 0.050000 0.050000 1.200000 0.033000 0.039000
1538200570683506152	1100 29 1.100000 0.472000 0.529000 500 25 0.900000 0.959000 0.865000 600 31 1.000000 0.050000 0.050000 1.200000 0.034000 0.041000
1538200571239504527	1100 29 1.100000 0.471000 0.527000 500 25 0.900000 0.959000 0.865000 600 31 1.000000 0.050000 0.050000 1.200000 0.033000 0.039000
1538200571791514652	1100 29 1.100000 0.474000 0.531000 500 25 0.900000 0.958000 0.865000 600 31 1.000000 0.050000 0.050000 1.200000 0.033000 0.039000
1538200572355525861	1100 29 1.100000 0.472000 0.529000 500 25 0.900000 0.958000 0.865000 600 31 1.000000 0.050000 0.050000 1.200000 0.034000 0.041000
1538200572911493944	1100 29 1.100000 0.474000 0.531000 500 25 0.900000 0.959000 0.865000 600 31 1.000000 0.050000 0.050000 1.200000 0.032000 0.038000
1538200573467507944	1100 29 1.100000 0.475000 0.532000 500 25 0.900000 0.959000 0.865000 600 30 1.000000 0.050000 0.050000 1.200000 0.031000 0.037000
1538200574027384486	1100 29 1.100000 0.474000 0.531000 500 25 0.900000 0.959000 0.865000 600 31 1.000000 0.050000 0.050000 1.200000 0.032000 0.038000
1538200574591446111	1100 29 1.100000 0.475000 0.532000 500 25 0.900000 0.962000 0.868000 600 31 1.000000 0.050000 0.050000 1.200000 0.032000 0.038000
1538200575151475028	1100 29 1.100000 0.472000 0.529000 500 25 0.900000 0.959000 0.865000 600 30 1.000000 0.050000 0.050000 1.200000 0.033000 0.039000
1538200575715493069	1100 29 1.100000 0.472000 0.529000 500 25 0.900000 0.955000 0.862000 600 31 1.000000 0.050000 0.050000 1.200000 0.034000 0.041000
1538200576267495361	1100 29 1.100000 0.471000 0.527000 500 25 0.900000 0.954000 0.861000 600 31 1.000000 0.050000 0.050000 1.200000 0.032000 0.038000
1538200576827527944	1100 29 1.100000 0.471000 0.527000 500 25 0.900000 0.955000 0.862000 600 31 1.000000 0.050000 0.050000 1.200000 0.034000 0.041000
1538200577391423319	1100 29 1.100000 0.472000 0.529000 500 25 0.900000 0.956000 0.863000 600 30 1.000000 0.050000 0.050000 1.200000 0.032000 0.038000
1538200577955532861	1100 29 1.100000 0.475000 0.532000 500 25 0.900000 0.955000 0.862000 600 30 1.000000 0.050000 0.050000 1.200000 0.032000 0.038000
1538200578515453195	1100 29 1.100000 0.475000 0.532000 500 25 0.900000 0.956000 0.863000 600 30 1.000000 0.050000 0.050000 1.200000 0.032000 0.038000
1538200579067467278	1100 29 1.100000 0.475000 0.532000 500 25 0.900000 0.956000 0.863000 600 30 1.000000 0.050000 0.050000 1.200000 0.033000 0.039000
1538200579639467611	1100 29 1.100000 0.474000 0.531000 500 25 0.900000 0.955000 0.862000 600 30 1.000000 0.050000 0.050000 1.200000 0.033000 0.039000
1538200580187499486	1100 29 1.100000 0.473000 0.530000 500 25 0.900000 0.956000 0.863000 600 31 1.000000 0.050000 0.050000 1.200000 0.034000 0.041000
1538200580743515987	1100 29 1.100000 0.473000 0.530000 500 25 0.900000 0.955000 0.862000 600 31 1.000000 0.050000 0.050000 1.200000 0.035000 0.042000
1538200581307536112	1100 29 1.100000 0.473000 0.530000 500 25 0.900000 0.954000 0.861000 600 31 1.000000 0.050000 0.050000 1.200000 0.033000 0.039000
1538200581875492528	1100 29 1.100000 0.473000 0.530000 500 25 0.900000 0.954000 0.861000 600 31 1.000000 0.050000 0.050000 1.200000 0.033000 0.039000
1538200582427446612	1100 29 1.100000 0.471000 0.527000 500 25 0.900000 0.956000 0.863000 600 31 1.000000 0.050000 0.050000 1.200000 0.032000 0.038000
1538200582975488612	1100 29 1.100000 0.471000 0.527000 500 25 0.900000 0.956000 0.863000 600 31 1.000000 0.050000 0.050000 1.200000 0.032000 0.038000
1538200583527531070	1100 29 1.100000 0.472000 0.529000 500 25 0.900000 0.955000 0.862000 600 31 1.000000 0.050000 0.050000 1.200000 0.032000 0.038000
1538200584095490612	1100 29 1.100000 0.472000 0.529000 500 25 0.900000 0.956000 0.863000 600 30 1.000000 0.050000 0.050000 1.200000 0.033000 0.039000
1538200584655470904	1100 29 1.100000 0.471000 0.527000 500 25 0.900000 0.956000 0.863000 600 31 1.000000 0.050000 0.050000 1.200000 0.032000 0.038000
1538200585219458695	1100 29 1.100000 0.472000 0.529000 500 25 0.900000 0.955000 0.862000 600 30 1.000000 0.050000 0.050000 1.200000 0.033000 0.039000
1538200585783460737	1100 29 1.100000 0.473000 0.530000 500 25 0.900000 0.954000 0.861000 600 31 1.000000 0.050000 0.050000 1.200000 0.033000 0.039000
1538200586339469529	1100 29 1.100000 0.473000 0.530000 500 25 0.900000 0.954000 0.861000 600 30 1.000000 0.050000 0.050000 1.200000 0.033000 0.039000
1538200586899524321	1100 29 1.100000 0.475000 0.532000 500 25 0.900000 0.956000 0.863000 600 31 1.000000 0.050000 0.050000 1.200000 0.032000 0.038000
1538200587463483112	1100 29 1.100000 0.474000 0.531000 500 25 0.900000 0.956000 0.863000 600 30 1.000000 0.050000 0.050000 1.200000 0.032000 0.038000
1538200588023421196	1100 29 1.100000 0.472000 0.529000 500 25 0.900000 0.956000 0.863000 600 31 1.000000 0.050000 0.050000 1.200000 0.032000 0.038000
1538200588587448196	1100 29 1.100000 0.473000 0.530000 500 25 0.900000 0.956000 0.863000 600 31 1.000000 0.050000 0.050000 1.200000 0.032000 0.038000
1538200589139521363	1100 29 1.100000 0.473000 0.530000 500 25 0.900000 0.956000 0.863000 600 31 1.000000 0.050000 0.050000 1.200000 0.032000 0.038000
1538200589691530571	1100 29 1.100000 0.474000 0.531000 500 25 0.900000 0.956000 0.863000 600 30 1.000000 0.050000 0.050000 1.200000 0.033000 0.039000
1538200590251519988	1100 29 1.100000 0.473000 0.530000 500 25 0.900000 0.955000 0.862000 600 30 1.000000 0.050000 0.050000 1.200000 0.034000 0.041000
1538200590815464071	1100 29 1.100000 0.472000 0.529000 500 25 0.900000 0.955000 0.862000 600 31 1.000000 0.050000 0.050000 1.200000 0.034000 0.041000
1538200591371480613	1100 29 1.100000 0.475000 0.532000 500 25 0.900000 0.956000 0.863000 600 30 1.000000 0.050000 0.050000 1.200000 0.032000 0.038000
1538200591915408696	1100 29 1.100000 0.474000 0.531000 500 25 0.900000 0.956000 0.863000 600 31 1.000000 0.050000 0.050000 1.200000 0.032000 0.038000
1538200592467495113	1100 29 1.100000 0.475000 0.532000 500 25 0.900000 0.956000 0.863000 600 31 1.000000 0.050000 0.050000 1.200000 0.032000 0.038000
1538200593031506530	1100 29 1.100000 0.475000 0.532000 500 25 0.900000 0.956000 0.863000 600 30 1.000000 0.050000 0.050000 1.200000 0.032000 0.038000
1538200593599441238	1100 29 1.100000 0.475000 0.532000 500 25 0.900000 0.956000 0.863000 600 31 1.000000 0.050000 0.050000 1.200000 0.033000 0.039000
1538200594159520988	1100 29 1.100000 0.475000 0.532000 500 25 0.900000 0.956000 0.863000 600 31 1.000000 0.050000 0.050000 1.200000 0.032000 0.038000
1538200594723564113	1100 29 1.100000 0.473000 0.530000 500 25 0.900000 0.956000 0.863000 600 30 1.000000 0.050000 0.050000 1.200000 0.032000 0.038000
1538200595287561405	1100 29 1.100000 0.472000 0.529000 500 25 0.900000 0.957000 0.864000 600 31 1.000000 0.050000 0.050000 1.200000 0.034000 0.041000
1538200595839477363	1100 29 1.100000 0.471000 0.527000 500 25 0.900000 0.966000 0.872000 600 31 1.000000 0.050000 0.050000 1.200000 0.033000 0.039000
1538200596403519697	1100 29 1.100000 0.476000 0.533000 500 25 0.900000 0.967000 0.873000 600 31 1.000000 0.050000 0.050000 1.200000 0.034000 0.041000
1538200596967582863	1100 29 1.100000 0.476000 0.533000 500 25 0.900000 0.967000 0.873000 600 31 1.000000 0.050000 0.050000 1.200000 0.034000 0.041000
1538200597527553239	1100 29 1.100000 0.476000 0.533000 500 25 0.900000 0.965000 0.871000 600 31 1.000000 0.050000 0.050000 1.200000 0.034000 0.041000
1538200598099546905	1100 29 1.100000 0.474000 0.531000 500 25 0.900000 0.965000 0.871000 600 31 1.000000 0.050000 0.050000 1.200000 0.034000 0.041000
1538200598651467989	1100 29 1.100000 0.475000 0.532000 500 25 0.900000 0.966000 0.872000 600 31 1.000000 0.050000 0.050000 1.200000 0.034000 0.041000
1538200599207457072	1100 29 1.100000 0.474000 0.531000 500 25 0.900000 0.965000 0.871000 600 31 1.000000 0.050000 0.050000 1.200000 0.034000 0.041000
1538200599771558780	1100 29 1.100000 0.473000 0.530000 500 25 0.900000 0.965000 0.871000 600 31 1.000000 0.050000 0.050000 1.200000 0.034000 0.041000
1538200600327483822	1100 29 1.100000 0.474000 0.531000 500 25 0.900000 0.966000 0.872000 600 31 1.000000 0.050000 0.050000 1.200000 0.036000 0.043000
1538200600883490156	1100 29 1.100000 0.472000 0.529000 500 25 0.900000 0.967000 0.873000 600 31 1.000000 0.050000 0.050000 1.200000 0.036000 0.043000
1538200601447489906	1100 29 1.100000 0.473000 0.530000 500 25 0.900000 0.966000 0.872000 600 31 1.000000 0.050000 0.050000 1.200000 0.035000 0.042000
1538200602011390322	1100 29 1.100000 0.474000 0.531000 500 25 0.900000 0.965000 0.871000 600 31 1.000000 0.050000 0.050000 1.200000 0.037000 0.044000
1538200602579490031	1100 29 1.100000 0.473000 0.530000 500 25 0.900000 0.965000 0.871000 600 30 1.000000 0.050000 0.050000 1.200000 0.036000 0.043000
1538200603139486364	1100 29 1.100000 0.472000 0.529000 500 25 0.900000 0.965000 0.871000 600 31 1.000000 0.050000 0.050000 1.200000 0.037000 0.044000
1538200603703505198	1100 29 1.100000 0.474000 0.531000 500 25 0.900000 0.965000 0.871000 600 31 1.000000 0.050000 0.050000 1.200000 0.036000 0.043000
1538200604267494989	1100 29 1.100000 0.473000 0.530000 500 25 0.900000 0.966000 0.872000 600 31 1.000000 0.050000 0.050000 1.200000 0.036000 0.043000
1538200604823525114	1100 29 1.100000 0.476000 0.533000 500 25 0.900000 0.967000 0.873000 600 31 1.000000 0.050000 0.050000 1.200000 0.035000 0.042000
1538200605387427406	1100 29 1.100000 0.476000 0.533000 500 25 0.900000 0.967000 0.873000 600 30 1.000000 0.050000 0.050000 1.200000 0.035000 0.042000
1538200605951426281	1100 29 1.100000 0.476000 0.533000 500 25 0.900000 0.967000 0.873000 600 30 1.000000 0.050000 0.050000 1.200000 0.035000 0.042000
1538200606515443490	1100 29 1.100000 0.476000 0.533000 500 25 0.900000 0.966000 0.872000 600 31 1.000000 0.050000 0.050000 1.200000 0.035000 0.042000
1538200607083513156	1100 29 1.100000 0.476000 0.533000 500 25 0.900000 0.966000 0.872000 600 30 1.000000 0.050000 0.050000 1.200000 0.035000 0.042000
1538200607643515948	1100 29 1.100000 0.473000 0.530000 500 25 0.900000 0.967000 0.873000 600 31 1.000000 0.050000 0.050000 1.200000 0.035000 0.042000
1538200608211519823	1100 29 1.100000 0.474000 0.531000 500 25 0.900000 0.966000 0.872000 600 30 1.000000 0.050000 0.050000 1.200000 0.035000 0.042000
1538200608775526532	1100 29 1.100000 0.475000 0.532000 500 25 0.900000 0.967000 0.873000 600 31 1.000000 0.050000 0.050000 1.200000 0.034000 0.041000
1538200609343561573	1100 29 1.100000 0.476000 0.533000 500 25 0.900000 0.967000 0.873000 600 30 1.000000 0.050000 0.050000 1.200000 0.034000 0.041000
1538200609899514365	1100 29 1.100000 0.475000 0.532000 500 25 0.900000 0.966000 0.872000 600 31 1.000000 0.050000 0.050000 1.200000 0.036000 0.043000
1538200610459469490	1100 29 1.100000 0.476000 0.533000 500 25 0.900000 0.965000 0.871000 600 31 1.000000 0.050000 0.050000 1.200000 0.035000 0.042000
1538200611035484948	1100 29 1.100000 0.474000 0.531000 500 25 0.900000 0.965000 0.871000 600 31 1.000000 0.050000 0.050000 1.200000 0.036000 0.043000
1538200611595437907	1100 29 1.100000 0.476000 0.533000 500 25 0.900000 0.966000 0.872000 600 31 1.000000 0.050000 0.050000 1.200000 0.035000 0.042000
1538200612151583490	1100 29 1.100000 0.474000 0.531000 500 25 0.900000 0.966000 0.872000 600 31 1.000000 0.050000 0.050000 1.200000 0.036000 0.043000
1538200612715512282	1100 29 1.100000 0.474000 0.531000 500 25 0.900000 0.966000 0.872000 600 31 1.000000 0.050000 0.050000 1.200000 0.036000 0.043000
1538200613275522115	1100 29 1.100000 0.476000 0.533000 500 25 0.900000 0.967000 0.873000 600 31 1.000000 0.050000 0.050000 1.200000 0.034000 0.041000
1538200613839546657	1100 29 1.100000 0.473000 0.530000 500 25 0.900000 0.967000 0.873000 600 31 1.000000 0.050000 0.050000 1.200000 0.034000 0.041000
1538200614403436657	1100 29 1.100000 0.474000 0.531000 500 25 0.900000 0.967000 0.873000 600 31 1.000000 0.050000 0.050000 1.200000 0.036000 0.043000
1538200614959485741	1100 29 1.100000 0.476000 0.533000 500 25 0.900000 0.965000 0.871000 600 31 1.000000 0.050000 0.050000 1.200000 0.037000 0.044000
1538200615519539366	1100 29 1.100000 0.475000 0.532000 500 25 0.900000 0.965000 0.871000 600 31 1.000000 0.050000 0.050000 1.200000 0.036000 0.043000
1538200616079495907	1100 29 1.100000 0.473000 0.530000 500 25 0.900000 0.962000 0.868000 600 30 1.000000 0.050000 0.050000 1.200000 0.035000 0.042000
1538200616647533491	1100 29 1.100000 0.473000 0.530000 500 25 0.900000 0.958000 0.865000 600 30 1.000000 0.050000 0.050000 1.200000 0.036000 0.043000
1538200617215450324	1100 29 1.100000 0.472000 0.529000 500 25 0.900000 0.951000 0.858000 600 31 1.000000 0.050000 0.050000 1.200000 0.037000 0.044000
1538200617771486908	1100 29 1.100000 0.476000 0.533000 500 25 0.900000 0.953000 0.860000 600 31 1.000000 0.050000 0.050000 1.200000 0.033000 0.039000
1538200618335582116	1100 29 1.100000 0.475000 0.532000 500 25 0.900000 0.953000 0.860000 600 31 1.000000 0.050000 0.050000 1.200000 0.034000 0.041000
1538200618899466658	1100 29 1.100000 0.476000 0.533000 500 25 0.900000 0.954000 0.861000 600 31 1.000000 0.050000 0.050000 1.200000 0.035000 0.042000
1538200619451513324	1100 29 1.100000 0.476000 0.533000 500 25 0.900000 0.954000 0.861000 600 31 1.000000 0.050000 0.050000 1.200000 0.036000 0.043000
1538200620011532533	1100 29 1.100000 0.473000 0.530000 500 25 0.900000 0.953000 0.860000 600 31 1.000000 0.050000 0.050000 1.200000 0.036000 0.043000
1538200620559505033	1100 29 1.100000 0.474000 0.531000 500 25 0.900000 0.953000 0.860000 600 31 1.000000 0.050000 0.050000 1.200000 0.036000 0.043000
1538200621111578408	1100 29 1.100000 0.473000 0.530000 500 25 0.900000 0.952000 0.859000 600 30 1.000000 0.050000 0.050000 1.200000 0.035000 0.042000
1538200621671517616	1100 29 1.100000 0.474000 0.531000 500 25 0.900000 0.952000 0.859000 600 30 1.000000 0.050000 0.050000 1.200000 0.035000 0.042000
1538200622235465575	1100 29 1.100000 0.472000 0.529000 500 25 0.900000 0.952000 0.859000 600 30 1.000000 0.050000 0.050000 1.200000 0.036000 0.043000
1538200622799521783	1100 29 1.100000 0.476000 0.533000 500 25 0.900000 0.954000 0.861000 600 30 1.000000 0.050000 0.050000 1.200000 0.034000 0.041000
1538200623363445533	1100 29 1.100000 0.476000 0.533000 500 25 0.900000 0.954000 0.861000 600 31 1.000000 0.050000 0.050000 1.200000 0.034000 0.041000
1538200623927504617	1100 29 1.100000 0.476000 0.533000 500 25 0.900000 0.953000 0.860000 600 30 1.000000 0.050000 0.050000 1.200000 0.033000 0.039000
1538200624491530325	1100 29 1.100000 0.476000 0.533000 500 25 0.900000 0.954000 0.861000 600 30 1.000000 0.050000 0.050000 1.200000 0.036000 0.043000
1538200625059414367	1100 29 1.100000 0.474000 0.531000 500 25 0.900000 0.953000 0.860000 600 31 1.000000 0.050000 0.050000 1.200000 0.036000 0.043000
1538200625619511367	1100 29 1.100000 0.473000 0.530000 500 25 0.900000 0.952000 0.859000 600 31 1.000000 0.050000 0.050000 1.200000 0.035000 0.042000
1538200626183470784	1100 29 1.100000 0.474000 0.531000 500 25 0.900000 0.952000 0.859000 600 31 1.000000 0.050000 0.050000 1.200000 0.035000 0.042000
1538200626735472200	1100 29 1.100000 0.474000 0.531000 500 25 0.900000 0.954000 0.861000 600 30 1.000000 0.050000 0.050000 1.200000 0.034000 0.041000
1538200627299553409	1100 29 1.100000 0.473000 0.530000 500 25 0.900000 0.954000 0.861000 600 31 1.000000 0.050000 0.050000 1.200000 0.034000 0.041000
1538200627855412075	1100 29 1.100000 0.473000 0.530000 500 25 0.900000 0.954000 0.861000 600 31 1.000000 0.050000 0.050000 1.200000 0.034000 0.041000
1538200628403483034	1100 29 1.100000 0.474000 0.531000 500 25 0.900000 0.954000 0.861000 600 31 1.000000 0.050000 0.050000 1.200000 0.034000 0.041000
1538200628971514742	1100 29 1.100000 0.473000 0.530000 500 25 0.900000 0.954000 0.861000 600 31 1.000000 0.050000 0.050000 1.200000 0.034000 0.041000
1538200629527515576	1100 29 1.100000 0.475000 0.532000 500 25 0.900000 0.954000 0.861000 600 31 1.000000 0.050000 0.050000 1.200000 0.035000 0.042000
1538200630083422867	1100 29 1.100000 0.474000 0.531000 500 25 0.900000 0.954000 0.861000 600 30 1.000000 0.050000 0.050000 1.200000 0.035000 0.042000
1538200630643544701	1100 29 1.100000 0.473000 0.530000 500 25 0.900000 0.953000 0.860000 600 31 1.000000 0.050000 0.050000 1.200000 0.035000 0.042000
1538200631211510576	1100 29 1.100000 0.473000 0.530000 500 25 0.900000 0.954000 0.861000 600 31 1.000000 0.050000 0.050000 1.200000 0.036000 0.043000
1538200631771489618	1100 29 1.100000 0.476000 0.533000 500 25 0.900000 0.954000 0.861000 600 31 1.000000 0.050000 0.050000 1.200000 0.033000 0.039000
1538200632331495368	1100 29 1.100000 0.476000 0.533000 500 25 0.900000 0.954000 0.861000 600 31 1.000000 0.050000 0.050000 1.200000 0.034000 0.041000
1538200632895539951	1100 29 1.100000 0.473000 0.530000 500 25 0.900000 0.954000 0.861000 600 31 1.000000 0.050000 0.050000 1.200000 0.034000 0.041000
1538200633443492701	1100 29 1.100000 0.473000 0.530000 500 25 0.900000 0.954000 0.861000 600 31 1.000000 0.050000 0.050000 1.200000 0.032000 0.038000
1538200633995489410	1100 29 1.100000 0.473000 0.530000 500 25 0.900000 0.954000 0.861000 600 31 1.000000 0.050000 0.050000 1.200000 0.032000 0.038000
1538200634555484785	1100 29 1.100000 0.474000 0.531000 500 25 0.900000 0.954000 0.861000 600 31 1.000000 0.050000 0.050000 1.200000 0.034000 0.041000
1538200635103531868	1100 29 1.100000 0.473000 0.530000 500 25 0.900000 0.954000 0.861000 600 31 1.000000 0.050000 0.050000 1.200000 0.034000 0.041000
1538200635655509535	1100 29 1.100000 0.472000 0.529000 500 25 0.900000 0.954000 0.861000 600 31 1.000000 0.050000 0.050000 1.200000 0.035000 0.042000
1538200636211488160	1100 29 1.100000 0.472000 0.529000 500 25 0.900000 0.953000 0.860000 600 30 1.000000 0.050000 0.050000 1.200000 0.035000 0.042000
1538200636767462202	1100 29 1.100000 0.475000 0.532000 500 25 0.900000 0.956000 0.863000 600 30 1.000000 0.050000 0.050000 1.200000 0.032000 0.038000
1538200637319446868	1100 29 1.100000 0.476000 0.533000 500 25 0.900000 0.955000 0.862000 600 31 1.000000 0.050000 0.050000 1.200000 0.032000 0.038000
1538200637887517118	1100 29 1.100000 0.475000 0.532000 500 25 0.900000 0.955000 0.862000 600 31 1.000000 0.050000 0.050000 1.200000 0.032000 0.038000
1538200638451500493	1100 29 1.100000 0.475000 0.532000 500 25 0.900000 0.956000 0.863000 600 31 1.000000 0.050000 0.050000 1.200000 0.032000 0.038000
1538200639007510452	1100 29 1.100000 0.475000 0.532000 500 25 0.900000 0.955000 0.862000 600 31 1.000000 0.050000 0.050000 1.200000 0.032000 0.038000
1538200639579401494	1100 29 1.100000 0.473000 0.530000 500 25 0.900000 0.955000 0.862000 600 31 1.000000 0.050000 0.050000 1.200000 0.033000 0.039000
1538200640151526452	1100 29 1.100000 0.471000 0.527000 500 25 0.900000 0.953000 0.860000 600 31 1.000000 0.050000 0.050000 1.200000 0.032000 0.038000
1538200640707478410	1100 29 1.100000 0.475000 0.532000 500 25 0.900000 0.955000 0.862000 600 31 1.000000 0.050000 0.050000 1.200000 0.032000 0.038000
1538200641259516577	1100 29 1.100000 0.475000 0.532000 500 25 0.900000 0.955000 0.862000 600 31 1.000000 0.050000 0.050000 1.200000 0.032000 0.038000
1538200641819478785	1100 29 1.100000 0.475000 0.532000 500 25 0.900000 0.954000 0.861000 600 31 1.000000 0.050000 0.050000 1.200000 0.032000 0.038000
1538200642375492494	1100 29 1.100000 0.475000 0.532000 500 25 0.900000 0.954000 0.861000 600 31 1.000000 0.050000 0.050000 1.200000 0.032000 0.038000
1538200642931472661	1100 29 1.100000 0.475000 0.532000 500 25 0.900000 0.954000 0.861000 600 31 1.000000 0.050000 0.050000 1.200000 0.032000 0.038000
1538200643495503911	1100 29 1.100000 0.474000 0.531000 500 25 0.900000 0.954000 0.861000 600 31 1.000000 0.050000 0.050000 1.200000 0.032000 0.038000
1538200644055464161	1100 29 1.100000 0.473000 0.530000 500 25 0.900000 0.953000 0.860000 600 31 1.000000 0.050000 0.050000 1.200000 0.032000 0.038000
1538200644619604702	1100 29 1.100000 0.474000 0.531000 500 25 0.900000 0.954000 0.861000 600 31 1.000000 0.050000 0.050000 1.200000 0.033000 0.039000
1538200645183467578	1100 29 1.100000 0.473000 0.530000 500 25 0.900000 0.954000 0.861000 600 30 1.000000 0.050000 0.050000 1.200000 0.032000 0.038000
1538200645743512536	1100 29 1.100000 0.472000 0.529000 500 25 0.900000 0.955000 0.862000 600 31 1.000000 0.050000 0.050000 1.200000 0.034000 0.041000
1538200646303533369	1100 29 1.100000 0.473000 0.530000 500 25 0.900000 0.954000 0.861000 600 31 1.000000 0.050000 0.050000 1.200000 0.035000 0.042000
1538200646859479911	1100 29 1.100000 0.473000 0.530000 500 25 0.900000 0.954000 0.861000 600 31 1.000000 0.050000 0.050000 1.200000 0.034000 0.041000
1538200647415484536	1100 29 1.100000 0.473000 0.530000 500 25 0.900000 0.954000 0.861000 600 31 1.000000 0.050000 0.050000 1.200000 0.034000 0.041000
1538200647975444078	1100 29 1.100000 0.474000 0.531000 500 25 0.900000 0.954000 0.861000 600 31 1.000000 0.050000 0.050000 1.200000 0.034000 0.041000
1538200648527475078	1100 29 1.100000 0.474000 0.531000 500 25 0.900000 0.954000 0.861000 600 31 1.000000 0.050000 0.050000 1.200000 0.034000 0.041000
1538200649083478203	1100 29 1.100000 0.474000 0.531000 500 25 0.900000 0.954000 0.861000 600 31 1.000000 0.050000 0.050000 1.200000 0.034000 0.041000
1538200649639516245	1100 29 1.100000 0.474000 0.531000 500 25 0.900000 0.954000 0.861000 600 30 1.000000 0.050000 0.050000 1.200000 0.033000 0.039000
1538200650203486328	1100 29 1.100000 0.471000 0.527000 500 25 0.900000 0.953000 0.860000 600 31 1.000000 0.050000 0.050000 1.200000 0.035000 0.042000
1538200650767526370	1100 29 1.100000 0.475000 0.532000 500 25 0.900000 0.955000 0.862000 600 31 1.000000 0.050000 0.050000 1.200000 0.033000 0.039000
1538200651335476578	1100 29 1.100000 0.476000 0.533000 500 25 0.900000 0.954000 0.861000 600 31 1.000000 0.050000 0.050000 1.200000 0.034000 0.041000
1538200651899503037	1100 29 1.100000 0.473000 0.530000 500 25 0.900000 0.954000 0.861000 600 31 1.000000 0.050000 0.050000 1.200000 0.033000 0.039000
1538200652463418037	1100 29 1.100000 0.473000 0.530000 500 25 0.900000 0.954000 0.861000 600 31 1.000000 0.050000 0.050000 1.200000 0.035000 0.042000
1538200653019534578	1100 29 1.100000 0.474000 0.531000 500 25 0.900000 0.954000 0.861000 600 31 1.000000 0.050000 0.050000 1.200000 0.034000 0.041000
1538200653595538954	1100 29 1.100000 0.474000 0.531000 500 25 0.900000 0.954000 0.861000 600 30 1.000000 0.050000 0.050000 1.200000 0.036000 0.043000
1538200654155515537	1100 29 1.100000 0.471000 0.527000 500 25 0.900000 0.955000 0.862000 600 31 1.000000 0.050000 0.050000 1.200000 0.035000 0.042000
1538200654715532287	1100 29 1.100000 0.476000 0.533000 500 25 0.900000 0.954000 0.861000 600 31 1.000000 0.050000 0.050000 1.200000 0.034000 0.041000
1538200655279515620	1100 29 1.100000 0.476000 0.533000 500 25 0.900000 0.955000 0.862000 600 31 1.000000 0.050000 0.050000 1.200000 0.035000 0.042000
1538200655831435037	1100 29 1.100000 0.476000 0.533000 500 25 0.900000 0.954000 0.861000 600 31 1.000000 0.050000 0.050000 1.200000 0.035000 0.042000
1538200656373288787	1100 29 1.100000 0.476000 0.533000 500 25 0.900000 0.954000 0.861000 600 31 1.000000 0.050000 0.050000 1.200000 0.035000 0.042000
1538200656886400329	1100 27 1.100000 0.476000 0.533000 500 25 0.900000 0.623000 0.561000 600 29 1.000000 0.050000 0.050000 1.200000 0.036000 0.043000
1538200657399024496	1100 26 1.100000 0.476000 0.533000 500 24 0.900000 0.245000 0.222000 600 27 1.000000 0.050000 0.050000 1.200000 0.034000 0.041000
1538200657911390412	1100 26 1.100000 0.476000 0.533000 500 24 0.900000 0.067000 0.061000 600 27 1.000000 0.050000 0.050000 1.200000 0.034000 0.041000
1538200658423859954	1100 25 1.100000 0.476000 0.533000 500 24 0.900000 0.059000 0.053000 600 26 1.000000 0.050000 0.050000 1.200000 0.034000 0.041000
1538200658936261913	1100 25 1.100000 0.476000 0.533000 500 23 0.900000 0.057000 0.051000 600 26 1.000000 0.050000 0.050000 1.200000 0.034000 0.041000
1538200659448780579	1100 25 1.100000 0.476000 0.533000 500 23 0.900000 0.057000 0.051000 600 26 1.000000 0.050000 0.050000 1.200000 0.034000 0.041000
1538200659961248954	1100 25 1.100000 0.476000 0.533000 500 23 0.900000 0.058000 0.052000 600 26 1.000000 0.050000 0.050000 1.200000 0.034000 0.041000
1538200660473955996	1100 25 1.100000 0.476000 0.533000 500 23 0.900000 0.058000 0.052000 600 26 1.000000 0.050000 0.050000 1.200000 0.034000 0.041000
1538200660986567163	1100 24 1.100000 0.476000 0.533000 500 23 0.900000 0.058000 0.052000 600 25 1.000000 0.050000 0.050000 1.200000 0.034000 0.041000
1538200661499653996	1100 24 1.100000 0.476000 0.533000 500 23 0.900000 0.064000 0.058000 600 25 1.000000 0.050000 0.050000 1.200000 0.034000 0.041000
1538200662012031455	1100 24 1.100000 0.476000 0.533000 500 23 0.900000 0.064000 0.058000 600 25 1.000000 0.050000 0.050000 1.200000 0.034000 0.041000
1538200662524655663	1100 24 1.100000 0.475000 0.532000 500 23 0.900000 0.064000 0.058000 600 25 1.000000 0.050000 0.050000 1.200000 0.034000 0.041000
1538200663037106330	1100 24 1.100000 0.475000 0.532000 500 22 0.900000 0.065000 0.059000 600 25 1.000000 0.050000 0.050000 1.200000 0.034000 0.041000
1538200663549432580	1100 24 1.100000 0.475000 0.532000 500 22 0.900000 0.066000 0.060000 600 25 1.000000 0.050000 0.050000 1.200000 0.034000 0.041000
1538200664061913871	1100 24 1.100000 0.476000 0.533000 500 22 0.900000 0.068000 0.061000 600 25 1.000000 0.050000 0.050000 1.200000 0.034000 0.041000
1538200664574453038	1100 24 1.100000 0.476000 0.533000 500 23 0.900000 0.069000 0.062000 600 25 1.000000 0.050000 0.050000 1.200000 0.034000 0.041000
1538200665086919830	1100 24 1.100000 0.475000 0.532000 500 22 0.900000 0.069000 0.062000 600 25 1.000000 0.050000 0.050000 1.200000 0.034000 0.041000
1538200665599242580	1100 24 1.100000 0.475000 0.532000 500 22 0.900000 0.068000 0.061000 600 25 1.000000 0.050000 0.050000 1.200000 0.034000 0.041000
1538200666111541080	1100 24 1.100000 0.476000 0.533000 500 22 0.900000 0.058000 0.052000 600 25 1.000000 0.050000 0.050000 1.200000 0.034000 0.041000
1538200666624003705	1100 24 1.100000 0.476000 0.533000 500 22 0.900000 0.056000 0.051000 600 25 1.000000 0.050000 0.050000 1.200000 0.034000 0.041000
1538200667136416163	1100 24 1.100000 0.475000 0.532000 500 22 0.900000 0.056000 0.051000 600 25 1.000000 0.050000 0.050000 1.200000 0.034000 0.041000
1538200667648817372	1100 24 1.100000 0.475000 0.532000 500 22 0.900000 0.057000 0.051000 600 25 1.000000 0.050000 0.050000 1.200000 0.034000 0.041000
1538200668161358789	1100 24 1.100000 0.476000 0.533000 500 22 0.900000 0.058000 0.052000 600 25 1.000000 0.050000 0.050000 1.200000 0.034000 0.041000
1538200668673951205	1100 24 1.100000 0.476000 0.533000 500 22 0.900000 0.058000 0.052000 600 24 1.000000 0.050000 0.050000 1.200000 0.034000 0.041000
1538200669186266164	1100 24 1.100000 0.476000 0.533000 500 22 0.900000 0.056000 0.051000 600 25 1.000000 0.050000 0.050000 1.200000 0.034000 0.041000
1538200669698814789	1100 24 1.100000 0.476000 0.533000 500 22 0.900000 0.056000 0.051000 600 24 1.000000 0.050000 0.050000 1.200000 0.034000 0.041000
1538200670211195997	1100 23 1.100000 0.476000 0.533000 500 22 0.900000 0.057000 0.051000 600 24 1.000000 0.050000 0.050000 1.200000 0.034000 0.041000
1538200670723523289	1100 23 1.100000 0.476000 0.533000 500 21 0.900000 0.064000 0.058000 600 24 1.000000 0.050000 0.050000 1.200000 0.034000 0.041000
1538200671236028997	1100 22 1.100000 0.327000 0.367000 500 21 0.900000 0.060000 0.054000 600 24 1.000000 0.050000 0.050000 1.200000 0.026000 0.031000
1538200671748731956	1100 22 1.100000 0.157000 0.178000 500 20 0.900000 0.072000 0.065000 600 24 1.000000 0.050000 0.050000 1.200000 0.025000 0.030000
1538200672261292122	1100 21 1.100000 0.049000 0.055000 500 20 0.900000 0.060000 0.054000 600 24 1.000000 0.050000 0.050000 1.200000 0.023000 0.027000
