#Timestamp	CPU(0) Frequency(MHz)	CPU(0) Temperature(C)	A7 Voltage(V)	A7 Current(A)	A7 Power(W)	CPU(4) Frequency(MHz)	CPU(4) Temperature(C)	A15 Voltage(V)	A15 Current(A)	A15 Power(W)	GPU Frequency(MHz)	GPU Temperature(C)	GPU Voltage(V)	GPU Current(A)	GPU Power(W)	RAM Voltage(V)	RAM Current(A)	RAM Power(W)
1518331376779331015	300 40 0.900000 0.018000 0.016000 800 39 0.900000 0.317000 0.292000 600 43 1.000000 0.053000 0.053000 1.200000 0.039000 0.047000
1518331377290550265	300 40 0.900000 0.019000 0.017000 800 39 0.900000 0.418000 0.385000 600 43 1.000000 0.052000 0.052000 1.200000 0.033000 0.039000
1518331377802887140	300 40 0.900000 0.019000 0.017000 800 39 0.900000 0.422000 0.389000 600 43 1.000000 0.053000 0.053000 1.200000 0.033000 0.039000
1518331378314291640	300 40 0.900000 0.019000 0.017000 800 39 0.900000 0.419000 0.386000 600 43 1.000000 0.053000 0.053000 1.200000 0.034000 0.041000
1518331378825518682	300 40 0.900000 0.019000 0.017000 800 39 0.900000 0.415000 0.382000 600 44 1.000000 0.053000 0.053000 1.200000 0.034000 0.041000
1518331379394604515	300 43 0.900000 0.057000 0.052000 800 40 0.900000 0.432000 0.398000 600 47 1.000000 0.053000 0.053000 1.200000 0.038000 0.045000
1518331379954540265	300 44 0.900000 0.108000 0.098000 800 41 0.900000 1.548000 1.421000 600 48 1.000000 0.053000 0.053000 1.200000 0.030000 0.036000
1518331380510524640	300 45 0.900000 0.108000 0.098000 800 41 0.900000 1.556000 1.428000 600 49 1.000000 0.053000 0.053000 1.200000 0.030000 0.036000
1518331381066518640	300 45 0.900000 0.109000 0.099000 800 42 0.900000 1.552000 1.424000 600 50 1.000000 0.053000 0.053000 1.200000 0.030000 0.036000
1518331381634468682	300 46 0.900000 0.109000 0.099000 800 42 0.900000 1.561000 1.432000 600 50 1.000000 0.053000 0.053000 1.200000 0.030000 0.036000
1518331382190471974	300 46 0.900000 0.109000 0.099000 800 42 0.900000 1.562000 1.433000 600 51 1.000000 0.053000 0.053000 1.200000 0.031000 0.037000
1518331382742532474	300 46 0.900000 0.109000 0.099000 800 43 0.900000 1.567000 1.438000 600 51 1.000000 0.053000 0.053000 1.200000 0.030000 0.036000
1518331383314487057	300 46 0.900000 0.109000 0.099000 800 43 0.900000 1.568000 1.439000 600 51 1.000000 0.053000 0.053000 1.200000 0.030000 0.036000
1518331383874552307	300 46 0.900000 0.109000 0.099000 800 43 0.900000 1.562000 1.433000 600 51 1.000000 0.053000 0.053000 1.200000 0.030000 0.036000
1518331384434536557	300 47 0.900000 0.109000 0.099000 800 43 0.900000 1.563000 1.434000 600 51 1.000000 0.053000 0.053000 1.200000 0.030000 0.036000
1518331384990524766	300 47 0.900000 0.109000 0.099000 800 43 0.900000 1.564000 1.435000 600 52 1.000000 0.053000 0.053000 1.200000 0.030000 0.036000
1518331385554484391	300 47 0.900000 0.109000 0.099000 800 43 0.900000 1.562000 1.433000 600 52 1.000000 0.053000 0.053000 1.200000 0.030000 0.036000
1518331386102533349	300 47 0.900000 0.110000 0.100000 800 43 0.900000 1.560000 1.432000 600 52 1.000000 0.053000 0.053000 1.200000 0.030000 0.036000
1518331386654423849	300 47 0.900000 0.109000 0.099000 800 43 0.900000 1.562000 1.433000 600 52 1.000000 0.053000 0.053000 1.200000 0.030000 0.036000
1518331387206545058	300 47 0.900000 0.109000 0.099000 800 44 0.900000 1.557000 1.429000 600 52 1.000000 0.053000 0.053000 1.200000 0.030000 0.036000
1518331387762482974	300 47 0.900000 0.109000 0.099000 800 44 0.900000 1.569000 1.440000 600 52 1.000000 0.053000 0.053000 1.200000 0.030000 0.036000
1518331388314498474	300 47 0.900000 0.109000 0.099000 800 44 0.900000 1.570000 1.441000 600 52 1.000000 0.053000 0.053000 1.200000 0.030000 0.036000
1518331388882554599	300 47 0.900000 0.109000 0.099000 800 44 0.900000 1.570000 1.441000 600 52 1.000000 0.053000 0.053000 1.200000 0.030000 0.036000
1518331389434598474	300 47 0.900000 0.109000 0.099000 800 44 0.900000 1.567000 1.438000 600 52 1.000000 0.053000 0.053000 1.200000 0.031000 0.037000
1518331389982533850	300 47 0.900000 0.109000 0.099000 800 44 0.900000 1.565000 1.436000 600 53 1.000000 0.053000 0.053000 1.200000 0.030000 0.036000
1518331390542437975	300 48 0.900000 0.109000 0.099000 800 44 0.900000 1.565000 1.436000 600 52 1.000000 0.053000 0.053000 1.200000 0.031000 0.037000
1518331391102564766	300 48 0.900000 0.109000 0.099000 800 44 0.900000 1.560000 1.432000 600 53 1.000000 0.053000 0.053000 1.200000 0.031000 0.037000
1518331391650490808	300 48 0.900000 0.109000 0.099000 800 44 0.900000 1.566000 1.437000 600 53 1.000000 0.053000 0.053000 1.200000 0.030000 0.036000
1518331392210554641	300 48 0.900000 0.109000 0.099000 800 44 0.900000 1.561000 1.432000 600 53 1.000000 0.053000 0.053000 1.200000 0.030000 0.036000
1518331392770519600	300 48 0.900000 0.109000 0.099000 800 44 0.900000 1.557000 1.429000 600 53 1.000000 0.053000 0.053000 1.200000 0.030000 0.036000
1518331393318489433	300 48 0.900000 0.109000 0.099000 800 44 0.900000 1.556000 1.428000 600 53 1.000000 0.053000 0.053000 1.200000 0.030000 0.036000
1518331393870483975	300 48 0.900000 0.109000 0.099000 800 44 0.900000 1.556000 1.428000 600 53 1.000000 0.054000 0.054000 1.200000 0.030000 0.036000
1518331394426478725	300 48 0.900000 0.109000 0.099000 800 44 0.900000 1.556000 1.428000 600 53 1.000000 0.053000 0.053000 1.200000 0.030000 0.036000
1518331394986560767	300 48 0.900000 0.109000 0.099000 800 44 0.900000 1.556000 1.428000 600 53 1.000000 0.053000 0.053000 1.200000 0.030000 0.036000
1518331395538481059	300 48 0.900000 0.109000 0.099000 800 44 0.900000 1.557000 1.429000 600 53 1.000000 0.053000 0.053000 1.200000 0.030000 0.036000
1518331396098493434	300 48 0.900000 0.109000 0.099000 800 44 0.900000 1.552000 1.424000 600 53 1.000000 0.053000 0.053000 1.200000 0.030000 0.036000
1518331396646513767	300 48 0.900000 0.109000 0.099000 800 44 0.900000 1.551000 1.423000 600 53 1.000000 0.053000 0.053000 1.200000 0.030000 0.036000
1518331397202428184	300 48 0.900000 0.109000 0.099000 800 44 0.900000 1.550000 1.422000 600 53 1.000000 0.053000 0.053000 1.200000 0.030000 0.036000
1518331397754532309	300 48 0.900000 0.109000 0.099000 800 45 0.900000 1.549000 1.421000 600 53 1.000000 0.053000 0.053000 1.200000 0.030000 0.036000
1518331398318514017	300 48 0.900000 0.109000 0.099000 800 44 0.900000 1.557000 1.429000 600 53 1.000000 0.053000 0.053000 1.200000 0.030000 0.036000
1518331398878519267	300 48 0.900000 0.109000 0.099000 800 44 0.900000 1.556000 1.428000 600 53 1.000000 0.053000 0.053000 1.200000 0.030000 0.036000
1518331399450454476	300 48 0.900000 0.109000 0.099000 800 44 0.900000 1.558000 1.430000 600 53 1.000000 0.053000 0.053000 1.200000 0.030000 0.036000
1518331400018438976	300 48 0.900000 0.109000 0.099000 800 44 0.900000 1.557000 1.429000 600 53 1.000000 0.053000 0.053000 1.200000 0.030000 0.036000
1518331400582522392	300 48 0.900000 0.109000 0.099000 800 45 0.900000 1.556000 1.428000 600 53 1.000000 0.053000 0.053000 1.200000 0.030000 0.036000
1518331401150520601	300 48 0.900000 0.109000 0.099000 800 44 0.900000 1.557000 1.429000 600 53 1.000000 0.053000 0.053000 1.200000 0.030000 0.036000
1518331401714523184	300 48 0.900000 0.109000 0.099000 800 44 0.900000 1.552000 1.424000 600 53 1.000000 0.053000 0.053000 1.200000 0.030000 0.036000
1518331402278501351	300 48 0.900000 0.110000 0.100000 800 45 0.900000 1.557000 1.429000 600 53 1.000000 0.053000 0.053000 1.200000 0.030000 0.036000
1518331402850497309	300 48 0.900000 0.109000 0.099000 800 45 0.900000 1.558000 1.430000 600 53 1.000000 0.053000 0.053000 1.200000 0.030000 0.036000
1518331403406529684	300 48 0.900000 0.109000 0.099000 800 45 0.900000 1.557000 1.429000 600 53 1.000000 0.053000 0.053000 1.200000 0.029000 0.035000
1518331403970482476	300 48 0.900000 0.109000 0.099000 800 45 0.900000 1.558000 1.430000 600 53 1.000000 0.053000 0.053000 1.200000 0.030000 0.036000
1518331404538496393	300 48 0.900000 0.110000 0.100000 800 45 0.900000 1.558000 1.430000 600 53 1.000000 0.053000 0.053000 1.200000 0.030000 0.036000
1518331405094549935	300 48 0.900000 0.109000 0.099000 800 45 0.900000 1.559000 1.431000 600 53 1.000000 0.053000 0.053000 1.200000 0.030000 0.036000
1518331405658477851	300 48 0.900000 0.109000 0.099000 800 45 0.900000 1.560000 1.432000 600 53 1.000000 0.053000 0.053000 1.200000 0.030000 0.036000
1518331406218510393	300 48 0.900000 0.109000 0.099000 800 45 0.900000 1.561000 1.432000 600 53 1.000000 0.053000 0.053000 1.200000 0.030000 0.036000
1518331406774524935	300 48 0.900000 0.110000 0.100000 800 45 0.900000 1.552000 1.424000 600 53 1.000000 0.053000 0.053000 1.200000 0.030000 0.036000
1518331407334455977	300 48 0.900000 0.109000 0.099000 800 45 0.900000 1.553000 1.425000 600 53 1.000000 0.053000 0.053000 1.200000 0.030000 0.036000
1518331407890566602	300 48 0.900000 0.109000 0.099000 800 45 0.900000 1.551000 1.423000 600 53 1.000000 0.053000 0.053000 1.200000 0.030000 0.036000
1518331408458484852	300 48 0.900000 0.109000 0.099000 800 45 0.900000 1.553000 1.425000 600 54 1.000000 0.053000 0.053000 1.200000 0.030000 0.036000
1518331409022541560	300 48 0.900000 0.109000 0.099000 800 45 0.900000 1.559000 1.431000 600 53 1.000000 0.053000 0.053000 1.200000 0.030000 0.036000
1518331409578456935	300 49 0.900000 0.109000 0.099000 800 45 0.900000 1.554000 1.426000 600 53 1.000000 0.053000 0.053000 1.200000 0.032000 0.038000
1518331410142525852	300 48 0.900000 0.109000 0.099000 800 45 0.900000 1.552000 1.424000 600 53 1.000000 0.053000 0.053000 1.200000 0.031000 0.037000
1518331410694567560	300 48 0.900000 0.109000 0.099000 800 45 0.900000 1.549000 1.421000 600 53 1.000000 0.053000 0.053000 1.200000 0.030000 0.036000
1518331411254511852	300 48 0.900000 0.109000 0.099000 800 45 0.900000 1.556000 1.428000 600 53 1.000000 0.054000 0.054000 1.200000 0.030000 0.036000
1518331411822544185	300 48 0.900000 0.109000 0.099000 800 45 0.900000 1.549000 1.421000 600 53 1.000000 0.054000 0.054000 1.200000 0.030000 0.036000
1518331412382476394	300 48 0.900000 0.109000 0.099000 800 45 0.900000 1.556000 1.428000 600 54 1.000000 0.053000 0.053000 1.200000 0.030000 0.036000
1518331412942493186	300 48 0.900000 0.109000 0.099000 800 45 0.900000 1.553000 1.425000 600 54 1.000000 0.053000 0.053000 1.200000 0.031000 0.037000
1518331413502535311	300 48 0.900000 0.109000 0.099000 800 45 0.900000 1.552000 1.424000 600 53 1.000000 0.053000 0.053000 1.200000 0.031000 0.037000
1518331414054578352	300 49 0.900000 0.109000 0.099000 800 45 0.900000 1.553000 1.425000 600 54 1.000000 0.053000 0.053000 1.200000 0.031000 0.037000
1518331414622483311	300 48 0.900000 0.109000 0.099000 800 45 0.900000 1.551000 1.423000 600 53 1.000000 0.053000 0.053000 1.200000 0.031000 0.037000
1518331415190510103	300 49 0.900000 0.109000 0.099000 800 45 0.900000 1.549000 1.421000 600 53 1.000000 0.053000 0.053000 1.200000 0.031000 0.037000
1518331415750507394	300 49 0.900000 0.109000 0.099000 800 45 0.900000 1.559000 1.431000 600 54 1.000000 0.053000 0.053000 1.200000 0.031000 0.037000
1518331416318562978	300 48 0.900000 0.110000 0.100000 800 45 0.900000 1.556000 1.428000 600 53 1.000000 0.053000 0.053000 1.200000 0.031000 0.037000
1518331416886506603	300 48 0.900000 0.110000 0.100000 800 45 0.900000 1.547000 1.420000 600 53 1.000000 0.053000 0.053000 1.200000 0.031000 0.037000
1518331417450566686	300 49 0.900000 0.109000 0.099000 800 45 0.900000 1.545000 1.418000 600 54 1.000000 0.053000 0.053000 1.200000 0.031000 0.037000
1518331418018551436	300 49 0.900000 0.109000 0.099000 800 45 0.900000 1.551000 1.423000 600 53 1.000000 0.053000 0.053000 1.200000 0.031000 0.037000
1518331418570507103	300 49 0.900000 0.109000 0.099000 800 45 0.900000 1.564000 1.435000 600 54 1.000000 0.053000 0.053000 1.200000 0.031000 0.037000
1518331419134483270	300 49 0.900000 0.109000 0.099000 800 45 0.900000 1.565000 1.436000 600 54 1.000000 0.054000 0.054000 1.200000 0.031000 0.037000
1518331419702586186	300 49 0.900000 0.109000 0.099000 800 45 0.900000 1.571000 1.442000 600 54 1.000000 0.054000 0.054000 1.200000 0.030000 0.036000
1518331420270519103	300 49 0.900000 0.109000 0.099000 800 45 0.900000 1.571000 1.442000 600 54 1.000000 0.053000 0.053000 1.200000 0.031000 0.037000
1518331420834550687	300 49 0.900000 0.109000 0.099000 800 45 0.900000 1.567000 1.438000 600 54 1.000000 0.053000 0.053000 1.200000 0.031000 0.037000
1518331421390547812	300 49 0.900000 0.110000 0.100000 800 45 0.900000 1.564000 1.435000 600 54 1.000000 0.054000 0.054000 1.200000 0.030000 0.036000
1518331421946558520	300 49 0.900000 0.109000 0.099000 800 45 0.900000 1.561000 1.432000 600 54 1.000000 0.054000 0.054000 1.200000 0.030000 0.036000
1518331422510546520	300 49 0.900000 0.110000 0.100000 800 45 0.900000 1.567000 1.438000 600 54 1.000000 0.053000 0.053000 1.200000 0.030000 0.036000
1518331423058522103	300 49 0.900000 0.109000 0.099000 800 45 0.900000 1.569000 1.440000 600 54 1.000000 0.053000 0.053000 1.200000 0.030000 0.036000
1518331423622536270	300 49 0.900000 0.109000 0.099000 800 45 0.900000 1.569000 1.440000 600 54 1.000000 0.053000 0.053000 1.200000 0.030000 0.036000
1518331424182491812	300 49 0.900000 0.109000 0.099000 800 45 0.900000 1.573000 1.444000 600 54 1.000000 0.054000 0.054000 1.200000 0.030000 0.036000
1518331424750493312	300 49 0.900000 0.109000 0.099000 800 45 0.900000 1.571000 1.442000 600 54 1.000000 0.054000 0.054000 1.200000 0.030000 0.036000
1518331425314539729	300 49 0.900000 0.109000 0.099000 800 45 0.900000 1.573000 1.444000 600 54 1.000000 0.053000 0.053000 1.200000 0.030000 0.036000
1518331425878511270	300 49 0.900000 0.109000 0.099000 800 45 0.900000 1.572000 1.443000 600 54 1.000000 0.054000 0.054000 1.200000 0.030000 0.036000
1518331426442525771	300 49 0.900000 0.109000 0.099000 800 45 0.900000 1.572000 1.443000 600 54 1.000000 0.053000 0.053000 1.200000 0.030000 0.036000
1518331427006504187	300 49 0.900000 0.109000 0.099000 800 45 0.900000 1.572000 1.443000 600 54 1.000000 0.053000 0.053000 1.200000 0.030000 0.036000
1518331427562496646	300 49 0.900000 0.109000 0.099000 800 45 0.900000 1.571000 1.442000 600 54 1.000000 0.053000 0.053000 1.200000 0.030000 0.036000
1518331428118533271	300 49 0.900000 0.109000 0.099000 800 45 0.900000 1.573000 1.444000 600 54 1.000000 0.053000 0.053000 1.200000 0.030000 0.036000
1518331428670518062	300 49 0.900000 0.109000 0.099000 800 45 0.900000 1.573000 1.444000 600 54 1.000000 0.053000 0.053000 1.200000 0.029000 0.035000
1518331429234523729	300 49 0.900000 0.109000 0.099000 800 45 0.900000 1.573000 1.444000 600 54 1.000000 0.053000 0.053000 1.200000 0.030000 0.036000
1518331429790509188	300 49 0.900000 0.110000 0.100000 800 45 0.900000 1.573000 1.444000 600 54 1.000000 0.053000 0.053000 1.200000 0.030000 0.036000
1518331430350458729	300 49 0.900000 0.109000 0.099000 800 45 0.900000 1.572000 1.443000 600 54 1.000000 0.054000 0.054000 1.200000 0.030000 0.036000
1518331430910542563	300 49 0.900000 0.109000 0.099000 800 45 0.900000 1.571000 1.442000 600 54 1.000000 0.053000 0.053000 1.200000 0.030000 0.036000
1518331431466563771	300 49 0.900000 0.110000 0.100000 800 45 0.900000 1.563000 1.434000 600 54 1.000000 0.053000 0.053000 1.200000 0.030000 0.036000
1518331432034533938	300 49 0.900000 0.109000 0.099000 800 45 0.900000 1.564000 1.435000 600 54 1.000000 0.053000 0.053000 1.200000 0.030000 0.036000
1518331432602446771	300 49 0.900000 0.109000 0.099000 800 45 0.900000 1.554000 1.426000 600 54 1.000000 0.053000 0.053000 1.200000 0.030000 0.036000
1518331433170527813	300 49 0.900000 0.109000 0.099000 800 45 0.900000 1.568000 1.439000 600 54 1.000000 0.053000 0.053000 1.200000 0.030000 0.036000
1518331433742522480	300 49 0.900000 0.110000 0.100000 800 45 0.900000 1.569000 1.440000 600 54 1.000000 0.053000 0.053000 1.200000 0.030000 0.036000
1518331434290541313	300 49 0.900000 0.109000 0.099000 800 45 0.900000 1.568000 1.439000 600 54 1.000000 0.053000 0.053000 1.200000 0.030000 0.036000
1518331434846538563	300 49 0.900000 0.109000 0.099000 800 45 0.900000 1.568000 1.439000 600 54 1.000000 0.053000 0.053000 1.200000 0.030000 0.036000
1518331435406495272	300 49 0.900000 0.109000 0.099000 800 45 0.900000 1.569000 1.440000 600 54 1.000000 0.053000 0.053000 1.200000 0.030000 0.036000
1518331435962575813	300 49 0.900000 0.110000 0.100000 800 45 0.900000 1.565000 1.436000 600 54 1.000000 0.053000 0.053000 1.200000 0.030000 0.036000
1518331436526565105	300 49 0.900000 0.109000 0.099000 800 45 0.900000 1.562000 1.433000 600 54 1.000000 0.054000 0.054000 1.200000 0.031000 0.037000
1518331437090549230	300 49 0.900000 0.109000 0.099000 800 45 0.900000 1.565000 1.436000 600 54 1.000000 0.053000 0.053000 1.200000 0.030000 0.036000
1518331437642548189	300 49 0.900000 0.109000 0.099000 800 45 0.900000 1.569000 1.440000 600 54 1.000000 0.054000 0.054000 1.200000 0.030000 0.036000
1518331438198521647	300 49 0.900000 0.109000 0.099000 800 45 0.900000 1.570000 1.441000 600 54 1.000000 0.053000 0.053000 1.200000 0.030000 0.036000
1518331438754532272	300 49 0.900000 0.109000 0.099000 800 45 0.900000 1.569000 1.440000 600 54 1.000000 0.054000 0.054000 1.200000 0.030000 0.036000
1518331439314528897	300 49 0.900000 0.109000 0.099000 800 45 0.900000 1.570000 1.441000 600 54 1.000000 0.053000 0.053000 1.200000 0.030000 0.036000
1518331439882507022	300 49 0.900000 0.109000 0.099000 800 45 0.900000 1.569000 1.440000 600 54 1.000000 0.053000 0.053000 1.200000 0.030000 0.036000
1518331440450509356	300 49 0.900000 0.109000 0.099000 800 45 0.900000 1.568000 1.439000 600 54 1.000000 0.054000 0.054000 1.200000 0.030000 0.036000
1518331441018457689	300 49 0.900000 0.110000 0.100000 800 45 0.900000 1.568000 1.439000 600 54 1.000000 0.053000 0.053000 1.200000 0.030000 0.036000
1518331441586500106	300 49 0.900000 0.109000 0.099000 800 45 0.900000 1.570000 1.441000 600 54 1.000000 0.054000 0.054000 1.200000 0.030000 0.036000
1518331442150549439	300 49 0.900000 0.109000 0.099000 800 45 0.900000 1.570000 1.441000 600 54 1.000000 0.053000 0.053000 1.200000 0.030000 0.036000
1518331442706523439	300 49 0.900000 0.109000 0.099000 800 45 0.900000 1.561000 1.432000 600 54 1.000000 0.053000 0.053000 1.200000 0.030000 0.036000
1518331443262538398	300 49 0.900000 0.110000 0.100000 800 45 0.900000 1.562000 1.433000 600 54 1.000000 0.053000 0.053000 1.200000 0.030000 0.036000
1518331443810451106	300 49 0.900000 0.110000 0.100000 800 45 0.900000 1.562000 1.433000 600 54 1.000000 0.053000 0.053000 1.200000 0.030000 0.036000
1518331444374522481	300 49 0.900000 0.109000 0.099000 800 45 0.900000 1.560000 1.432000 600 54 1.000000 0.054000 0.054000 1.200000 0.030000 0.036000
1518331444934572898	300 49 0.900000 0.109000 0.099000 800 45 0.900000 1.559000 1.431000 600 54 1.000000 0.053000 0.053000 1.200000 0.030000 0.036000
1518331445506531565	300 49 0.900000 0.109000 0.099000 800 45 0.900000 1.565000 1.436000 600 54 1.000000 0.053000 0.053000 1.200000 0.030000 0.036000
1518331446070536731	300 49 0.900000 0.110000 0.100000 800 45 0.900000 1.565000 1.436000 600 54 1.000000 0.053000 0.053000 1.200000 0.030000 0.036000
1518331446642553648	300 49 0.900000 0.109000 0.099000 800 45 0.900000 1.560000 1.432000 600 54 1.000000 0.054000 0.054000 1.200000 0.030000 0.036000
1518331447194543565	300 49 0.900000 0.109000 0.099000 800 45 0.900000 1.571000 1.442000 600 54 1.000000 0.054000 0.054000 1.200000 0.030000 0.036000
1518331447746583565	300 49 0.900000 0.110000 0.100000 800 45 0.900000 1.566000 1.437000 600 54 1.000000 0.054000 0.054000 1.200000 0.031000 0.037000
1518331448298556857	300 49 0.900000 0.110000 0.100000 800 45 0.900000 1.558000 1.430000 600 54 1.000000 0.054000 0.054000 1.200000 0.030000 0.036000
1518331448850570065	300 49 0.900000 0.110000 0.100000 800 45 0.900000 1.558000 1.430000 600 54 1.000000 0.053000 0.053000 1.200000 0.030000 0.036000
1518331449410463732	300 49 0.900000 0.109000 0.099000 800 45 0.900000 1.571000 1.442000 600 54 1.000000 0.054000 0.054000 1.200000 0.030000 0.036000
1518331449954495940	300 49 0.900000 0.109000 0.099000 800 45 0.900000 1.565000 1.436000 600 54 1.000000 0.053000 0.053000 1.200000 0.029000 0.035000
1518331450514452690	300 49 0.900000 0.109000 0.099000 800 45 0.900000 1.565000 1.436000 600 54 1.000000 0.053000 0.053000 1.200000 0.029000 0.035000
1518331451070530857	300 49 0.900000 0.109000 0.099000 800 45 0.900000 1.565000 1.436000 600 54 1.000000 0.053000 0.053000 1.200000 0.029000 0.035000
1518331451638465065	300 49 0.900000 0.109000 0.099000 800 45 0.900000 1.571000 1.442000 600 54 1.000000 0.054000 0.054000 1.200000 0.028000 0.033000
1518331452186540607	300 49 0.900000 0.110000 0.100000 800 45 0.900000 1.566000 1.437000 600 54 1.000000 0.054000 0.054000 1.200000 0.028000 0.033000
1518331452750539815	300 49 0.900000 0.110000 0.100000 800 45 0.900000 1.562000 1.437000 600 54 1.000000 0.054000 0.054000 1.200000 0.029000 0.035000
1518331453306512857	300 49 0.900000 0.109000 0.099000 800 45 0.900000 1.565000 1.439000 600 54 1.000000 0.054000 0.054000 1.200000 0.029000 0.035000
1518331453858477065	300 49 0.900000 0.110000 0.100000 800 45 0.900000 1.566000 1.437000 600 54 1.000000 0.053000 0.053000 1.200000 0.029000 0.035000
1518331454426521732	300 49 0.900000 0.109000 0.099000 800 45 0.900000 1.559000 1.431000 600 54 1.000000 0.054000 0.054000 1.200000 0.028000 0.033000
1518331454990568191	300 49 0.900000 0.109000 0.099000 800 45 0.900000 1.557000 1.429000 600 54 1.000000 0.053000 0.053000 1.200000 0.028000 0.033000
1518331455542502566	300 49 0.900000 0.109000 0.099000 800 45 0.900000 1.557000 1.429000 600 54 1.000000 0.054000 0.054000 1.200000 0.029000 0.035000
1518331456098598024	300 49 0.900000 0.109000 0.099000 800 45 0.900000 1.567000 1.438000 600 54 1.000000 0.053000 0.053000 1.200000 0.029000 0.035000
1518331456650528774	300 49 0.900000 0.109000 0.099000 800 45 0.900000 1.564000 1.435000 600 54 1.000000 0.054000 0.054000 1.200000 0.028000 0.033000
1518331457202506316	300 49 0.900000 0.109000 0.099000 800 45 0.900000 1.561000 1.432000 600 54 1.000000 0.053000 0.053000 1.200000 0.029000 0.035000
1518331457778568483	300 49 0.900000 0.109000 0.099000 800 45 0.900000 1.555000 1.427000 600 54 1.000000 0.053000 0.053000 1.200000 0.028000 0.033000
1518331458346521691	300 49 0.900000 0.110000 0.100000 800 45 0.900000 1.556000 1.428000 600 54 1.000000 0.053000 0.053000 1.200000 0.029000 0.035000
1518331458918564066	300 49 0.900000 0.109000 0.099000 800 45 0.900000 1.550000 1.422000 600 54 1.000000 0.053000 0.053000 1.200000 0.028000 0.033000
1518331459478480275	300 49 0.900000 0.109000 0.099000 800 45 0.900000 1.558000 1.430000 600 54 1.000000 0.054000 0.054000 1.200000 0.029000 0.035000
1518331460022534025	300 49 0.900000 0.110000 0.100000 800 45 0.900000 1.554000 1.426000 600 54 1.000000 0.053000 0.053000 1.200000 0.029000 0.035000
1518331460586459733	300 49 0.900000 0.110000 0.100000 800 45 0.900000 1.562000 1.433000 600 54 1.000000 0.054000 0.054000 1.200000 0.028000 0.033000
1518331461154536775	300 49 0.900000 0.109000 0.099000 800 45 0.900000 1.562000 1.433000 600 54 1.000000 0.054000 0.054000 1.200000 0.028000 0.033000
1518331461718431983	300 49 0.900000 0.110000 0.100000 800 45 0.900000 1.561000 1.432000 600 54 1.000000 0.053000 0.053000 1.200000 0.029000 0.035000
1518331462282464942	300 49 0.900000 0.109000 0.099000 800 45 0.900000 1.556000 1.428000 600 54 1.000000 0.053000 0.053000 1.200000 0.028000 0.033000
1518331462846539900	300 49 0.900000 0.109000 0.099000 800 45 0.900000 1.553000 1.425000 600 54 1.000000 0.054000 0.054000 1.200000 0.029000 0.035000
1518331463410512317	300 49 0.900000 0.110000 0.100000 800 45 0.900000 1.551000 1.423000 600 54 1.000000 0.053000 0.053000 1.200000 0.029000 0.035000
1518331463974483692	300 49 0.900000 0.110000 0.100000 800 45 0.900000 1.548000 1.421000 600 54 1.000000 0.053000 0.053000 1.200000 0.029000 0.035000
1518331464550529692	300 49 0.900000 0.109000 0.099000 800 45 0.900000 1.561000 1.432000 600 54 1.000000 0.053000 0.053000 1.200000 0.028000 0.033000
1518331465098491400	300 49 0.900000 0.110000 0.100000 800 45 0.900000 1.560000 1.432000 600 54 1.000000 0.053000 0.053000 1.200000 0.029000 0.035000
1518331465650537609	300 49 0.900000 0.110000 0.100000 800 45 0.900000 1.562000 1.433000 600 54 1.000000 0.053000 0.053000 1.200000 0.028000 0.033000
1518331466214586609	300 49 0.900000 0.110000 0.100000 800 45 0.900000 1.560000 1.432000 600 54 1.000000 0.054000 0.054000 1.200000 0.028000 0.033000
1518331466774520192	300 49 0.900000 0.109000 0.099000 800 46 0.900000 1.562000 1.433000 600 54 1.000000 0.054000 0.054000 1.200000 0.028000 0.033000
1518331467334529984	300 49 0.900000 0.109000 0.099000 800 45 0.900000 1.561000 1.432000 600 54 1.000000 0.053000 0.053000 1.200000 0.029000 0.035000
1518331467898481942	300 49 0.900000 0.110000 0.100000 800 45 0.900000 1.554000 1.426000 600 54 1.000000 0.053000 0.053000 1.200000 0.029000 0.035000
1518331468466522026	300 49 0.900000 0.109000 0.099000 800 46 0.900000 1.555000 1.427000 600 54 1.000000 0.054000 0.054000 1.200000 0.029000 0.035000
1518331469018577526	300 49 0.900000 0.109000 0.099000 800 45 0.900000 1.561000 1.436000 600 54 1.000000 0.054000 0.054000 1.200000 0.029000 0.035000
1518331469574553692	300 49 0.900000 0.109000 0.099000 800 45 0.900000 1.570000 1.441000 600 54 1.000000 0.053000 0.053000 1.200000 0.029000 0.035000
1518331470134486192	300 49 0.900000 0.109000 0.099000 800 45 0.900000 1.568000 1.439000 600 54 1.000000 0.053000 0.053000 1.200000 0.028000 0.033000
1518331470702542776	300 49 0.900000 0.109000 0.099000 800 45 0.900000 1.566000 1.437000 600 54 1.000000 0.054000 0.054000 1.200000 0.029000 0.035000
1518331471254591901	300 49 0.900000 0.109000 0.099000 800 45 0.900000 1.567000 1.438000 600 54 1.000000 0.053000 0.053000 1.200000 0.028000 0.033000
1518331471838527276	300 49 0.900000 0.110000 0.100000 800 45 0.900000 1.567000 1.438000 600 54 1.000000 0.053000 0.053000 1.200000 0.029000 0.035000
1518331472402468026	300 49 0.900000 0.109000 0.099000 800 46 0.900000 1.564000 1.435000 600 54 1.000000 0.053000 0.053000 1.200000 0.029000 0.035000
1518331472966535859	300 49 0.900000 0.110000 0.100000 800 46 0.900000 1.561000 1.432000 600 54 1.000000 0.054000 0.054000 1.200000 0.029000 0.035000
1518331473526524318	300 49 0.900000 0.109000 0.099000 800 45 0.900000 1.567000 1.438000 600 54 1.000000 0.053000 0.053000 1.200000 0.028000 0.033000
1518331474082474318	300 49 0.900000 0.109000 0.099000 800 46 0.900000 1.568000 1.439000 600 54 1.000000 0.054000 0.054000 1.200000 0.028000 0.033000
1518331474658498068	300 49 0.900000 0.110000 0.100000 800 46 0.900000 1.568000 1.439000 600 54 1.000000 0.054000 0.054000 1.200000 0.028000 0.033000
1518331475226479276	300 49 0.900000 0.110000 0.100000 800 45 0.900000 1.567000 1.438000 600 54 1.000000 0.053000 0.053000 1.200000 0.029000 0.035000
1518331475778538068	300 49 0.900000 0.109000 0.099000 800 45 0.900000 1.567000 1.438000 600 54 1.000000 0.053000 0.053000 1.200000 0.028000 0.033000
1518331476346546568	300 49 0.900000 0.110000 0.100000 800 46 0.900000 1.568000 1.439000 600 54 1.000000 0.053000 0.053000 1.200000 0.028000 0.033000
1518331476898499902	300 49 0.900000 0.109000 0.099000 800 46 0.900000 1.566000 1.437000 600 54 1.000000 0.053000 0.053000 1.200000 0.029000 0.035000
1518331477458497943	300 49 0.900000 0.109000 0.099000 800 46 0.900000 1.562000 1.433000 600 54 1.000000 0.054000 0.054000 1.200000 0.029000 0.035000
1518331478022510110	300 49 0.900000 0.109000 0.099000 800 46 0.900000 1.568000 1.439000 600 54 1.000000 0.053000 0.053000 1.200000 0.028000 0.033000
1518331478590520318	300 49 0.900000 0.110000 0.100000 800 46 0.900000 1.561000 1.432000 600 54 1.000000 0.053000 0.053000 1.200000 0.028000 0.033000
1518331479154540152	300 49 0.900000 0.110000 0.100000 800 45 0.900000 1.560000 1.432000 600 54 1.000000 0.054000 0.054000 1.200000 0.028000 0.033000
1518331479718462360	300 49 0.900000 0.110000 0.100000 800 46 0.900000 1.562000 1.433000 600 54 1.000000 0.054000 0.054000 1.200000 0.028000 0.033000
1518331480290523360	300 49 0.900000 0.109000 0.099000 800 46 0.900000 1.562000 1.433000 600 54 1.000000 0.054000 0.054000 1.200000 0.028000 0.033000
1518331480842635694	300 49 0.900000 0.110000 0.100000 800 46 0.900000 1.562000 1.433000 600 54 1.000000 0.054000 0.054000 1.200000 0.028000 0.033000
1518331481390573985	300 49 0.900000 0.109000 0.099000 800 46 0.900000 1.562000 1.433000 600 54 1.000000 0.053000 0.053000 1.200000 0.028000 0.033000
1518331481954553027	300 49 0.900000 0.110000 0.100000 800 45 0.900000 1.567000 1.438000 600 54 1.000000 0.053000 0.053000 1.200000 0.028000 0.033000
1518331482510474361	300 49 0.900000 0.109000 0.099000 800 46 0.900000 1.563000 1.434000 600 54 1.000000 0.053000 0.053000 1.200000 0.028000 0.033000
1518331483050559986	300 49 0.900000 0.109000 0.099000 800 46 0.900000 1.567000 1.438000 600 54 1.000000 0.053000 0.053000 1.200000 0.028000 0.033000
1518331483602483652	300 49 0.900000 0.109000 0.099000 800 46 0.900000 1.566000 1.437000 600 54 1.000000 0.054000 0.054000 1.200000 0.028000 0.033000
1518331484162464944	300 49 0.900000 0.110000 0.100000 800 46 0.900000 1.569000 1.440000 600 54 1.000000 0.054000 0.054000 1.200000 0.029000 0.035000
1518331484718499944	300 49 0.900000 0.110000 0.100000 800 45 0.900000 1.567000 1.438000 600 54 1.000000 0.053000 0.053000 1.200000 0.028000 0.033000
1518331485266522319	300 49 0.900000 0.109000 0.099000 800 45 0.900000 1.568000 1.439000 600 54 1.000000 0.053000 0.053000 1.200000 0.029000 0.035000
1518331485822458819	300 49 0.900000 0.109000 0.099000 800 46 0.900000 1.566000 1.437000 600 54 1.000000 0.054000 0.054000 1.200000 0.029000 0.035000
1518331486378457528	300 49 0.900000 0.109000 0.099000 800 46 0.900000 1.562000 1.433000 600 54 1.000000 0.054000 0.054000 1.200000 0.028000 0.033000
1518331486946503069	300 49 0.900000 0.110000 0.100000 800 46 0.900000 1.571000 1.442000 600 54 1.000000 0.053000 0.053000 1.200000 0.029000 0.035000
1518331487518475320	300 49 0.900000 0.109000 0.099000 800 45 0.900000 1.573000 1.444000 600 54 1.000000 0.053000 0.053000 1.200000 0.028000 0.033000
1518331488074563820	300 49 0.900000 0.110000 0.100000 800 46 0.900000 1.570000 1.441000 600 54 1.000000 0.053000 0.053000 1.200000 0.028000 0.033000
1518331488630557445	300 49 0.900000 0.109000 0.099000 800 46 0.900000 1.565000 1.436000 600 54 1.000000 0.053000 0.053000 1.200000 0.028000 0.033000
1518331489186523236	300 49 0.900000 0.109000 0.099000 800 45 0.900000 1.566000 1.437000 600 54 1.000000 0.053000 0.053000 1.200000 0.028000 0.033000
1518331489738506945	300 49 0.900000 0.110000 0.100000 800 46 0.900000 1.570000 1.441000 600 54 1.000000 0.053000 0.053000 1.200000 0.029000 0.035000
1518331490302523903	300 49 0.900000 0.109000 0.099000 800 46 0.900000 1.561000 1.432000 600 54 1.000000 0.053000 0.053000 1.200000 0.028000 0.033000
1518331490862542653	300 49 0.900000 0.110000 0.100000 800 46 0.900000 1.562000 1.433000 600 54 1.000000 0.053000 0.053000 1.200000 0.028000 0.033000
1518331491430578487	300 49 0.900000 0.109000 0.099000 800 46 0.900000 1.567000 1.438000 600 54 1.000000 0.053000 0.053000 1.200000 0.029000 0.035000
1518331491982560820	300 49 0.900000 0.110000 0.100000 800 46 0.900000 1.573000 1.444000 600 54 1.000000 0.054000 0.054000 1.200000 0.028000 0.033000
1518331492542507945	300 49 0.900000 0.110000 0.100000 800 46 0.900000 1.574000 1.444000 600 54 1.000000 0.054000 0.054000 1.200000 0.028000 0.033000
1518331493110488070	300 49 0.900000 0.110000 0.100000 800 46 0.900000 1.572000 1.443000 600 54 1.000000 0.054000 0.054000 1.200000 0.028000 0.033000
1518331493674531195	300 49 0.900000 0.110000 0.100000 800 46 0.900000 1.562000 1.433000 600 54 1.000000 0.054000 0.054000 1.200000 0.028000 0.033000
1518331494234541987	300 49 0.900000 0.110000 0.100000 800 46 0.900000 1.561000 1.432000 600 54 1.000000 0.054000 0.054000 1.200000 0.028000 0.033000
1518331494790551862	300 49 0.900000 0.110000 0.100000 800 46 0.900000 1.568000 1.439000 600 54 1.000000 0.053000 0.053000 1.200000 0.028000 0.033000
1518331495354469570	300 49 0.900000 0.110000 0.100000 800 46 0.900000 1.563000 1.434000 600 54 1.000000 0.053000 0.053000 1.200000 0.029000 0.035000
1518331495918562571	300 49 0.900000 0.109000 0.099000 800 46 0.900000 1.548000 1.421000 600 54 1.000000 0.053000 0.053000 1.200000 0.029000 0.035000
1518331496466560487	300 49 0.900000 0.109000 0.099000 800 46 0.900000 1.560000 1.432000 600 54 1.000000 0.053000 0.053000 1.200000 0.028000 0.033000
1518331497026575821	300 49 0.900000 0.110000 0.100000 800 45 0.900000 1.560000 1.432000 600 54 1.000000 0.053000 0.053000 1.200000 0.028000 0.033000
1518331497590524446	300 49 0.900000 0.110000 0.100000 800 46 0.900000 1.560000 1.432000 600 54 1.000000 0.053000 0.053000 1.200000 0.028000 0.033000
1518331498150506029	300 49 0.900000 0.110000 0.100000 800 46 0.900000 1.559000 1.431000 600 54 1.000000 0.054000 0.054000 1.200000 0.029000 0.035000
1518331498718545363	300 49 0.900000 0.110000 0.100000 800 45 0.900000 1.553000 1.425000 600 54 1.000000 0.054000 0.054000 1.200000 0.028000 0.033000
1518331499286507654	300 49 0.900000 0.110000 0.100000 800 46 0.900000 1.556000 1.428000 600 54 1.000000 0.054000 0.054000 1.200000 0.028000 0.033000
1518331499842532529	300 49 0.900000 0.109000 0.099000 800 46 0.900000 1.551000 1.423000 600 54 1.000000 0.053000 0.053000 1.200000 0.028000 0.033000
1518331500406521613	300 49 0.900000 0.109000 0.099000 800 46 0.900000 1.552000 1.424000 600 54 1.000000 0.054000 0.054000 1.200000 0.029000 0.035000
1518331500962539279	300 49 0.900000 0.110000 0.100000 800 46 0.900000 1.559000 1.431000 600 54 1.000000 0.054000 0.054000 1.200000 0.028000 0.033000
1518331501530553988	300 49 0.900000 0.110000 0.100000 800 46 0.900000 1.560000 1.432000 600 54 1.000000 0.054000 0.054000 1.200000 0.028000 0.033000
1518331502094543238	300 49 0.900000 0.110000 0.100000 800 46 0.900000 1.560000 1.435000 600 54 1.000000 0.053000 0.053000 1.200000 0.028000 0.033000
1518331502654523696	300 49 0.900000 0.110000 0.100000 800 46 0.900000 1.559000 1.431000 600 54 1.000000 0.053000 0.053000 1.200000 0.028000 0.033000
1518331503206537571	300 49 0.900000 0.109000 0.099000 800 46 0.900000 1.560000 1.432000 600 54 1.000000 0.054000 0.054000 1.200000 0.028000 0.033000
1518331503778427238	300 49 0.900000 0.109000 0.099000 800 46 0.900000 1.554000 1.429000 600 54 1.000000 0.054000 0.054000 1.200000 0.028000 0.033000
1518331504346544530	300 49 0.900000 0.110000 0.100000 800 46 0.900000 1.551000 1.423000 600 54 1.000000 0.053000 0.053000 1.200000 0.028000 0.033000
1518331504914543030	300 49 0.900000 0.110000 0.100000 800 46 0.900000 1.559000 1.431000 600 54 1.000000 0.054000 0.054000 1.200000 0.028000 0.033000
1518331505478553113	300 49 0.900000 0.110000 0.100000 800 46 0.900000 1.561000 1.432000 600 54 1.000000 0.053000 0.053000 1.200000 0.028000 0.033000
1518331506042514905	300 49 0.900000 0.109000 0.099000 800 46 0.900000 1.561000 1.432000 600 54 1.000000 0.054000 0.054000 1.200000 0.028000 0.033000
1518331506598536655	300 49 0.900000 0.109000 0.099000 800 46 0.900000 1.560000 1.432000 600 54 1.000000 0.054000 0.054000 1.200000 0.028000 0.033000
1518331507166452530	300 49 0.900000 0.109000 0.099000 800 46 0.900000 1.560000 1.432000 600 54 1.000000 0.053000 0.053000 1.200000 0.028000 0.033000
1518331507726538322	300 49 0.900000 0.109000 0.099000 800 46 0.900000 1.557000 1.429000 600 54 1.000000 0.053000 0.053000 1.200000 0.029000 0.035000
1518331508294553405	300 49 0.900000 0.109000 0.099000 800 46 0.900000 1.569000 1.440000 600 54 1.000000 0.053000 0.053000 1.200000 0.029000 0.035000
1518331508846538655	300 49 0.900000 0.109000 0.099000 800 46 0.900000 1.571000 1.442000 600 54 1.000000 0.053000 0.053000 1.200000 0.029000 0.035000
1518331509398532239	300 49 0.900000 0.110000 0.100000 800 46 0.900000 1.580000 1.453000 600 54 1.000000 0.054000 0.054000 1.200000 0.028000 0.033000
1518331509970528281	300 49 0.900000 0.110000 0.100000 800 46 0.900000 1.581000 1.451000 600 54 1.000000 0.054000 0.054000 1.200000 0.028000 0.033000
1518331510534506614	300 49 0.900000 0.110000 0.100000 800 46 0.900000 1.581000 1.451000 600 54 1.000000 0.054000 0.054000 1.200000 0.028000 0.033000
1518331511086584031	300 49 0.900000 0.110000 0.100000 800 46 0.900000 1.581000 1.451000 600 54 1.000000 0.053000 0.053000 1.200000 0.028000 0.033000
1518331511638571072	300 49 0.900000 0.109000 0.099000 800 46 0.900000 1.579000 1.449000 600 54 1.000000 0.054000 0.054000 1.200000 0.028000 0.033000
1518331512206531781	300 49 0.900000 0.109000 0.099000 800 46 0.900000 1.580000 1.450000 600 54 1.000000 0.053000 0.053000 1.200000 0.028000 0.033000
1518331512770535156	300 49 0.900000 0.109000 0.099000 800 46 0.900000 1.580000 1.450000 600 54 1.000000 0.053000 0.053000 1.200000 0.028000 0.033000
1518331513334457614	300 49 0.900000 0.110000 0.100000 800 46 0.900000 1.580000 1.450000 600 54 1.000000 0.054000 0.054000 1.200000 0.028000 0.033000
1518331513882481406	300 49 0.900000 0.110000 0.100000 800 46 0.900000 1.579000 1.449000 600 54 1.000000 0.053000 0.053000 1.200000 0.028000 0.033000
1518331514439961698	300 49 0.900000 0.110000 0.100000 800 46 0.900000 1.569000 1.440000 600 54 1.000000 0.053000 0.053000 1.200000 0.028000 0.033000
1518331515006578864	300 49 0.900000 0.110000 0.100000 800 46 0.900000 1.493000 1.370000 600 54 1.000000 0.054000 0.054000 1.200000 0.028000 0.033000
1518331515570593031	300 49 0.900000 0.110000 0.100000 800 46 0.900000 1.567000 1.438000 600 54 1.000000 0.053000 0.053000 1.200000 0.028000 0.033000
1518331516126488281	300 49 0.900000 0.110000 0.100000 800 46 0.900000 1.568000 1.439000 600 54 1.000000 0.053000 0.053000 1.200000 0.028000 0.033000
1518331516690600740	300 49 0.900000 0.110000 0.100000 800 46 0.900000 1.575000 1.445000 600 54 1.000000 0.053000 0.053000 1.200000 0.028000 0.033000
1518331517254502698	300 49 0.900000 0.110000 0.100000 800 46 0.900000 1.577000 1.447000 600 54 1.000000 0.053000 0.053000 1.200000 0.028000 0.033000
1518331517814570573	300 49 0.900000 0.110000 0.100000 800 46 0.900000 1.581000 1.451000 600 54 1.000000 0.054000 0.054000 1.200000 0.028000 0.033000
1518331518366605823	300 49 0.900000 0.109000 0.099000 800 46 0.900000 1.573000 1.444000 600 54 1.000000 0.053000 0.053000 1.200000 0.028000 0.033000
1518331518918606948	300 49 0.900000 0.110000 0.100000 800 46 0.900000 1.574000 1.444000 600 54 1.000000 0.053000 0.053000 1.200000 0.028000 0.033000
1518331519470491532	300 49 0.900000 0.110000 0.100000 800 46 0.900000 1.579000 1.449000 600 54 1.000000 0.053000 0.053000 1.200000 0.029000 0.035000
1518331520026479157	300 49 0.900000 0.110000 0.100000 800 46 0.900000 1.570000 1.441000 600 54 1.000000 0.053000 0.053000 1.200000 0.029000 0.035000
1518331520574544032	300 49 0.900000 0.110000 0.100000 800 46 0.900000 1.572000 1.443000 600 54 1.000000 0.053000 0.053000 1.200000 0.028000 0.033000
1518331521134534199	300 49 0.900000 0.111000 0.101000 800 46 0.900000 1.559000 1.431000 600 54 1.000000 0.053000 0.053000 1.200000 0.029000 0.035000
1518331521698578990	300 49 0.900000 0.110000 0.100000 800 46 0.900000 1.565000 1.436000 600 54 1.000000 0.053000 0.053000 1.200000 0.028000 0.033000
1518331522254570199	300 49 0.900000 0.110000 0.100000 800 46 0.900000 1.562000 1.433000 600 54 1.000000 0.053000 0.053000 1.200000 0.029000 0.035000
1518331522822451240	300 49 0.900000 0.110000 0.100000 800 46 0.900000 1.568000 1.439000 600 54 1.000000 0.054000 0.054000 1.200000 0.029000 0.035000
1518331523370476949	300 49 0.900000 0.111000 0.101000 800 46 0.900000 1.573000 1.444000 600 54 1.000000 0.053000 0.053000 1.200000 0.029000 0.035000
1518331523934567657	300 49 0.900000 0.110000 0.100000 800 46 0.900000 1.574000 1.444000 600 54 1.000000 0.053000 0.053000 1.200000 0.029000 0.035000
1518331524490449532	300 49 0.900000 0.110000 0.100000 800 46 0.900000 1.575000 1.445000 600 54 1.000000 0.053000 0.053000 1.200000 0.029000 0.035000
1518331525038641282	300 49 0.900000 0.111000 0.101000 800 46 0.900000 1.562000 1.433000 600 54 1.000000 0.053000 0.053000 1.200000 0.028000 0.033000
1518331525606568241	300 49 0.900000 0.110000 0.100000 800 46 0.900000 1.563000 1.434000 600 54 1.000000 0.053000 0.053000 1.200000 0.029000 0.035000
1518331526158437907	300 49 0.900000 0.110000 0.100000 800 46 0.900000 1.565000 1.436000 600 54 1.000000 0.054000 0.054000 1.200000 0.029000 0.035000
1518331526722596366	300 49 0.900000 0.110000 0.100000 800 46 0.900000 1.572000 1.443000 600 54 1.000000 0.054000 0.054000 1.200000 0.029000 0.035000
1518331527294495449	300 49 0.900000 0.110000 0.100000 800 46 0.900000 1.573000 1.444000 600 54 1.000000 0.054000 0.054000 1.200000 0.029000 0.035000
1518331527846537074	300 49 0.900000 0.110000 0.100000 800 46 0.900000 1.573000 1.444000 600 54 1.000000 0.053000 0.053000 1.200000 0.028000 0.033000
1518331528406523449	300 49 0.900000 0.110000 0.100000 800 46 0.900000 1.574000 1.444000 600 54 1.000000 0.053000 0.053000 1.200000 0.029000 0.035000
1518331528970546991	300 49 0.900000 0.110000 0.100000 800 46 0.900000 1.574000 1.444000 600 54 1.000000 0.053000 0.053000 1.200000 0.029000 0.035000
1518331529534483366	300 49 0.900000 0.111000 0.101000 800 46 0.900000 1.571000 1.442000 600 54 1.000000 0.054000 0.054000 1.200000 0.029000 0.035000
1518331530102534866	300 49 0.900000 0.111000 0.101000 800 46 0.900000 1.570000 1.441000 600 54 1.000000 0.053000 0.053000 1.200000 0.029000 0.035000
1518331530666448325	300 49 0.900000 0.110000 0.100000 800 46 0.900000 1.565000 1.436000 600 54 1.000000 0.054000 0.054000 1.200000 0.029000 0.035000
1518331531230437991	300 49 0.900000 0.110000 0.100000 800 46 0.900000 1.564000 1.435000 600 54 1.000000 0.054000 0.054000 1.200000 0.029000 0.035000
1518331531790507658	300 49 0.900000 0.110000 0.100000 800 46 0.900000 1.566000 1.437000 600 54 1.000000 0.053000 0.053000 1.200000 0.029000 0.035000
1518331532346507700	300 49 0.900000 0.111000 0.101000 800 46 0.900000 1.574000 1.444000 600 54 1.000000 0.053000 0.053000 1.200000 0.028000 0.033000
1518331532906534408	300 49 0.900000 0.110000 0.100000 800 46 0.900000 1.574000 1.444000 600 54 1.000000 0.054000 0.054000 1.200000 0.028000 0.033000
1518331533474527992	300 49 0.900000 0.111000 0.101000 800 46 0.900000 1.576000 1.446000 600 54 1.000000 0.053000 0.053000 1.200000 0.029000 0.035000
1518331534034455992	300 49 0.900000 0.110000 0.100000 800 46 0.900000 1.571000 1.442000 600 54 1.000000 0.053000 0.053000 1.200000 0.029000 0.035000
1518331534590542408	300 49 0.900000 0.110000 0.100000 800 46 0.900000 1.567000 1.438000 600 54 1.000000 0.053000 0.053000 1.200000 0.029000 0.035000
1518331535158531075	300 49 0.900000 0.110000 0.100000 800 46 0.900000 1.559000 1.431000 600 55 1.000000 0.053000 0.053000 1.200000 0.029000 0.035000
1518331535702531534	300 49 0.900000 0.110000 0.100000 800 46 0.900000 1.561000 1.432000 600 54 1.000000 0.053000 0.053000 1.200000 0.029000 0.035000
1518331536262459200	300 49 0.900000 0.110000 0.100000 800 46 0.900000 1.559000 1.431000 600 54 1.000000 0.053000 0.053000 1.200000 0.029000 0.035000
1518331536814479784	300 49 0.900000 0.110000 0.100000 800 46 0.900000 1.557000 1.429000 600 54 1.000000 0.053000 0.053000 1.200000 0.029000 0.035000
1518331537366553284	300 49 0.900000 0.110000 0.100000 800 46 0.900000 1.567000 1.438000 600 54 1.000000 0.053000 0.053000 1.200000 0.028000 0.033000
1518331537934538409	300 49 0.900000 0.110000 0.100000 800 46 0.900000 1.567000 1.438000 600 54 1.000000 0.054000 0.054000 1.200000 0.029000 0.035000
1518331538514432659	300 49 0.900000 0.111000 0.101000 800 46 0.900000 1.567000 1.438000 600 54 1.000000 0.054000 0.054000 1.200000 0.029000 0.035000
1518331539070548451	300 49 0.900000 0.110000 0.100000 800 46 0.900000 1.567000 1.438000 600 54 1.000000 0.054000 0.054000 1.200000 0.029000 0.035000
1518331539630535534	300 49 0.900000 0.110000 0.100000 800 46 0.900000 1.564000 1.435000 600 55 1.000000 0.053000 0.053000 1.200000 0.029000 0.035000
1518331540206548784	300 49 0.900000 0.111000 0.101000 800 46 0.900000 1.563000 1.434000 600 54 1.000000 0.053000 0.053000 1.200000 0.029000 0.035000
1518331540774520451	300 49 0.900000 0.111000 0.101000 800 46 0.900000 1.560000 1.432000 600 54 1.000000 0.053000 0.053000 1.200000 0.029000 0.035000
1518331541334511076	300 49 0.900000 0.111000 0.101000 800 46 0.900000 1.567000 1.438000 600 54 1.000000 0.053000 0.053000 1.200000 0.029000 0.035000
1518331541898536868	300 49 0.900000 0.111000 0.101000 800 46 0.900000 1.568000 1.439000 600 54 1.000000 0.054000 0.054000 1.200000 0.029000 0.035000
1518331542458506201	300 49 0.900000 0.110000 0.100000 800 46 0.900000 1.569000 1.440000 600 54 1.000000 0.054000 0.054000 1.200000 0.029000 0.035000
1518331543022534034	300 49 0.900000 0.110000 0.100000 800 46 0.900000 1.568000 1.439000 600 54 1.000000 0.054000 0.054000 1.200000 0.029000 0.035000
1518331543578547243	300 49 0.900000 0.110000 0.100000 800 46 0.900000 1.567000 1.438000 600 54 1.000000 0.054000 0.054000 1.200000 0.029000 0.035000
1518331544142441035	300 49 0.900000 0.110000 0.100000 800 46 0.900000 1.562000 1.433000 600 54 1.000000 0.054000 0.054000 1.200000 0.029000 0.035000
1518331544690510160	300 49 0.900000 0.110000 0.100000 800 46 0.900000 1.556000 1.428000 600 54 1.000000 0.053000 0.053000 1.200000 0.029000 0.035000
1518331545274510535	300 49 0.900000 0.110000 0.100000 800 46 0.900000 1.556000 1.428000 600 54 1.000000 0.054000 0.054000 1.200000 0.029000 0.035000
1518331545838471285	300 49 0.900000 0.111000 0.101000 800 46 0.900000 1.567000 1.438000 600 54 1.000000 0.053000 0.053000 1.200000 0.028000 0.033000
1518331546398527577	300 49 0.900000 0.110000 0.100000 800 46 0.900000 1.571000 1.442000 600 54 1.000000 0.054000 0.054000 1.200000 0.028000 0.033000
1518331546966502577	300 49 0.900000 0.110000 0.100000 800 46 0.900000 1.577000 1.447000 600 54 1.000000 0.054000 0.054000 1.200000 0.029000 0.035000
1518331547534530910	300 49 0.900000 0.109000 0.099000 800 46 0.900000 1.563000 1.434000 600 54 1.000000 0.053000 0.053000 1.200000 0.032000 0.038000
1518331548094546868	300 49 0.900000 0.110000 0.100000 800 46 0.900000 1.576000 1.446000 600 54 1.000000 0.054000 0.054000 1.200000 0.029000 0.035000
1518331548662466993	300 49 0.900000 0.110000 0.100000 800 46 0.900000 1.572000 1.443000 600 54 1.000000 0.053000 0.053000 1.200000 0.030000 0.036000
1518331549218568077	300 49 0.900000 0.110000 0.100000 800 46 0.900000 1.573000 1.444000 600 54 1.000000 0.054000 0.054000 1.200000 0.029000 0.035000
1518331549778546660	300 49 0.900000 0.110000 0.100000 800 46 0.900000 1.578000 1.448000 600 54 1.000000 0.053000 0.053000 1.200000 0.028000 0.033000
1518331550334500702	300 49 0.900000 0.110000 0.100000 800 46 0.900000 1.577000 1.447000 600 54 1.000000 0.054000 0.054000 1.200000 0.028000 0.033000
1518331550890517869	300 49 0.900000 0.110000 0.100000 800 46 0.900000 1.572000 1.443000 600 54 1.000000 0.054000 0.054000 1.200000 0.028000 0.033000
1518331551442553327	300 49 0.900000 0.110000 0.100000 800 46 0.900000 1.573000 1.444000 600 54 1.000000 0.054000 0.054000 1.200000 0.028000 0.033000
1518331552010587536	300 49 0.900000 0.110000 0.100000 800 46 0.900000 1.574000 1.444000 600 54 1.000000 0.053000 0.053000 1.200000 0.029000 0.035000
1518331552562505619	300 49 0.900000 0.110000 0.100000 800 46 0.900000 1.571000 1.442000 600 55 1.000000 0.053000 0.053000 1.200000 0.029000 0.035000
1518331553114482702	300 49 0.900000 0.110000 0.100000 800 46 0.900000 1.567000 1.438000 600 54 1.000000 0.053000 0.053000 1.200000 0.029000 0.035000
1518331553670530702	300 49 0.900000 0.110000 0.100000 800 46 0.900000 1.567000 1.438000 600 54 1.000000 0.054000 0.054000 1.200000 0.029000 0.035000
1518331554238469702	300 49 0.900000 0.111000 0.101000 800 46 0.900000 1.576000 1.446000 600 54 1.000000 0.054000 0.054000 1.200000 0.029000 0.035000
1518331554798503828	300 49 0.900000 0.110000 0.100000 800 46 0.900000 1.566000 1.437000 600 55 1.000000 0.054000 0.054000 1.200000 0.028000 0.033000
1518331555358535828	300 49 0.900000 0.110000 0.100000 800 46 0.900000 1.571000 1.442000 600 54 1.000000 0.053000 0.053000 1.200000 0.029000 0.035000
1518331555926546161	300 49 0.900000 0.110000 0.100000 800 46 0.900000 1.571000 1.442000 600 54 1.000000 0.054000 0.054000 1.200000 0.028000 0.033000
1518331556486529786	300 49 0.900000 0.111000 0.101000 800 46 0.900000 1.576000 1.446000 600 54 1.000000 0.054000 0.054000 1.200000 0.028000 0.033000
1518331557050523036	300 49 0.900000 0.110000 0.100000 800 46 0.900000 1.572000 1.443000 600 54 1.000000 0.054000 0.054000 1.200000 0.029000 0.035000
1518331557606463870	300 49 0.900000 0.110000 0.100000 800 46 0.900000 1.571000 1.442000 600 54 1.000000 0.053000 0.053000 1.200000 0.028000 0.033000
1518331558158559453	300 49 0.900000 0.110000 0.100000 800 46 0.900000 1.573000 1.444000 600 54 1.000000 0.053000 0.053000 1.200000 0.029000 0.035000
1518331558706569161	300 49 0.900000 0.110000 0.100000 800 46 0.900000 1.572000 1.443000 600 55 1.000000 0.054000 0.054000 1.200000 0.029000 0.035000
1518331559278486786	300 49 0.900000 0.110000 0.100000 800 46 0.900000 1.578000 1.448000 600 54 1.000000 0.053000 0.053000 1.200000 0.028000 0.033000
1518331559834536578	300 49 0.900000 0.111000 0.101000 800 46 0.900000 1.572000 1.443000 600 55 1.000000 0.053000 0.053000 1.200000 0.028000 0.033000
1518331560398497245	300 49 0.900000 0.110000 0.100000 800 46 0.900000 1.567000 1.438000 600 55 1.000000 0.054000 0.054000 1.200000 0.028000 0.033000
1518331560966479662	300 49 0.900000 0.110000 0.100000 800 46 0.900000 1.565000 1.439000 600 55 1.000000 0.054000 0.054000 1.200000 0.029000 0.035000
1518331561522514662	300 49 0.900000 0.111000 0.101000 800 46 0.900000 1.559000 1.431000 600 54 1.000000 0.054000 0.054000 1.200000 0.029000 0.035000
1518331562078560620	300 49 0.900000 0.110000 0.100000 800 46 0.900000 1.570000 1.441000 600 54 1.000000 0.054000 0.054000 1.200000 0.029000 0.035000
1518331562646570953	300 49 0.900000 0.110000 0.100000 800 46 0.900000 1.567000 1.438000 600 54 1.000000 0.054000 0.054000 1.200000 0.029000 0.035000
1518331563210488454	300 49 0.900000 0.109000 0.099000 800 46 0.900000 1.573000 1.444000 600 54 1.000000 0.054000 0.054000 1.200000 0.029000 0.035000
1518331563762609454	300 49 0.900000 0.111000 0.101000 800 46 0.900000 1.572000 1.443000 600 55 1.000000 0.054000 0.054000 1.200000 0.029000 0.035000
1518331564318568454	300 49 0.900000 0.111000 0.101000 800 46 0.900000 1.572000 1.443000 600 54 1.000000 0.054000 0.054000 1.200000 0.029000 0.035000
1518331564874576662	300 49 0.900000 0.111000 0.101000 800 46 0.900000 1.570000 1.441000 600 54 1.000000 0.053000 0.053000 1.200000 0.029000 0.035000
1518331565422551204	300 49 0.900000 0.110000 0.100000 800 46 0.900000 1.561000 1.432000 600 55 1.000000 0.054000 0.054000 1.200000 0.029000 0.035000
1518331565978525621	300 49 0.900000 0.110000 0.100000 800 46 0.900000 1.565000 1.436000 600 54 1.000000 0.053000 0.053000 1.200000 0.029000 0.035000
1518331566534547162	300 49 0.900000 0.110000 0.100000 800 46 0.900000 1.572000 1.443000 600 54 1.000000 0.054000 0.054000 1.200000 0.029000 0.035000
1518331567110551787	300 49 0.900000 0.110000 0.100000 800 46 0.900000 1.564000 1.435000 600 54 1.000000 0.054000 0.054000 1.200000 0.029000 0.035000
1518331567666512996	300 49 0.900000 0.110000 0.100000 800 46 0.900000 1.569000 1.440000 600 55 1.000000 0.053000 0.053000 1.200000 0.029000 0.035000
1518331568222555412	300 49 0.900000 0.110000 0.100000 800 46 0.900000 1.572000 1.443000 600 54 1.000000 0.054000 0.054000 1.200000 0.029000 0.035000
1518331568794540913	300 49 0.900000 0.110000 0.100000 800 46 0.900000 1.573000 1.444000 600 55 1.000000 0.054000 0.054000 1.200000 0.029000 0.035000
1518331569350455413	300 49 0.900000 0.110000 0.100000 800 46 0.900000 1.573000 1.444000 600 54 1.000000 0.053000 0.053000 1.200000 0.029000 0.035000
1518331569914494496	300 49 0.900000 0.110000 0.100000 800 46 0.900000 1.572000 1.443000 600 54 1.000000 0.053000 0.053000 1.200000 0.029000 0.035000
1518331570470487996	300 49 0.900000 0.110000 0.100000 800 46 0.900000 1.571000 1.442000 600 54 1.000000 0.054000 0.054000 1.200000 0.029000 0.035000
1518331571034528704	300 49 0.900000 0.110000 0.100000 800 46 0.900000 1.559000 1.431000 600 54 1.000000 0.054000 0.054000 1.200000 0.028000 0.033000
1518331571598527871	300 49 0.900000 0.110000 0.100000 800 46 0.900000 1.560000 1.432000 600 54 1.000000 0.053000 0.053000 1.200000 0.029000 0.035000
1518331572142563705	300 49 0.900000 0.110000 0.100000 800 46 0.900000 1.559000 1.431000 600 55 1.000000 0.054000 0.054000 1.200000 0.029000 0.035000
1518331572706538205	300 49 0.900000 0.110000 0.100000 800 46 0.900000 1.567000 1.438000 600 54 1.000000 0.054000 0.054000 1.200000 0.029000 0.035000
1518331573266557121	300 49 0.900000 0.110000 0.100000 800 46 0.900000 1.579000 1.449000 600 54 1.000000 0.054000 0.054000 1.200000 0.029000 0.035000
1518331573834507163	300 49 0.900000 0.111000 0.101000 800 46 0.900000 1.576000 1.446000 600 54 1.000000 0.053000 0.053000 1.200000 0.029000 0.035000
1518331574398438747	300 49 0.900000 0.110000 0.100000 800 46 0.900000 1.576000 1.446000 600 54 1.000000 0.053000 0.053000 1.200000 0.029000 0.035000
1518331574962455038	300 49 0.900000 0.110000 0.100000 800 46 0.900000 1.576000 1.446000 600 54 1.000000 0.053000 0.053000 1.200000 0.029000 0.035000
1518331575518568080	300 49 0.900000 0.111000 0.101000 800 46 0.900000 1.573000 1.444000 600 55 1.000000 0.054000 0.054000 1.200000 0.029000 0.035000
1518331576090505497	300 49 0.900000 0.110000 0.100000 800 46 0.900000 1.564000 1.435000 600 54 1.000000 0.053000 0.053000 1.200000 0.028000 0.033000
1518331576646563955	300 49 0.900000 0.110000 0.100000 800 46 0.900000 1.574000 1.444000 600 54 1.000000 0.054000 0.054000 1.200000 0.029000 0.035000
1518331577202565622	300 49 0.900000 0.111000 0.101000 800 46 0.900000 1.576000 1.446000 600 54 1.000000 0.054000 0.054000 1.200000 0.028000 0.033000
1518331577770513247	300 49 0.900000 0.110000 0.100000 800 46 0.900000 1.576000 1.446000 600 54 1.000000 0.054000 0.054000 1.200000 0.028000 0.033000
1518331578330561622	300 49 0.900000 0.111000 0.101000 800 46 0.900000 1.575000 1.445000 600 54 1.000000 0.053000 0.053000 1.200000 0.029000 0.035000
1518331578882558622	300 49 0.900000 0.110000 0.100000 800 46 0.900000 1.576000 1.446000 600 54 1.000000 0.054000 0.054000 1.200000 0.029000 0.035000
1518331579434538955	300 49 0.900000 0.110000 0.100000 800 46 0.900000 1.576000 1.446000 600 55 1.000000 0.053000 0.053000 1.200000 0.029000 0.035000
1518331579994469747	300 49 0.900000 0.110000 0.100000 800 46 0.900000 1.575000 1.445000 600 54 1.000000 0.053000 0.053000 1.200000 0.029000 0.035000
1518331580546493581	300 49 0.900000 0.110000 0.100000 800 46 0.900000 1.576000 1.446000 600 54 1.000000 0.054000 0.054000 1.200000 0.029000 0.035000
1518331581102523831	300 49 0.900000 0.111000 0.101000 800 46 0.900000 1.574000 1.444000 600 54 1.000000 0.053000 0.053000 1.200000 0.029000 0.035000
1518331581650539581	300 49 0.900000 0.110000 0.100000 800 46 0.900000 1.567000 1.438000 600 54 1.000000 0.054000 0.054000 1.200000 0.029000 0.035000
1518331582190577414	300 49 0.900000 0.110000 0.100000 800 46 0.900000 1.576000 1.446000 600 54 1.000000 0.054000 0.054000 1.200000 0.029000 0.035000
1518331582754544414	300 49 0.900000 0.111000 0.101000 800 46 0.900000 1.576000 1.446000 600 54 1.000000 0.054000 0.054000 1.200000 0.028000 0.033000
1518331583318461206	300 49 0.900000 0.110000 0.100000 800 46 0.900000 1.575000 1.445000 600 54 1.000000 0.053000 0.053000 1.200000 0.029000 0.035000
1518331583882595914	300 49 0.900000 0.111000 0.101000 800 46 0.900000 1.576000 1.446000 600 54 1.000000 0.054000 0.054000 1.200000 0.029000 0.035000
1518331584434527289	300 49 0.900000 0.110000 0.100000 800 46 0.900000 1.576000 1.446000 600 54 1.000000 0.053000 0.053000 1.200000 0.029000 0.035000
1518331584982475956	300 49 0.900000 0.110000 0.100000 800 46 0.900000 1.576000 1.446000 600 55 1.000000 0.054000 0.054000 1.200000 0.029000 0.035000
1518331585546546123	300 49 0.900000 0.111000 0.101000 800 46 0.900000 1.574000 1.444000 600 54 1.000000 0.053000 0.053000 1.200000 0.029000 0.035000
1518331586107022206	300 49 0.900000 0.110000 0.100000 800 46 0.900000 1.582000 1.452000 600 54 1.000000 0.054000 0.054000 1.200000 0.029000 0.035000
1518331586670440498	300 49 0.900000 0.111000 0.101000 800 46 0.900000 1.581000 1.451000 600 54 1.000000 0.054000 0.054000 1.200000 0.029000 0.035000
1518331587238545831	300 49 0.900000 0.110000 0.100000 800 46 0.900000 1.576000 1.446000 600 54 1.000000 0.054000 0.054000 1.200000 0.028000 0.033000
1518331587778483915	300 49 0.900000 0.111000 0.101000 800 46 0.900000 1.581000 1.451000 600 55 1.000000 0.054000 0.054000 1.200000 0.028000 0.033000
1518331588346529873	300 49 0.900000 0.110000 0.100000 800 46 0.900000 1.571000 1.442000 600 54 1.000000 0.053000 0.053000 1.200000 0.028000 0.033000
1518331588914426582	300 49 0.900000 0.110000 0.100000 800 46 0.900000 1.568000 1.439000 600 54 1.000000 0.054000 0.054000 1.200000 0.029000 0.035000
1518331589470529248	300 49 0.900000 0.110000 0.100000 800 46 0.900000 1.580000 1.450000 600 54 1.000000 0.054000 0.054000 1.200000 0.028000 0.033000
1518331590030480748	300 49 0.900000 0.110000 0.100000 800 46 0.900000 1.576000 1.446000 600 54 1.000000 0.054000 0.054000 1.200000 0.029000 0.035000
1518331590590534207	300 49 0.900000 0.110000 0.100000 800 46 0.900000 1.576000 1.446000 600 54 1.000000 0.054000 0.054000 1.200000 0.029000 0.035000
1518331591150558207	300 49 0.900000 0.109000 0.099000 800 46 0.900000 1.572000 1.443000 600 54 1.000000 0.054000 0.054000 1.200000 0.029000 0.035000
1518331591706516207	300 49 0.900000 0.110000 0.100000 800 46 0.900000 1.576000 1.446000 600 54 1.000000 0.053000 0.053000 1.200000 0.028000 0.033000
1518331592270528749	300 49 0.900000 0.110000 0.100000 800 46 0.900000 1.580000 1.450000 600 54 1.000000 0.054000 0.054000 1.200000 0.028000 0.033000
1518331592834517332	300 49 0.900000 0.110000 0.100000 800 46 0.900000 1.582000 1.452000 600 55 1.000000 0.054000 0.054000 1.200000 0.028000 0.033000
1518331593398484749	300 50 0.900000 0.109000 0.099000 800 46 0.900000 1.579000 1.449000 600 55 1.000000 0.054000 0.054000 1.200000 0.028000 0.033000
1518331593958521957	300 50 0.900000 0.110000 0.100000 800 46 0.900000 1.578000 1.448000 600 54 1.000000 0.054000 0.054000 1.200000 0.028000 0.033000
1518331594518514666	300 50 0.900000 0.110000 0.100000 800 46 0.900000 1.574000 1.444000 600 54 1.000000 0.054000 0.054000 1.200000 0.028000 0.033000
1518331595078523916	300 49 0.900000 0.109000 0.099000 800 46 0.900000 1.574000 1.444000 600 54 1.000000 0.054000 0.054000 1.200000 0.028000 0.033000
1518331595642426666	300 49 0.900000 0.110000 0.100000 800 46 0.900000 1.575000 1.445000 600 54 1.000000 0.054000 0.054000 1.200000 0.028000 0.033000
1518331596206568791	300 49 0.900000 0.109000 0.099000 800 46 0.900000 1.582000 1.452000 600 54 1.000000 0.053000 0.053000 1.200000 0.028000 0.033000
1518331596770523499	300 49 0.900000 0.110000 0.100000 800 46 0.900000 1.582000 1.452000 600 54 1.000000 0.054000 0.054000 1.200000 0.028000 0.033000
1518331597318566749	300 50 0.900000 0.110000 0.100000 800 46 0.900000 1.577000 1.447000 600 54 1.000000 0.054000 0.054000 1.200000 0.028000 0.033000
1518331597878542291	300 49 0.900000 0.109000 0.099000 800 46 0.900000 1.576000 1.446000 600 54 1.000000 0.054000 0.054000 1.200000 0.028000 0.033000
1518331598442534208	300 49 0.900000 0.110000 0.100000 800 46 0.900000 1.586000 1.455000 600 54 1.000000 0.053000 0.053000 1.200000 0.028000 0.033000
1518331599002539624	300 50 0.900000 0.110000 0.100000 800 46 0.900000 1.581000 1.451000 600 54 1.000000 0.053000 0.053000 1.200000 0.028000 0.033000
1518331599558516125	300 49 0.900000 0.110000 0.100000 800 46 0.900000 1.582000 1.452000 600 54 1.000000 0.053000 0.053000 1.200000 0.028000 0.033000
1518331600122518500	300 50 0.900000 0.109000 0.099000 800 46 0.900000 1.577000 1.447000 600 55 1.000000 0.054000 0.054000 1.200000 0.028000 0.033000
1518331600690501833	300 50 0.900000 0.110000 0.100000 800 46 0.900000 1.591000 1.460000 600 55 1.000000 0.053000 0.053000 1.200000 0.028000 0.033000
1518331601242446041	300 49 0.900000 0.110000 0.100000 800 46 0.900000 1.591000 1.460000 600 55 1.000000 0.054000 0.054000 1.200000 0.028000 0.033000
1518331601806567291	300 50 0.900000 0.110000 0.100000 800 46 0.900000 1.590000 1.459000 600 55 1.000000 0.054000 0.054000 1.200000 0.029000 0.035000
1518331602362475083	300 50 0.900000 0.109000 0.099000 800 46 0.900000 1.587000 1.456000 600 54 1.000000 0.053000 0.053000 1.200000 0.029000 0.035000
1518331602918459208	300 50 0.900000 0.109000 0.099000 800 46 0.900000 1.578000 1.448000 600 55 1.000000 0.054000 0.054000 1.200000 0.028000 0.033000
1518331603482555000	300 50 0.900000 0.110000 0.100000 800 46 0.900000 1.587000 1.456000 600 55 1.000000 0.054000 0.054000 1.200000 0.029000 0.035000
1518331604034532375	300 49 0.900000 0.110000 0.100000 800 46 0.900000 1.590000 1.459000 600 55 1.000000 0.054000 0.054000 1.200000 0.029000 0.035000
1518331604594510583	300 50 0.900000 0.109000 0.099000 800 46 0.900000 1.584000 1.454000 600 54 1.000000 0.054000 0.054000 1.200000 0.029000 0.035000
1518331605150589084	300 50 0.900000 0.109000 0.099000 800 46 0.900000 1.585000 1.455000 600 55 1.000000 0.053000 0.053000 1.200000 0.028000 0.033000
1518331605718511209	300 49 0.900000 0.110000 0.100000 800 46 0.900000 1.592000 1.461000 600 55 1.000000 0.054000 0.054000 1.200000 0.028000 0.033000
1518331606282543875	300 49 0.900000 0.109000 0.099000 800 46 0.900000 1.590000 1.459000 600 54 1.000000 0.054000 0.054000 1.200000 0.028000 0.033000
1518331606838531375	300 50 0.900000 0.110000 0.100000 800 46 0.900000 1.589000 1.458000 600 54 1.000000 0.053000 0.053000 1.200000 0.028000 0.033000
1518331607414506667	300 50 0.900000 0.110000 0.100000 800 46 0.900000 1.588000 1.457000 600 55 1.000000 0.054000 0.054000 1.200000 0.028000 0.033000
1518331607962433584	300 50 0.900000 0.110000 0.100000 800 46 0.900000 1.585000 1.458000 600 54 1.000000 0.053000 0.053000 1.200000 0.028000 0.033000
1518331608510570167	300 50 0.900000 0.109000 0.099000 800 46 0.900000 1.583000 1.453000 600 55 1.000000 0.054000 0.054000 1.200000 0.029000 0.035000
1518331609066553792	300 49 0.900000 0.110000 0.100000 800 46 0.900000 1.577000 1.447000 600 55 1.000000 0.054000 0.054000 1.200000 0.028000 0.033000
1518331609630535751	300 49 0.900000 0.110000 0.100000 800 46 0.900000 1.586000 1.455000 600 55 1.000000 0.054000 0.054000 1.200000 0.029000 0.035000
1518331610186475834	300 49 0.900000 0.110000 0.100000 800 46 0.900000 1.591000 1.460000 600 55 1.000000 0.053000 0.053000 1.200000 0.028000 0.033000
1518331610758491834	300 49 0.900000 0.110000 0.100000 800 46 0.900000 1.593000 1.462000 600 54 1.000000 0.054000 0.054000 1.200000 0.028000 0.033000
1518331611314559001	300 50 0.900000 0.110000 0.100000 800 46 0.900000 1.589000 1.458000 600 54 1.000000 0.054000 0.054000 1.200000 0.029000 0.035000
1518331611866526001	300 50 0.900000 0.110000 0.100000 800 46 0.900000 1.580000 1.450000 600 54 1.000000 0.054000 0.054000 1.200000 0.028000 0.033000
1518331612426472834	300 50 0.900000 0.110000 0.100000 800 46 0.900000 1.579000 1.449000 600 54 1.000000 0.053000 0.053000 1.200000 0.029000 0.035000
1518331612982546751	300 49 0.900000 0.110000 0.100000 800 46 0.900000 1.576000 1.446000 600 55 1.000000 0.054000 0.054000 1.200000 0.029000 0.035000
1518331613550564835	300 49 0.900000 0.110000 0.100000 800 46 0.900000 1.572000 1.443000 600 54 1.000000 0.054000 0.054000 1.200000 0.028000 0.033000
1518331614110415751	300 49 0.900000 0.110000 0.100000 800 46 0.900000 1.576000 1.446000 600 54 1.000000 0.053000 0.053000 1.200000 0.028000 0.033000
1518331614654458293	300 49 0.900000 0.110000 0.100000 800 46 0.900000 1.581000 1.451000 600 54 1.000000 0.054000 0.054000 1.200000 0.028000 0.033000
1518331615214554335	300 49 0.900000 0.110000 0.100000 800 46 0.900000 1.579000 1.449000 600 54 1.000000 0.053000 0.053000 1.200000 0.028000 0.033000
1518331615774496251	300 50 0.900000 0.110000 0.100000 800 46 0.900000 1.579000 1.449000 600 54 1.000000 0.053000 0.053000 1.200000 0.028000 0.033000
1518331616338504418	300 49 0.900000 0.110000 0.100000 800 46 0.900000 1.580000 1.450000 600 54 1.000000 0.054000 0.054000 1.200000 0.028000 0.033000
1518331616886539502	300 49 0.900000 0.110000 0.100000 800 46 0.900000 1.580000 1.450000 600 55 1.000000 0.054000 0.054000 1.200000 0.028000 0.033000
1518331617438471043	300 49 0.900000 0.109000 0.099000 800 46 0.900000 1.579000 1.449000 600 54 1.000000 0.053000 0.053000 1.200000 0.029000 0.035000
1518331618002490210	300 50 0.900000 0.110000 0.100000 800 46 0.900000 1.579000 1.449000 600 54 1.000000 0.053000 0.053000 1.200000 0.028000 0.033000
1518331618566527835	300 49 0.900000 0.110000 0.100000 800 46 0.900000 1.578000 1.448000 600 54 1.000000 0.053000 0.053000 1.200000 0.028000 0.033000
1518331619114457960	300 49 0.900000 0.110000 0.100000 800 46 0.900000 1.578000 1.448000 600 54 1.000000 0.054000 0.054000 1.200000 0.028000 0.033000
1518331619670440627	300 50 0.900000 0.110000 0.100000 800 46 0.900000 1.579000 1.449000 600 54 1.000000 0.054000 0.054000 1.200000 0.028000 0.033000
1518331620226499669	300 49 0.900000 0.110000 0.100000 800 46 0.900000 1.579000 1.449000 600 54 1.000000 0.054000 0.054000 1.200000 0.028000 0.033000
1518331620790505294	300 50 0.900000 0.110000 0.100000 800 46 0.900000 1.579000 1.449000 600 55 1.000000 0.054000 0.054000 1.200000 0.028000 0.033000
1518331621346542294	300 50 0.900000 0.110000 0.100000 800 46 0.900000 1.580000 1.450000 600 54 1.000000 0.054000 0.054000 1.200000 0.028000 0.033000
1518331621910572336	300 50 0.900000 0.110000 0.100000 800 46 0.900000 1.579000 1.449000 600 54 1.000000 0.054000 0.054000 1.200000 0.028000 0.033000
1518331622466542169	300 50 0.900000 0.110000 0.100000 800 46 0.900000 1.579000 1.449000 600 54 1.000000 0.053000 0.053000 1.200000 0.028000 0.033000
1518331623014453794	300 50 0.900000 0.110000 0.100000 800 46 0.900000 1.579000 1.449000 600 54 1.000000 0.054000 0.054000 1.200000 0.029000 0.035000
1518331623582500711	300 50 0.900000 0.110000 0.100000 800 46 0.900000 1.573000 1.444000 600 54 1.000000 0.053000 0.053000 1.200000 0.028000 0.033000
1518331624138557044	300 50 0.900000 0.109000 0.099000 800 46 0.900000 1.582000 1.452000 600 55 1.000000 0.054000 0.054000 1.200000 0.028000 0.033000
1518331624690595544	300 50 0.900000 0.109000 0.099000 800 46 0.900000 1.583000 1.453000 600 55 1.000000 0.054000 0.054000 1.200000 0.028000 0.033000
1518331625262499628	300 49 0.900000 0.110000 0.100000 800 46 0.900000 1.579000 1.449000 600 55 1.000000 0.054000 0.054000 1.200000 0.028000 0.033000
1518331625822593753	300 50 0.900000 0.110000 0.100000 800 46 0.900000 1.591000 1.460000 600 55 1.000000 0.054000 0.054000 1.200000 0.028000 0.033000
1518331626386495378	300 50 0.900000 0.110000 0.100000 800 46 0.900000 1.583000 1.453000 600 55 1.000000 0.053000 0.053000 1.200000 0.028000 0.033000
1518331626942503378	300 50 0.900000 0.109000 0.099000 800 46 0.900000 1.587000 1.456000 600 54 1.000000 0.054000 0.054000 1.200000 0.028000 0.033000
1518331627490527836	300 49 0.900000 0.109000 0.099000 800 46 0.900000 1.586000 1.455000 600 55 1.000000 0.053000 0.053000 1.200000 0.028000 0.033000
1518331628050629003	300 50 0.900000 0.110000 0.100000 800 46 0.900000 1.589000 1.458000 600 54 1.000000 0.054000 0.054000 1.200000 0.028000 0.033000
1518331628626519836	300 50 0.900000 0.110000 0.100000 800 46 0.900000 1.585000 1.455000 600 55 1.000000 0.054000 0.054000 1.200000 0.028000 0.033000
1518331629186560336	300 49 0.900000 0.110000 0.100000 800 46 0.900000 1.585000 1.455000 600 55 1.000000 0.054000 0.054000 1.200000 0.028000 0.033000
1518331629742535170	300 49 0.900000 0.110000 0.100000 800 46 0.900000 1.584000 1.454000 600 55 1.000000 0.054000 0.054000 1.200000 0.028000 0.033000
1518331630298494878	300 49 0.900000 0.110000 0.100000 800 46 0.900000 1.586000 1.455000 600 55 1.000000 0.053000 0.053000 1.200000 0.028000 0.033000
1518331630862529420	300 50 0.900000 0.110000 0.100000 800 46 0.900000 1.589000 1.458000 600 54 1.000000 0.054000 0.054000 1.200000 0.028000 0.033000
1518331631422549712	300 50 0.900000 0.110000 0.100000 800 46 0.900000 1.582000 1.452000 600 55 1.000000 0.053000 0.053000 1.200000 0.028000 0.033000
1518331631990507170	300 50 0.900000 0.110000 0.100000 800 46 0.900000 1.585000 1.455000 600 55 1.000000 0.054000 0.054000 1.200000 0.028000 0.033000
1518331632550627337	300 50 0.900000 0.110000 0.100000 800 46 0.900000 1.592000 1.461000 600 55 1.000000 0.054000 0.054000 1.200000 0.028000 0.033000
1518331633110554587	300 50 0.900000 0.109000 0.099000 800 46 0.900000 1.587000 1.456000 600 55 1.000000 0.053000 0.053000 1.200000 0.028000 0.033000
1518331633666548004	300 50 0.900000 0.110000 0.100000 800 46 0.900000 1.592000 1.461000 600 55 1.000000 0.054000 0.054000 1.200000 0.028000 0.033000
1518331634222498504	300 49 0.900000 0.110000 0.100000 800 46 0.900000 1.591000 1.460000 600 55 1.000000 0.054000 0.054000 1.200000 0.028000 0.033000
1518331634794492795	300 50 0.900000 0.111000 0.101000 800 46 0.900000 1.585000 1.455000 600 55 1.000000 0.054000 0.054000 1.200000 0.028000 0.033000
1518331635354522129	300 50 0.900000 0.110000 0.100000 800 46 0.900000 1.592000 1.461000 600 55 1.000000 0.054000 0.054000 1.200000 0.028000 0.033000
1518331635910551004	300 50 0.900000 0.110000 0.100000 800 46 0.900000 1.585000 1.455000 600 55 1.000000 0.054000 0.054000 1.200000 0.028000 0.033000
1518331636466525129	300 49 0.900000 0.110000 0.100000 800 46 0.900000 1.591000 1.460000 600 55 1.000000 0.053000 0.053000 1.200000 0.028000 0.033000
1518331637018534587	300 50 0.900000 0.110000 0.100000 800 46 0.900000 1.579000 1.449000 600 55 1.000000 0.053000 0.053000 1.200000 0.028000 0.033000
1518331637590546546	300 50 0.900000 0.110000 0.100000 800 46 0.900000 1.584000 1.454000 600 55 1.000000 0.054000 0.054000 1.200000 0.028000 0.033000
1518331638154447546	300 50 0.900000 0.110000 0.100000 800 46 0.900000 1.579000 1.449000 600 55 1.000000 0.053000 0.053000 1.200000 0.028000 0.033000
1518331638726545171	300 50 0.900000 0.110000 0.100000 800 46 0.900000 1.579000 1.449000 600 55 1.000000 0.054000 0.054000 1.200000 0.029000 0.035000
1518331639298511754	300 50 0.900000 0.109000 0.099000 800 46 0.900000 1.574000 1.444000 600 55 1.000000 0.054000 0.054000 1.200000 0.029000 0.035000
1518331639866438504	300 50 0.900000 0.110000 0.100000 800 46 0.900000 1.579000 1.449000 600 55 1.000000 0.054000 0.054000 1.200000 0.029000 0.035000
1518331640426532754	300 50 0.900000 0.109000 0.099000 800 46 0.900000 1.576000 1.446000 600 55 1.000000 0.054000 0.054000 1.200000 0.029000 0.035000
1518331640978509671	300 50 0.900000 0.110000 0.100000 800 46 0.900000 1.577000 1.447000 600 55 1.000000 0.054000 0.054000 1.200000 0.028000 0.033000
1518331641538535963	300 50 0.900000 0.110000 0.100000 800 46 0.900000 1.579000 1.449000 600 55 1.000000 0.054000 0.054000 1.200000 0.029000 0.035000
1518331642090568630	300 49 0.900000 0.110000 0.100000 800 46 0.900000 1.581000 1.451000 600 55 1.000000 0.054000 0.054000 1.200000 0.028000 0.033000
1518331642650547963	300 50 0.900000 0.110000 0.100000 800 46 0.900000 1.580000 1.450000 600 55 1.000000 0.054000 0.054000 1.200000 0.028000 0.033000
1518331643206445130	300 50 0.900000 0.110000 0.100000 800 46 0.900000 1.580000 1.450000 600 55 1.000000 0.053000 0.053000 1.200000 0.029000 0.035000
1518331643766481755	300 50 0.900000 0.110000 0.100000 800 46 0.900000 1.581000 1.451000 600 55 1.000000 0.054000 0.054000 1.200000 0.028000 0.033000
1518331644326534213	300 50 0.900000 0.110000 0.100000 800 46 0.900000 1.581000 1.451000 600 55 1.000000 0.054000 0.054000 1.200000 0.028000 0.033000
1518331644874571130	300 50 0.900000 0.110000 0.100000 800 46 0.900000 1.570000 1.441000 600 55 1.000000 0.054000 0.054000 1.200000 0.028000 0.033000
1518331645426539797	300 50 0.900000 0.110000 0.100000 800 46 0.900000 1.574000 1.444000 600 55 1.000000 0.053000 0.053000 1.200000 0.028000 0.033000
1518331645982478172	300 50 0.900000 0.109000 0.099000 800 46 0.900000 1.575000 1.445000 600 54 1.000000 0.054000 0.054000 1.200000 0.029000 0.035000
1518331646538524547	300 50 0.900000 0.110000 0.100000 800 46 0.900000 1.570000 1.441000 600 55 1.000000 0.053000 0.053000 1.200000 0.028000 0.033000
1518331647102452547	300 50 0.900000 0.110000 0.100000 800 46 0.900000 1.577000 1.447000 600 55 1.000000 0.054000 0.054000 1.200000 0.029000 0.035000
1518331647662440839	300 50 0.900000 0.110000 0.100000 800 46 0.900000 1.581000 1.451000 600 55 1.000000 0.053000 0.053000 1.200000 0.028000 0.033000
1518331648230551922	300 50 0.900000 0.110000 0.100000 800 46 0.900000 1.581000 1.451000 600 55 1.000000 0.054000 0.054000 1.200000 0.028000 0.033000
1518331648794536672	300 50 0.900000 0.110000 0.100000 800 46 0.900000 1.581000 1.451000 600 55 1.000000 0.054000 0.054000 1.200000 0.029000 0.035000
1518331649346588297	300 50 0.900000 0.110000 0.100000 800 46 0.900000 1.580000 1.450000 600 54 1.000000 0.054000 0.054000 1.200000 0.029000 0.035000
1518331649886551089	300 49 0.900000 0.110000 0.100000 800 46 0.900000 1.585000 1.455000 600 54 1.000000 0.054000 0.054000 1.200000 0.028000 0.033000
1518331650466622089	300 50 0.900000 0.110000 0.100000 800 46 0.900000 1.575000 1.445000 600 54 1.000000 0.054000 0.054000 1.200000 0.028000 0.033000
1518331651014497172	300 50 0.900000 0.110000 0.100000 800 46 0.900000 1.566000 1.437000 600 54 1.000000 0.054000 0.054000 1.200000 0.028000 0.033000
1518331651574488422	300 50 0.900000 0.109000 0.099000 800 46 0.900000 1.565000 1.436000 600 54 1.000000 0.054000 0.054000 1.200000 0.028000 0.033000
1518331652134580339	300 50 0.900000 0.110000 0.100000 800 46 0.900000 1.578000 1.448000 600 54 1.000000 0.054000 0.054000 1.200000 0.028000 0.033000
1518331652706458798	300 50 0.900000 0.110000 0.100000 800 46 0.900000 1.577000 1.447000 600 54 1.000000 0.053000 0.053000 1.200000 0.028000 0.033000
1518331653266543048	300 50 0.900000 0.110000 0.100000 800 46 0.900000 1.578000 1.448000 600 54 1.000000 0.054000 0.054000 1.200000 0.028000 0.033000
1518331653822514464	300 50 0.900000 0.110000 0.100000 800 46 0.900000 1.577000 1.447000 600 54 1.000000 0.054000 0.054000 1.200000 0.028000 0.033000
1518331654394510256	300 50 0.900000 0.109000 0.099000 800 46 0.900000 1.577000 1.447000 600 54 1.000000 0.053000 0.053000 1.200000 0.028000 0.033000
1518331654962529298	300 50 0.900000 0.110000 0.100000 800 46 0.900000 1.577000 1.447000 600 54 1.000000 0.054000 0.054000 1.200000 0.029000 0.035000
1518331655518610590	300 49 0.900000 0.110000 0.100000 800 46 0.900000 1.576000 1.446000 600 54 1.000000 0.054000 0.054000 1.200000 0.028000 0.033000
1518331656074553715	300 50 0.900000 0.110000 0.100000 800 46 0.900000 1.577000 1.447000 600 54 1.000000 0.054000 0.054000 1.200000 0.028000 0.033000
1518331656630531048	300 50 0.900000 0.110000 0.100000 800 46 0.900000 1.577000 1.447000 600 55 1.000000 0.054000 0.054000 1.200000 0.028000 0.033000
1518331657194529506	300 50 0.900000 0.110000 0.100000 800 46 0.900000 1.578000 1.448000 600 55 1.000000 0.054000 0.054000 1.200000 0.028000 0.033000
1518331657758513465	300 50 0.900000 0.110000 0.100000 800 46 0.900000 1.578000 1.448000 600 54 1.000000 0.053000 0.053000 1.200000 0.028000 0.033000
1518331658326470882	300 49 0.900000 0.110000 0.100000 800 46 0.900000 1.578000 1.448000 600 54 1.000000 0.054000 0.054000 1.200000 0.028000 0.033000
1518331658894552507	300 50 0.900000 0.110000 0.100000 800 46 0.900000 1.577000 1.447000 600 54 1.000000 0.054000 0.054000 1.200000 0.029000 0.035000
1518331659462513590	300 50 0.900000 0.110000 0.100000 800 46 0.900000 1.569000 1.440000 600 54 1.000000 0.053000 0.053000 1.200000 0.028000 0.033000
1518331660030547798	300 50 0.900000 0.109000 0.099000 800 46 0.900000 1.578000 1.448000 600 54 1.000000 0.053000 0.053000 1.200000 0.027000 0.032000
1518331660582747715	300 50 0.900000 0.110000 0.100000 800 46 0.900000 1.576000 1.446000 600 54 1.000000 0.053000 0.053000 1.200000 0.027000 0.032000
1518331661162524507	300 50 0.900000 0.110000 0.100000 800 46 0.900000 1.567000 1.438000 600 54 1.000000 0.054000 0.054000 1.200000 0.027000 0.032000
1518331661702579924	300 50 0.900000 0.110000 0.100000 800 46 0.900000 1.571000 1.442000 600 55 1.000000 0.054000 0.054000 1.200000 0.027000 0.032000
1518331662254593049	300 50 0.900000 0.110000 0.100000 800 46 0.900000 1.568000 1.439000 600 54 1.000000 0.053000 0.053000 1.200000 0.027000 0.032000
1518331662814534257	300 50 0.900000 0.110000 0.100000 800 46 0.900000 1.576000 1.446000 600 55 1.000000 0.054000 0.054000 1.200000 0.027000 0.032000
1518331663382559382	300 49 0.900000 0.109000 0.099000 800 46 0.900000 1.572000 1.443000 600 55 1.000000 0.054000 0.054000 1.200000 0.027000 0.032000
1518331663954515882	300 49 0.900000 0.110000 0.100000 800 46 0.900000 1.572000 1.443000 600 55 1.000000 0.054000 0.054000 1.200000 0.027000 0.032000
1518331664510499966	300 49 0.900000 0.109000 0.099000 800 46 0.900000 1.569000 1.440000 600 55 1.000000 0.054000 0.054000 1.200000 0.027000 0.032000
1518331665078561466	300 50 0.900000 0.110000 0.100000 800 46 0.900000 1.570000 1.441000 600 55 1.000000 0.053000 0.053000 1.200000 0.027000 0.032000
1518331665634534132	300 49 0.900000 0.110000 0.100000 800 46 0.900000 1.572000 1.443000 600 55 1.000000 0.053000 0.053000 1.200000 0.027000 0.032000
1518331666194527424	300 50 0.900000 0.110000 0.100000 800 46 0.900000 1.566000 1.437000 600 54 1.000000 0.054000 0.054000 1.200000 0.026000 0.031000
1518331666758512049	300 49 0.900000 0.110000 0.100000 800 46 0.900000 1.566000 1.437000 600 55 1.000000 0.054000 0.054000 1.200000 0.027000 0.032000
1518331667302511466	300 49 0.900000 0.110000 0.100000 800 46 0.900000 1.571000 1.442000 600 55 1.000000 0.053000 0.053000 1.200000 0.026000 0.031000
1518331667874448799	300 49 0.900000 0.110000 0.100000 800 46 0.900000 1.563000 1.434000 600 55 1.000000 0.054000 0.054000 1.200000 0.027000 0.032000
1518331668418856424	300 49 0.900000 0.110000 0.100000 800 46 0.900000 1.564000 1.435000 600 54 1.000000 0.053000 0.053000 1.200000 0.027000 0.032000
1518331668970432341	300 50 0.900000 0.109000 0.099000 800 46 0.900000 1.569000 1.440000 600 54 1.000000 0.054000 0.054000 1.200000 0.027000 0.032000
1518331669522517133	300 49 0.900000 0.110000 0.100000 800 46 0.900000 1.568000 1.439000 600 55 1.000000 0.054000 0.054000 1.200000 0.027000 0.032000
1518331670086485133	300 49 0.900000 0.110000 0.100000 800 46 0.900000 1.573000 1.444000 600 55 1.000000 0.053000 0.053000 1.200000 0.026000 0.031000
1518331670650444050	300 49 0.900000 0.111000 0.101000 800 46 0.900000 1.568000 1.439000 600 55 1.000000 0.054000 0.054000 1.200000 0.027000 0.032000
1518331671210494925	300 49 0.900000 0.110000 0.100000 800 46 0.900000 1.561000 1.432000 600 55 1.000000 0.054000 0.054000 1.200000 0.026000 0.031000
1518331671762458258	300 50 0.900000 0.110000 0.100000 800 46 0.900000 1.567000 1.438000 600 55 1.000000 0.054000 0.054000 1.200000 0.026000 0.031000
1518331672318508633	300 49 0.900000 0.110000 0.100000 800 46 0.900000 1.560000 1.432000 600 55 1.000000 0.053000 0.053000 1.200000 0.027000 0.032000
1518331672882534425	300 50 0.900000 0.109000 0.099000 800 46 0.900000 1.568000 1.439000 600 55 1.000000 0.054000 0.054000 1.200000 0.027000 0.032000
1518331673426589092	300 49 0.900000 0.109000 0.099000 800 46 0.900000 1.570000 1.441000 600 55 1.000000 0.054000 0.054000 1.200000 0.027000 0.032000
1518331673963382675	300 49 0.900000 0.110000 0.100000 800 46 0.900000 1.565000 1.436000 600 54 1.000000 0.053000 0.053000 1.200000 0.027000 0.032000
1518331674526525425	300 49 0.900000 0.109000 0.099000 800 46 0.900000 1.567000 1.438000 600 55 1.000000 0.054000 0.054000 1.200000 0.027000 0.032000
1518331675090484634	300 49 0.900000 0.110000 0.100000 800 46 0.900000 1.573000 1.444000 600 55 1.000000 0.053000 0.053000 1.200000 0.027000 0.032000
1518331675638519592	300 49 0.900000 0.110000 0.100000 800 46 0.900000 1.575000 1.445000 600 55 1.000000 0.054000 0.054000 1.200000 0.026000 0.031000
1518331676190545467	300 49 0.900000 0.110000 0.100000 800 46 0.900000 1.582000 1.452000 600 55 1.000000 0.054000 0.054000 1.200000 0.027000 0.032000
1518331676746566050	300 50 0.900000 0.110000 0.100000 800 46 0.900000 1.578000 1.448000 600 55 1.000000 0.053000 0.053000 1.200000 0.027000 0.032000
1518331677298509092	300 50 0.900000 0.110000 0.100000 800 46 0.900000 1.571000 1.442000 600 55 1.000000 0.054000 0.054000 1.200000 0.027000 0.032000
1518331677862541717	300 50 0.900000 0.109000 0.099000 800 46 0.900000 1.571000 1.442000 600 54 1.000000 0.053000 0.053000 1.200000 0.027000 0.032000
1518331678422543509	300 50 0.900000 0.110000 0.100000 800 46 0.900000 1.567000 1.438000 600 54 1.000000 0.054000 0.054000 1.200000 0.027000 0.032000
1518331678990571176	300 50 0.900000 0.110000 0.100000 800 46 0.900000 1.571000 1.442000 600 55 1.000000 0.054000 0.054000 1.200000 0.027000 0.032000
1518331679554468092	300 50 0.900000 0.110000 0.100000 800 46 0.900000 1.567000 1.438000 600 55 1.000000 0.054000 0.054000 1.200000 0.027000 0.032000
1518331680122581551	300 49 0.900000 0.110000 0.100000 800 46 0.900000 1.579000 1.449000 600 55 1.000000 0.054000 0.054000 1.200000 0.027000 0.032000
1518331680682477759	300 50 0.900000 0.110000 0.100000 800 46 0.900000 1.577000 1.447000 600 55 1.000000 0.053000 0.053000 1.200000 0.026000 0.031000
1518331681242473551	300 50 0.900000 0.110000 0.100000 800 46 0.900000 1.577000 1.447000 600 55 1.000000 0.053000 0.053000 1.200000 0.027000 0.032000
1518331681790485426	300 49 0.900000 0.110000 0.100000 800 46 0.900000 1.578000 1.448000 600 54 1.000000 0.054000 0.054000 1.200000 0.027000 0.032000
1518331682350419259	300 50 0.900000 0.110000 0.100000 800 46 0.900000 1.577000 1.447000 600 54 1.000000 0.054000 0.054000 1.200000 0.027000 0.032000
1518331682906531676	300 49 0.900000 0.109000 0.099000 800 46 0.900000 1.573000 1.444000 600 55 1.000000 0.054000 0.054000 1.200000 0.027000 0.032000
1518331683462466301	300 50 0.900000 0.110000 0.100000 800 46 0.900000 1.571000 1.442000 600 55 1.000000 0.053000 0.053000 1.200000 0.027000 0.032000
1518331684022509760	300 50 0.900000 0.110000 0.100000 800 46 0.900000 1.567000 1.438000 600 55 1.000000 0.053000 0.053000 1.200000 0.027000 0.032000
1518331684586525843	300 50 0.900000 0.109000 0.099000 800 46 0.900000 1.579000 1.449000 600 54 1.000000 0.054000 0.054000 1.200000 0.026000 0.031000
1518331685150536218	300 50 0.900000 0.110000 0.100000 800 46 0.900000 1.577000 1.447000 600 54 1.000000 0.054000 0.054000 1.200000 0.027000 0.032000
1518331685702562385	300 50 0.900000 0.110000 0.100000 800 46 0.900000 1.579000 1.449000 600 54 1.000000 0.054000 0.054000 1.200000 0.027000 0.032000
1518331686270517260	300 49 0.900000 0.110000 0.100000 800 46 0.900000 1.578000 1.448000 600 55 1.000000 0.054000 0.054000 1.200000 0.027000 0.032000
1518331686830545552	300 50 0.900000 0.110000 0.100000 800 46 0.900000 1.579000 1.449000 600 54 1.000000 0.054000 0.054000 1.200000 0.027000 0.032000
1518331687394447135	300 50 0.900000 0.110000 0.100000 800 46 0.900000 1.573000 1.444000 600 55 1.000000 0.053000 0.053000 1.200000 0.027000 0.032000
1518331687958540968	300 50 0.900000 0.109000 0.099000 800 46 0.900000 1.571000 1.442000 600 55 1.000000 0.054000 0.054000 1.200000 0.027000 0.032000
1518331688514506677	300 50 0.900000 0.110000 0.100000 800 46 0.900000 1.566000 1.437000 600 54 1.000000 0.054000 0.054000 1.200000 0.027000 0.032000
1518331689078529885	300 50 0.900000 0.111000 0.101000 800 46 0.900000 1.587000 1.456000 600 54 1.000000 0.053000 0.053000 1.200000 0.027000 0.032000
1518331689646529594	300 50 0.900000 0.110000 0.100000 800 46 0.900000 1.586000 1.455000 600 55 1.000000 0.054000 0.054000 1.200000 0.027000 0.032000
1518331690210555760	300 50 0.900000 0.110000 0.100000 800 46 0.900000 1.587000 1.456000 600 55 1.000000 0.054000 0.054000 1.200000 0.027000 0.032000
1518331690762537094	300 50 0.900000 0.110000 0.100000 800 46 0.900000 1.587000 1.456000 600 54 1.000000 0.054000 0.054000 1.200000 0.027000 0.032000
1518331691322550010	300 49 0.900000 0.110000 0.100000 800 46 0.900000 1.588000 1.457000 600 55 1.000000 0.054000 0.054000 1.200000 0.027000 0.032000
1518331691890544136	300 50 0.900000 0.110000 0.100000 800 46 0.900000 1.588000 1.457000 600 55 1.000000 0.053000 0.053000 1.200000 0.027000 0.032000
1518331692438583011	300 50 0.900000 0.109000 0.099000 800 46 0.900000 1.586000 1.455000 600 55 1.000000 0.053000 0.053000 1.200000 0.027000 0.032000
1518331692990563927	300 50 0.900000 0.109000 0.099000 800 46 0.900000 1.580000 1.450000 600 55 1.000000 0.054000 0.054000 1.200000 0.027000 0.032000
1518331693542560677	300 49 0.900000 0.109000 0.099000 800 46 0.900000 1.588000 1.457000 600 55 1.000000 0.054000 0.054000 1.200000 0.026000 0.031000
1518331694106472052	300 50 0.900000 0.110000 0.100000 800 46 0.900000 1.588000 1.457000 600 55 1.000000 0.053000 0.053000 1.200000 0.027000 0.032000
1518331694666524386	300 50 0.900000 0.110000 0.100000 800 46 0.900000 1.588000 1.457000 600 54 1.000000 0.053000 0.053000 1.200000 0.026000 0.031000
1518331695234553136	300 50 0.900000 0.110000 0.100000 800 46 0.900000 1.587000 1.456000 600 55 1.000000 0.053000 0.053000 1.200000 0.027000 0.032000
1518331695786505386	300 50 0.900000 0.110000 0.100000 800 46 0.900000 1.574000 1.444000 600 55 1.000000 0.054000 0.054000 1.200000 0.027000 0.032000
1518331696350540803	300 50 0.900000 0.110000 0.100000 800 46 0.900000 1.580000 1.450000 600 55 1.000000 0.054000 0.054000 1.200000 0.027000 0.032000
1518331696902569553	300 50 0.900000 0.109000 0.099000 800 46 0.900000 1.574000 1.444000 600 55 1.000000 0.054000 0.054000 1.200000 0.027000 0.032000
1518331697470444345	300 50 0.900000 0.109000 0.099000 800 46 0.900000 1.578000 1.448000 600 55 1.000000 0.054000 0.054000 1.200000 0.027000 0.032000
1518331698046533928	300 50 0.900000 0.110000 0.100000 800 46 0.900000 1.588000 1.457000 600 55 1.000000 0.054000 0.054000 1.200000 0.026000 0.031000
1518331698610532470	300 50 0.900000 0.110000 0.100000 800 46 0.900000 1.575000 1.445000 600 55 1.000000 0.053000 0.053000 1.200000 0.026000 0.031000
1518331699154478470	300 50 0.900000 0.110000 0.100000 800 46 0.900000 1.579000 1.449000 600 55 1.000000 0.054000 0.054000 1.200000 0.027000 0.032000
1518331699726504720	300 50 0.900000 0.109000 0.099000 800 46 0.900000 1.582000 1.452000 600 55 1.000000 0.054000 0.054000 1.200000 0.027000 0.032000
1518331700286549762	300 50 0.900000 0.110000 0.100000 800 46 0.900000 1.583000 1.453000 600 55 1.000000 0.053000 0.053000 1.200000 0.027000 0.032000
1518331700838517220	300 50 0.900000 0.110000 0.100000 800 46 0.900000 1.581000 1.451000 600 55 1.000000 0.054000 0.054000 1.200000 0.027000 0.032000
1518331701386559595	300 50 0.900000 0.109000 0.099000 800 46 0.900000 1.573000 1.444000 600 55 1.000000 0.053000 0.053000 1.200000 0.027000 0.032000
1518331701950491053	300 50 0.900000 0.109000 0.099000 800 46 0.900000 1.574000 1.444000 600 55 1.000000 0.054000 0.054000 1.200000 0.027000 0.032000
1518331702514459178	300 50 0.900000 0.110000 0.100000 800 46 0.900000 1.568000 1.439000 600 55 1.000000 0.053000 0.053000 1.200000 0.027000 0.032000
1518331703066500137	300 50 0.900000 0.110000 0.100000 800 46 0.900000 1.569000 1.440000 600 55 1.000000 0.054000 0.054000 1.200000 0.027000 0.032000
1518331703618508554	300 50 0.900000 0.110000 0.100000 800 46 0.900000 1.571000 1.442000 600 55 1.000000 0.053000 0.053000 1.200000 0.027000 0.032000
1518331704178549470	300 50 0.900000 0.110000 0.100000 800 46 0.900000 1.571000 1.442000 600 55 1.000000 0.054000 0.054000 1.200000 0.026000 0.031000
1518331704734552012	300 50 0.900000 0.110000 0.100000 800 46 0.900000 1.570000 1.441000 600 55 1.000000 0.053000 0.053000 1.200000 0.027000 0.032000
1518331705290495554	300 49 0.900000 0.110000 0.100000 800 46 0.900000 1.565000 1.436000 600 55 1.000000 0.054000 0.054000 1.200000 0.027000 0.032000
1518331705846509387	300 50 0.900000 0.110000 0.100000 800 46 0.900000 1.562000 1.433000 600 55 1.000000 0.053000 0.053000 1.200000 0.027000 0.032000
1518331706410579471	300 50 0.900000 0.110000 0.100000 800 46 0.900000 1.570000 1.441000 600 55 1.000000 0.054000 0.054000 1.200000 0.027000 0.032000
1518331706962496054	300 50 0.900000 0.110000 0.100000 800 46 0.900000 1.565000 1.436000 600 55 1.000000 0.054000 0.054000 1.200000 0.027000 0.032000
1518331707522504346	300 50 0.900000 0.110000 0.100000 800 46 0.900000 1.560000 1.432000 600 55 1.000000 0.054000 0.054000 1.200000 0.027000 0.032000
1518331708078492762	300 50 0.900000 0.109000 0.099000 800 46 0.900000 1.573000 1.444000 600 55 1.000000 0.053000 0.053000 1.200000 0.026000 0.031000
1518331708658520138	300 50 0.900000 0.109000 0.099000 800 46 0.900000 1.571000 1.442000 600 55 1.000000 0.053000 0.053000 1.200000 0.026000 0.031000
1518331709222506388	300 50 0.900000 0.110000 0.100000 800 46 0.900000 1.564000 1.435000 600 55 1.000000 0.054000 0.054000 1.200000 0.027000 0.032000
1518331709794522554	300 50 0.900000 0.110000 0.100000 800 46 0.900000 1.561000 1.432000 600 54 1.000000 0.053000 0.053000 1.200000 0.027000 0.032000
1518331710362519679	300 50 0.900000 0.110000 0.100000 800 46 0.900000 1.566000 1.437000 600 55 1.000000 0.054000 0.054000 1.200000 0.027000 0.032000
1518331710914515138	300 50 0.900000 0.110000 0.100000 800 46 0.900000 1.567000 1.438000 600 55 1.000000 0.054000 0.054000 1.200000 0.027000 0.032000
1518331711482500680	300 50 0.900000 0.109000 0.099000 800 46 0.900000 1.567000 1.438000 600 55 1.000000 0.054000 0.054000 1.200000 0.027000 0.032000
1518331712050467180	300 50 0.900000 0.109000 0.099000 800 46 0.900000 1.573000 1.444000 600 55 1.000000 0.054000 0.054000 1.200000 0.027000 0.032000
1518331712614529596	300 50 0.900000 0.109000 0.099000 800 46 0.900000 1.573000 1.444000 600 55 1.000000 0.053000 0.053000 1.200000 0.026000 0.031000
1518331713174551596	300 50 0.900000 0.109000 0.099000 800 46 0.900000 1.568000 1.439000 600 55 1.000000 0.054000 0.054000 1.200000 0.026000 0.031000
1518331713738464305	300 50 0.900000 0.109000 0.099000 800 46 0.900000 1.568000 1.439000 600 55 1.000000 0.054000 0.054000 1.200000 0.026000 0.031000
1518331714286463930	300 50 0.900000 0.110000 0.100000 800 46 0.900000 1.563000 1.434000 600 55 1.000000 0.054000 0.054000 1.200000 0.027000 0.032000
1518331714854566472	300 50 0.900000 0.110000 0.100000 800 46 0.900000 1.576000 1.446000 600 55 1.000000 0.054000 0.054000 1.200000 0.027000 0.032000
1518331715418455597	300 50 0.900000 0.110000 0.100000 800 46 0.900000 1.558000 1.430000 600 55 1.000000 0.053000 0.053000 1.200000 0.027000 0.032000
1518331715986567055	300 50 0.900000 0.110000 0.100000 800 46 0.900000 1.573000 1.444000 600 55 1.000000 0.053000 0.053000 1.200000 0.026000 0.031000
1518331716538453347	300 50 0.900000 0.110000 0.100000 800 46 0.900000 1.572000 1.443000 600 55 1.000000 0.053000 0.053000 1.200000 0.027000 0.032000
1518331717106543972	300 49 0.900000 0.110000 0.100000 800 46 0.900000 1.572000 1.443000 600 55 1.000000 0.054000 0.054000 1.200000 0.028000 0.033000
1518331717666509597	300 50 0.900000 0.110000 0.100000 800 46 0.900000 1.572000 1.443000 600 55 1.000000 0.053000 0.053000 1.200000 0.027000 0.032000
1518331718234560180	300 50 0.900000 0.110000 0.100000 800 46 0.900000 1.569000 1.440000 600 55 1.000000 0.054000 0.054000 1.200000 0.027000 0.032000
1518331718798533180	300 50 0.900000 0.110000 0.100000 800 46 0.900000 1.570000 1.441000 600 55 1.000000 0.053000 0.053000 1.200000 0.027000 0.032000
1518331719358544597	300 49 0.900000 0.110000 0.100000 800 46 0.900000 1.571000 1.442000 600 55 1.000000 0.053000 0.053000 1.200000 0.027000 0.032000
1518331719906526222	300 50 0.900000 0.110000 0.100000 800 46 0.900000 1.565000 1.436000 600 55 1.000000 0.054000 0.054000 1.200000 0.027000 0.032000
1518331720466607431	300 50 0.900000 0.110000 0.100000 800 46 0.900000 1.572000 1.443000 600 55 1.000000 0.054000 0.054000 1.200000 0.027000 0.032000
1518331721022524014	300 49 0.900000 0.110000 0.100000 800 46 0.900000 1.571000 1.442000 600 55 1.000000 0.054000 0.054000 1.200000 0.027000 0.032000
1518331721582487556	300 50 0.900000 0.110000 0.100000 800 46 0.900000 1.572000 1.443000 600 55 1.000000 0.053000 0.053000 1.200000 0.027000 0.032000
1518331722146555681	300 50 0.900000 0.110000 0.100000 800 46 0.900000 1.572000 1.443000 600 55 1.000000 0.054000 0.054000 1.200000 0.027000 0.032000
1518331722702522848	300 49 0.900000 0.109000 0.099000 800 46 0.900000 1.572000 1.443000 600 55 1.000000 0.054000 0.054000 1.200000 0.027000 0.032000
1518331723262560639	300 50 0.900000 0.110000 0.100000 800 46 0.900000 1.572000 1.443000 600 54 1.000000 0.054000 0.054000 1.200000 0.028000 0.033000
1518331723830537556	300 50 0.900000 0.110000 0.100000 800 46 0.900000 1.561000 1.432000 600 54 1.000000 0.053000 0.053000 1.200000 0.027000 0.032000
1518331724390495431	300 50 0.900000 0.110000 0.100000 800 46 0.900000 1.570000 1.441000 600 55 1.000000 0.054000 0.054000 1.200000 0.028000 0.033000
1518331724950510056	300 50 0.900000 0.110000 0.100000 800 46 0.900000 1.572000 1.443000 600 55 1.000000 0.054000 0.054000 1.200000 0.027000 0.032000
1518331725502521140	300 49 0.900000 0.110000 0.100000 800 46 0.900000 1.573000 1.444000 600 55 1.000000 0.053000 0.053000 1.200000 0.027000 0.032000
1518331726070537015	300 49 0.900000 0.110000 0.100000 800 46 0.900000 1.572000 1.443000 600 55 1.000000 0.054000 0.054000 1.200000 0.027000 0.032000
1518331726626513140	300 50 0.900000 0.110000 0.100000 800 46 0.900000 1.573000 1.444000 600 55 1.000000 0.053000 0.053000 1.200000 0.027000 0.032000
1518331727136721431	300 47 0.900000 0.109000 0.099000 800 45 0.900000 1.551000 1.423000 600 54 1.000000 0.053000 0.053000 1.200000 0.027000 0.032000
1518331727646875515	300 46 0.900000 0.109000 0.099000 800 45 0.900000 0.488000 0.447000 600 50 1.000000 0.054000 0.054000 1.200000 0.027000 0.032000
1518331728156688557	300 45 0.900000 0.109000 0.099000 800 44 0.900000 0.101000 0.093000 600 49 1.000000 0.054000 0.054000 1.200000 0.027000 0.032000
1518331728666561848	300 44 0.900000 0.109000 0.099000 800 44 0.900000 0.100000 0.092000 600 48 1.000000 0.053000 0.053000 1.200000 0.027000 0.032000
1518331729176493307	300 44 0.900000 0.087000 0.079000 800 43 0.900000 0.094000 0.086000 600 47 1.000000 0.053000 0.053000 1.200000 0.026000 0.031000
1518331729688610265	300 44 0.900000 0.039000 0.035000 800 43 0.900000 0.092000 0.084000 600 47 1.000000 0.053000 0.053000 1.200000 0.024000 0.028000
1518331730199008807	300 43 0.900000 0.016000 0.014000 800 42 0.900000 0.093000 0.085000 600 46 1.000000 0.053000 0.053000 1.200000 0.023000 0.027000
