#Timestamp	CPU(0) Frequency(MHz)	CPU(0) Temperature(C)	A7 Voltage(V)	A7 Current(A)	A7 Power(W)	CPU(4) Frequency(MHz)	CPU(4) Temperature(C)	A15 Voltage(V)	A15 Current(A)	A15 Power(W)	GPU Frequency(MHz)	GPU Temperature(C)	GPU Voltage(V)	GPU Current(A)	GPU Power(W)	RAM Voltage(V)	RAM Current(A)	RAM Power(W)
1518052969274469576	700 44 0.900000 0.035000 0.034000 900 43 0.900000 0.203000 0.192000 600 47 1.000000 0.053000 0.053000 1.200000 0.029000 0.035000
1518052969783866201	700 44 0.900000 0.037000 0.036000 900 43 0.900000 0.493000 0.466000 600 48 1.000000 0.053000 0.053000 1.200000 0.033000 0.039000
1518052970292926534	700 44 0.900000 0.036000 0.035000 900 43 0.900000 0.484000 0.455000 600 48 1.000000 0.053000 0.053000 1.200000 0.036000 0.043000
1518052970801938618	700 44 0.900000 0.037000 0.036000 900 43 0.900000 0.494000 0.464000 600 47 1.000000 0.053000 0.053000 1.200000 0.037000 0.044000
1518052971354029576	700 47 0.900000 0.037000 0.036000 900 44 0.900000 0.496000 0.468000 600 51 1.000000 0.053000 0.053000 1.200000 0.036000 0.043000
1518052971917995910	700 49 0.900000 0.264000 0.257000 900 45 0.900000 1.805000 1.707000 600 53 1.000000 0.053000 0.053000 1.200000 0.032000 0.038000
1518052972470016618	700 50 0.900000 0.264000 0.257000 900 45 0.900000 1.816000 1.717000 600 54 1.000000 0.053000 0.053000 1.200000 0.032000 0.038000
1518052973037974576	700 50 0.900000 0.265000 0.258000 900 46 0.900000 1.820000 1.721000 600 55 1.000000 0.053000 0.053000 1.200000 0.032000 0.038000
1518052973585952451	700 51 0.900000 0.265000 0.258000 900 47 0.900000 1.825000 1.726000 600 55 1.000000 0.054000 0.054000 1.200000 0.032000 0.038000
1518052974133915035	700 51 0.900000 0.265000 0.258000 900 47 0.900000 1.828000 1.729000 600 56 1.000000 0.054000 0.054000 1.200000 0.032000 0.038000
1518052974689952243	700 51 0.900000 0.266000 0.259000 900 47 0.900000 1.827000 1.728000 600 56 1.000000 0.054000 0.054000 1.200000 0.032000 0.038000
1518052975257920827	700 52 0.900000 0.266000 0.259000 900 47 0.900000 1.821000 1.722000 600 56 1.000000 0.054000 0.054000 1.200000 0.032000 0.038000
1518052975806002160	700 52 0.900000 0.266000 0.258000 900 48 0.900000 1.821000 1.722000 600 57 1.000000 0.054000 0.054000 1.200000 0.032000 0.038000
1518052976365957077	700 52 0.900000 0.265000 0.257000 900 48 0.900000 1.821000 1.722000 600 57 1.000000 0.054000 0.054000 1.200000 0.032000 0.038000
1518052976921926827	700 52 0.900000 0.265000 0.257000 900 48 0.900000 1.819000 1.720000 600 57 1.000000 0.054000 0.054000 1.200000 0.032000 0.038000
1518052977486016035	700 52 0.900000 0.265000 0.258000 900 48 0.900000 1.823000 1.724000 600 57 1.000000 0.054000 0.054000 1.200000 0.032000 0.038000
1518052978037989494	700 53 0.900000 0.266000 0.258000 900 48 0.900000 1.829000 1.730000 600 57 1.000000 0.054000 0.054000 1.200000 0.032000 0.038000
1518052978597951202	700 53 0.900000 0.265000 0.257000 900 48 0.900000 1.829000 1.728000 600 57 1.000000 0.054000 0.054000 1.200000 0.032000 0.038000
1518052979161921702	700 53 0.900000 0.266000 0.258000 900 48 0.900000 1.831000 1.732000 600 57 1.000000 0.054000 0.054000 1.200000 0.031000 0.037000
1518052979717964827	700 53 0.900000 0.266000 0.259000 900 48 0.900000 1.832000 1.733000 600 57 1.000000 0.054000 0.054000 1.200000 0.032000 0.038000
1518052980277972411	700 53 0.900000 0.266000 0.259000 900 48 0.900000 1.830000 1.731000 600 57 1.000000 0.054000 0.054000 1.200000 0.032000 0.038000
1518052980845990452	700 53 0.900000 0.266000 0.258000 900 49 0.900000 1.828000 1.729000 600 58 1.000000 0.054000 0.054000 1.200000 0.032000 0.038000
1518052981413979827	700 53 0.900000 0.266000 0.258000 900 49 0.900000 1.833000 1.734000 600 58 1.000000 0.054000 0.054000 1.200000 0.032000 0.038000
1518052981969939119	700 53 0.900000 0.266000 0.258000 900 49 0.900000 1.823000 1.724000 600 58 1.000000 0.054000 0.054000 1.200000 0.033000 0.039000
1518052982537923536	700 53 0.900000 0.266000 0.259000 900 49 0.900000 1.824000 1.725000 600 58 1.000000 0.054000 0.054000 1.200000 0.032000 0.038000
1518052983089944911	700 53 0.900000 0.266000 0.258000 900 49 0.900000 1.837000 1.737000 600 58 1.000000 0.054000 0.054000 1.200000 0.032000 0.038000
1518052983645911286	700 53 0.900000 0.266000 0.258000 900 49 0.900000 1.833000 1.734000 600 58 1.000000 0.054000 0.054000 1.200000 0.032000 0.038000
1518052984217951453	700 53 0.900000 0.266000 0.259000 900 49 0.900000 1.831000 1.732000 600 58 1.000000 0.055000 0.055000 1.200000 0.032000 0.038000
1518052984773976578	700 53 0.900000 0.266000 0.259000 900 49 0.900000 1.831000 1.732000 600 58 1.000000 0.054000 0.054000 1.200000 0.032000 0.038000
1518052985337962661	700 53 0.900000 0.266000 0.259000 900 49 0.900000 1.824000 1.725000 600 58 1.000000 0.054000 0.054000 1.200000 0.032000 0.038000
1518052985905905370	700 53 0.900000 0.266000 0.258000 900 49 0.900000 1.820000 1.721000 600 58 1.000000 0.054000 0.054000 1.200000 0.032000 0.038000
1518052986457964786	700 53 0.900000 0.266000 0.259000 900 49 0.900000 1.822000 1.723000 600 58 1.000000 0.054000 0.054000 1.200000 0.032000 0.038000
1518052987021947703	700 53 0.900000 0.266000 0.258000 900 49 0.900000 1.830000 1.731000 600 58 1.000000 0.054000 0.054000 1.200000 0.032000 0.038000
1518052987569975828	700 53 0.900000 0.266000 0.259000 900 49 0.900000 1.830000 1.731000 600 58 1.000000 0.054000 0.054000 1.200000 0.032000 0.038000
1518052988133881536	700 53 0.900000 0.266000 0.258000 900 49 0.900000 1.832000 1.733000 600 58 1.000000 0.054000 0.054000 1.200000 0.032000 0.038000
1518052988693944245	700 53 0.900000 0.266000 0.259000 900 49 0.900000 1.832000 1.733000 600 58 1.000000 0.054000 0.054000 1.200000 0.031000 0.037000
1518052989249915745	700 53 0.900000 0.266000 0.259000 900 49 0.900000 1.832000 1.733000 600 58 1.000000 0.054000 0.054000 1.200000 0.031000 0.037000
1518052989817886328	700 53 0.900000 0.266000 0.258000 900 49 0.900000 1.833000 1.734000 600 58 1.000000 0.054000 0.054000 1.200000 0.032000 0.038000
1518052990365875828	700 53 0.900000 0.266000 0.259000 900 49 0.900000 1.833000 1.734000 600 58 1.000000 0.054000 0.054000 1.200000 0.032000 0.038000
1518052990917908787	700 53 0.900000 0.266000 0.259000 900 49 0.900000 1.827000 1.728000 600 58 1.000000 0.054000 0.054000 1.200000 0.032000 0.038000
1518052991469954329	700 53 0.900000 0.266000 0.258000 900 49 0.900000 1.824000 1.725000 600 58 1.000000 0.054000 0.054000 1.200000 0.032000 0.038000
1518052992033976912	700 53 0.900000 0.266000 0.258000 900 49 0.900000 1.824000 1.725000 600 58 1.000000 0.055000 0.055000 1.200000 0.032000 0.038000
1518052992585926495	700 54 0.900000 0.266000 0.258000 900 49 0.900000 1.825000 1.726000 600 58 1.000000 0.054000 0.054000 1.200000 0.032000 0.038000
1518052993133894370	700 54 0.900000 0.266000 0.258000 900 49 0.900000 1.832000 1.733000 600 58 1.000000 0.055000 0.055000 1.200000 0.032000 0.038000
1518052993697890870	700 53 0.900000 0.266000 0.258000 900 49 0.900000 1.833000 1.734000 600 58 1.000000 0.054000 0.054000 1.200000 0.031000 0.037000
1518052994249969079	700 53 0.900000 0.266000 0.258000 900 49 0.900000 1.832000 1.733000 600 58 1.000000 0.054000 0.054000 1.200000 0.032000 0.038000
1518052994809974204	700 53 0.900000 0.266000 0.258000 900 49 0.900000 1.842000 1.742000 600 58 1.000000 0.054000 0.054000 1.200000 0.032000 0.038000
1518052995365948704	700 54 0.900000 0.266000 0.259000 900 49 0.900000 1.841000 1.741000 600 58 1.000000 0.054000 0.054000 1.200000 0.031000 0.037000
1518052995917943912	700 54 0.900000 0.266000 0.258000 900 49 0.900000 1.841000 1.741000 600 58 1.000000 0.054000 0.054000 1.200000 0.031000 0.037000
1518052996485988829	700 54 0.900000 0.266000 0.259000 900 49 0.900000 1.836000 1.736000 600 58 1.000000 0.054000 0.054000 1.200000 0.032000 0.038000
1518052997045945538	700 54 0.900000 0.266000 0.259000 900 49 0.900000 1.831000 1.732000 600 58 1.000000 0.054000 0.054000 1.200000 0.032000 0.038000
1518052997613966579	700 54 0.900000 0.266000 0.258000 900 49 0.900000 1.836000 1.736000 600 58 1.000000 0.054000 0.054000 1.200000 0.032000 0.038000
1518052998173924288	700 54 0.900000 0.266000 0.259000 900 49 0.900000 1.841000 1.741000 600 58 1.000000 0.054000 0.054000 1.200000 0.031000 0.037000
1518052998725981496	700 54 0.900000 0.266000 0.259000 900 49 0.900000 1.842000 1.742000 600 58 1.000000 0.054000 0.054000 1.200000 0.031000 0.037000
1518052999289990121	700 54 0.900000 0.266000 0.258000 900 49 0.900000 1.843000 1.743000 600 58 1.000000 0.055000 0.055000 1.200000 0.032000 0.038000
1518052999841943205	700 54 0.900000 0.266000 0.259000 900 49 0.900000 1.842000 1.742000 600 58 1.000000 0.055000 0.055000 1.200000 0.032000 0.038000
1518053000409912663	700 54 0.900000 0.266000 0.259000 900 49 0.900000 1.841000 1.741000 600 58 1.000000 0.054000 0.054000 1.200000 0.032000 0.038000
1518053000957977205	700 54 0.900000 0.266000 0.258000 900 49 0.900000 1.842000 1.742000 600 58 1.000000 0.054000 0.054000 1.200000 0.032000 0.038000
1518053001521932913	700 54 0.900000 0.266000 0.258000 900 49 0.900000 1.841000 1.741000 600 58 1.000000 0.055000 0.055000 1.200000 0.031000 0.037000
1518053002077955955	700 54 0.900000 0.266000 0.258000 900 49 0.900000 1.827000 1.728000 600 58 1.000000 0.054000 0.054000 1.200000 0.033000 0.039000
1518053002625998788	700 54 0.900000 0.266000 0.258000 900 49 0.900000 1.841000 1.741000 600 58 1.000000 0.055000 0.055000 1.200000 0.031000 0.037000
1518053003173996663	700 54 0.900000 0.266000 0.259000 900 49 0.900000 1.834000 1.734000 600 58 1.000000 0.054000 0.054000 1.200000 0.032000 0.038000
1518053003717957080	700 54 0.900000 0.266000 0.259000 900 49 0.900000 1.841000 1.741000 600 58 1.000000 0.054000 0.054000 1.200000 0.031000 0.037000
1518053004277996288	700 54 0.900000 0.266000 0.259000 900 49 0.900000 1.834000 1.734000 600 58 1.000000 0.055000 0.055000 1.200000 0.031000 0.037000
1518053004834021747	700 54 0.900000 0.266000 0.259000 900 49 0.900000 1.835000 1.735000 600 58 1.000000 0.054000 0.054000 1.200000 0.032000 0.038000
1518053005385979997	700 54 0.900000 0.266000 0.259000 900 49 0.900000 1.838000 1.738000 600 58 1.000000 0.055000 0.055000 1.200000 0.032000 0.038000
1518053005949984622	700 54 0.900000 0.266000 0.258000 900 49 0.900000 1.834000 1.734000 600 58 1.000000 0.054000 0.054000 1.200000 0.032000 0.038000
1518053006517986580	700 54 0.900000 0.266000 0.258000 900 49 0.900000 1.830000 1.731000 600 58 1.000000 0.055000 0.055000 1.200000 0.032000 0.038000
1518053007081940914	700 54 0.900000 0.265000 0.257000 900 49 0.900000 1.831000 1.732000 600 58 1.000000 0.054000 0.054000 1.200000 0.032000 0.038000
1518053007633995414	700 54 0.900000 0.266000 0.259000 900 49 0.900000 1.836000 1.736000 600 58 1.000000 0.054000 0.054000 1.200000 0.031000 0.037000
1518053008193940497	700 54 0.900000 0.266000 0.258000 900 49 0.900000 1.829000 1.730000 600 59 1.000000 0.055000 0.055000 1.200000 0.032000 0.038000
1518053008757985872	700 54 0.900000 0.266000 0.259000 900 49 0.900000 1.833000 1.734000 600 59 1.000000 0.054000 0.054000 1.200000 0.031000 0.037000
1518053009321961706	700 54 0.900000 0.266000 0.259000 900 49 0.900000 1.832000 1.733000 600 58 1.000000 0.054000 0.054000 1.200000 0.032000 0.038000
1518053009877948122	700 54 0.900000 0.266000 0.259000 900 49 0.900000 1.831000 1.732000 600 59 1.000000 0.054000 0.054000 1.200000 0.032000 0.038000
1518053010425935081	700 54 0.900000 0.266000 0.259000 900 49 0.900000 1.830000 1.731000 600 58 1.000000 0.055000 0.055000 1.200000 0.031000 0.037000
1518053010993993414	700 54 0.900000 0.266000 0.258000 900 49 0.900000 1.831000 1.732000 600 59 1.000000 0.055000 0.055000 1.200000 0.032000 0.038000
1518053011549978789	700 54 0.900000 0.266000 0.259000 900 49 0.900000 1.833000 1.734000 600 58 1.000000 0.054000 0.054000 1.200000 0.032000 0.038000
1518053012106001498	700 54 0.900000 0.266000 0.259000 900 49 0.900000 1.832000 1.733000 600 59 1.000000 0.054000 0.054000 1.200000 0.032000 0.038000
1518053012657985581	700 54 0.900000 0.266000 0.258000 900 49 0.900000 1.840000 1.740000 600 58 1.000000 0.055000 0.055000 1.200000 0.032000 0.038000
1518053013225949456	700 54 0.900000 0.266000 0.259000 900 49 0.900000 1.839000 1.739000 600 58 1.000000 0.055000 0.055000 1.200000 0.032000 0.038000
1518053013773900998	700 54 0.900000 0.266000 0.259000 900 49 0.900000 1.837000 1.737000 600 58 1.000000 0.055000 0.055000 1.200000 0.032000 0.038000
1518053014337922873	700 54 0.900000 0.266000 0.258000 900 49 0.900000 1.834000 1.734000 600 58 1.000000 0.055000 0.055000 1.200000 0.032000 0.038000
1518053014893958831	700 54 0.900000 0.266000 0.259000 900 49 0.900000 1.833000 1.734000 600 58 1.000000 0.054000 0.054000 1.200000 0.032000 0.038000
1518053015441975498	700 54 0.900000 0.266000 0.258000 900 49 0.900000 1.834000 1.734000 600 59 1.000000 0.055000 0.055000 1.200000 0.032000 0.038000
1518053016001944206	700 54 0.900000 0.266000 0.259000 900 49 0.900000 1.832000 1.733000 600 59 1.000000 0.054000 0.054000 1.200000 0.032000 0.038000
1518053016565966832	700 54 0.900000 0.266000 0.259000 900 50 0.900000 1.832000 1.733000 600 58 1.000000 0.054000 0.054000 1.200000 0.032000 0.038000
1518053017141963665	700 54 0.900000 0.266000 0.259000 900 50 0.900000 1.834000 1.734000 600 59 1.000000 0.054000 0.054000 1.200000 0.032000 0.038000
1518053017705998998	700 54 0.900000 0.266000 0.259000 900 49 0.900000 1.836000 1.736000 600 59 1.000000 0.054000 0.054000 1.200000 0.031000 0.037000
1518053018257949082	700 54 0.900000 0.266000 0.259000 900 49 0.900000 1.835000 1.735000 600 59 1.000000 0.054000 0.054000 1.200000 0.032000 0.038000
1518053018813964957	700 54 0.900000 0.266000 0.258000 900 49 0.900000 1.836000 1.736000 600 59 1.000000 0.054000 0.054000 1.200000 0.031000 0.037000
1518053019377948540	700 54 0.900000 0.266000 0.258000 900 50 0.900000 1.829000 1.730000 600 58 1.000000 0.055000 0.055000 1.200000 0.032000 0.038000
1518053019941967374	700 54 0.900000 0.266000 0.258000 900 50 0.900000 1.826000 1.727000 600 58 1.000000 0.054000 0.054000 1.200000 0.032000 0.038000
1518053020505978665	700 54 0.900000 0.266000 0.258000 900 49 0.900000 1.824000 1.725000 600 59 1.000000 0.055000 0.055000 1.200000 0.032000 0.038000
1518053021073950999	700 54 0.900000 0.266000 0.258000 900 49 0.900000 1.822000 1.723000 600 59 1.000000 0.054000 0.054000 1.200000 0.032000 0.038000
1518053021625960790	700 54 0.900000 0.266000 0.259000 900 49 0.900000 1.836000 1.736000 600 59 1.000000 0.054000 0.054000 1.200000 0.031000 0.037000
1518053022177909082	700 54 0.900000 0.266000 0.258000 900 49 0.900000 1.834000 1.734000 600 59 1.000000 0.055000 0.055000 1.200000 0.032000 0.038000
1518053022737982082	700 54 0.900000 0.266000 0.258000 900 50 0.900000 1.835000 1.735000 600 59 1.000000 0.054000 0.054000 1.200000 0.031000 0.037000
1518053023301972832	700 54 0.900000 0.266000 0.258000 900 49 0.900000 1.835000 1.735000 600 59 1.000000 0.055000 0.055000 1.200000 0.032000 0.038000
1518053023861953374	700 54 0.900000 0.266000 0.259000 900 50 0.900000 1.831000 1.732000 600 58 1.000000 0.055000 0.055000 1.200000 0.032000 0.038000
1518053024429948916	700 54 0.900000 0.266000 0.259000 900 49 0.900000 1.829000 1.730000 600 59 1.000000 0.054000 0.054000 1.200000 0.032000 0.038000
1518053024993954541	700 54 0.900000 0.266000 0.259000 900 49 0.900000 1.823000 1.724000 600 59 1.000000 0.055000 0.055000 1.200000 0.032000 0.038000
1518053025557960874	700 54 0.900000 0.266000 0.258000 900 49 0.900000 1.830000 1.731000 600 59 1.000000 0.054000 0.054000 1.200000 0.032000 0.038000
1518053026105934666	700 54 0.900000 0.266000 0.259000 900 49 0.900000 1.838000 1.738000 600 59 1.000000 0.054000 0.054000 1.200000 0.031000 0.037000
1518053026669937041	700 54 0.900000 0.266000 0.258000 900 49 0.900000 1.837000 1.737000 600 59 1.000000 0.054000 0.054000 1.200000 0.031000 0.037000
1518053027229949749	700 54 0.900000 0.266000 0.258000 900 50 0.900000 1.838000 1.738000 600 58 1.000000 0.054000 0.054000 1.200000 0.031000 0.037000
1518053027785972041	700 54 0.900000 0.266000 0.258000 900 49 0.900000 1.837000 1.737000 600 59 1.000000 0.054000 0.054000 1.200000 0.031000 0.037000
1518053028337968791	700 54 0.900000 0.266000 0.259000 900 50 0.900000 1.836000 1.736000 600 59 1.000000 0.054000 0.054000 1.200000 0.031000 0.037000
1518053028890034333	700 54 0.900000 0.266000 0.258000 900 49 0.900000 1.832000 1.733000 600 59 1.000000 0.055000 0.055000 1.200000 0.032000 0.038000
1518053029445962291	700 54 0.900000 0.266000 0.259000 900 49 0.900000 1.842000 1.742000 600 59 1.000000 0.054000 0.054000 1.200000 0.031000 0.037000
1518053030009980333	700 54 0.900000 0.266000 0.259000 900 50 0.900000 1.831000 1.732000 600 59 1.000000 0.054000 0.054000 1.200000 0.032000 0.038000
1518053030569929292	700 54 0.900000 0.266000 0.259000 900 50 0.900000 1.830000 1.731000 600 59 1.000000 0.054000 0.054000 1.200000 0.032000 0.038000
1518053031129924000	700 54 0.900000 0.265000 0.257000 900 49 0.900000 1.842000 1.742000 600 59 1.000000 0.055000 0.055000 1.200000 0.032000 0.038000
1518053031686021708	700 54 0.900000 0.265000 0.258000 900 50 0.900000 1.842000 1.742000 600 59 1.000000 0.055000 0.055000 1.200000 0.032000 0.038000
1518053032249964292	700 54 0.900000 0.265000 0.258000 900 50 0.900000 1.844000 1.744000 600 59 1.000000 0.054000 0.054000 1.200000 0.032000 0.038000
1518053032801908750	700 54 0.900000 0.265000 0.258000 900 49 0.900000 1.841000 1.741000 600 59 1.000000 0.054000 0.054000 1.200000 0.032000 0.038000
1518053033353955792	700 54 0.900000 0.266000 0.259000 900 49 0.900000 1.835000 1.735000 600 59 1.000000 0.055000 0.055000 1.200000 0.032000 0.038000
1518053033905971125	700 54 0.900000 0.265000 0.258000 900 50 0.900000 1.842000 1.742000 600 59 1.000000 0.054000 0.054000 1.200000 0.032000 0.038000
1518053034457922917	700 54 0.900000 0.265000 0.258000 900 50 0.900000 1.842000 1.742000 600 59 1.000000 0.054000 0.054000 1.200000 0.032000 0.038000
1518053035021945959	700 54 0.900000 0.265000 0.258000 900 50 0.900000 1.841000 1.741000 600 59 1.000000 0.054000 0.054000 1.200000 0.032000 0.038000
1518053035593941125	700 54 0.900000 0.265000 0.258000 900 50 0.900000 1.837000 1.737000 600 59 1.000000 0.054000 0.054000 1.200000 0.032000 0.038000
1518053036137936167	700 54 0.900000 0.265000 0.258000 900 49 0.900000 1.844000 1.744000 600 59 1.000000 0.055000 0.055000 1.200000 0.032000 0.038000
1518053036685920667	700 54 0.900000 0.265000 0.257000 900 50 0.900000 1.843000 1.743000 600 59 1.000000 0.055000 0.055000 1.200000 0.032000 0.038000
1518053037238004876	700 54 0.900000 0.265000 0.257000 900 50 0.900000 1.844000 1.744000 600 59 1.000000 0.054000 0.054000 1.200000 0.032000 0.038000
1518053037789984001	700 54 0.900000 0.266000 0.259000 900 50 0.900000 1.841000 1.741000 600 59 1.000000 0.054000 0.054000 1.200000 0.032000 0.038000
1518053038349926751	700 54 0.900000 0.265000 0.258000 900 50 0.900000 1.843000 1.743000 600 59 1.000000 0.055000 0.055000 1.200000 0.032000 0.038000
1518053038913895293	700 54 0.900000 0.265000 0.257000 900 50 0.900000 1.833000 1.734000 600 59 1.000000 0.055000 0.055000 1.200000 0.032000 0.038000
1518053039461923168	700 54 0.900000 0.265000 0.258000 900 50 0.900000 1.833000 1.734000 600 59 1.000000 0.054000 0.054000 1.200000 0.032000 0.038000
1518053040014005918	700 54 0.900000 0.265000 0.258000 900 49 0.900000 1.835000 1.735000 600 59 1.000000 0.055000 0.055000 1.200000 0.032000 0.038000
1518053040565960209	700 54 0.900000 0.265000 0.258000 900 50 0.900000 1.832000 1.733000 600 59 1.000000 0.054000 0.054000 1.200000 0.032000 0.038000
1518053041129927084	700 54 0.900000 0.265000 0.257000 900 50 0.900000 1.840000 1.740000 600 59 1.000000 0.054000 0.054000 1.200000 0.032000 0.038000
1518053041681923585	700 54 0.900000 0.265000 0.257000 900 50 0.900000 1.844000 1.744000 600 59 1.000000 0.054000 0.054000 1.200000 0.032000 0.038000
1518053042233991585	700 54 0.900000 0.265000 0.257000 900 50 0.900000 1.840000 1.740000 600 59 1.000000 0.054000 0.054000 1.200000 0.031000 0.037000
1518053042785948210	700 54 0.900000 0.265000 0.258000 900 49 0.900000 1.839000 1.739000 600 59 1.000000 0.055000 0.055000 1.200000 0.032000 0.038000
1518053043337876001	700 54 0.900000 0.265000 0.258000 900 50 0.900000 1.835000 1.735000 600 59 1.000000 0.054000 0.054000 1.200000 0.031000 0.037000
1518053043885957168	700 54 0.900000 0.265000 0.258000 900 49 0.900000 1.840000 1.740000 600 59 1.000000 0.054000 0.054000 1.200000 0.032000 0.038000
1518053044437966168	700 54 0.900000 0.265000 0.258000 900 50 0.900000 1.836000 1.736000 600 59 1.000000 0.055000 0.055000 1.200000 0.032000 0.038000
1518053044989966835	700 54 0.900000 0.265000 0.258000 900 50 0.900000 1.844000 1.744000 600 59 1.000000 0.055000 0.055000 1.200000 0.032000 0.038000
1518053045542012418	700 54 0.900000 0.265000 0.258000 900 50 0.900000 1.844000 1.744000 600 59 1.000000 0.054000 0.054000 1.200000 0.032000 0.038000
1518053046081947668	700 54 0.900000 0.265000 0.258000 900 50 0.900000 1.834000 1.734000 600 59 1.000000 0.054000 0.054000 1.200000 0.032000 0.038000
1518053046637917377	700 54 0.900000 0.265000 0.258000 900 50 0.900000 1.843000 1.743000 600 59 1.000000 0.055000 0.055000 1.200000 0.032000 0.038000
1518053047201971002	700 54 0.900000 0.266000 0.259000 900 50 0.900000 1.833000 1.734000 600 59 1.000000 0.055000 0.055000 1.200000 0.032000 0.038000
1518053047761971419	700 54 0.900000 0.265000 0.257000 900 50 0.900000 1.846000 1.746000 600 59 1.000000 0.054000 0.054000 1.200000 0.032000 0.038000
1518053048313976877	700 54 0.900000 0.265000 0.258000 900 50 0.900000 1.845000 1.745000 600 59 1.000000 0.054000 0.054000 1.200000 0.032000 0.038000
1518053048865992294	700 54 0.900000 0.265000 0.257000 900 50 0.900000 1.842000 1.742000 600 59 1.000000 0.054000 0.054000 1.200000 0.033000 0.039000
1518053049421921044	700 54 0.900000 0.265000 0.258000 900 50 0.900000 1.836000 1.736000 600 59 1.000000 0.054000 0.054000 1.200000 0.032000 0.038000
1518053049977939752	700 54 0.900000 0.265000 0.257000 900 50 0.900000 1.838000 1.738000 600 59 1.000000 0.054000 0.054000 1.200000 0.032000 0.038000
1518053050541929669	700 54 0.900000 0.265000 0.258000 900 50 0.900000 1.835000 1.735000 600 59 1.000000 0.055000 0.055000 1.200000 0.032000 0.038000
1518053051097973377	700 54 0.900000 0.265000 0.257000 900 50 0.900000 1.832000 1.733000 600 59 1.000000 0.055000 0.055000 1.200000 0.032000 0.038000
1518053051657930627	700 54 0.900000 0.265000 0.258000 900 50 0.900000 1.842000 1.742000 600 59 1.000000 0.054000 0.054000 1.200000 0.032000 0.038000
1518053052225911294	700 54 0.900000 0.265000 0.257000 900 50 0.900000 1.846000 1.746000 600 59 1.000000 0.054000 0.054000 1.200000 0.032000 0.038000
1518053052781986419	700 54 0.900000 0.265000 0.257000 900 50 0.900000 1.845000 1.745000 600 59 1.000000 0.055000 0.055000 1.200000 0.032000 0.038000
1518053053357955628	700 54 0.900000 0.265000 0.257000 900 50 0.900000 1.843000 1.743000 600 59 1.000000 0.054000 0.054000 1.200000 0.032000 0.038000
1518053053933964128	700 54 0.900000 0.265000 0.258000 900 50 0.900000 1.844000 1.744000 600 59 1.000000 0.054000 0.054000 1.200000 0.032000 0.038000
1518053054497960628	700 54 0.900000 0.265000 0.257000 900 50 0.900000 1.837000 1.737000 600 59 1.000000 0.055000 0.055000 1.200000 0.032000 0.038000
1518053055061965253	700 54 0.900000 0.265000 0.258000 900 50 0.900000 1.837000 1.737000 600 59 1.000000 0.055000 0.055000 1.200000 0.032000 0.038000
1518053055617929753	700 54 0.900000 0.265000 0.257000 900 50 0.900000 1.833000 1.734000 600 59 1.000000 0.054000 0.054000 1.200000 0.032000 0.038000
1518053056177930003	700 54 0.900000 0.265000 0.257000 900 50 0.900000 1.837000 1.737000 600 59 1.000000 0.055000 0.055000 1.200000 0.032000 0.038000
1518053056749950295	700 54 0.900000 0.265000 0.258000 900 50 0.900000 1.845000 1.745000 600 59 1.000000 0.054000 0.054000 1.200000 0.032000 0.038000
1518053057305960753	700 54 0.900000 0.265000 0.257000 900 50 0.900000 1.845000 1.745000 600 59 1.000000 0.054000 0.054000 1.200000 0.032000 0.038000
1518053057865955878	700 54 0.900000 0.265000 0.258000 900 50 0.900000 1.845000 1.745000 600 59 1.000000 0.054000 0.054000 1.200000 0.032000 0.038000
1518053058421887337	700 54 0.900000 0.265000 0.257000 900 50 0.900000 1.842000 1.742000 600 59 1.000000 0.055000 0.055000 1.200000 0.032000 0.038000
1518053058977964295	700 54 0.900000 0.265000 0.257000 900 50 0.900000 1.835000 1.735000 600 59 1.000000 0.055000 0.055000 1.200000 0.032000 0.038000
1518053059533917712	700 54 0.900000 0.265000 0.258000 900 50 0.900000 1.839000 1.739000 600 59 1.000000 0.054000 0.054000 1.200000 0.032000 0.038000
1518053060097941462	700 54 0.900000 0.265000 0.258000 900 49 0.900000 1.835000 1.735000 600 59 1.000000 0.054000 0.054000 1.200000 0.032000 0.038000
1518053060653968670	700 54 0.900000 0.265000 0.258000 900 50 0.900000 1.838000 1.738000 600 59 1.000000 0.055000 0.055000 1.200000 0.032000 0.038000
1518053061217932337	700 54 0.900000 0.267000 0.259000 900 50 0.900000 1.845000 1.745000 600 59 1.000000 0.054000 0.054000 1.200000 0.032000 0.038000
1518053061781902962	700 54 0.900000 0.267000 0.259000 900 50 0.900000 1.845000 1.745000 600 59 1.000000 0.054000 0.054000 1.200000 0.033000 0.039000
1518053062345923420	700 54 0.900000 0.267000 0.259000 900 50 0.900000 1.844000 1.744000 600 59 1.000000 0.054000 0.054000 1.200000 0.032000 0.038000
1518053062889959545	700 54 0.900000 0.267000 0.259000 900 50 0.900000 1.845000 1.745000 600 59 1.000000 0.054000 0.054000 1.200000 0.032000 0.038000
1518053063441988754	700 54 0.900000 0.267000 0.259000 900 50 0.900000 1.841000 1.741000 600 59 1.000000 0.055000 0.055000 1.200000 0.032000 0.038000
1518053064001937087	700 54 0.900000 0.267000 0.259000 900 50 0.900000 1.843000 1.743000 600 59 1.000000 0.055000 0.055000 1.200000 0.033000 0.039000
1518053064565958504	700 54 0.900000 0.267000 0.259000 900 50 0.900000 1.837000 1.737000 600 59 1.000000 0.055000 0.055000 1.200000 0.033000 0.039000
1518053065137944921	700 54 0.900000 0.267000 0.259000 900 50 0.900000 1.832000 1.733000 600 59 1.000000 0.054000 0.054000 1.200000 0.033000 0.039000
1518053065693963879	700 54 0.900000 0.267000 0.259000 900 50 0.900000 1.843000 1.743000 600 59 1.000000 0.054000 0.054000 1.200000 0.032000 0.038000
1518053066245971212	700 54 0.900000 0.267000 0.259000 900 50 0.900000 1.842000 1.742000 600 59 1.000000 0.054000 0.054000 1.200000 0.033000 0.039000
1518053066801901129	700 54 0.900000 0.267000 0.259000 900 50 0.900000 1.844000 1.744000 600 59 1.000000 0.054000 0.054000 1.200000 0.032000 0.038000
1518053067349964129	700 54 0.900000 0.267000 0.259000 900 50 0.900000 1.843000 1.743000 600 59 1.000000 0.055000 0.055000 1.200000 0.032000 0.038000
1518053067913945088	700 54 0.900000 0.267000 0.260000 900 50 0.900000 1.844000 1.744000 600 59 1.000000 0.055000 0.055000 1.200000 0.032000 0.038000
1518053068481859921	700 54 0.900000 0.267000 0.260000 900 50 0.900000 1.844000 1.744000 600 59 1.000000 0.055000 0.055000 1.200000 0.032000 0.038000
1518053069045944546	700 54 0.900000 0.267000 0.260000 900 50 0.900000 1.841000 1.741000 600 59 1.000000 0.055000 0.055000 1.200000 0.032000 0.038000
1518053069593976921	700 54 0.900000 0.267000 0.259000 900 50 0.900000 1.838000 1.738000 600 59 1.000000 0.055000 0.055000 1.200000 0.032000 0.038000
1518053070157927630	700 54 0.900000 0.267000 0.260000 900 50 0.900000 1.837000 1.737000 600 59 1.000000 0.054000 0.054000 1.200000 0.033000 0.039000
1518053070725938463	700 54 0.900000 0.267000 0.259000 900 50 0.900000 1.844000 1.744000 600 59 1.000000 0.055000 0.055000 1.200000 0.032000 0.038000
1518053071297948546	700 54 0.900000 0.267000 0.259000 900 50 0.900000 1.844000 1.744000 600 59 1.000000 0.055000 0.055000 1.200000 0.032000 0.038000
1518053071849883838	700 54 0.900000 0.267000 0.259000 900 50 0.900000 1.843000 1.743000 600 59 1.000000 0.055000 0.055000 1.200000 0.032000 0.038000
1518053072409970255	700 54 0.900000 0.267000 0.259000 900 50 0.900000 1.844000 1.744000 600 59 1.000000 0.054000 0.054000 1.200000 0.032000 0.038000
1518053072961994630	700 54 0.900000 0.267000 0.260000 900 50 0.900000 1.844000 1.744000 600 59 1.000000 0.055000 0.055000 1.200000 0.032000 0.038000
1518053073509892547	700 54 0.900000 0.267000 0.260000 900 50 0.900000 1.844000 1.744000 600 59 1.000000 0.054000 0.054000 1.200000 0.032000 0.038000
1518053074073894088	700 54 0.900000 0.267000 0.259000 900 50 0.900000 1.843000 1.743000 600 59 1.000000 0.055000 0.055000 1.200000 0.032000 0.038000
1518053074629967505	700 54 0.900000 0.267000 0.259000 900 50 0.900000 1.842000 1.742000 600 59 1.000000 0.055000 0.055000 1.200000 0.033000 0.039000
1518053075193959589	700 54 0.900000 0.267000 0.259000 900 50 0.900000 1.843000 1.743000 600 59 1.000000 0.054000 0.054000 1.200000 0.032000 0.038000
1518053075749943172	700 54 0.900000 0.267000 0.259000 900 50 0.900000 1.842000 1.742000 600 59 1.000000 0.055000 0.055000 1.200000 0.032000 0.038000
1518053076313934755	700 54 0.900000 0.267000 0.260000 900 50 0.900000 1.846000 1.746000 600 59 1.000000 0.055000 0.055000 1.200000 0.032000 0.038000
1518053076857967255	700 54 0.900000 0.266000 0.258000 900 50 0.900000 1.844000 1.744000 600 59 1.000000 0.054000 0.054000 1.200000 0.032000 0.038000
1518053077417929297	700 54 0.900000 0.267000 0.259000 900 50 0.900000 1.842000 1.742000 600 59 1.000000 0.055000 0.055000 1.200000 0.032000 0.038000
1518053077973898339	700 54 0.900000 0.267000 0.260000 900 50 0.900000 1.850000 1.750000 600 59 1.000000 0.054000 0.054000 1.200000 0.032000 0.038000
1518053078525999422	700 54 0.900000 0.267000 0.260000 900 50 0.900000 1.840000 1.740000 600 59 1.000000 0.055000 0.055000 1.200000 0.032000 0.038000
1518053079085970047	700 54 0.900000 0.267000 0.259000 900 50 0.900000 1.846000 1.746000 600 59 1.000000 0.054000 0.054000 1.200000 0.032000 0.038000
1518053079638030089	700 54 0.900000 0.267000 0.259000 900 50 0.900000 1.849000 1.749000 600 59 1.000000 0.054000 0.054000 1.200000 0.033000 0.039000
1518053080197948422	700 54 0.900000 0.267000 0.259000 900 50 0.900000 1.852000 1.751000 600 59 1.000000 0.054000 0.054000 1.200000 0.033000 0.039000
1518053080754023589	700 54 0.900000 0.267000 0.259000 900 50 0.900000 1.847000 1.747000 600 59 1.000000 0.054000 0.054000 1.200000 0.032000 0.038000
1518053081313958048	700 54 0.900000 0.267000 0.259000 900 50 0.900000 1.853000 1.752000 600 59 1.000000 0.054000 0.054000 1.200000 0.032000 0.038000
1518053081869928673	700 54 0.900000 0.267000 0.259000 900 50 0.900000 1.848000 1.748000 600 59 1.000000 0.054000 0.054000 1.200000 0.032000 0.038000
1518053082433930298	700 54 0.900000 0.267000 0.259000 900 50 0.900000 1.847000 1.747000 600 59 1.000000 0.055000 0.055000 1.200000 0.032000 0.038000
1518053082985945173	700 54 0.900000 0.267000 0.259000 900 50 0.900000 1.845000 1.745000 600 59 1.000000 0.055000 0.055000 1.200000 0.033000 0.039000
1518053083541947131	700 54 0.900000 0.267000 0.259000 900 50 0.900000 1.846000 1.746000 600 59 1.000000 0.054000 0.054000 1.200000 0.033000 0.039000
1518053084113957131	700 54 0.900000 0.267000 0.259000 900 50 0.900000 1.847000 1.747000 600 59 1.000000 0.055000 0.055000 1.200000 0.033000 0.039000
1518053084661966965	700 54 0.900000 0.267000 0.259000 900 50 0.900000 1.846000 1.746000 600 59 1.000000 0.054000 0.054000 1.200000 0.032000 0.038000
1518053085225971506	700 54 0.900000 0.267000 0.259000 900 50 0.900000 1.854000 1.753000 600 59 1.000000 0.055000 0.055000 1.200000 0.032000 0.038000
1518053085785977548	700 54 0.900000 0.267000 0.259000 900 50 0.900000 1.852000 1.751000 600 59 1.000000 0.055000 0.055000 1.200000 0.033000 0.039000
1518053086329955132	700 54 0.900000 0.267000 0.259000 900 50 0.900000 1.844000 1.744000 600 59 1.000000 0.054000 0.054000 1.200000 0.033000 0.039000
1518053086881938882	700 54 0.900000 0.267000 0.259000 900 50 0.900000 1.825000 1.726000 600 59 1.000000 0.055000 0.055000 1.200000 0.032000 0.038000
1518053087433965173	700 54 0.900000 0.267000 0.259000 900 50 0.900000 1.822000 1.723000 600 59 1.000000 0.055000 0.055000 1.200000 0.032000 0.038000
1518053087989952132	700 54 0.900000 0.267000 0.260000 900 50 0.900000 1.825000 1.726000 600 59 1.000000 0.054000 0.054000 1.200000 0.033000 0.039000
1518053088553954715	700 54 0.900000 0.267000 0.259000 900 50 0.900000 1.819000 1.720000 600 59 1.000000 0.054000 0.054000 1.200000 0.032000 0.038000
1518053089117968340	700 54 0.900000 0.267000 0.259000 900 50 0.900000 1.815000 1.716000 600 59 1.000000 0.055000 0.055000 1.200000 0.032000 0.038000
1518053089665905132	700 54 0.900000 0.267000 0.259000 900 50 0.900000 1.815000 1.716000 600 59 1.000000 0.055000 0.055000 1.200000 0.032000 0.038000
1518053090217983132	700 54 0.900000 0.267000 0.259000 900 50 0.900000 1.828000 1.729000 600 59 1.000000 0.055000 0.055000 1.200000 0.032000 0.038000
1518053090777953257	700 54 0.900000 0.266000 0.258000 900 50 0.900000 1.828000 1.729000 600 59 1.000000 0.054000 0.054000 1.200000 0.031000 0.037000
1518053091341924549	700 54 0.900000 0.266000 0.259000 900 50 0.900000 1.827000 1.728000 600 59 1.000000 0.054000 0.054000 1.200000 0.031000 0.037000
1518053091901875632	700 54 0.900000 0.265000 0.258000 900 50 0.900000 1.824000 1.725000 600 59 1.000000 0.054000 0.054000 1.200000 0.031000 0.037000
1518053092449913799	700 54 0.900000 0.266000 0.258000 900 50 0.900000 1.828000 1.729000 600 59 1.000000 0.055000 0.055000 1.200000 0.032000 0.038000
1518053093005925924	700 54 0.900000 0.265000 0.257000 900 50 0.900000 1.821000 1.722000 600 59 1.000000 0.055000 0.055000 1.200000 0.031000 0.037000
1518053093569896549	700 54 0.900000 0.265000 0.257000 900 50 0.900000 1.817000 1.718000 600 59 1.000000 0.055000 0.055000 1.200000 0.031000 0.037000
1518053094129958049	700 54 0.900000 0.265000 0.258000 900 50 0.900000 1.815000 1.716000 600 59 1.000000 0.055000 0.055000 1.200000 0.031000 0.037000
1518053094689940174	700 54 0.900000 0.265000 0.258000 900 50 0.900000 1.824000 1.725000 600 59 1.000000 0.054000 0.054000 1.200000 0.031000 0.037000
1518053095249951341	700 54 0.900000 0.266000 0.259000 900 50 0.900000 1.828000 1.729000 600 59 1.000000 0.054000 0.054000 1.200000 0.031000 0.037000
1518053095801935508	700 54 0.900000 0.266000 0.259000 900 50 0.900000 1.827000 1.728000 600 59 1.000000 0.054000 0.054000 1.200000 0.031000 0.037000
1518053096365903424	700 54 0.900000 0.265000 0.257000 900 50 0.900000 1.828000 1.729000 600 59 1.000000 0.055000 0.055000 1.200000 0.031000 0.037000
1518053096933956674	700 54 0.900000 0.266000 0.259000 900 50 0.900000 1.827000 1.728000 600 59 1.000000 0.055000 0.055000 1.200000 0.031000 0.037000
1518053097497967216	700 54 0.900000 0.265000 0.258000 900 50 0.900000 1.834000 1.734000 600 59 1.000000 0.055000 0.055000 1.200000 0.031000 0.037000
1518053098041991675	700 54 0.900000 0.265000 0.257000 900 50 0.900000 1.839000 1.739000 600 59 1.000000 0.054000 0.054000 1.200000 0.031000 0.037000
1518053098605928841	700 54 0.900000 0.265000 0.257000 900 50 0.900000 1.835000 1.735000 600 59 1.000000 0.054000 0.054000 1.200000 0.031000 0.037000
1518053099169935300	700 54 0.900000 0.266000 0.259000 900 50 0.900000 1.834000 1.734000 600 59 1.000000 0.055000 0.055000 1.200000 0.031000 0.037000
1518053099721962675	700 54 0.900000 0.266000 0.259000 900 50 0.900000 1.846000 1.746000 600 59 1.000000 0.055000 0.055000 1.200000 0.031000 0.037000
1518053100269959716	700 54 0.900000 0.266000 0.259000 900 50 0.900000 1.845000 1.745000 600 59 1.000000 0.055000 0.055000 1.200000 0.031000 0.037000
1518053100821935008	700 54 0.900000 0.266000 0.259000 900 50 0.900000 1.846000 1.746000 600 59 1.000000 0.054000 0.054000 1.200000 0.031000 0.037000
1518053101381883758	700 54 0.900000 0.266000 0.259000 900 50 0.900000 1.847000 1.749000 600 59 1.000000 0.055000 0.055000 1.200000 0.031000 0.037000
1518053101941967175	700 54 0.900000 0.265000 0.258000 900 50 0.900000 1.846000 1.746000 600 59 1.000000 0.055000 0.055000 1.200000 0.031000 0.037000
1518053102501946258	700 54 0.900000 0.265000 0.257000 900 50 0.900000 1.847000 1.747000 600 59 1.000000 0.055000 0.055000 1.200000 0.031000 0.037000
1518053103057884258	700 54 0.900000 0.266000 0.259000 900 50 0.900000 1.846000 1.746000 600 59 1.000000 0.054000 0.054000 1.200000 0.031000 0.037000
1518053103625960259	700 54 0.900000 0.266000 0.259000 900 50 0.900000 1.840000 1.740000 600 59 1.000000 0.054000 0.054000 1.200000 0.031000 0.037000
1518053104173974592	700 54 0.900000 0.266000 0.259000 900 50 0.900000 1.841000 1.741000 600 59 1.000000 0.054000 0.054000 1.200000 0.031000 0.037000
1518053104737965092	700 54 0.900000 0.266000 0.258000 900 50 0.900000 1.845000 1.745000 600 59 1.000000 0.054000 0.054000 1.200000 0.031000 0.037000
1518053105301956134	700 54 0.900000 0.266000 0.258000 900 50 0.900000 1.845000 1.745000 600 59 1.000000 0.055000 0.055000 1.200000 0.031000 0.037000
1518053105853937634	700 54 0.900000 0.266000 0.259000 900 50 0.900000 1.846000 1.746000 600 59 1.000000 0.054000 0.054000 1.200000 0.031000 0.037000
1518053106418000217	700 54 0.900000 0.266000 0.258000 900 50 0.900000 1.845000 1.745000 600 59 1.000000 0.054000 0.054000 1.200000 0.031000 0.037000
1518053106973965759	700 54 0.900000 0.266000 0.259000 900 50 0.900000 1.845000 1.745000 600 59 1.000000 0.054000 0.054000 1.200000 0.031000 0.037000
1518053107533939217	700 54 0.900000 0.266000 0.258000 900 50 0.900000 1.845000 1.745000 600 59 1.000000 0.055000 0.055000 1.200000 0.031000 0.037000
1518053108089984134	700 54 0.900000 0.266000 0.259000 900 50 0.900000 1.845000 1.745000 600 59 1.000000 0.054000 0.054000 1.200000 0.031000 0.037000
1518053108645957134	700 54 0.900000 0.265000 0.258000 900 50 0.900000 1.841000 1.741000 600 59 1.000000 0.054000 0.054000 1.200000 0.031000 0.037000
1518053109209909218	700 54 0.900000 0.265000 0.258000 900 50 0.900000 1.835000 1.735000 600 59 1.000000 0.055000 0.055000 1.200000 0.031000 0.037000
1518053109769950801	700 54 0.900000 0.266000 0.258000 900 50 0.900000 1.837000 1.737000 600 59 1.000000 0.055000 0.055000 1.200000 0.031000 0.037000
1518053110317923801	700 54 0.900000 0.266000 0.258000 900 50 0.900000 1.831000 1.732000 600 59 1.000000 0.054000 0.054000 1.200000 0.031000 0.037000
1518053110873973801	700 54 0.900000 0.266000 0.259000 900 50 0.900000 1.831000 1.732000 600 59 1.000000 0.054000 0.054000 1.200000 0.031000 0.037000
1518053111421984051	700 54 0.900000 0.266000 0.259000 900 50 0.900000 1.837000 1.737000 600 59 1.000000 0.054000 0.054000 1.200000 0.031000 0.037000
1518053111961946343	700 54 0.900000 0.266000 0.259000 900 50 0.900000 1.838000 1.738000 600 59 1.000000 0.054000 0.054000 1.200000 0.031000 0.037000
1518053112513939926	700 54 0.900000 0.266000 0.259000 900 50 0.900000 1.830000 1.731000 600 59 1.000000 0.055000 0.055000 1.200000 0.031000 0.037000
1518053113077934801	700 54 0.900000 0.265000 0.257000 900 50 0.900000 1.829000 1.730000 600 59 1.000000 0.055000 0.055000 1.200000 0.031000 0.037000
1518053113633940551	700 54 0.900000 0.266000 0.259000 900 50 0.900000 1.834000 1.734000 600 59 1.000000 0.055000 0.055000 1.200000 0.031000 0.037000
1518053114201913218	700 54 0.900000 0.266000 0.259000 900 50 0.900000 1.835000 1.735000 600 59 1.000000 0.054000 0.054000 1.200000 0.031000 0.037000
1518053114765990802	700 54 0.900000 0.265000 0.257000 900 50 0.900000 1.838000 1.738000 600 59 1.000000 0.054000 0.054000 1.200000 0.031000 0.037000
1518053115317961510	700 54 0.900000 0.265000 0.258000 900 50 0.900000 1.833000 1.734000 600 59 1.000000 0.054000 0.054000 1.200000 0.031000 0.037000
1518053115885900093	700 54 0.900000 0.266000 0.259000 900 50 0.900000 1.832000 1.733000 600 59 1.000000 0.055000 0.055000 1.200000 0.031000 0.037000
1518053116437912843	700 54 0.900000 0.265000 0.258000 900 50 0.900000 1.827000 1.728000 600 59 1.000000 0.054000 0.054000 1.200000 0.031000 0.037000
1518053116985956718	700 54 0.900000 0.265000 0.258000 900 50 0.900000 1.840000 1.740000 600 59 1.000000 0.054000 0.054000 1.200000 0.031000 0.037000
1518053117549946385	700 54 0.900000 0.266000 0.259000 900 50 0.900000 1.835000 1.735000 600 59 1.000000 0.055000 0.055000 1.200000 0.031000 0.037000
1518053118117925885	700 54 0.900000 0.265000 0.258000 900 50 0.900000 1.837000 1.737000 600 59 1.000000 0.055000 0.055000 1.200000 0.031000 0.037000
1518053118677960885	700 54 0.900000 0.265000 0.257000 900 50 0.900000 1.839000 1.739000 600 59 1.000000 0.055000 0.055000 1.200000 0.031000 0.037000
1518053119229898844	700 54 0.900000 0.266000 0.259000 900 50 0.900000 1.830000 1.731000 600 59 1.000000 0.055000 0.055000 1.200000 0.031000 0.037000
1518053119777984135	700 54 0.900000 0.266000 0.259000 900 50 0.900000 1.841000 1.741000 600 59 1.000000 0.055000 0.055000 1.200000 0.031000 0.037000
1518053120341924177	700 54 0.900000 0.266000 0.258000 900 50 0.900000 1.844000 1.744000 600 59 1.000000 0.055000 0.055000 1.200000 0.033000 0.039000
1518053120901962636	700 54 0.900000 0.266000 0.258000 900 50 0.900000 1.835000 1.735000 600 59 1.000000 0.054000 0.054000 1.200000 0.033000 0.039000
1518053121453946052	700 54 0.900000 0.266000 0.258000 900 50 0.900000 1.825000 1.726000 600 59 1.000000 0.054000 0.054000 1.200000 0.033000 0.039000
1518053122013931594	700 54 0.900000 0.266000 0.258000 900 50 0.900000 1.827000 1.728000 600 59 1.000000 0.055000 0.055000 1.200000 0.033000 0.039000
1518053122577891386	700 54 0.900000 0.266000 0.259000 900 50 0.900000 1.820000 1.721000 600 59 1.000000 0.054000 0.054000 1.200000 0.033000 0.039000
1518053123130158094	700 54 0.900000 0.266000 0.259000 900 50 0.900000 1.821000 1.722000 600 59 1.000000 0.055000 0.055000 1.200000 0.032000 0.038000
1518053123674156678	700 54 0.900000 0.265000 0.258000 900 50 0.900000 1.753000 1.658000 600 58 1.000000 0.054000 0.054000 1.200000 0.036000 0.043000
1518053124238203469	700 53 0.900000 0.265000 0.258000 900 49 0.900000 1.748000 1.653000 600 58 1.000000 0.055000 0.055000 1.200000 0.048000 0.057000
1518053124814160303	700 53 0.900000 0.267000 0.260000 900 49 0.900000 1.738000 1.642000 600 59 1.000000 0.054000 0.054000 1.200000 0.047000 0.056000
1518053125386250761	700 53 0.900000 0.267000 0.259000 900 49 0.900000 1.730000 1.636000 600 58 1.000000 0.055000 0.055000 1.200000 0.048000 0.057000
1518053125930195178	700 53 0.900000 0.266000 0.258000 900 49 0.900000 1.723000 1.629000 600 59 1.000000 0.055000 0.055000 1.200000 0.047000 0.056000
1518053126506249511	700 53 0.900000 0.266000 0.258000 900 49 0.900000 1.730000 1.634000 600 58 1.000000 0.054000 0.054000 1.200000 0.047000 0.056000
1518053127066199970	700 54 0.900000 0.266000 0.258000 900 50 0.900000 1.719000 1.626000 600 58 1.000000 0.055000 0.055000 1.200000 0.048000 0.057000
1518053127622002136	700 54 0.900000 0.266000 0.258000 900 50 0.900000 1.727000 1.632000 600 58 1.000000 0.054000 0.054000 1.200000 0.047000 0.056000
1518053128214294303	700 54 0.900000 0.266000 0.258000 900 50 0.900000 1.727000 1.633000 600 57 1.000000 0.055000 0.055000 1.200000 0.049000 0.059000
1518053128774345012	700 54 0.900000 0.267000 0.259000 900 50 0.900000 1.737000 1.643000 600 58 1.000000 0.054000 0.054000 1.200000 0.051000 0.061000
1518053129334677637	700 54 0.900000 0.266000 0.258000 900 50 0.900000 1.678000 1.585000 600 58 1.000000 0.054000 0.054000 1.200000 0.067000 0.081000
1518053129902309720	700 54 0.900000 0.266000 0.258000 900 50 0.900000 1.670000 1.578000 600 58 1.000000 0.054000 0.054000 1.200000 0.082000 0.099000
1518053130466311137	700 54 0.900000 0.266000 0.258000 900 50 0.900000 1.724000 1.630000 600 58 1.000000 0.054000 0.054000 1.200000 0.061000 0.073000
1518053131038166887	700 54 0.900000 0.265000 0.258000 900 50 0.900000 1.739000 1.645000 600 58 1.000000 0.054000 0.054000 1.200000 0.045000 0.054000
1518053131602070554	700 54 0.900000 0.265000 0.258000 900 50 0.900000 1.734000 1.640000 600 58 1.000000 0.054000 0.054000 1.200000 0.042000 0.050000
1518053132150167804	700 54 0.900000 0.266000 0.259000 900 50 0.900000 1.819000 1.720000 600 58 1.000000 0.054000 0.054000 1.200000 0.034000 0.041000
1518053132722158054	700 54 0.900000 0.264000 0.257000 900 50 0.900000 1.734000 1.640000 600 58 1.000000 0.054000 0.054000 1.200000 0.043000 0.051000
1518053133274166720	700 53 0.900000 0.265000 0.258000 900 50 0.900000 1.705000 1.612000 600 58 1.000000 0.054000 0.054000 1.200000 0.043000 0.051000
1518053133822243095	700 53 0.900000 0.265000 0.258000 900 50 0.900000 1.756000 1.661000 600 58 1.000000 0.054000 0.054000 1.200000 0.040000 0.048000
1518053134386178096	700 53 0.900000 0.265000 0.258000 900 49 0.900000 1.747000 1.652000 600 58 1.000000 0.054000 0.054000 1.200000 0.041000 0.049000
1518053134954264346	700 53 0.900000 0.264000 0.257000 900 49 0.900000 1.679000 1.586000 600 58 1.000000 0.054000 0.054000 1.200000 0.048000 0.057000
1518053135514086929	700 53 0.900000 0.264000 0.257000 900 49 0.900000 1.668000 1.576000 600 58 1.000000 0.054000 0.054000 1.200000 0.044000 0.053000
1518053136070878887	700 53 0.900000 0.264000 0.256000 900 49 0.900000 1.704000 1.610000 600 58 1.000000 0.055000 0.055000 1.200000 0.040000 0.048000
1518053136626233637	700 53 0.900000 0.266000 0.258000 900 49 0.900000 1.721000 1.628000 600 58 1.000000 0.055000 0.055000 1.200000 0.048000 0.057000
1518053137190308429	700 54 0.900000 0.267000 0.259000 900 49 0.900000 1.744000 1.649000 600 58 1.000000 0.054000 0.054000 1.200000 0.046000 0.055000
1518053137746135721	700 54 0.900000 0.266000 0.258000 900 49 0.900000 1.734000 1.640000 600 58 1.000000 0.054000 0.054000 1.200000 0.046000 0.055000
1518053138310235263	700 53 0.900000 0.266000 0.258000 900 49 0.900000 1.710000 1.615000 600 58 1.000000 0.055000 0.055000 1.200000 0.049000 0.059000
1518053138874204554	700 53 0.900000 0.266000 0.258000 900 49 0.900000 1.727000 1.632000 600 58 1.000000 0.054000 0.054000 1.200000 0.049000 0.059000
1518053139450255513	700 54 0.900000 0.267000 0.259000 900 49 0.900000 1.727000 1.632000 600 58 1.000000 0.055000 0.055000 1.200000 0.048000 0.057000
1518053140014225513	700 54 0.900000 0.266000 0.258000 900 50 0.900000 1.732000 1.636000 600 58 1.000000 0.054000 0.054000 1.200000 0.050000 0.060000
1518053140578404346	700 54 0.900000 0.266000 0.258000 900 50 0.900000 1.731000 1.637000 600 58 1.000000 0.055000 0.055000 1.200000 0.051000 0.061000
1518053141150212555	700 54 0.900000 0.267000 0.259000 900 50 0.900000 1.690000 1.597000 600 58 1.000000 0.054000 0.054000 1.200000 0.084000 0.101000
1518053141714131055	700 54 0.900000 0.266000 0.259000 900 49 0.900000 1.729000 1.635000 600 58 1.000000 0.055000 0.055000 1.200000 0.045000 0.054000
1518053142278181888	700 54 0.900000 0.266000 0.258000 900 50 0.900000 1.726000 1.632000 600 58 1.000000 0.055000 0.055000 1.200000 0.046000 0.055000
1518053142842041430	700 54 0.900000 0.266000 0.258000 900 50 0.900000 1.729000 1.635000 600 58 1.000000 0.054000 0.054000 1.200000 0.047000 0.056000
1518053143409985930	700 54 0.900000 0.266000 0.259000 900 50 0.900000 1.822000 1.723000 600 58 1.000000 0.054000 0.054000 1.200000 0.033000 0.039000
1518053143965981305	700 54 0.900000 0.266000 0.259000 900 50 0.900000 1.822000 1.723000 600 58 1.000000 0.054000 0.054000 1.200000 0.033000 0.039000
1518053144518013305	700 54 0.900000 0.266000 0.259000 900 50 0.900000 1.821000 1.722000 600 59 1.000000 0.054000 0.054000 1.200000 0.033000 0.039000
1518053145081915305	700 54 0.900000 0.266000 0.259000 900 50 0.900000 1.820000 1.721000 600 59 1.000000 0.054000 0.054000 1.200000 0.033000 0.039000
1518053145633952347	700 54 0.900000 0.266000 0.259000 900 49 0.900000 1.815000 1.716000 600 59 1.000000 0.054000 0.054000 1.200000 0.032000 0.038000
1518053146186007347	700 54 0.900000 0.266000 0.258000 900 50 0.900000 1.814000 1.716000 600 58 1.000000 0.055000 0.055000 1.200000 0.033000 0.039000
1518053146738000264	700 54 0.900000 0.266000 0.258000 900 50 0.900000 1.813000 1.715000 600 59 1.000000 0.055000 0.055000 1.200000 0.033000 0.039000
1518053147289904264	700 54 0.900000 0.266000 0.259000 900 50 0.900000 1.814000 1.716000 600 59 1.000000 0.055000 0.055000 1.200000 0.032000 0.038000
1518053147845998472	700 54 0.900000 0.266000 0.259000 900 50 0.900000 1.825000 1.726000 600 59 1.000000 0.054000 0.054000 1.200000 0.032000 0.038000
1518053148409905514	700 54 0.900000 0.266000 0.259000 900 50 0.900000 1.829000 1.730000 600 59 1.000000 0.054000 0.054000 1.200000 0.033000 0.039000
1518053148953934514	700 54 0.900000 0.266000 0.259000 900 50 0.900000 1.838000 1.738000 600 59 1.000000 0.054000 0.054000 1.200000 0.032000 0.038000
1518053149521870556	700 54 0.900000 0.266000 0.259000 900 50 0.900000 1.849000 1.749000 600 59 1.000000 0.054000 0.054000 1.200000 0.033000 0.039000
1518053150097986764	700 54 0.900000 0.265000 0.258000 900 50 0.900000 1.846000 1.746000 600 59 1.000000 0.054000 0.054000 1.200000 0.034000 0.041000
1518053150661969348	700 54 0.900000 0.266000 0.259000 900 50 0.900000 1.850000 1.750000 600 59 1.000000 0.055000 0.055000 1.200000 0.034000 0.041000
1518053151213917764	700 54 0.900000 0.266000 0.259000 900 50 0.900000 1.850000 1.750000 600 59 1.000000 0.055000 0.055000 1.200000 0.034000 0.041000
1518053151781969764	700 54 0.900000 0.266000 0.259000 900 50 0.900000 1.845000 1.745000 600 59 1.000000 0.055000 0.055000 1.200000 0.034000 0.041000
1518053152341915431	700 54 0.900000 0.265000 0.258000 900 50 0.900000 1.838000 1.738000 600 59 1.000000 0.054000 0.054000 1.200000 0.035000 0.042000
1518053152889916348	700 54 0.900000 0.266000 0.259000 900 50 0.900000 1.845000 1.745000 600 59 1.000000 0.054000 0.054000 1.200000 0.034000 0.041000
1518053153445945681	700 54 0.900000 0.266000 0.259000 900 50 0.900000 1.847000 1.747000 600 59 1.000000 0.054000 0.054000 1.200000 0.035000 0.042000
1518053154005836265	700 54 0.900000 0.266000 0.259000 900 50 0.900000 1.840000 1.740000 600 59 1.000000 0.054000 0.054000 1.200000 0.034000 0.041000
1518053154565892806	700 54 0.900000 0.265000 0.258000 900 50 0.900000 1.844000 1.744000 600 59 1.000000 0.055000 0.055000 1.200000 0.035000 0.042000
1518053155129949348	700 54 0.900000 0.266000 0.259000 900 50 0.900000 1.850000 1.750000 600 59 1.000000 0.054000 0.054000 1.200000 0.034000 0.041000
1518053155694069806	700 54 0.900000 0.265000 0.258000 900 50 0.900000 1.810000 1.712000 600 59 1.000000 0.055000 0.055000 1.200000 0.042000 0.050000
1518053156253972473	700 54 0.900000 0.265000 0.258000 900 50 0.900000 1.833000 1.734000 600 59 1.000000 0.055000 0.055000 1.200000 0.040000 0.048000
1518053156813983765	700 54 0.900000 0.266000 0.259000 900 50 0.900000 1.842000 1.742000 600 59 1.000000 0.055000 0.055000 1.200000 0.035000 0.042000
1518053157369940598	700 54 0.900000 0.266000 0.259000 900 50 0.900000 1.846000 1.746000 600 59 1.000000 0.055000 0.055000 1.200000 0.034000 0.041000
1518053157930006390	700 54 0.900000 0.266000 0.259000 900 50 0.900000 1.842000 1.742000 600 59 1.000000 0.055000 0.055000 1.200000 0.034000 0.041000
1518053158493910848	700 54 0.900000 0.266000 0.259000 900 50 0.900000 1.843000 1.743000 600 59 1.000000 0.055000 0.055000 1.200000 0.035000 0.042000
1518053159053954515	700 54 0.900000 0.266000 0.259000 900 50 0.900000 1.840000 1.740000 600 59 1.000000 0.055000 0.055000 1.200000 0.035000 0.042000
1518053159609963307	700 54 0.900000 0.266000 0.258000 900 50 0.900000 1.847000 1.747000 600 59 1.000000 0.055000 0.055000 1.200000 0.034000 0.041000
1518053160181902015	700 54 0.900000 0.266000 0.259000 900 50 0.900000 1.842000 1.742000 600 59 1.000000 0.054000 0.054000 1.200000 0.035000 0.042000
1518053160750045557	700 54 0.900000 0.266000 0.259000 900 50 0.900000 1.829000 1.730000 600 59 1.000000 0.054000 0.054000 1.200000 0.035000 0.042000
1518053161318022890	700 54 0.900000 0.265000 0.258000 900 50 0.900000 1.822000 1.723000 600 59 1.000000 0.054000 0.054000 1.200000 0.041000 0.049000
1518053161877918432	700 54 0.900000 0.266000 0.259000 900 50 0.900000 1.829000 1.730000 600 59 1.000000 0.054000 0.054000 1.200000 0.035000 0.042000
1518053162425962516	700 54 0.900000 0.265000 0.258000 900 50 0.900000 1.836000 1.736000 600 59 1.000000 0.054000 0.054000 1.200000 0.035000 0.042000
1518053162981999182	700 54 0.900000 0.266000 0.259000 900 50 0.900000 1.835000 1.735000 600 59 1.000000 0.055000 0.055000 1.200000 0.035000 0.042000
1518053163529929307	700 54 0.900000 0.266000 0.259000 900 50 0.900000 1.834000 1.734000 600 59 1.000000 0.054000 0.054000 1.200000 0.035000 0.042000
1518053164089967641	700 54 0.900000 0.266000 0.259000 900 50 0.900000 1.831000 1.732000 600 59 1.000000 0.055000 0.055000 1.200000 0.035000 0.042000
1518053164653941933	700 54 0.900000 0.266000 0.259000 900 50 0.900000 1.843000 1.743000 600 59 1.000000 0.054000 0.054000 1.200000 0.035000 0.042000
1518053165213908183	700 54 0.900000 0.266000 0.259000 900 50 0.900000 1.842000 1.742000 600 59 1.000000 0.055000 0.055000 1.200000 0.035000 0.042000
1518053165777955683	700 54 0.900000 0.265000 0.258000 900 50 0.900000 1.843000 1.743000 600 59 1.000000 0.054000 0.054000 1.200000 0.035000 0.042000
1518053166333912808	700 54 0.900000 0.266000 0.259000 900 50 0.900000 1.841000 1.741000 600 59 1.000000 0.054000 0.054000 1.200000 0.035000 0.042000
1518053166885869558	700 54 0.900000 0.266000 0.259000 900 50 0.900000 1.837000 1.737000 600 59 1.000000 0.054000 0.054000 1.200000 0.035000 0.042000
1518053167437907683	700 54 0.900000 0.265000 0.258000 900 50 0.900000 1.830000 1.731000 600 59 1.000000 0.055000 0.055000 1.200000 0.035000 0.042000
1518053168001917016	700 54 0.900000 0.266000 0.259000 900 50 0.900000 1.834000 1.734000 600 59 1.000000 0.055000 0.055000 1.200000 0.034000 0.041000
1518053168565969433	700 54 0.900000 0.266000 0.259000 900 50 0.900000 1.833000 1.734000 600 59 1.000000 0.055000 0.055000 1.200000 0.035000 0.042000
1518053169121942141	700 54 0.900000 0.266000 0.259000 900 50 0.900000 1.841000 1.741000 600 59 1.000000 0.054000 0.054000 1.200000 0.034000 0.041000
1518053169701869600	700 54 0.900000 0.266000 0.259000 900 50 0.900000 1.841000 1.741000 600 59 1.000000 0.054000 0.054000 1.200000 0.034000 0.041000
1518053170257964100	700 54 0.900000 0.266000 0.259000 900 50 0.900000 1.843000 1.743000 600 59 1.000000 0.055000 0.055000 1.200000 0.035000 0.042000
1518053170809961350	700 54 0.900000 0.266000 0.259000 900 50 0.900000 1.843000 1.743000 600 59 1.000000 0.055000 0.055000 1.200000 0.035000 0.042000
1518053171369865683	700 54 0.900000 0.266000 0.259000 900 50 0.900000 1.843000 1.743000 600 59 1.000000 0.055000 0.055000 1.200000 0.035000 0.042000
1518053171929931642	700 54 0.900000 0.266000 0.259000 900 50 0.900000 1.834000 1.734000 600 59 1.000000 0.055000 0.055000 1.200000 0.035000 0.042000
1518053172478504683	700 54 0.900000 0.266000 0.259000 900 50 0.900000 1.834000 1.734000 600 59 1.000000 0.054000 0.054000 1.200000 0.034000 0.041000
1518053173041899559	700 54 0.900000 0.266000 0.259000 900 50 0.900000 1.838000 1.738000 600 59 1.000000 0.054000 0.054000 1.200000 0.035000 0.042000
1518053173605949892	700 54 0.900000 0.266000 0.259000 900 50 0.900000 1.839000 1.739000 600 59 1.000000 0.054000 0.054000 1.200000 0.034000 0.041000
1518053174157960350	700 54 0.900000 0.266000 0.259000 900 50 0.900000 1.840000 1.740000 600 59 1.000000 0.055000 0.055000 1.200000 0.035000 0.042000
1518053174705979767	700 54 0.900000 0.266000 0.259000 900 50 0.900000 1.841000 1.741000 600 59 1.000000 0.054000 0.054000 1.200000 0.034000 0.041000
1518053175269907892	700 54 0.900000 0.266000 0.258000 900 50 0.900000 1.840000 1.740000 600 59 1.000000 0.055000 0.055000 1.200000 0.035000 0.042000
1518053175845925267	700 54 0.900000 0.266000 0.258000 900 50 0.900000 1.839000 1.739000 600 59 1.000000 0.054000 0.054000 1.200000 0.035000 0.042000
1518053176401952601	700 54 0.900000 0.266000 0.259000 900 50 0.900000 1.839000 1.739000 600 59 1.000000 0.054000 0.054000 1.200000 0.035000 0.042000
1518053176949931517	700 54 0.900000 0.266000 0.259000 900 50 0.900000 1.837000 1.737000 600 59 1.000000 0.055000 0.055000 1.200000 0.035000 0.042000
1518053177513963351	700 54 0.900000 0.266000 0.259000 900 50 0.900000 1.833000 1.734000 600 59 1.000000 0.055000 0.055000 1.200000 0.035000 0.042000
1518053178077926976	700 54 0.900000 0.266000 0.259000 900 50 0.900000 1.831000 1.732000 600 59 1.000000 0.054000 0.054000 1.200000 0.035000 0.042000
1518053178641953101	700 54 0.900000 0.266000 0.259000 900 50 0.900000 1.839000 1.739000 600 59 1.000000 0.055000 0.055000 1.200000 0.035000 0.042000
1518053179193901184	700 54 0.900000 0.265000 0.258000 900 50 0.900000 1.841000 1.741000 600 59 1.000000 0.054000 0.054000 1.200000 0.034000 0.041000
1518053179745919059	700 54 0.900000 0.266000 0.259000 900 50 0.900000 1.840000 1.740000 600 59 1.000000 0.054000 0.054000 1.200000 0.033000 0.039000
1518053180297955268	700 54 0.900000 0.266000 0.259000 900 50 0.900000 1.839000 1.739000 600 59 1.000000 0.055000 0.055000 1.200000 0.032000 0.038000
1518053180869889684	700 54 0.900000 0.266000 0.259000 900 50 0.900000 1.838000 1.738000 600 59 1.000000 0.055000 0.055000 1.200000 0.033000 0.039000
1518053181441927976	700 54 0.900000 0.266000 0.259000 900 50 0.900000 1.835000 1.735000 600 59 1.000000 0.055000 0.055000 1.200000 0.033000 0.039000
1518053181989946351	700 54 0.900000 0.266000 0.259000 900 50 0.900000 1.833000 1.734000 600 59 1.000000 0.054000 0.054000 1.200000 0.032000 0.038000
1518053182549914476	700 54 0.900000 0.266000 0.259000 900 50 0.900000 1.836000 1.736000 600 59 1.000000 0.055000 0.055000 1.200000 0.033000 0.039000
1518053183101929518	700 54 0.900000 0.266000 0.258000 900 50 0.900000 1.813000 1.715000 600 59 1.000000 0.055000 0.055000 1.200000 0.033000 0.039000
1518053183653951393	700 54 0.900000 0.266000 0.258000 900 50 0.900000 1.817000 1.718000 600 59 1.000000 0.054000 0.054000 1.200000 0.033000 0.039000
1518053184209872060	700 54 0.900000 0.265000 0.258000 900 50 0.900000 1.817000 1.718000 600 59 1.000000 0.054000 0.054000 1.200000 0.033000 0.039000
1518053184773929935	700 54 0.900000 0.266000 0.259000 900 50 0.900000 1.818000 1.719000 600 59 1.000000 0.055000 0.055000 1.200000 0.033000 0.039000
1518053185321946018	700 54 0.900000 0.266000 0.259000 900 50 0.900000 1.816000 1.717000 600 59 1.000000 0.055000 0.055000 1.200000 0.032000 0.038000
1518053185893932185	700 54 0.900000 0.266000 0.259000 900 50 0.900000 1.817000 1.718000 600 59 1.000000 0.055000 0.055000 1.200000 0.032000 0.038000
1518053186450004768	700 54 0.900000 0.266000 0.258000 900 50 0.900000 1.815000 1.716000 600 59 1.000000 0.054000 0.054000 1.200000 0.033000 0.039000
1518053187013960810	700 54 0.900000 0.266000 0.259000 900 50 0.900000 1.822000 1.723000 600 59 1.000000 0.054000 0.054000 1.200000 0.033000 0.039000
1518053187581919852	700 54 0.900000 0.266000 0.259000 900 50 0.900000 1.824000 1.725000 600 59 1.000000 0.055000 0.055000 1.200000 0.033000 0.039000
1518053188141949769	700 54 0.900000 0.266000 0.259000 900 50 0.900000 1.822000 1.723000 600 59 1.000000 0.055000 0.055000 1.200000 0.033000 0.039000
1518053188689893602	700 54 0.900000 0.266000 0.259000 900 50 0.900000 1.819000 1.720000 600 59 1.000000 0.054000 0.054000 1.200000 0.033000 0.039000
1518053189249864352	700 54 0.900000 0.266000 0.259000 900 50 0.900000 1.819000 1.720000 600 59 1.000000 0.054000 0.054000 1.200000 0.032000 0.038000
1518053189801934144	700 54 0.900000 0.266000 0.258000 900 50 0.900000 1.818000 1.719000 600 59 1.000000 0.054000 0.054000 1.200000 0.032000 0.038000
1518053190369895477	700 54 0.900000 0.266000 0.259000 900 50 0.900000 1.823000 1.724000 600 59 1.000000 0.055000 0.055000 1.200000 0.032000 0.038000
1518053190926014561	700 54 0.900000 0.266000 0.259000 900 50 0.900000 1.823000 1.724000 600 59 1.000000 0.054000 0.054000 1.200000 0.033000 0.039000
1518053191470933561	700 54 0.900000 0.266000 0.259000 900 50 0.900000 1.813000 1.715000 600 59 1.000000 0.054000 0.054000 1.200000 0.033000 0.039000
1518053192029922477	700 54 0.900000 0.266000 0.259000 900 50 0.900000 1.813000 1.715000 600 59 1.000000 0.054000 0.054000 1.200000 0.033000 0.039000
1518053192589963894	700 54 0.900000 0.266000 0.259000 900 50 0.900000 1.824000 1.725000 600 59 1.000000 0.055000 0.055000 1.200000 0.033000 0.039000
1518053193141890353	700 54 0.900000 0.266000 0.259000 900 50 0.900000 1.823000 1.724000 600 59 1.000000 0.054000 0.054000 1.200000 0.032000 0.038000
1518053193689969394	700 54 0.900000 0.266000 0.259000 900 50 0.900000 1.834000 1.734000 600 59 1.000000 0.054000 0.054000 1.200000 0.032000 0.038000
1518053194257966978	700 54 0.900000 0.266000 0.259000 900 50 0.900000 1.838000 1.738000 600 59 1.000000 0.054000 0.054000 1.200000 0.033000 0.039000
1518053194805981353	700 54 0.900000 0.266000 0.258000 900 50 0.900000 1.840000 1.740000 600 59 1.000000 0.054000 0.054000 1.200000 0.032000 0.038000
1518053195373961895	700 54 0.900000 0.266000 0.259000 900 50 0.900000 1.833000 1.734000 600 59 1.000000 0.055000 0.055000 1.200000 0.032000 0.038000
1518053195929917478	700 54 0.900000 0.266000 0.259000 900 50 0.900000 1.831000 1.732000 600 59 1.000000 0.055000 0.055000 1.200000 0.032000 0.038000
1518053196493920228	700 54 0.900000 0.266000 0.259000 900 50 0.900000 1.834000 1.734000 600 59 1.000000 0.054000 0.054000 1.200000 0.033000 0.039000
1518053197045959103	700 54 0.900000 0.266000 0.259000 900 50 0.900000 1.835000 1.735000 600 59 1.000000 0.054000 0.054000 1.200000 0.033000 0.039000
1518053197609971145	700 54 0.900000 0.266000 0.259000 900 50 0.900000 1.841000 1.741000 600 59 1.000000 0.054000 0.054000 1.200000 0.033000 0.039000
1518053198177956937	700 54 0.900000 0.266000 0.259000 900 50 0.900000 1.841000 1.741000 600 59 1.000000 0.055000 0.055000 1.200000 0.033000 0.039000
1518053198741906728	700 54 0.900000 0.266000 0.259000 900 50 0.900000 1.840000 1.740000 600 59 1.000000 0.054000 0.054000 1.200000 0.033000 0.039000
1518053199309939978	700 54 0.900000 0.266000 0.259000 900 49 0.900000 1.841000 1.741000 600 59 1.000000 0.055000 0.055000 1.200000 0.033000 0.039000
1518053199869894562	700 54 0.900000 0.266000 0.259000 900 50 0.900000 1.834000 1.734000 600 59 1.000000 0.054000 0.054000 1.200000 0.033000 0.039000
1518053200433897562	700 54 0.900000 0.266000 0.259000 900 50 0.900000 1.838000 1.738000 600 59 1.000000 0.054000 0.054000 1.200000 0.032000 0.038000
1518053200981975645	700 54 0.900000 0.266000 0.259000 900 50 0.900000 1.839000 1.739000 600 59 1.000000 0.055000 0.055000 1.200000 0.033000 0.039000
1518053201541925104	700 54 0.900000 0.266000 0.259000 900 50 0.900000 1.835000 1.735000 600 59 1.000000 0.054000 0.054000 1.200000 0.032000 0.038000
1518053202085967020	700 54 0.900000 0.266000 0.259000 900 50 0.900000 1.841000 1.741000 600 59 1.000000 0.055000 0.055000 1.200000 0.033000 0.039000
1518053202653905979	700 54 0.900000 0.266000 0.259000 900 50 0.900000 1.841000 1.741000 600 59 1.000000 0.055000 0.055000 1.200000 0.032000 0.038000
1518053203217905270	700 54 0.900000 0.265000 0.257000 900 50 0.900000 1.841000 1.741000 600 59 1.000000 0.054000 0.054000 1.200000 0.033000 0.039000
1518053203773936854	700 54 0.900000 0.266000 0.259000 900 50 0.900000 1.841000 1.741000 600 59 1.000000 0.054000 0.054000 1.200000 0.033000 0.039000
1518053204337983354	700 54 0.900000 0.266000 0.258000 900 50 0.900000 1.840000 1.740000 600 59 1.000000 0.054000 0.054000 1.200000 0.033000 0.039000
1518053204901921521	700 54 0.900000 0.266000 0.258000 900 50 0.900000 1.836000 1.736000 600 59 1.000000 0.054000 0.054000 1.200000 0.033000 0.039000
1518053205454050312	700 54 0.900000 0.266000 0.259000 900 50 0.900000 1.826000 1.727000 600 59 1.000000 0.054000 0.054000 1.200000 0.033000 0.039000
1518053206006000896	700 54 0.900000 0.266000 0.258000 900 50 0.900000 1.821000 1.722000 600 59 1.000000 0.055000 0.055000 1.200000 0.033000 0.039000
1518053206565922229	700 54 0.900000 0.266000 0.259000 900 50 0.900000 1.819000 1.720000 600 59 1.000000 0.055000 0.055000 1.200000 0.033000 0.039000
1518053207133937813	700 54 0.900000 0.266000 0.258000 900 50 0.900000 1.824000 1.725000 600 59 1.000000 0.054000 0.054000 1.200000 0.033000 0.039000
1518053207681945021	700 54 0.900000 0.266000 0.259000 900 50 0.900000 1.825000 1.726000 600 59 1.000000 0.054000 0.054000 1.200000 0.032000 0.038000
1518053208241953229	700 54 0.900000 0.266000 0.258000 900 50 0.900000 1.825000 1.726000 600 59 1.000000 0.055000 0.055000 1.200000 0.032000 0.038000
1518053208797959604	700 54 0.900000 0.266000 0.259000 900 50 0.900000 1.824000 1.725000 600 59 1.000000 0.054000 0.054000 1.200000 0.033000 0.039000
1518053209353964646	700 54 0.900000 0.266000 0.258000 900 50 0.900000 1.824000 1.725000 600 59 1.000000 0.055000 0.055000 1.200000 0.034000 0.041000
1518053209905969855	700 54 0.900000 0.266000 0.259000 900 50 0.900000 1.824000 1.725000 600 59 1.000000 0.055000 0.055000 1.200000 0.034000 0.041000
1518053210473938813	700 54 0.900000 0.266000 0.259000 900 50 0.900000 1.824000 1.725000 600 59 1.000000 0.055000 0.055000 1.200000 0.033000 0.039000
1518053211033941355	700 54 0.900000 0.265000 0.257000 900 50 0.900000 1.824000 1.725000 600 59 1.000000 0.055000 0.055000 1.200000 0.034000 0.041000
1518053211597969855	700 54 0.900000 0.266000 0.259000 900 50 0.900000 1.825000 1.726000 600 59 1.000000 0.055000 0.055000 1.200000 0.034000 0.041000
1518053212165950230	700 54 0.900000 0.266000 0.259000 900 50 0.900000 1.826000 1.727000 600 59 1.000000 0.054000 0.054000 1.200000 0.033000 0.039000
1518053212725980397	700 54 0.900000 0.266000 0.259000 900 50 0.900000 1.826000 1.727000 600 59 1.000000 0.055000 0.055000 1.200000 0.033000 0.039000
1518053213277992688	700 54 0.900000 0.266000 0.259000 900 50 0.900000 1.826000 1.727000 600 59 1.000000 0.054000 0.054000 1.200000 0.034000 0.041000
1518053213833937188	700 54 0.900000 0.266000 0.259000 900 50 0.900000 1.826000 1.727000 600 59 1.000000 0.054000 0.054000 1.200000 0.034000 0.041000
1518053214393906730	700 54 0.900000 0.265000 0.257000 900 50 0.900000 1.825000 1.726000 600 59 1.000000 0.055000 0.055000 1.200000 0.035000 0.042000
1518053214953983189	700 54 0.900000 0.266000 0.259000 900 50 0.900000 1.827000 1.728000 600 59 1.000000 0.054000 0.054000 1.200000 0.034000 0.041000
1518053215509939730	700 54 0.900000 0.266000 0.259000 900 50 0.900000 1.825000 1.726000 600 59 1.000000 0.054000 0.054000 1.200000 0.033000 0.039000
1518053216061977980	700 54 0.900000 0.266000 0.259000 900 50 0.900000 1.825000 1.726000 600 59 1.000000 0.055000 0.055000 1.200000 0.034000 0.041000
1518053216625928814	700 54 0.900000 0.266000 0.259000 900 50 0.900000 1.823000 1.724000 600 59 1.000000 0.055000 0.055000 1.200000 0.034000 0.041000
1518053217185968564	700 54 0.900000 0.265000 0.258000 900 50 0.900000 1.832000 1.733000 600 59 1.000000 0.055000 0.055000 1.200000 0.034000 0.041000
1518053217753968272	700 54 0.900000 0.265000 0.258000 900 50 0.900000 1.835000 1.735000 600 59 1.000000 0.055000 0.055000 1.200000 0.033000 0.039000
1518053218317997022	700 54 0.900000 0.265000 0.257000 900 50 0.900000 1.827000 1.728000 600 59 1.000000 0.055000 0.055000 1.200000 0.033000 0.039000
1518053218869960356	700 54 0.900000 0.265000 0.257000 900 50 0.900000 1.828000 1.729000 600 59 1.000000 0.055000 0.055000 1.200000 0.033000 0.039000
1518053219421972189	700 54 0.900000 0.266000 0.259000 900 49 0.900000 1.835000 1.735000 600 59 1.000000 0.054000 0.054000 1.200000 0.034000 0.041000
1518053219981963272	700 54 0.900000 0.266000 0.259000 900 50 0.900000 1.837000 1.737000 600 59 1.000000 0.054000 0.054000 1.200000 0.033000 0.039000
1518053220545943981	700 54 0.900000 0.266000 0.259000 900 50 0.900000 1.834000 1.734000 600 59 1.000000 0.054000 0.054000 1.200000 0.033000 0.039000
1518053221093894231	700 54 0.900000 0.266000 0.259000 900 50 0.900000 1.835000 1.735000 600 59 1.000000 0.055000 0.055000 1.200000 0.034000 0.041000
1518053221645950106	700 54 0.900000 0.266000 0.259000 900 50 0.900000 1.836000 1.736000 600 59 1.000000 0.054000 0.054000 1.200000 0.033000 0.039000
1518053222213936398	700 54 0.900000 0.265000 0.258000 900 50 0.900000 1.828000 1.729000 600 59 1.000000 0.055000 0.055000 1.200000 0.034000 0.041000
1518053222781929606	700 54 0.900000 0.265000 0.258000 900 50 0.900000 1.840000 1.740000 600 59 1.000000 0.054000 0.054000 1.200000 0.033000 0.039000
1518053223337925856	700 54 0.900000 0.265000 0.258000 900 50 0.900000 1.836000 1.736000 600 59 1.000000 0.055000 0.055000 1.200000 0.033000 0.039000
1518053223889897815	700 54 0.900000 0.265000 0.258000 900 50 0.900000 1.833000 1.734000 600 59 1.000000 0.054000 0.054000 1.200000 0.033000 0.039000
1518053224445928940	700 54 0.900000 0.266000 0.259000 900 50 0.900000 1.833000 1.734000 600 59 1.000000 0.055000 0.055000 1.200000 0.034000 0.041000
1518053225009960981	700 54 0.900000 0.266000 0.259000 900 50 0.900000 1.835000 1.735000 600 59 1.000000 0.054000 0.054000 1.200000 0.034000 0.041000
1518053225589905315	700 54 0.900000 0.266000 0.259000 900 50 0.900000 1.841000 1.741000 600 59 1.000000 0.054000 0.054000 1.200000 0.033000 0.039000
1518053226146000815	700 54 0.900000 0.266000 0.259000 900 50 0.900000 1.841000 1.741000 600 59 1.000000 0.054000 0.054000 1.200000 0.033000 0.039000
1518053226705985565	700 54 0.900000 0.266000 0.259000 900 50 0.900000 1.834000 1.734000 600 59 1.000000 0.054000 0.054000 1.200000 0.034000 0.041000
1518053227261914273	700 54 0.900000 0.265000 0.258000 900 50 0.900000 1.834000 1.734000 600 59 1.000000 0.055000 0.055000 1.200000 0.034000 0.041000
1518053227825979607	700 54 0.900000 0.266000 0.259000 900 50 0.900000 1.830000 1.731000 600 59 1.000000 0.055000 0.055000 1.200000 0.034000 0.041000
1518053228397968023	700 54 0.900000 0.266000 0.259000 900 50 0.900000 1.837000 1.737000 600 59 1.000000 0.055000 0.055000 1.200000 0.034000 0.041000
1518053228946002524	700 54 0.900000 0.266000 0.259000 900 50 0.900000 1.829000 1.730000 600 59 1.000000 0.055000 0.055000 1.200000 0.034000 0.041000
1518053229497940524	700 54 0.900000 0.266000 0.259000 900 50 0.900000 1.829000 1.730000 600 59 1.000000 0.055000 0.055000 1.200000 0.034000 0.041000
1518053230057876149	700 54 0.900000 0.266000 0.259000 900 50 0.900000 1.836000 1.736000 600 59 1.000000 0.055000 0.055000 1.200000 0.034000 0.041000
1518053230633927440	700 54 0.900000 0.266000 0.259000 900 50 0.900000 1.837000 1.737000 600 59 1.000000 0.055000 0.055000 1.200000 0.034000 0.041000
1518053231205977315	700 54 0.900000 0.267000 0.260000 900 50 0.900000 1.830000 1.731000 600 59 1.000000 0.054000 0.054000 1.200000 0.034000 0.041000
1518053231765930441	700 54 0.900000 0.266000 0.259000 900 50 0.900000 1.830000 1.731000 600 59 1.000000 0.054000 0.054000 1.200000 0.034000 0.041000
1518053232325978441	700 54 0.900000 0.266000 0.259000 900 50 0.900000 1.828000 1.729000 600 59 1.000000 0.055000 0.055000 1.200000 0.034000 0.041000
1518053232885948524	700 54 0.900000 0.266000 0.259000 900 50 0.900000 1.826000 1.727000 600 59 1.000000 0.055000 0.055000 1.200000 0.034000 0.041000
1518053233461897066	700 54 0.900000 0.266000 0.259000 900 50 0.900000 1.829000 1.730000 600 59 1.000000 0.055000 0.055000 1.200000 0.033000 0.039000
1518053234033928024	700 54 0.900000 0.266000 0.259000 900 50 0.900000 1.837000 1.737000 600 59 1.000000 0.055000 0.055000 1.200000 0.034000 0.041000
1518053234605925816	700 54 0.900000 0.265000 0.258000 900 50 0.900000 1.835000 1.735000 600 59 1.000000 0.055000 0.055000 1.200000 0.034000 0.041000
1518053235169933608	700 54 0.900000 0.265000 0.258000 900 50 0.900000 1.836000 1.736000 600 59 1.000000 0.055000 0.055000 1.200000 0.033000 0.039000
1518053235729891649	700 54 0.900000 0.266000 0.259000 900 50 0.900000 1.831000 1.732000 600 59 1.000000 0.054000 0.054000 1.200000 0.034000 0.041000
1518053236277955649	700 54 0.900000 0.265000 0.258000 900 50 0.900000 1.824000 1.725000 600 59 1.000000 0.055000 0.055000 1.200000 0.034000 0.041000
1518053236833924858	700 54 0.900000 0.265000 0.258000 900 50 0.900000 1.828000 1.729000 600 59 1.000000 0.054000 0.054000 1.200000 0.034000 0.041000
1518053237389918983	700 54 0.900000 0.266000 0.259000 900 50 0.900000 1.833000 1.734000 600 59 1.000000 0.054000 0.054000 1.200000 0.034000 0.041000
1518053237953955233	700 54 0.900000 0.266000 0.259000 900 50 0.900000 1.826000 1.727000 600 59 1.000000 0.054000 0.054000 1.200000 0.033000 0.039000
1518053238465743650	700 54 0.900000 0.189000 0.185000 900 49 0.900000 1.836000 1.736000 600 59 1.000000 0.054000 0.054000 1.200000 0.033000 0.039000
1518053238975377733	700 53 0.900000 0.034000 0.033000 900 49 0.900000 1.841000 1.741000 600 58 1.000000 0.055000 0.055000 1.200000 0.024000 0.028000
1518053239483661608	700 52 0.900000 0.035000 0.034000 900 49 0.900000 1.493000 1.407000 600 54 1.000000 0.055000 0.055000 1.200000 0.025000 0.030000
1518053239991934316	700 48 0.900000 0.034000 0.033000 900 47 0.900000 0.392000 0.370000 600 52 1.000000 0.054000 0.054000 1.200000 0.025000 0.030000
1518053240500180692	700 47 0.900000 0.033000 0.032000 900 46 0.900000 0.125000 0.118000 600 51 1.000000 0.054000 0.054000 1.200000 0.024000 0.028000
