#Timestamp	CPU(0) Frequency(MHz)	CPU(0) Temperature(C)	A7 Voltage(V)	A7 Current(A)	A7 Power(W)	CPU(4) Frequency(MHz)	CPU(4) Temperature(C)	A15 Voltage(V)	A15 Current(A)	A15 Power(W)	GPU Frequency(MHz)	GPU Temperature(C)	GPU Voltage(V)	GPU Current(A)	GPU Power(W)	RAM Voltage(V)	RAM Current(A)	RAM Power(W)
1517836006646816129	200 37 0.900000 0.049000 0.048000 1000 37 0.900000 0.132000 0.128000 600 40 1.000000 0.052000 0.052000 1.200000 0.038000 0.045000
1517836007183871462	200 39 0.900000 0.027000 0.024000 1000 37 0.900000 0.124000 0.120000 600 42 1.000000 0.052000 0.052000 1.200000 0.038000 0.045000
1517836007717447629	200 41 0.900000 0.049000 0.044000 1000 37 0.900000 1.626000 1.577000 600 45 1.000000 0.052000 0.052000 1.200000 0.038000 0.045000
1517836008252832754	200 41 0.900000 0.039000 0.035000 1000 37 0.900000 1.536000 1.491000 600 45 1.000000 0.052000 0.052000 1.200000 0.032000 0.038000
1517836008823806712	200 42 0.900000 0.053000 0.048000 1000 38 0.900000 1.530000 1.485000 600 46 1.000000 0.052000 0.052000 1.200000 0.037000 0.044000
1517836009368630046	200 42 0.900000 0.039000 0.035000 1000 38 0.900000 1.072000 1.037000 600 46 1.000000 0.053000 0.053000 1.200000 0.048000 0.057000
1517836009903821837	200 40 0.900000 0.048000 0.043000 1000 38 0.900000 1.573000 1.527000 600 44 1.000000 0.053000 0.053000 1.200000 0.033000 0.039000
1517836010438233254	200 42 0.900000 0.039000 0.035000 1000 38 0.900000 1.341000 1.300000 600 47 1.000000 0.053000 0.053000 1.200000 0.033000 0.039000
1517836010972531629	200 42 0.900000 0.049000 0.044000 1000 38 0.900000 1.547000 1.502000 600 47 1.000000 0.053000 0.053000 1.200000 0.039000 0.047000
1517836011507657629	200 42 0.900000 0.050000 0.045000 1000 38 0.900000 1.566000 1.519000 600 47 1.000000 0.053000 0.053000 1.200000 0.033000 0.039000
1517836012042165213	200 42 0.900000 0.040000 0.036000 1000 38 0.900000 1.127000 1.090000 600 47 1.000000 0.053000 0.053000 1.200000 0.044000 0.053000
1517836012576053171	200 43 0.900000 0.050000 0.045000 1000 38 0.900000 1.563000 1.517000 600 46 1.000000 0.052000 0.052000 1.200000 0.033000 0.039000
1517836013110260963	200 43 0.900000 0.051000 0.046000 1000 38 0.900000 1.661000 1.612000 600 47 1.000000 0.052000 0.052000 1.200000 0.033000 0.039000
1517836013645181879	200 43 0.900000 0.038000 0.034000 1000 38 0.900000 1.439000 1.395000 600 47 1.000000 0.053000 0.053000 1.200000 0.042000 0.050000
1517836014210983963	200 42 0.900000 0.049000 0.044000 1000 38 0.900000 1.564000 1.518000 600 45 1.000000 0.053000 0.053000 1.200000 0.035000 0.042000
1517836014756812338	200 43 0.900000 0.050000 0.045000 1000 39 0.900000 1.180000 1.142000 600 47 1.000000 0.053000 0.053000 1.200000 0.043000 0.051000
1517836015290387380	200 42 0.900000 0.047000 0.043000 1000 38 0.900000 1.512000 1.466000 600 46 1.000000 0.053000 0.053000 1.200000 0.037000 0.044000
1517836015857207755	200 43 0.900000 0.039000 0.035000 1000 38 0.900000 1.522000 1.477000 600 47 1.000000 0.052000 0.052000 1.200000 0.034000 0.041000
1517836016399849046	200 43 0.900000 0.049000 0.044000 1000 39 0.900000 1.097000 1.061000 600 47 1.000000 0.052000 0.052000 1.200000 0.056000 0.067000
1517836016935075171	200 42 0.900000 0.058000 0.053000 1000 38 0.900000 1.603000 1.556000 600 47 1.000000 0.053000 0.053000 1.200000 0.037000 0.044000
1517836017470048922	200 42 0.900000 0.048000 0.043000 1000 38 0.900000 1.573000 1.527000 600 47 1.000000 0.052000 0.052000 1.200000 0.032000 0.038000
1517836018005816213	200 43 0.900000 0.037000 0.033000 1000 38 0.900000 0.925000 0.895000 600 47 1.000000 0.053000 0.053000 1.200000 0.040000 0.048000
1517836018542005755	200 41 0.900000 0.047000 0.043000 1000 38 0.900000 1.590000 1.542000 600 45 1.000000 0.053000 0.053000 1.200000 0.034000 0.041000
1517836019077955297	200 42 0.900000 0.049000 0.044000 1000 38 0.900000 1.629000 1.581000 600 47 1.000000 0.053000 0.053000 1.200000 0.033000 0.039000
1517836019655450047	200 43 0.900000 0.040000 0.036000 1000 38 0.900000 1.181000 1.143000 600 47 1.000000 0.053000 0.053000 1.200000 0.053000 0.064000
1517836020188704797	200 42 0.900000 0.048000 0.043000 1000 38 0.900000 1.543000 1.498000 600 46 1.000000 0.053000 0.053000 1.200000 0.033000 0.039000
1517836020723513547	200 43 0.900000 0.046000 0.042000 1000 39 0.900000 1.301000 1.261000 600 47 1.000000 0.052000 0.052000 1.200000 0.034000 0.041000
1517836021258364255	200 42 0.900000 0.043000 0.039000 1000 38 0.900000 1.546000 1.501000 600 47 1.000000 0.053000 0.053000 1.200000 0.037000 0.044000
1517836021793877964	200 42 0.900000 0.048000 0.043000 1000 38 0.900000 1.530000 1.485000 600 47 1.000000 0.053000 0.053000 1.200000 0.033000 0.039000
1517836022328635339	200 42 0.900000 0.037000 0.033000 1000 38 0.900000 1.044000 1.010000 600 47 1.000000 0.053000 0.053000 1.200000 0.043000 0.051000
1517836022867893922	200 40 0.900000 0.048000 0.043000 1000 38 0.900000 1.560000 1.514000 600 45 1.000000 0.052000 0.052000 1.200000 0.032000 0.038000
1517836023404137464	200 43 0.900000 0.038000 0.034000 1000 38 0.900000 1.644000 1.594000 600 47 1.000000 0.053000 0.053000 1.200000 0.034000 0.041000
1517836023939542006	200 42 0.900000 0.050000 0.045000 1000 38 0.900000 1.437000 1.393000 600 47 1.000000 0.053000 0.053000 1.200000 0.036000 0.043000
1517836024472786339	200 42 0.900000 0.050000 0.045000 1000 38 0.900000 1.599000 1.552000 600 47 1.000000 0.053000 0.053000 1.200000 0.037000 0.044000
1517836025031870131	200 43 0.900000 0.039000 0.035000 1000 38 0.900000 1.172000 1.136000 600 47 1.000000 0.053000 0.053000 1.200000 0.041000 0.049000
1517836025568288589	200 42 0.900000 0.055000 0.050000 1000 38 0.900000 1.525000 1.480000 600 47 1.000000 0.053000 0.053000 1.200000 0.042000 0.050000
1517836026104180256	200 43 0.900000 0.050000 0.045000 1000 38 0.900000 1.596000 1.549000 600 47 1.000000 0.053000 0.053000 1.200000 0.045000 0.054000
1517836026675096423	200 43 0.900000 0.039000 0.035000 1000 38 0.900000 1.157000 1.122000 600 47 1.000000 0.053000 0.053000 1.200000 0.039000 0.047000
1517836027212811006	200 43 0.900000 0.060000 0.054000 1000 38 0.900000 1.609000 1.562000 600 47 1.000000 0.053000 0.053000 1.200000 0.049000 0.059000
1517836027747854631	200 43 0.900000 0.049000 0.044000 1000 38 0.900000 1.638000 1.590000 600 47 1.000000 0.053000 0.053000 1.200000 0.052000 0.062000
1517836028283823923	200 43 0.900000 0.038000 0.034000 1000 38 0.900000 1.139000 1.102000 600 47 1.000000 0.053000 0.053000 1.200000 0.035000 0.042000
1517836028817943215	200 42 0.900000 0.037000 0.033000 1000 38 0.900000 1.368000 1.326000 600 46 1.000000 0.052000 0.052000 1.200000 0.034000 0.041000
1517836029352367423	200 43 0.900000 0.050000 0.045000 1000 38 0.900000 1.538000 1.493000 600 47 1.000000 0.053000 0.053000 1.200000 0.035000 0.042000
1517836029887093923	200 42 0.900000 0.038000 0.034000 1000 38 0.900000 1.238000 1.198000 600 47 1.000000 0.053000 0.053000 1.200000 0.041000 0.049000
1517836030419944256	200 41 0.900000 0.055000 0.050000 1000 38 0.900000 1.533000 1.488000 600 47 1.000000 0.052000 0.052000 1.200000 0.040000 0.048000
1517836030954965423	200 43 0.900000 0.046000 0.042000 1000 38 0.900000 1.545000 1.500000 600 47 1.000000 0.053000 0.053000 1.200000 0.043000 0.051000
1517836031488952507	200 42 0.900000 0.046000 0.042000 1000 38 0.900000 1.227000 1.187000 600 47 1.000000 0.053000 0.053000 1.200000 0.035000 0.042000
1517836032023418382	200 42 0.900000 0.048000 0.043000 1000 38 0.900000 1.562000 1.516000 600 47 1.000000 0.053000 0.053000 1.200000 0.036000 0.043000
1517836032558611507	200 42 0.900000 0.037000 0.033000 1000 38 0.900000 1.546000 1.499000 600 47 1.000000 0.053000 0.053000 1.200000 0.051000 0.061000
1517836033092158048	200 42 0.900000 0.048000 0.043000 1000 38 0.900000 1.573000 1.525000 600 46 1.000000 0.053000 0.053000 1.200000 0.034000 0.041000
1517836033627459965	200 42 0.900000 0.048000 0.043000 1000 38 0.900000 1.538000 1.493000 600 47 1.000000 0.053000 0.053000 1.200000 0.039000 0.047000
1517836034163486465	200 42 0.900000 0.038000 0.034000 1000 38 0.900000 1.254000 1.213000 600 47 1.000000 0.052000 0.052000 1.200000 0.040000 0.048000
1517836034696905632	200 41 0.900000 0.048000 0.043000 1000 38 0.900000 1.574000 1.526000 600 46 1.000000 0.053000 0.053000 1.200000 0.037000 0.044000
1517836035232758799	200 42 0.900000 0.048000 0.043000 1000 38 0.900000 1.639000 1.591000 600 47 1.000000 0.053000 0.053000 1.200000 0.050000 0.060000
1517836035768131215	200 42 0.900000 0.050000 0.045000 1000 38 0.900000 1.224000 1.184000 600 46 1.000000 0.053000 0.053000 1.200000 0.041000 0.049000
1517836036304247674	200 42 0.900000 0.054000 0.049000 1000 38 0.900000 1.590000 1.543000 600 47 1.000000 0.053000 0.053000 1.200000 0.035000 0.042000
1517836036839809299	200 42 0.900000 0.041000 0.037000 1000 38 0.900000 1.144000 1.107000 600 47 1.000000 0.053000 0.053000 1.200000 0.045000 0.054000
1517836037420030382	200 42 0.900000 0.050000 0.045000 1000 38 0.900000 1.528000 1.482000 600 45 1.000000 0.053000 0.053000 1.200000 0.035000 0.042000
1517836037954173299	200 42 0.900000 0.053000 0.048000 1000 38 0.900000 1.550000 1.505000 600 47 1.000000 0.053000 0.053000 1.200000 0.054000 0.065000
1517836038489044132	200 42 0.900000 0.050000 0.045000 1000 38 0.900000 1.134000 1.097000 600 47 1.000000 0.053000 0.053000 1.200000 0.035000 0.042000
1517836039022290174	200 42 0.900000 0.049000 0.044000 1000 38 0.900000 1.587000 1.539000 600 46 1.000000 0.052000 0.052000 1.200000 0.036000 0.043000
1517836039556382591	200 42 0.900000 0.040000 0.036000 1000 38 0.900000 1.366000 1.325000 600 47 1.000000 0.052000 0.052000 1.200000 0.046000 0.055000
1517836040090510716	200 42 0.900000 0.049000 0.044000 1000 38 0.900000 1.586000 1.540000 600 46 1.000000 0.052000 0.052000 1.200000 0.035000 0.042000
1517836040625216633	200 42 0.900000 0.050000 0.045000 1000 38 0.900000 1.606000 1.559000 600 46 1.000000 0.053000 0.053000 1.200000 0.043000 0.051000
1517836041160720424	200 42 0.900000 0.046000 0.042000 1000 38 0.900000 1.209000 1.170000 600 47 1.000000 0.053000 0.053000 1.200000 0.041000 0.049000
1517836041697453549	200 42 0.900000 0.049000 0.044000 1000 38 0.900000 1.583000 1.537000 600 45 1.000000 0.053000 0.053000 1.200000 0.037000 0.044000
1517836042232062758	200 42 0.900000 0.037000 0.033000 1000 38 0.900000 1.680000 1.629000 600 47 1.000000 0.053000 0.053000 1.200000 0.046000 0.055000
1517836042765505175	200 42 0.900000 0.050000 0.045000 1000 38 0.900000 1.551000 1.506000 600 46 1.000000 0.052000 0.052000 1.200000 0.034000 0.041000
1517836043299723675	200 42 0.900000 0.049000 0.044000 1000 38 0.900000 1.507000 1.461000 600 47 1.000000 0.053000 0.053000 1.200000 0.034000 0.041000
1517836043835105466	200 42 0.900000 0.043000 0.039000 1000 38 0.900000 1.603000 1.556000 600 47 1.000000 0.053000 0.053000 1.200000 0.038000 0.045000
1517836044369685508	200 42 0.900000 0.049000 0.044000 1000 38 0.900000 1.529000 1.484000 600 46 1.000000 0.052000 0.052000 1.200000 0.035000 0.042000
1517836044903927050	200 42 0.900000 0.040000 0.036000 1000 38 0.900000 1.175000 1.139000 600 47 1.000000 0.053000 0.053000 1.200000 0.046000 0.055000
1517836045438840092	200 42 0.900000 0.038000 0.034000 1000 38 0.900000 1.174000 1.138000 600 47 1.000000 0.052000 0.052000 1.200000 0.047000 0.056000
1517836045973714675	200 40 0.900000 0.048000 0.043000 1000 38 0.900000 1.568000 1.520000 600 45 1.000000 0.053000 0.053000 1.200000 0.033000 0.039000
1517836046508283008	200 42 0.900000 0.061000 0.055000 1000 38 0.900000 1.517000 1.473000 600 46 1.000000 0.052000 0.052000 1.200000 0.044000 0.053000
1517836047041248675	200 42 0.900000 0.037000 0.033000 1000 38 0.900000 1.487000 1.443000 600 46 1.000000 0.052000 0.052000 1.200000 0.040000 0.048000
1517836047575780217	200 42 0.900000 0.048000 0.043000 1000 38 0.900000 1.573000 1.527000 600 47 1.000000 0.053000 0.053000 1.200000 0.032000 0.038000
1517836048144398009	200 42 0.900000 0.058000 0.052000 1000 38 0.900000 1.037000 1.003000 600 47 1.000000 0.052000 0.052000 1.200000 0.052000 0.062000
1517836048686728175	200 42 0.900000 0.060000 0.054000 1000 38 0.900000 1.575000 1.529000 600 47 1.000000 0.053000 0.053000 1.200000 0.051000 0.061000
1517836049221460300	200 42 0.900000 0.050000 0.045000 1000 38 0.900000 1.584000 1.538000 600 47 1.000000 0.052000 0.052000 1.200000 0.033000 0.039000
1517836049756012550	200 42 0.900000 0.038000 0.034000 1000 38 0.900000 1.146000 1.108000 600 46 1.000000 0.052000 0.052000 1.200000 0.049000 0.059000
1517836050289231384	200 42 0.900000 0.049000 0.044000 1000 38 0.900000 1.542000 1.497000 600 45 1.000000 0.052000 0.052000 1.200000 0.032000 0.038000
1517836050823671634	200 42 0.900000 0.051000 0.046000 1000 38 0.900000 1.545000 1.498000 600 47 1.000000 0.053000 0.053000 1.200000 0.033000 0.039000
1517836051358988759	200 42 0.900000 0.040000 0.036000 1000 38 0.900000 1.511000 1.467000 600 46 1.000000 0.053000 0.053000 1.200000 0.042000 0.050000
1517836051893045759	200 42 0.900000 0.061000 0.055000 1000 38 0.900000 1.499000 1.455000 600 46 1.000000 0.053000 0.053000 1.200000 0.044000 0.053000
1517836052427948884	200 42 0.900000 0.042000 0.038000 1000 38 0.900000 1.161000 1.123000 600 47 1.000000 0.053000 0.053000 1.200000 0.043000 0.051000
1517836052962927967	200 42 0.900000 0.047000 0.043000 1000 38 0.900000 1.542000 1.497000 600 46 1.000000 0.053000 0.053000 1.200000 0.034000 0.041000
1517836053498933343	200 42 0.900000 0.048000 0.043000 1000 38 0.900000 1.640000 1.592000 600 47 1.000000 0.053000 0.053000 1.200000 0.033000 0.039000
1517836054033934759	200 42 0.900000 0.038000 0.034000 1000 38 0.900000 1.075000 1.040000 600 46 1.000000 0.053000 0.053000 1.200000 0.048000 0.057000
1517836054566794426	200 41 0.900000 0.048000 0.043000 1000 38 0.900000 1.475000 1.432000 600 46 1.000000 0.053000 0.053000 1.200000 0.033000 0.039000
1517836055101630093	200 42 0.900000 0.039000 0.035000 1000 38 0.900000 1.491000 1.446000 600 47 1.000000 0.052000 0.052000 1.200000 0.034000 0.041000
1517836055635852009	200 42 0.900000 0.050000 0.045000 1000 38 0.900000 1.557000 1.511000 600 47 1.000000 0.053000 0.053000 1.200000 0.039000 0.047000
1517836056170224301	200 41 0.900000 0.049000 0.044000 1000 38 0.900000 1.529000 1.484000 600 45 1.000000 0.053000 0.053000 1.200000 0.033000 0.039000
1517836056709026635	200 42 0.900000 0.040000 0.036000 1000 38 0.900000 1.145000 1.108000 600 46 1.000000 0.053000 0.053000 1.200000 0.041000 0.049000
1517836057243697801	200 42 0.900000 0.055000 0.050000 1000 38 0.900000 1.542000 1.497000 600 46 1.000000 0.053000 0.053000 1.200000 0.045000 0.054000
1517836057776958551	200 41 0.900000 0.050000 0.045000 1000 38 0.900000 1.537000 1.492000 600 46 1.000000 0.053000 0.053000 1.200000 0.034000 0.041000
1517836058311426218	200 42 0.900000 0.038000 0.034000 1000 38 0.900000 1.223000 1.183000 600 47 1.000000 0.053000 0.053000 1.200000 0.049000 0.059000
1517836058878572218	200 42 0.900000 0.049000 0.044000 1000 38 0.900000 1.562000 1.516000 600 46 1.000000 0.053000 0.053000 1.200000 0.034000 0.041000
1517836059418846385	200 42 0.900000 0.060000 0.054000 1000 38 0.900000 1.724000 1.674000 600 47 1.000000 0.052000 0.052000 1.200000 0.049000 0.059000
1517836059953291635	200 42 0.900000 0.049000 0.044000 1000 38 0.900000 1.548000 1.503000 600 47 1.000000 0.053000 0.053000 1.200000 0.034000 0.041000
1517836060487555552	200 42 0.900000 0.038000 0.034000 1000 38 0.900000 1.248000 1.208000 600 46 1.000000 0.052000 0.052000 1.200000 0.044000 0.053000
1517836061022437218	200 42 0.900000 0.050000 0.045000 1000 38 0.900000 1.579000 1.531000 600 47 1.000000 0.052000 0.052000 1.200000 0.032000 0.038000
1517836061556939177	200 42 0.900000 0.038000 0.034000 1000 38 0.900000 1.469000 1.424000 600 47 1.000000 0.053000 0.053000 1.200000 0.035000 0.042000
1517836062127001844	200 42 0.900000 0.050000 0.045000 1000 38 0.900000 1.449000 1.405000 600 46 1.000000 0.053000 0.053000 1.200000 0.043000 0.051000
1517836062663575844	200 42 0.900000 0.061000 0.055000 1000 38 0.900000 1.601000 1.554000 600 47 1.000000 0.053000 0.053000 1.200000 0.038000 0.045000
1517836063198082927	200 42 0.900000 0.038000 0.034000 1000 38 0.900000 1.355000 1.311000 600 47 1.000000 0.052000 0.052000 1.200000 0.036000 0.043000
1517836063731981844	200 42 0.900000 0.049000 0.044000 1000 38 0.900000 1.494000 1.449000 600 46 1.000000 0.053000 0.053000 1.200000 0.044000 0.053000
1517836064266073302	200 42 0.900000 0.049000 0.044000 1000 38 0.900000 1.583000 1.537000 600 47 1.000000 0.053000 0.053000 1.200000 0.031000 0.037000
1517836064801039802	200 42 0.900000 0.037000 0.033000 1000 38 0.900000 1.203000 1.164000 600 46 1.000000 0.052000 0.052000 1.200000 0.041000 0.049000
1517836065335576511	200 41 0.900000 0.048000 0.043000 1000 38 0.900000 1.545000 1.500000 600 46 1.000000 0.052000 0.052000 1.200000 0.035000 0.042000
1517836065870211552	200 42 0.900000 0.048000 0.043000 1000 38 0.900000 1.584000 1.538000 600 47 1.000000 0.053000 0.053000 1.200000 0.043000 0.051000
1517836066404098136	200 42 0.900000 0.038000 0.034000 1000 38 0.900000 1.149000 1.112000 600 46 1.000000 0.053000 0.053000 1.200000 0.035000 0.042000
1517836066937316302	200 41 0.900000 0.048000 0.043000 1000 38 0.900000 1.538000 1.493000 600 46 1.000000 0.053000 0.053000 1.200000 0.037000 0.044000
1517836067507027803	200 42 0.900000 0.038000 0.034000 1000 38 0.900000 1.451000 1.407000 600 47 1.000000 0.053000 0.053000 1.200000 0.044000 0.053000
1517836068045739303	200 42 0.900000 0.055000 0.050000 1000 38 0.900000 1.536000 1.491000 600 46 1.000000 0.053000 0.053000 1.200000 0.042000 0.050000
1517836068581004594	200 42 0.900000 0.050000 0.045000 1000 38 0.900000 1.534000 1.489000 600 47 1.000000 0.052000 0.052000 1.200000 0.044000 0.053000
1517836069114641594	200 42 0.900000 0.045000 0.041000 1000 38 0.900000 1.148000 1.111000 600 47 1.000000 0.052000 0.052000 1.200000 0.033000 0.039000
1517836069683767678	200 42 0.900000 0.050000 0.045000 1000 38 0.900000 1.568000 1.522000 600 45 1.000000 0.052000 0.052000 1.200000 0.036000 0.043000
1517836070223974428	200 42 0.900000 0.049000 0.044000 1000 38 0.900000 1.503000 1.459000 600 47 1.000000 0.053000 0.053000 1.200000 0.058000 0.070000
1517836070758461553	200 42 0.900000 0.049000 0.044000 1000 38 0.900000 1.533000 1.487000 600 47 1.000000 0.053000 0.053000 1.200000 0.033000 0.039000
1517836071291687845	200 41 0.900000 0.050000 0.045000 1000 38 0.900000 1.523000 1.478000 600 46 1.000000 0.053000 0.053000 1.200000 0.040000 0.048000
1517836071826977678	200 42 0.900000 0.038000 0.034000 1000 38 0.900000 1.580000 1.534000 600 47 1.000000 0.052000 0.052000 1.200000 0.046000 0.055000
1517836072361840178	200 42 0.900000 0.037000 0.033000 1000 38 0.900000 1.243000 1.203000 600 46 1.000000 0.053000 0.053000 1.200000 0.034000 0.041000
1517836072935766136	200 41 0.900000 0.050000 0.045000 1000 38 0.900000 1.566000 1.520000 600 46 1.000000 0.053000 0.053000 1.200000 0.035000 0.042000
1517836073479613887	200 42 0.900000 0.049000 0.044000 1000 38 0.900000 1.241000 1.205000 600 47 1.000000 0.053000 0.053000 1.200000 0.050000 0.060000
1517836074016131095	200 41 0.900000 0.050000 0.045000 1000 38 0.900000 1.568000 1.522000 600 44 1.000000 0.052000 0.052000 1.200000 0.036000 0.043000
1517836074550352595	200 42 0.900000 0.041000 0.037000 1000 38 0.900000 1.598000 1.551000 600 47 1.000000 0.053000 0.053000 1.200000 0.046000 0.055000
1517836075084769845	200 42 0.900000 0.050000 0.045000 1000 38 0.900000 1.119000 1.085000 600 46 1.000000 0.053000 0.053000 1.200000 0.034000 0.041000
1517836075619395845	200 42 0.900000 0.050000 0.045000 1000 38 0.900000 1.549000 1.504000 600 47 1.000000 0.052000 0.052000 1.200000 0.036000 0.043000
1517836076153870720	200 42 0.900000 0.039000 0.035000 1000 38 0.900000 1.619000 1.572000 600 47 1.000000 0.053000 0.053000 1.200000 0.051000 0.061000
1517836076687878845	200 42 0.900000 0.050000 0.045000 1000 38 0.900000 1.451000 1.407000 600 46 1.000000 0.053000 0.053000 1.200000 0.036000 0.043000
1517836077221257804	200 42 0.900000 0.048000 0.043000 1000 38 0.900000 1.592000 1.545000 600 47 1.000000 0.053000 0.053000 1.200000 0.040000 0.048000
1517836077756009679	200 42 0.900000 0.037000 0.033000 1000 38 0.900000 1.228000 1.188000 600 47 1.000000 0.052000 0.052000 1.200000 0.039000 0.047000
1517836078331846345	200 40 0.900000 0.048000 0.043000 1000 38 0.900000 1.556000 1.510000 600 45 1.000000 0.053000 0.053000 1.200000 0.035000 0.042000
1517836078873260054	200 42 0.900000 0.059000 0.053000 1000 38 0.900000 1.607000 1.560000 600 47 1.000000 0.053000 0.053000 1.200000 0.052000 0.062000
1517836079407769971	200 42 0.900000 0.038000 0.034000 1000 38 0.900000 1.137000 1.100000 600 46 1.000000 0.053000 0.053000 1.200000 0.035000 0.042000
1517836079940432012	200 42 0.900000 0.048000 0.043000 1000 38 0.900000 1.551000 1.506000 600 47 1.000000 0.053000 0.053000 1.200000 0.036000 0.043000
1517836080510168137	200 42 0.900000 0.044000 0.040000 1000 38 0.900000 1.295000 1.256000 600 47 1.000000 0.053000 0.053000 1.200000 0.045000 0.054000
1517836081048390762	200 42 0.900000 0.060000 0.054000 1000 38 0.900000 1.573000 1.527000 600 47 1.000000 0.052000 0.052000 1.200000 0.049000 0.059000
1517836081583584346	200 42 0.900000 0.040000 0.036000 1000 38 0.900000 1.559000 1.509000 600 47 1.000000 0.052000 0.052000 1.200000 0.045000 0.054000
1517836082117020679	200 42 0.900000 0.038000 0.034000 1000 38 0.900000 1.244000 1.204000 600 47 1.000000 0.053000 0.053000 1.200000 0.046000 0.055000
1517836082653012596	200 42 0.900000 0.048000 0.043000 1000 38 0.900000 1.590000 1.543000 600 45 1.000000 0.052000 0.052000 1.200000 0.033000 0.039000
1517836083187878304	200 42 0.900000 0.048000 0.043000 1000 38 0.900000 1.582000 1.536000 600 47 1.000000 0.053000 0.053000 1.200000 0.034000 0.041000
1517836083762945263	200 42 0.900000 0.039000 0.035000 1000 38 0.900000 1.379000 1.337000 600 46 1.000000 0.053000 0.053000 1.200000 0.041000 0.049000
1517836084298923555	200 41 0.900000 0.052000 0.047000 1000 38 0.900000 1.640000 1.592000 600 47 1.000000 0.053000 0.053000 1.200000 0.039000 0.047000
1517836084831609638	200 42 0.900000 0.049000 0.044000 1000 38 0.900000 1.283000 1.241000 600 47 1.000000 0.053000 0.053000 1.200000 0.044000 0.053000
1517836085365372680	200 42 0.900000 0.038000 0.034000 1000 38 0.900000 1.587000 1.540000 600 46 1.000000 0.053000 0.053000 1.200000 0.034000 0.041000
1517836085900218513	200 42 0.900000 0.048000 0.043000 1000 38 0.900000 1.534000 1.489000 600 47 1.000000 0.053000 0.053000 1.200000 0.035000 0.042000
1517836086434377555	200 42 0.900000 0.038000 0.034000 1000 38 0.900000 1.267000 1.226000 600 47 1.000000 0.053000 0.053000 1.200000 0.045000 0.054000
1517836086968178805	200 42 0.900000 0.049000 0.044000 1000 38 0.900000 1.527000 1.482000 600 46 1.000000 0.052000 0.052000 1.200000 0.033000 0.039000
1517836087502949305	200 42 0.900000 0.051000 0.046000 1000 38 0.900000 1.674000 1.625000 600 46 1.000000 0.053000 0.053000 1.200000 0.036000 0.043000
1517836088037976638	200 42 0.900000 0.039000 0.035000 1000 38 0.900000 1.118000 1.082000 600 46 1.000000 0.053000 0.053000 1.200000 0.049000 0.059000
1517836088573003972	200 42 0.900000 0.050000 0.045000 1000 38 0.900000 1.598000 1.551000 600 47 1.000000 0.052000 0.052000 1.200000 0.034000 0.041000
1517836089142446055	200 42 0.900000 0.050000 0.045000 1000 38 0.900000 1.570000 1.524000 600 47 1.000000 0.053000 0.053000 1.200000 0.035000 0.042000
1517836089680285388	200 42 0.900000 0.047000 0.043000 1000 38 0.900000 1.048000 1.016000 600 46 1.000000 0.053000 0.053000 1.200000 0.045000 0.054000
1517836090214533139	200 42 0.900000 0.050000 0.045000 1000 38 0.900000 1.595000 1.548000 600 46 1.000000 0.053000 0.053000 1.200000 0.036000 0.043000
1517836090778994222	200 41 0.900000 0.049000 0.044000 1000 38 0.900000 1.526000 1.481000 600 45 1.000000 0.052000 0.052000 1.200000 0.036000 0.043000
1517836091354841514	200 42 0.900000 0.051000 0.046000 1000 38 0.900000 1.226000 1.189000 600 47 1.000000 0.052000 0.052000 1.200000 0.055000 0.066000
1517836091889105680	200 42 0.900000 0.042000 0.038000 1000 38 0.900000 1.176000 1.138000 600 47 1.000000 0.053000 0.053000 1.200000 0.048000 0.057000
1517836092424859514	200 42 0.900000 0.043000 0.039000 1000 38 0.900000 1.610000 1.563000 600 44 1.000000 0.053000 0.053000 1.200000 0.033000 0.039000
1517836092958661889	200 42 0.900000 0.045000 0.041000 1000 38 0.900000 1.635000 1.587000 600 47 1.000000 0.053000 0.053000 1.200000 0.034000 0.041000
1517836093492567014	200 41 0.900000 0.048000 0.043000 1000 38 0.900000 1.205000 1.166000 600 46 1.000000 0.053000 0.053000 1.200000 0.045000 0.054000
1517836094027604472	200 42 0.900000 0.048000 0.043000 1000 38 0.900000 1.550000 1.505000 600 47 1.000000 0.053000 0.053000 1.200000 0.033000 0.039000
1517836094598989472	200 42 0.900000 0.039000 0.035000 1000 38 0.900000 1.420000 1.374000 600 46 1.000000 0.053000 0.053000 1.200000 0.045000 0.054000
1517836095141469056	200 42 0.900000 0.051000 0.046000 1000 38 0.900000 1.534000 1.489000 600 46 1.000000 0.052000 0.052000 1.200000 0.033000 0.039000
1517836095675989764	200 42 0.900000 0.048000 0.043000 1000 38 0.900000 1.555000 1.509000 600 47 1.000000 0.052000 0.052000 1.200000 0.034000 0.041000
1517836096209636473	200 42 0.900000 0.037000 0.033000 1000 38 0.900000 1.219000 1.179000 600 47 1.000000 0.052000 0.052000 1.200000 0.049000 0.059000
1517836096747738431	200 41 0.900000 0.048000 0.043000 1000 38 0.900000 1.531000 1.486000 600 44 1.000000 0.052000 0.052000 1.200000 0.032000 0.038000
1517836097281983556	200 42 0.900000 0.048000 0.043000 1000 38 0.900000 1.437000 1.395000 600 46 1.000000 0.053000 0.053000 1.200000 0.033000 0.039000
1517836097815694098	200 41 0.900000 0.037000 0.033000 1000 38 0.900000 1.509000 1.463000 600 46 1.000000 0.053000 0.053000 1.200000 0.039000 0.047000
1517836098349290015	200 42 0.900000 0.048000 0.043000 1000 38 0.900000 1.550000 1.505000 600 47 1.000000 0.053000 0.053000 1.200000 0.033000 0.039000
1517836098884163431	200 42 0.900000 0.048000 0.043000 1000 38 0.900000 1.253000 1.212000 600 47 1.000000 0.053000 0.053000 1.200000 0.043000 0.051000
1517836099418525723	200 42 0.900000 0.050000 0.045000 1000 38 0.900000 1.574000 1.528000 600 46 1.000000 0.052000 0.052000 1.200000 0.034000 0.041000
1517836099991689348	200 42 0.900000 0.044000 0.040000 1000 38 0.900000 1.662000 1.613000 600 46 1.000000 0.052000 0.052000 1.200000 0.036000 0.043000
1517836100529717098	200 42 0.900000 0.059000 0.053000 1000 38 0.900000 1.207000 1.168000 600 46 1.000000 0.053000 0.053000 1.200000 0.049000 0.059000
1517836101065012640	200 40 0.900000 0.050000 0.045000 1000 37 0.900000 1.567000 1.521000 600 45 1.000000 0.052000 0.052000 1.200000 0.034000 0.041000
1517836101634276348	200 42 0.900000 0.040000 0.036000 1000 38 0.900000 1.292000 1.253000 600 47 1.000000 0.053000 0.053000 1.200000 0.039000 0.047000
1517836102172185182	200 42 0.900000 0.049000 0.044000 1000 38 0.900000 1.182000 1.144000 600 47 1.000000 0.053000 0.053000 1.200000 0.054000 0.065000
1517836102705900640	200 41 0.900000 0.048000 0.043000 1000 38 0.900000 1.558000 1.512000 600 46 1.000000 0.052000 0.052000 1.200000 0.032000 0.038000
1517836103240392015	200 42 0.900000 0.049000 0.044000 1000 38 0.900000 1.615000 1.568000 600 46 1.000000 0.053000 0.053000 1.200000 0.033000 0.039000
1517836103774133265	200 41 0.900000 0.038000 0.034000 1000 38 0.900000 1.441000 1.397000 600 47 1.000000 0.053000 0.053000 1.200000 0.044000 0.053000
1517836104307503807	200 42 0.900000 0.048000 0.043000 1000 38 0.900000 1.644000 1.596000 600 47 1.000000 0.052000 0.052000 1.200000 0.033000 0.039000
1517836104841905265	200 42 0.900000 0.043000 0.039000 1000 38 0.900000 1.223000 1.183000 600 47 1.000000 0.052000 0.052000 1.200000 0.043000 0.052000
1517836105381446765	200 40 0.900000 0.049000 0.044000 1000 38 0.900000 1.570000 1.524000 600 45 1.000000 0.053000 0.053000 1.200000 0.044000 0.053000
1517836105914708932	200 41 0.900000 0.041000 0.037000 1000 38 0.900000 1.655000 1.607000 600 46 1.000000 0.053000 0.053000 1.200000 0.033000 0.039000
1517836106448985765	200 42 0.900000 0.050000 0.045000 1000 38 0.900000 1.164000 1.126000 600 46 1.000000 0.052000 0.052000 1.200000 0.044000 0.053000
1517836106983485057	200 42 0.900000 0.049000 0.044000 1000 38 0.900000 1.565000 1.519000 600 47 1.000000 0.052000 0.052000 1.200000 0.036000 0.043000
1517836107518514807	200 41 0.900000 0.039000 0.035000 1000 38 0.900000 1.313000 1.273000 600 46 1.000000 0.053000 0.053000 1.200000 0.046000 0.055000
1517836108051346766	200 41 0.900000 0.049000 0.044000 1000 38 0.900000 1.558000 1.512000 600 45 1.000000 0.053000 0.053000 1.200000 0.035000 0.042000
1517836108585947599	200 42 0.900000 0.048000 0.043000 1000 38 0.900000 1.582000 1.536000 600 46 1.000000 0.053000 0.053000 1.200000 0.043000 0.051000
1517836109120742807	200 41 0.900000 0.036000 0.032000 1000 38 0.900000 1.179000 1.143000 600 46 1.000000 0.052000 0.052000 1.200000 0.034000 0.041000
1517836109654489433	200 42 0.900000 0.048000 0.043000 1000 38 0.900000 1.542000 1.497000 600 47 1.000000 0.053000 0.053000 1.200000 0.036000 0.043000
1517836110188562266	200 42 0.900000 0.046000 0.042000 1000 38 0.900000 1.457000 1.414000 600 47 1.000000 0.052000 0.052000 1.200000 0.046000 0.055000
1517836110722362099	200 41 0.900000 0.054000 0.049000 1000 38 0.900000 1.540000 1.495000 600 45 1.000000 0.053000 0.053000 1.200000 0.034000 0.041000
1517836111257379683	200 42 0.900000 0.048000 0.043000 1000 38 0.900000 1.582000 1.536000 600 47 1.000000 0.053000 0.053000 1.200000 0.044000 0.053000
1517836111791587599	200 42 0.900000 0.049000 0.044000 1000 38 0.900000 1.168000 1.130000 600 46 1.000000 0.053000 0.053000 1.200000 0.034000 0.041000
1517836112357080183	200 42 0.900000 0.050000 0.045000 1000 38 0.900000 1.558000 1.511000 600 45 1.000000 0.053000 0.053000 1.200000 0.036000 0.043000
1517836112890265933	200 42 0.900000 0.049000 0.044000 1000 38 0.900000 1.656000 1.607000 600 46 1.000000 0.052000 0.052000 1.200000 0.058000 0.070000
1517836113424005350	200 42 0.900000 0.055000 0.050000 1000 38 0.900000 1.418000 1.375000 600 46 1.000000 0.052000 0.052000 1.200000 0.042000 0.050000
1517836113958377725	200 42 0.900000 0.050000 0.045000 1000 38 0.900000 1.613000 1.566000 600 47 1.000000 0.053000 0.053000 1.200000 0.041000 0.049000
1517836114493028891	200 42 0.900000 0.038000 0.034000 1000 38 0.900000 1.211000 1.172000 600 47 1.000000 0.052000 0.052000 1.200000 0.040000 0.048000
1517836115026818142	200 42 0.900000 0.050000 0.045000 1000 38 0.900000 1.587000 1.540000 600 46 1.000000 0.053000 0.053000 1.200000 0.036000 0.043000
1517836115561898642	200 42 0.900000 0.050000 0.045000 1000 38 0.900000 1.634000 1.586000 600 46 1.000000 0.052000 0.052000 1.200000 0.047000 0.056000
1517836116095862725	200 42 0.900000 0.043000 0.039000 1000 38 0.900000 1.333000 1.290000 600 46 1.000000 0.053000 0.053000 1.200000 0.037000 0.044000
1517836116629392517	200 42 0.900000 0.050000 0.045000 1000 38 0.900000 1.593000 1.546000 600 46 1.000000 0.053000 0.053000 1.200000 0.040000 0.048000
1517836117164140767	200 42 0.900000 0.050000 0.045000 1000 38 0.900000 1.594000 1.547000 600 46 1.000000 0.053000 0.053000 1.200000 0.045000 0.054000
1517836117697961350	200 42 0.900000 0.039000 0.035000 1000 38 0.900000 1.252000 1.211000 600 46 1.000000 0.053000 0.053000 1.200000 0.036000 0.043000
1517836118231966142	200 42 0.900000 0.050000 0.045000 1000 38 0.900000 1.517000 1.473000 600 46 1.000000 0.053000 0.053000 1.200000 0.035000 0.042000
1517836118764806100	200 41 0.900000 0.040000 0.036000 1000 38 0.900000 1.487000 1.443000 600 46 1.000000 0.052000 0.052000 1.200000 0.045000 0.054000
1517836119298384100	200 41 0.900000 0.043000 0.039000 1000 38 0.900000 1.307000 1.265000 600 46 1.000000 0.052000 0.052000 1.200000 0.039000 0.047000
1517836119832931225	200 41 0.900000 0.050000 0.045000 1000 38 0.900000 1.385000 1.343000 600 45 1.000000 0.053000 0.053000 1.200000 0.035000 0.042000
1517836120365664267	200 41 0.900000 0.051000 0.046000 1000 38 0.900000 1.543000 1.496000 600 45 1.000000 0.053000 0.053000 1.200000 0.040000 0.048000
1517836120900784809	200 42 0.900000 0.040000 0.036000 1000 38 0.900000 1.330000 1.290000 600 46 1.000000 0.052000 0.052000 1.200000 0.048000 0.057000
1517836121434833017	200 42 0.900000 0.050000 0.045000 1000 38 0.900000 1.270000 1.231000 600 46 1.000000 0.053000 0.053000 1.200000 0.036000 0.043000
1517836121970294184	200 40 0.900000 0.048000 0.043000 1000 37 0.900000 1.592000 1.545000 600 46 1.000000 0.052000 0.052000 1.200000 0.031000 0.037000
1517836122503471559	200 42 0.900000 0.049000 0.044000 1000 38 0.900000 1.448000 1.406000 600 47 1.000000 0.053000 0.053000 1.200000 0.036000 0.043000
1517836123070717976	200 42 0.900000 0.040000 0.036000 1000 38 0.900000 1.290000 1.248000 600 46 1.000000 0.053000 0.053000 1.200000 0.043000 0.051000
1517836123607415268	200 40 0.900000 0.060000 0.054000 1000 37 0.900000 1.539000 1.494000 600 44 1.000000 0.053000 0.053000 1.200000 0.049000 0.059000
1517836124142120184	200 42 0.900000 0.048000 0.043000 1000 38 0.900000 1.293000 1.254000 600 46 1.000000 0.053000 0.053000 1.200000 0.041000 0.049000
1517836124675921893	200 42 0.900000 0.050000 0.045000 1000 38 0.900000 1.571000 1.525000 600 46 1.000000 0.053000 0.053000 1.200000 0.036000 0.043000
1517836125208374184	200 41 0.900000 0.049000 0.044000 1000 38 0.900000 1.535000 1.490000 600 46 1.000000 0.053000 0.053000 1.200000 0.032000 0.038000
1517836125742685184	200 42 0.900000 0.040000 0.036000 1000 38 0.900000 1.181000 1.143000 600 47 1.000000 0.053000 0.053000 1.200000 0.043000 0.051000
1517836126276938726	200 41 0.900000 0.050000 0.045000 1000 37 0.900000 1.539000 1.494000 600 46 1.000000 0.052000 0.052000 1.200000 0.033000 0.039000
1517836126810895601	200 42 0.900000 0.056000 0.051000 1000 38 0.900000 1.629000 1.581000 600 45 1.000000 0.053000 0.053000 1.200000 0.044000 0.053000
1517836127345957643	200 42 0.900000 0.038000 0.034000 1000 38 0.900000 1.207000 1.168000 600 46 1.000000 0.053000 0.053000 1.200000 0.045000 0.054000
1517836127881864768	200 40 0.900000 0.049000 0.044000 1000 37 0.900000 1.517000 1.473000 600 46 1.000000 0.052000 0.052000 1.200000 0.034000 0.041000
1517836128416215226	200 42 0.900000 0.050000 0.045000 1000 37 0.900000 1.370000 1.326000 600 46 1.000000 0.053000 0.053000 1.200000 0.044000 0.053000
1517836128949030727	200 42 0.900000 0.040000 0.036000 1000 37 0.900000 1.561000 1.515000 600 47 1.000000 0.052000 0.052000 1.200000 0.035000 0.042000
1517836129483410310	200 42 0.900000 0.047000 0.043000 1000 38 0.900000 1.577000 1.531000 600 47 1.000000 0.053000 0.053000 1.200000 0.036000 0.043000
1517836130018257768	200 42 0.900000 0.041000 0.037000 1000 38 0.900000 1.254000 1.213000 600 46 1.000000 0.052000 0.052000 1.200000 0.050000 0.060000
1517836130551811352	200 42 0.900000 0.048000 0.043000 1000 38 0.900000 1.527000 1.482000 600 46 1.000000 0.053000 0.053000 1.200000 0.035000 0.042000
1517836131085550810	200 42 0.900000 0.039000 0.035000 1000 38 0.900000 1.577000 1.529000 600 47 1.000000 0.053000 0.053000 1.200000 0.037000 0.044000
1517836131620217268	200 42 0.900000 0.049000 0.044000 1000 38 0.900000 1.496000 1.452000 600 46 1.000000 0.052000 0.052000 1.200000 0.042000 0.050000
1517836132153022769	200 40 0.900000 0.050000 0.045000 1000 38 0.900000 1.541000 1.496000 600 45 1.000000 0.052000 0.052000 1.200000 0.043000 0.051000
1517836132686576519	200 42 0.900000 0.039000 0.035000 1000 38 0.900000 1.106000 1.072000 600 47 1.000000 0.053000 0.053000 1.200000 0.046000 0.055000
1517836133221213935	200 42 0.900000 0.050000 0.045000 1000 37 0.900000 1.563000 1.517000 600 46 1.000000 0.052000 0.052000 1.200000 0.035000 0.042000
1517836133792370352	200 42 0.900000 0.050000 0.045000 1000 37 0.900000 1.632000 1.584000 600 46 1.000000 0.053000 0.053000 1.200000 0.036000 0.043000
1517836134336305727	200 42 0.900000 0.048000 0.043000 1000 38 0.900000 1.279000 1.238000 600 46 1.000000 0.053000 0.053000 1.200000 0.057000 0.068000
1517836134869381811	200 41 0.900000 0.052000 0.047000 1000 37 0.900000 1.522000 1.477000 600 46 1.000000 0.052000 0.052000 1.200000 0.037000 0.044000
1517836135403881227	200 42 0.900000 0.048000 0.043000 1000 38 0.900000 1.334000 1.291000 600 47 1.000000 0.053000 0.053000 1.200000 0.043000 0.051000
1517836135937843311	200 42 0.900000 0.045000 0.041000 1000 38 0.900000 1.540000 1.495000 600 46 1.000000 0.052000 0.052000 1.200000 0.035000 0.042000
1517836136470451727	200 40 0.900000 0.048000 0.043000 1000 38 0.900000 1.519000 1.474000 600 46 1.000000 0.053000 0.053000 1.200000 0.036000 0.043000
1517836137004490977	200 42 0.900000 0.040000 0.036000 1000 37 0.900000 1.653000 1.605000 600 47 1.000000 0.053000 0.053000 1.200000 0.034000 0.041000
1517836137538833853	200 42 0.900000 0.060000 0.054000 1000 38 0.900000 1.214000 1.177000 600 46 1.000000 0.052000 0.052000 1.200000 0.048000 0.058000
1517836138073662644	200 42 0.900000 0.048000 0.043000 1000 37 0.900000 1.578000 1.532000 600 46 1.000000 0.052000 0.052000 1.200000 0.032000 0.038000
1517836138606922561	200 42 0.900000 0.038000 0.034000 1000 38 0.900000 1.349000 1.305000 600 47 1.000000 0.053000 0.053000 1.200000 0.042000 0.050000
1517836139142866353	200 40 0.900000 0.048000 0.043000 1000 37 0.900000 1.579000 1.533000 600 46 1.000000 0.053000 0.053000 1.200000 0.034000 0.041000
1517836139677343561	200 42 0.900000 0.049000 0.044000 1000 38 0.900000 1.549000 1.504000 600 47 1.000000 0.053000 0.053000 1.200000 0.033000 0.039000
1517836140210925311	200 41 0.900000 0.038000 0.034000 1000 37 0.900000 1.186000 1.148000 600 46 1.000000 0.053000 0.053000 1.200000 0.045000 0.054000
1517836140744823270	200 42 0.900000 0.048000 0.043000 1000 38 0.900000 1.541000 1.496000 600 47 1.000000 0.053000 0.053000 1.200000 0.031000 0.037000
1517836141278491770	200 42 0.900000 0.047000 0.043000 1000 38 0.900000 1.554000 1.507000 600 46 1.000000 0.052000 0.052000 1.200000 0.036000 0.043000
1517836141812101353	200 41 0.900000 0.041000 0.037000 1000 37 0.900000 1.599000 1.552000 600 46 1.000000 0.053000 0.053000 1.200000 0.039000 0.047000
1517836142346028186	200 41 0.900000 0.048000 0.043000 1000 37 0.900000 1.556000 1.510000 600 46 1.000000 0.053000 0.053000 1.200000 0.033000 0.039000
1517836142879799270	200 42 0.900000 0.050000 0.045000 1000 37 0.900000 1.156000 1.119000 600 46 1.000000 0.053000 0.053000 1.200000 0.049000 0.059000
1517836143414186562	200 40 0.900000 0.048000 0.043000 1000 37 0.900000 1.571000 1.525000 600 46 1.000000 0.053000 0.053000 1.200000 0.032000 0.038000
1517836143947820478	200 42 0.900000 0.040000 0.036000 1000 37 0.900000 1.696000 1.646000 600 46 1.000000 0.053000 0.053000 1.200000 0.034000 0.041000
1517836144521510395	200 42 0.900000 0.050000 0.045000 1000 38 0.900000 1.208000 1.169000 600 45 1.000000 0.053000 0.053000 1.200000 0.049000 0.059000
1517836145054807603	200 42 0.900000 0.060000 0.054000 1000 38 0.900000 1.540000 1.495000 600 45 1.000000 0.053000 0.053000 1.200000 0.049000 0.059000
1517836145589432520	200 42 0.900000 0.038000 0.034000 1000 38 0.900000 1.377000 1.335000 600 46 1.000000 0.052000 0.052000 1.200000 0.040000 0.048000
1517836146122890729	200 42 0.900000 0.050000 0.045000 1000 37 0.900000 1.519000 1.474000 600 46 1.000000 0.053000 0.053000 1.200000 0.034000 0.041000
1517836146657723479	200 42 0.900000 0.050000 0.045000 1000 37 0.900000 1.457000 1.414000 600 46 1.000000 0.053000 0.053000 1.200000 0.031000 0.037000
1517836147192556770	200 42 0.900000 0.039000 0.035000 1000 37 0.900000 1.129000 1.092000 600 46 1.000000 0.053000 0.053000 1.200000 0.044000 0.053000
1517836147762726687	200 41 0.900000 0.050000 0.045000 1000 37 0.900000 1.557000 1.511000 600 46 1.000000 0.053000 0.053000 1.200000 0.033000 0.039000
1517836148297522979	200 42 0.900000 0.060000 0.054000 1000 37 0.900000 1.548000 1.503000 600 46 1.000000 0.052000 0.052000 1.200000 0.044000 0.053000
1517836148831937562	200 42 0.900000 0.040000 0.036000 1000 37 0.900000 1.299000 1.257000 600 46 1.000000 0.053000 0.053000 1.200000 0.037000 0.044000
1517836149365448021	200 42 0.900000 0.049000 0.044000 1000 37 0.900000 1.563000 1.517000 600 46 1.000000 0.053000 0.053000 1.200000 0.036000 0.043000
1517836149898425979	200 41 0.900000 0.049000 0.044000 1000 37 0.900000 1.571000 1.525000 600 45 1.000000 0.053000 0.053000 1.200000 0.047000 0.056000
1517836150430866479	200 42 0.900000 0.043000 0.039000 1000 37 0.900000 1.125000 1.089000 600 46 1.000000 0.052000 0.052000 1.200000 0.036000 0.043000
1517836150964186562	200 41 0.900000 0.050000 0.045000 1000 37 0.900000 1.561000 1.515000 600 46 1.000000 0.052000 0.052000 1.200000 0.034000 0.041000
1517836151496886813	200 41 0.900000 0.050000 0.045000 1000 38 0.900000 1.585000 1.539000 600 46 1.000000 0.052000 0.052000 1.200000 0.047000 0.056000
1517836152029712604	200 42 0.900000 0.039000 0.035000 1000 37 0.900000 1.155000 1.120000 600 46 1.000000 0.052000 0.052000 1.200000 0.034000 0.041000
1517836152564381729	200 42 0.900000 0.050000 0.045000 1000 37 0.900000 1.518000 1.473000 600 46 1.000000 0.053000 0.053000 1.200000 0.034000 0.041000
1517836153138635896	200 42 0.900000 0.050000 0.045000 1000 37 0.900000 1.586000 1.540000 600 47 1.000000 0.053000 0.053000 1.200000 0.047000 0.056000
1517836153676681563	200 42 0.900000 0.060000 0.054000 1000 37 0.900000 1.579000 1.533000 600 46 1.000000 0.052000 0.052000 1.200000 0.049000 0.059000
1517836154209762771	200 42 0.900000 0.039000 0.035000 1000 38 0.900000 1.238000 1.198000 600 46 1.000000 0.053000 0.053000 1.200000 0.035000 0.042000
1517836154744063896	200 42 0.900000 0.048000 0.043000 1000 37 0.900000 1.561000 1.515000 600 46 1.000000 0.053000 0.053000 1.200000 0.036000 0.043000
1517836155308057730	200 42 0.900000 0.049000 0.044000 1000 38 0.900000 1.463000 1.419000 600 46 1.000000 0.053000 0.053000 1.200000 0.048000 0.057000
1517836155841377355	200 40 0.900000 0.059000 0.053000 1000 37 0.900000 1.637000 1.589000 600 45 1.000000 0.052000 0.052000 1.200000 0.049000 0.059000
1517836156375905230	200 42 0.900000 0.039000 0.035000 1000 37 0.900000 1.574000 1.528000 600 46 1.000000 0.053000 0.053000 1.200000 0.043000 0.051000
1517836156910268855	200 42 0.900000 0.049000 0.044000 1000 38 0.900000 1.286000 1.244000 600 46 1.000000 0.053000 0.053000 1.200000 0.035000 0.042000
1517836157443051230	200 42 0.900000 0.050000 0.045000 1000 38 0.900000 1.645000 1.597000 600 47 1.000000 0.053000 0.053000 1.200000 0.036000 0.043000
1517836157977731105	200 42 0.900000 0.040000 0.036000 1000 37 0.900000 1.708000 1.656000 600 47 1.000000 0.053000 0.053000 1.200000 0.049000 0.059000
1517836158551498730	200 41 0.900000 0.050000 0.045000 1000 37 0.900000 1.383000 1.341000 600 46 1.000000 0.053000 0.053000 1.200000 0.036000 0.043000
1517836159097159063	200 42 0.900000 0.060000 0.054000 1000 38 0.900000 1.586000 1.538000 600 46 1.000000 0.053000 0.053000 1.200000 0.050000 0.060000
1517836159630856147	200 41 0.900000 0.038000 0.034000 1000 38 0.900000 1.557000 1.511000 600 46 1.000000 0.052000 0.052000 1.200000 0.038000 0.045000
1517836160165926105	200 40 0.900000 0.050000 0.045000 1000 37 0.900000 1.557000 1.511000 600 46 1.000000 0.053000 0.053000 1.200000 0.036000 0.043000
1517836160700354147	200 42 0.900000 0.046000 0.042000 1000 37 0.900000 1.028000 0.997000 600 46 1.000000 0.053000 0.053000 1.200000 0.050000 0.060000
1517836161233410855	200 42 0.900000 0.049000 0.044000 1000 37 0.900000 1.568000 1.522000 600 46 1.000000 0.053000 0.053000 1.200000 0.036000 0.043000
1517836161768119939	200 42 0.900000 0.049000 0.044000 1000 37 0.900000 1.562000 1.515000 600 47 1.000000 0.052000 0.052000 1.200000 0.039000 0.047000
1517836162302956564	200 41 0.900000 0.038000 0.034000 1000 37 0.900000 1.548000 1.503000 600 46 1.000000 0.053000 0.053000 1.200000 0.037000 0.044000
1517836162835888231	200 42 0.900000 0.050000 0.045000 1000 37 0.900000 1.571000 1.525000 600 45 1.000000 0.053000 0.053000 1.200000 0.035000 0.042000
1517836163370664522	200 42 0.900000 0.039000 0.035000 1000 37 0.900000 1.369000 1.325000 600 47 1.000000 0.053000 0.053000 1.200000 0.052000 0.062000
1517836163942883939	200 42 0.900000 0.050000 0.045000 1000 37 0.900000 1.569000 1.523000 600 46 1.000000 0.052000 0.052000 1.200000 0.035000 0.042000
1517836164478600731	200 41 0.900000 0.058000 0.053000 1000 37 0.900000 1.503000 1.459000 600 44 1.000000 0.052000 0.052000 1.200000 0.041000 0.049000
1517836165012503647	200 41 0.900000 0.049000 0.044000 1000 37 0.900000 1.433000 1.390000 600 46 1.000000 0.053000 0.053000 1.200000 0.039000 0.047000
1517836165546483731	200 42 0.900000 0.040000 0.036000 1000 37 0.900000 1.609000 1.562000 600 46 1.000000 0.053000 0.053000 1.200000 0.036000 0.043000
1517836166113682314	200 42 0.900000 0.057000 0.052000 1000 38 0.900000 1.547000 1.502000 600 46 1.000000 0.052000 0.052000 1.200000 0.042000 0.050000
1517836166653461439	200 42 0.900000 0.050000 0.045000 1000 38 0.900000 1.141000 1.104000 600 46 1.000000 0.053000 0.053000 1.200000 0.055000 0.066000
1517836167187402273	200 41 0.900000 0.048000 0.043000 1000 37 0.900000 1.641000 1.593000 600 45 1.000000 0.052000 0.052000 1.200000 0.034000 0.041000
1517836167722126564	200 42 0.900000 0.048000 0.043000 1000 38 0.900000 1.560000 1.514000 600 46 1.000000 0.053000 0.053000 1.200000 0.034000 0.041000
1517836168256375273	200 41 0.900000 0.036000 0.032000 1000 37 0.900000 1.393000 1.351000 600 46 1.000000 0.053000 0.053000 1.200000 0.039000 0.047000
1517836168789664523	200 41 0.900000 0.048000 0.043000 1000 37 0.900000 1.533000 1.488000 600 46 1.000000 0.053000 0.053000 1.200000 0.035000 0.042000
1517836169362592065	200 42 0.900000 0.039000 0.035000 1000 37 0.900000 1.242000 1.202000 600 46 1.000000 0.053000 0.053000 1.200000 0.045000 0.054000
1517836169897050106	200 42 0.900000 0.061000 0.055000 1000 37 0.900000 1.528000 1.483000 600 46 1.000000 0.053000 0.053000 1.200000 0.044000 0.053000
1517836170430936356	200 42 0.900000 0.051000 0.046000 1000 37 0.900000 1.637000 1.589000 600 46 1.000000 0.052000 0.052000 1.200000 0.037000 0.044000
1517836170965176523	200 41 0.900000 0.043000 0.039000 1000 37 0.900000 1.294000 1.255000 600 46 1.000000 0.052000 0.052000 1.200000 0.042000 0.050000
1517836171500337065	200 41 0.900000 0.049000 0.044000 1000 37 0.900000 1.537000 1.492000 600 45 1.000000 0.053000 0.053000 1.200000 0.035000 0.042000
1517836172034434607	200 42 0.900000 0.042000 0.038000 1000 37 0.900000 1.352000 1.308000 600 46 1.000000 0.052000 0.052000 1.200000 0.044000 0.053000
1517836172569226357	200 41 0.900000 0.050000 0.045000 1000 37 0.900000 1.563000 1.517000 600 46 1.000000 0.052000 0.052000 1.200000 0.035000 0.042000
1517836173101855648	200 40 0.900000 0.050000 0.045000 1000 37 0.900000 1.562000 1.516000 600 45 1.000000 0.052000 0.052000 1.200000 0.037000 0.044000
1517836173635647690	200 41 0.900000 0.038000 0.034000 1000 37 0.900000 1.274000 1.233000 600 46 1.000000 0.052000 0.052000 1.200000 0.045000 0.054000
1517836174170108815	200 42 0.900000 0.050000 0.045000 1000 37 0.900000 1.602000 1.555000 600 46 1.000000 0.052000 0.052000 1.200000 0.035000 0.042000
1517836174738275649	200 42 0.900000 0.050000 0.045000 1000 37 0.900000 1.671000 1.622000 600 46 1.000000 0.052000 0.052000 1.200000 0.037000 0.044000
1517836175276107982	200 42 0.900000 0.049000 0.044000 1000 37 0.900000 1.560000 1.514000 600 46 1.000000 0.053000 0.053000 1.200000 0.037000 0.044000
1517836175808835440	200 41 0.900000 0.050000 0.045000 1000 37 0.900000 1.228000 1.188000 600 46 1.000000 0.052000 0.052000 1.200000 0.045000 0.054000
1517836176341739690	200 40 0.900000 0.049000 0.044000 1000 37 0.900000 1.590000 1.543000 600 45 1.000000 0.053000 0.053000 1.200000 0.034000 0.041000
1517836176908969566	200 42 0.900000 0.051000 0.046000 1000 37 0.900000 1.478000 1.435000 600 46 1.000000 0.053000 0.053000 1.200000 0.050000 0.060000
1517836177452171107	200 42 0.900000 0.051000 0.046000 1000 37 0.900000 1.125000 1.089000 600 46 1.000000 0.052000 0.052000 1.200000 0.047000 0.056000
1517836177987782607	200 41 0.900000 0.049000 0.044000 1000 37 0.900000 1.551000 1.506000 600 44 1.000000 0.053000 0.053000 1.200000 0.032000 0.038000
1517836178522017524	200 42 0.900000 0.050000 0.045000 1000 37 0.900000 1.647000 1.599000 600 46 1.000000 0.053000 0.053000 1.200000 0.033000 0.039000
1517836179056063191	200 41 0.900000 0.038000 0.034000 1000 37 0.900000 1.360000 1.316000 600 46 1.000000 0.052000 0.052000 1.200000 0.043000 0.052000
1517836179590267316	200 41 0.900000 0.048000 0.043000 1000 37 0.900000 1.473000 1.430000 600 45 1.000000 0.053000 0.053000 1.200000 0.031000 0.037000
1517836180162992649	200 41 0.900000 0.049000 0.044000 1000 37 0.900000 1.593000 1.546000 600 46 1.000000 0.052000 0.052000 1.200000 0.033000 0.039000
1517836180698973316	200 42 0.900000 0.045000 0.041000 1000 37 0.900000 1.219000 1.182000 600 46 1.000000 0.053000 0.053000 1.200000 0.049000 0.059000
1517836181233614691	200 41 0.900000 0.037000 0.033000 1000 37 0.900000 1.547000 1.502000 600 45 1.000000 0.053000 0.053000 1.200000 0.033000 0.039000
1517836181766661649	200 41 0.900000 0.051000 0.046000 1000 37 0.900000 1.536000 1.489000 600 44 1.000000 0.052000 0.052000 1.200000 0.032000 0.038000
1517836182304255566	200 42 0.900000 0.040000 0.036000 1000 37 0.900000 1.366000 1.325000 600 46 1.000000 0.053000 0.053000 1.200000 0.040000 0.048000
1517836182838062691	200 42 0.900000 0.050000 0.045000 1000 37 0.900000 1.266000 1.225000 600 46 1.000000 0.053000 0.053000 1.200000 0.040000 0.048000
1517836183371569775	200 41 0.900000 0.050000 0.045000 1000 37 0.900000 1.581000 1.535000 600 45 1.000000 0.052000 0.052000 1.200000 0.034000 0.041000
1517836183905776358	200 42 0.900000 0.043000 0.039000 1000 37 0.900000 1.609000 1.562000 600 46 1.000000 0.052000 0.052000 1.200000 0.034000 0.041000
1517836184440678191	200 41 0.900000 0.038000 0.034000 1000 37 0.900000 1.134000 1.097000 600 46 1.000000 0.052000 0.052000 1.200000 0.047000 0.056000
1517836184974975692	200 41 0.900000 0.049000 0.044000 1000 37 0.900000 1.580000 1.534000 600 46 1.000000 0.052000 0.052000 1.200000 0.034000 0.041000
1517836185550967400	200 41 0.900000 0.051000 0.046000 1000 37 0.900000 1.582000 1.536000 600 46 1.000000 0.053000 0.053000 1.200000 0.036000 0.043000
1517836186088322442	200 42 0.900000 0.048000 0.043000 1000 37 0.900000 1.537000 1.492000 600 46 1.000000 0.053000 0.053000 1.200000 0.036000 0.043000
1517836186621151650	200 41 0.900000 0.038000 0.034000 1000 37 0.900000 1.350000 1.309000 600 45 1.000000 0.053000 0.053000 1.200000 0.037000 0.044000
1517836187194889525	200 42 0.900000 0.048000 0.043000 1000 37 0.900000 1.561000 1.515000 600 46 1.000000 0.052000 0.052000 1.200000 0.032000 0.038000
1517836187758409984	200 42 0.900000 0.057000 0.052000 1000 37 0.900000 1.252000 1.211000 600 46 1.000000 0.053000 0.053000 1.200000 0.055000 0.066000
1517836188296722317	200 41 0.900000 0.057000 0.052000 1000 37 0.900000 1.571000 1.523000 600 45 1.000000 0.053000 0.053000 1.200000 0.032000 0.038000
1517836188829778442	200 41 0.900000 0.041000 0.037000 1000 37 0.900000 1.519000 1.474000 600 46 1.000000 0.053000 0.053000 1.200000 0.033000 0.039000
1517836189363908692	200 41 0.900000 0.050000 0.045000 1000 37 0.900000 1.208000 1.171000 600 46 1.000000 0.052000 0.052000 1.200000 0.047000 0.056000
1517836189897171275	200 41 0.900000 0.050000 0.045000 1000 37 0.900000 1.536000 1.491000 600 45 1.000000 0.053000 0.053000 1.200000 0.033000 0.039000
1517836190430522275	200 42 0.900000 0.040000 0.036000 1000 37 0.900000 1.745000 1.692000 600 46 1.000000 0.053000 0.053000 1.200000 0.047000 0.056000
1517836191003524484	200 42 0.900000 0.050000 0.045000 1000 37 0.900000 1.323000 1.283000 600 46 1.000000 0.053000 0.053000 1.200000 0.035000 0.042000
1517836191547878192	200 42 0.900000 0.052000 0.047000 1000 37 0.900000 1.566000 1.520000 600 47 1.000000 0.053000 0.053000 1.200000 0.046000 0.055000
1517836192082188734	200 42 0.900000 0.040000 0.036000 1000 37 0.900000 1.367000 1.325000 600 46 1.000000 0.053000 0.053000 1.200000 0.036000 0.043000
1517836192615959026	200 42 0.900000 0.050000 0.045000 1000 37 0.900000 1.539000 1.494000 600 46 1.000000 0.053000 0.053000 1.200000 0.035000 0.042000
1517836193150103276	200 42 0.900000 0.050000 0.045000 1000 37 0.900000 1.574000 1.528000 600 46 1.000000 0.052000 0.052000 1.200000 0.045000 0.054000
1517836193684099359	200 41 0.900000 0.040000 0.036000 1000 37 0.900000 1.237000 1.197000 600 45 1.000000 0.052000 0.052000 1.200000 0.035000 0.042000
1517836194217109068	200 40 0.900000 0.048000 0.043000 1000 37 0.900000 1.517000 1.473000 600 44 1.000000 0.052000 0.052000 1.200000 0.036000 0.043000
1517836194752038443	200 42 0.900000 0.039000 0.035000 1000 37 0.900000 1.631000 1.583000 600 46 1.000000 0.053000 0.053000 1.200000 0.045000 0.054000
1517836195286466734	200 40 0.900000 0.050000 0.045000 1000 37 0.900000 1.324000 1.284000 600 45 1.000000 0.053000 0.053000 1.200000 0.035000 0.042000
1517836195820041068	200 42 0.900000 0.051000 0.046000 1000 37 0.900000 1.574000 1.528000 600 46 1.000000 0.053000 0.053000 1.200000 0.042000 0.050000
1517836196383662818	200 42 0.900000 0.039000 0.035000 1000 37 0.900000 1.169000 1.133000 600 46 1.000000 0.053000 0.053000 1.200000 0.036000 0.043000
1517836196918370735	200 42 0.900000 0.043000 0.039000 1000 37 0.900000 1.189000 1.150000 600 46 1.000000 0.052000 0.052000 1.200000 0.034000 0.041000
1517836197452760485	200 41 0.900000 0.048000 0.043000 1000 37 0.900000 1.571000 1.525000 600 46 1.000000 0.052000 0.052000 1.200000 0.034000 0.041000
1517836198018628901	200 41 0.900000 0.039000 0.035000 1000 37 0.900000 1.631000 1.578000 600 46 1.000000 0.052000 0.052000 1.200000 0.049000 0.059000
1517836198595787443	200 41 0.900000 0.060000 0.054000 1000 37 0.900000 1.562000 1.515000 600 45 1.000000 0.052000 0.052000 1.200000 0.048000 0.057000
1517836199131008360	200 41 0.900000 0.048000 0.043000 1000 37 0.900000 1.516000 1.470000 600 46 1.000000 0.053000 0.053000 1.200000 0.043000 0.051000
1517836199665749860	200 42 0.900000 0.037000 0.033000 1000 37 0.900000 1.534000 1.489000 600 46 1.000000 0.052000 0.052000 1.200000 0.036000 0.043000
1517836200198735443	200 41 0.900000 0.048000 0.043000 1000 37 0.900000 1.522000 1.477000 600 44 1.000000 0.053000 0.053000 1.200000 0.036000 0.043000
1517836200732069318	200 42 0.900000 0.038000 0.034000 1000 37 0.900000 0.985000 0.955000 600 46 1.000000 0.052000 0.052000 1.200000 0.047000 0.056000
1517836201266321110	200 41 0.900000 0.050000 0.045000 1000 37 0.900000 1.630000 1.582000 600 46 1.000000 0.052000 0.052000 1.200000 0.034000 0.041000
1517836201800233777	200 42 0.900000 0.051000 0.046000 1000 37 0.900000 1.662000 1.612000 600 46 1.000000 0.053000 0.053000 1.200000 0.041000 0.049000
1517836202334679652	200 42 0.900000 0.040000 0.036000 1000 37 0.900000 1.365000 1.324000 600 46 1.000000 0.053000 0.053000 1.200000 0.042000 0.050000
1517836202867424902	200 41 0.900000 0.049000 0.044000 1000 37 0.900000 1.552000 1.506000 600 45 1.000000 0.053000 0.053000 1.200000 0.035000 0.042000
1517836203401557652	200 42 0.900000 0.048000 0.043000 1000 37 0.900000 1.357000 1.313000 600 46 1.000000 0.052000 0.052000 1.200000 0.043000 0.052000
1517836203936001194	200 42 0.900000 0.043000 0.039000 1000 37 0.900000 1.570000 1.524000 600 46 1.000000 0.052000 0.052000 1.200000 0.034000 0.041000
1517836204468687819	200 41 0.900000 0.049000 0.044000 1000 37 0.900000 1.535000 1.490000 600 44 1.000000 0.052000 0.052000 1.200000 0.035000 0.042000
1517836205005478402	200 42 0.900000 0.044000 0.040000 1000 37 0.900000 1.282000 1.239000 600 46 1.000000 0.053000 0.053000 1.200000 0.051000 0.061000
1517836205538762486	200 41 0.900000 0.043000 0.039000 1000 37 0.900000 1.531000 1.486000 600 45 1.000000 0.052000 0.052000 1.200000 0.035000 0.042000
1517836206072057194	200 41 0.900000 0.049000 0.044000 1000 37 0.900000 1.618000 1.571000 600 46 1.000000 0.052000 0.052000 1.200000 0.036000 0.043000
1517836206605834486	200 41 0.900000 0.043000 0.039000 1000 37 0.900000 1.142000 1.105000 600 46 1.000000 0.053000 0.053000 1.200000 0.048000 0.058000
1517836207139721736	200 42 0.900000 0.050000 0.045000 1000 37 0.900000 1.528000 1.483000 600 46 1.000000 0.053000 0.053000 1.200000 0.036000 0.043000
1517836207672777111	200 41 0.900000 0.051000 0.046000 1000 37 0.900000 1.510000 1.466000 600 45 1.000000 0.053000 0.053000 1.200000 0.040000 0.048000
1517836208206035569	200 42 0.900000 0.039000 0.035000 1000 37 0.900000 1.037000 1.003000 600 46 1.000000 0.053000 0.053000 1.200000 0.044000 0.053000
1517836208775132903	200 41 0.900000 0.050000 0.045000 1000 37 0.900000 1.559000 1.513000 600 45 1.000000 0.052000 0.052000 1.200000 0.035000 0.042000
1517836209340889111	200 40 0.900000 0.061000 0.055000 1000 37 0.900000 1.571000 1.523000 600 44 1.000000 0.053000 0.053000 1.200000 0.049000 0.059000
1517836209874314569	200 41 0.900000 0.048000 0.043000 1000 37 0.900000 1.605000 1.558000 600 46 1.000000 0.052000 0.052000 1.200000 0.035000 0.042000
1517836210409211403	200 41 0.900000 0.038000 0.034000 1000 37 0.900000 1.153000 1.116000 600 46 1.000000 0.053000 0.053000 1.200000 0.046000 0.055000
1517836210943075445	200 41 0.900000 0.045000 0.041000 1000 37 0.900000 1.588000 1.541000 600 46 1.000000 0.053000 0.053000 1.200000 0.034000 0.041000
1517836211478107111	200 42 0.900000 0.048000 0.043000 1000 37 0.900000 1.555000 1.509000 600 46 1.000000 0.053000 0.053000 1.200000 0.034000 0.041000
1517836212014142320	200 42 0.900000 0.048000 0.043000 1000 37 0.900000 1.259000 1.217000 600 46 1.000000 0.053000 0.053000 1.200000 0.047000 0.056000
1517836212548395445	200 42 0.900000 0.049000 0.044000 1000 37 0.900000 1.514000 1.470000 600 46 1.000000 0.052000 0.052000 1.200000 0.045000 0.054000
1517836213081437987	200 41 0.900000 0.048000 0.043000 1000 38 0.900000 1.603000 1.556000 600 46 1.000000 0.052000 0.052000 1.200000 0.035000 0.042000
1517836213616878903	200 42 0.900000 0.039000 0.035000 1000 37 0.900000 1.296000 1.254000 600 45 1.000000 0.053000 0.053000 1.200000 0.044000 0.053000
1517836214150988028	200 41 0.900000 0.049000 0.044000 1000 37 0.900000 1.426000 1.383000 600 45 1.000000 0.053000 0.053000 1.200000 0.035000 0.042000
1517836214683914028	200 42 0.900000 0.050000 0.045000 1000 38 0.900000 1.530000 1.485000 600 45 1.000000 0.052000 0.052000 1.200000 0.033000 0.039000
1517836215216738028	200 42 0.900000 0.040000 0.036000 1000 38 0.900000 1.257000 1.216000 600 46 1.000000 0.052000 0.052000 1.200000 0.044000 0.053000
1517836215750474987	200 42 0.900000 0.050000 0.045000 1000 37 0.900000 1.599000 1.552000 600 46 1.000000 0.053000 0.053000 1.200000 0.035000 0.042000
1517836216285130362	200 42 0.900000 0.050000 0.045000 1000 38 0.900000 1.531000 1.486000 600 46 1.000000 0.052000 0.052000 1.200000 0.034000 0.041000
1517836216819925320	200 42 0.900000 0.038000 0.034000 1000 37 0.900000 1.263000 1.221000 600 46 1.000000 0.053000 0.053000 1.200000 0.045000 0.054000
1517836217354163737	200 42 0.900000 0.047000 0.043000 1000 38 0.900000 1.515000 1.469000 600 46 1.000000 0.052000 0.052000 1.200000 0.032000 0.038000
1517836217888782654	200 41 0.900000 0.060000 0.054000 1000 38 0.900000 1.522000 1.476000 600 46 1.000000 0.052000 0.052000 1.200000 0.045000 0.054000
1517836218422838196	200 42 0.900000 0.038000 0.034000 1000 38 0.900000 1.141000 1.104000 600 46 1.000000 0.052000 0.052000 1.200000 0.048000 0.057000
1517836218957806696	200 42 0.900000 0.048000 0.043000 1000 38 0.900000 1.540000 1.495000 600 45 1.000000 0.052000 0.052000 1.200000 0.031000 0.037000
1517836219523592279	200 42 0.900000 0.048000 0.043000 1000 38 0.900000 1.680000 1.629000 600 46 1.000000 0.053000 0.053000 1.200000 0.037000 0.044000
1517836220072193946	200 42 0.900000 0.059000 0.053000 1000 38 0.900000 1.330000 1.287000 600 46 1.000000 0.053000 0.053000 1.200000 0.053000 0.064000
1517836220611592446	200 41 0.900000 0.057000 0.052000 1000 38 0.900000 1.529000 1.483000 600 44 1.000000 0.053000 0.053000 1.200000 0.036000 0.043000
1517836221145768237	200 42 0.900000 0.039000 0.035000 1000 38 0.900000 1.264000 1.226000 600 46 1.000000 0.052000 0.052000 1.200000 0.046000 0.055000
1517836221680554988	200 42 0.900000 0.049000 0.044000 1000 38 0.900000 1.496000 1.452000 600 46 1.000000 0.053000 0.053000 1.200000 0.035000 0.042000
1517836222213624613	200 42 0.900000 0.050000 0.045000 1000 38 0.900000 1.576000 1.528000 600 45 1.000000 0.053000 0.053000 1.200000 0.035000 0.042000
1517836222787017904	200 42 0.900000 0.040000 0.036000 1000 38 0.900000 1.132000 1.095000 600 46 1.000000 0.053000 0.053000 1.200000 0.049000 0.059000
1517836223324384654	200 41 0.900000 0.047000 0.043000 1000 38 0.900000 1.184000 1.146000 600 46 1.000000 0.053000 0.053000 1.200000 0.049000 0.059000
1517836223857496946	200 42 0.900000 0.048000 0.043000 1000 38 0.900000 1.593000 1.546000 600 47 1.000000 0.052000 0.052000 1.200000 0.030000 0.036000
1517836224390872696	200 42 0.900000 0.049000 0.044000 1000 38 0.900000 1.573000 1.527000 600 46 1.000000 0.052000 0.052000 1.200000 0.034000 0.041000
1517836224925259321	200 42 0.900000 0.037000 0.033000 1000 37 0.900000 1.155000 1.118000 600 46 1.000000 0.052000 0.052000 1.200000 0.038000 0.045000
1517836225459342030	200 42 0.900000 0.048000 0.043000 1000 38 0.900000 1.579000 1.533000 600 46 1.000000 0.053000 0.053000 1.200000 0.032000 0.038000
1517836225994067113	200 42 0.900000 0.038000 0.034000 1000 38 0.900000 1.473000 1.428000 600 46 1.000000 0.053000 0.053000 1.200000 0.041000 0.049000
1517836226528914821	200 42 0.900000 0.050000 0.045000 1000 37 0.900000 1.604000 1.557000 600 45 1.000000 0.053000 0.053000 1.200000 0.036000 0.043000
1517836227063017572	200 42 0.900000 0.050000 0.045000 1000 38 0.900000 1.597000 1.550000 600 47 1.000000 0.053000 0.053000 1.200000 0.030000 0.036000
1517836227596981988	200 38 0.900000 0.038000 0.034000 1000 37 0.900000 0.487000 0.472000 600 42 1.000000 0.053000 0.053000 1.200000 0.038000 0.045000
1517836228171016280	200 37 0.900000 0.013000 0.011000 1000 36 0.900000 0.109000 0.106000 600 41 1.000000 0.052000 0.052000 1.200000 0.022000 0.026000
