#Timestamp	CPU(0) Frequency(MHz)	CPU(0) Temperature(C)	A7 Voltage(V)	A7 Current(A)	A7 Power(W)	CPU(4) Frequency(MHz)	CPU(4) Temperature(C)	A15 Voltage(V)	A15 Current(A)	A15 Power(W)	GPU Frequency(MHz)	GPU Temperature(C)	GPU Voltage(V)	GPU Current(A)	GPU Power(W)	RAM Voltage(V)	RAM Current(A)	RAM Power(W)
1517275671869180873	900 30 1.000000 0.040000 0.042000 600 29 0.900000 0.342000 0.311000 600 33 1.000000 0.051000 0.051000 1.200000 0.041000 0.049000
1517275672380434290	900 30 1.000000 0.039000 0.041000 600 29 0.900000 0.324000 0.294000 600 33 1.000000 0.051000 0.051000 1.200000 0.028000 0.033000
1517275672891657665	900 30 1.000000 0.039000 0.041000 600 29 0.900000 0.325000 0.296000 600 33 1.000000 0.051000 0.051000 1.200000 0.028000 0.033000
1517275673402874665	900 30 1.000000 0.038000 0.040000 600 29 0.900000 0.323000 0.294000 600 33 1.000000 0.051000 0.051000 1.200000 0.027000 0.032000
1517275673914228290	900 30 1.000000 0.038000 0.040000 600 29 0.900000 0.324000 0.295000 600 33 1.000000 0.051000 0.051000 1.200000 0.027000 0.032000
1517275674425415207	900 30 1.000000 0.039000 0.041000 600 29 0.900000 0.329000 0.299000 600 33 1.000000 0.051000 0.051000 1.200000 0.028000 0.033000
1517275674936763957	900 30 1.000000 0.038000 0.040000 600 29 0.900000 0.334000 0.303000 600 33 1.000000 0.051000 0.051000 1.200000 0.027000 0.032000
1517275675447960749	900 30 1.000000 0.039000 0.041000 600 29 0.900000 0.336000 0.306000 600 33 1.000000 0.051000 0.051000 1.200000 0.028000 0.033000
1517275675959172790	900 30 1.000000 0.039000 0.041000 600 29 0.900000 0.335000 0.305000 600 33 1.000000 0.051000 0.051000 1.200000 0.027000 0.032000
1517275676470399499	900 30 1.000000 0.039000 0.041000 600 29 0.900000 0.332000 0.302000 600 33 1.000000 0.051000 0.051000 1.200000 0.027000 0.032000
1517275676981618124	900 30 1.000000 0.038000 0.040000 600 29 0.900000 0.329000 0.299000 600 33 1.000000 0.051000 0.051000 1.200000 0.028000 0.033000
1517275677492831457	900 30 1.000000 0.038000 0.040000 600 29 0.900000 0.331000 0.301000 600 33 1.000000 0.051000 0.051000 1.200000 0.027000 0.032000
1517275678004201916	900 30 1.000000 0.038000 0.040000 600 29 0.900000 0.335000 0.304000 600 33 1.000000 0.051000 0.051000 1.200000 0.028000 0.033000
1517275678515569541	900 30 1.000000 0.039000 0.041000 600 29 0.900000 0.335000 0.304000 600 33 1.000000 0.051000 0.051000 1.200000 0.027000 0.032000
1517275679026783916	900 30 1.000000 0.038000 0.040000 600 29 0.900000 0.330000 0.300000 600 33 1.000000 0.051000 0.051000 1.200000 0.027000 0.032000
1517275679537925999	900 30 1.000000 0.039000 0.041000 600 29 0.900000 0.326000 0.296000 600 33 1.000000 0.051000 0.051000 1.200000 0.027000 0.032000
1517275680049057957	900 30 1.000000 0.039000 0.041000 600 29 0.900000 0.324000 0.295000 600 33 1.000000 0.051000 0.051000 1.200000 0.026000 0.031000
1517275680560384499	900 30 1.000000 0.038000 0.040000 600 29 0.900000 0.322000 0.293000 600 33 1.000000 0.051000 0.051000 1.200000 0.026000 0.031000
1517275681071577499	900 30 1.000000 0.038000 0.040000 600 29 0.900000 0.324000 0.295000 600 33 1.000000 0.051000 0.051000 1.200000 0.027000 0.032000
1517275681582707249	900 30 1.000000 0.038000 0.040000 600 29 0.900000 0.325000 0.296000 600 33 1.000000 0.051000 0.051000 1.200000 0.027000 0.032000
1517275682093944708	900 30 1.000000 0.038000 0.040000 600 29 0.900000 0.324000 0.295000 600 33 1.000000 0.051000 0.051000 1.200000 0.026000 0.031000
1517275682605089874	900 30 1.000000 0.038000 0.040000 600 29 0.900000 0.332000 0.302000 600 33 1.000000 0.051000 0.051000 1.200000 0.028000 0.033000
1517275683116323458	900 30 1.000000 0.039000 0.041000 600 29 0.900000 0.338000 0.307000 600 33 1.000000 0.051000 0.051000 1.200000 0.028000 0.033000
1517275683627755333	900 30 1.000000 0.039000 0.041000 600 29 0.900000 0.334000 0.304000 600 33 1.000000 0.051000 0.051000 1.200000 0.027000 0.032000
1517275684138955833	900 30 1.000000 0.039000 0.041000 600 29 0.900000 0.330000 0.300000 600 33 1.000000 0.051000 0.051000 1.200000 0.027000 0.032000
1517275684650092583	900 30 1.000000 0.038000 0.040000 600 29 0.900000 0.331000 0.301000 600 33 1.000000 0.051000 0.051000 1.200000 0.027000 0.032000
1517275685161316750	900 30 1.000000 0.039000 0.041000 600 29 0.900000 0.333000 0.303000 600 33 1.000000 0.051000 0.051000 1.200000 0.027000 0.032000
1517275685672550208	900 30 1.000000 0.039000 0.041000 600 29 0.900000 0.337000 0.307000 600 33 1.000000 0.051000 0.051000 1.200000 0.028000 0.033000
1517275686183751625	900 30 1.000000 0.039000 0.041000 600 29 0.900000 0.323000 0.294000 600 33 1.000000 0.051000 0.051000 1.200000 0.026000 0.031000
1517275686695095708	900 30 1.000000 0.038000 0.040000 600 29 0.900000 0.325000 0.296000 600 33 1.000000 0.051000 0.051000 1.200000 0.026000 0.031000
1517275687206310583	900 30 1.000000 0.039000 0.041000 600 29 0.900000 0.328000 0.298000 600 33 1.000000 0.051000 0.051000 1.200000 0.027000 0.032000
1517275687717485125	900 30 1.000000 0.039000 0.041000 600 29 0.900000 0.324000 0.294000 600 33 1.000000 0.051000 0.051000 1.200000 0.027000 0.032000
1517275688228802708	900 30 1.000000 0.038000 0.040000 600 29 0.900000 0.324000 0.295000 600 33 1.000000 0.051000 0.051000 1.200000 0.026000 0.031000
1517275688740100125	900 30 1.000000 0.038000 0.040000 600 29 0.900000 0.324000 0.295000 600 33 1.000000 0.051000 0.051000 1.200000 0.027000 0.032000
1517275689251358417	900 30 1.000000 0.038000 0.040000 600 29 0.900000 0.327000 0.297000 600 33 1.000000 0.051000 0.051000 1.200000 0.028000 0.033000
1517275689762735584	900 30 1.000000 0.038000 0.040000 600 29 0.900000 0.325000 0.296000 600 33 1.000000 0.051000 0.051000 1.200000 0.026000 0.031000
1517275690274018000	900 30 1.000000 0.039000 0.041000 600 29 0.900000 0.325000 0.296000 600 33 1.000000 0.051000 0.051000 1.200000 0.027000 0.032000
1517275690785410542	900 30 1.000000 0.038000 0.040000 600 29 0.900000 0.322000 0.293000 600 33 1.000000 0.051000 0.051000 1.200000 0.027000 0.032000
1517275691296689542	900 30 1.000000 0.039000 0.041000 600 29 0.900000 0.335000 0.305000 600 33 1.000000 0.051000 0.051000 1.200000 0.028000 0.033000
1517275691808136792	900 30 1.000000 0.039000 0.041000 600 29 0.900000 0.330000 0.300000 600 33 1.000000 0.051000 0.051000 1.200000 0.026000 0.031000
1517275692319372667	900 30 1.000000 0.038000 0.040000 600 29 0.900000 0.330000 0.300000 600 33 1.000000 0.051000 0.051000 1.200000 0.027000 0.032000
1517275692830625876	900 30 1.000000 0.039000 0.041000 600 29 0.900000 0.325000 0.296000 600 33 1.000000 0.051000 0.051000 1.200000 0.027000 0.032000
1517275693341620334	900 30 1.000000 0.038000 0.040000 600 29 0.900000 0.323000 0.294000 600 33 1.000000 0.051000 0.051000 1.200000 0.028000 0.033000
1517275693852830001	900 30 1.000000 0.038000 0.040000 600 29 0.900000 0.324000 0.295000 600 33 1.000000 0.051000 0.051000 1.200000 0.027000 0.032000
1517275694364038709	900 30 1.000000 0.039000 0.041000 600 29 0.900000 0.327000 0.297000 600 33 1.000000 0.051000 0.051000 1.200000 0.027000 0.032000
1517275694875262334	900 30 1.000000 0.039000 0.041000 600 29 0.900000 0.326000 0.296000 600 33 1.000000 0.051000 0.051000 1.200000 0.027000 0.032000
1517275695386592668	900 30 1.000000 0.038000 0.040000 600 29 0.900000 0.323000 0.294000 600 33 1.000000 0.051000 0.051000 1.200000 0.026000 0.031000
1517275695897893043	900 30 1.000000 0.038000 0.040000 600 29 0.900000 0.325000 0.296000 600 33 1.000000 0.051000 0.051000 1.200000 0.026000 0.031000
1517275696409051918	900 30 1.000000 0.038000 0.040000 600 29 0.900000 0.324000 0.295000 600 33 1.000000 0.052000 0.052000 1.200000 0.027000 0.032000
1517275696920877376	900 30 1.000000 0.038000 0.040000 600 29 0.900000 0.324000 0.295000 600 33 1.000000 0.051000 0.051000 1.200000 0.026000 0.031000
1517275697432382835	900 30 1.000000 0.040000 0.042000 600 29 0.900000 0.324000 0.295000 600 33 1.000000 0.051000 0.051000 1.200000 0.027000 0.032000
1517275697943702001	900 30 1.000000 0.039000 0.041000 600 29 0.900000 0.332000 0.302000 600 33 1.000000 0.051000 0.051000 1.200000 0.027000 0.032000
1517275698455045210	900 30 1.000000 0.038000 0.040000 600 29 0.900000 0.335000 0.304000 600 33 1.000000 0.051000 0.051000 1.200000 0.026000 0.031000
1517275698966315585	900 30 1.000000 0.038000 0.040000 600 29 0.900000 0.336000 0.306000 600 33 1.000000 0.051000 0.051000 1.200000 0.026000 0.031000
1517275699477629835	900 30 1.000000 0.039000 0.041000 600 29 0.900000 0.324000 0.295000 600 33 1.000000 0.051000 0.051000 1.200000 0.027000 0.032000
1517275699988857210	900 30 1.000000 0.040000 0.042000 600 29 0.900000 0.328000 0.298000 600 33 1.000000 0.051000 0.051000 1.200000 0.028000 0.033000
1517275700500060877	900 30 1.000000 0.039000 0.041000 600 29 0.900000 0.331000 0.301000 600 33 1.000000 0.051000 0.051000 1.200000 0.026000 0.031000
1517275701011239877	900 30 1.000000 0.038000 0.040000 600 29 0.900000 0.335000 0.305000 600 33 1.000000 0.051000 0.051000 1.200000 0.028000 0.033000
1517275701522550543	900 30 1.000000 0.039000 0.041000 600 29 0.900000 0.335000 0.305000 600 33 1.000000 0.051000 0.051000 1.200000 0.028000 0.033000
1517275702033988043	900 30 1.000000 0.038000 0.040000 600 29 0.900000 0.331000 0.301000 600 33 1.000000 0.051000 0.051000 1.200000 0.027000 0.032000
1517275702545443835	900 30 1.000000 0.038000 0.040000 600 29 0.900000 0.336000 0.306000 600 33 1.000000 0.051000 0.051000 1.200000 0.028000 0.033000
1517275703056830794	900 30 1.000000 0.039000 0.041000 600 29 0.900000 0.334000 0.304000 600 33 1.000000 0.051000 0.051000 1.200000 0.027000 0.032000
1517275703568080960	900 30 1.000000 0.039000 0.041000 600 29 0.900000 0.335000 0.305000 600 33 1.000000 0.051000 0.051000 1.200000 0.027000 0.032000
1517275704079375460	900 30 1.000000 0.038000 0.040000 600 29 0.900000 0.336000 0.306000 600 34 1.000000 0.051000 0.051000 1.200000 0.028000 0.033000
1517275704590684669	900 30 1.000000 0.038000 0.040000 600 29 0.900000 0.332000 0.302000 600 33 1.000000 0.051000 0.051000 1.200000 0.028000 0.033000
1517275705101881585	900 30 1.000000 0.039000 0.041000 600 29 0.900000 0.329000 0.299000 600 33 1.000000 0.051000 0.051000 1.200000 0.028000 0.033000
1517275705613197336	900 30 1.000000 0.038000 0.040000 600 29 0.900000 0.329000 0.299000 600 33 1.000000 0.051000 0.051000 1.200000 0.028000 0.033000
1517275706124593877	900 30 1.000000 0.038000 0.040000 600 29 0.900000 0.337000 0.307000 600 33 1.000000 0.051000 0.051000 1.200000 0.028000 0.033000
1517275706635924544	900 30 1.000000 0.039000 0.041000 600 29 0.900000 0.324000 0.294000 600 33 1.000000 0.051000 0.051000 1.200000 0.027000 0.032000
1517275707147016044	900 30 1.000000 0.039000 0.041000 600 29 0.900000 0.325000 0.296000 600 33 1.000000 0.051000 0.051000 1.200000 0.026000 0.031000
1517275707658424419	900 30 1.000000 0.039000 0.041000 600 29 0.900000 0.329000 0.299000 600 33 1.000000 0.051000 0.051000 1.200000 0.029000 0.035000
1517275708169802086	900 30 1.000000 0.038000 0.040000 600 29 0.900000 0.330000 0.300000 600 34 1.000000 0.051000 0.051000 1.200000 0.028000 0.033000
1517275708680882961	900 30 1.000000 0.039000 0.041000 600 29 0.900000 0.335000 0.304000 600 34 1.000000 0.051000 0.051000 1.200000 0.028000 0.033000
1517275709192115628	900 30 1.000000 0.038000 0.040000 600 29 0.900000 0.337000 0.307000 600 33 1.000000 0.051000 0.051000 1.200000 0.028000 0.033000
1517275709703254044	900 30 1.000000 0.039000 0.041000 600 29 0.900000 0.332000 0.302000 600 33 1.000000 0.051000 0.051000 1.200000 0.028000 0.033000
1517275710214573003	900 30 1.000000 0.038000 0.040000 600 29 0.900000 0.329000 0.299000 600 33 1.000000 0.051000 0.051000 1.200000 0.028000 0.033000
1517275710725840711	900 30 1.000000 0.039000 0.041000 600 29 0.900000 0.330000 0.300000 600 33 1.000000 0.051000 0.051000 1.200000 0.027000 0.032000
1517275711236875253	900 30 1.000000 0.039000 0.041000 600 29 0.900000 0.335000 0.304000 600 33 1.000000 0.051000 0.051000 1.200000 0.027000 0.032000
1517275711748218586	900 30 1.000000 0.038000 0.040000 600 29 0.900000 0.337000 0.307000 600 33 1.000000 0.051000 0.051000 1.200000 0.027000 0.032000
1517275712259334086	900 30 1.000000 0.039000 0.041000 600 29 0.900000 0.332000 0.302000 600 33 1.000000 0.051000 0.051000 1.200000 0.027000 0.032000
1517275712770612420	900 30 1.000000 0.038000 0.040000 600 29 0.900000 0.329000 0.299000 600 33 1.000000 0.051000 0.051000 1.200000 0.028000 0.033000
1517275713281803670	900 30 1.000000 0.038000 0.040000 600 29 0.900000 0.323000 0.294000 600 33 1.000000 0.051000 0.051000 1.200000 0.028000 0.033000
1517275713792908003	900 30 1.000000 0.038000 0.040000 600 29 0.900000 0.324000 0.295000 600 33 1.000000 0.051000 0.051000 1.200000 0.027000 0.032000
1517275714304173045	900 30 1.000000 0.038000 0.040000 600 29 0.900000 0.325000 0.296000 600 33 1.000000 0.051000 0.051000 1.200000 0.026000 0.031000
1517275714815343753	900 30 1.000000 0.038000 0.040000 600 29 0.900000 0.324000 0.295000 600 33 1.000000 0.051000 0.051000 1.200000 0.027000 0.032000
1517275715326556295	900 30 1.000000 0.038000 0.040000 600 29 0.900000 0.323000 0.293000 600 33 1.000000 0.051000 0.051000 1.200000 0.026000 0.031000
1517275715837950045	900 30 1.000000 0.038000 0.040000 600 29 0.900000 0.331000 0.301000 600 33 1.000000 0.051000 0.051000 1.200000 0.028000 0.033000
1517275716349164253	900 30 1.000000 0.039000 0.041000 600 29 0.900000 0.336000 0.305000 600 33 1.000000 0.051000 0.051000 1.200000 0.027000 0.032000
1517275716860348670	900 30 1.000000 0.038000 0.040000 600 29 0.900000 0.335000 0.305000 600 33 1.000000 0.051000 0.051000 1.200000 0.027000 0.032000
1517275717371620837	900 30 1.000000 0.038000 0.040000 600 29 0.900000 0.330000 0.300000 600 33 1.000000 0.051000 0.051000 1.200000 0.027000 0.032000
1517275717882874962	900 30 1.000000 0.039000 0.041000 600 29 0.900000 0.328000 0.298000 600 33 1.000000 0.051000 0.051000 1.200000 0.027000 0.032000
1517275718393822295	900 30 1.000000 0.038000 0.040000 600 29 0.900000 0.331000 0.301000 600 33 1.000000 0.051000 0.051000 1.200000 0.027000 0.032000
1517275718904900045	900 30 1.000000 0.038000 0.040000 600 29 0.900000 0.336000 0.305000 600 33 1.000000 0.051000 0.051000 1.200000 0.028000 0.033000
1517275719415956795	900 30 1.000000 0.039000 0.041000 600 29 0.900000 0.335000 0.304000 600 33 1.000000 0.051000 0.051000 1.200000 0.028000 0.033000
1517275719927249754	900 30 1.000000 0.038000 0.040000 600 29 0.900000 0.329000 0.299000 600 33 1.000000 0.051000 0.051000 1.200000 0.027000 0.032000
1517275720438485629	900 30 1.000000 0.038000 0.040000 600 29 0.900000 0.324000 0.294000 600 33 1.000000 0.051000 0.051000 1.200000 0.027000 0.032000
1517275720949542004	900 30 1.000000 0.038000 0.040000 600 29 0.900000 0.323000 0.293000 600 33 1.000000 0.051000 0.051000 1.200000 0.027000 0.032000
1517275721460854379	900 30 1.000000 0.038000 0.040000 600 29 0.900000 0.324000 0.294000 600 33 1.000000 0.051000 0.051000 1.200000 0.028000 0.033000
1517275721972070837	900 30 1.000000 0.038000 0.040000 600 29 0.900000 0.324000 0.294000 600 33 1.000000 0.051000 0.051000 1.200000 0.026000 0.031000
1517275722483451588	900 30 1.000000 0.038000 0.040000 600 29 0.900000 0.323000 0.293000 600 33 1.000000 0.051000 0.051000 1.200000 0.026000 0.031000
1517275722994448296	900 30 1.000000 0.039000 0.041000 600 29 0.900000 0.323000 0.294000 600 33 1.000000 0.051000 0.051000 1.200000 0.026000 0.031000
1517275723505651046	900 30 1.000000 0.038000 0.040000 600 29 0.900000 0.323000 0.293000 600 33 1.000000 0.051000 0.051000 1.200000 0.026000 0.031000
1517275724017026463	900 30 1.000000 0.038000 0.040000 600 29 0.900000 0.336000 0.305000 600 33 1.000000 0.051000 0.051000 1.200000 0.027000 0.032000
1517275724528197629	900 30 1.000000 0.038000 0.040000 600 29 0.900000 0.335000 0.305000 600 33 1.000000 0.051000 0.051000 1.200000 0.028000 0.033000
1517275725039230213	900 30 1.000000 0.039000 0.041000 600 29 0.900000 0.328000 0.298000 600 33 1.000000 0.051000 0.051000 1.200000 0.026000 0.031000
1517275725550466463	900 30 1.000000 0.039000 0.041000 600 29 0.900000 0.328000 0.298000 600 33 1.000000 0.051000 0.051000 1.200000 0.028000 0.033000
1517275726061788963	900 30 1.000000 0.038000 0.040000 600 29 0.900000 0.334000 0.304000 600 33 1.000000 0.051000 0.051000 1.200000 0.028000 0.033000
1517275726573003880	900 30 1.000000 0.039000 0.041000 600 29 0.900000 0.337000 0.307000 600 33 1.000000 0.051000 0.051000 1.200000 0.027000 0.032000
1517275727084112338	900 30 1.000000 0.038000 0.040000 600 29 0.900000 0.326000 0.296000 600 33 1.000000 0.051000 0.051000 1.200000 0.028000 0.033000
1517275727595229671	900 30 1.000000 0.038000 0.040000 600 29 0.900000 0.323000 0.294000 600 33 1.000000 0.051000 0.051000 1.200000 0.027000 0.032000
1517275728106565672	900 30 1.000000 0.038000 0.040000 600 29 0.900000 0.322000 0.293000 600 33 1.000000 0.051000 0.051000 1.200000 0.026000 0.031000
1517275728617920463	900 30 1.000000 0.039000 0.041000 600 29 0.900000 0.323000 0.294000 600 33 1.000000 0.051000 0.051000 1.200000 0.026000 0.031000
1517275729129209672	900 30 1.000000 0.038000 0.040000 600 29 0.900000 0.323000 0.293000 600 33 1.000000 0.051000 0.051000 1.200000 0.027000 0.032000
1517275729640474963	900 30 1.000000 0.039000 0.041000 600 29 0.900000 0.324000 0.295000 600 33 1.000000 0.051000 0.051000 1.200000 0.025000 0.030000
1517275730151933630	900 30 1.000000 0.038000 0.040000 600 29 0.900000 0.323000 0.293000 600 33 1.000000 0.051000 0.051000 1.200000 0.027000 0.032000
1517275730663111505	900 30 1.000000 0.038000 0.040000 600 29 0.900000 0.322000 0.293000 600 33 1.000000 0.051000 0.051000 1.200000 0.026000 0.031000
1517275731174326214	900 30 1.000000 0.038000 0.040000 600 29 0.900000 0.323000 0.294000 600 33 1.000000 0.051000 0.051000 1.200000 0.027000 0.032000
1517275731685759255	900 30 1.000000 0.039000 0.041000 600 29 0.900000 0.324000 0.295000 600 33 1.000000 0.051000 0.051000 1.200000 0.027000 0.032000
1517275732197266714	900 30 1.000000 0.039000 0.041000 600 29 0.900000 0.335000 0.304000 600 33 1.000000 0.051000 0.051000 1.200000 0.028000 0.033000
1517275732708688339	900 30 1.000000 0.038000 0.040000 600 29 0.900000 0.329000 0.299000 600 33 1.000000 0.051000 0.051000 1.200000 0.028000 0.033000
1517275733219927005	900 30 1.000000 0.038000 0.040000 600 29 0.900000 0.330000 0.300000 600 33 1.000000 0.051000 0.051000 1.200000 0.027000 0.032000
1517275733731107297	900 30 1.000000 0.039000 0.041000 600 29 0.900000 0.323000 0.294000 600 33 1.000000 0.051000 0.051000 1.200000 0.028000 0.033000
1517275734242485714	900 30 1.000000 0.038000 0.040000 600 29 0.900000 0.324000 0.294000 600 33 1.000000 0.051000 0.051000 1.200000 0.028000 0.033000
1517275734753947172	900 30 1.000000 0.038000 0.040000 600 29 0.900000 0.324000 0.295000 600 33 1.000000 0.051000 0.051000 1.200000 0.025000 0.030000
1517275735265147297	900 30 1.000000 0.039000 0.041000 600 29 0.900000 0.323000 0.294000 600 33 1.000000 0.051000 0.051000 1.200000 0.027000 0.032000
1517275735776408006	900 30 1.000000 0.039000 0.041000 600 29 0.900000 0.322000 0.293000 600 33 1.000000 0.051000 0.051000 1.200000 0.027000 0.032000
1517275736287612047	900 30 1.000000 0.038000 0.040000 600 29 0.900000 0.323000 0.294000 600 33 1.000000 0.051000 0.051000 1.200000 0.026000 0.031000
1517275736798870798	900 30 1.000000 0.038000 0.040000 600 29 0.900000 0.325000 0.296000 600 33 1.000000 0.051000 0.051000 1.200000 0.027000 0.032000
1517275737310011881	900 30 1.000000 0.039000 0.041000 600 29 0.900000 0.323000 0.294000 600 33 1.000000 0.051000 0.051000 1.200000 0.027000 0.032000
1517275737821273006	900 30 1.000000 0.038000 0.040000 600 29 0.900000 0.328000 0.298000 600 33 1.000000 0.051000 0.051000 1.200000 0.026000 0.031000
1517275738332536881	900 30 1.000000 0.038000 0.040000 600 29 0.900000 0.328000 0.298000 600 33 1.000000 0.051000 0.051000 1.200000 0.026000 0.031000
1517275738843756006	900 30 1.000000 0.038000 0.040000 600 29 0.900000 0.334000 0.304000 600 33 1.000000 0.051000 0.051000 1.200000 0.026000 0.031000
1517275739354921923	900 30 1.000000 0.038000 0.040000 600 29 0.900000 0.336000 0.306000 600 33 1.000000 0.051000 0.051000 1.200000 0.027000 0.032000
1517275739866223423	900 30 1.000000 0.039000 0.041000 600 29 0.900000 0.332000 0.302000 600 33 1.000000 0.051000 0.051000 1.200000 0.027000 0.032000
1517275740377511423	900 30 1.000000 0.038000 0.040000 600 29 0.900000 0.324000 0.295000 600 33 1.000000 0.051000 0.051000 1.200000 0.027000 0.032000
1517275740888722840	900 30 1.000000 0.038000 0.040000 600 29 0.900000 0.328000 0.298000 600 33 1.000000 0.051000 0.051000 1.200000 0.028000 0.033000
1517275741399993590	900 30 1.000000 0.039000 0.041000 600 29 0.900000 0.333000 0.303000 600 33 1.000000 0.051000 0.051000 1.200000 0.027000 0.032000
1517275741911117798	900 30 1.000000 0.038000 0.040000 600 29 0.900000 0.336000 0.306000 600 33 1.000000 0.051000 0.051000 1.200000 0.026000 0.031000
1517275742422404840	900 30 1.000000 0.039000 0.041000 600 29 0.900000 0.332000 0.302000 600 33 1.000000 0.051000 0.051000 1.200000 0.027000 0.032000
1517275742933884798	900 30 1.000000 0.039000 0.041000 600 29 0.900000 0.328000 0.298000 600 33 1.000000 0.051000 0.051000 1.200000 0.026000 0.031000
1517275743444993923	900 30 1.000000 0.038000 0.040000 600 29 0.900000 0.331000 0.301000 600 33 1.000000 0.051000 0.051000 1.200000 0.028000 0.033000
1517275743956179007	900 30 1.000000 0.038000 0.040000 600 29 0.900000 0.334000 0.304000 600 33 1.000000 0.051000 0.051000 1.200000 0.028000 0.033000
1517275744467464007	900 30 1.000000 0.039000 0.041000 600 29 0.900000 0.337000 0.307000 600 33 1.000000 0.051000 0.051000 1.200000 0.027000 0.032000
1517275744978737299	900 30 1.000000 0.038000 0.040000 600 29 0.900000 0.333000 0.303000 600 33 1.000000 0.051000 0.051000 1.200000 0.027000 0.032000
1517275745490096549	900 30 1.000000 0.038000 0.040000 600 29 0.900000 0.327000 0.297000 600 33 1.000000 0.051000 0.051000 1.200000 0.028000 0.033000
1517275746001300799	900 30 1.000000 0.038000 0.040000 600 29 0.900000 0.329000 0.299000 600 33 1.000000 0.051000 0.051000 1.200000 0.027000 0.032000
1517275746512605132	900 30 1.000000 0.038000 0.040000 600 29 0.900000 0.336000 0.306000 600 33 1.000000 0.051000 0.051000 1.200000 0.026000 0.031000
1517275747023682215	900 30 1.000000 0.038000 0.040000 600 29 0.900000 0.337000 0.307000 600 33 1.000000 0.051000 0.051000 1.200000 0.027000 0.032000
1517275747534949299	900 30 1.000000 0.039000 0.041000 600 29 0.900000 0.323000 0.294000 600 33 1.000000 0.051000 0.051000 1.200000 0.028000 0.033000
1517275748046067299	900 30 1.000000 0.039000 0.041000 600 29 0.900000 0.322000 0.293000 600 33 1.000000 0.051000 0.051000 1.200000 0.027000 0.032000
1517275748557476799	900 30 1.000000 0.039000 0.041000 600 29 0.900000 0.329000 0.299000 600 33 1.000000 0.051000 0.051000 1.200000 0.028000 0.033000
1517275749068772132	900 30 1.000000 0.039000 0.041000 600 29 0.900000 0.336000 0.306000 600 33 1.000000 0.051000 0.051000 1.200000 0.025000 0.030000
1517275749579955466	900 30 1.000000 0.038000 0.040000 600 29 0.900000 0.336000 0.306000 600 33 1.000000 0.051000 0.051000 1.200000 0.027000 0.032000
1517275750091160757	900 30 1.000000 0.039000 0.041000 600 29 0.900000 0.331000 0.301000 600 33 1.000000 0.051000 0.051000 1.200000 0.027000 0.032000
1517275750602482258	900 30 1.000000 0.038000 0.040000 600 29 0.900000 0.327000 0.297000 600 33 1.000000 0.051000 0.051000 1.200000 0.027000 0.032000
1517275751113365258	900 30 1.000000 0.038000 0.040000 600 29 0.900000 0.330000 0.300000 600 33 1.000000 0.051000 0.051000 1.200000 0.027000 0.032000
1517275751624635674	900 30 1.000000 0.041000 0.043000 600 29 0.900000 0.332000 0.302000 600 33 1.000000 0.051000 0.051000 1.200000 0.027000 0.032000
1517275752135861174	900 30 1.000000 0.038000 0.040000 600 29 0.900000 0.336000 0.306000 600 33 1.000000 0.051000 0.051000 1.200000 0.026000 0.031000
1517275752647208424	900 30 1.000000 0.038000 0.040000 600 29 0.900000 0.331000 0.301000 600 33 1.000000 0.051000 0.051000 1.200000 0.027000 0.032000
1517275753158383633	900 30 1.000000 0.038000 0.040000 600 29 0.900000 0.327000 0.297000 600 33 1.000000 0.051000 0.051000 1.200000 0.029000 0.035000
1517275753669780466	900 30 1.000000 0.039000 0.041000 600 29 0.900000 0.330000 0.300000 600 33 1.000000 0.051000 0.051000 1.200000 0.028000 0.033000
1517275754180883841	900 30 1.000000 0.038000 0.040000 600 29 0.900000 0.324000 0.294000 600 33 1.000000 0.051000 0.051000 1.200000 0.027000 0.032000
1517275754691877591	900 30 1.000000 0.038000 0.040000 600 29 0.900000 0.323000 0.293000 600 33 1.000000 0.051000 0.051000 1.200000 0.028000 0.033000
1517275755203247841	900 30 1.000000 0.038000 0.040000 600 29 0.900000 0.322000 0.293000 600 33 1.000000 0.051000 0.051000 1.200000 0.027000 0.032000
1517275755714356300	900 30 1.000000 0.038000 0.040000 600 29 0.900000 0.322000 0.293000 600 33 1.000000 0.051000 0.051000 1.200000 0.027000 0.032000
1517275756225794883	900 30 1.000000 0.038000 0.040000 600 29 0.900000 0.323000 0.294000 600 33 1.000000 0.051000 0.051000 1.200000 0.027000 0.032000
1517275756737048467	900 30 1.000000 0.038000 0.040000 600 29 0.900000 0.338000 0.307000 600 33 1.000000 0.051000 0.051000 1.200000 0.028000 0.033000
1517275757248304050	900 30 1.000000 0.039000 0.041000 600 29 0.900000 0.337000 0.307000 600 33 1.000000 0.051000 0.051000 1.200000 0.027000 0.032000
1517275757759504383	900 30 1.000000 0.039000 0.041000 600 29 0.900000 0.330000 0.300000 600 33 1.000000 0.051000 0.051000 1.200000 0.028000 0.033000
1517275758270845383	900 30 1.000000 0.038000 0.040000 600 29 0.900000 0.327000 0.297000 600 33 1.000000 0.051000 0.051000 1.200000 0.028000 0.033000
1517275758782210592	900 30 1.000000 0.040000 0.042000 600 29 0.900000 0.330000 0.300000 600 33 1.000000 0.051000 0.051000 1.200000 0.028000 0.033000
1517275759293386759	900 30 1.000000 0.039000 0.041000 600 29 0.900000 0.337000 0.307000 600 33 1.000000 0.051000 0.051000 1.200000 0.028000 0.033000
1517275759804757092	900 30 1.000000 0.038000 0.040000 600 29 0.900000 0.335000 0.305000 600 33 1.000000 0.051000 0.051000 1.200000 0.027000 0.032000
1517275760315887425	900 30 1.000000 0.039000 0.041000 600 29 0.900000 0.330000 0.300000 600 33 1.000000 0.051000 0.051000 1.200000 0.027000 0.032000
1517275760827110425	900 30 1.000000 0.039000 0.041000 600 29 0.900000 0.326000 0.296000 600 33 1.000000 0.051000 0.051000 1.200000 0.028000 0.033000
1517275761338320592	900 30 1.000000 0.039000 0.041000 600 29 0.900000 0.324000 0.295000 600 33 1.000000 0.051000 0.051000 1.200000 0.027000 0.032000
1517275761849564217	900 30 1.000000 0.038000 0.040000 600 29 0.900000 0.325000 0.296000 600 33 1.000000 0.051000 0.051000 1.200000 0.028000 0.033000
1517275762360841676	900 30 1.000000 0.038000 0.040000 600 29 0.900000 0.323000 0.294000 600 33 1.000000 0.051000 0.051000 1.200000 0.027000 0.032000
1517275762871971926	900 30 1.000000 0.038000 0.040000 600 29 0.900000 0.323000 0.294000 600 33 1.000000 0.051000 0.051000 1.200000 0.027000 0.032000
1517275763382366759	900 30 1.000000 0.039000 0.041000 600 29 0.900000 0.322000 0.293000 600 33 1.000000 0.051000 0.051000 1.200000 0.027000 0.032000
1517275763892705592	900 30 1.000000 0.039000 0.041000 600 29 0.900000 0.324000 0.294000 600 33 1.000000 0.051000 0.051000 1.200000 0.027000 0.032000
1517275764403648759	900 30 1.000000 0.038000 0.040000 600 29 0.900000 0.325000 0.296000 600 33 1.000000 0.051000 0.051000 1.200000 0.026000 0.031000
1517275764914920093	900 30 1.000000 0.038000 0.040000 600 29 0.900000 0.334000 0.303000 600 33 1.000000 0.051000 0.051000 1.200000 0.028000 0.033000
1517275765425620759	900 30 1.000000 0.038000 0.040000 600 29 0.900000 0.329000 0.299000 600 33 1.000000 0.051000 0.051000 1.200000 0.027000 0.032000
1517275765936802134	900 30 1.000000 0.039000 0.041000 600 29 0.900000 0.329000 0.299000 600 33 1.000000 0.051000 0.051000 1.200000 0.027000 0.032000
1517275766447395676	900 30 1.000000 0.038000 0.040000 600 29 0.900000 0.335000 0.304000 600 33 1.000000 0.052000 0.052000 1.200000 0.028000 0.033000
1517275766957802634	900 30 1.000000 0.038000 0.040000 600 29 0.900000 0.336000 0.306000 600 33 1.000000 0.051000 0.051000 1.200000 0.027000 0.032000
1517275767468274218	900 30 1.000000 0.039000 0.041000 600 29 0.900000 0.329000 0.299000 600 33 1.000000 0.051000 0.051000 1.200000 0.027000 0.032000
1517275767978653093	900 30 1.000000 0.038000 0.040000 600 29 0.900000 0.323000 0.293000 600 33 1.000000 0.051000 0.051000 1.200000 0.028000 0.033000
1517275768488870135	900 30 1.000000 0.038000 0.040000 600 29 0.900000 0.323000 0.294000 600 33 1.000000 0.051000 0.051000 1.200000 0.028000 0.033000
1517275768999204760	900 30 1.000000 0.039000 0.041000 600 29 0.900000 0.325000 0.296000 600 33 1.000000 0.051000 0.051000 1.200000 0.027000 0.032000
1517275769509429510	900 30 1.000000 0.038000 0.040000 600 29 0.900000 0.325000 0.296000 600 33 1.000000 0.051000 0.051000 1.200000 0.026000 0.031000
1517275770019689302	900 30 1.000000 0.038000 0.040000 600 29 0.900000 0.323000 0.294000 600 33 1.000000 0.051000 0.051000 1.200000 0.026000 0.031000
1517275770530926802	900 30 1.000000 0.039000 0.041000 600 29 0.900000 0.323000 0.294000 600 33 1.000000 0.051000 0.051000 1.200000 0.026000 0.031000
1517275771041323635	900 30 1.000000 0.038000 0.040000 600 29 0.900000 0.324000 0.295000 600 33 1.000000 0.051000 0.051000 1.200000 0.026000 0.031000
1517275771551649718	900 30 1.000000 0.038000 0.040000 600 29 0.900000 0.324000 0.295000 600 33 1.000000 0.051000 0.051000 1.200000 0.027000 0.032000
1517275772061612635	900 30 1.000000 0.038000 0.040000 600 29 0.900000 0.323000 0.294000 600 33 1.000000 0.051000 0.051000 1.200000 0.026000 0.031000
1517275772571719635	900 30 1.000000 0.039000 0.041000 600 29 0.900000 0.334000 0.304000 600 33 1.000000 0.051000 0.051000 1.200000 0.027000 0.032000
1517275773081872844	900 30 1.000000 0.038000 0.040000 600 29 0.900000 0.332000 0.302000 600 33 1.000000 0.051000 0.051000 1.200000 0.027000 0.032000
1517275773591955677	900 30 1.000000 0.039000 0.041000 600 29 0.900000 0.327000 0.297000 600 33 1.000000 0.051000 0.051000 1.200000 0.027000 0.032000
1517275774102119260	900 30 1.000000 0.038000 0.040000 600 29 0.900000 0.324000 0.295000 600 33 1.000000 0.051000 0.051000 1.200000 0.027000 0.032000
1517275774612278552	900 30 1.000000 0.038000 0.040000 600 29 0.900000 0.325000 0.296000 600 33 1.000000 0.051000 0.051000 1.200000 0.028000 0.033000
1517275775122258344	900 30 1.000000 0.038000 0.040000 600 29 0.900000 0.324000 0.295000 600 33 1.000000 0.051000 0.051000 1.200000 0.028000 0.033000
1517275775632419802	900 30 1.000000 0.038000 0.040000 600 29 0.900000 0.322000 0.293000 600 33 1.000000 0.051000 0.051000 1.200000 0.027000 0.032000
1517275776142573844	900 30 1.000000 0.039000 0.041000 600 29 0.900000 0.324000 0.295000 600 33 1.000000 0.051000 0.051000 1.200000 0.026000 0.031000
1517275776652670802	900 30 1.000000 0.038000 0.040000 600 29 0.900000 0.325000 0.296000 600 33 1.000000 0.051000 0.051000 1.200000 0.026000 0.031000
1517275777162898094	900 30 1.000000 0.038000 0.040000 600 29 0.900000 0.324000 0.295000 600 33 1.000000 0.051000 0.051000 1.200000 0.027000 0.032000
1517275777673036302	900 30 1.000000 0.038000 0.040000 600 29 0.900000 0.328000 0.298000 600 33 1.000000 0.051000 0.051000 1.200000 0.027000 0.032000
1517275778183299386	900 30 1.000000 0.038000 0.040000 600 29 0.900000 0.334000 0.304000 600 33 1.000000 0.051000 0.051000 1.200000 0.027000 0.032000
1517275778693421469	900 30 1.000000 0.038000 0.040000 600 29 0.900000 0.334000 0.304000 600 33 1.000000 0.051000 0.051000 1.200000 0.027000 0.032000
1517275779203646511	900 30 1.000000 0.039000 0.041000 600 29 0.900000 0.330000 0.300000 600 33 1.000000 0.051000 0.051000 1.200000 0.027000 0.032000
1517275779713813594	900 30 1.000000 0.039000 0.041000 600 29 0.900000 0.329000 0.299000 600 33 1.000000 0.051000 0.051000 1.200000 0.027000 0.032000
1517275780223821594	900 30 1.000000 0.038000 0.040000 600 29 0.900000 0.323000 0.294000 600 33 1.000000 0.051000 0.051000 1.200000 0.028000 0.033000
1517275780733996303	900 30 1.000000 0.039000 0.041000 600 29 0.900000 0.331000 0.301000 600 33 1.000000 0.051000 0.051000 1.200000 0.027000 0.032000
1517275781243897803	900 30 1.000000 0.038000 0.040000 600 29 0.900000 0.326000 0.296000 600 33 1.000000 0.051000 0.051000 1.200000 0.027000 0.032000
1517275781754152428	900 30 1.000000 0.038000 0.040000 600 29 0.900000 0.332000 0.302000 600 33 1.000000 0.051000 0.051000 1.200000 0.027000 0.032000
1517275782264188845	900 30 1.000000 0.038000 0.040000 600 29 0.900000 0.336000 0.305000 600 33 1.000000 0.051000 0.051000 1.200000 0.027000 0.032000
1517275782774365803	900 30 1.000000 0.039000 0.041000 600 29 0.900000 0.331000 0.301000 600 33 1.000000 0.051000 0.051000 1.200000 0.027000 0.032000
1517275783284636761	900 30 1.000000 0.038000 0.040000 600 29 0.900000 0.325000 0.296000 600 33 1.000000 0.051000 0.051000 1.200000 0.027000 0.032000
1517275783794692720	900 30 1.000000 0.039000 0.041000 600 29 0.900000 0.333000 0.303000 600 33 1.000000 0.051000 0.051000 1.200000 0.026000 0.031000
1517275784304667720	900 30 1.000000 0.038000 0.040000 600 29 0.900000 0.336000 0.305000 600 33 1.000000 0.051000 0.051000 1.200000 0.027000 0.032000
1517275784814710178	900 30 1.000000 0.038000 0.040000 600 29 0.900000 0.329000 0.299000 600 33 1.000000 0.051000 0.051000 1.200000 0.027000 0.032000
1517275785324735303	900 30 1.000000 0.038000 0.040000 600 29 0.900000 0.327000 0.297000 600 33 1.000000 0.051000 0.051000 1.200000 0.027000 0.032000
1517275785834843887	900 30 1.000000 0.038000 0.040000 600 29 0.900000 0.335000 0.304000 600 33 1.000000 0.051000 0.051000 1.200000 0.027000 0.032000
1517275786345011137	900 30 1.000000 0.038000 0.040000 600 29 0.900000 0.333000 0.303000 600 33 1.000000 0.051000 0.051000 1.200000 0.028000 0.033000
1517275786855223720	900 30 1.000000 0.039000 0.041000 600 29 0.900000 0.329000 0.299000 600 33 1.000000 0.052000 0.052000 1.200000 0.028000 0.033000
1517275787365485845	900 30 1.000000 0.038000 0.040000 600 29 0.900000 0.324000 0.294000 600 33 1.000000 0.051000 0.051000 1.200000 0.027000 0.032000
1517275787875671929	900 30 1.000000 0.039000 0.041000 600 29 0.900000 0.335000 0.305000 600 33 1.000000 0.051000 0.051000 1.200000 0.026000 0.031000
1517275788385841137	900 30 1.000000 0.038000 0.040000 600 29 0.900000 0.331000 0.301000 600 33 1.000000 0.051000 0.051000 1.200000 0.027000 0.032000
1517275788896072179	900 30 1.000000 0.038000 0.040000 600 29 0.900000 0.327000 0.297000 600 33 1.000000 0.051000 0.051000 1.200000 0.028000 0.033000
1517275789406127429	900 30 1.000000 0.039000 0.041000 600 29 0.900000 0.333000 0.303000 600 33 1.000000 0.051000 0.051000 1.200000 0.027000 0.032000
1517275789916378762	900 30 1.000000 0.038000 0.040000 600 29 0.900000 0.335000 0.304000 600 33 1.000000 0.051000 0.051000 1.200000 0.027000 0.032000
1517275790426483929	900 30 1.000000 0.038000 0.040000 600 29 0.900000 0.329000 0.299000 600 33 1.000000 0.051000 0.051000 1.200000 0.028000 0.033000
1517275790936559637	900 30 1.000000 0.039000 0.041000 600 29 0.900000 0.326000 0.296000 600 33 1.000000 0.051000 0.051000 1.200000 0.028000 0.033000
1517275791446941596	900 30 1.000000 0.038000 0.040000 600 29 0.900000 0.334000 0.304000 600 33 1.000000 0.051000 0.051000 1.200000 0.027000 0.032000
1517275791957045554	900 30 1.000000 0.038000 0.040000 600 29 0.900000 0.336000 0.306000 600 33 1.000000 0.051000 0.051000 1.200000 0.027000 0.032000
1517275792467460846	900 30 1.000000 0.039000 0.041000 600 29 0.900000 0.329000 0.299000 600 33 1.000000 0.051000 0.051000 1.200000 0.028000 0.033000
1517275792977331013	900 30 1.000000 0.039000 0.041000 600 29 0.900000 0.329000 0.299000 600 33 1.000000 0.051000 0.051000 1.200000 0.028000 0.033000
1517275793487535471	900 30 1.000000 0.039000 0.041000 600 29 0.900000 0.324000 0.295000 600 33 1.000000 0.051000 0.051000 1.200000 0.027000 0.032000
1517275793997722846	900 30 1.000000 0.038000 0.040000 600 29 0.900000 0.325000 0.296000 600 33 1.000000 0.051000 0.051000 1.200000 0.027000 0.032000
1517275794507908804	900 30 1.000000 0.038000 0.040000 600 29 0.900000 0.324000 0.295000 600 33 1.000000 0.051000 0.051000 1.200000 0.028000 0.033000
1517275795018113346	900 30 1.000000 0.038000 0.040000 600 29 0.900000 0.323000 0.294000 600 33 1.000000 0.051000 0.051000 1.200000 0.026000 0.031000
1517275795528222096	900 30 1.000000 0.039000 0.041000 600 29 0.900000 0.322000 0.293000 600 33 1.000000 0.051000 0.051000 1.200000 0.027000 0.032000
1517275796038373263	900 30 1.000000 0.038000 0.040000 600 29 0.900000 0.331000 0.301000 600 33 1.000000 0.051000 0.051000 1.200000 0.027000 0.032000
1517275796548446763	900 30 1.000000 0.038000 0.040000 600 29 0.900000 0.327000 0.297000 600 33 1.000000 0.051000 0.051000 1.200000 0.028000 0.033000
1517275797058561888	900 30 1.000000 0.039000 0.041000 600 29 0.900000 0.334000 0.303000 600 33 1.000000 0.051000 0.051000 1.200000 0.028000 0.033000
1517275797568709596	900 30 1.000000 0.038000 0.040000 600 29 0.900000 0.335000 0.304000 600 33 1.000000 0.051000 0.051000 1.200000 0.027000 0.032000
1517275798078893513	900 30 1.000000 0.038000 0.040000 600 29 0.900000 0.329000 0.299000 600 33 1.000000 0.051000 0.051000 1.200000 0.027000 0.032000
1517275798588887138	900 30 1.000000 0.039000 0.041000 600 29 0.900000 0.327000 0.297000 600 33 1.000000 0.051000 0.051000 1.200000 0.027000 0.032000
1517275799099161555	900 30 1.000000 0.039000 0.041000 600 29 0.900000 0.335000 0.304000 600 33 1.000000 0.051000 0.051000 1.200000 0.028000 0.033000
1517275799609282847	900 30 1.000000 0.039000 0.041000 600 29 0.900000 0.335000 0.305000 600 33 1.000000 0.051000 0.051000 1.200000 0.026000 0.031000
1517275800119694388	900 30 1.000000 0.039000 0.041000 600 29 0.900000 0.324000 0.294000 600 33 1.000000 0.051000 0.051000 1.200000 0.028000 0.033000
1517275800629968638	900 30 1.000000 0.038000 0.040000 600 29 0.900000 0.322000 0.293000 600 33 1.000000 0.051000 0.051000 1.200000 0.027000 0.032000
1517275801140064055	900 30 1.000000 0.038000 0.040000 600 29 0.900000 0.323000 0.293000 600 33 1.000000 0.051000 0.051000 1.200000 0.027000 0.032000
1517275801650274305	900 30 1.000000 0.038000 0.040000 600 29 0.900000 0.325000 0.295000 600 33 1.000000 0.051000 0.051000 1.200000 0.026000 0.031000
1517275802160277514	900 30 1.000000 0.038000 0.040000 600 29 0.900000 0.323000 0.294000 600 33 1.000000 0.051000 0.051000 1.200000 0.027000 0.032000
1517275802670456930	900 30 1.000000 0.038000 0.040000 600 29 0.900000 0.322000 0.293000 600 33 1.000000 0.051000 0.051000 1.200000 0.026000 0.031000
1517275803181524180	900 30 1.000000 0.039000 0.041000 600 29 0.900000 0.358000 0.325000 600 33 1.000000 0.051000 0.051000 1.200000 0.073000 0.088000
1517275803692986306	900 30 1.000000 0.041000 0.043000 600 29 0.900000 0.371000 0.337000 600 34 1.000000 0.051000 0.051000 1.200000 0.102000 0.123000
1517275804252891347	900 33 1.000000 0.228000 0.240000 600 30 0.900000 0.607000 0.552000 600 35 1.000000 0.051000 0.051000 1.200000 0.094000 0.114000
1517275804816914889	900 33 1.000000 0.282000 0.297000 600 31 0.900000 0.836000 0.754000 600 36 1.000000 0.051000 0.051000 1.200000 0.071000 0.085000
1517275805368856264	900 34 1.000000 0.280000 0.295000 600 31 0.900000 0.834000 0.753000 600 36 1.000000 0.051000 0.051000 1.200000 0.066000 0.079000
1517275805924833472	900 34 1.000000 0.280000 0.295000 600 31 0.900000 0.834000 0.753000 600 37 1.000000 0.051000 0.051000 1.200000 0.066000 0.079000
1517275806468716681	900 34 1.000000 0.280000 0.295000 600 32 0.900000 0.834000 0.753000 600 37 1.000000 0.051000 0.051000 1.200000 0.067000 0.081000
1517275807032851973	900 34 1.000000 0.280000 0.295000 600 32 0.900000 0.834000 0.753000 600 37 1.000000 0.052000 0.052000 1.200000 0.066000 0.079000
1517275807588812514	900 34 1.000000 0.280000 0.295000 600 32 0.900000 0.834000 0.753000 600 37 1.000000 0.052000 0.052000 1.200000 0.067000 0.081000
1517275808156887806	900 35 1.000000 0.280000 0.295000 600 32 0.900000 0.834000 0.753000 600 37 1.000000 0.052000 0.052000 1.200000 0.067000 0.081000
1517275808712893389	900 35 1.000000 0.280000 0.295000 600 32 0.900000 0.835000 0.754000 600 37 1.000000 0.052000 0.052000 1.200000 0.066000 0.079000
1517275809272839973	900 35 1.000000 0.280000 0.295000 600 32 0.900000 0.834000 0.753000 600 37 1.000000 0.052000 0.052000 1.200000 0.068000 0.082000
1517275809836827431	900 35 1.000000 0.281000 0.296000 600 32 0.900000 0.834000 0.753000 600 37 1.000000 0.052000 0.052000 1.200000 0.066000 0.079000
1517275810400826598	900 35 1.000000 0.281000 0.296000 600 32 0.900000 0.835000 0.754000 600 38 1.000000 0.052000 0.052000 1.200000 0.066000 0.079000
1517275810964860973	900 35 1.000000 0.280000 0.295000 600 32 0.900000 0.835000 0.754000 600 38 1.000000 0.052000 0.052000 1.200000 0.067000 0.081000
1517275811520858223	900 35 1.000000 0.280000 0.295000 600 32 0.900000 0.834000 0.752000 600 38 1.000000 0.052000 0.052000 1.200000 0.066000 0.079000
1517275812084885515	900 35 1.000000 0.280000 0.295000 600 32 0.900000 0.835000 0.754000 600 38 1.000000 0.052000 0.052000 1.200000 0.066000 0.079000
1517275812644900098	900 35 1.000000 0.280000 0.295000 600 32 0.900000 0.835000 0.754000 600 38 1.000000 0.052000 0.052000 1.200000 0.066000 0.079000
1517275813208894140	900 35 1.000000 0.280000 0.295000 600 33 0.900000 0.834000 0.753000 600 38 1.000000 0.052000 0.052000 1.200000 0.067000 0.081000
1517275813772772932	900 35 1.000000 0.281000 0.296000 600 33 0.900000 0.834000 0.753000 600 38 1.000000 0.052000 0.052000 1.200000 0.066000 0.079000
1517275814340850223	900 35 1.000000 0.280000 0.295000 600 33 0.900000 0.835000 0.754000 600 38 1.000000 0.052000 0.052000 1.200000 0.066000 0.079000
1517275814900847307	900 35 1.000000 0.281000 0.296000 600 33 0.900000 0.835000 0.754000 600 38 1.000000 0.052000 0.052000 1.200000 0.066000 0.079000
1517275815456836224	900 35 1.000000 0.281000 0.296000 600 33 0.900000 0.835000 0.754000 600 38 1.000000 0.052000 0.052000 1.200000 0.066000 0.079000
1517275816020849099	900 35 1.000000 0.281000 0.296000 600 33 0.900000 0.835000 0.754000 600 38 1.000000 0.052000 0.052000 1.200000 0.066000 0.079000
1517275816584822182	900 35 1.000000 0.281000 0.296000 600 33 0.900000 0.835000 0.753000 600 38 1.000000 0.052000 0.052000 1.200000 0.066000 0.079000
1517275817144803182	900 35 1.000000 0.280000 0.295000 600 33 0.900000 0.835000 0.754000 600 38 1.000000 0.052000 0.052000 1.200000 0.067000 0.081000
1517275817708832641	900 35 1.000000 0.280000 0.295000 600 33 0.900000 0.835000 0.753000 600 38 1.000000 0.052000 0.052000 1.200000 0.067000 0.081000
1517275818272843932	900 35 1.000000 0.281000 0.296000 600 33 0.900000 0.835000 0.754000 600 38 1.000000 0.052000 0.052000 1.200000 0.066000 0.079000
1517275818828777349	900 35 1.000000 0.281000 0.296000 600 33 0.900000 0.835000 0.754000 600 38 1.000000 0.052000 0.052000 1.200000 0.066000 0.079000
1517275819392883099	900 36 1.000000 0.281000 0.296000 600 33 0.900000 0.836000 0.754000 600 38 1.000000 0.051000 0.051000 1.200000 0.065000 0.078000
1517275819956854016	900 35 1.000000 0.281000 0.296000 600 33 0.900000 0.835000 0.754000 600 38 1.000000 0.052000 0.052000 1.200000 0.066000 0.079000
1517275820516832974	900 35 1.000000 0.281000 0.296000 600 33 0.900000 0.836000 0.754000 600 38 1.000000 0.052000 0.052000 1.200000 0.066000 0.079000
1517275821068787308	900 36 1.000000 0.280000 0.295000 600 33 0.900000 0.835000 0.754000 600 38 1.000000 0.052000 0.052000 1.200000 0.066000 0.079000
1517275821632818641	900 36 1.000000 0.280000 0.295000 600 33 0.900000 0.835000 0.754000 600 38 1.000000 0.052000 0.052000 1.200000 0.067000 0.081000
1517275822188885849	900 36 1.000000 0.281000 0.296000 600 33 0.900000 0.835000 0.754000 600 38 1.000000 0.052000 0.052000 1.200000 0.067000 0.081000
1517275822748857349	900 36 1.000000 0.280000 0.295000 600 33 0.900000 0.834000 0.753000 600 38 1.000000 0.052000 0.052000 1.200000 0.067000 0.081000
1517275823304855558	900 36 1.000000 0.281000 0.296000 600 33 0.900000 0.835000 0.754000 600 38 1.000000 0.052000 0.052000 1.200000 0.066000 0.079000
1517275823864832850	900 36 1.000000 0.280000 0.295000 600 33 0.900000 0.835000 0.754000 600 38 1.000000 0.052000 0.052000 1.200000 0.065000 0.078000
1517275824416832141	900 36 1.000000 0.281000 0.296000 600 33 0.900000 0.834000 0.753000 600 38 1.000000 0.052000 0.052000 1.200000 0.066000 0.079000
1517275824972856850	900 36 1.000000 0.281000 0.296000 600 33 0.900000 0.835000 0.754000 600 38 1.000000 0.052000 0.052000 1.200000 0.066000 0.079000
1517275825524894891	900 36 1.000000 0.280000 0.295000 600 33 0.900000 0.835000 0.754000 600 39 1.000000 0.052000 0.052000 1.200000 0.066000 0.079000
1517275826080865558	900 36 1.000000 0.281000 0.296000 600 33 0.900000 0.835000 0.754000 600 38 1.000000 0.052000 0.052000 1.200000 0.066000 0.079000
1517275826644819683	900 36 1.000000 0.280000 0.295000 600 33 0.900000 0.836000 0.754000 600 39 1.000000 0.052000 0.052000 1.200000 0.066000 0.079000
1517275827212732058	900 36 1.000000 0.280000 0.295000 600 33 0.900000 0.836000 0.754000 600 38 1.000000 0.052000 0.052000 1.200000 0.067000 0.081000
1517275827768823392	900 36 1.000000 0.281000 0.296000 600 33 0.900000 0.836000 0.754000 600 39 1.000000 0.052000 0.052000 1.200000 0.066000 0.079000
1517275828320732892	900 36 1.000000 0.281000 0.296000 600 33 0.900000 0.836000 0.754000 600 38 1.000000 0.052000 0.052000 1.200000 0.065000 0.078000
1517275828880845850	900 36 1.000000 0.281000 0.296000 600 33 0.900000 0.836000 0.754000 600 39 1.000000 0.052000 0.052000 1.200000 0.067000 0.081000
1517275829440785100	900 36 1.000000 0.281000 0.296000 600 33 0.900000 0.835000 0.754000 600 39 1.000000 0.051000 0.051000 1.200000 0.067000 0.081000
1517275830004860142	900 36 1.000000 0.280000 0.295000 600 33 0.900000 0.835000 0.754000 600 39 1.000000 0.052000 0.052000 1.200000 0.067000 0.081000
1517275830568824767	900 36 1.000000 0.281000 0.296000 600 33 0.900000 0.834000 0.753000 600 39 1.000000 0.052000 0.052000 1.200000 0.067000 0.081000
1517275831128841059	900 36 1.000000 0.281000 0.296000 600 33 0.900000 0.835000 0.754000 600 39 1.000000 0.052000 0.052000 1.200000 0.066000 0.079000
1517275831692886601	900 36 1.000000 0.280000 0.295000 600 33 0.900000 0.836000 0.754000 600 39 1.000000 0.052000 0.052000 1.200000 0.066000 0.079000
1517275832256755767	900 36 1.000000 0.281000 0.296000 600 33 0.900000 0.836000 0.754000 600 39 1.000000 0.052000 0.052000 1.200000 0.066000 0.079000
1517275832808919476	900 36 1.000000 0.281000 0.296000 600 33 0.900000 0.836000 0.754000 600 39 1.000000 0.052000 0.052000 1.200000 0.067000 0.081000
1517275833368812976	900 36 1.000000 0.281000 0.296000 600 33 0.900000 0.837000 0.755000 600 39 1.000000 0.052000 0.052000 1.200000 0.067000 0.081000
1517275833932750101	900 36 1.000000 0.281000 0.296000 600 33 0.900000 0.836000 0.754000 600 39 1.000000 0.052000 0.052000 1.200000 0.067000 0.081000
1517275834492887601	900 36 1.000000 0.281000 0.296000 600 33 0.900000 0.837000 0.755000 600 39 1.000000 0.052000 0.052000 1.200000 0.067000 0.081000
1517275835048808476	900 36 1.000000 0.281000 0.296000 600 33 0.900000 0.836000 0.754000 600 39 1.000000 0.052000 0.052000 1.200000 0.067000 0.081000
1517275835608848726	900 36 1.000000 0.281000 0.296000 600 33 0.900000 0.835000 0.754000 600 39 1.000000 0.052000 0.052000 1.200000 0.067000 0.081000
1517275836172857143	900 36 1.000000 0.281000 0.296000 600 33 0.900000 0.837000 0.755000 600 39 1.000000 0.051000 0.051000 1.200000 0.067000 0.081000
1517275836728810684	900 36 1.000000 0.281000 0.296000 600 34 0.900000 0.836000 0.754000 600 39 1.000000 0.052000 0.052000 1.200000 0.066000 0.079000
1517275837272736185	900 36 1.000000 0.280000 0.295000 600 33 0.900000 0.836000 0.754000 600 39 1.000000 0.052000 0.052000 1.200000 0.066000 0.079000
1517275837824858351	900 36 1.000000 0.281000 0.296000 600 33 0.900000 0.836000 0.754000 600 39 1.000000 0.052000 0.052000 1.200000 0.067000 0.081000
1517275838384748310	900 36 1.000000 0.280000 0.295000 600 33 0.900000 0.836000 0.754000 600 39 1.000000 0.052000 0.052000 1.200000 0.067000 0.081000
1517275838948750893	900 36 1.000000 0.281000 0.296000 600 33 0.900000 0.836000 0.754000 600 39 1.000000 0.052000 0.052000 1.200000 0.067000 0.081000
1517275839516847435	900 36 1.000000 0.280000 0.295000 600 33 0.900000 0.837000 0.755000 600 39 1.000000 0.051000 0.051000 1.200000 0.067000 0.081000
1517275840080821477	900 36 1.000000 0.281000 0.296000 600 34 0.900000 0.836000 0.754000 600 39 1.000000 0.051000 0.051000 1.200000 0.067000 0.081000
1517275840644843935	900 36 1.000000 0.280000 0.295000 600 34 0.900000 0.836000 0.754000 600 39 1.000000 0.052000 0.052000 1.200000 0.067000 0.081000
1517275841204772768	900 36 1.000000 0.281000 0.296000 600 34 0.900000 0.836000 0.754000 600 39 1.000000 0.052000 0.052000 1.200000 0.067000 0.081000
1517275841756802810	900 36 1.000000 0.281000 0.296000 600 34 0.900000 0.837000 0.755000 600 39 1.000000 0.052000 0.052000 1.200000 0.066000 0.079000
1517275842312853185	900 36 1.000000 0.281000 0.296000 600 34 0.900000 0.837000 0.755000 600 39 1.000000 0.052000 0.052000 1.200000 0.066000 0.079000
1517275842856809852	900 36 1.000000 0.280000 0.295000 600 34 0.900000 0.837000 0.755000 600 39 1.000000 0.052000 0.052000 1.200000 0.066000 0.079000
1517275843412913977	900 36 1.000000 0.280000 0.295000 600 34 0.900000 0.836000 0.754000 600 39 1.000000 0.052000 0.052000 1.200000 0.066000 0.079000
1517275843972829852	900 36 1.000000 0.281000 0.296000 600 34 0.900000 0.837000 0.755000 600 39 1.000000 0.052000 0.052000 1.200000 0.067000 0.081000
1517275844528864894	900 36 1.000000 0.280000 0.295000 600 34 0.900000 0.837000 0.755000 600 39 1.000000 0.052000 0.052000 1.200000 0.068000 0.082000
1517275845092855977	900 36 1.000000 0.281000 0.296000 600 34 0.900000 0.836000 0.754000 600 39 1.000000 0.052000 0.052000 1.200000 0.066000 0.079000
1517275845652846227	900 36 1.000000 0.281000 0.296000 600 34 0.900000 0.836000 0.754000 600 39 1.000000 0.052000 0.052000 1.200000 0.067000 0.081000
1517275846212775644	900 36 1.000000 0.281000 0.296000 600 34 0.900000 0.836000 0.754000 600 39 1.000000 0.052000 0.052000 1.200000 0.067000 0.081000
1517275846768834686	900 36 1.000000 0.281000 0.296000 600 34 0.900000 0.836000 0.754000 600 39 1.000000 0.052000 0.052000 1.200000 0.066000 0.079000
1517275847332797852	900 36 1.000000 0.281000 0.296000 600 34 0.900000 0.837000 0.754000 600 39 1.000000 0.052000 0.052000 1.200000 0.067000 0.081000
1517275847892929727	900 36 1.000000 0.281000 0.297000 600 34 0.900000 0.836000 0.754000 600 39 1.000000 0.052000 0.052000 1.200000 0.066000 0.079000
1517275848460892728	900 36 1.000000 0.282000 0.297000 600 34 0.900000 0.837000 0.755000 600 39 1.000000 0.052000 0.052000 1.200000 0.066000 0.079000
1517275849020849936	900 36 1.000000 0.280000 0.295000 600 34 0.900000 0.837000 0.755000 600 39 1.000000 0.052000 0.052000 1.200000 0.067000 0.081000
1517275849564769186	900 36 1.000000 0.281000 0.296000 600 34 0.900000 0.837000 0.755000 600 39 1.000000 0.052000 0.052000 1.200000 0.067000 0.081000
1517275850128827436	900 36 1.000000 0.280000 0.295000 600 34 0.900000 0.836000 0.754000 600 39 1.000000 0.052000 0.052000 1.200000 0.066000 0.079000
1517275850692876436	900 36 1.000000 0.280000 0.295000 600 34 0.900000 0.836000 0.754000 600 39 1.000000 0.052000 0.052000 1.200000 0.067000 0.081000
1517275851256859770	900 36 1.000000 0.281000 0.296000 600 34 0.900000 0.837000 0.755000 600 39 1.000000 0.052000 0.052000 1.200000 0.066000 0.079000
1517275851820841561	900 36 1.000000 0.281000 0.296000 600 34 0.900000 0.837000 0.755000 600 39 1.000000 0.052000 0.052000 1.200000 0.066000 0.079000
1517275852364802561	900 36 1.000000 0.281000 0.296000 600 34 0.900000 0.837000 0.755000 600 39 1.000000 0.052000 0.052000 1.200000 0.066000 0.079000
1517275852908784020	900 36 1.000000 0.281000 0.296000 600 34 0.900000 0.837000 0.755000 600 39 1.000000 0.052000 0.052000 1.200000 0.066000 0.079000
1517275853464856561	900 36 1.000000 0.281000 0.296000 600 34 0.900000 0.837000 0.755000 600 39 1.000000 0.052000 0.052000 1.200000 0.066000 0.079000
1517275854020800103	900 36 1.000000 0.281000 0.296000 600 34 0.900000 0.837000 0.755000 600 39 1.000000 0.052000 0.052000 1.200000 0.067000 0.081000
1517275854584778645	900 36 1.000000 0.281000 0.296000 600 34 0.900000 0.837000 0.755000 600 39 1.000000 0.052000 0.052000 1.200000 0.066000 0.079000
1517275855144812437	900 36 1.000000 0.281000 0.296000 600 34 0.900000 0.837000 0.755000 600 39 1.000000 0.052000 0.052000 1.200000 0.067000 0.081000
1517275855712859728	900 36 1.000000 0.281000 0.296000 600 34 0.900000 0.836000 0.754000 600 39 1.000000 0.052000 0.052000 1.200000 0.066000 0.079000
1517275856264736228	900 36 1.000000 0.281000 0.296000 600 34 0.900000 0.837000 0.755000 600 39 1.000000 0.052000 0.052000 1.200000 0.065000 0.078000
1517275856828813145	900 36 1.000000 0.281000 0.296000 600 34 0.900000 0.836000 0.754000 600 39 1.000000 0.052000 0.052000 1.200000 0.066000 0.079000
1517275857376790312	900 36 1.000000 0.281000 0.296000 600 34 0.900000 0.837000 0.755000 600 39 1.000000 0.052000 0.052000 1.200000 0.066000 0.079000
1517275857920783062	900 36 1.000000 0.280000 0.295000 600 34 0.900000 0.837000 0.755000 600 39 1.000000 0.052000 0.052000 1.200000 0.066000 0.079000
1517275858484890687	900 36 1.000000 0.281000 0.296000 600 34 0.900000 0.836000 0.754000 600 39 1.000000 0.052000 0.052000 1.200000 0.066000 0.079000
1517275859028827145	900 36 1.000000 0.281000 0.296000 600 34 0.900000 0.837000 0.755000 600 39 1.000000 0.052000 0.052000 1.200000 0.066000 0.079000
1517275859588823937	900 36 1.000000 0.281000 0.296000 600 34 0.900000 0.836000 0.754000 600 39 1.000000 0.052000 0.052000 1.200000 0.066000 0.079000
1517275860152877104	900 36 1.000000 0.281000 0.296000 600 34 0.900000 0.836000 0.754000 600 39 1.000000 0.052000 0.052000 1.200000 0.067000 0.081000
1517275860701113104	900 36 1.000000 0.281000 0.296000 600 34 0.900000 0.836000 0.754000 600 39 1.000000 0.052000 0.052000 1.200000 0.068000 0.082000
1517275861268868521	900 36 1.000000 0.282000 0.297000 600 34 0.900000 0.836000 0.754000 600 39 1.000000 0.052000 0.052000 1.200000 0.067000 0.081000
1517275861828843896	900 36 1.000000 0.281000 0.296000 600 34 0.900000 0.836000 0.754000 600 39 1.000000 0.052000 0.052000 1.200000 0.066000 0.079000
1517275862392867021	900 36 1.000000 0.281000 0.296000 600 34 0.900000 0.836000 0.754000 600 39 1.000000 0.052000 0.052000 1.200000 0.066000 0.079000
1517275862948862229	900 36 1.000000 0.281000 0.295000 600 34 0.900000 0.837000 0.755000 600 39 1.000000 0.052000 0.052000 1.200000 0.065000 0.078000
1517275863508824271	900 36 1.000000 0.281000 0.296000 600 34 0.900000 0.836000 0.754000 600 39 1.000000 0.052000 0.052000 1.200000 0.066000 0.079000
1517275864060758729	900 36 1.000000 0.280000 0.295000 600 34 0.900000 0.836000 0.754000 600 39 1.000000 0.052000 0.052000 1.200000 0.066000 0.079000
1517275864616769354	900 37 1.000000 0.282000 0.297000 600 34 0.900000 0.837000 0.755000 600 39 1.000000 0.051000 0.051000 1.200000 0.066000 0.079000
1517275865176895146	900 36 1.000000 0.281000 0.296000 600 34 0.900000 0.837000 0.755000 600 39 1.000000 0.052000 0.052000 1.200000 0.066000 0.079000
1517275865724809521	900 36 1.000000 0.281000 0.296000 600 34 0.900000 0.836000 0.754000 600 39 1.000000 0.052000 0.052000 1.200000 0.067000 0.081000
1517275866280778855	900 36 1.000000 0.281000 0.296000 600 34 0.900000 0.837000 0.755000 600 39 1.000000 0.052000 0.052000 1.200000 0.067000 0.081000
1517275866836901730	900 36 1.000000 0.281000 0.296000 600 34 0.900000 0.837000 0.755000 600 39 1.000000 0.052000 0.052000 1.200000 0.065000 0.078000
1517275867400914271	900 36 1.000000 0.281000 0.296000 600 34 0.900000 0.837000 0.755000 600 39 1.000000 0.052000 0.052000 1.200000 0.066000 0.079000
1517275867960827397	900 36 1.000000 0.281000 0.296000 600 34 0.900000 0.837000 0.755000 600 39 1.000000 0.052000 0.052000 1.200000 0.066000 0.079000
1517275868508956022	900 36 1.000000 0.281000 0.296000 600 34 0.900000 0.836000 0.754000 600 39 1.000000 0.052000 0.052000 1.200000 0.065000 0.078000
1517275869060813563	900 36 1.000000 0.281000 0.296000 600 34 0.900000 0.837000 0.755000 600 39 1.000000 0.052000 0.052000 1.200000 0.066000 0.079000
1517275869620829480	900 37 1.000000 0.281000 0.296000 600 34 0.900000 0.837000 0.755000 600 39 1.000000 0.052000 0.052000 1.200000 0.066000 0.079000
1517275870188847813	900 36 1.000000 0.281000 0.296000 600 34 0.900000 0.837000 0.755000 600 39 1.000000 0.052000 0.052000 1.200000 0.066000 0.079000
1517275870744760605	900 36 1.000000 0.281000 0.296000 600 34 0.900000 0.837000 0.755000 600 39 1.000000 0.052000 0.052000 1.200000 0.067000 0.081000
1517275871312839939	900 36 1.000000 0.282000 0.297000 600 34 0.900000 0.837000 0.755000 600 39 1.000000 0.052000 0.052000 1.200000 0.067000 0.081000
1517275871876844314	900 37 1.000000 0.281000 0.296000 600 34 0.900000 0.837000 0.755000 600 39 1.000000 0.052000 0.052000 1.200000 0.066000 0.079000
1517275872444803772	900 36 1.000000 0.282000 0.297000 600 34 0.900000 0.836000 0.754000 600 39 1.000000 0.052000 0.052000 1.200000 0.067000 0.081000
1517275873004770272	900 36 1.000000 0.281000 0.296000 600 34 0.900000 0.836000 0.754000 600 39 1.000000 0.052000 0.052000 1.200000 0.068000 0.082000
1517275873556918439	900 36 1.000000 0.281000 0.296000 600 34 0.900000 0.836000 0.754000 600 39 1.000000 0.052000 0.052000 1.200000 0.067000 0.081000
1517275874120805022	900 36 1.000000 0.282000 0.297000 600 34 0.900000 0.836000 0.754000 600 39 1.000000 0.052000 0.052000 1.200000 0.067000 0.081000
1517275874688823647	900 36 1.000000 0.281000 0.296000 600 34 0.900000 0.836000 0.754000 600 39 1.000000 0.052000 0.052000 1.200000 0.067000 0.081000
1517275875248843272	900 36 1.000000 0.281000 0.296000 600 34 0.900000 0.837000 0.755000 600 39 1.000000 0.052000 0.052000 1.200000 0.067000 0.081000
1517275875808869522	900 36 1.000000 0.281000 0.296000 600 34 0.900000 0.837000 0.755000 600 39 1.000000 0.052000 0.052000 1.200000 0.066000 0.079000
1517275876372874481	900 36 1.000000 0.281000 0.296000 600 34 0.900000 0.836000 0.754000 600 39 1.000000 0.052000 0.052000 1.200000 0.067000 0.081000
1517275876940836273	900 36 1.000000 0.281000 0.296000 600 34 0.900000 0.837000 0.755000 600 39 1.000000 0.052000 0.052000 1.200000 0.067000 0.081000
1517275877500866231	900 36 1.000000 0.281000 0.296000 600 34 0.900000 0.837000 0.755000 600 39 1.000000 0.052000 0.052000 1.200000 0.068000 0.082000
1517275878064852439	900 37 1.000000 0.281000 0.296000 600 34 0.900000 0.837000 0.755000 600 39 1.000000 0.052000 0.052000 1.200000 0.067000 0.081000
1517275878616797314	900 36 1.000000 0.281000 0.296000 600 34 0.900000 0.836000 0.754000 600 39 1.000000 0.052000 0.052000 1.200000 0.066000 0.079000
1517275879164830023	900 36 1.000000 0.281000 0.296000 600 34 0.900000 0.835000 0.754000 600 39 1.000000 0.052000 0.052000 1.200000 0.066000 0.079000
1517275879720779731	900 36 1.000000 0.281000 0.296000 600 34 0.900000 0.834000 0.753000 600 39 1.000000 0.052000 0.052000 1.200000 0.066000 0.079000
1517275880276801690	900 36 1.000000 0.282000 0.297000 600 34 0.900000 0.837000 0.755000 600 39 1.000000 0.052000 0.052000 1.200000 0.066000 0.079000
1517275880828844231	900 36 1.000000 0.280000 0.295000 600 34 0.900000 0.836000 0.754000 600 39 1.000000 0.052000 0.052000 1.200000 0.067000 0.081000
1517275881384735398	900 36 1.000000 0.280000 0.295000 600 34 0.900000 0.836000 0.754000 600 39 1.000000 0.052000 0.052000 1.200000 0.067000 0.080000
1517275881944859440	900 36 1.000000 0.281000 0.296000 600 34 0.900000 0.837000 0.755000 600 39 1.000000 0.052000 0.052000 1.200000 0.067000 0.081000
1517275882508764440	900 36 1.000000 0.281000 0.296000 600 34 0.900000 0.836000 0.754000 600 39 1.000000 0.052000 0.052000 1.200000 0.067000 0.081000
1517275883068821607	900 36 1.000000 0.281000 0.296000 600 34 0.900000 0.836000 0.754000 600 39 1.000000 0.052000 0.052000 1.200000 0.067000 0.081000
1517275883644939398	900 36 1.000000 0.281000 0.296000 600 34 0.900000 0.836000 0.754000 600 39 1.000000 0.052000 0.052000 1.200000 0.067000 0.080000
1517275884192823648	900 36 1.000000 0.281000 0.296000 600 34 0.900000 0.835000 0.753000 600 39 1.000000 0.052000 0.052000 1.200000 0.066000 0.079000
1517275884760823607	900 36 1.000000 0.281000 0.296000 600 34 0.900000 0.835000 0.753000 600 39 1.000000 0.052000 0.052000 1.200000 0.067000 0.081000
1517275885316871774	900 36 1.000000 0.281000 0.296000 600 34 0.900000 0.836000 0.754000 600 39 1.000000 0.052000 0.052000 1.200000 0.066000 0.079000
1517275885876809690	900 36 1.000000 0.281000 0.296000 600 34 0.900000 0.836000 0.754000 600 39 1.000000 0.052000 0.052000 1.200000 0.066000 0.079000
1517275886448844565	900 36 1.000000 0.281000 0.296000 600 34 0.900000 0.836000 0.754000 600 39 1.000000 0.052000 0.052000 1.200000 0.067000 0.081000
1517275887012809149	900 36 1.000000 0.281000 0.295000 600 34 0.900000 0.836000 0.754000 600 39 1.000000 0.052000 0.052000 1.200000 0.067000 0.081000
1517275887576844274	900 36 1.000000 0.281000 0.296000 600 34 0.900000 0.836000 0.754000 600 39 1.000000 0.052000 0.052000 1.200000 0.067000 0.081000
1517275888136881191	900 36 1.000000 0.281000 0.296000 600 34 0.900000 0.837000 0.755000 600 39 1.000000 0.052000 0.052000 1.200000 0.067000 0.081000
1517275888692815899	900 36 1.000000 0.281000 0.296000 600 34 0.900000 0.836000 0.754000 600 39 1.000000 0.052000 0.052000 1.200000 0.067000 0.081000
1517275889203802566	900 36 1.000000 0.281000 0.296000 600 34 0.900000 0.658000 0.593000 600 39 1.000000 0.052000 0.052000 1.200000 0.063000 0.076000
1517275889715318857	900 36 1.000000 0.281000 0.296000 600 34 0.900000 0.661000 0.596000 600 39 1.000000 0.052000 0.052000 1.200000 0.063000 0.076000
1517275890284917358	900 36 1.000000 0.281000 0.296000 600 34 0.900000 0.754000 0.682000 600 39 1.000000 0.052000 0.052000 1.200000 0.063000 0.076000
1517275890844856733	900 36 1.000000 0.281000 0.296000 600 34 0.900000 0.837000 0.755000 600 39 1.000000 0.052000 0.052000 1.200000 0.065000 0.078000
1517275891404891399	900 36 1.000000 0.281000 0.296000 600 34 0.900000 0.837000 0.755000 600 39 1.000000 0.052000 0.052000 1.200000 0.066000 0.079000
1517275891964842233	900 36 1.000000 0.281000 0.296000 600 34 0.900000 0.837000 0.755000 600 39 1.000000 0.052000 0.052000 1.200000 0.066000 0.079000
1517275892532853941	900 36 1.000000 0.281000 0.296000 600 34 0.900000 0.837000 0.754000 600 39 1.000000 0.052000 0.052000 1.200000 0.067000 0.080000
1517275893084849691	900 36 1.000000 0.281000 0.296000 600 34 0.900000 0.836000 0.754000 600 39 1.000000 0.052000 0.052000 1.200000 0.066000 0.079000
1517275893644888358	900 36 1.000000 0.281000 0.296000 600 34 0.900000 0.837000 0.755000 600 39 1.000000 0.052000 0.052000 1.200000 0.067000 0.081000
1517275894208813275	900 36 1.000000 0.281000 0.296000 600 34 0.900000 0.837000 0.755000 600 39 1.000000 0.052000 0.052000 1.200000 0.067000 0.081000
1517275894769170025	900 36 1.000000 0.281000 0.296000 600 34 0.900000 0.836000 0.754000 600 39 1.000000 0.052000 0.052000 1.200000 0.066000 0.079000
1517275895328773816	900 36 1.000000 0.281000 0.296000 600 34 0.900000 0.837000 0.755000 600 39 1.000000 0.052000 0.052000 1.200000 0.066000 0.079000
1517275895892821942	900 36 1.000000 0.281000 0.296000 600 34 0.900000 0.836000 0.754000 600 39 1.000000 0.052000 0.052000 1.200000 0.066000 0.079000
1517275896440740525	900 36 1.000000 0.281000 0.296000 600 34 0.900000 0.837000 0.755000 600 39 1.000000 0.052000 0.052000 1.200000 0.066000 0.079000
1517275897004880567	900 36 1.000000 0.281000 0.296000 600 34 0.900000 0.836000 0.754000 600 39 1.000000 0.052000 0.052000 1.200000 0.066000 0.079000
1517275897564760817	900 36 1.000000 0.280000 0.295000 600 34 0.900000 0.837000 0.755000 600 39 1.000000 0.052000 0.052000 1.200000 0.066000 0.079000
1517275898120814317	900 36 1.000000 0.281000 0.296000 600 34 0.900000 0.835000 0.753000 600 39 1.000000 0.052000 0.052000 1.200000 0.066000 0.079000
1517275898668737067	900 36 1.000000 0.281000 0.296000 600 34 0.900000 0.836000 0.754000 600 39 1.000000 0.052000 0.052000 1.200000 0.067000 0.081000
1517275899232810525	900 36 1.000000 0.281000 0.296000 600 34 0.900000 0.835000 0.754000 600 39 1.000000 0.052000 0.052000 1.200000 0.067000 0.081000
1517275899744468692	900 34 1.000000 0.281000 0.296000 600 33 0.900000 0.836000 0.754000 600 37 1.000000 0.052000 0.052000 1.200000 0.062000 0.075000
1517275900255274275	900 33 1.000000 0.104000 0.110000 600 32 0.900000 0.084000 0.076000 600 36 1.000000 0.052000 0.052000 1.200000 0.027000 0.032000
1517275900765926317	900 33 1.000000 0.124000 0.131000 600 32 0.900000 0.080000 0.072000 600 36 1.000000 0.052000 0.052000 1.200000 0.026000 0.031000
1517275901276390025	900 32 1.000000 0.124000 0.131000 600 31 0.900000 0.083000 0.075000 600 35 1.000000 0.052000 0.052000 1.200000 0.026000 0.031000
1517275901787239484	900 32 1.000000 0.123000 0.130000 600 31 0.900000 0.076000 0.069000 600 35 1.000000 0.052000 0.052000 1.200000 0.027000 0.032000
1517275902298222609	900 32 1.000000 0.124000 0.131000 600 31 0.900000 0.103000 0.093000 600 35 1.000000 0.052000 0.052000 1.200000 0.030000 0.036000
1517275902808897942	900 32 1.000000 0.124000 0.131000 600 31 0.900000 0.077000 0.070000 600 35 1.000000 0.052000 0.052000 1.200000 0.025000 0.030000
1517275903319668817	900 31 1.000000 0.123000 0.130000 600 31 0.900000 0.084000 0.076000 600 34 1.000000 0.052000 0.052000 1.200000 0.025000 0.030000
1517275903830477734	900 31 1.000000 0.124000 0.131000 600 30 0.900000 0.079000 0.071000 600 34 1.000000 0.051000 0.051000 1.200000 0.026000 0.031000
1517275904340907109	900 31 1.000000 0.123000 0.130000 600 30 0.900000 0.071000 0.064000 600 34 1.000000 0.051000 0.051000 1.200000 0.026000 0.031000
1517275904851595234	900 31 1.000000 0.123000 0.130000 600 30 0.900000 0.074000 0.067000 600 34 1.000000 0.051000 0.051000 1.200000 0.025000 0.030000
1517275905362152526	900 31 1.000000 0.122000 0.129000 600 30 0.900000 0.082000 0.074000 600 34 1.000000 0.051000 0.051000 1.200000 0.025000 0.030000
1517275905872480609	900 31 1.000000 0.124000 0.131000 600 30 0.900000 0.080000 0.072000 600 34 1.000000 0.051000 0.051000 1.200000 0.026000 0.031000
1517275906383099693	900 31 1.000000 0.123000 0.130000 600 30 0.900000 0.071000 0.064000 600 34 1.000000 0.051000 0.051000 1.200000 0.026000 0.031000
1517275906893500484	900 31 1.000000 0.123000 0.130000 600 30 0.900000 0.065000 0.059000 600 34 1.000000 0.051000 0.051000 1.200000 0.026000 0.031000
1517275907404092610	900 31 1.000000 0.124000 0.131000 600 30 0.900000 0.065000 0.059000 600 33 1.000000 0.051000 0.051000 1.200000 0.026000 0.031000
1517275907914609610	900 31 1.000000 0.123000 0.130000 600 30 0.900000 0.080000 0.072000 600 33 1.000000 0.051000 0.051000 1.200000 0.026000 0.031000
1517275908425042901	900 30 1.000000 0.123000 0.130000 600 30 0.900000 0.072000 0.065000 600 33 1.000000 0.051000 0.051000 1.200000 0.026000 0.031000
1517275908935771693	900 30 1.000000 0.123000 0.130000 600 30 0.900000 0.074000 0.067000 600 33 1.000000 0.051000 0.051000 1.200000 0.026000 0.031000
1517275909446623443	900 30 1.000000 0.123000 0.130000 600 30 0.900000 0.078000 0.071000 600 33 1.000000 0.051000 0.051000 1.200000 0.026000 0.031000
1517275909957351443	900 30 1.000000 0.123000 0.130000 600 30 0.900000 0.085000 0.077000 600 33 1.000000 0.051000 0.051000 1.200000 0.026000 0.031000
1517275910468133777	900 30 1.000000 0.123000 0.130000 600 30 0.900000 0.075000 0.068000 600 33 1.000000 0.051000 0.051000 1.200000 0.026000 0.031000
1517275910978824152	900 30 1.000000 0.124000 0.131000 600 29 0.900000 0.078000 0.071000 600 33 1.000000 0.051000 0.051000 1.200000 0.025000 0.030000
1517275911489608235	900 30 1.000000 0.123000 0.130000 600 29 0.900000 0.077000 0.070000 600 33 1.000000 0.051000 0.051000 1.200000 0.026000 0.031000
1517275912000208402	900 30 1.000000 0.124000 0.131000 600 29 0.900000 0.082000 0.074000 600 33 1.000000 0.051000 0.051000 1.200000 0.026000 0.031000
1517275912511173193	900 31 1.000000 0.124000 0.131000 600 29 0.900000 0.074000 0.067000 600 33 1.000000 0.051000 0.051000 1.200000 0.026000 0.031000
1517275913022726110	900 30 1.000000 0.055000 0.058000 600 29 0.900000 0.347000 0.315000 600 34 1.000000 0.051000 0.051000 1.200000 0.034000 0.041000
1517275913534039277	900 30 1.000000 0.039000 0.041000 600 29 0.900000 0.328000 0.298000 600 34 1.000000 0.051000 0.051000 1.200000 0.030000 0.036000
1517275914045087319	900 30 1.000000 0.039000 0.041000 600 29 0.900000 0.318000 0.289000 600 34 1.000000 0.051000 0.051000 1.200000 0.025000 0.030000
1517275914556120902	900 30 1.000000 0.038000 0.040000 600 29 0.900000 0.318000 0.289000 600 34 1.000000 0.051000 0.051000 1.200000 0.025000 0.030000
1517275915067031277	900 30 1.000000 0.038000 0.040000 600 29 0.900000 0.320000 0.291000 600 34 1.000000 0.051000 0.051000 1.200000 0.025000 0.030000
1517275915578431319	900 31 1.000000 0.039000 0.041000 600 29 0.900000 0.325000 0.296000 600 34 1.000000 0.052000 0.052000 1.200000 0.024000 0.028000
1517275916089783736	900 30 1.000000 0.039000 0.041000 600 29 0.900000 0.332000 0.302000 600 34 1.000000 0.051000 0.051000 1.200000 0.025000 0.030000
1517275916600753236	900 30 1.000000 0.038000 0.040000 600 29 0.900000 0.331000 0.301000 600 34 1.000000 0.051000 0.051000 1.200000 0.024000 0.028000
1517275917111818861	900 30 1.000000 0.038000 0.040000 600 29 0.900000 0.331000 0.301000 600 34 1.000000 0.051000 0.051000 1.200000 0.024000 0.028000
1517275917622875069	900 30 1.000000 0.039000 0.041000 600 29 0.900000 0.328000 0.298000 600 34 1.000000 0.051000 0.051000 1.200000 0.025000 0.030000
1517275918133995736	900 30 1.000000 0.039000 0.041000 600 29 0.900000 0.327000 0.297000 600 34 1.000000 0.051000 0.051000 1.200000 0.025000 0.030000
1517275918645030236	900 30 1.000000 0.039000 0.041000 600 29 0.900000 0.330000 0.300000 600 34 1.000000 0.051000 0.051000 1.200000 0.025000 0.030000
1517275919155936569	900 30 1.000000 0.038000 0.040000 600 29 0.900000 0.331000 0.301000 600 34 1.000000 0.051000 0.051000 1.200000 0.024000 0.028000
1517275919666994236	900 30 1.000000 0.039000 0.041000 600 29 0.900000 0.328000 0.298000 600 34 1.000000 0.051000 0.051000 1.200000 0.024000 0.028000
1517275920178034278	900 30 1.000000 0.039000 0.041000 600 29 0.900000 0.320000 0.291000 600 34 1.000000 0.051000 0.051000 1.200000 0.025000 0.030000
1517275920689035611	900 31 1.000000 0.039000 0.041000 600 29 0.900000 0.344000 0.313000 600 34 1.000000 0.051000 0.051000 1.200000 0.027000 0.032000
1517275921200087861	900 30 1.000000 0.039000 0.041000 600 29 0.900000 0.319000 0.290000 600 34 1.000000 0.051000 0.051000 1.200000 0.024000 0.028000
1517275921711113820	900 30 1.000000 0.043000 0.045000 600 29 0.900000 0.351000 0.319000 600 34 1.000000 0.051000 0.051000 1.200000 0.027000 0.032000
1517275922222086778	900 30 1.000000 0.039000 0.041000 600 29 0.900000 0.318000 0.289000 600 34 1.000000 0.051000 0.051000 1.200000 0.025000 0.030000
1517275922733130486	900 30 1.000000 0.042000 0.044000 600 29 0.900000 0.351000 0.319000 600 34 1.000000 0.051000 0.051000 1.200000 0.027000 0.032000
1517275923244188945	900 30 1.000000 0.038000 0.040000 600 29 0.900000 0.320000 0.291000 600 34 1.000000 0.051000 0.051000 1.200000 0.024000 0.028000
1517275923755659278	900 30 1.000000 0.038000 0.040000 600 29 0.900000 0.334000 0.304000 600 34 1.000000 0.051000 0.051000 1.200000 0.025000 0.030000
1517275924266914612	900 30 1.000000 0.040000 0.042000 600 29 0.900000 0.349000 0.317000 600 34 1.000000 0.051000 0.051000 1.200000 0.033000 0.039000
1517275924777853195	900 30 1.000000 0.039000 0.041000 600 29 0.900000 0.326000 0.296000 600 34 1.000000 0.051000 0.051000 1.200000 0.028000 0.033000
1517275925287987237	900 30 1.000000 0.038000 0.040000 600 29 0.900000 0.328000 0.298000 600 33 1.000000 0.051000 0.051000 1.200000 0.025000 0.030000
1517275925798102487	900 30 1.000000 0.038000 0.040000 600 29 0.900000 0.330000 0.300000 600 33 1.000000 0.051000 0.051000 1.200000 0.025000 0.030000
1517275926308096528	900 30 1.000000 0.039000 0.041000 600 29 0.900000 0.334000 0.303000 600 34 1.000000 0.051000 0.051000 1.200000 0.024000 0.028000
1517275926818264737	900 30 1.000000 0.038000 0.040000 600 29 0.900000 0.319000 0.290000 600 33 1.000000 0.051000 0.051000 1.200000 0.024000 0.028000
1517275927328240654	900 30 1.000000 0.038000 0.040000 600 29 0.900000 0.320000 0.291000 600 33 1.000000 0.051000 0.051000 1.200000 0.025000 0.030000
1517275927838288987	900 30 1.000000 0.038000 0.040000 600 29 0.900000 0.320000 0.291000 600 33 1.000000 0.051000 0.051000 1.200000 0.025000 0.030000
1517275928348352445	900 30 1.000000 0.038000 0.040000 600 29 0.900000 0.323000 0.293000 600 33 1.000000 0.051000 0.051000 1.200000 0.025000 0.030000
1517275928858485112	900 30 1.000000 0.038000 0.040000 600 29 0.900000 0.319000 0.290000 600 33 1.000000 0.051000 0.051000 1.200000 0.025000 0.030000
1517275929368428696	900 30 1.000000 0.039000 0.041000 600 29 0.900000 0.317000 0.288000 600 33 1.000000 0.051000 0.051000 1.200000 0.024000 0.028000
1517275929878637821	900 30 1.000000 0.038000 0.040000 600 29 0.900000 0.320000 0.291000 600 33 1.000000 0.051000 0.051000 1.200000 0.025000 0.030000
1517275930388732154	900 30 1.000000 0.038000 0.040000 600 29 0.900000 0.321000 0.292000 600 33 1.000000 0.051000 0.051000 1.200000 0.025000 0.030000
1517275930898798904	900 30 1.000000 0.038000 0.040000 600 29 0.900000 0.319000 0.290000 600 33 1.000000 0.051000 0.051000 1.200000 0.025000 0.030000
1517275931408897821	900 30 1.000000 0.038000 0.040000 600 29 0.900000 0.330000 0.300000 600 33 1.000000 0.051000 0.051000 1.200000 0.025000 0.030000
1517275931919151571	900 30 1.000000 0.039000 0.041000 600 29 0.900000 0.331000 0.301000 600 33 1.000000 0.051000 0.051000 1.200000 0.028000 0.033000
1517275932429426904	900 30 1.000000 0.039000 0.041000 600 29 0.900000 0.326000 0.296000 600 33 1.000000 0.051000 0.051000 1.200000 0.025000 0.030000
1517275932939624613	900 30 1.000000 0.039000 0.041000 600 29 0.900000 0.325000 0.295000 600 33 1.000000 0.051000 0.051000 1.200000 0.028000 0.033000
1517275933450104904	900 30 1.000000 0.039000 0.041000 600 29 0.900000 0.320000 0.291000 600 33 1.000000 0.051000 0.051000 1.200000 0.025000 0.030000
1517275933960225904	900 30 1.000000 0.040000 0.042000 600 29 0.900000 0.324000 0.294000 600 33 1.000000 0.051000 0.051000 1.200000 0.029000 0.035000
1517275934470757654	900 30 1.000000 0.038000 0.040000 600 29 0.900000 0.319000 0.290000 600 33 1.000000 0.051000 0.051000 1.200000 0.025000 0.030000
1517275934981267946	900 30 1.000000 0.042000 0.044000 600 29 0.900000 0.354000 0.322000 600 33 1.000000 0.051000 0.051000 1.200000 0.032000 0.038000
1517275935491652030	900 30 1.000000 0.048000 0.051000 600 29 0.900000 0.364000 0.331000 600 33 1.000000 0.051000 0.051000 1.200000 0.035000 0.042000
1517275936001729696	900 30 1.000000 0.038000 0.040000 600 29 0.900000 0.322000 0.293000 600 33 1.000000 0.051000 0.051000 1.200000 0.024000 0.028000
1517275936511976696	900 30 1.000000 0.038000 0.040000 600 29 0.900000 0.325000 0.295000 600 33 1.000000 0.051000 0.051000 1.200000 0.024000 0.029000
1517275937022176946	900 30 1.000000 0.038000 0.040000 600 29 0.900000 0.324000 0.294000 600 33 1.000000 0.051000 0.051000 1.200000 0.025000 0.030000
1517275937532204571	900 30 1.000000 0.038000 0.040000 600 29 0.900000 0.333000 0.303000 600 33 1.000000 0.051000 0.051000 1.200000 0.024000 0.028000
1517275938042208697	900 30 1.000000 0.039000 0.041000 600 29 0.900000 0.331000 0.301000 600 33 1.000000 0.051000 0.051000 1.200000 0.024000 0.028000
1517275938552223447	900 30 1.000000 0.039000 0.041000 600 29 0.900000 0.321000 0.292000 600 33 1.000000 0.051000 0.051000 1.200000 0.025000 0.030000
1517275939062060488	900 30 1.000000 0.039000 0.041000 600 29 0.900000 0.325000 0.295000 600 33 1.000000 0.051000 0.051000 1.200000 0.024000 0.028000
1517275939572032697	900 30 1.000000 0.039000 0.041000 600 29 0.900000 0.331000 0.301000 600 33 1.000000 0.051000 0.051000 1.200000 0.025000 0.030000
1517275940081838947	900 30 1.000000 0.038000 0.040000 600 29 0.900000 0.328000 0.298000 600 33 1.000000 0.051000 0.051000 1.200000 0.025000 0.030000
1517275940591705447	900 30 1.000000 0.038000 0.040000 600 29 0.900000 0.324000 0.294000 600 33 1.000000 0.051000 0.051000 1.200000 0.025000 0.030000
1517275941101729405	900 30 1.000000 0.038000 0.040000 600 29 0.900000 0.330000 0.300000 600 33 1.000000 0.051000 0.051000 1.200000 0.024000 0.028000
1517275941611548405	900 30 1.000000 0.038000 0.040000 600 29 0.900000 0.330000 0.300000 600 33 1.000000 0.051000 0.051000 1.200000 0.025000 0.030000
1517275942121407697	900 30 1.000000 0.039000 0.041000 600 29 0.900000 0.323000 0.293000 600 33 1.000000 0.051000 0.051000 1.200000 0.025000 0.030000
1517275942631531864	900 30 1.000000 0.038000 0.040000 600 29 0.900000 0.348000 0.316000 600 33 1.000000 0.051000 0.051000 1.200000 0.027000 0.032000
1517275943141322239	900 30 1.000000 0.038000 0.040000 600 29 0.900000 0.333000 0.303000 600 33 1.000000 0.051000 0.051000 1.200000 0.024000 0.028000
1517275943651459281	900 30 1.000000 0.040000 0.042000 600 29 0.900000 0.351000 0.319000 600 33 1.000000 0.051000 0.051000 1.200000 0.027000 0.032000
1517275944161406697	900 30 1.000000 0.038000 0.040000 600 29 0.900000 0.325000 0.295000 600 33 1.000000 0.051000 0.051000 1.200000 0.024000 0.028000
1517275944671435822	900 30 1.000000 0.039000 0.041000 600 29 0.900000 0.344000 0.313000 600 33 1.000000 0.051000 0.051000 1.200000 0.029000 0.035000
1517275945181358364	900 30 1.000000 0.039000 0.041000 600 29 0.900000 0.330000 0.300000 600 33 1.000000 0.051000 0.051000 1.200000 0.024000 0.028000
1517275945691807572	900 30 1.000000 0.041000 0.043000 600 29 0.900000 0.386000 0.351000 600 33 1.000000 0.051000 0.051000 1.200000 0.033000 0.039000
1517275946201892489	900 30 1.000000 0.040000 0.042000 600 29 0.900000 0.331000 0.301000 600 33 1.000000 0.051000 0.051000 1.200000 0.032000 0.038000
1517275946712058573	900 30 1.000000 0.039000 0.041000 600 29 0.900000 0.317000 0.288000 600 33 1.000000 0.051000 0.051000 1.200000 0.025000 0.030000
1517275947221972781	900 30 1.000000 0.038000 0.040000 600 29 0.900000 0.327000 0.297000 600 33 1.000000 0.051000 0.051000 1.200000 0.026000 0.031000
1517275947731796906	900 30 1.000000 0.038000 0.040000 600 29 0.900000 0.323000 0.293000 600 33 1.000000 0.051000 0.051000 1.200000 0.025000 0.030000
1517275948241755281	900 30 1.000000 0.039000 0.041000 600 29 0.900000 0.328000 0.298000 600 33 1.000000 0.051000 0.051000 1.200000 0.025000 0.030000
1517275948751699198	900 30 1.000000 0.038000 0.040000 600 29 0.900000 0.331000 0.301000 600 33 1.000000 0.051000 0.051000 1.200000 0.025000 0.030000
1517275949261613740	900 30 1.000000 0.039000 0.041000 600 29 0.900000 0.324000 0.294000 600 33 1.000000 0.051000 0.051000 1.200000 0.024000 0.028000
1517275949771560781	900 30 1.000000 0.038000 0.040000 600 29 0.900000 0.323000 0.293000 600 33 1.000000 0.051000 0.051000 1.200000 0.024000 0.028000
1517275950281316990	900 30 1.000000 0.038000 0.040000 600 29 0.900000 0.332000 0.302000 600 33 1.000000 0.051000 0.051000 1.200000 0.025000 0.030000
1517275950791357406	900 30 1.000000 0.039000 0.041000 600 29 0.900000 0.331000 0.301000 600 33 1.000000 0.051000 0.051000 1.200000 0.024000 0.028000
1517275951301186573	900 30 1.000000 0.038000 0.040000 600 29 0.900000 0.324000 0.294000 600 33 1.000000 0.051000 0.051000 1.200000 0.024000 0.028000
1517275951811223698	900 30 1.000000 0.038000 0.040000 600 29 0.900000 0.327000 0.297000 600 33 1.000000 0.051000 0.051000 1.200000 0.024000 0.028000
1517275952320952490	900 30 1.000000 0.039000 0.041000 600 29 0.900000 0.320000 0.291000 600 33 1.000000 0.051000 0.051000 1.200000 0.024000 0.028000
1517275952830914573	900 30 1.000000 0.038000 0.040000 600 29 0.900000 0.323000 0.293000 600 33 1.000000 0.051000 0.051000 1.200000 0.024000 0.028000
1517275953342795365	900 30 1.000000 0.040000 0.042000 600 29 0.900000 0.313000 0.285000 600 33 1.000000 0.051000 0.051000 1.200000 0.050000 0.060000
1517275953854238282	900 30 1.000000 0.040000 0.042000 600 29 0.900000 0.078000 0.071000 600 33 1.000000 0.051000 0.051000 1.200000 0.029000 0.035000
