#Timestamp	CPU(0) Frequency(MHz)	CPU(0) Temperature(C)	A7 Voltage(V)	A7 Current(A)	A7 Power(W)	CPU(4) Frequency(MHz)	CPU(4) Temperature(C)	A15 Voltage(V)	A15 Current(A)	A15 Power(W)	GPU Frequency(MHz)	GPU Temperature(C)	GPU Voltage(V)	GPU Current(A)	GPU Power(W)	RAM Voltage(V)	RAM Current(A)	RAM Power(W)
1517300345047557773	600 30 0.900000 0.029000 0.028000 1000 29 0.900000 0.559000 0.545000 600 34 1.000000 0.051000 0.051000 1.200000 0.038000 0.045000
1517300345555090439	600 31 0.900000 0.024000 0.022000 1000 29 0.900000 0.569000 0.549000 600 34 1.000000 0.051000 0.051000 1.200000 0.030000 0.036000
1517300346062622231	600 31 0.900000 0.024000 0.022000 1000 29 0.900000 0.569000 0.549000 600 34 1.000000 0.051000 0.051000 1.200000 0.029000 0.035000
1517300346570195523	600 31 0.900000 0.024000 0.022000 1000 29 0.900000 0.564000 0.544000 600 34 1.000000 0.051000 0.051000 1.200000 0.029000 0.035000
1517300347077724065	600 31 0.900000 0.024000 0.022000 1000 29 0.900000 0.575000 0.555000 600 34 1.000000 0.051000 0.051000 1.200000 0.030000 0.036000
1517300347585263565	600 31 0.900000 0.024000 0.022000 1000 29 0.900000 0.561000 0.541000 600 34 1.000000 0.051000 0.051000 1.200000 0.028000 0.033000
1517300348092812106	600 31 0.900000 0.024000 0.022000 1000 29 0.900000 0.574000 0.554000 600 34 1.000000 0.051000 0.051000 1.200000 0.028000 0.033000
1517300348600401523	600 31 0.900000 0.024000 0.022000 1000 29 0.900000 0.562000 0.542000 600 34 1.000000 0.051000 0.051000 1.200000 0.028000 0.033000
1517300349108018648	600 31 0.900000 0.024000 0.022000 1000 29 0.900000 0.567000 0.547000 600 35 1.000000 0.051000 0.051000 1.200000 0.029000 0.035000
1517300349615552690	600 31 0.900000 0.024000 0.022000 1000 29 0.900000 0.571000 0.551000 600 35 1.000000 0.051000 0.051000 1.200000 0.028000 0.033000
1517300350123118565	600 31 0.900000 0.024000 0.022000 1000 29 0.900000 0.562000 0.542000 600 35 1.000000 0.051000 0.051000 1.200000 0.028000 0.033000
1517300350630792523	600 31 0.900000 0.024000 0.022000 1000 29 0.900000 0.574000 0.554000 600 34 1.000000 0.051000 0.051000 1.200000 0.028000 0.033000
1517300351138349482	600 31 0.900000 0.024000 0.022000 1000 29 0.900000 0.557000 0.538000 600 35 1.000000 0.051000 0.051000 1.200000 0.028000 0.033000
1517300351646017940	600 31 0.900000 0.024000 0.022000 1000 29 0.900000 0.572000 0.552000 600 34 1.000000 0.051000 0.051000 1.200000 0.029000 0.035000
1517300352153641190	600 31 0.900000 0.024000 0.022000 1000 30 0.900000 0.566000 0.546000 600 34 1.000000 0.051000 0.051000 1.200000 0.029000 0.035000
1517300352661197815	600 31 0.900000 0.024000 0.022000 1000 29 0.900000 0.567000 0.547000 600 34 1.000000 0.051000 0.051000 1.200000 0.029000 0.035000
1517300353168724815	600 31 0.900000 0.024000 0.022000 1000 30 0.900000 0.569000 0.549000 600 35 1.000000 0.051000 0.051000 1.200000 0.028000 0.033000
1517300353676278065	600 31 0.900000 0.024000 0.022000 1000 29 0.900000 0.558000 0.539000 600 34 1.000000 0.051000 0.051000 1.200000 0.028000 0.033000
1517300354183796774	600 31 0.900000 0.024000 0.022000 1000 29 0.900000 0.577000 0.557000 600 35 1.000000 0.051000 0.051000 1.200000 0.028000 0.033000
1517300354691295024	600 31 0.900000 0.024000 0.022000 1000 30 0.900000 0.561000 0.541000 600 35 1.000000 0.051000 0.051000 1.200000 0.028000 0.033000
1517300355198903316	600 31 0.900000 0.024000 0.022000 1000 29 0.900000 0.571000 0.551000 600 34 1.000000 0.051000 0.051000 1.200000 0.029000 0.035000
1517300355706339232	600 31 0.900000 0.024000 0.022000 1000 29 0.900000 0.565000 0.545000 600 35 1.000000 0.051000 0.051000 1.200000 0.028000 0.033000
1517300356213861524	600 31 0.900000 0.024000 0.022000 1000 29 0.900000 0.565000 0.545000 600 35 1.000000 0.051000 0.051000 1.200000 0.029000 0.035000
1517300356721265774	600 31 0.900000 0.024000 0.022000 1000 30 0.900000 0.572000 0.552000 600 35 1.000000 0.051000 0.051000 1.200000 0.029000 0.035000
1517300357228910191	600 31 0.900000 0.024000 0.022000 1000 30 0.900000 0.560000 0.540000 600 35 1.000000 0.051000 0.051000 1.200000 0.028000 0.033000
1517300357736484649	600 31 0.900000 0.024000 0.022000 1000 30 0.900000 0.557000 0.538000 600 35 1.000000 0.051000 0.051000 1.200000 0.029000 0.035000
1517300358244098816	600 31 0.900000 0.024000 0.022000 1000 30 0.900000 0.559000 0.539000 600 35 1.000000 0.052000 0.052000 1.200000 0.029000 0.035000
1517300358751664441	600 31 0.900000 0.024000 0.022000 1000 30 0.900000 0.571000 0.551000 600 35 1.000000 0.051000 0.051000 1.200000 0.029000 0.035000
1517300359259083608	600 31 0.900000 0.024000 0.022000 1000 29 0.900000 0.566000 0.546000 600 35 1.000000 0.052000 0.052000 1.200000 0.030000 0.036000
1517300359766642900	600 31 0.900000 0.024000 0.022000 1000 30 0.900000 0.566000 0.546000 600 35 1.000000 0.052000 0.052000 1.200000 0.029000 0.035000
1517300360274200691	600 31 0.900000 0.024000 0.022000 1000 30 0.900000 0.572000 0.552000 600 35 1.000000 0.051000 0.051000 1.200000 0.029000 0.035000
1517300360781856566	600 31 0.900000 0.024000 0.022000 1000 30 0.900000 0.559000 0.539000 600 35 1.000000 0.051000 0.051000 1.200000 0.029000 0.035000
1517300361289368483	600 31 0.900000 0.024000 0.022000 1000 30 0.900000 0.577000 0.557000 600 35 1.000000 0.051000 0.051000 1.200000 0.028000 0.033000
1517300361796998900	600 31 0.900000 0.024000 0.022000 1000 30 0.900000 0.563000 0.543000 600 35 1.000000 0.052000 0.052000 1.200000 0.030000 0.036000
1517300362304520691	600 31 0.900000 0.024000 0.022000 1000 30 0.900000 0.572000 0.552000 600 35 1.000000 0.051000 0.051000 1.200000 0.028000 0.033000
1517300362812133900	600 31 0.900000 0.025000 0.023000 1000 29 0.900000 0.561000 0.541000 600 35 1.000000 0.052000 0.052000 1.200000 0.029000 0.035000
1517300363319636025	600 31 0.900000 0.024000 0.022000 1000 30 0.900000 0.557000 0.538000 600 35 1.000000 0.051000 0.051000 1.200000 0.029000 0.035000
1517300363827135400	600 31 0.900000 0.024000 0.022000 1000 30 0.900000 0.560000 0.540000 600 35 1.000000 0.051000 0.051000 1.200000 0.029000 0.035000
1517300364334626192	600 31 0.900000 0.024000 0.022000 1000 30 0.900000 0.559000 0.539000 600 35 1.000000 0.051000 0.051000 1.200000 0.029000 0.035000
1517300364842403900	600 31 0.900000 0.024000 0.022000 1000 30 0.900000 0.577000 0.557000 600 35 1.000000 0.051000 0.051000 1.200000 0.030000 0.036000
1517300365349936859	600 31 0.900000 0.024000 0.022000 1000 30 0.900000 0.563000 0.543000 600 35 1.000000 0.051000 0.051000 1.200000 0.030000 0.036000
1517300365857396692	600 31 0.900000 0.024000 0.022000 1000 30 0.900000 0.568000 0.548000 600 35 1.000000 0.051000 0.051000 1.200000 0.029000 0.035000
1517300366365009525	600 31 0.900000 0.024000 0.022000 1000 30 0.900000 0.571000 0.551000 600 35 1.000000 0.051000 0.051000 1.200000 0.029000 0.035000
1517300366872503234	600 31 0.900000 0.024000 0.022000 1000 30 0.900000 0.567000 0.547000 600 35 1.000000 0.051000 0.051000 1.200000 0.029000 0.035000
1517300367380027650	600 31 0.900000 0.024000 0.022000 1000 30 0.900000 0.578000 0.558000 600 35 1.000000 0.051000 0.051000 1.200000 0.029000 0.035000
1517300367887571192	600 31 0.900000 0.024000 0.022000 1000 30 0.900000 0.561000 0.541000 600 35 1.000000 0.052000 0.052000 1.200000 0.029000 0.035000
1517300368395138192	600 31 0.900000 0.024000 0.022000 1000 30 0.900000 0.558000 0.539000 600 35 1.000000 0.051000 0.051000 1.200000 0.029000 0.035000
1517300368902787401	600 31 0.900000 0.024000 0.022000 1000 30 0.900000 0.560000 0.540000 600 35 1.000000 0.051000 0.051000 1.200000 0.029000 0.035000
1517300369410363151	600 31 0.900000 0.024000 0.022000 1000 30 0.900000 0.561000 0.541000 600 35 1.000000 0.051000 0.051000 1.200000 0.030000 0.036000
1517300369917929859	600 31 0.900000 0.024000 0.022000 1000 30 0.900000 0.561000 0.541000 600 35 1.000000 0.051000 0.051000 1.200000 0.029000 0.035000
1517300370425488067	600 31 0.900000 0.024000 0.022000 1000 30 0.900000 0.558000 0.539000 600 35 1.000000 0.052000 0.052000 1.200000 0.029000 0.035000
1517300370933157484	600 31 0.900000 0.024000 0.022000 1000 30 0.900000 0.558000 0.539000 600 35 1.000000 0.051000 0.051000 1.200000 0.029000 0.035000
1517300371441044109	600 31 0.900000 0.024000 0.022000 1000 30 0.900000 0.561000 0.541000 600 35 1.000000 0.051000 0.051000 1.200000 0.030000 0.036000
1517300371948645151	600 31 0.900000 0.024000 0.022000 1000 30 0.900000 0.577000 0.557000 600 35 1.000000 0.051000 0.051000 1.200000 0.029000 0.035000
1517300372456049193	600 31 0.900000 0.024000 0.022000 1000 30 0.900000 0.569000 0.549000 600 35 1.000000 0.051000 0.051000 1.200000 0.027000 0.032000
1517300372963611609	600 31 0.900000 0.025000 0.023000 1000 29 0.900000 0.575000 0.555000 600 35 1.000000 0.051000 0.051000 1.200000 0.030000 0.036000
1517300373471155318	600 31 0.900000 0.024000 0.022000 1000 30 0.900000 0.572000 0.552000 600 35 1.000000 0.051000 0.051000 1.200000 0.028000 0.033000
1517300373978708110	600 31 0.900000 0.024000 0.022000 1000 30 0.900000 0.564000 0.544000 600 35 1.000000 0.052000 0.052000 1.200000 0.031000 0.037000
1517300374486251818	600 31 0.900000 0.024000 0.022000 1000 30 0.900000 0.562000 0.542000 600 35 1.000000 0.051000 0.051000 1.200000 0.028000 0.033000
1517300374993777776	600 31 0.900000 0.024000 0.022000 1000 30 0.900000 0.561000 0.541000 600 35 1.000000 0.051000 0.051000 1.200000 0.028000 0.033000
1517300375501342401	600 31 0.900000 0.024000 0.022000 1000 30 0.900000 0.559000 0.539000 600 35 1.000000 0.051000 0.051000 1.200000 0.030000 0.036000
1517300376008902068	600 31 0.900000 0.024000 0.022000 1000 30 0.900000 0.560000 0.540000 600 35 1.000000 0.051000 0.051000 1.200000 0.028000 0.033000
1517300376516338610	600 31 0.900000 0.024000 0.022000 1000 29 0.900000 0.561000 0.541000 600 35 1.000000 0.051000 0.051000 1.200000 0.029000 0.035000
1517300377023970527	600 31 0.900000 0.024000 0.022000 1000 30 0.900000 0.562000 0.542000 600 35 1.000000 0.051000 0.051000 1.200000 0.029000 0.035000
1517300377531610485	600 31 0.900000 0.024000 0.022000 1000 30 0.900000 0.559000 0.539000 600 35 1.000000 0.051000 0.051000 1.200000 0.028000 0.033000
1517300378039252527	600 31 0.900000 0.024000 0.022000 1000 30 0.900000 0.584000 0.564000 600 35 1.000000 0.051000 0.051000 1.200000 0.031000 0.037000
1517300378546905110	600 31 0.900000 0.024000 0.022000 1000 30 0.900000 0.564000 0.544000 600 35 1.000000 0.051000 0.051000 1.200000 0.027000 0.032000
1517300379054432443	600 31 0.900000 0.024000 0.022000 1000 30 0.900000 0.572000 0.552000 600 35 1.000000 0.051000 0.051000 1.200000 0.030000 0.036000
1517300379562031777	600 31 0.900000 0.024000 0.022000 1000 30 0.900000 0.573000 0.553000 600 35 1.000000 0.052000 0.052000 1.200000 0.030000 0.036000
1517300380069650902	600 31 0.900000 0.024000 0.022000 1000 30 0.900000 0.560000 0.540000 600 35 1.000000 0.052000 0.052000 1.200000 0.028000 0.033000
1517300380577261110	600 31 0.900000 0.024000 0.022000 1000 30 0.900000 0.559000 0.539000 600 35 1.000000 0.051000 0.051000 1.200000 0.029000 0.035000
1517300381084929569	600 31 0.900000 0.024000 0.022000 1000 30 0.900000 0.559000 0.539000 600 35 1.000000 0.051000 0.051000 1.200000 0.028000 0.033000
1517300381592492652	600 31 0.900000 0.024000 0.022000 1000 30 0.900000 0.561000 0.541000 600 35 1.000000 0.051000 0.051000 1.200000 0.030000 0.036000
1517300382100009694	600 31 0.900000 0.024000 0.022000 1000 30 0.900000 0.561000 0.541000 600 35 1.000000 0.051000 0.051000 1.200000 0.028000 0.033000
1517300382607696902	600 31 0.900000 0.024000 0.022000 1000 30 0.900000 0.559000 0.539000 600 35 1.000000 0.051000 0.051000 1.200000 0.029000 0.035000
1517300383115298611	600 31 0.900000 0.024000 0.022000 1000 30 0.900000 0.558000 0.539000 600 35 1.000000 0.051000 0.051000 1.200000 0.028000 0.033000
1517300383622833569	600 31 0.900000 0.024000 0.022000 1000 30 0.900000 0.560000 0.540000 600 35 1.000000 0.052000 0.052000 1.200000 0.028000 0.033000
1517300384130327486	600 31 0.900000 0.024000 0.022000 1000 30 0.900000 0.561000 0.541000 600 35 1.000000 0.051000 0.051000 1.200000 0.028000 0.033000
1517300384637867402	600 31 0.900000 0.024000 0.022000 1000 30 0.900000 0.561000 0.541000 600 35 1.000000 0.052000 0.052000 1.200000 0.028000 0.033000
1517300385145374111	600 31 0.900000 0.024000 0.022000 1000 30 0.900000 0.561000 0.541000 600 35 1.000000 0.051000 0.051000 1.200000 0.030000 0.036000
1517300385653108486	600 31 0.900000 0.024000 0.022000 1000 30 0.900000 0.566000 0.546000 600 35 1.000000 0.052000 0.052000 1.200000 0.029000 0.035000
1517300386160723528	600 31 0.900000 0.024000 0.022000 1000 30 0.900000 0.568000 0.548000 600 35 1.000000 0.052000 0.052000 1.200000 0.029000 0.035000
1517300386668304861	600 31 0.900000 0.024000 0.022000 1000 30 0.900000 0.575000 0.555000 600 35 1.000000 0.051000 0.051000 1.200000 0.028000 0.033000
1517300387175980569	600 31 0.900000 0.024000 0.022000 1000 30 0.900000 0.563000 0.543000 600 35 1.000000 0.051000 0.051000 1.200000 0.029000 0.035000
1517300387683572986	600 31 0.900000 0.024000 0.022000 1000 30 0.900000 0.578000 0.558000 600 35 1.000000 0.052000 0.052000 1.200000 0.029000 0.035000
1517300388191153195	600 31 0.900000 0.024000 0.022000 1000 30 0.900000 0.562000 0.542000 600 35 1.000000 0.051000 0.051000 1.200000 0.029000 0.035000
1517300388698773361	600 31 0.900000 0.024000 0.022000 1000 30 0.900000 0.573000 0.553000 600 35 1.000000 0.051000 0.051000 1.200000 0.029000 0.035000
1517300389206321111	600 31 0.900000 0.024000 0.022000 1000 30 0.900000 0.574000 0.554000 600 35 1.000000 0.051000 0.051000 1.200000 0.029000 0.035000
1517300389713884445	600 31 0.900000 0.024000 0.022000 1000 30 0.900000 0.567000 0.547000 600 35 1.000000 0.051000 0.051000 1.200000 0.028000 0.033000
1517300390221441236	600 31 0.900000 0.024000 0.022000 1000 30 0.900000 0.576000 0.555000 600 35 1.000000 0.052000 0.052000 1.200000 0.029000 0.035000
1517300390729033903	600 31 0.900000 0.024000 0.022000 1000 30 0.900000 0.560000 0.540000 600 35 1.000000 0.051000 0.051000 1.200000 0.029000 0.035000
1517300391236584653	600 31 0.900000 0.024000 0.022000 1000 30 0.900000 0.561000 0.541000 600 35 1.000000 0.051000 0.051000 1.200000 0.027000 0.032000
1517300391744022362	600 31 0.900000 0.024000 0.022000 1000 30 0.900000 0.566000 0.546000 600 35 1.000000 0.051000 0.051000 1.200000 0.030000 0.036000
1517300392251672737	600 31 0.900000 0.024000 0.022000 1000 30 0.900000 0.573000 0.552000 600 35 1.000000 0.051000 0.051000 1.200000 0.028000 0.033000
1517300392759222653	600 31 0.900000 0.024000 0.022000 1000 30 0.900000 0.571000 0.551000 600 35 1.000000 0.051000 0.051000 1.200000 0.032000 0.038000
1517300393266708403	600 31 0.900000 0.024000 0.022000 1000 30 0.900000 0.564000 0.544000 600 35 1.000000 0.051000 0.051000 1.200000 0.028000 0.033000
1517300393773624862	600 31 0.900000 0.024000 0.022000 1000 30 0.900000 0.578000 0.558000 600 35 1.000000 0.051000 0.051000 1.200000 0.028000 0.033000
1517300394280626529	600 31 0.900000 0.024000 0.022000 1000 30 0.900000 0.563000 0.543000 600 35 1.000000 0.052000 0.052000 1.200000 0.028000 0.033000
1517300394787474945	600 31 0.900000 0.024000 0.022000 1000 30 0.900000 0.578000 0.558000 600 35 1.000000 0.051000 0.051000 1.200000 0.028000 0.033000
1517300395294437154	600 31 0.900000 0.024000 0.022000 1000 29 0.900000 0.561000 0.541000 600 35 1.000000 0.051000 0.051000 1.200000 0.028000 0.033000
1517300395801387820	600 31 0.900000 0.024000 0.022000 1000 30 0.900000 0.574000 0.554000 600 35 1.000000 0.051000 0.051000 1.200000 0.028000 0.033000
1517300396308374654	600 31 0.900000 0.024000 0.022000 1000 30 0.900000 0.566000 0.546000 600 35 1.000000 0.051000 0.051000 1.200000 0.029000 0.035000
1517300396815304946	600 31 0.900000 0.024000 0.022000 1000 29 0.900000 0.562000 0.542000 600 35 1.000000 0.051000 0.051000 1.200000 0.028000 0.033000
1517300397322262196	600 31 0.900000 0.024000 0.022000 1000 30 0.900000 0.560000 0.540000 600 35 1.000000 0.051000 0.051000 1.200000 0.029000 0.035000
1517300397829199196	600 31 0.900000 0.024000 0.022000 1000 30 0.900000 0.559000 0.539000 600 35 1.000000 0.051000 0.051000 1.200000 0.028000 0.033000
1517300398336176487	600 31 0.900000 0.025000 0.023000 1000 30 0.900000 0.569000 0.549000 600 35 1.000000 0.052000 0.052000 1.200000 0.030000 0.036000
1517300398843168904	600 31 0.900000 0.024000 0.022000 1000 29 0.900000 0.566000 0.546000 600 35 1.000000 0.052000 0.052000 1.200000 0.029000 0.035000
1517300399350134363	600 31 0.900000 0.025000 0.023000 1000 29 0.900000 0.575000 0.555000 600 35 1.000000 0.051000 0.051000 1.200000 0.028000 0.033000
1517300399857073404	600 31 0.900000 0.024000 0.022000 1000 30 0.900000 0.562000 0.542000 600 35 1.000000 0.052000 0.052000 1.200000 0.028000 0.033000
1517300400363967488	600 31 0.900000 0.024000 0.022000 1000 30 0.900000 0.578000 0.558000 600 35 1.000000 0.051000 0.051000 1.200000 0.029000 0.035000
1517300400870864821	600 31 0.900000 0.024000 0.022000 1000 30 0.900000 0.561000 0.541000 600 35 1.000000 0.051000 0.051000 1.200000 0.028000 0.033000
1517300401377702988	600 31 0.900000 0.024000 0.022000 1000 30 0.900000 0.578000 0.558000 600 35 1.000000 0.051000 0.051000 1.200000 0.028000 0.033000
1517300401884418488	600 31 0.900000 0.024000 0.022000 1000 30 0.900000 0.564000 0.544000 600 35 1.000000 0.051000 0.051000 1.200000 0.030000 0.036000
1517300402391234738	600 31 0.900000 0.024000 0.022000 1000 30 0.900000 0.560000 0.540000 600 35 1.000000 0.052000 0.052000 1.200000 0.029000 0.035000
1517300402897993488	600 31 0.900000 0.024000 0.022000 1000 30 0.900000 0.559000 0.539000 600 35 1.000000 0.051000 0.051000 1.200000 0.030000 0.036000
1517300403404741571	600 31 0.900000 0.024000 0.022000 1000 30 0.900000 0.560000 0.540000 600 35 1.000000 0.051000 0.051000 1.200000 0.029000 0.035000
1517300403911586571	600 31 0.900000 0.024000 0.022000 1000 30 0.900000 0.561000 0.541000 600 35 1.000000 0.051000 0.051000 1.200000 0.030000 0.036000
1517300404418492113	600 31 0.900000 0.024000 0.022000 1000 30 0.900000 0.573000 0.553000 600 35 1.000000 0.051000 0.051000 1.200000 0.028000 0.033000
1517300404925291988	600 31 0.900000 0.024000 0.022000 1000 29 0.900000 0.570000 0.550000 600 35 1.000000 0.051000 0.051000 1.200000 0.029000 0.035000
1517300405432106155	600 31 0.900000 0.024000 0.022000 1000 30 0.900000 0.566000 0.546000 600 35 1.000000 0.051000 0.051000 1.200000 0.028000 0.033000
1517300405938961030	600 31 0.900000 0.025000 0.023000 1000 29 0.900000 0.571000 0.551000 600 35 1.000000 0.051000 0.051000 1.200000 0.029000 0.035000
1517300406445791322	600 31 0.900000 0.024000 0.022000 1000 30 0.900000 0.567000 0.547000 600 35 1.000000 0.051000 0.051000 1.200000 0.030000 0.036000
1517300406952512947	600 31 0.900000 0.024000 0.022000 1000 30 0.900000 0.576000 0.556000 600 35 1.000000 0.051000 0.051000 1.200000 0.029000 0.035000
1517300407459320280	600 31 0.900000 0.024000 0.022000 1000 30 0.900000 0.563000 0.543000 600 35 1.000000 0.051000 0.051000 1.200000 0.030000 0.036000
1517300407966144030	600 31 0.900000 0.024000 0.022000 1000 30 0.900000 0.558000 0.539000 600 35 1.000000 0.051000 0.051000 1.200000 0.028000 0.033000
1517300408472817197	600 31 0.900000 0.024000 0.022000 1000 29 0.900000 0.560000 0.540000 600 35 1.000000 0.051000 0.051000 1.200000 0.030000 0.036000
1517300408979564114	600 31 0.900000 0.024000 0.022000 1000 29 0.900000 0.562000 0.542000 600 35 1.000000 0.052000 0.052000 1.200000 0.029000 0.035000
1517300409488825697	600 31 0.900000 0.025000 0.023000 1000 30 0.900000 0.561000 0.541000 600 35 1.000000 0.051000 0.051000 1.200000 0.029000 0.035000
1517300409995649364	600 31 0.900000 0.024000 0.022000 1000 30 0.900000 0.559000 0.539000 600 35 1.000000 0.052000 0.052000 1.200000 0.029000 0.035000
1517300410502337031	600 31 0.900000 0.024000 0.022000 1000 30 0.900000 0.558000 0.539000 600 35 1.000000 0.051000 0.051000 1.200000 0.028000 0.033000
1517300411009029739	600 31 0.900000 0.024000 0.022000 1000 30 0.900000 0.568000 0.548000 600 35 1.000000 0.051000 0.051000 1.200000 0.029000 0.035000
1517300411515862281	600 31 0.900000 0.024000 0.022000 1000 30 0.900000 0.570000 0.550000 600 35 1.000000 0.051000 0.051000 1.200000 0.028000 0.033000
1517300412022675781	600 31 0.900000 0.024000 0.022000 1000 30 0.900000 0.568000 0.548000 600 35 1.000000 0.051000 0.051000 1.200000 0.030000 0.036000
1517300412529409697	600 31 0.900000 0.024000 0.022000 1000 30 0.900000 0.572000 0.552000 600 35 1.000000 0.051000 0.051000 1.200000 0.028000 0.033000
1517300413036191614	600 31 0.900000 0.024000 0.022000 1000 30 0.900000 0.563000 0.543000 600 35 1.000000 0.051000 0.051000 1.200000 0.030000 0.036000
1517300413542927698	600 31 0.900000 0.024000 0.022000 1000 30 0.900000 0.561000 0.541000 600 35 1.000000 0.051000 0.051000 1.200000 0.029000 0.035000
1517300414049611864	600 31 0.900000 0.024000 0.022000 1000 30 0.900000 0.562000 0.542000 600 35 1.000000 0.051000 0.051000 1.200000 0.029000 0.035000
1517300414556403323	600 31 0.900000 0.024000 0.022000 1000 30 0.900000 0.560000 0.540000 600 35 1.000000 0.051000 0.051000 1.200000 0.028000 0.033000
1517300415063214823	600 31 0.900000 0.024000 0.022000 1000 30 0.900000 0.559000 0.539000 600 35 1.000000 0.051000 0.051000 1.200000 0.029000 0.035000
1517300415570036239	600 31 0.900000 0.024000 0.022000 1000 30 0.900000 0.558000 0.539000 600 35 1.000000 0.051000 0.051000 1.200000 0.030000 0.036000
1517300416076640865	600 31 0.900000 0.024000 0.022000 1000 30 0.900000 0.560000 0.540000 600 35 1.000000 0.051000 0.051000 1.200000 0.028000 0.033000
1517300416583355073	600 31 0.900000 0.024000 0.022000 1000 30 0.900000 0.563000 0.543000 600 35 1.000000 0.051000 0.051000 1.200000 0.028000 0.033000
1517300417090171156	600 31 0.900000 0.024000 0.022000 1000 30 0.900000 0.560000 0.540000 600 35 1.000000 0.051000 0.051000 1.200000 0.028000 0.033000
1517300417596866406	600 31 0.900000 0.024000 0.022000 1000 30 0.900000 0.574000 0.554000 600 35 1.000000 0.051000 0.051000 1.200000 0.029000 0.035000
1517300418103651490	600 31 0.900000 0.024000 0.022000 1000 30 0.900000 0.562000 0.542000 600 35 1.000000 0.051000 0.051000 1.200000 0.028000 0.033000
1517300418610403532	600 31 0.900000 0.024000 0.022000 1000 30 0.900000 0.572000 0.552000 600 35 1.000000 0.051000 0.051000 1.200000 0.030000 0.036000
1517300419117128907	600 31 0.900000 0.024000 0.022000 1000 30 0.900000 0.563000 0.543000 600 35 1.000000 0.051000 0.051000 1.200000 0.029000 0.035000
1517300419623836948	600 31 0.900000 0.024000 0.022000 1000 30 0.900000 0.561000 0.541000 600 35 1.000000 0.052000 0.052000 1.200000 0.030000 0.036000
1517300420130628032	600 31 0.900000 0.024000 0.022000 1000 30 0.900000 0.558000 0.539000 600 35 1.000000 0.051000 0.051000 1.200000 0.029000 0.035000
1517300420637379157	600 31 0.900000 0.024000 0.022000 1000 30 0.900000 0.560000 0.540000 600 35 1.000000 0.051000 0.051000 1.200000 0.030000 0.036000
1517300421144220532	600 31 0.900000 0.024000 0.022000 1000 30 0.900000 0.560000 0.540000 600 35 1.000000 0.051000 0.051000 1.200000 0.029000 0.035000
1517300421650964324	600 31 0.900000 0.024000 0.022000 1000 30 0.900000 0.561000 0.541000 600 35 1.000000 0.051000 0.051000 1.200000 0.029000 0.035000
1517300422157724657	600 31 0.900000 0.024000 0.022000 1000 30 0.900000 0.561000 0.541000 600 35 1.000000 0.051000 0.051000 1.200000 0.029000 0.035000
1517300422664519074	600 31 0.900000 0.024000 0.022000 1000 30 0.900000 0.558000 0.539000 600 35 1.000000 0.051000 0.051000 1.200000 0.028000 0.033000
1517300423172248324	600 32 0.900000 0.025000 0.023000 1000 30 0.900000 0.590000 0.569000 600 35 1.000000 0.051000 0.051000 1.200000 0.087000 0.105000
1517300423735804532	600 34 0.900000 0.027000 0.025000 1000 31 0.900000 0.593000 0.572000 600 38 1.000000 0.051000 0.051000 1.200000 0.122000 0.148000
1517300424291870699	600 35 0.900000 0.171000 0.161000 1000 31 0.900000 1.477000 1.432000 600 39 1.000000 0.051000 0.051000 1.200000 0.072000 0.087000
1517300424855849616	600 36 0.900000 0.169000 0.160000 1000 32 0.900000 1.473000 1.428000 600 40 1.000000 0.051000 0.051000 1.200000 0.069000 0.083000
1517300425415746449	600 36 0.900000 0.169000 0.160000 1000 32 0.900000 1.478000 1.433000 600 40 1.000000 0.051000 0.051000 1.200000 0.068000 0.082000
1517300425975810282	600 37 0.900000 0.169000 0.160000 1000 33 0.900000 1.477000 1.432000 600 41 1.000000 0.052000 0.052000 1.200000 0.069000 0.083000
1517300426539823657	600 37 0.900000 0.170000 0.160000 1000 33 0.900000 1.478000 1.433000 600 41 1.000000 0.052000 0.052000 1.200000 0.069000 0.083000
1517300427087784616	600 37 0.900000 0.169000 0.160000 1000 33 0.900000 1.480000 1.435000 600 42 1.000000 0.052000 0.052000 1.200000 0.069000 0.083000
1517300427651835283	600 38 0.900000 0.169000 0.160000 1000 33 0.900000 1.480000 1.435000 600 42 1.000000 0.052000 0.052000 1.200000 0.069000 0.083000
1517300428215868241	600 38 0.900000 0.169000 0.160000 1000 34 0.900000 1.480000 1.435000 600 42 1.000000 0.052000 0.052000 1.200000 0.069000 0.083000
1517300428779803866	600 38 0.900000 0.169000 0.160000 1000 34 0.900000 1.480000 1.435000 600 42 1.000000 0.052000 0.052000 1.200000 0.069000 0.083000
1517300429331772783	600 38 0.900000 0.169000 0.160000 1000 34 0.900000 1.482000 1.437000 600 42 1.000000 0.052000 0.052000 1.200000 0.068000 0.082000
1517300429891789658	600 38 0.900000 0.169000 0.160000 1000 34 0.900000 1.481000 1.436000 600 42 1.000000 0.052000 0.052000 1.200000 0.069000 0.083000
1517300430447835283	600 38 0.900000 0.170000 0.160000 1000 34 0.900000 1.481000 1.436000 600 42 1.000000 0.052000 0.052000 1.200000 0.069000 0.083000
1517300431007838116	600 38 0.900000 0.170000 0.160000 1000 34 0.900000 1.481000 1.436000 600 42 1.000000 0.052000 0.052000 1.200000 0.068000 0.082000
1517300431563825575	600 38 0.900000 0.170000 0.160000 1000 34 0.900000 1.480000 1.435000 600 42 1.000000 0.052000 0.052000 1.200000 0.068000 0.082000
1517300432119843991	600 38 0.900000 0.170000 0.160000 1000 34 0.900000 1.479000 1.434000 600 43 1.000000 0.052000 0.052000 1.200000 0.070000 0.084000
1517300432687806658	600 39 0.900000 0.170000 0.160000 1000 34 0.900000 1.482000 1.437000 600 43 1.000000 0.052000 0.052000 1.200000 0.069000 0.083000
1517300433247802992	600 39 0.900000 0.169000 0.160000 1000 34 0.900000 1.483000 1.438000 600 43 1.000000 0.052000 0.052000 1.200000 0.068000 0.082000
1517300433811847075	600 39 0.900000 0.170000 0.160000 1000 35 0.900000 1.482000 1.437000 600 43 1.000000 0.052000 0.052000 1.200000 0.069000 0.083000
1517300434367809158	600 39 0.900000 0.170000 0.160000 1000 35 0.900000 1.481000 1.436000 600 43 1.000000 0.052000 0.052000 1.200000 0.069000 0.083000
1517300434931811367	600 39 0.900000 0.169000 0.160000 1000 35 0.900000 1.482000 1.437000 600 43 1.000000 0.052000 0.052000 1.200000 0.068000 0.082000
1517300435462557825	600 39 0.900000 0.170000 0.160000 1000 35 0.900000 1.480000 1.435000 600 43 1.000000 0.052000 0.052000 1.200000 0.069000 0.083000
1517300436027819534	600 39 0.900000 0.169000 0.160000 1000 35 0.900000 1.481000 1.436000 600 43 1.000000 0.052000 0.052000 1.200000 0.069000 0.083000
1517300436595836825	600 39 0.900000 0.170000 0.160000 1000 35 0.900000 1.480000 1.435000 600 43 1.000000 0.052000 0.052000 1.200000 0.069000 0.083000
1517300437155819409	600 39 0.900000 0.170000 0.160000 1000 35 0.900000 1.481000 1.436000 600 43 1.000000 0.052000 0.052000 1.200000 0.069000 0.083000
1517300437723814117	600 39 0.900000 0.170000 0.160000 1000 35 0.900000 1.480000 1.435000 600 43 1.000000 0.052000 0.052000 1.200000 0.070000 0.084000
1517300438283831367	600 39 0.900000 0.170000 0.160000 1000 35 0.900000 1.483000 1.438000 600 43 1.000000 0.052000 0.052000 1.200000 0.069000 0.083000
1517300438839867201	600 39 0.900000 0.170000 0.160000 1000 35 0.900000 1.482000 1.437000 600 43 1.000000 0.052000 0.052000 1.200000 0.068000 0.082000
1517300439403839534	600 39 0.900000 0.170000 0.160000 1000 35 0.900000 1.482000 1.437000 600 43 1.000000 0.052000 0.052000 1.200000 0.068000 0.082000
1517300439971762534	600 39 0.900000 0.170000 0.160000 1000 35 0.900000 1.482000 1.437000 600 43 1.000000 0.052000 0.052000 1.200000 0.069000 0.083000
1517300440519795242	600 39 0.900000 0.170000 0.160000 1000 35 0.900000 1.483000 1.438000 600 43 1.000000 0.052000 0.052000 1.200000 0.068000 0.082000
1517300441079811993	600 39 0.900000 0.170000 0.160000 1000 35 0.900000 1.483000 1.438000 600 43 1.000000 0.052000 0.052000 1.200000 0.069000 0.083000
1517300441647765201	600 39 0.900000 0.170000 0.160000 1000 35 0.900000 1.481000 1.436000 600 43 1.000000 0.052000 0.052000 1.200000 0.069000 0.083000
1517300442195731868	600 39 0.900000 0.169000 0.160000 1000 35 0.900000 1.484000 1.439000 600 43 1.000000 0.052000 0.052000 1.200000 0.069000 0.083000
1517300442763857909	600 39 0.900000 0.170000 0.160000 1000 35 0.900000 1.483000 1.438000 600 43 1.000000 0.052000 0.052000 1.200000 0.068000 0.082000
1517300443311784784	600 39 0.900000 0.170000 0.160000 1000 35 0.900000 1.483000 1.438000 600 43 1.000000 0.052000 0.052000 1.200000 0.070000 0.084000
1517300443879821618	600 39 0.900000 0.170000 0.160000 1000 35 0.900000 1.482000 1.437000 600 43 1.000000 0.052000 0.052000 1.200000 0.069000 0.083000
1517300444443781368	600 39 0.900000 0.170000 0.160000 1000 35 0.900000 1.483000 1.438000 600 44 1.000000 0.052000 0.052000 1.200000 0.069000 0.083000
1517300444999827243	600 39 0.900000 0.170000 0.160000 1000 35 0.900000 1.481000 1.436000 600 44 1.000000 0.052000 0.052000 1.200000 0.069000 0.083000
1517300445567770951	600 39 0.900000 0.170000 0.160000 1000 35 0.900000 1.484000 1.439000 600 44 1.000000 0.052000 0.052000 1.200000 0.069000 0.083000
1517300446131784118	600 39 0.900000 0.170000 0.160000 1000 35 0.900000 1.483000 1.438000 600 44 1.000000 0.053000 0.053000 1.200000 0.070000 0.084000
1517300446699813410	600 39 0.900000 0.170000 0.160000 1000 36 0.900000 1.485000 1.440000 600 44 1.000000 0.052000 0.052000 1.200000 0.068000 0.082000
1517300447263790202	600 39 0.900000 0.170000 0.160000 1000 35 0.900000 1.484000 1.439000 600 44 1.000000 0.052000 0.052000 1.200000 0.069000 0.083000
1517300447831829410	600 39 0.900000 0.170000 0.160000 1000 35 0.900000 1.485000 1.440000 600 44 1.000000 0.052000 0.052000 1.200000 0.069000 0.083000
1517300448387802077	600 40 0.900000 0.170000 0.160000 1000 36 0.900000 1.483000 1.438000 600 44 1.000000 0.052000 0.052000 1.200000 0.069000 0.083000
1517300448955843785	600 39 0.900000 0.170000 0.160000 1000 36 0.900000 1.483000 1.438000 600 44 1.000000 0.052000 0.052000 1.200000 0.070000 0.084000
1517300449519868452	600 40 0.900000 0.170000 0.160000 1000 36 0.900000 1.485000 1.440000 600 44 1.000000 0.052000 0.052000 1.200000 0.068000 0.082000
1517300450079824910	600 40 0.900000 0.170000 0.160000 1000 36 0.900000 1.484000 1.439000 600 44 1.000000 0.052000 0.052000 1.200000 0.068000 0.082000
1517300450643833452	600 40 0.900000 0.170000 0.160000 1000 36 0.900000 1.483000 1.438000 600 44 1.000000 0.052000 0.052000 1.200000 0.069000 0.083000
1517300451199813869	600 40 0.900000 0.170000 0.160000 1000 35 0.900000 1.484000 1.439000 600 44 1.000000 0.052000 0.052000 1.200000 0.069000 0.083000
1517300451759789077	600 40 0.900000 0.170000 0.160000 1000 36 0.900000 1.485000 1.440000 600 44 1.000000 0.052000 0.052000 1.200000 0.069000 0.083000
1517300452339782619	600 40 0.900000 0.170000 0.160000 1000 36 0.900000 1.484000 1.439000 600 44 1.000000 0.052000 0.052000 1.200000 0.069000 0.083000
1517300452899783702	600 40 0.900000 0.170000 0.160000 1000 36 0.900000 1.484000 1.439000 600 44 1.000000 0.052000 0.052000 1.200000 0.070000 0.084000
1517300453455794119	600 40 0.900000 0.170000 0.160000 1000 36 0.900000 1.483000 1.439000 600 44 1.000000 0.052000 0.052000 1.200000 0.069000 0.083000
1517300454007738952	600 40 0.900000 0.170000 0.160000 1000 36 0.900000 1.483000 1.438000 600 44 1.000000 0.052000 0.052000 1.200000 0.069000 0.083000
1517300454575801619	600 40 0.900000 0.170000 0.160000 1000 36 0.900000 1.482000 1.437000 600 44 1.000000 0.052000 0.052000 1.200000 0.070000 0.084000
1517300455135831703	600 40 0.900000 0.170000 0.160000 1000 36 0.900000 1.485000 1.440000 600 44 1.000000 0.052000 0.052000 1.200000 0.069000 0.083000
1517300455699782578	600 40 0.900000 0.169000 0.160000 1000 36 0.900000 1.483000 1.438000 600 44 1.000000 0.052000 0.052000 1.200000 0.069000 0.083000
1517300456263834619	600 40 0.900000 0.170000 0.160000 1000 36 0.900000 1.485000 1.440000 600 44 1.000000 0.052000 0.052000 1.200000 0.069000 0.083000
1517300456827806536	600 40 0.900000 0.169000 0.160000 1000 36 0.900000 1.485000 1.440000 600 44 1.000000 0.052000 0.052000 1.200000 0.070000 0.084000
1517300457391811869	600 40 0.900000 0.169000 0.160000 1000 36 0.900000 1.484000 1.439000 600 44 1.000000 0.052000 0.052000 1.200000 0.069000 0.083000
1517300457955843203	600 40 0.900000 0.170000 0.160000 1000 36 0.900000 1.485000 1.440000 600 44 1.000000 0.052000 0.052000 1.200000 0.069000 0.083000
1517300458515843870	600 40 0.900000 0.170000 0.160000 1000 36 0.900000 1.484000 1.439000 600 44 1.000000 0.052000 0.052000 1.200000 0.070000 0.084000
1517300459075834286	600 40 0.900000 0.170000 0.160000 1000 36 0.900000 1.485000 1.440000 600 44 1.000000 0.052000 0.052000 1.200000 0.069000 0.083000
1517300459643752328	600 40 0.900000 0.170000 0.160000 1000 36 0.900000 1.485000 1.440000 600 44 1.000000 0.052000 0.052000 1.200000 0.068000 0.082000
1517300460199830536	600 40 0.900000 0.170000 0.160000 1000 36 0.900000 1.486000 1.441000 600 44 1.000000 0.052000 0.052000 1.200000 0.069000 0.083000
1517300460755787745	600 40 0.900000 0.170000 0.160000 1000 36 0.900000 1.485000 1.440000 600 44 1.000000 0.052000 0.052000 1.200000 0.070000 0.084000
1517300461315795078	600 40 0.900000 0.170000 0.160000 1000 36 0.900000 1.484000 1.439000 600 44 1.000000 0.052000 0.052000 1.200000 0.069000 0.083000
1517300461871727828	600 40 0.900000 0.170000 0.160000 1000 36 0.900000 1.485000 1.440000 600 44 1.000000 0.052000 0.052000 1.200000 0.069000 0.083000
1517300462447775037	600 40 0.900000 0.170000 0.160000 1000 36 0.900000 1.486000 1.441000 600 44 1.000000 0.052000 0.052000 1.200000 0.069000 0.083000
1517300463003763453	600 40 0.900000 0.170000 0.160000 1000 36 0.900000 1.484000 1.439000 600 44 1.000000 0.052000 0.052000 1.200000 0.069000 0.083000
1517300463563754745	600 40 0.900000 0.170000 0.160000 1000 36 0.900000 1.483000 1.438000 600 44 1.000000 0.052000 0.052000 1.200000 0.070000 0.084000
1517300464127816037	600 40 0.900000 0.170000 0.160000 1000 36 0.900000 1.484000 1.439000 600 44 1.000000 0.052000 0.052000 1.200000 0.068000 0.082000
1517300464687827537	600 40 0.900000 0.170000 0.160000 1000 36 0.900000 1.483000 1.438000 600 44 1.000000 0.052000 0.052000 1.200000 0.069000 0.083000
1517300465251809787	600 40 0.900000 0.170000 0.160000 1000 36 0.900000 1.483000 1.438000 600 44 1.000000 0.052000 0.052000 1.200000 0.069000 0.083000
1517300465815864412	600 40 0.900000 0.170000 0.160000 1000 36 0.900000 1.485000 1.440000 600 44 1.000000 0.052000 0.052000 1.200000 0.069000 0.083000
1517300466375760996	600 40 0.900000 0.170000 0.160000 1000 36 0.900000 1.483000 1.438000 600 44 1.000000 0.052000 0.052000 1.200000 0.069000 0.083000
1517300466939793871	600 40 0.900000 0.170000 0.160000 1000 36 0.900000 1.484000 1.439000 600 44 1.000000 0.052000 0.052000 1.200000 0.069000 0.083000
1517300467495820287	600 40 0.900000 0.170000 0.160000 1000 36 0.900000 1.482000 1.437000 600 44 1.000000 0.052000 0.052000 1.200000 0.069000 0.083000
1517300468059844871	600 40 0.900000 0.170000 0.160000 1000 36 0.900000 1.484000 1.439000 600 44 1.000000 0.052000 0.052000 1.200000 0.069000 0.083000
1517300468623852996	600 40 0.900000 0.170000 0.160000 1000 36 0.900000 1.485000 1.440000 600 44 1.000000 0.052000 0.052000 1.200000 0.069000 0.083000
1517300469191781538	600 40 0.900000 0.170000 0.160000 1000 36 0.900000 1.485000 1.440000 600 44 1.000000 0.052000 0.052000 1.200000 0.069000 0.083000
1517300469755838163	600 40 0.900000 0.170000 0.160000 1000 36 0.900000 1.485000 1.440000 600 44 1.000000 0.052000 0.052000 1.200000 0.069000 0.083000
1517300470319864288	600 40 0.900000 0.170000 0.160000 1000 36 0.900000 1.485000 1.440000 600 44 1.000000 0.052000 0.052000 1.200000 0.069000 0.083000
1517300470887772121	600 40 0.900000 0.170000 0.160000 1000 36 0.900000 1.485000 1.440000 600 44 1.000000 0.052000 0.052000 1.200000 0.069000 0.083000
1517300471443833496	600 40 0.900000 0.170000 0.160000 1000 36 0.900000 1.485000 1.440000 600 44 1.000000 0.052000 0.052000 1.200000 0.070000 0.084000
1517300471983895913	600 40 0.900000 0.170000 0.160000 1000 36 0.900000 1.482000 1.437000 600 44 1.000000 0.052000 0.052000 1.200000 0.070000 0.084000
1517300472559803496	600 40 0.900000 0.170000 0.160000 1000 36 0.900000 1.485000 1.440000 600 44 1.000000 0.052000 0.052000 1.200000 0.069000 0.083000
1517300473123857955	600 40 0.900000 0.170000 0.160000 1000 36 0.900000 1.485000 1.440000 600 44 1.000000 0.052000 0.052000 1.200000 0.068000 0.082000
1517300473687813080	600 40 0.900000 0.170000 0.160000 1000 36 0.900000 1.485000 1.440000 600 44 1.000000 0.052000 0.052000 1.200000 0.069000 0.083000
1517300474251833705	600 40 0.900000 0.170000 0.160000 1000 36 0.900000 1.484000 1.439000 600 44 1.000000 0.052000 0.052000 1.200000 0.069000 0.083000
1517300474815817663	600 40 0.900000 0.170000 0.160000 1000 36 0.900000 1.484000 1.439000 600 44 1.000000 0.052000 0.052000 1.200000 0.068000 0.082000
1517300475383825455	600 40 0.900000 0.170000 0.160000 1000 36 0.900000 1.485000 1.440000 600 44 1.000000 0.052000 0.052000 1.200000 0.068000 0.082000
1517300475935843372	600 40 0.900000 0.170000 0.160000 1000 36 0.900000 1.485000 1.440000 600 44 1.000000 0.052000 0.052000 1.200000 0.070000 0.084000
1517300476495836705	600 40 0.900000 0.170000 0.160000 1000 36 0.900000 1.485000 1.440000 600 44 1.000000 0.052000 0.052000 1.200000 0.069000 0.083000
1517300477059825247	600 40 0.900000 0.170000 0.160000 1000 36 0.900000 1.486000 1.441000 600 45 1.000000 0.052000 0.052000 1.200000 0.068000 0.082000
1517300477623832455	600 40 0.900000 0.170000 0.160000 1000 36 0.900000 1.485000 1.440000 600 45 1.000000 0.053000 0.053000 1.200000 0.068000 0.082000
1517300478183802455	600 40 0.900000 0.170000 0.160000 1000 36 0.900000 1.485000 1.440000 600 44 1.000000 0.053000 0.053000 1.200000 0.069000 0.083000
1517300478751787872	600 40 0.900000 0.170000 0.160000 1000 36 0.900000 1.484000 1.439000 600 45 1.000000 0.052000 0.052000 1.200000 0.068000 0.082000
1517300479307858164	600 40 0.900000 0.170000 0.160000 1000 36 0.900000 1.485000 1.440000 600 45 1.000000 0.052000 0.052000 1.200000 0.068000 0.082000
1517300479855840039	600 40 0.900000 0.169000 0.160000 1000 36 0.900000 1.485000 1.440000 600 44 1.000000 0.052000 0.052000 1.200000 0.069000 0.083000
1517300480415814289	600 40 0.900000 0.170000 0.160000 1000 36 0.900000 1.484000 1.439000 600 44 1.000000 0.052000 0.052000 1.200000 0.069000 0.083000
1517300480971810081	600 40 0.900000 0.170000 0.160000 1000 36 0.900000 1.485000 1.440000 600 45 1.000000 0.052000 0.052000 1.200000 0.069000 0.083000
1517300481543815956	600 40 0.900000 0.170000 0.160000 1000 36 0.900000 1.486000 1.441000 600 45 1.000000 0.052000 0.052000 1.200000 0.068000 0.082000
1517300482095838372	600 40 0.900000 0.169000 0.160000 1000 36 0.900000 1.485000 1.440000 600 45 1.000000 0.053000 0.053000 1.200000 0.069000 0.083000
1517300482663801789	600 40 0.900000 0.170000 0.160000 1000 36 0.900000 1.486000 1.441000 600 45 1.000000 0.052000 0.052000 1.200000 0.069000 0.083000
1517300483227832831	600 40 0.900000 0.170000 0.160000 1000 36 0.900000 1.484000 1.439000 600 45 1.000000 0.052000 0.052000 1.200000 0.069000 0.083000
1517300483795820498	600 40 0.900000 0.170000 0.160000 1000 36 0.900000 1.482000 1.437000 600 45 1.000000 0.052000 0.052000 1.200000 0.069000 0.083000
1517300484363827831	600 40 0.900000 0.170000 0.160000 1000 36 0.900000 1.483000 1.438000 600 45 1.000000 0.052000 0.052000 1.200000 0.068000 0.082000
1517300484931759581	600 40 0.900000 0.170000 0.160000 1000 36 0.900000 1.485000 1.440000 600 45 1.000000 0.052000 0.052000 1.200000 0.069000 0.083000
1517300485499819789	600 40 0.900000 0.170000 0.160000 1000 36 0.900000 1.485000 1.440000 600 45 1.000000 0.052000 0.052000 1.200000 0.069000 0.083000
1517300486063855831	600 40 0.900000 0.170000 0.160000 1000 36 0.900000 1.486000 1.441000 600 45 1.000000 0.053000 0.053000 1.200000 0.069000 0.083000
1517300486627827415	600 40 0.900000 0.170000 0.160000 1000 36 0.900000 1.486000 1.441000 600 45 1.000000 0.052000 0.052000 1.200000 0.069000 0.083000
1517300487195788498	600 40 0.900000 0.170000 0.160000 1000 36 0.900000 1.485000 1.440000 600 45 1.000000 0.052000 0.052000 1.200000 0.069000 0.083000
1517300487751745665	600 40 0.900000 0.170000 0.160000 1000 36 0.900000 1.483000 1.438000 600 45 1.000000 0.052000 0.052000 1.200000 0.069000 0.083000
1517300488311890665	600 40 0.900000 0.170000 0.160000 1000 37 0.900000 1.484000 1.439000 600 45 1.000000 0.053000 0.053000 1.200000 0.069000 0.083000
1517300488871817540	600 40 0.900000 0.170000 0.160000 1000 37 0.900000 1.485000 1.440000 600 45 1.000000 0.052000 0.052000 1.200000 0.070000 0.084000
1517300489415803748	600 40 0.900000 0.170000 0.160000 1000 37 0.900000 1.485000 1.440000 600 45 1.000000 0.052000 0.052000 1.200000 0.069000 0.083000
1517300489983883957	600 40 0.900000 0.170000 0.160000 1000 37 0.900000 1.486000 1.441000 600 45 1.000000 0.052000 0.052000 1.200000 0.069000 0.083000
1517300490539790790	600 40 0.900000 0.170000 0.160000 1000 36 0.900000 1.487000 1.442000 600 45 1.000000 0.052000 0.052000 1.200000 0.069000 0.083000
1517300491091826873	600 40 0.900000 0.170000 0.160000 1000 37 0.900000 1.486000 1.441000 600 45 1.000000 0.052000 0.052000 1.200000 0.070000 0.084000
1517300491651838165	600 40 0.900000 0.170000 0.160000 1000 37 0.900000 1.485000 1.440000 600 45 1.000000 0.052000 0.052000 1.200000 0.069000 0.083000
1517300492211827874	600 40 0.900000 0.170000 0.160000 1000 36 0.900000 1.485000 1.440000 600 45 1.000000 0.052000 0.052000 1.200000 0.069000 0.083000
1517300492775801415	600 40 0.900000 0.170000 0.160000 1000 36 0.900000 1.483000 1.438000 600 45 1.000000 0.052000 0.052000 1.200000 0.070000 0.084000
1517300493339773999	600 40 0.900000 0.170000 0.160000 1000 36 0.900000 1.484000 1.439000 600 45 1.000000 0.052000 0.052000 1.200000 0.070000 0.084000
1517300493887763040	600 40 0.900000 0.170000 0.160000 1000 37 0.900000 1.484000 1.439000 600 45 1.000000 0.053000 0.053000 1.200000 0.070000 0.084000
1517300494443805707	600 40 0.900000 0.170000 0.160000 1000 36 0.900000 1.486000 1.441000 600 45 1.000000 0.052000 0.052000 1.200000 0.070000 0.084000
1517300494999814166	600 40 0.900000 0.170000 0.160000 1000 36 0.900000 1.485000 1.440000 600 45 1.000000 0.052000 0.052000 1.200000 0.069000 0.083000
1517300495555814416	600 40 0.900000 0.170000 0.160000 1000 37 0.900000 1.485000 1.440000 600 45 1.000000 0.052000 0.052000 1.200000 0.069000 0.083000
1517300496127817374	600 40 0.900000 0.170000 0.160000 1000 36 0.900000 1.486000 1.441000 600 45 1.000000 0.053000 0.053000 1.200000 0.069000 0.083000
1517300496695768582	600 40 0.900000 0.170000 0.160000 1000 36 0.900000 1.486000 1.441000 600 45 1.000000 0.052000 0.052000 1.200000 0.069000 0.083000
1517300497259833083	600 40 0.900000 0.170000 0.160000 1000 36 0.900000 1.485000 1.440000 600 45 1.000000 0.052000 0.052000 1.200000 0.070000 0.084000
1517300497815841916	600 40 0.900000 0.170000 0.160000 1000 36 0.900000 1.484000 1.439000 600 45 1.000000 0.052000 0.052000 1.200000 0.069000 0.083000
1517300498379775208	600 40 0.900000 0.170000 0.160000 1000 36 0.900000 1.485000 1.440000 600 45 1.000000 0.053000 0.053000 1.200000 0.069000 0.083000
1517300498939821208	600 40 0.900000 0.170000 0.160000 1000 36 0.900000 1.485000 1.440000 600 45 1.000000 0.052000 0.052000 1.200000 0.069000 0.083000
1517300499503811374	600 40 0.900000 0.170000 0.160000 1000 36 0.900000 1.484000 1.439000 600 44 1.000000 0.053000 0.053000 1.200000 0.069000 0.083000
1517300500063824458	600 40 0.900000 0.170000 0.160000 1000 36 0.900000 1.485000 1.440000 600 45 1.000000 0.053000 0.053000 1.200000 0.069000 0.083000
1517300500624022083	600 40 0.900000 0.170000 0.160000 1000 36 0.900000 1.485000 1.440000 600 45 1.000000 0.052000 0.052000 1.200000 0.069000 0.083000
1517300501175795083	600 40 0.900000 0.170000 0.160000 1000 36 0.900000 1.485000 1.440000 600 45 1.000000 0.052000 0.052000 1.200000 0.069000 0.083000
1517300501723827041	600 40 0.900000 0.170000 0.160000 1000 36 0.900000 1.485000 1.440000 600 45 1.000000 0.053000 0.053000 1.200000 0.069000 0.083000
1517300502283832625	600 40 0.900000 0.170000 0.160000 1000 36 0.900000 1.485000 1.440000 600 44 1.000000 0.052000 0.052000 1.200000 0.069000 0.083000
1517300502839834458	600 40 0.900000 0.170000 0.160000 1000 36 0.900000 1.484000 1.439000 600 45 1.000000 0.052000 0.052000 1.200000 0.069000 0.083000
1517300503347973167	600 39 0.900000 0.170000 0.160000 1000 36 0.900000 1.485000 1.440000 600 41 1.000000 0.052000 0.052000 1.200000 0.070000 0.084000
1517300503855551833	600 39 0.900000 0.032000 0.030000 1000 35 0.900000 0.553000 0.533000 600 40 1.000000 0.052000 0.052000 1.200000 0.036000 0.043000
1517300504362942125	600 38 0.900000 0.025000 0.023000 1000 35 0.900000 0.569000 0.549000 600 39 1.000000 0.052000 0.052000 1.200000 0.025000 0.030000
1517300504870285083	600 38 0.900000 0.025000 0.023000 1000 34 0.900000 0.567000 0.547000 600 38 1.000000 0.052000 0.052000 1.200000 0.026000 0.031000
1517300505377513084	600 37 0.900000 0.025000 0.023000 1000 34 0.900000 0.561000 0.541000 600 38 1.000000 0.052000 0.052000 1.200000 0.025000 0.030000
1517300505885183417	600 37 0.900000 0.025000 0.023000 1000 34 0.900000 0.564000 0.544000 600 38 1.000000 0.052000 0.052000 1.200000 0.027000 0.032000
1517300506392693584	600 37 0.900000 0.027000 0.025000 1000 33 0.900000 0.647000 0.625000 600 38 1.000000 0.052000 0.052000 1.200000 0.032000 0.038000
1517300506900116667	600 37 0.900000 0.025000 0.023000 1000 33 0.900000 0.572000 0.552000 600 37 1.000000 0.052000 0.052000 1.200000 0.026000 0.031000
1517300507407615667	600 36 0.900000 0.025000 0.023000 1000 33 0.900000 0.557000 0.538000 600 37 1.000000 0.052000 0.052000 1.200000 0.025000 0.030000
1517300507914899209	600 36 0.900000 0.025000 0.023000 1000 33 0.900000 0.571000 0.551000 600 37 1.000000 0.052000 0.052000 1.200000 0.026000 0.031000
1517300508422214251	600 36 0.900000 0.025000 0.023000 1000 33 0.900000 0.558000 0.539000 600 37 1.000000 0.052000 0.052000 1.200000 0.026000 0.031000
1517300508929407001	600 36 0.900000 0.025000 0.023000 1000 33 0.900000 0.562000 0.542000 600 37 1.000000 0.052000 0.052000 1.200000 0.024000 0.028000
1517300509436784167	600 36 0.900000 0.025000 0.023000 1000 32 0.900000 0.553000 0.534000 600 36 1.000000 0.052000 0.052000 1.200000 0.025000 0.030000
1517300509944185334	600 36 0.900000 0.025000 0.023000 1000 33 0.900000 0.556000 0.537000 600 36 1.000000 0.052000 0.052000 1.200000 0.025000 0.030000
1517300510452352251	600 36 0.900000 0.025000 0.023000 1000 33 0.900000 0.567000 0.547000 600 36 1.000000 0.052000 0.052000 1.200000 0.027000 0.032000
1517300510959898418	600 36 0.900000 0.029000 0.027000 1000 32 0.900000 0.603000 0.582000 600 36 1.000000 0.052000 0.052000 1.200000 0.029000 0.035000
1517300511467722834	600 36 0.900000 0.025000 0.023000 1000 32 0.900000 0.567000 0.547000 600 36 1.000000 0.052000 0.052000 1.200000 0.025000 0.030000
1517300511975163543	600 35 0.900000 0.029000 0.027000 1000 32 0.900000 0.674000 0.651000 600 36 1.000000 0.052000 0.052000 1.200000 0.038000 0.045000
1517300512482524293	600 35 0.900000 0.025000 0.023000 1000 32 0.900000 0.587000 0.567000 600 36 1.000000 0.052000 0.052000 1.200000 0.031000 0.037000
1517300512989939501	600 35 0.900000 0.025000 0.023000 1000 32 0.900000 0.562000 0.542000 600 36 1.000000 0.052000 0.052000 1.200000 0.025000 0.030000
1517300513497324376	600 35 0.900000 0.024000 0.022000 1000 32 0.900000 0.555000 0.536000 600 36 1.000000 0.051000 0.051000 1.200000 0.025000 0.030000
1517300514004827293	600 35 0.900000 0.024000 0.022000 1000 32 0.900000 0.570000 0.550000 600 36 1.000000 0.052000 0.052000 1.200000 0.025000 0.030000
1517300514512074085	600 35 0.900000 0.024000 0.022000 1000 32 0.900000 0.555000 0.536000 600 36 1.000000 0.051000 0.051000 1.200000 0.024000 0.028000
1517300515019433668	600 35 0.900000 0.025000 0.023000 1000 32 0.900000 0.550000 0.531000 600 36 1.000000 0.052000 0.052000 1.200000 0.026000 0.031000
1517300515526690293	600 35 0.900000 0.024000 0.022000 1000 32 0.900000 0.547000 0.528000 600 36 1.000000 0.052000 0.052000 1.200000 0.025000 0.030000
1517300516034100793	600 35 0.900000 0.025000 0.023000 1000 32 0.900000 0.549000 0.530000 600 36 1.000000 0.052000 0.052000 1.200000 0.027000 0.032000
1517300516541405627	600 35 0.900000 0.025000 0.023000 1000 32 0.900000 0.604000 0.583000 600 35 1.000000 0.051000 0.051000 1.200000 0.030000 0.036000
1517300517048827085	600 35 0.900000 0.025000 0.023000 1000 32 0.900000 0.558000 0.539000 600 35 1.000000 0.051000 0.051000 1.200000 0.026000 0.031000
1517300517556315835	600 35 0.900000 0.025000 0.023000 1000 32 0.900000 0.565000 0.545000 600 36 1.000000 0.051000 0.051000 1.200000 0.028000 0.033000
1517300518065498960	600 35 0.900000 0.025000 0.023000 1000 32 0.900000 0.582000 0.562000 600 35 1.000000 0.051000 0.051000 1.200000 0.033000 0.039000
1517300518573434085	600 35 0.900000 0.025000 0.023000 1000 32 0.900000 0.563000 0.543000 600 35 1.000000 0.052000 0.052000 1.200000 0.025000 0.030000
1517300519080937377	600 35 0.900000 0.025000 0.023000 1000 31 0.900000 0.563000 0.543000 600 35 1.000000 0.051000 0.051000 1.200000 0.025000 0.030000
1517300519588287502	600 35 0.900000 0.025000 0.023000 1000 32 0.900000 0.560000 0.540000 600 35 1.000000 0.051000 0.051000 1.200000 0.025000 0.030000
1517300520095091252	600 35 0.900000 0.024000 0.022000 1000 31 0.900000 0.564000 0.544000 600 35 1.000000 0.051000 0.051000 1.200000 0.025000 0.030000
1517300520601715002	600 35 0.900000 0.024000 0.022000 1000 31 0.900000 0.550000 0.531000 600 35 1.000000 0.051000 0.051000 1.200000 0.026000 0.031000
1517300521108387169	600 35 0.900000 0.024000 0.022000 1000 31 0.900000 0.552000 0.533000 600 35 1.000000 0.051000 0.051000 1.200000 0.025000 0.030000
1517300521615041127	600 35 0.900000 0.024000 0.022000 1000 31 0.900000 0.552000 0.533000 600 35 1.000000 0.051000 0.051000 1.200000 0.025000 0.030000
1517300522121789086	600 35 0.900000 0.024000 0.022000 1000 31 0.900000 0.597000 0.576000 600 35 1.000000 0.051000 0.051000 1.200000 0.029000 0.035000
1517300522628411877	600 35 0.900000 0.024000 0.022000 1000 31 0.900000 0.548000 0.529000 600 35 1.000000 0.051000 0.051000 1.200000 0.025000 0.030000
1517300523135474544	600 35 0.900000 0.024000 0.022000 1000 31 0.900000 0.565000 0.545000 600 35 1.000000 0.051000 0.051000 1.200000 0.025000 0.030000
1517300523642284752	600 35 0.900000 0.025000 0.023000 1000 31 0.900000 0.614000 0.593000 600 35 1.000000 0.052000 0.052000 1.200000 0.034000 0.041000
1517300524149016377	600 35 0.900000 0.025000 0.023000 1000 31 0.900000 0.586000 0.566000 600 35 1.000000 0.052000 0.052000 1.200000 0.028000 0.033000
1517300524655773002	600 35 0.900000 0.024000 0.022000 1000 31 0.900000 0.553000 0.534000 600 35 1.000000 0.051000 0.051000 1.200000 0.025000 0.030000
1517300525162604711	600 35 0.900000 0.024000 0.022000 1000 31 0.900000 0.564000 0.544000 600 35 1.000000 0.052000 0.052000 1.200000 0.025000 0.030000
1517300525669388503	600 35 0.900000 0.024000 0.022000 1000 31 0.900000 0.555000 0.536000 600 35 1.000000 0.051000 0.051000 1.200000 0.025000 0.030000
1517300526176117794	600 35 0.900000 0.024000 0.022000 1000 31 0.900000 0.553000 0.534000 600 35 1.000000 0.051000 0.051000 1.200000 0.025000 0.030000
1517300526682766753	600 35 0.900000 0.024000 0.022000 1000 31 0.900000 0.551000 0.532000 600 35 1.000000 0.051000 0.051000 1.200000 0.025000 0.030000
1517300527189459794	600 35 0.900000 0.024000 0.022000 1000 31 0.900000 0.550000 0.531000 600 35 1.000000 0.051000 0.051000 1.200000 0.027000 0.032000
1517300527696340711	600 35 0.900000 0.025000 0.023000 1000 31 0.900000 0.575000 0.555000 600 35 1.000000 0.051000 0.051000 1.200000 0.025000 0.030000
1517300528202934336	600 34 0.900000 0.024000 0.022000 1000 31 0.900000 0.550000 0.531000 600 35 1.000000 0.051000 0.051000 1.200000 0.029000 0.035000
1517300528709381961	600 34 0.900000 0.024000 0.022000 1000 31 0.900000 0.551000 0.532000 600 35 1.000000 0.051000 0.051000 1.200000 0.026000 0.031000
1517300529216567170	600 34 0.900000 0.024000 0.022000 1000 31 0.900000 0.609000 0.588000 600 35 1.000000 0.052000 0.052000 1.200000 0.025000 0.030000
1517300529723278503	600 35 0.900000 0.025000 0.023000 1000 31 0.900000 0.591000 0.570000 600 35 1.000000 0.051000 0.051000 1.200000 0.032000 0.038000
1517300530229872503	600 34 0.900000 0.024000 0.022000 1000 31 0.900000 0.554000 0.535000 600 35 1.000000 0.052000 0.052000 1.200000 0.026000 0.031000
1517300530736369503	600 34 0.900000 0.024000 0.022000 1000 31 0.900000 0.563000 0.543000 600 35 1.000000 0.052000 0.052000 1.200000 0.025000 0.030000
1517300531242913587	600 34 0.900000 0.024000 0.022000 1000 31 0.900000 0.557000 0.538000 600 35 1.000000 0.051000 0.051000 1.200000 0.026000 0.031000
1517300531749507837	600 34 0.900000 0.025000 0.023000 1000 31 0.900000 0.552000 0.533000 600 35 1.000000 0.052000 0.052000 1.200000 0.026000 0.031000
1517300532256025212	600 34 0.900000 0.024000 0.022000 1000 31 0.900000 0.552000 0.533000 600 35 1.000000 0.051000 0.051000 1.200000 0.025000 0.030000
1517300532762628587	600 34 0.900000 0.024000 0.022000 1000 31 0.900000 0.548000 0.529000 600 35 1.000000 0.052000 0.052000 1.200000 0.025000 0.030000
1517300533269194420	600 34 0.900000 0.024000 0.022000 1000 31 0.900000 0.549000 0.530000 600 35 1.000000 0.052000 0.052000 1.200000 0.025000 0.030000
1517300533775961837	600 35 0.900000 0.029000 0.027000 1000 31 0.900000 0.613000 0.592000 600 35 1.000000 0.052000 0.052000 1.200000 0.034000 0.041000
1517300534282555379	600 35 0.900000 0.024000 0.022000 1000 31 0.900000 0.550000 0.531000 600 35 1.000000 0.051000 0.051000 1.200000 0.026000 0.031000
1517300534789286879	600 34 0.900000 0.024000 0.022000 1000 31 0.900000 0.641000 0.619000 600 35 1.000000 0.052000 0.052000 1.200000 0.028000 0.033000
1517300535296028629	600 34 0.900000 0.025000 0.023000 1000 31 0.900000 0.568000 0.548000 600 35 1.000000 0.051000 0.051000 1.200000 0.033000 0.039000
1517300535802650212	600 34 0.900000 0.025000 0.023000 1000 31 0.900000 0.580000 0.560000 600 35 1.000000 0.051000 0.051000 1.200000 0.033000 0.039000
1517300536309645462	600 32 0.900000 0.025000 0.023000 1000 31 0.900000 0.555000 0.536000 600 35 1.000000 0.052000 0.052000 1.200000 0.026000 0.031000
1517300536816731421	600 31 0.900000 0.040000 0.038000 1000 30 0.900000 0.123000 0.119000 600 34 1.000000 0.051000 0.051000 1.200000 0.040000 0.048000
