#Timestamp	CPU(0) Frequency(MHz)	CPU(0) Temperature(C)	A7 Voltage(V)	A7 Current(A)	A7 Power(W)	CPU(4) Frequency(MHz)	CPU(4) Temperature(C)	A15 Voltage(V)	A15 Current(A)	A15 Power(W)	GPU Frequency(MHz)	GPU Temperature(C)	GPU Voltage(V)	GPU Current(A)	GPU Power(W)	RAM Voltage(V)	RAM Current(A)	RAM Power(W)
1553866399867930181	900 33 1.000000 0.099000 0.105000 1100 30 0.900000 0.349000 0.348000 600 34 1.000000 0.052000 0.052000 1.200000 0.058000 0.070000
1553866400406756598	900 33 1.000000 0.058000 0.061000 1100 31 0.900000 0.516000 0.514000 600 35 1.000000 0.051000 0.051000 1.200000 0.076000 0.092000
1553866400924625515	900 34 1.000000 0.058000 0.061000 1100 31 0.900000 0.527000 0.525000 600 36 1.000000 0.051000 0.051000 1.200000 0.074000 0.089000
1553866401435602931	900 34 1.000000 0.058000 0.061000 1100 32 0.900000 0.529000 0.527000 600 36 1.000000 0.051000 0.051000 1.200000 0.073000 0.088000
1553866401946364056	900 34 1.000000 0.090000 0.095000 1100 32 0.900000 0.518000 0.516000 600 36 1.000000 0.051000 0.051000 1.200000 0.083000 0.100000
1553866402455958432	900 34 1.000000 0.061000 0.064000 1100 32 0.900000 0.479000 0.477000 600 37 1.000000 0.052000 0.052000 1.200000 0.083000 0.100000
1553866402965534515	900 34 1.000000 0.053000 0.056000 1100 32 0.900000 0.855000 0.848000 600 37 1.000000 0.052000 0.052000 1.200000 0.048000 0.058000
1553866403474884557	900 34 1.000000 0.042000 0.044000 1100 32 0.900000 0.788000 0.781000 600 37 1.000000 0.052000 0.052000 1.200000 0.047000 0.056000
1553866403984559390	900 34 1.000000 0.043000 0.045000 1100 32 0.900000 0.787000 0.780000 600 38 1.000000 0.051000 0.051000 1.200000 0.047000 0.056000
1553866404493944140	900 34 1.000000 0.057000 0.060000 1100 32 0.900000 0.783000 0.776000 600 38 1.000000 0.052000 0.052000 1.200000 0.054000 0.065000
1553866405003626015	900 34 1.000000 0.063000 0.066000 1100 32 0.900000 0.790000 0.783000 600 38 1.000000 0.052000 0.052000 1.200000 0.048000 0.057000
1553866405513167224	900 34 1.000000 0.043000 0.045000 1100 32 0.900000 0.783000 0.776000 600 38 1.000000 0.051000 0.051000 1.200000 0.046000 0.055000
1553866406037664349	900 34 1.000000 0.040000 0.042000 1100 32 0.900000 0.782000 0.775000 600 38 1.000000 0.052000 0.052000 1.200000 0.045000 0.054000
1553866406547238015	900 34 1.000000 0.058000 0.061000 1100 33 0.900000 0.775000 0.768000 600 38 1.000000 0.052000 0.052000 1.200000 0.059000 0.071000
1553866407058081349	900 36 1.000000 0.064000 0.067000 1100 33 0.900000 0.790000 0.783000 600 41 1.000000 0.052000 0.052000 1.200000 0.051000 0.061000
1553866407569053974	900 38 1.000000 0.195000 0.206000 1100 34 0.900000 1.587000 1.580000 600 41 1.000000 0.052000 0.052000 1.200000 0.084000 0.101000
1553866408085466057	900 40 1.000000 0.224000 0.236000 1100 35 0.900000 1.522000 1.514000 600 43 1.000000 0.052000 0.052000 1.200000 0.058000 0.070000
1553866408597582557	900 40 1.000000 0.289000 0.302000 1100 35 0.900000 1.693000 1.686000 600 45 1.000000 0.052000 0.052000 1.200000 0.094000 0.113000
1553866409108935432	900 41 1.000000 0.290000 0.303000 1100 36 0.900000 1.660000 1.653000 600 46 1.000000 0.052000 0.052000 1.200000 0.074000 0.089000
1553866409628780391	900 43 1.000000 0.270000 0.282000 1100 37 0.900000 1.833000 1.827000 600 47 1.000000 0.052000 0.052000 1.200000 0.071000 0.085000
1553866410140599057	900 43 1.000000 0.262000 0.275000 1100 37 0.900000 2.192000 2.187000 600 46 1.000000 0.052000 0.052000 1.200000 0.086000 0.104000
1553866410665353432	900 43 1.000000 0.267000 0.279000 1100 38 0.900000 1.959000 1.953000 600 48 1.000000 0.052000 0.052000 1.200000 0.084000 0.101000
1553866411198348224	900 44 1.000000 0.294000 0.308000 1100 38 0.900000 2.179000 2.174000 600 47 1.000000 0.053000 0.053000 1.200000 0.121000 0.146000
1553866411721459933	900 44 1.000000 0.276000 0.289000 1100 38 0.900000 2.020000 2.015000 600 49 1.000000 0.053000 0.053000 1.200000 0.103000 0.124000
1553866412234600724	900 45 1.000000 0.252000 0.264000 1100 39 0.900000 2.151000 2.146000 600 49 1.000000 0.053000 0.053000 1.200000 0.083000 0.100000
1553866412763388224	900 45 1.000000 0.273000 0.286000 1100 39 0.900000 2.208000 2.203000 600 47 1.000000 0.053000 0.053000 1.200000 0.093000 0.112000
1553866413297506266	900 45 1.000000 0.292000 0.306000 1100 39 0.900000 1.851000 1.845000 600 49 1.000000 0.053000 0.053000 1.200000 0.088000 0.106000
1553866413810050350	900 45 1.000000 0.236000 0.248000 1100 39 0.900000 2.216000 2.211000 600 50 1.000000 0.053000 0.053000 1.200000 0.114000 0.138000
1553866414322751725	900 45 1.000000 0.250000 0.262000 1100 39 0.900000 2.250000 2.245000 600 50 1.000000 0.053000 0.053000 1.200000 0.090000 0.108000
1553866414836600683	900 46 1.000000 0.272000 0.285000 1100 40 0.900000 2.045000 2.040000 600 50 1.000000 0.053000 0.053000 1.200000 0.096000 0.116000
1553866415363546058	900 46 1.000000 0.266000 0.278000 1100 40 0.900000 2.180000 2.175000 600 50 1.000000 0.053000 0.053000 1.200000 0.080000 0.096000
1553866415882907766	900 46 1.000000 0.298000 0.312000 1100 40 0.900000 2.127000 2.122000 600 50 1.000000 0.053000 0.053000 1.200000 0.101000 0.122000
1553866416412254433	900 46 1.000000 0.278000 0.291000 1100 40 0.900000 2.106000 2.101000 600 51 1.000000 0.053000 0.053000 1.200000 0.103000 0.124000
1553866416926317350	900 46 1.000000 0.236000 0.248000 1100 40 0.900000 2.258000 2.253000 600 51 1.000000 0.053000 0.053000 1.200000 0.097000 0.117000
1553866417448895350	900 46 1.000000 0.230000 0.241000 1100 41 0.900000 2.227000 2.222000 600 51 1.000000 0.053000 0.053000 1.200000 0.102000 0.123000
1553866417960937517	900 46 1.000000 0.298000 0.312000 1100 41 0.900000 2.065000 2.060000 600 51 1.000000 0.053000 0.053000 1.200000 0.109000 0.132000
1553866418472839725	900 46 1.000000 0.265000 0.277000 1100 41 0.900000 1.690000 1.683000 600 51 1.000000 0.053000 0.053000 1.200000 0.076000 0.092000
1553866418986227767	900 46 1.000000 0.260000 0.273000 1100 41 0.900000 2.267000 2.262000 600 50 1.000000 0.053000 0.053000 1.200000 0.086000 0.104000
1553866419526948850	900 46 1.000000 0.270000 0.282000 1100 41 0.900000 2.079000 2.074000 600 51 1.000000 0.053000 0.053000 1.200000 0.104000 0.126000
1553866420038470850	900 43 1.000000 0.264000 0.277000 1100 40 0.900000 1.277000 1.270000 600 46 1.000000 0.053000 0.053000 1.200000 0.086000 0.104000
1553866420549957517	900 43 1.000000 0.253000 0.265000 1100 40 0.900000 1.680000 1.673000 600 50 1.000000 0.053000 0.053000 1.200000 0.103000 0.124000
1553866421061033725	900 42 1.000000 0.199000 0.210000 1100 39 0.900000 0.968000 0.964000 600 46 1.000000 0.053000 0.053000 1.200000 0.064000 0.077000
1553866421594792892	900 41 1.000000 0.203000 0.214000 1100 38 0.900000 0.644000 0.641000 600 43 1.000000 0.053000 0.053000 1.200000 0.053000 0.064000
1553866422117142726	900 41 1.000000 0.235000 0.247000 1100 38 0.900000 0.732000 0.729000 600 43 1.000000 0.052000 0.052000 1.200000 0.054000 0.065000
1553866422632766101	900 40 1.000000 0.261000 0.274000 1100 38 0.900000 0.629000 0.627000 600 43 1.000000 0.053000 0.053000 1.200000 0.067000 0.081000
1553866423143469851	900 39 1.000000 0.125000 0.132000 1100 37 0.900000 0.917000 0.909000 600 43 1.000000 0.053000 0.053000 1.200000 0.044000 0.053000
1553866423658657559	900 39 1.000000 0.201000 0.212000 1100 37 0.900000 0.806000 0.802000 600 43 1.000000 0.053000 0.053000 1.200000 0.051000 0.061000
1553866424174914517	900 42 1.000000 0.266000 0.279000 1100 38 0.900000 1.061000 1.057000 600 46 1.000000 0.052000 0.052000 1.200000 0.067000 0.081000
1553866424685581767	900 43 1.000000 0.248000 0.260000 1100 38 0.900000 2.205000 2.200000 600 48 1.000000 0.053000 0.053000 1.200000 0.102000 0.123000
1553866425198346559	900 41 1.000000 0.244000 0.256000 1100 38 0.900000 1.173000 1.167000 600 48 1.000000 0.053000 0.053000 1.200000 0.063000 0.076000
1553866425710812601	900 44 1.000000 0.242000 0.254000 1100 39 0.900000 1.654000 1.647000 600 49 1.000000 0.053000 0.053000 1.200000 0.081000 0.098000
1553866426222944559	900 43 1.000000 0.282000 0.295000 1100 39 0.900000 1.680000 1.673000 600 48 1.000000 0.053000 0.053000 1.200000 0.081000 0.098000
1553866426734396268	900 42 1.000000 0.264000 0.276000 1100 39 0.900000 1.664000 1.657000 600 47 1.000000 0.053000 0.053000 1.200000 0.087000 0.105000
1553866427246444934	900 42 1.000000 0.212000 0.223000 1100 39 0.900000 1.423000 1.417000 600 47 1.000000 0.053000 0.053000 1.200000 0.101000 0.122000
1553866427765626601	900 42 1.000000 0.248000 0.260000 1100 39 0.900000 1.530000 1.522000 600 46 1.000000 0.053000 0.053000 1.200000 0.085000 0.102000
1553866428277283643	900 42 1.000000 0.214000 0.225000 1100 38 0.900000 1.012000 1.004000 600 44 1.000000 0.053000 0.053000 1.200000 0.060000 0.072000
1553866428798941060	900 40 1.000000 0.234000 0.246000 1100 38 0.900000 0.695000 0.692000 600 43 1.000000 0.053000 0.053000 1.200000 0.059000 0.071000
1553866429313920851	900 39 1.000000 0.158000 0.167000 1100 37 0.900000 0.835000 0.829000 600 43 1.000000 0.052000 0.052000 1.200000 0.061000 0.073000
1553866429825082601	900 40 1.000000 0.150000 0.159000 1100 37 0.900000 0.588000 0.586000 600 42 1.000000 0.052000 0.052000 1.200000 0.052000 0.062000
1553866430336858060	900 39 1.000000 0.235000 0.247000 1100 37 0.900000 0.483000 0.482000 600 42 1.000000 0.052000 0.052000 1.200000 0.059000 0.071000
1553866430848089602	900 39 1.000000 0.223000 0.235000 1100 37 0.900000 0.589000 0.587000 600 41 1.000000 0.052000 0.052000 1.200000 0.051000 0.061000
1553866431359960393	900 39 1.000000 0.226000 0.238000 1100 37 0.900000 0.741000 0.738000 600 42 1.000000 0.052000 0.052000 1.200000 0.073000 0.088000
1553866431872439768	900 40 1.000000 0.226000 0.238000 1100 37 0.900000 1.065000 1.059000 600 45 1.000000 0.052000 0.052000 1.200000 0.073000 0.088000
1553866432384605227	900 43 1.000000 0.266000 0.278000 1100 38 0.900000 1.888000 1.882000 600 44 1.000000 0.052000 0.052000 1.200000 0.097000 0.117000
1553866432897278560	900 43 1.000000 0.268000 0.280000 1100 38 0.900000 1.159000 1.150000 600 45 1.000000 0.053000 0.053000 1.200000 0.066000 0.079000
1553866433424295102	900 43 1.000000 0.284000 0.297000 1100 39 0.900000 1.514000 1.506000 600 45 1.000000 0.052000 0.052000 1.200000 0.084000 0.101000
1553866433940936394	900 44 1.000000 0.266000 0.278000 1100 39 0.900000 1.918000 1.912000 600 46 1.000000 0.052000 0.052000 1.200000 0.080000 0.096000
1553866434452831227	900 45 1.000000 0.266000 0.278000 1100 39 0.900000 2.001000 1.994000 600 48 1.000000 0.053000 0.053000 1.200000 0.112000 0.135000
1553866434980144977	900 44 1.000000 0.271000 0.284000 1100 39 0.900000 1.156000 1.151000 600 46 1.000000 0.053000 0.053000 1.200000 0.074000 0.089000
1553866435509606435	900 43 1.000000 0.262000 0.275000 1100 39 0.900000 1.421000 1.415000 600 47 1.000000 0.053000 0.053000 1.200000 0.073000 0.088000
1553866436022003686	900 41 1.000000 0.244000 0.256000 1100 38 0.900000 0.887000 0.883000 600 44 1.000000 0.053000 0.053000 1.200000 0.051000 0.061000
1553866436533457644	900 40 1.000000 0.172000 0.182000 1100 38 0.900000 0.768000 0.766000 600 43 1.000000 0.053000 0.053000 1.200000 0.052000 0.062000
1553866437044384727	900 40 1.000000 0.185000 0.195000 1100 37 0.900000 0.883000 0.878000 600 43 1.000000 0.052000 0.052000 1.200000 0.049000 0.059000
1553866437556918894	900 39 1.000000 0.124000 0.131000 1100 37 0.900000 0.743000 0.740000 600 42 1.000000 0.053000 0.053000 1.200000 0.045000 0.054000
1553866438068178602	900 39 1.000000 0.230000 0.242000 1100 37 0.900000 0.757000 0.753000 600 42 1.000000 0.053000 0.053000 1.200000 0.062000 0.075000
1553866438580131811	900 40 1.000000 0.202000 0.213000 1100 37 0.900000 0.770000 0.764000 600 42 1.000000 0.052000 0.052000 1.200000 0.049000 0.059000
1553866439092723519	900 39 1.000000 0.202000 0.213000 1100 37 0.900000 1.012000 1.003000 600 42 1.000000 0.053000 0.053000 1.200000 0.054000 0.065000
1553866439605215686	900 42 1.000000 0.267000 0.279000 1100 37 0.900000 0.757000 0.753000 600 46 1.000000 0.052000 0.052000 1.200000 0.081000 0.098000
1553866440127206019	900 41 1.000000 0.272000 0.285000 1100 38 0.900000 1.923000 1.917000 600 44 1.000000 0.052000 0.052000 1.200000 0.079000 0.095000
1553866440645012519	900 43 1.000000 0.249000 0.261000 1100 38 0.900000 0.697000 0.694000 600 47 1.000000 0.052000 0.052000 1.200000 0.090000 0.109000
1553866441156864228	900 42 1.000000 0.262000 0.275000 1100 38 0.900000 1.871000 1.863000 600 44 1.000000 0.053000 0.053000 1.200000 0.068000 0.082000
1553866441672645561	900 43 1.000000 0.270000 0.282000 1100 38 0.900000 0.811000 0.808000 600 46 1.000000 0.053000 0.053000 1.200000 0.062000 0.075000
1553866442202747686	900 41 1.000000 0.256000 0.268000 1100 38 0.900000 1.659000 1.652000 600 44 1.000000 0.053000 0.053000 1.200000 0.066000 0.079000
1553866442716562436	900 40 1.000000 0.302000 0.316000 1100 38 0.900000 0.797000 0.793000 600 43 1.000000 0.053000 0.053000 1.200000 0.073000 0.088000
1553866443228674936	900 41 1.000000 0.231000 0.243000 1100 38 0.900000 0.767000 0.761000 600 43 1.000000 0.053000 0.053000 1.200000 0.052000 0.062000
1553866443740687603	900 40 1.000000 0.230000 0.242000 1100 37 0.900000 0.835000 0.831000 600 42 1.000000 0.053000 0.053000 1.200000 0.056000 0.067000
1553866444252716561	900 39 1.000000 0.209000 0.220000 1100 37 0.900000 0.697000 0.694000 600 42 1.000000 0.053000 0.053000 1.200000 0.055000 0.066000
1553866444782084562	900 40 1.000000 0.293000 0.307000 1100 37 0.900000 0.586000 0.584000 600 42 1.000000 0.053000 0.053000 1.200000 0.057000 0.068000
1553866445306489437	900 41 1.000000 0.271000 0.284000 1100 37 0.900000 0.700000 0.697000 600 44 1.000000 0.052000 0.052000 1.200000 0.063000 0.076000
1553866445818306145	900 41 1.000000 0.266000 0.278000 1100 38 0.900000 1.863000 1.855000 600 46 1.000000 0.053000 0.053000 1.200000 0.099000 0.119000
1553866446330469603	900 41 1.000000 0.266000 0.278000 1100 38 0.900000 1.108000 1.100000 600 46 1.000000 0.053000 0.053000 1.200000 0.064000 0.077000
1553866446877362020	900 44 1.000000 0.279000 0.292000 1100 39 0.900000 1.744000 1.737000 600 48 1.000000 0.052000 0.052000 1.200000 0.093000 0.112000
1553866447396260729	900 44 1.000000 0.301000 0.315000 1100 39 0.900000 2.017000 2.010000 600 47 1.000000 0.053000 0.053000 1.200000 0.115000 0.139000
1553866447906979895	900 42 1.000000 0.270000 0.282000 1100 39 0.900000 0.986000 0.981000 600 44 1.000000 0.053000 0.053000 1.200000 0.067000 0.081000
1553866448417440520	900 41 1.000000 0.198000 0.209000 1100 38 0.900000 0.867000 0.860000 600 44 1.000000 0.053000 0.053000 1.200000 0.055000 0.066000
1553866448927948354	900 40 1.000000 0.139000 0.147000 1100 37 0.900000 0.959000 0.952000 600 44 1.000000 0.053000 0.053000 1.200000 0.052000 0.062000
1553866449438166770	900 39 1.000000 0.124000 0.131000 1100 37 0.900000 1.020000 1.012000 600 43 1.000000 0.053000 0.053000 1.200000 0.046000 0.055000
1553866449948588687	900 39 1.000000 0.135000 0.143000 1100 37 0.900000 0.947000 0.939000 600 43 1.000000 0.052000 0.052000 1.200000 0.057000 0.068000
1553866450459793146	900 40 1.000000 0.122000 0.129000 1100 37 0.900000 0.902000 0.894000 600 43 1.000000 0.053000 0.053000 1.200000 0.044000 0.053000
1553866450971184312	900 40 1.000000 0.274000 0.287000 1100 37 0.900000 0.652000 0.649000 600 42 1.000000 0.052000 0.052000 1.200000 0.059000 0.071000
1553866451495506187	900 43 1.000000 0.267000 0.280000 1100 38 0.900000 0.675000 0.672000 600 45 1.000000 0.053000 0.053000 1.200000 0.056000 0.067000
1553866452009799562	900 43 1.000000 0.281000 0.294000 1100 38 0.900000 1.828000 1.820000 600 44 1.000000 0.053000 0.053000 1.200000 0.099000 0.119000
1553866452522912479	900 42 1.000000 0.266000 0.278000 1100 38 0.900000 1.292000 1.282000 600 46 1.000000 0.053000 0.053000 1.200000 0.065000 0.078000
1553866453043570521	900 44 1.000000 0.269000 0.281000 1100 39 0.900000 2.073000 2.066000 600 48 1.000000 0.052000 0.052000 1.200000 0.108000 0.131000
1553866453558374938	900 42 1.000000 0.267000 0.279000 1100 39 0.900000 1.578000 1.571000 600 45 1.000000 0.053000 0.053000 1.200000 0.088000 0.106000
1553866454070479896	900 41 1.000000 0.254000 0.267000 1100 38 0.900000 0.872000 0.867000 600 44 1.000000 0.053000 0.053000 1.200000 0.084000 0.101000
1553866454581710979	900 41 1.000000 0.271000 0.284000 1100 38 0.900000 0.820000 0.816000 600 43 1.000000 0.052000 0.052000 1.200000 0.061000 0.073000
1553866455092519479	900 41 1.000000 0.224000 0.236000 1100 38 0.900000 0.928000 0.923000 600 43 1.000000 0.053000 0.053000 1.200000 0.058000 0.070000
1553866455603385396	900 40 1.000000 0.249000 0.261000 1100 37 0.900000 0.658000 0.656000 600 43 1.000000 0.053000 0.053000 1.200000 0.059000 0.071000
1553866456114142438	900 40 1.000000 0.213000 0.224000 1100 37 0.900000 0.820000 0.815000 600 43 1.000000 0.052000 0.052000 1.200000 0.055000 0.066000
1553866456625195855	900 39 1.000000 0.210000 0.221000 1100 37 0.900000 0.876000 0.871000 600 42 1.000000 0.053000 0.053000 1.200000 0.052000 0.062000
1553866457148595063	900 42 1.000000 0.269000 0.281000 1100 37 0.900000 0.677000 0.675000 600 44 1.000000 0.053000 0.053000 1.200000 0.059000 0.071000
1553866457660138480	900 44 1.000000 0.286000 0.299000 1100 38 0.900000 2.222000 2.217000 600 46 1.000000 0.053000 0.053000 1.200000 0.096000 0.116000
1553866458181754355	900 44 1.000000 0.270000 0.282000 1100 39 0.900000 1.764000 1.756000 600 44 1.000000 0.053000 0.053000 1.200000 0.081000 0.098000
1553866458698830897	900 45 1.000000 0.292000 0.306000 1100 39 0.900000 1.331000 1.324000 600 48 1.000000 0.053000 0.053000 1.200000 0.091000 0.110000
1553866459210517230	900 45 1.000000 0.260000 0.272000 1100 39 0.900000 2.187000 2.182000 600 48 1.000000 0.053000 0.053000 1.200000 0.097000 0.117000
1553866459722134522	900 45 1.000000 0.264000 0.276000 1100 40 0.900000 1.836000 1.828000 600 50 1.000000 0.053000 0.053000 1.200000 0.076000 0.092000
1553866460234382105	900 46 1.000000 0.282000 0.295000 1100 40 0.900000 2.240000 2.235000 600 50 1.000000 0.053000 0.053000 1.200000 0.104000 0.126000
1553866460746103188	900 45 1.000000 0.265000 0.278000 1100 40 0.900000 2.040000 2.033000 600 51 1.000000 0.053000 0.053000 1.200000 0.097000 0.117000
1553866461257792397	900 46 1.000000 0.269000 0.281000 1100 41 0.900000 1.899000 1.893000 600 51 1.000000 0.053000 0.053000 1.200000 0.087000 0.105000
1553866461769505397	900 47 1.000000 0.271000 0.284000 1100 41 0.900000 2.199000 2.194000 600 50 1.000000 0.053000 0.053000 1.200000 0.085000 0.102000
1553866462280873897	900 47 1.000000 0.257000 0.270000 1100 41 0.900000 1.881000 1.873000 600 51 1.000000 0.053000 0.053000 1.200000 0.085000 0.102000
1553866462792448064	900 44 1.000000 0.259000 0.271000 1100 41 0.900000 2.018000 2.011000 600 48 1.000000 0.053000 0.053000 1.200000 0.083000 0.100000
1553866463304507355	900 47 1.000000 0.259000 0.271000 1100 41 0.900000 1.425000 1.417000 600 50 1.000000 0.053000 0.053000 1.200000 0.077000 0.093000
1553866463828348147	900 43 1.000000 0.272000 0.285000 1100 40 0.900000 1.058000 1.050000 600 47 1.000000 0.053000 0.053000 1.200000 0.081000 0.098000
1553866464344275606	900 43 1.000000 0.260000 0.273000 1100 40 0.900000 0.989000 0.982000 600 46 1.000000 0.053000 0.053000 1.200000 0.068000 0.082000
1553866464867529897	900 43 1.000000 0.200000 0.211000 1100 40 0.900000 1.240000 1.231000 600 46 1.000000 0.053000 0.053000 1.200000 0.062000 0.075000
1553866465383996814	900 42 1.000000 0.188000 0.198000 1100 39 0.900000 0.890000 0.883000 600 44 1.000000 0.053000 0.053000 1.200000 0.066000 0.079000
1553866465916925981	900 41 1.000000 0.121000 0.128000 1100 39 0.900000 0.925000 0.917000 600 45 1.000000 0.053000 0.053000 1.200000 0.046000 0.055000
1553866466429449147	900 41 1.000000 0.162000 0.171000 1100 38 0.900000 0.439000 0.438000 600 44 1.000000 0.053000 0.053000 1.200000 0.049000 0.059000
1553866466940759898	900 40 1.000000 0.256000 0.269000 1100 38 0.900000 0.592000 0.590000 600 43 1.000000 0.053000 0.053000 1.200000 0.052000 0.062000
1553866467452200148	900 40 1.000000 0.254000 0.266000 1100 38 0.900000 0.895000 0.887000 600 43 1.000000 0.052000 0.052000 1.200000 0.075000 0.090000
1553866467991127189	900 41 1.000000 0.226000 0.238000 1100 38 0.900000 0.534000 0.532000 600 43 1.000000 0.052000 0.052000 1.200000 0.056000 0.067000
1553866468502377939	900 44 1.000000 0.259000 0.272000 1100 39 0.900000 1.743000 1.736000 600 47 1.000000 0.053000 0.053000 1.200000 0.098000 0.118000
1553866469013860439	900 44 1.000000 0.255000 0.268000 1100 39 0.900000 1.752000 1.744000 600 46 1.000000 0.053000 0.053000 1.200000 0.077000 0.093000
1553866469539379940	900 45 1.000000 0.278000 0.291000 1100 40 0.900000 1.777000 1.769000 600 49 1.000000 0.053000 0.053000 1.200000 0.099000 0.119000
1553866470078874481	900 44 1.000000 0.261000 0.274000 1100 40 0.900000 1.481000 1.473000 600 49 1.000000 0.053000 0.053000 1.200000 0.079000 0.095000
1553866470594555273	900 46 1.000000 0.261000 0.273000 1100 40 0.900000 2.151000 2.146000 600 50 1.000000 0.053000 0.053000 1.200000 0.105000 0.127000
1553866471106607315	900 47 1.000000 0.268000 0.280000 1100 41 0.900000 2.257000 2.252000 600 51 1.000000 0.053000 0.053000 1.200000 0.101000 0.122000
1553866471630864523	900 47 1.000000 0.272000 0.285000 1100 41 0.900000 2.166000 2.161000 600 52 1.000000 0.053000 0.053000 1.200000 0.098000 0.118000
1553866472144559523	900 47 1.000000 0.279000 0.292000 1100 41 0.900000 2.124000 2.117000 600 51 1.000000 0.053000 0.053000 1.200000 0.100000 0.121000
1553866472657846565	900 47 1.000000 0.244000 0.256000 1100 41 0.900000 2.095000 2.088000 600 52 1.000000 0.053000 0.053000 1.200000 0.082000 0.099000
1553866473169640565	900 47 1.000000 0.250000 0.262000 1100 42 0.900000 2.056000 2.049000 600 51 1.000000 0.053000 0.053000 1.200000 0.088000 0.106000
1553866473681255190	900 48 1.000000 0.266000 0.279000 1100 42 0.900000 2.233000 2.228000 600 52 1.000000 0.053000 0.053000 1.200000 0.105000 0.127000
1553866474192500523	900 47 1.000000 0.267000 0.279000 1100 42 0.900000 2.190000 2.185000 600 52 1.000000 0.053000 0.053000 1.200000 0.100000 0.121000
1553866474703771690	900 47 1.000000 0.285000 0.298000 1100 42 0.900000 1.546000 1.538000 600 52 1.000000 0.053000 0.053000 1.200000 0.094000 0.113000
1553866475215194607	900 46 1.000000 0.272000 0.285000 1100 42 0.900000 1.959000 1.951000 600 52 1.000000 0.053000 0.053000 1.200000 0.072000 0.087000
1553866475726753732	900 47 1.000000 0.268000 0.280000 1100 42 0.900000 1.957000 1.951000 600 52 1.000000 0.053000 0.053000 1.200000 0.081000 0.098000
1553866476251584190	900 47 1.000000 0.264000 0.276000 1100 42 0.900000 2.096000 2.089000 600 52 1.000000 0.053000 0.053000 1.200000 0.088000 0.106000
1553866476773685065	900 48 1.000000 0.287000 0.300000 1100 42 0.900000 1.953000 1.947000 600 52 1.000000 0.053000 0.053000 1.200000 0.097000 0.117000
1553866477296935357	900 48 1.000000 0.270000 0.282000 1100 42 0.900000 2.198000 2.193000 600 53 1.000000 0.053000 0.053000 1.200000 0.088000 0.106000
1553866477817694274	900 48 1.000000 0.247000 0.259000 1100 42 0.900000 2.168000 2.163000 600 52 1.000000 0.053000 0.053000 1.200000 0.078000 0.094000
1553866478330087774	900 46 1.000000 0.265000 0.278000 1100 42 0.900000 2.173000 2.166000 600 53 1.000000 0.053000 0.053000 1.200000 0.084000 0.101000
1553866478847329316	900 46 1.000000 0.279000 0.292000 1100 42 0.900000 1.529000 1.521000 600 52 1.000000 0.053000 0.053000 1.200000 0.088000 0.106000
1553866479359308066	900 45 1.000000 0.270000 0.282000 1100 42 0.900000 1.740000 1.733000 600 48 1.000000 0.053000 0.053000 1.200000 0.093000 0.112000
1553866479870317482	900 44 1.000000 0.270000 0.282000 1100 41 0.900000 0.766000 0.763000 600 49 1.000000 0.053000 0.053000 1.200000 0.061000 0.073000
1553866480390161524	900 44 1.000000 0.271000 0.284000 1100 41 0.900000 1.372000 1.365000 600 47 1.000000 0.053000 0.053000 1.200000 0.060000 0.072000
1553866480914644024	900 43 1.000000 0.284000 0.297000 1100 40 0.900000 0.880000 0.875000 600 46 1.000000 0.053000 0.053000 1.200000 0.074000 0.089000
1553866481426863108	900 43 1.000000 0.246000 0.258000 1100 40 0.900000 0.561000 0.559000 600 45 1.000000 0.053000 0.053000 1.200000 0.055000 0.066000
1553866481938727066	900 41 1.000000 0.202000 0.213000 1100 39 0.900000 0.803000 0.799000 600 45 1.000000 0.053000 0.053000 1.200000 0.050000 0.060000
1553866482450087566	900 41 1.000000 0.205000 0.216000 1100 39 0.900000 0.911000 0.906000 600 44 1.000000 0.053000 0.053000 1.200000 0.051000 0.061000
1553866482962421941	900 42 1.000000 0.225000 0.237000 1100 39 0.900000 0.618000 0.616000 600 44 1.000000 0.053000 0.053000 1.200000 0.051000 0.061000
1553866483474333358	900 43 1.000000 0.290000 0.303000 1100 39 0.900000 0.604000 0.602000 600 46 1.000000 0.053000 0.053000 1.200000 0.082000 0.099000
1553866483986542816	900 45 1.000000 0.242000 0.254000 1100 40 0.900000 1.358000 1.353000 600 49 1.000000 0.053000 0.053000 1.200000 0.097000 0.117000
1553866484498454941	900 45 1.000000 0.240000 0.252000 1100 40 0.900000 2.051000 2.044000 600 47 1.000000 0.053000 0.053000 1.200000 0.065000 0.078000
1553866485010444025	900 46 1.000000 0.268000 0.283000 1100 40 0.900000 1.476000 1.468000 600 50 1.000000 0.053000 0.053000 1.200000 0.090000 0.108000
1553866485522807816	900 45 1.000000 0.274000 0.287000 1100 41 0.900000 1.920000 1.912000 600 47 1.000000 0.053000 0.053000 1.200000 0.099000 0.119000
1553866486035529608	900 43 1.000000 0.282000 0.295000 1100 40 0.900000 1.398000 1.388000 600 48 1.000000 0.053000 0.053000 1.200000 0.080000 0.096000
1553866486556135358	900 43 1.000000 0.267000 0.279000 1100 40 0.900000 1.122000 1.116000 600 48 1.000000 0.053000 0.053000 1.200000 0.079000 0.095000
1553866487069799858	900 46 1.000000 0.272000 0.285000 1100 41 0.900000 1.902000 1.896000 600 50 1.000000 0.053000 0.053000 1.200000 0.097000 0.117000
1553866487589646233	900 44 1.000000 0.273000 0.286000 1100 40 0.900000 2.012000 2.005000 600 46 1.000000 0.053000 0.053000 1.200000 0.103000 0.124000
1553866488101749775	900 43 1.000000 0.250000 0.263000 1100 40 0.900000 0.830000 0.826000 600 45 1.000000 0.053000 0.053000 1.200000 0.088000 0.106000
1553866488612819900	900 42 1.000000 0.123000 0.130000 1100 39 0.900000 0.929000 0.921000 600 45 1.000000 0.053000 0.053000 1.200000 0.045000 0.054000
1553866489146802400	900 41 1.000000 0.152000 0.161000 1100 39 0.900000 0.953000 0.945000 600 44 1.000000 0.053000 0.053000 1.200000 0.045000 0.054000
1553866489662291484	900 41 1.000000 0.256000 0.269000 1100 39 0.900000 0.571000 0.568000 600 45 1.000000 0.053000 0.053000 1.200000 0.060000 0.072000
1553866490173789567	900 41 1.000000 0.231000 0.243000 1100 38 0.900000 0.761000 0.757000 600 43 1.000000 0.053000 0.053000 1.200000 0.065000 0.078000
1553866490686220192	900 43 1.000000 0.266000 0.278000 1100 38 0.900000 0.564000 0.562000 600 45 1.000000 0.053000 0.053000 1.200000 0.056000 0.067000
1553866491234899817	900 44 1.000000 0.253000 0.265000 1100 39 0.900000 2.057000 2.052000 600 47 1.000000 0.053000 0.053000 1.200000 0.099000 0.119000
1553866491750768025	900 43 1.000000 0.286000 0.299000 1100 39 0.900000 1.333000 1.326000 600 46 1.000000 0.053000 0.053000 1.200000 0.077000 0.093000
1553866492303957359	900 44 1.000000 0.271000 0.284000 1100 40 0.900000 1.894000 1.888000 600 49 1.000000 0.053000 0.053000 1.200000 0.089000 0.107000
1553866492825625942	900 45 1.000000 0.260000 0.273000 1100 40 0.900000 1.584000 1.576000 600 49 1.000000 0.053000 0.053000 1.200000 0.092000 0.111000
1553866493358920234	900 45 1.000000 0.258000 0.270000 1100 40 0.900000 1.417000 1.409000 600 50 1.000000 0.053000 0.053000 1.200000 0.073000 0.088000
1553866493874718651	900 47 1.000000 0.238000 0.250000 1100 41 0.900000 1.937000 1.929000 600 51 1.000000 0.053000 0.053000 1.200000 0.090000 0.108000
1553866494412266942	900 47 1.000000 0.267000 0.279000 1100 41 0.900000 2.149000 2.144000 600 51 1.000000 0.053000 0.053000 1.200000 0.100000 0.121000
1553866494925606984	900 47 1.000000 0.259000 0.271000 1100 42 0.900000 2.264000 2.259000 600 52 1.000000 0.053000 0.053000 1.200000 0.109000 0.132000
1553866495462931193	900 48 1.000000 0.243000 0.255000 1100 42 0.900000 2.130000 2.125000 600 52 1.000000 0.053000 0.053000 1.200000 0.107000 0.129000
1553866495974725526	900 45 1.000000 0.266000 0.278000 1100 42 0.900000 1.945000 1.939000 600 52 1.000000 0.053000 0.053000 1.200000 0.085000 0.102000
1553866496486444276	900 45 1.000000 0.269000 0.281000 1100 42 0.900000 1.707000 1.700000 600 52 1.000000 0.053000 0.053000 1.200000 0.077000 0.093000
1553866496998199776	900 48 1.000000 0.274000 0.287000 1100 42 0.900000 2.003000 1.996000 600 51 1.000000 0.053000 0.053000 1.200000 0.105000 0.127000
1553866497532555943	900 48 1.000000 0.259000 0.272000 1100 42 0.900000 2.234000 2.229000 600 53 1.000000 0.053000 0.053000 1.200000 0.109000 0.132000
1553866498046916485	900 48 1.000000 0.273000 0.286000 1100 42 0.900000 2.148000 2.143000 600 52 1.000000 0.053000 0.053000 1.200000 0.113000 0.136000
1553866498558415610	900 46 1.000000 0.272000 0.285000 1100 42 0.900000 1.725000 1.718000 600 50 1.000000 0.053000 0.053000 1.200000 0.097000 0.117000
1553866499069997693	900 47 1.000000 0.269000 0.281000 1100 42 0.900000 1.380000 1.370000 600 51 1.000000 0.053000 0.053000 1.200000 0.070000 0.084000
1553866499581442193	900 48 1.000000 0.270000 0.283000 1100 42 0.900000 2.210000 2.205000 600 50 1.000000 0.053000 0.053000 1.200000 0.102000 0.123000
1553866500093041360	900 45 1.000000 0.270000 0.283000 1100 42 0.900000 1.433000 1.425000 600 51 1.000000 0.053000 0.053000 1.200000 0.074000 0.089000
1553866500604560568	900 47 1.000000 0.274000 0.287000 1100 42 0.900000 1.470000 1.462000 600 47 1.000000 0.053000 0.053000 1.200000 0.089000 0.107000
1553866501130811027	900 45 1.000000 0.248000 0.260000 1100 41 0.900000 1.007000 0.999000 600 46 1.000000 0.053000 0.053000 1.200000 0.065000 0.078000
1553866501642212943	900 43 1.000000 0.228000 0.239000 1100 40 0.900000 0.880000 0.875000 600 46 1.000000 0.053000 0.053000 1.200000 0.075000 0.090000
1553866502153524277	900 42 1.000000 0.220000 0.232000 1100 40 0.900000 0.774000 0.770000 600 45 1.000000 0.053000 0.053000 1.200000 0.057000 0.068000
1553866502665085610	900 42 1.000000 0.241000 0.253000 1100 40 0.900000 0.653000 0.650000 600 44 1.000000 0.053000 0.053000 1.200000 0.053000 0.064000
1553866503176594027	900 43 1.000000 0.272000 0.285000 1100 39 0.900000 0.718000 0.715000 600 44 1.000000 0.053000 0.053000 1.200000 0.057000 0.068000
1553866503688220069	900 45 1.000000 0.278000 0.291000 1100 40 0.900000 1.331000 1.325000 600 49 1.000000 0.053000 0.053000 1.200000 0.084000 0.101000
1553866504199715360	900 43 1.000000 0.279000 0.292000 1100 40 0.900000 1.619000 1.610000 600 47 1.000000 0.053000 0.053000 1.200000 0.084000 0.101000
1553866504711605319	900 45 1.000000 0.272000 0.285000 1100 40 0.900000 1.329000 1.319000 600 49 1.000000 0.053000 0.053000 1.200000 0.073000 0.088000
1553866505222891444	900 43 1.000000 0.263000 0.276000 1100 40 0.900000 1.441000 1.433000 600 50 1.000000 0.053000 0.053000 1.200000 0.085000 0.102000
1553866505745560277	900 43 1.000000 0.214000 0.225000 1100 40 0.900000 1.279000 1.270000 600 49 1.000000 0.053000 0.053000 1.200000 0.064000 0.077000
1553866506268808486	900 42 1.000000 0.209000 0.220000 1100 39 0.900000 1.535000 1.527000 600 49 1.000000 0.053000 0.053000 1.200000 0.071000 0.085000
1553866506780214611	900 43 1.000000 0.221000 0.233000 1100 40 0.900000 1.411000 1.403000 600 50 1.000000 0.053000 0.053000 1.200000 0.098000 0.118000
1553866507291282152	900 42 1.000000 0.218000 0.230000 1100 39 0.900000 0.728000 0.725000 600 45 1.000000 0.053000 0.053000 1.200000 0.050000 0.060000
1553866507802101152	900 41 1.000000 0.224000 0.236000 1100 39 0.900000 0.626000 0.624000 600 44 1.000000 0.053000 0.053000 1.200000 0.049000 0.059000
1553866508312925194	900 41 1.000000 0.232000 0.244000 1100 39 0.900000 0.765000 0.761000 600 44 1.000000 0.053000 0.053000 1.200000 0.064000 0.077000
1553866508824636819	900 42 1.000000 0.244000 0.256000 1100 39 0.900000 0.677000 0.674000 600 44 1.000000 0.053000 0.053000 1.200000 0.051000 0.061000
1553866509349365319	900 44 1.000000 0.218000 0.230000 1100 39 0.900000 0.861000 0.857000 600 48 1.000000 0.053000 0.053000 1.200000 0.054000 0.065000
1553866509861831861	900 45 1.000000 0.274000 0.287000 1100 40 0.900000 1.861000 1.853000 600 50 1.000000 0.053000 0.053000 1.200000 0.100000 0.121000
1553866510386719819	900 44 1.000000 0.280000 0.293000 1100 40 0.900000 2.102000 2.095000 600 48 1.000000 0.053000 0.053000 1.200000 0.076000 0.092000
1553866510916049903	900 43 1.000000 0.315000 0.329000 1100 40 0.900000 1.316000 1.309000 600 49 1.000000 0.053000 0.053000 1.200000 0.074000 0.089000
1553866511432479361	900 43 1.000000 0.271000 0.284000 1100 40 0.900000 1.114000 1.106000 600 46 1.000000 0.053000 0.053000 1.200000 0.063000 0.076000
1553866511943675486	900 43 1.000000 0.251000 0.263000 1100 40 0.900000 1.884000 1.878000 600 46 1.000000 0.053000 0.053000 1.200000 0.099000 0.119000
1553866512454902070	900 44 1.000000 0.271000 0.284000 1100 40 0.900000 1.027000 1.019000 600 46 1.000000 0.053000 0.053000 1.200000 0.060000 0.072000
1553866512973106445	900 43 1.000000 0.293000 0.307000 1100 40 0.900000 1.072000 1.066000 600 46 1.000000 0.053000 0.053000 1.200000 0.088000 0.106000
1553866513495765820	900 45 1.000000 0.271000 0.284000 1100 40 0.900000 1.905000 1.897000 600 50 1.000000 0.053000 0.053000 1.200000 0.114000 0.138000
1553866514007483736	900 45 1.000000 0.268000 0.280000 1100 40 0.900000 1.074000 1.068000 600 47 1.000000 0.053000 0.053000 1.200000 0.073000 0.088000
1553866514518810987	900 44 1.000000 0.258000 0.270000 1100 40 0.900000 1.749000 1.742000 600 48 1.000000 0.053000 0.053000 1.200000 0.102000 0.123000
1553866515029787903	900 43 1.000000 0.221000 0.232000 1100 40 0.900000 0.794000 0.788000 600 46 1.000000 0.053000 0.053000 1.200000 0.065000 0.078000
1553866515541044153	900 41 1.000000 0.221000 0.233000 1100 40 0.900000 0.659000 0.655000 600 44 1.000000 0.053000 0.053000 1.200000 0.052000 0.062000
1553866516052020403	900 41 1.000000 0.270000 0.282000 1100 39 0.900000 0.539000 0.537000 600 44 1.000000 0.053000 0.053000 1.200000 0.055000 0.066000
1553866516563214862	900 42 1.000000 0.274000 0.287000 1100 39 0.900000 0.738000 0.735000 600 44 1.000000 0.053000 0.053000 1.200000 0.057000 0.068000
1553866517106643820	900 41 1.000000 0.285000 0.298000 1100 39 0.900000 0.767000 0.763000 600 44 1.000000 0.053000 0.053000 1.200000 0.063000 0.076000
1553866517621628154	900 43 1.000000 0.285000 0.298000 1100 40 0.900000 1.374000 1.367000 600 46 1.000000 0.053000 0.053000 1.200000 0.088000 0.106000
1553866518132915320	900 44 1.000000 0.270000 0.282000 1100 40 0.900000 1.562000 1.554000 600 46 1.000000 0.053000 0.053000 1.200000 0.067000 0.081000
1553866518680671529	900 45 1.000000 0.266000 0.278000 1100 40 0.900000 1.508000 1.500000 600 49 1.000000 0.053000 0.053000 1.200000 0.096000 0.116000
1553866519206817820	900 43 1.000000 0.236000 0.248000 1100 40 0.900000 2.266000 2.261000 600 48 1.000000 0.053000 0.053000 1.200000 0.079000 0.095000
1553866519724858487	900 44 1.000000 0.292000 0.306000 1100 40 0.900000 1.086000 1.077000 600 46 1.000000 0.053000 0.053000 1.200000 0.075000 0.090000
1553866520236547862	900 46 1.000000 0.274000 0.287000 1100 41 0.900000 1.751000 1.743000 600 51 1.000000 0.053000 0.053000 1.200000 0.103000 0.124000
1553866520770980196	900 47 1.000000 0.241000 0.253000 1100 41 0.900000 2.264000 2.259000 600 51 1.000000 0.053000 0.053000 1.200000 0.081000 0.098000
1553866521283823071	900 47 1.000000 0.254000 0.266000 1100 42 0.900000 1.913000 1.907000 600 52 1.000000 0.053000 0.053000 1.200000 0.096000 0.116000
1553866521796557112	900 48 1.000000 0.293000 0.307000 1100 42 0.900000 2.142000 2.137000 600 52 1.000000 0.053000 0.053000 1.200000 0.105000 0.127000
1553866522308465404	900 47 1.000000 0.266000 0.278000 1100 42 0.900000 1.805000 1.797000 600 50 1.000000 0.053000 0.053000 1.200000 0.073000 0.088000
1553866522857188071	900 48 1.000000 0.271000 0.284000 1100 42 0.900000 1.906000 1.900000 600 52 1.000000 0.053000 0.053000 1.200000 0.090000 0.109000
1553866523384457321	900 46 1.000000 0.277000 0.290000 1100 42 0.900000 2.181000 2.176000 600 52 1.000000 0.053000 0.053000 1.200000 0.076000 0.091000
1553866523907210529	900 47 1.000000 0.269000 0.281000 1100 42 0.900000 1.900000 1.894000 600 52 1.000000 0.053000 0.053000 1.200000 0.096000 0.116000
1553866524428963988	900 48 1.000000 0.271000 0.284000 1100 42 0.900000 1.992000 1.986000 600 51 1.000000 0.053000 0.053000 1.200000 0.084000 0.101000
1553866524971244196	900 48 1.000000 0.264000 0.277000 1100 42 0.900000 2.057000 2.052000 600 53 1.000000 0.053000 0.053000 1.200000 0.086000 0.104000
1553866525483985696	900 48 1.000000 0.276000 0.289000 1100 43 0.900000 2.209000 2.204000 600 53 1.000000 0.053000 0.053000 1.200000 0.086000 0.104000
1553866526012879613	900 47 1.000000 0.256000 0.269000 1100 43 0.900000 1.910000 1.902000 600 53 1.000000 0.053000 0.053000 1.200000 0.079000 0.095000
1553866526524103863	900 47 1.000000 0.266000 0.279000 1100 42 0.900000 2.004000 1.997000 600 51 1.000000 0.053000 0.053000 1.200000 0.115000 0.139000
1553866527036613155	900 48 1.000000 0.221000 0.233000 1100 43 0.900000 1.551000 1.543000 600 52 1.000000 0.053000 0.053000 1.200000 0.074000 0.089000
1553866527548359280	900 47 1.000000 0.282000 0.296000 1100 43 0.900000 2.169000 2.164000 600 51 1.000000 0.053000 0.053000 1.200000 0.101000 0.122000
1553866528059480613	900 46 1.000000 0.262000 0.275000 1100 42 0.900000 1.648000 1.641000 600 49 1.000000 0.053000 0.053000 1.200000 0.094000 0.113000
1553866528570184322	900 44 1.000000 0.192000 0.202000 1100 41 0.900000 0.875000 0.872000 600 47 1.000000 0.053000 0.053000 1.200000 0.056000 0.067000
1553866529080967822	900 43 1.000000 0.185000 0.196000 1100 41 0.900000 0.612000 0.610000 600 45 1.000000 0.053000 0.053000 1.200000 0.055000 0.066000
1553866529591937488	900 43 1.000000 0.215000 0.227000 1100 40 0.900000 0.646000 0.644000 600 45 1.000000 0.053000 0.053000 1.200000 0.052000 0.062000
1553866530102609447	900 41 1.000000 0.202000 0.213000 1100 40 0.900000 0.764000 0.760000 600 44 1.000000 0.053000 0.053000 1.200000 0.050000 0.060000
1553866530628291530	900 43 1.000000 0.249000 0.261000 1100 40 0.900000 0.497000 0.496000 600 44 1.000000 0.053000 0.053000 1.200000 0.053000 0.064000
1553866531144456572	900 41 1.000000 0.217000 0.229000 1100 39 0.900000 0.895000 0.890000 600 45 1.000000 0.053000 0.053000 1.200000 0.064000 0.077000
1553866531655739864	900 44 1.000000 0.216000 0.228000 1100 39 0.900000 0.837000 0.833000 600 48 1.000000 0.053000 0.053000 1.200000 0.058000 0.070000
1553866532166781197	900 43 1.000000 0.271000 0.284000 1100 40 0.900000 2.071000 2.064000 600 47 1.000000 0.053000 0.053000 1.200000 0.093000 0.112000
1553866532686802405	900 43 1.000000 0.270000 0.282000 1100 40 0.900000 0.742000 0.738000 600 46 1.000000 0.053000 0.053000 1.200000 0.061000 0.073000
1553866533198561030	900 46 1.000000 0.295000 0.309000 1100 40 0.900000 1.796000 1.788000 600 49 1.000000 0.053000 0.053000 1.200000 0.117000 0.141000
1553866533709717905	900 43 1.000000 0.264000 0.277000 1100 40 0.900000 0.950000 0.945000 600 46 1.000000 0.053000 0.053000 1.200000 0.078000 0.094000
1553866534233966239	900 46 1.000000 0.227000 0.239000 1100 40 0.900000 1.317000 1.313000 600 49 1.000000 0.053000 0.053000 1.200000 0.074000 0.089000
1553866534745935406	900 44 1.000000 0.231000 0.243000 1100 41 0.900000 1.588000 1.580000 600 46 1.000000 0.053000 0.053000 1.200000 0.081000 0.098000
1553866535257527697	900 43 1.000000 0.231000 0.243000 1100 40 0.900000 0.939000 0.932000 600 46 1.000000 0.053000 0.053000 1.200000 0.061000 0.073000
1553866535768440989	900 43 1.000000 0.147000 0.155000 1100 39 0.900000 0.913000 0.905000 600 45 1.000000 0.053000 0.053000 1.200000 0.050000 0.060000
1553866536279399656	900 42 1.000000 0.126000 0.133000 1100 39 0.900000 0.857000 0.850000 600 45 1.000000 0.053000 0.053000 1.200000 0.043000 0.051000
1553866536791099823	900 41 1.000000 0.125000 0.132000 1100 39 0.900000 0.971000 0.964000 600 44 1.000000 0.053000 0.053000 1.200000 0.044000 0.053000
1553866537314611323	900 42 1.000000 0.228000 0.240000 1100 39 0.900000 0.621000 0.619000 600 45 1.000000 0.053000 0.053000 1.200000 0.055000 0.066000
1553866537832720823	900 45 1.000000 0.233000 0.245000 1100 40 0.900000 1.277000 1.271000 600 49 1.000000 0.053000 0.053000 1.200000 0.095000 0.115000
1553866538344939823	900 44 1.000000 0.272000 0.285000 1100 40 0.900000 1.744000 1.737000 600 49 1.000000 0.053000 0.053000 1.200000 0.084000 0.101000
1553866538859224073	900 46 1.000000 0.271000 0.284000 1100 40 0.900000 1.357000 1.350000 600 50 1.000000 0.053000 0.053000 1.200000 0.068000 0.082000
1553866539373445614	900 47 1.000000 0.232000 0.244000 1100 41 0.900000 2.259000 2.254000 600 48 1.000000 0.053000 0.053000 1.200000 0.093000 0.112000
1553866539899205865	900 46 1.000000 0.274000 0.287000 1100 41 0.900000 1.047000 1.039000 600 47 1.000000 0.053000 0.053000 1.200000 0.070000 0.084000
1553866540415280740	900 47 1.000000 0.270000 0.282000 1100 41 0.900000 1.997000 1.991000 600 51 1.000000 0.053000 0.053000 1.200000 0.109000 0.132000
1553866540927646781	900 45 1.000000 0.268000 0.280000 1100 41 0.900000 2.112000 2.105000 600 51 1.000000 0.053000 0.053000 1.200000 0.088000 0.106000
1553866541440766865	900 47 1.000000 0.256000 0.268000 1100 42 0.900000 1.974000 1.966000 600 52 1.000000 0.053000 0.053000 1.200000 0.077000 0.093000
1553866541953711781	900 48 1.000000 0.249000 0.261000 1100 42 0.900000 2.253000 2.248000 600 52 1.000000 0.053000 0.053000 1.200000 0.122000 0.147000
1553866542466249448	900 48 1.000000 0.302000 0.316000 1100 42 0.900000 2.216000 2.211000 600 52 1.000000 0.053000 0.053000 1.200000 0.116000 0.140000
1553866542987088282	900 48 1.000000 0.266000 0.278000 1100 43 0.900000 2.237000 2.232000 600 52 1.000000 0.053000 0.053000 1.200000 0.083000 0.100000
1553866543499506490	900 48 1.000000 0.266000 0.279000 1100 43 0.900000 1.874000 1.868000 600 53 1.000000 0.053000 0.053000 1.200000 0.087000 0.105000
1553866544039404573	900 48 1.000000 0.234000 0.246000 1100 43 0.900000 1.992000 1.986000 600 53 1.000000 0.053000 0.053000 1.200000 0.084000 0.101000
1553866544551573823	900 45 1.000000 0.287000 0.300000 1100 42 0.900000 1.699000 1.692000 600 49 1.000000 0.053000 0.053000 1.200000 0.098000 0.118000
1553866545063912199	900 47 1.000000 0.270000 0.282000 1100 42 0.900000 1.789000 1.783000 600 52 1.000000 0.053000 0.053000 1.200000 0.082000 0.099000
1553866545575633365	900 45 1.000000 0.219000 0.231000 1100 42 0.900000 1.464000 1.456000 600 52 1.000000 0.053000 0.053000 1.200000 0.070000 0.084000
1553866546106792657	900 44 1.000000 0.202000 0.213000 1100 41 0.900000 0.868000 0.863000 600 47 1.000000 0.053000 0.053000 1.200000 0.051000 0.061000
1553866546630634282	900 44 1.000000 0.262000 0.275000 1100 41 0.900000 0.688000 0.685000 600 47 1.000000 0.053000 0.053000 1.200000 0.055000 0.066000
1553866547148426282	900 46 1.000000 0.272000 0.285000 1100 41 0.900000 1.931000 1.923000 600 51 1.000000 0.053000 0.053000 1.200000 0.103000 0.124000
1553866547660720407	900 45 1.000000 0.270000 0.282000 1100 41 0.900000 1.325000 1.315000 600 51 1.000000 0.053000 0.053000 1.200000 0.070000 0.084000
1553866548203386241	900 47 1.000000 0.271000 0.284000 1100 41 0.900000 1.852000 1.846000 600 51 1.000000 0.053000 0.053000 1.200000 0.082000 0.099000
1553866548715590324	900 46 1.000000 0.251000 0.264000 1100 41 0.900000 2.089000 2.082000 600 51 1.000000 0.053000 0.053000 1.200000 0.087000 0.105000
1553866549227655866	900 45 1.000000 0.287000 0.300000 1100 41 0.900000 1.139000 1.129000 600 48 1.000000 0.053000 0.053000 1.200000 0.085000 0.102000
1553866549739882407	900 47 1.000000 0.271000 0.284000 1100 42 0.900000 2.211000 2.206000 600 52 1.000000 0.053000 0.053000 1.200000 0.098000 0.118000
1553866550252677116	900 46 1.000000 0.246000 0.258000 1100 42 0.900000 2.257000 2.252000 600 52 1.000000 0.053000 0.053000 1.200000 0.094000 0.113000
1553866550770414158	900 48 1.000000 0.281000 0.294000 1100 42 0.900000 1.746000 1.739000 600 52 1.000000 0.053000 0.053000 1.200000 0.085000 0.102000
1553866551296629741	900 48 1.000000 0.265000 0.278000 1100 43 0.900000 2.021000 2.014000 600 53 1.000000 0.053000 0.053000 1.200000 0.107000 0.129000
1553866551809249449	900 48 1.000000 0.282000 0.295000 1100 43 0.900000 2.067000 2.060000 600 53 1.000000 0.053000 0.053000 1.200000 0.098000 0.118000
1553866552321907949	900 48 1.000000 0.267000 0.279000 1100 43 0.900000 1.976000 1.970000 600 53 1.000000 0.053000 0.053000 1.200000 0.086000 0.104000
1553866552845255866	900 48 1.000000 0.287000 0.300000 1100 43 0.900000 2.119000 2.112000 600 53 1.000000 0.053000 0.053000 1.200000 0.090000 0.108000
1553866553374937741	900 47 1.000000 0.254000 0.266000 1100 43 0.900000 2.087000 2.080000 600 51 1.000000 0.053000 0.053000 1.200000 0.096000 0.116000
1553866553887292075	900 45 1.000000 0.288000 0.301000 1100 42 0.900000 1.613000 1.604000 600 50 1.000000 0.053000 0.053000 1.200000 0.092000 0.111000
1553866554399579866	900 48 1.000000 0.246000 0.258000 1100 43 0.900000 1.308000 1.298000 600 51 1.000000 0.053000 0.053000 1.200000 0.078000 0.094000
1553866554911791491	900 46 1.000000 0.275000 0.288000 1100 42 0.900000 1.628000 1.619000 600 48 1.000000 0.053000 0.053000 1.200000 0.083000 0.100000
1553866555424157950	900 46 1.000000 0.267000 0.279000 1100 42 0.900000 1.107000 1.099000 600 49 1.000000 0.053000 0.053000 1.200000 0.073000 0.088000
1553866555935609616	900 44 1.000000 0.236000 0.248000 1100 41 0.900000 1.365000 1.358000 600 47 1.000000 0.053000 0.053000 1.200000 0.067000 0.081000
1553866556446813700	900 43 1.000000 0.199000 0.210000 1100 40 0.900000 0.803000 0.798000 600 46 1.000000 0.053000 0.053000 1.200000 0.054000 0.065000
1553866556958456450	900 43 1.000000 0.145000 0.153000 1100 40 0.900000 0.844000 0.838000 600 45 1.000000 0.053000 0.053000 1.200000 0.051000 0.061000
1553866557470065742	900 41 1.000000 0.203000 0.214000 1100 40 0.900000 0.676000 0.672000 600 44 1.000000 0.053000 0.053000 1.200000 0.049000 0.059000
1553866557994081492	900 42 1.000000 0.232000 0.244000 1100 39 0.900000 0.506000 0.504000 600 44 1.000000 0.053000 0.053000 1.200000 0.056000 0.067000
1553866558506451492	900 41 1.000000 0.226000 0.238000 1100 39 0.900000 0.775000 0.771000 600 44 1.000000 0.053000 0.053000 1.200000 0.053000 0.064000
1553866559021949159	900 42 1.000000 0.267000 0.280000 1100 39 0.900000 0.627000 0.625000 600 45 1.000000 0.053000 0.053000 1.200000 0.063000 0.076000
1553866559534348242	900 45 1.000000 0.258000 0.271000 1100 40 0.900000 1.496000 1.490000 600 49 1.000000 0.053000 0.053000 1.200000 0.091000 0.110000
1553866560059526825	900 46 1.000000 0.225000 0.236000 1100 41 0.900000 2.166000 2.161000 600 48 1.000000 0.053000 0.053000 1.200000 0.074000 0.089000
1553866560571186950	900 46 1.000000 0.268000 0.280000 1100 41 0.900000 1.384000 1.377000 600 50 1.000000 0.053000 0.053000 1.200000 0.110000 0.133000
1553866561083461034	900 46 1.000000 0.246000 0.258000 1100 41 0.900000 2.264000 2.259000 600 51 1.000000 0.053000 0.053000 1.200000 0.089000 0.107000
1553866561596116659	900 47 1.000000 0.257000 0.269000 1100 42 0.900000 2.009000 2.002000 600 52 1.000000 0.053000 0.053000 1.200000 0.092000 0.111000
1553866562130109451	900 48 1.000000 0.245000 0.257000 1100 42 0.900000 2.234000 2.229000 600 52 1.000000 0.053000 0.053000 1.200000 0.090000 0.108000
1553866562649696492	900 46 1.000000 0.273000 0.286000 1100 42 0.900000 2.150000 2.145000 600 50 1.000000 0.053000 0.053000 1.200000 0.104000 0.126000
1553866563162610367	900 48 1.000000 0.269000 0.282000 1100 42 0.900000 1.653000 1.646000 600 53 1.000000 0.053000 0.053000 1.200000 0.104000 0.126000
1553866563677989492	900 48 1.000000 0.269000 0.281000 1100 43 0.900000 2.199000 2.194000 600 53 1.000000 0.053000 0.053000 1.200000 0.092000 0.111000
1553866564190537867	900 49 1.000000 0.268000 0.280000 1100 43 0.900000 2.162000 2.157000 600 53 1.000000 0.053000 0.053000 1.200000 0.096000 0.116000
1553866564713024868	900 48 1.000000 0.269000 0.281000 1100 43 0.900000 2.198000 2.193000 600 53 1.000000 0.053000 0.053000 1.200000 0.091000 0.110000
1553866565224844201	900 49 1.000000 0.279000 0.292000 1100 43 0.900000 1.828000 1.820000 600 53 1.000000 0.053000 0.053000 1.200000 0.102000 0.123000
1553866565743538076	900 49 1.000000 0.272000 0.285000 1100 43 0.900000 1.932000 1.924000 600 53 1.000000 0.053000 0.053000 1.200000 0.111000 0.134000
1553866566255413076	900 49 1.000000 0.265000 0.277000 1100 43 0.900000 2.128000 2.121000 600 54 1.000000 0.053000 0.053000 1.200000 0.090000 0.109000
1553866566767220118	900 49 1.000000 0.271000 0.284000 1100 43 0.900000 2.259000 2.254000 600 54 1.000000 0.053000 0.053000 1.200000 0.098000 0.118000
1553866567278964909	900 50 1.000000 0.276000 0.289000 1100 44 0.900000 1.770000 1.762000 600 54 1.000000 0.053000 0.053000 1.200000 0.087000 0.105000
1553866567790738576	900 47 1.000000 0.276000 0.289000 1100 43 0.900000 2.180000 2.173000 600 54 1.000000 0.053000 0.053000 1.200000 0.091000 0.110000
1553866568302517701	900 47 1.000000 0.269000 0.281000 1100 43 0.900000 1.630000 1.623000 600 53 1.000000 0.053000 0.053000 1.200000 0.078000 0.094000
1553866568814347035	900 47 1.000000 0.270000 0.282000 1100 43 0.900000 1.833000 1.827000 600 53 1.000000 0.053000 0.053000 1.200000 0.085000 0.102000
1553866569360628785	900 49 1.000000 0.247000 0.259000 1100 43 0.900000 1.983000 1.977000 600 54 1.000000 0.053000 0.053000 1.200000 0.100000 0.121000
1553866569873350826	900 49 1.000000 0.285000 0.298000 1100 43 0.900000 1.906000 1.900000 600 54 1.000000 0.053000 0.053000 1.200000 0.103000 0.124000
1553866570386053993	900 48 1.000000 0.246000 0.258000 1100 44 0.900000 2.266000 2.261000 600 54 1.000000 0.053000 0.053000 1.200000 0.103000 0.124000
1553866570898268577	900 49 1.000000 0.257000 0.270000 1100 44 0.900000 2.275000 2.270000 600 54 1.000000 0.053000 0.053000 1.200000 0.103000 0.124000
1553866571430861452	900 49 1.000000 0.263000 0.276000 1100 44 0.900000 2.225000 2.220000 600 54 1.000000 0.053000 0.053000 1.200000 0.083000 0.100000
1553866571947141243	900 50 1.000000 0.295000 0.309000 1100 44 0.900000 2.056000 2.049000 600 54 1.000000 0.053000 0.053000 1.200000 0.099000 0.119000
1553866572458621285	900 50 1.000000 0.237000 0.249000 1100 44 0.900000 2.196000 2.191000 600 55 1.000000 0.053000 0.053000 1.200000 0.101000 0.122000
1553866572970649577	900 49 1.000000 0.275000 0.288000 1100 44 0.900000 1.593000 1.585000 600 51 1.000000 0.053000 0.053000 1.200000 0.101000 0.122000
1553866573509661327	900 48 1.000000 0.272000 0.285000 1100 43 0.900000 1.156000 1.147000 600 52 1.000000 0.053000 0.053000 1.200000 0.068000 0.082000
1553866574021694702	900 46 1.000000 0.272000 0.285000 1100 43 0.900000 1.813000 1.805000 600 53 1.000000 0.054000 0.054000 1.200000 0.088000 0.106000
1553866574533834910	900 48 1.000000 0.302000 0.316000 1100 43 0.900000 1.595000 1.587000 600 53 1.000000 0.053000 0.053000 1.200000 0.096000 0.116000
1553866575045999452	900 48 1.000000 0.269000 0.281000 1100 43 0.900000 1.650000 1.643000 600 53 1.000000 0.053000 0.053000 1.200000 0.073000 0.088000
1553866575558313119	900 49 1.000000 0.269000 0.281000 1100 43 0.900000 1.910000 1.904000 600 53 1.000000 0.053000 0.053000 1.200000 0.081000 0.098000
1553866576086074369	900 49 1.000000 0.289000 0.302000 1100 43 0.900000 2.227000 2.222000 600 52 1.000000 0.053000 0.053000 1.200000 0.107000 0.129000
1553866576610728911	900 49 1.000000 0.294000 0.308000 1100 43 0.900000 1.794000 1.786000 600 52 1.000000 0.053000 0.053000 1.200000 0.103000 0.124000
1553866577123086119	900 47 1.000000 0.273000 0.286000 1100 44 0.900000 2.107000 2.102000 600 52 1.000000 0.053000 0.053000 1.200000 0.100000 0.121000
1553866577635467661	900 48 1.000000 0.268000 0.280000 1100 43 0.900000 1.751000 1.743000 600 52 1.000000 0.053000 0.053000 1.200000 0.080000 0.096000
1553866578147928827	900 48 1.000000 0.287000 0.300000 1100 43 0.900000 1.954000 1.948000 600 52 1.000000 0.053000 0.053000 1.200000 0.086000 0.104000
1553866578659867994	900 46 1.000000 0.269000 0.281000 1100 43 0.900000 1.770000 1.764000 600 50 1.000000 0.053000 0.053000 1.200000 0.087000 0.105000
1553866579171305786	900 46 1.000000 0.270000 0.282000 1100 43 0.900000 1.043000 1.038000 600 49 1.000000 0.053000 0.053000 1.200000 0.080000 0.096000
1553866579682578703	900 47 1.000000 0.271000 0.284000 1100 42 0.900000 1.231000 1.224000 600 52 1.000000 0.053000 0.053000 1.200000 0.076000 0.092000
1553866580193942869	900 45 1.000000 0.282000 0.295000 1100 42 0.900000 1.108000 1.103000 600 48 1.000000 0.053000 0.053000 1.200000 0.084000 0.101000
1553866580718673244	900 44 1.000000 0.274000 0.287000 1100 41 0.900000 0.733000 0.730000 600 47 1.000000 0.053000 0.053000 1.200000 0.058000 0.070000
1553866581234533911	900 43 1.000000 0.226000 0.238000 1100 41 0.900000 0.763000 0.760000 600 46 1.000000 0.053000 0.053000 1.200000 0.055000 0.066000
1553866581745259370	900 43 1.000000 0.205000 0.216000 1100 40 0.900000 0.771000 0.767000 600 46 1.000000 0.053000 0.053000 1.200000 0.051000 0.061000
1553866582256185203	900 42 1.000000 0.218000 0.229000 1100 40 0.900000 0.743000 0.740000 600 46 1.000000 0.053000 0.053000 1.200000 0.057000 0.068000
1553866582780524661	900 45 1.000000 0.254000 0.267000 1100 40 0.900000 1.445000 1.439000 600 49 1.000000 0.053000 0.053000 1.200000 0.077000 0.093000
1553866583294062120	900 46 1.000000 0.277000 0.290000 1100 41 0.900000 1.473000 1.465000 600 48 1.000000 0.053000 0.053000 1.200000 0.098000 0.118000
1553866583805694703	900 46 1.000000 0.268000 0.280000 1100 41 0.900000 1.385000 1.375000 600 47 1.000000 0.053000 0.053000 1.200000 0.069000 0.083000
1553866584330802203	900 46 1.000000 0.277000 0.290000 1100 41 0.900000 1.176000 1.167000 600 49 1.000000 0.053000 0.053000 1.200000 0.073000 0.088000
1553866584843916203	900 47 1.000000 0.249000 0.261000 1100 42 0.900000 2.272000 2.267000 600 52 1.000000 0.053000 0.053000 1.200000 0.100000 0.121000
1553866585355131078	900 47 1.000000 0.287000 0.300000 1100 42 0.900000 1.753000 1.745000 600 49 1.000000 0.053000 0.053000 1.200000 0.119000 0.144000
1553866585866296620	900 45 1.000000 0.269000 0.281000 1100 42 0.900000 1.211000 1.202000 600 48 1.000000 0.053000 0.053000 1.200000 0.079000 0.095000
1553866586377556537	900 45 1.000000 0.269000 0.281000 1100 41 0.900000 1.251000 1.242000 600 47 1.000000 0.053000 0.053000 1.200000 0.067000 0.081000
1553866586899286953	900 47 1.000000 0.268000 0.280000 1100 42 0.900000 1.231000 1.222000 600 50 1.000000 0.053000 0.053000 1.200000 0.068000 0.082000
1553866587421053912	900 48 1.000000 0.261000 0.274000 1100 42 0.900000 2.219000 2.214000 600 50 1.000000 0.053000 0.053000 1.200000 0.114000 0.138000
1553866587939398287	900 48 1.000000 0.301000 0.315000 1100 42 0.900000 2.102000 2.095000 600 50 1.000000 0.053000 0.053000 1.200000 0.112000 0.135000
1553866588450744995	900 44 1.000000 0.227000 0.239000 1100 42 0.900000 0.661000 0.659000 600 48 1.000000 0.053000 0.053000 1.200000 0.069000 0.083000
1553866588961540870	900 44 1.000000 0.163000 0.172000 1100 41 0.900000 0.997000 0.990000 600 47 1.000000 0.053000 0.053000 1.200000 0.050000 0.060000
1553866589472488329	900 44 1.000000 0.127000 0.134000 1100 40 0.900000 0.902000 0.894000 600 46 1.000000 0.053000 0.053000 1.200000 0.045000 0.054000
1553866589983301954	900 43 1.000000 0.162000 0.171000 1100 40 0.900000 0.765000 0.759000 600 46 1.000000 0.053000 0.053000 1.200000 0.062000 0.075000
1553866590494626621	900 42 1.000000 0.162000 0.171000 1100 40 0.900000 0.732000 0.729000 600 45 1.000000 0.053000 0.053000 1.200000 0.046000 0.055000
1553866591006570621	900 43 1.000000 0.201000 0.212000 1100 40 0.900000 0.695000 0.691000 600 45 1.000000 0.053000 0.053000 1.200000 0.052000 0.062000
1553866591518581037	900 45 1.000000 0.223000 0.235000 1100 40 0.900000 0.768000 0.765000 600 49 1.000000 0.053000 0.053000 1.200000 0.072000 0.087000
1553866592030535621	900 45 1.000000 0.295000 0.309000 1100 41 0.900000 2.145000 2.140000 600 47 1.000000 0.053000 0.053000 1.200000 0.092000 0.111000
1553866592542168579	900 45 1.000000 0.277000 0.290000 1100 41 0.900000 1.425000 1.417000 600 48 1.000000 0.053000 0.053000 1.200000 0.072000 0.087000
1553866593058875871	900 47 1.000000 0.273000 0.286000 1100 41 0.900000 1.876000 1.870000 600 50 1.000000 0.053000 0.053000 1.200000 0.079000 0.095000
1553866593577545829	900 44 1.000000 0.253000 0.265000 1100 41 0.900000 1.507000 1.499000 600 48 1.000000 0.053000 0.053000 1.200000 0.068000 0.082000
1553866594104293788	900 44 1.000000 0.262000 0.275000 1100 41 0.900000 0.886000 0.882000 600 48 1.000000 0.053000 0.053000 1.200000 0.088000 0.106000
1553866594616130538	900 44 1.000000 0.281000 0.294000 1100 41 0.900000 1.850000 1.844000 600 48 1.000000 0.053000 0.053000 1.200000 0.087000 0.105000
1553866595145986746	900 45 1.000000 0.235000 0.247000 1100 41 0.900000 1.012000 1.007000 600 47 1.000000 0.053000 0.053000 1.200000 0.059000 0.071000
1553866595658317830	900 47 1.000000 0.239000 0.251000 1100 42 0.900000 2.025000 2.018000 600 52 1.000000 0.053000 0.053000 1.200000 0.089000 0.107000
1553866596170372246	900 47 1.000000 0.251000 0.263000 1100 42 0.900000 2.251000 2.246000 600 52 1.000000 0.053000 0.053000 1.200000 0.078000 0.094000
1553866596682775788	900 47 1.000000 0.247000 0.259000 1100 42 0.900000 1.934000 1.928000 600 51 1.000000 0.053000 0.053000 1.200000 0.081000 0.098000
1553866597204445538	900 47 1.000000 0.240000 0.252000 1100 42 0.900000 1.790000 1.784000 600 50 1.000000 0.053000 0.053000 1.200000 0.082000 0.099000
1553866597716294288	900 48 1.000000 0.261000 0.274000 1100 42 0.900000 1.773000 1.765000 600 53 1.000000 0.053000 0.053000 1.200000 0.106000 0.128000
1553866598228317955	900 47 1.000000 0.270000 0.282000 1100 42 0.900000 2.147000 2.142000 600 53 1.000000 0.053000 0.053000 1.200000 0.089000 0.107000
1553866598765479955	900 45 1.000000 0.272000 0.285000 1100 42 0.900000 1.754000 1.748000 600 52 1.000000 0.053000 0.053000 1.200000 0.078000 0.094000
1553866599276683455	900 44 1.000000 0.288000 0.301000 1100 41 0.900000 1.236000 1.227000 600 51 1.000000 0.053000 0.053000 1.200000 0.071000 0.085000
1553866599788530497	900 44 1.000000 0.198000 0.209000 1100 41 0.900000 1.106000 1.098000 600 51 1.000000 0.053000 0.053000 1.200000 0.059000 0.071000
1553866600300391747	900 46 1.000000 0.221000 0.233000 1100 41 0.900000 1.116000 1.108000 600 51 1.000000 0.053000 0.053000 1.200000 0.060000 0.072000
1553866600845001288	900 47 1.000000 0.247000 0.259000 1100 42 0.900000 1.895000 1.889000 600 50 1.000000 0.053000 0.053000 1.200000 0.098000 0.118000
1553866601357478247	900 45 1.000000 0.298000 0.312000 1100 42 0.900000 1.702000 1.695000 600 49 1.000000 0.053000 0.053000 1.200000 0.085000 0.102000
1553866601874900539	900 47 1.000000 0.269000 0.282000 1100 42 0.900000 1.260000 1.253000 600 51 1.000000 0.053000 0.053000 1.200000 0.060000 0.072000
1553866602394851414	900 48 1.000000 0.267000 0.280000 1100 42 0.900000 2.185000 2.180000 600 52 1.000000 0.053000 0.053000 1.200000 0.105000 0.127000
1553866602907072122	900 46 1.000000 0.274000 0.287000 1100 42 1.000000 2.238000 2.238000 600 52 1.000000 0.053000 0.053000 1.200000 0.081000 0.098000
1553866603418155330	900 45 1.000000 0.269000 0.281000 1100 42 0.900000 1.033000 1.028000 600 48 1.000000 0.053000 0.053000 1.200000 0.065000 0.078000
1553866603929595789	900 44 1.000000 0.233000 0.245000 1100 41 0.900000 0.863000 0.859000 600 48 1.000000 0.053000 0.053000 1.200000 0.050000 0.060000
1553866604441423706	900 46 1.000000 0.254000 0.266000 1100 41 0.900000 0.832000 0.829000 600 50 1.000000 0.053000 0.053000 1.200000 0.080000 0.096000
1553866604953449039	900 47 1.000000 0.233000 0.245000 1100 42 0.900000 2.184000 2.179000 600 49 1.000000 0.053000 0.053000 1.200000 0.072000 0.087000
1553866605481133747	900 47 1.000000 0.285000 0.298000 1100 42 0.900000 1.465000 1.457000 600 50 1.000000 0.053000 0.053000 1.200000 0.073000 0.088000
1553866605993320164	900 46 1.000000 0.293000 0.307000 1100 42 0.900000 0.992000 0.987000 600 50 1.000000 0.053000 0.053000 1.200000 0.084000 0.101000
1553866606512909914	900 48 1.000000 0.256000 0.268000 1100 42 1.000000 2.269000 2.269000 600 52 1.000000 0.053000 0.053000 1.200000 0.106000 0.128000
1553866607032556248	900 48 1.000000 0.251000 0.263000 1100 42 0.900000 1.648000 1.641000 600 52 1.000000 0.053000 0.053000 1.200000 0.078000 0.094000
1553866607544669081	900 46 1.000000 0.275000 0.288000 1100 42 0.900000 2.272000 2.267000 600 53 1.000000 0.053000 0.053000 1.200000 0.103000 0.124000
1553866608058960914	900 48 1.000000 0.295000 0.309000 1100 43 0.900000 2.053000 2.048000 600 53 1.000000 0.053000 0.053000 1.200000 0.103000 0.124000
1553866608570899706	900 49 1.000000 0.269000 0.281000 1100 43 0.900000 2.262000 2.257000 600 54 1.000000 0.053000 0.053000 1.200000 0.091000 0.110000
1553866609082936998	900 48 1.000000 0.268000 0.280000 1100 43 0.900000 2.129000 2.124000 600 53 1.000000 0.053000 0.053000 1.200000 0.083000 0.100000
1553866609594445290	900 49 1.000000 0.277000 0.290000 1100 43 0.900000 1.960000 1.954000 600 54 1.000000 0.053000 0.053000 1.200000 0.089000 0.107000
1553866610106172206	900 49 1.000000 0.269000 0.281000 1100 43 0.900000 2.287000 2.282000 600 54 1.000000 0.053000 0.053000 1.200000 0.091000 0.110000
1553866610618109998	900 49 1.000000 0.262000 0.275000 1100 44 0.900000 2.018000 2.011000 600 54 1.000000 0.053000 0.053000 1.200000 0.105000 0.127000
1553866611134964123	900 49 1.000000 0.267000 0.280000 1100 44 0.900000 2.260000 2.255000 600 54 1.000000 0.053000 0.053000 1.200000 0.090000 0.108000
1553866611647695998	900 49 1.000000 0.269000 0.281000 1100 44 0.900000 2.036000 2.029000 600 52 1.000000 0.053000 0.053000 1.200000 0.086000 0.104000
1553866612178733665	900 49 1.000000 0.261000 0.274000 1100 44 0.900000 2.211000 2.206000 600 54 1.000000 0.053000 0.053000 1.200000 0.111000 0.134000
1553866612696216332	900 50 1.000000 0.282000 0.296000 1100 44 0.900000 2.053000 2.048000 600 55 1.000000 0.053000 0.053000 1.200000 0.109000 0.132000
1553866613207597498	900 50 1.000000 0.262000 0.275000 1100 44 0.900000 2.237000 2.232000 600 55 1.000000 0.053000 0.053000 1.200000 0.080000 0.096000
1553866613719143748	900 49 1.000000 0.272000 0.285000 1100 44 0.900000 1.988000 1.982000 600 54 1.000000 0.053000 0.053000 1.200000 0.094000 0.113000
1553866614230738915	900 50 1.000000 0.253000 0.265000 1100 44 0.900000 2.174000 2.169000 600 55 1.000000 0.053000 0.053000 1.200000 0.085000 0.102000
1553866614742110415	900 49 1.000000 0.284000 0.297000 1100 44 0.900000 1.703000 1.696000 600 52 1.000000 0.053000 0.053000 1.200000 0.095000 0.115000
1553866615253926624	900 49 1.000000 0.268000 0.280000 1100 44 0.900000 1.759000 1.751000 600 54 1.000000 0.053000 0.053000 1.200000 0.078000 0.094000
1553866615764861665	900 47 1.000000 0.278000 0.291000 1100 43 0.900000 1.996000 1.990000 600 51 1.000000 0.053000 0.053000 1.200000 0.087000 0.105000
1553866616275958415	900 47 1.000000 0.182000 0.192000 1100 43 0.900000 1.435000 1.427000 600 50 1.000000 0.053000 0.053000 1.200000 0.066000 0.079000
1553866616800546457	900 44 1.000000 0.140000 0.148000 1100 42 0.900000 0.936000 0.929000 600 48 1.000000 0.053000 0.053000 1.200000 0.045000 0.054000
1553866617311188332	900 45 1.000000 0.177000 0.187000 1100 41 0.900000 0.811000 0.807000 600 47 1.000000 0.053000 0.053000 1.200000 0.049000 0.059000
1553866617821632624	900 43 1.000000 0.203000 0.214000 1100 41 0.900000 0.774000 0.770000 600 47 1.000000 0.053000 0.053000 1.200000 0.048000 0.057000
1553866618332798541	900 43 1.000000 0.218000 0.230000 1100 41 0.900000 0.801000 0.798000 600 46 1.000000 0.053000 0.053000 1.200000 0.052000 0.062000
1553866618854854457	900 43 1.000000 0.203000 0.214000 1100 40 0.900000 0.674000 0.671000 600 46 1.000000 0.053000 0.053000 1.200000 0.051000 0.061000
1553866619369306999	900 42 1.000000 0.231000 0.243000 1100 40 0.900000 0.629000 0.627000 600 45 1.000000 0.053000 0.053000 1.200000 0.062000 0.075000
1553866619880605916	900 46 1.000000 0.212000 0.224000 1100 41 0.900000 1.289000 1.285000 600 50 1.000000 0.053000 0.053000 1.200000 0.055000 0.066000
1553866620391963457	900 44 1.000000 0.285000 0.298000 1100 41 0.900000 1.543000 1.536000 600 48 1.000000 0.053000 0.053000 1.200000 0.084000 0.101000
1553866620903671791	900 46 1.000000 0.270000 0.282000 1100 41 0.900000 1.085000 1.077000 600 50 1.000000 0.053000 0.053000 1.200000 0.066000 0.079000
1553866621414876874	900 46 1.000000 0.276000 0.289000 1100 41 0.900000 2.028000 2.021000 600 51 1.000000 0.053000 0.053000 1.200000 0.086000 0.104000
1553866621937949208	900 45 1.000000 0.269000 0.281000 1100 42 0.900000 1.693000 1.686000 600 51 1.000000 0.053000 0.053000 1.200000 0.074000 0.089000
1553866622449533916	900 47 1.000000 0.264000 0.277000 1100 42 0.900000 2.026000 2.019000 600 52 1.000000 0.053000 0.053000 1.200000 0.083000 0.100000
1553866622961373833	900 45 1.000000 0.266000 0.278000 1100 42 0.900000 1.397000 1.390000 600 51 1.000000 0.053000 0.053000 1.200000 0.071000 0.085000
1553866623486818625	900 45 1.000000 0.270000 0.282000 1100 41 0.900000 1.216000 1.211000 600 48 1.000000 0.053000 0.053000 1.200000 0.074000 0.089000
1553866624022674166	900 46 1.000000 0.260000 0.273000 1100 42 0.900000 1.323000 1.316000 600 48 1.000000 0.053000 0.053000 1.200000 0.084000 0.101000
1553866624539378208	900 44 1.000000 0.268000 0.281000 1100 41 0.900000 1.413000 1.407000 600 48 1.000000 0.053000 0.053000 1.200000 0.075000 0.090000
1553866625049697458	900 43 1.000000 0.125000 0.132000 1100 40 0.900000 0.917000 0.912000 600 46 1.000000 0.053000 0.053000 1.200000 0.048000 0.058000
1553866625572020583	900 42 1.000000 0.125000 0.132000 1100 40 0.900000 0.847000 0.842000 600 46 1.000000 0.053000 0.053000 1.200000 0.046000 0.055000
1553866626114508458	900 43 1.000000 0.162000 0.171000 1100 40 0.900000 0.902000 0.895000 600 46 1.000000 0.053000 0.053000 1.200000 0.066000 0.079000
1553866626624981083	900 43 1.000000 0.133000 0.141000 1100 39 0.900000 0.984000 0.976000 600 45 1.000000 0.053000 0.053000 1.200000 0.047000 0.056000
1553866627135949250	900 42 1.000000 0.129000 0.136000 1100 40 0.900000 0.801000 0.797000 600 45 1.000000 0.053000 0.053000 1.200000 0.045000 0.054000
1553866627646952875	900 43 1.000000 0.272000 0.285000 1100 39 0.900000 0.624000 0.622000 600 44 1.000000 0.052000 0.052000 1.200000 0.056000 0.067000
1553866628178314667	900 44 1.000000 0.235000 0.247000 1100 39 0.900000 0.843000 0.839000 600 47 1.000000 0.053000 0.053000 1.200000 0.073000 0.088000
1553866628690035667	900 43 1.000000 0.261000 0.274000 1100 40 0.900000 1.806000 1.802000 600 47 1.000000 0.053000 0.053000 1.200000 0.079000 0.095000
1553866629201415959	900 44 1.000000 0.269000 0.281000 1100 40 0.900000 1.186000 1.177000 600 46 1.000000 0.053000 0.053000 1.200000 0.066000 0.079000
1553866629712872500	900 44 1.000000 0.266000 0.278000 1100 41 0.900000 1.835000 1.829000 600 48 1.000000 0.053000 0.053000 1.200000 0.080000 0.096000
1553866630224448167	900 44 1.000000 0.269000 0.281000 1100 41 0.900000 1.186000 1.181000 600 47 1.000000 0.053000 0.053000 1.200000 0.076000 0.092000
1553866630736238542	900 46 1.000000 0.283000 0.296000 1100 41 0.900000 1.058000 1.052000 600 49 1.000000 0.053000 0.053000 1.200000 0.073000 0.088000
1553866631247640417	900 45 1.000000 0.267000 0.280000 1100 41 0.900000 1.874000 1.868000 600 48 1.000000 0.053000 0.053000 1.200000 0.082000 0.099000
1553866631758727209	900 46 1.000000 0.256000 0.269000 1100 41 0.900000 1.226000 1.221000 600 50 1.000000 0.053000 0.053000 1.200000 0.076000 0.091000
1553866632275915251	900 43 1.000000 0.246000 0.258000 1100 40 0.900000 1.593000 1.586000 600 47 1.000000 0.053000 0.053000 1.200000 0.062000 0.075000
1553866632789066667	900 43 1.000000 0.160000 0.169000 1100 40 0.900000 0.696000 0.692000 600 47 1.000000 0.053000 0.053000 1.200000 0.068000 0.082000
1553866633299259459	900 42 1.000000 0.124000 0.131000 1100 40 0.900000 1.019000 1.011000 600 46 1.000000 0.053000 0.053000 1.200000 0.048000 0.057000
1553866633809546084	900 41 1.000000 0.124000 0.131000 1100 39 0.900000 0.908000 0.900000 600 45 1.000000 0.053000 0.053000 1.200000 0.046000 0.055000
1553866634320215084	900 42 1.000000 0.125000 0.132000 1100 39 0.900000 0.889000 0.882000 600 44 1.000000 0.053000 0.053000 1.200000 0.046000 0.055000
1553866634831212959	900 41 1.000000 0.223000 0.234000 1100 39 0.900000 0.718000 0.715000 600 44 1.000000 0.053000 0.053000 1.200000 0.062000 0.075000
1553866635342577751	900 44 1.000000 0.192000 0.203000 1100 39 0.900000 0.725000 0.722000 600 48 1.000000 0.053000 0.053000 1.200000 0.051000 0.061000
1553866635854001293	900 43 1.000000 0.269000 0.281000 1100 40 0.900000 1.597000 1.590000 600 46 1.000000 0.053000 0.053000 1.200000 0.072000 0.087000
1553866636365257751	900 44 1.000000 0.268000 0.280000 1100 40 0.900000 0.812000 0.809000 600 46 1.000000 0.053000 0.053000 1.200000 0.063000 0.076000
1553866636887594459	900 43 1.000000 0.263000 0.275000 1100 40 0.900000 1.893000 1.889000 600 46 1.000000 0.053000 0.053000 1.200000 0.085000 0.102000
1553866637401928168	900 42 1.000000 0.293000 0.307000 1100 40 0.900000 0.698000 0.695000 600 45 1.000000 0.053000 0.053000 1.200000 0.065000 0.078000
1553866637912946751	900 43 1.000000 0.259000 0.271000 1100 40 0.900000 1.004000 1.000000 600 46 1.000000 0.053000 0.053000 1.200000 0.073000 0.088000
1553866638423268668	900 41 1.000000 0.122000 0.129000 1100 39 0.900000 0.668000 0.665000 600 44 1.000000 0.053000 0.053000 1.200000 0.043000 0.051000
1553866638933671293	900 41 1.000000 0.134000 0.142000 1100 39 0.900000 0.640000 0.637000 600 43 1.000000 0.053000 0.053000 1.200000 0.046000 0.055000
1553866639444084168	900 40 1.000000 0.160000 0.169000 1100 38 0.900000 0.600000 0.597000 600 44 1.000000 0.053000 0.053000 1.200000 0.054000 0.065000
1553866639954751960	900 41 1.000000 0.122000 0.129000 1100 38 0.900000 0.775000 0.771000 600 44 1.000000 0.053000 0.053000 1.200000 0.046000 0.055000
1553866640465407085	900 40 1.000000 0.198000 0.209000 1100 38 0.900000 0.709000 0.706000 600 43 1.000000 0.052000 0.052000 1.200000 0.057000 0.068000
1553866640975681002	900 41 1.000000 0.120000 0.127000 1100 38 0.900000 0.420000 0.418000 600 42 1.000000 0.053000 0.053000 1.200000 0.043000 0.052000
1553866641485442710	900 38 1.000000 0.048000 0.051000 1100 37 0.900000 0.448000 0.445000 600 42 1.000000 0.053000 0.053000 1.200000 0.032000 0.038000
1553866641995113710	900 37 1.000000 0.041000 0.043000 1100 37 1.000000 0.141000 0.141000 600 41 1.000000 0.052000 0.052000 1.200000 0.023000 0.027000
