#Timestamp	CPU(0) Frequency(MHz)	CPU(0) Temperature(C)	A7 Voltage(V)	A7 Current(A)	A7 Power(W)	CPU(4) Frequency(MHz)	CPU(4) Temperature(C)	A15 Voltage(V)	A15 Current(A)	A15 Power(W)	GPU Frequency(MHz)	GPU Temperature(C)	GPU Voltage(V)	GPU Current(A)	GPU Power(W)	RAM Voltage(V)	RAM Current(A)	RAM Power(W)
1518385115360043004	1400 42 1.200000 0.576000 0.724000 1000 36 0.900000 0.922000 0.895000 600 44 1.000000 0.052000 0.052000 1.200000 0.037000 0.044000
1518385115919999338	1400 44 1.200000 0.702000 0.881000 1000 38 0.900000 2.044000 1.986000 600 46 1.000000 0.052000 0.052000 1.200000 0.037000 0.044000
1518385116468017004	1400 45 1.200000 0.701000 0.878000 1000 39 0.900000 2.013000 1.954000 600 47 1.000000 0.052000 0.052000 1.200000 0.037000 0.044000
1518385117027961504	1400 46 1.200000 0.702000 0.879000 1000 40 0.900000 2.001000 1.942000 600 48 1.000000 0.053000 0.053000 1.200000 0.038000 0.045000
1518385117595927963	1400 47 1.200000 0.704000 0.882000 1000 41 0.900000 2.048000 1.990000 600 49 1.000000 0.053000 0.053000 1.200000 0.037000 0.044000
1518385118151975588	1400 47 1.200000 0.704000 0.883000 1000 41 0.900000 2.053000 1.995000 600 49 1.000000 0.053000 0.053000 1.200000 0.036000 0.043000
1518385118719964046	1400 47 1.200000 0.705000 0.884000 1000 42 0.900000 2.054000 1.994000 600 49 1.000000 0.053000 0.053000 1.200000 0.037000 0.044000
1518385119275952296	1400 48 1.200000 0.705000 0.884000 1000 42 0.900000 2.061000 2.001000 600 50 1.000000 0.053000 0.053000 1.200000 0.036000 0.043000
1518385119839882755	1400 48 1.200000 0.705000 0.883000 1000 42 0.900000 2.061000 2.001000 600 50 1.000000 0.053000 0.053000 1.200000 0.037000 0.044000
1518385120395959963	1400 48 1.200000 0.706000 0.886000 1000 42 0.900000 2.062000 2.002000 600 50 1.000000 0.053000 0.053000 1.200000 0.036000 0.043000
1518385120963980630	1400 49 1.200000 0.705000 0.884000 1000 42 0.900000 2.057000 1.997000 600 50 1.000000 0.053000 0.053000 1.200000 0.036000 0.043000
1518385121527953380	1400 49 1.200000 0.705000 0.883000 1000 43 0.900000 2.048000 1.988000 600 51 1.000000 0.053000 0.053000 1.200000 0.037000 0.044000
1518385122087960672	1400 48 1.200000 0.706000 0.886000 1000 43 0.900000 2.057000 1.997000 600 51 1.000000 0.053000 0.053000 1.200000 0.036000 0.043000
1518385122632213630	1400 49 1.200000 0.704000 0.883000 1000 43 0.900000 1.997000 1.941000 600 51 1.000000 0.053000 0.053000 1.200000 0.039000 0.047000
1518385123196011880	1400 49 1.200000 0.706000 0.886000 1000 43 0.900000 2.020000 1.961000 600 51 1.000000 0.053000 0.053000 1.200000 0.037000 0.044000
1518385123759904713	1400 49 1.200000 0.706000 0.886000 1000 43 0.900000 2.064000 2.006000 600 51 1.000000 0.053000 0.053000 1.200000 0.036000 0.043000
1518385124319916755	1400 49 1.200000 0.706000 0.886000 1000 43 0.900000 2.063000 2.005000 600 51 1.000000 0.053000 0.053000 1.200000 0.037000 0.044000
1518385124887934880	1400 49 1.200000 0.706000 0.886000 1000 43 0.900000 2.059000 1.999000 600 51 1.000000 0.053000 0.053000 1.200000 0.037000 0.044000
1518385125451887714	1400 49 1.200000 0.706000 0.886000 1000 43 0.900000 2.063000 2.003000 600 51 1.000000 0.053000 0.053000 1.200000 0.037000 0.044000
1518385126019946464	1400 49 1.200000 0.706000 0.884000 1000 43 0.900000 2.071000 2.010000 600 51 1.000000 0.053000 0.053000 1.200000 0.037000 0.044000
1518385126587961505	1400 49 1.200000 0.706000 0.886000 1000 43 0.900000 2.066000 2.006000 600 51 1.000000 0.053000 0.053000 1.200000 0.036000 0.043000
1518385127155884422	1400 49 1.200000 0.706000 0.886000 1000 43 0.900000 2.063000 2.003000 600 51 1.000000 0.053000 0.053000 1.200000 0.037000 0.044000
1518385127715932506	1400 49 1.200000 0.707000 0.887000 1000 43 0.900000 2.074000 2.015000 600 51 1.000000 0.053000 0.053000 1.200000 0.037000 0.044000
1518385128272083464	1400 49 1.200000 0.705000 0.884000 1000 43 0.900000 2.029000 1.972000 600 51 1.000000 0.053000 0.053000 1.200000 0.038000 0.045000
1518385128831970422	1400 49 1.200000 0.706000 0.886000 1000 43 0.900000 2.042000 1.982000 600 51 1.000000 0.053000 0.053000 1.200000 0.039000 0.047000
1518385129383941172	1400 49 1.200000 0.707000 0.885000 1000 44 0.900000 2.068000 2.010000 600 51 1.000000 0.053000 0.053000 1.200000 0.037000 0.044000
1518385129947900964	1400 50 1.200000 0.707000 0.887000 1000 44 0.900000 2.067000 2.009000 600 51 1.000000 0.053000 0.053000 1.200000 0.036000 0.043000
1518385130499976923	1400 50 1.200000 0.708000 0.888000 1000 44 0.900000 2.067000 2.009000 600 52 1.000000 0.053000 0.053000 1.200000 0.037000 0.044000
1518385131063940256	1400 50 1.200000 0.709000 0.889000 1000 44 0.900000 2.073000 2.012000 600 52 1.000000 0.053000 0.053000 1.200000 0.036000 0.043000
1518385131607977339	1400 50 1.200000 0.709000 0.888000 1000 44 0.900000 2.073000 2.014000 600 52 1.000000 0.053000 0.053000 1.200000 0.037000 0.044000
1518385132171878298	1400 50 1.200000 0.709000 0.888000 1000 44 0.900000 2.067000 2.007000 600 52 1.000000 0.053000 0.053000 1.200000 0.037000 0.044000
1518385132731956215	1400 50 1.200000 0.709000 0.889000 1000 44 0.900000 2.073000 2.014000 600 52 1.000000 0.053000 0.053000 1.200000 0.036000 0.043000
1518385133292020256	1400 50 1.200000 0.708000 0.888000 1000 44 0.900000 2.037000 1.977000 600 52 1.000000 0.053000 0.053000 1.200000 0.037000 0.044000
1518385133855980798	1400 50 1.200000 0.709000 0.889000 1000 44 0.900000 2.059000 1.999000 600 52 1.000000 0.053000 0.053000 1.200000 0.037000 0.044000
1518385134419996215	1400 50 1.200000 0.708000 0.888000 1000 44 0.900000 2.036000 1.976000 600 51 1.000000 0.053000 0.053000 1.200000 0.038000 0.045000
1518385134983953590	1400 50 1.200000 0.709000 0.888000 1000 44 0.900000 2.072000 2.013000 600 52 1.000000 0.053000 0.053000 1.200000 0.037000 0.044000
1518385135547955715	1400 50 1.200000 0.710000 0.891000 1000 44 0.900000 2.074000 2.015000 600 52 1.000000 0.053000 0.053000 1.200000 0.037000 0.044000
1518385136107995840	1400 50 1.200000 0.710000 0.891000 1000 44 0.900000 2.074000 2.015000 600 52 1.000000 0.053000 0.053000 1.200000 0.036000 0.043000
1518385136659966382	1400 50 1.200000 0.710000 0.891000 1000 44 0.900000 2.052000 1.994000 600 52 1.000000 0.053000 0.053000 1.200000 0.036000 0.043000
1518385137223952882	1400 50 1.200000 0.709000 0.889000 1000 44 0.900000 2.062000 2.004000 600 52 1.000000 0.053000 0.053000 1.200000 0.036000 0.043000
1518385137787940882	1400 50 1.200000 0.710000 0.891000 1000 44 0.900000 2.063000 2.003000 600 52 1.000000 0.053000 0.053000 1.200000 0.036000 0.043000
1518385138351935257	1400 50 1.200000 0.709000 0.888000 1000 44 0.900000 2.063000 2.005000 600 52 1.000000 0.053000 0.053000 1.200000 0.036000 0.043000
1518385138915910590	1400 50 1.200000 0.709000 0.888000 1000 44 0.900000 2.063000 2.005000 600 52 1.000000 0.053000 0.053000 1.200000 0.037000 0.044000
1518385139476113799	1400 50 1.200000 0.709000 0.888000 1000 44 0.900000 2.062000 2.002000 600 52 1.000000 0.053000 0.053000 1.200000 0.036000 0.043000
1518385140039924424	1400 50 1.200000 0.708000 0.887000 1000 44 0.900000 1.993000 1.935000 600 52 1.000000 0.053000 0.053000 1.200000 0.038000 0.045000
1518385140599977632	1400 50 1.200000 0.708000 0.888000 1000 44 0.900000 2.016000 1.957000 600 52 1.000000 0.053000 0.053000 1.200000 0.038000 0.045000
1518385141151950966	1400 50 1.200000 0.709000 0.888000 1000 44 0.900000 2.055000 1.995000 600 52 1.000000 0.053000 0.053000 1.200000 0.037000 0.044000
1518385141715914216	1400 50 1.200000 0.710000 0.889000 1000 44 0.900000 2.062000 2.004000 600 52 1.000000 0.053000 0.053000 1.200000 0.036000 0.043000
1518385142279909799	1400 50 1.200000 0.709000 0.888000 1000 44 0.900000 2.063000 2.005000 600 52 1.000000 0.053000 0.053000 1.200000 0.036000 0.043000
1518385142843891299	1400 50 1.200000 0.710000 0.889000 1000 44 0.900000 2.063000 2.005000 600 52 1.000000 0.053000 0.053000 1.200000 0.036000 0.043000
1518385143403998507	1400 50 1.200000 0.709000 0.888000 1000 44 0.900000 2.024000 1.967000 600 52 1.000000 0.053000 0.053000 1.200000 0.037000 0.044000
1518385143955960299	1400 50 1.200000 0.709000 0.888000 1000 44 0.900000 2.062000 2.004000 600 52 1.000000 0.053000 0.053000 1.200000 0.037000 0.044000
1518385144523984716	1400 50 1.200000 0.709000 0.888000 1000 44 0.900000 2.063000 2.005000 600 52 1.000000 0.053000 0.053000 1.200000 0.037000 0.044000
1518385145079926174	1400 50 1.200000 0.710000 0.889000 1000 44 0.900000 2.057000 1.999000 600 52 1.000000 0.053000 0.053000 1.200000 0.036000 0.043000
1518385145644032008	1400 49 1.200000 0.708000 0.887000 1000 44 0.900000 2.062000 2.004000 600 52 1.000000 0.053000 0.053000 1.200000 0.036000 0.043000
1518385146207914008	1400 50 1.200000 0.706000 0.884000 1000 44 0.900000 2.021000 1.964000 600 52 1.000000 0.053000 0.053000 1.200000 0.038000 0.045000
1518385146767945258	1400 50 1.200000 0.709000 0.888000 1000 44 0.900000 2.080000 2.021000 600 52 1.000000 0.053000 0.053000 1.200000 0.035000 0.042000
1518385147323941508	1400 50 1.200000 0.708000 0.887000 1000 44 0.900000 2.081000 2.022000 600 52 1.000000 0.053000 0.053000 1.200000 0.035000 0.042000
1518385147887945633	1400 50 1.200000 0.708000 0.888000 1000 44 0.900000 2.082000 2.023000 600 52 1.000000 0.053000 0.053000 1.200000 0.036000 0.043000
1518385148447919008	1400 50 1.200000 0.709000 0.888000 1000 44 0.900000 2.082000 2.023000 600 52 1.000000 0.053000 0.053000 1.200000 0.035000 0.042000
1518385149007896550	1400 50 1.200000 0.709000 0.888000 1000 44 0.900000 2.081000 2.022000 600 52 1.000000 0.053000 0.053000 1.200000 0.036000 0.043000
1518385149567965050	1400 50 1.200000 0.708000 0.888000 1000 44 0.900000 2.073000 2.014000 600 52 1.000000 0.053000 0.053000 1.200000 0.035000 0.042000
1518385150131979842	1400 50 1.200000 0.708000 0.888000 1000 44 0.900000 2.075000 2.016000 600 52 1.000000 0.053000 0.053000 1.200000 0.035000 0.042000
1518385150691937633	1400 50 1.200000 0.708000 0.887000 1000 44 0.900000 2.077000 2.018000 600 52 1.000000 0.053000 0.053000 1.200000 0.035000 0.042000
1518385151255927300	1400 50 1.200000 0.708000 0.887000 1000 44 0.900000 2.079000 2.020000 600 52 1.000000 0.053000 0.053000 1.200000 0.035000 0.042000
1518385151819234092	1400 50 1.200000 0.707000 0.885000 1000 44 0.900000 2.049000 1.991000 600 52 1.000000 0.053000 0.053000 1.200000 0.036000 0.043000
1518385152375937050	1400 50 1.200000 0.707000 0.885000 1000 44 0.900000 2.017000 1.960000 600 52 1.000000 0.053000 0.053000 1.200000 0.037000 0.044000
1518385152931958592	1400 50 1.200000 0.708000 0.887000 1000 44 0.900000 2.073000 2.014000 600 52 1.000000 0.053000 0.053000 1.200000 0.035000 0.042000
1518385153496032092	1400 50 1.200000 0.707000 0.887000 1000 44 0.900000 2.073000 2.014000 600 52 1.000000 0.053000 0.053000 1.200000 0.036000 0.043000
1518385154059947842	1400 50 1.200000 0.708000 0.888000 1000 44 0.900000 2.072000 2.011000 600 52 1.000000 0.053000 0.053000 1.200000 0.036000 0.043000
1518385154623945634	1400 50 1.200000 0.708000 0.888000 1000 44 0.900000 2.076000 2.017000 600 52 1.000000 0.053000 0.053000 1.200000 0.036000 0.043000
1518385155183898176	1400 50 1.200000 0.709000 0.889000 1000 44 0.900000 2.074000 2.015000 600 52 1.000000 0.053000 0.053000 1.200000 0.035000 0.042000
1518385155747912801	1400 50 1.200000 0.708000 0.887000 1000 44 0.900000 2.070000 2.012000 600 52 1.000000 0.053000 0.053000 1.200000 0.035000 0.042000
1518385156307956176	1400 50 1.200000 0.708000 0.887000 1000 44 0.900000 2.070000 2.012000 600 52 1.000000 0.053000 0.053000 1.200000 0.035000 0.042000
1518385156872010259	1400 50 1.200000 0.708000 0.887000 1000 44 0.900000 2.076000 2.017000 600 52 1.000000 0.053000 0.053000 1.200000 0.035000 0.042000
1518385157424215342	1400 50 1.200000 0.708000 0.888000 1000 44 0.900000 2.084000 2.025000 600 52 1.000000 0.053000 0.053000 1.200000 0.036000 0.043000
1518385157987975343	1400 50 1.200000 0.707000 0.887000 1000 44 0.900000 2.042000 1.982000 600 52 1.000000 0.053000 0.053000 1.200000 0.038000 0.045000
1518385158551903009	1400 50 1.200000 0.708000 0.888000 1000 44 0.900000 2.060000 2.002000 600 52 1.000000 0.053000 0.053000 1.200000 0.035000 0.042000
1518385159111926259	1400 50 1.200000 0.709000 0.889000 1000 44 0.900000 2.094000 2.035000 600 52 1.000000 0.053000 0.053000 1.200000 0.035000 0.042000
1518385159675939343	1400 50 1.200000 0.709000 0.888000 1000 44 0.900000 2.093000 2.034000 600 52 1.000000 0.053000 0.053000 1.200000 0.034000 0.041000
1518385160235937634	1400 50 1.200000 0.709000 0.889000 1000 44 0.900000 2.093000 2.034000 600 52 1.000000 0.053000 0.053000 1.200000 0.034000 0.041000
1518385160791968843	1400 50 1.200000 0.709000 0.889000 1000 44 0.900000 2.085000 2.026000 600 52 1.000000 0.053000 0.053000 1.200000 0.034000 0.041000
1518385161343953760	1400 50 1.200000 0.709000 0.888000 1000 44 0.900000 2.088000 2.029000 600 52 1.000000 0.053000 0.053000 1.200000 0.035000 0.042000
1518385161907970260	1400 50 1.200000 0.709000 0.888000 1000 44 0.900000 2.082000 2.023000 600 52 1.000000 0.053000 0.053000 1.200000 0.034000 0.041000
1518385162463966843	1400 50 1.200000 0.709000 0.889000 1000 44 0.900000 2.084000 2.025000 600 52 1.000000 0.053000 0.053000 1.200000 0.034000 0.041000
1518385163027183260	1400 50 1.200000 0.709000 0.889000 1000 44 0.900000 2.083000 2.024000 600 52 1.000000 0.053000 0.053000 1.200000 0.034000 0.041000
1518385163583976635	1400 50 1.200000 0.708000 0.887000 1000 44 0.900000 2.064000 2.006000 600 52 1.000000 0.053000 0.053000 1.200000 0.038000 0.045000
1518385164143958593	1400 50 1.200000 0.708000 0.887000 1000 44 0.900000 2.065000 2.007000 600 52 1.000000 0.053000 0.053000 1.200000 0.034000 0.041000
1518385164695960052	1400 50 1.200000 0.709000 0.888000 1000 44 0.900000 2.094000 2.035000 600 52 1.000000 0.053000 0.053000 1.200000 0.034000 0.041000
1518385165259927677	1400 50 1.200000 0.709000 0.889000 1000 44 0.900000 2.095000 2.036000 600 52 1.000000 0.053000 0.053000 1.200000 0.035000 0.042000
1518385165819885677	1400 50 1.200000 0.709000 0.888000 1000 44 0.900000 2.094000 2.035000 600 52 1.000000 0.053000 0.053000 1.200000 0.034000 0.041000
1518385166383919760	1400 50 1.200000 0.709000 0.888000 1000 44 0.900000 2.092000 2.033000 600 52 1.000000 0.053000 0.053000 1.200000 0.035000 0.042000
1518385166931934594	1400 50 1.200000 0.709000 0.888000 1000 44 0.900000 2.093000 2.034000 600 52 1.000000 0.053000 0.053000 1.200000 0.035000 0.042000
1518385167499943927	1400 50 1.200000 0.708000 0.887000 1000 44 0.900000 2.078000 2.019000 600 52 1.000000 0.053000 0.053000 1.200000 0.034000 0.041000
1518385168051935510	1400 50 1.200000 0.708000 0.887000 1000 44 0.900000 2.068000 2.010000 600 52 1.000000 0.053000 0.053000 1.200000 0.034000 0.041000
1518385168615871635	1400 50 1.200000 0.709000 0.888000 1000 44 0.900000 2.074000 2.015000 600 52 1.000000 0.053000 0.053000 1.200000 0.034000 0.041000
1518385169184136927	1400 50 1.200000 0.708000 0.887000 1000 44 0.900000 2.055000 1.995000 600 52 1.000000 0.053000 0.053000 1.200000 0.034000 0.041000
1518385169739951052	1400 50 1.200000 0.707000 0.885000 1000 44 0.900000 2.044000 1.986000 600 52 1.000000 0.053000 0.053000 1.200000 0.037000 0.044000
1518385170311912136	1400 50 1.200000 0.708000 0.887000 1000 44 0.900000 2.074000 2.015000 600 52 1.000000 0.053000 0.053000 1.200000 0.035000 0.042000
1518385170875905802	1400 50 1.200000 0.708000 0.887000 1000 44 0.900000 2.064000 2.006000 600 52 1.000000 0.053000 0.053000 1.200000 0.034000 0.041000
1518385171435910469	1400 50 1.200000 0.708000 0.887000 1000 44 0.900000 2.062000 2.004000 600 52 1.000000 0.053000 0.053000 1.200000 0.034000 0.041000
1518385171991931428	1400 50 1.200000 0.708000 0.887000 1000 44 0.900000 2.068000 2.010000 600 52 1.000000 0.053000 0.053000 1.200000 0.034000 0.041000
1518385172551916219	1400 50 1.200000 0.707000 0.885000 1000 44 0.900000 2.066000 2.008000 600 52 1.000000 0.053000 0.053000 1.200000 0.034000 0.041000
1518385173119851553	1400 50 1.200000 0.708000 0.887000 1000 44 0.900000 2.076000 2.017000 600 52 1.000000 0.053000 0.053000 1.200000 0.035000 0.042000
1518385173683969344	1400 50 1.200000 0.707000 0.885000 1000 44 0.900000 2.037000 1.979000 600 52 1.000000 0.053000 0.053000 1.200000 0.035000 0.042000
1518385174231980136	1400 50 1.200000 0.708000 0.887000 1000 44 0.900000 2.075000 2.016000 600 52 1.000000 0.053000 0.053000 1.200000 0.035000 0.042000
1518385174799996761	1400 50 1.200000 0.707000 0.885000 1000 44 0.900000 2.074000 2.015000 600 52 1.000000 0.053000 0.053000 1.200000 0.035000 0.042000
1518385175360172470	1400 50 1.200000 0.708000 0.887000 1000 44 0.900000 2.042000 1.984000 600 52 1.000000 0.053000 0.053000 1.200000 0.037000 0.044000
1518385175911944053	1400 50 1.200000 0.706000 0.884000 1000 44 0.900000 2.031000 1.974000 600 52 1.000000 0.053000 0.053000 1.200000 0.037000 0.044000
1518385176479966595	1400 50 1.200000 0.708000 0.887000 1000 44 0.900000 2.068000 2.010000 600 52 1.000000 0.053000 0.053000 1.200000 0.036000 0.043000
1518385177039904845	1400 50 1.200000 0.708000 0.887000 1000 44 0.900000 2.074000 2.015000 600 52 1.000000 0.053000 0.053000 1.200000 0.035000 0.042000
1518385177595972887	1400 50 1.200000 0.709000 0.888000 1000 44 0.900000 2.076000 2.017000 600 52 1.000000 0.053000 0.053000 1.200000 0.035000 0.042000
1518385178155956512	1400 50 1.200000 0.708000 0.887000 1000 44 0.900000 2.078000 2.019000 600 52 1.000000 0.053000 0.053000 1.200000 0.034000 0.041000
1518385178719958720	1400 50 1.200000 0.708000 0.887000 1000 44 0.900000 2.077000 2.018000 600 52 1.000000 0.053000 0.053000 1.200000 0.035000 0.042000
1518385179283930053	1400 50 1.200000 0.709000 0.888000 1000 44 0.900000 2.078000 2.019000 600 52 1.000000 0.053000 0.053000 1.200000 0.035000 0.042000
1518385179843903220	1400 50 1.200000 0.709000 0.888000 1000 44 0.900000 2.076000 2.017000 600 52 1.000000 0.053000 0.053000 1.200000 0.036000 0.043000
1518385180399910637	1400 50 1.200000 0.708000 0.887000 1000 44 0.900000 2.071000 2.013000 600 52 1.000000 0.053000 0.053000 1.200000 0.035000 0.042000
1518385180959976970	1400 50 1.200000 0.708000 0.887000 1000 44 0.900000 2.053000 1.995000 600 52 1.000000 0.053000 0.053000 1.200000 0.036000 0.043000
1518385181520015470	1400 50 1.200000 0.706000 0.884000 1000 44 0.900000 2.030000 1.971000 600 52 1.000000 0.053000 0.053000 1.200000 0.039000 0.047000
1518385182079921345	1400 50 1.200000 0.708000 0.887000 1000 44 0.900000 2.076000 2.017000 600 52 1.000000 0.053000 0.053000 1.200000 0.035000 0.042000
1518385182635954970	1400 50 1.200000 0.708000 0.887000 1000 44 0.900000 2.077000 2.018000 600 52 1.000000 0.053000 0.053000 1.200000 0.035000 0.042000
1518385183199913387	1400 50 1.200000 0.709000 0.888000 1000 44 0.900000 2.078000 2.019000 600 52 1.000000 0.053000 0.053000 1.200000 0.035000 0.042000
1518385183759976179	1400 50 1.200000 0.706000 0.884000 1000 44 0.900000 2.041000 1.983000 600 52 1.000000 0.053000 0.053000 1.200000 0.037000 0.044000
1518385184319963471	1400 50 1.200000 0.708000 0.887000 1000 44 0.900000 2.077000 2.016000 600 52 1.000000 0.053000 0.053000 1.200000 0.035000 0.042000
1518385184883936929	1400 50 1.200000 0.708000 0.887000 1000 44 0.900000 2.077000 2.018000 600 52 1.000000 0.053000 0.053000 1.200000 0.035000 0.042000
1518385185455940304	1400 50 1.200000 0.708000 0.887000 1000 44 0.900000 2.077000 2.018000 600 52 1.000000 0.053000 0.053000 1.200000 0.035000 0.042000
1518385186019932679	1400 50 1.200000 0.708000 0.887000 1000 44 0.900000 2.070000 2.012000 600 52 1.000000 0.053000 0.053000 1.200000 0.035000 0.042000
1518385186568128096	1400 50 1.200000 0.708000 0.887000 1000 44 0.900000 2.062000 2.004000 600 52 1.000000 0.053000 0.053000 1.200000 0.035000 0.042000
1518385187131993096	1400 50 1.200000 0.707000 0.885000 1000 44 0.900000 2.031000 1.972000 600 52 1.000000 0.053000 0.053000 1.200000 0.037000 0.044000
1518385187691938096	1400 50 1.200000 0.707000 0.885000 1000 44 0.900000 2.031000 1.972000 600 52 1.000000 0.053000 0.053000 1.200000 0.035000 0.042000
1518385188251950804	1400 50 1.200000 0.708000 0.887000 1000 44 0.900000 2.065000 2.007000 600 52 1.000000 0.053000 0.053000 1.200000 0.034000 0.041000
1518385188820002638	1400 50 1.200000 0.708000 0.887000 1000 44 0.900000 2.082000 2.023000 600 52 1.000000 0.053000 0.053000 1.200000 0.035000 0.042000
1518385189387967513	1400 50 1.200000 0.707000 0.885000 1000 44 0.900000 2.087000 2.028000 600 52 1.000000 0.053000 0.053000 1.200000 0.035000 0.042000
1518385189955949888	1400 50 1.200000 0.707000 0.885000 1000 44 0.900000 2.086000 2.027000 600 52 1.000000 0.053000 0.053000 1.200000 0.034000 0.041000
1518385190523941805	1400 50 1.200000 0.707000 0.885000 1000 44 0.900000 2.081000 2.022000 600 52 1.000000 0.053000 0.053000 1.200000 0.033000 0.039000
1518385191083930096	1400 50 1.200000 0.707000 0.885000 1000 44 0.900000 2.075000 2.016000 600 52 1.000000 0.053000 0.053000 1.200000 0.032000 0.038000
1518385191647905638	1400 50 1.200000 0.707000 0.885000 1000 44 0.900000 2.078000 2.019000 600 52 1.000000 0.053000 0.053000 1.200000 0.033000 0.039000
1518385192195957930	1400 50 1.200000 0.707000 0.885000 1000 44 0.900000 2.079000 2.020000 600 52 1.000000 0.053000 0.053000 1.200000 0.033000 0.039000
1518385192763993430	1400 50 1.200000 0.706000 0.884000 1000 44 0.900000 2.068000 2.010000 600 52 1.000000 0.053000 0.053000 1.200000 0.035000 0.042000
1518385193320005597	1400 50 1.200000 0.706000 0.886000 1000 44 0.900000 2.049000 1.989000 600 52 1.000000 0.053000 0.053000 1.200000 0.035000 0.042000
1518385193883991430	1400 50 1.200000 0.706000 0.886000 1000 44 0.900000 2.078000 2.019000 600 52 1.000000 0.053000 0.053000 1.200000 0.036000 0.043000
1518385194439981305	1400 50 1.200000 0.706000 0.884000 1000 44 0.900000 2.088000 2.029000 600 52 1.000000 0.053000 0.053000 1.200000 0.033000 0.039000
1518385195003898347	1400 50 1.200000 0.707000 0.885000 1000 44 0.900000 2.087000 2.028000 600 52 1.000000 0.053000 0.053000 1.200000 0.032000 0.038000
1518385195567964639	1400 50 1.200000 0.707000 0.885000 1000 44 0.900000 2.082000 2.023000 600 52 1.000000 0.053000 0.053000 1.200000 0.033000 0.039000
1518385196115969847	1400 50 1.200000 0.707000 0.885000 1000 44 0.900000 2.077000 2.018000 600 52 1.000000 0.053000 0.053000 1.200000 0.033000 0.039000
1518385196675958680	1400 50 1.200000 0.707000 0.885000 1000 44 0.900000 2.077000 2.018000 600 52 1.000000 0.053000 0.053000 1.200000 0.033000 0.039000
1518385197235934972	1400 50 1.200000 0.706000 0.884000 1000 44 0.900000 2.082000 2.023000 600 52 1.000000 0.053000 0.053000 1.200000 0.033000 0.039000
1518385197795941097	1400 50 1.200000 0.707000 0.885000 1000 44 0.900000 2.082000 2.023000 600 52 1.000000 0.053000 0.053000 1.200000 0.033000 0.039000
1518385198356192847	1400 50 1.200000 0.707000 0.885000 1000 44 0.900000 2.079000 2.020000 600 52 1.000000 0.053000 0.053000 1.200000 0.032000 0.038000
1518385198924002722	1400 50 1.200000 0.705000 0.883000 1000 44 0.900000 2.039000 1.979000 600 52 1.000000 0.053000 0.053000 1.200000 0.035000 0.042000
1518385199479917472	1400 50 1.200000 0.706000 0.884000 1000 44 0.900000 2.071000 2.010000 600 52 1.000000 0.053000 0.053000 1.200000 0.033000 0.039000
1518385200031967514	1400 50 1.200000 0.706000 0.884000 1000 44 0.900000 2.077000 2.016000 600 52 1.000000 0.053000 0.053000 1.200000 0.033000 0.039000
1518385200587948139	1400 50 1.200000 0.707000 0.885000 1000 44 0.900000 2.077000 2.018000 600 52 1.000000 0.053000 0.053000 1.200000 0.033000 0.039000
1518385201143892848	1400 50 1.200000 0.706000 0.884000 1000 44 0.900000 2.071000 2.013000 600 52 1.000000 0.053000 0.053000 1.200000 0.032000 0.038000
1518385201699920639	1400 50 1.200000 0.706000 0.886000 1000 44 0.900000 2.077000 2.018000 600 52 1.000000 0.053000 0.053000 1.200000 0.033000 0.039000
1518385202255920264	1400 50 1.200000 0.706000 0.884000 1000 44 0.900000 2.066000 2.008000 600 52 1.000000 0.053000 0.053000 1.200000 0.033000 0.039000
1518385202819953015	1400 50 1.200000 0.707000 0.885000 1000 44 0.900000 2.077000 2.018000 600 52 1.000000 0.053000 0.053000 1.200000 0.033000 0.039000
1518385203371911640	1400 50 1.200000 0.706000 0.884000 1000 44 0.900000 2.071000 2.013000 600 52 1.000000 0.053000 0.053000 1.200000 0.033000 0.039000
1518385203936011223	1400 50 1.200000 0.706000 0.884000 1000 44 0.900000 2.071000 2.013000 600 52 1.000000 0.053000 0.053000 1.200000 0.036000 0.043000
1518385204496104598	1400 50 1.200000 0.708000 0.887000 1000 44 0.900000 2.041000 1.981000 600 52 1.000000 0.053000 0.053000 1.200000 0.037000 0.044000
1518385205060015598	1400 50 1.200000 0.707000 0.885000 1000 44 0.900000 2.045000 1.987000 600 52 1.000000 0.053000 0.053000 1.200000 0.038000 0.045000
1518385205603985265	1400 50 1.200000 0.709000 0.888000 1000 44 0.900000 2.077000 2.018000 600 52 1.000000 0.053000 0.053000 1.200000 0.036000 0.043000
1518385206167978640	1400 50 1.200000 0.709000 0.888000 1000 44 0.900000 2.076000 2.017000 600 52 1.000000 0.053000 0.053000 1.200000 0.036000 0.043000
1518385206731901307	1400 50 1.200000 0.709000 0.888000 1000 44 0.900000 2.071000 2.013000 600 52 1.000000 0.053000 0.053000 1.200000 0.035000 0.042000
1518385207291940973	1400 50 1.200000 0.709000 0.888000 1000 44 0.900000 2.067000 2.009000 600 52 1.000000 0.053000 0.053000 1.200000 0.035000 0.042000
1518385207851878265	1400 50 1.200000 0.709000 0.888000 1000 44 0.900000 2.067000 2.009000 600 52 1.000000 0.053000 0.053000 1.200000 0.036000 0.043000
1518385208415985432	1400 50 1.200000 0.709000 0.888000 1000 44 0.900000 2.072000 2.013000 600 52 1.000000 0.053000 0.053000 1.200000 0.036000 0.043000
1518385208979991515	1400 50 1.200000 0.709000 0.888000 1000 44 0.900000 2.066000 2.008000 600 52 1.000000 0.053000 0.053000 1.200000 0.036000 0.043000
1518385209535973807	1400 50 1.200000 0.710000 0.889000 1000 44 0.900000 2.064000 2.006000 600 52 1.000000 0.053000 0.053000 1.200000 0.036000 0.043000
1518385210084213557	1400 50 1.200000 0.710000 0.889000 1000 44 0.900000 2.064000 2.006000 600 52 1.000000 0.053000 0.053000 1.200000 0.036000 0.043000
1518385210644036432	1400 50 1.200000 0.708000 0.887000 1000 44 0.900000 2.029000 1.972000 600 52 1.000000 0.053000 0.053000 1.200000 0.037000 0.044000
1518385211199981599	1400 50 1.200000 0.709000 0.888000 1000 44 0.900000 2.058000 2.000000 600 52 1.000000 0.053000 0.053000 1.200000 0.037000 0.044000
1518385211751930891	1400 50 1.200000 0.709000 0.888000 1000 44 0.900000 2.058000 2.000000 600 52 1.000000 0.053000 0.053000 1.200000 0.035000 0.042000
1518385212307933057	1400 50 1.200000 0.709000 0.888000 1000 44 0.900000 2.059000 2.001000 600 52 1.000000 0.053000 0.053000 1.200000 0.036000 0.043000
1518385212863946266	1400 50 1.200000 0.709000 0.888000 1000 44 0.900000 2.057000 1.999000 600 52 1.000000 0.053000 0.053000 1.200000 0.035000 0.042000
1518385213427930849	1400 50 1.200000 0.709000 0.888000 1000 44 0.900000 2.057000 1.999000 600 52 1.000000 0.053000 0.053000 1.200000 0.036000 0.043000
1518385213988014974	1400 50 1.200000 0.709000 0.888000 1000 44 0.900000 2.026000 1.969000 600 52 1.000000 0.053000 0.053000 1.200000 0.038000 0.045000
1518385214551949808	1400 50 1.200000 0.709000 0.888000 1000 44 0.900000 2.063000 2.005000 600 52 1.000000 0.053000 0.053000 1.200000 0.036000 0.043000
1518385215119953516	1400 50 1.200000 0.710000 0.889000 1000 44 0.900000 2.062000 2.004000 600 52 1.000000 0.053000 0.053000 1.200000 0.036000 0.043000
1518385215675961224	1400 50 1.200000 0.709000 0.888000 1000 44 0.900000 2.063000 2.005000 600 52 1.000000 0.053000 0.053000 1.200000 0.036000 0.043000
1518385216235505224	1400 50 1.200000 0.708000 0.887000 1000 44 0.900000 2.036000 1.976000 600 52 1.000000 0.053000 0.053000 1.200000 0.036000 0.043000
1518385216783950641	1400 50 1.200000 0.708000 0.887000 1000 44 0.900000 2.019000 1.960000 600 52 1.000000 0.053000 0.053000 1.200000 0.039000 0.047000
1518385217347932141	1400 50 1.200000 0.710000 0.889000 1000 44 0.900000 2.061000 2.003000 600 52 1.000000 0.053000 0.053000 1.200000 0.035000 0.042000
1518385217911943058	1400 50 1.200000 0.709000 0.888000 1000 44 0.900000 2.062000 2.004000 600 52 1.000000 0.053000 0.053000 1.200000 0.035000 0.042000
1518385218467930391	1400 50 1.200000 0.709000 0.888000 1000 44 0.900000 2.062000 2.004000 600 52 1.000000 0.053000 0.053000 1.200000 0.035000 0.042000
1518385219027916183	1400 50 1.200000 0.710000 0.889000 1000 44 0.900000 2.071000 2.013000 600 52 1.000000 0.053000 0.053000 1.200000 0.035000 0.042000
1518385219591941475	1400 50 1.200000 0.709000 0.888000 1000 44 0.900000 2.078000 2.019000 600 52 1.000000 0.053000 0.053000 1.200000 0.034000 0.041000
1518385220151902433	1400 50 1.200000 0.709000 0.888000 1000 44 0.900000 2.078000 2.019000 600 52 1.000000 0.053000 0.053000 1.200000 0.033000 0.039000
1518385220699930892	1400 50 1.200000 0.710000 0.889000 1000 44 0.900000 2.078000 2.019000 600 52 1.000000 0.053000 0.053000 1.200000 0.033000 0.039000
1518385221259905517	1400 50 1.200000 0.709000 0.888000 1000 44 0.900000 2.078000 2.019000 600 52 1.000000 0.053000 0.053000 1.200000 0.033000 0.039000
1518385221812011100	1400 50 1.200000 0.709000 0.888000 1000 44 0.900000 2.077000 2.018000 600 52 1.000000 0.053000 0.053000 1.200000 0.033000 0.039000
1518385222375954017	1400 50 1.200000 0.708000 0.887000 1000 44 0.900000 2.033000 1.976000 600 52 1.000000 0.053000 0.053000 1.200000 0.036000 0.043000
1518385222940016309	1400 50 1.200000 0.708000 0.887000 1000 44 0.900000 2.038000 1.978000 600 52 1.000000 0.053000 0.053000 1.200000 0.036000 0.043000
1518385223503955434	1400 50 1.200000 0.710000 0.889000 1000 44 0.900000 2.079000 2.020000 600 52 1.000000 0.053000 0.053000 1.200000 0.033000 0.039000
1518385224064061225	1400 50 1.200000 0.707000 0.885000 1000 44 0.900000 2.041000 1.983000 600 52 1.000000 0.053000 0.053000 1.200000 0.036000 0.043000
1518385224623993100	1400 50 1.200000 0.710000 0.889000 1000 44 0.900000 2.078000 2.019000 600 52 1.000000 0.053000 0.053000 1.200000 0.033000 0.039000
1518385225179884976	1400 50 1.200000 0.709000 0.889000 1000 44 0.900000 2.070000 2.012000 600 52 1.000000 0.053000 0.053000 1.200000 0.033000 0.039000
1518385225743910684	1400 50 1.200000 0.709000 0.888000 1000 44 0.900000 2.067000 2.009000 600 52 1.000000 0.053000 0.053000 1.200000 0.033000 0.039000
1518385226295945184	1400 50 1.200000 0.709000 0.888000 1000 44 0.900000 2.072000 2.013000 600 52 1.000000 0.053000 0.053000 1.200000 0.033000 0.039000
1518385226859898392	1400 50 1.200000 0.709000 0.888000 1000 44 0.900000 2.077000 2.018000 600 52 1.000000 0.053000 0.053000 1.200000 0.033000 0.039000
1518385227411912392	1400 50 1.200000 0.710000 0.889000 1000 44 0.900000 2.075000 2.016000 600 52 1.000000 0.053000 0.053000 1.200000 0.033000 0.039000
1518385227960159559	1400 50 1.200000 0.709000 0.888000 1000 44 0.900000 2.066000 2.008000 600 52 1.000000 0.053000 0.053000 1.200000 0.035000 0.042000
1518385228531961684	1400 50 1.200000 0.708000 0.887000 1000 44 0.900000 2.036000 1.978000 600 52 1.000000 0.053000 0.053000 1.200000 0.036000 0.043000
1518385229099957143	1400 50 1.200000 0.709000 0.888000 1000 44 0.900000 2.057000 1.999000 600 52 1.000000 0.053000 0.053000 1.200000 0.033000 0.039000
1518385229663965518	1400 50 1.200000 0.709000 0.888000 1000 44 0.900000 2.072000 2.013000 600 52 1.000000 0.053000 0.053000 1.200000 0.033000 0.039000
1518385230223957559	1400 50 1.200000 0.710000 0.889000 1000 44 0.900000 2.099000 2.040000 600 52 1.000000 0.053000 0.053000 1.200000 0.033000 0.039000
1518385230787943018	1400 50 1.200000 0.710000 0.889000 1000 44 0.900000 2.099000 2.040000 600 52 1.000000 0.053000 0.053000 1.200000 0.033000 0.039000
1518385231347961601	1400 50 1.200000 0.710000 0.889000 1000 44 0.900000 2.098000 2.039000 600 52 1.000000 0.053000 0.053000 1.200000 0.033000 0.039000
1518385231911958143	1400 50 1.200000 0.709000 0.888000 1000 44 0.900000 2.104000 2.045000 600 52 1.000000 0.053000 0.053000 1.200000 0.033000 0.039000
1518385232475961060	1400 50 1.200000 0.710000 0.889000 1000 44 0.900000 2.112000 2.052000 600 52 1.000000 0.053000 0.053000 1.200000 0.033000 0.039000
1518385233035965643	1400 50 1.200000 0.710000 0.889000 1000 44 0.900000 2.108000 2.048000 600 52 1.000000 0.053000 0.053000 1.200000 0.033000 0.039000
1518385233588151977	1400 50 1.200000 0.709000 0.888000 1000 44 0.900000 2.105000 2.046000 600 52 1.000000 0.053000 0.053000 1.200000 0.034000 0.041000
1518385234136122810	1400 50 1.200000 0.706000 0.884000 1000 44 0.900000 2.065000 2.007000 600 52 1.000000 0.053000 0.053000 1.200000 0.040000 0.048000
1518385234699962852	1400 50 1.200000 0.706000 0.884000 1000 44 0.900000 2.062000 2.004000 600 52 1.000000 0.053000 0.053000 1.200000 0.036000 0.043000
1518385235255940852	1400 50 1.200000 0.708000 0.887000 1000 44 0.900000 2.110000 2.050000 600 52 1.000000 0.053000 0.053000 1.200000 0.035000 0.042000
1518385235811930852	1400 50 1.200000 0.708000 0.887000 1000 44 0.900000 2.105000 2.046000 600 52 1.000000 0.053000 0.053000 1.200000 0.035000 0.042000
1518385236371970602	1400 50 1.200000 0.708000 0.887000 1000 44 0.900000 2.103000 2.044000 600 52 1.000000 0.053000 0.053000 1.200000 0.035000 0.042000
1518385236931899519	1400 50 1.200000 0.708000 0.887000 1000 44 0.900000 2.104000 2.045000 600 52 1.000000 0.053000 0.053000 1.200000 0.035000 0.042000
1518385237491895602	1400 50 1.200000 0.708000 0.887000 1000 44 0.900000 2.110000 2.050000 600 52 1.000000 0.053000 0.053000 1.200000 0.035000 0.042000
1518385238055921394	1400 50 1.200000 0.708000 0.887000 1000 44 0.900000 2.111000 2.051000 600 52 1.000000 0.053000 0.053000 1.200000 0.035000 0.042000
1518385238607915310	1400 50 1.200000 0.708000 0.887000 1000 44 0.900000 2.107000 2.048000 600 52 1.000000 0.053000 0.053000 1.200000 0.035000 0.042000
1518385239163964644	1400 50 1.200000 0.708000 0.887000 1000 44 0.900000 2.106000 2.047000 600 52 1.000000 0.053000 0.053000 1.200000 0.035000 0.042000
1518385239723936727	1400 50 1.200000 0.707000 0.885000 1000 44 0.900000 2.070000 2.012000 600 52 1.000000 0.053000 0.053000 1.200000 0.036000 0.043000
1518385240283965477	1400 50 1.200000 0.706000 0.884000 1000 44 0.900000 2.062000 2.002000 600 52 1.000000 0.053000 0.053000 1.200000 0.037000 0.044000
1518385240847964352	1400 50 1.200000 0.708000 0.887000 1000 44 0.900000 2.063000 2.003000 600 52 1.000000 0.053000 0.053000 1.200000 0.035000 0.042000
1518385241391956144	1400 50 1.200000 0.708000 0.887000 1000 44 0.900000 2.065000 2.005000 600 52 1.000000 0.053000 0.053000 1.200000 0.035000 0.042000
1518385241955924311	1400 50 1.200000 0.708000 0.887000 1000 44 0.900000 2.065000 2.007000 600 52 1.000000 0.053000 0.053000 1.200000 0.035000 0.042000
1518385242523922519	1400 50 1.200000 0.708000 0.887000 1000 44 0.900000 2.070000 2.012000 600 52 1.000000 0.053000 0.053000 1.200000 0.034000 0.041000
1518385243083937186	1400 50 1.200000 0.708000 0.887000 1000 44 0.900000 2.069000 2.011000 600 52 1.000000 0.053000 0.053000 1.200000 0.035000 0.042000
1518385243631943103	1400 50 1.200000 0.708000 0.887000 1000 44 0.900000 2.067000 2.009000 600 52 1.000000 0.053000 0.053000 1.200000 0.035000 0.042000
1518385244196009019	1400 50 1.200000 0.707000 0.885000 1000 44 0.900000 2.067000 2.009000 600 52 1.000000 0.053000 0.053000 1.200000 0.038000 0.045000
1518385244751926561	1400 50 1.200000 0.708000 0.887000 1000 44 0.900000 2.065000 2.007000 600 52 1.000000 0.053000 0.053000 1.200000 0.035000 0.042000
1518385245308028686	1400 50 1.200000 0.708000 0.887000 1000 44 0.900000 2.062000 2.004000 600 52 1.000000 0.053000 0.053000 1.200000 0.035000 0.042000
1518385245875981020	1400 50 1.200000 0.707000 0.885000 1000 44 0.900000 2.048000 1.988000 600 52 1.000000 0.053000 0.053000 1.200000 0.037000 0.044000
1518385246427956520	1400 50 1.200000 0.706000 0.884000 1000 44 0.900000 2.019000 1.962000 600 52 1.000000 0.053000 0.053000 1.200000 0.037000 0.044000
1518385246987936603	1400 50 1.200000 0.708000 0.887000 1000 44 0.900000 2.071000 2.013000 600 52 1.000000 0.053000 0.053000 1.200000 0.035000 0.042000
1518385247539861812	1400 50 1.200000 0.708000 0.887000 1000 44 0.900000 2.069000 2.011000 600 52 1.000000 0.053000 0.053000 1.200000 0.035000 0.042000
1518385248099932062	1400 50 1.200000 0.708000 0.887000 1000 44 0.900000 2.069000 2.011000 600 52 1.000000 0.053000 0.053000 1.200000 0.035000 0.042000
1518385248663908103	1400 50 1.200000 0.708000 0.887000 1000 44 0.900000 2.070000 2.012000 600 52 1.000000 0.053000 0.053000 1.200000 0.035000 0.042000
1518385249227954145	1400 50 1.200000 0.712000 0.892000 1000 44 0.900000 2.069000 2.011000 600 52 1.000000 0.053000 0.053000 1.200000 0.034000 0.041000
1518385249795923978	1400 50 1.200000 0.712000 0.892000 1000 44 0.900000 2.067000 2.009000 600 52 1.000000 0.053000 0.053000 1.200000 0.035000 0.042000
1518385250363907312	1400 50 1.200000 0.711000 0.890000 1000 44 0.900000 2.069000 2.011000 600 52 1.000000 0.053000 0.053000 1.200000 0.035000 0.042000
1518385250923972395	1400 50 1.200000 0.712000 0.892000 1000 44 0.900000 2.090000 2.031000 600 52 1.000000 0.053000 0.053000 1.200000 0.034000 0.041000
1518385251472229229	1400 50 1.200000 0.710000 0.889000 1000 44 0.900000 2.051000 1.993000 600 52 1.000000 0.053000 0.053000 1.200000 0.036000 0.043000
1518385252040028104	1400 50 1.200000 0.710000 0.889000 1000 44 0.900000 2.044000 1.986000 600 52 1.000000 0.053000 0.053000 1.200000 0.037000 0.044000
1518385252599923770	1400 50 1.200000 0.711000 0.890000 1000 44 0.900000 2.090000 2.031000 600 52 1.000000 0.053000 0.053000 1.200000 0.034000 0.041000
1518385253159988812	1400 50 1.200000 0.712000 0.892000 1000 44 0.900000 2.091000 2.032000 600 52 1.000000 0.053000 0.053000 1.200000 0.035000 0.042000
1518385253719999771	1400 50 1.200000 0.711000 0.890000 1000 44 0.900000 2.090000 2.031000 600 52 1.000000 0.053000 0.053000 1.200000 0.035000 0.042000
1518385254292066979	1400 50 1.200000 0.711000 0.890000 1000 44 0.900000 2.085000 2.026000 600 52 1.000000 0.053000 0.053000 1.200000 0.034000 0.041000
1518385254859941854	1400 50 1.200000 0.712000 0.892000 1000 44 0.900000 2.086000 2.027000 600 52 1.000000 0.053000 0.053000 1.200000 0.036000 0.043000
1518385255407999021	1400 50 1.200000 0.712000 0.892000 1000 44 0.900000 2.090000 2.031000 600 52 1.000000 0.053000 0.053000 1.200000 0.034000 0.041000
1518385255971974063	1400 50 1.200000 0.712000 0.892000 1000 44 0.900000 2.090000 2.031000 600 52 1.000000 0.053000 0.053000 1.200000 0.034000 0.041000
1518385256531954313	1400 50 1.200000 0.712000 0.892000 1000 44 0.900000 2.091000 2.032000 600 52 1.000000 0.053000 0.053000 1.200000 0.034000 0.041000
1518385257088108813	1400 50 1.200000 0.712000 0.892000 1000 44 0.900000 2.089000 2.030000 600 52 1.000000 0.053000 0.053000 1.200000 0.035000 0.042000
1518385257648123771	1400 50 1.200000 0.710000 0.889000 1000 44 0.900000 2.042000 1.984000 600 52 1.000000 0.053000 0.053000 1.200000 0.036000 0.043000
1518385258215972688	1400 50 1.200000 0.711000 0.892000 1000 44 0.900000 2.090000 2.031000 600 52 1.000000 0.053000 0.053000 1.200000 0.037000 0.044000
1518385258783909313	1400 50 1.200000 0.712000 0.892000 1000 44 0.900000 2.089000 2.030000 600 52 1.000000 0.053000 0.053000 1.200000 0.035000 0.042000
1518385259335954771	1400 50 1.200000 0.711000 0.890000 1000 44 0.900000 2.081000 2.022000 600 52 1.000000 0.053000 0.053000 1.200000 0.034000 0.041000
1518385259885334230	1400 50 1.200000 0.712000 0.892000 1000 44 0.900000 2.090000 2.031000 600 52 1.000000 0.053000 0.053000 1.200000 0.034000 0.041000
1518385260435935688	1400 50 1.200000 0.712000 0.892000 1000 44 0.900000 2.088000 2.029000 600 52 1.000000 0.053000 0.053000 1.200000 0.035000 0.042000
1518385261003949396	1400 50 1.200000 0.712000 0.892000 1000 44 0.900000 2.076000 2.017000 600 52 1.000000 0.053000 0.053000 1.200000 0.034000 0.041000
1518385261567915605	1400 50 1.200000 0.712000 0.892000 1000 44 0.900000 2.075000 2.016000 600 53 1.000000 0.053000 0.053000 1.200000 0.034000 0.041000
1518385262131948647	1400 50 1.200000 0.712000 0.892000 1000 44 0.900000 2.070000 2.012000 600 52 1.000000 0.053000 0.053000 1.200000 0.035000 0.042000
1518385262691921563	1400 50 1.200000 0.712000 0.892000 1000 44 0.900000 2.068000 2.010000 600 52 1.000000 0.053000 0.053000 1.200000 0.034000 0.041000
1518385263243969522	1400 50 1.200000 0.711000 0.890000 1000 44 0.900000 2.062000 2.004000 600 52 1.000000 0.053000 0.053000 1.200000 0.035000 0.042000
1518385263807925563	1400 50 1.200000 0.709000 0.888000 1000 44 0.900000 2.030000 1.973000 600 52 1.000000 0.053000 0.053000 1.200000 0.035000 0.042000
1518385264372027480	1400 50 1.200000 0.708000 0.887000 1000 44 0.900000 2.046000 1.988000 600 52 1.000000 0.053000 0.053000 1.200000 0.034000 0.041000
1518385264939977939	1400 50 1.200000 0.708000 0.887000 1000 44 0.900000 2.062000 2.004000 600 52 1.000000 0.053000 0.053000 1.200000 0.034000 0.041000
1518385265503917939	1400 50 1.200000 0.708000 0.887000 1000 44 0.900000 2.068000 2.010000 600 52 1.000000 0.053000 0.053000 1.200000 0.034000 0.041000
1518385266067906814	1400 50 1.200000 0.708000 0.887000 1000 44 0.900000 2.066000 2.008000 600 52 1.000000 0.053000 0.053000 1.200000 0.034000 0.041000
1518385266623881814	1400 50 1.200000 0.708000 0.887000 1000 44 0.900000 2.066000 2.008000 600 52 1.000000 0.053000 0.053000 1.200000 0.034000 0.041000
1518385267187909189	1400 50 1.200000 0.707000 0.885000 1000 44 0.900000 2.056000 1.998000 600 52 1.000000 0.053000 0.053000 1.200000 0.034000 0.041000
1518385267747954064	1400 50 1.200000 0.708000 0.887000 1000 44 0.900000 2.055000 1.997000 600 52 1.000000 0.053000 0.053000 1.200000 0.034000 0.041000
1518385268307914647	1400 50 1.200000 0.708000 0.887000 1000 44 0.900000 2.066000 2.008000 600 52 1.000000 0.053000 0.053000 1.200000 0.034000 0.041000
1518385268855969439	1400 50 1.200000 0.707000 0.885000 1000 44 0.900000 2.068000 2.010000 600 52 1.000000 0.053000 0.053000 1.200000 0.034000 0.041000
1518385269415920231	1400 50 1.200000 0.706000 0.884000 1000 44 0.900000 2.027000 1.970000 600 52 1.000000 0.053000 0.053000 1.200000 0.035000 0.042000
1518385269975934356	1400 50 1.200000 0.706000 0.884000 1000 44 0.900000 2.032000 1.975000 600 52 1.000000 0.053000 0.053000 1.200000 0.035000 0.042000
1518385270539893023	1400 50 1.200000 0.707000 0.885000 1000 44 0.900000 2.059000 2.001000 600 52 1.000000 0.053000 0.053000 1.200000 0.034000 0.041000
1518385271099933314	1400 50 1.200000 0.707000 0.885000 1000 44 0.900000 2.059000 2.001000 600 52 1.000000 0.053000 0.053000 1.200000 0.034000 0.041000
1518385271663876523	1400 50 1.200000 0.708000 0.887000 1000 44 0.900000 2.073000 2.014000 600 52 1.000000 0.053000 0.053000 1.200000 0.034000 0.041000
1518385272232055856	1400 50 1.200000 0.707000 0.885000 1000 44 0.900000 2.077000 2.018000 600 52 1.000000 0.053000 0.053000 1.200000 0.034000 0.041000
1518385272799935065	1400 50 1.200000 0.707000 0.885000 1000 44 0.900000 2.071000 2.013000 600 52 1.000000 0.053000 0.053000 1.200000 0.035000 0.042000
1518385273359913940	1400 50 1.200000 0.707000 0.885000 1000 44 0.900000 2.071000 2.013000 600 52 1.000000 0.053000 0.053000 1.200000 0.034000 0.041000
1518385273923910565	1400 50 1.200000 0.708000 0.887000 1000 44 0.900000 2.070000 2.012000 600 52 1.000000 0.053000 0.053000 1.200000 0.034000 0.041000
1518385274484009398	1400 50 1.200000 0.705000 0.883000 1000 44 0.900000 2.067000 2.009000 600 52 1.000000 0.053000 0.053000 1.200000 0.038000 0.045000
1518385275044064856	1400 50 1.200000 0.706000 0.884000 1000 44 0.900000 2.058000 2.000000 600 52 1.000000 0.053000 0.053000 1.200000 0.036000 0.043000
1518385275599962815	1400 50 1.200000 0.706000 0.884000 1000 44 0.900000 2.013000 1.956000 600 52 1.000000 0.053000 0.053000 1.200000 0.036000 0.043000
1518385276151906982	1400 50 1.200000 0.707000 0.885000 1000 44 0.900000 2.068000 2.010000 600 52 1.000000 0.053000 0.053000 1.200000 0.034000 0.041000
1518385276720016148	1400 50 1.200000 0.707000 0.885000 1000 44 0.900000 2.069000 2.011000 600 52 1.000000 0.053000 0.053000 1.200000 0.034000 0.041000
1518385277279935982	1400 50 1.200000 0.708000 0.887000 1000 44 0.900000 2.059000 2.001000 600 52 1.000000 0.053000 0.053000 1.200000 0.033000 0.039000
1518385277839942648	1400 50 1.200000 0.708000 0.887000 1000 44 0.900000 2.070000 2.012000 600 52 1.000000 0.053000 0.053000 1.200000 0.033000 0.039000
1518385278407930274	1400 50 1.200000 0.709000 0.888000 1000 44 0.900000 2.070000 2.012000 600 52 1.000000 0.053000 0.053000 1.200000 0.033000 0.039000
1518385278967937024	1400 50 1.200000 0.709000 0.888000 1000 44 0.900000 2.071000 2.013000 600 52 1.000000 0.053000 0.053000 1.200000 0.033000 0.039000
1518385279531947649	1400 50 1.200000 0.710000 0.889000 1000 44 0.900000 2.068000 2.010000 600 52 1.000000 0.053000 0.053000 1.200000 0.033000 0.039000
1518385280087994940	1400 50 1.200000 0.709000 0.888000 1000 44 0.900000 2.065000 2.007000 600 52 1.000000 0.053000 0.053000 1.200000 0.034000 0.041000
1518385280652001607	1400 50 1.200000 0.709000 0.888000 1000 44 0.900000 2.064000 2.006000 600 52 1.000000 0.053000 0.053000 1.200000 0.034000 0.041000
1518385281211976274	1400 50 1.200000 0.709000 0.888000 1000 44 0.900000 2.009000 1.952000 600 52 1.000000 0.053000 0.053000 1.200000 0.036000 0.043000
1518385281775994982	1400 50 1.200000 0.708000 0.887000 1000 44 0.900000 2.032000 1.975000 600 52 1.000000 0.053000 0.053000 1.200000 0.035000 0.042000
1518385282339921607	1400 50 1.200000 0.709000 0.888000 1000 44 0.900000 2.077000 2.018000 600 52 1.000000 0.053000 0.053000 1.200000 0.033000 0.039000
1518385282899942066	1400 50 1.200000 0.708000 0.887000 1000 44 0.900000 2.084000 2.025000 600 52 1.000000 0.053000 0.053000 1.200000 0.034000 0.041000
1518385283471909941	1400 50 1.200000 0.709000 0.888000 1000 44 0.900000 2.086000 2.027000 600 52 1.000000 0.053000 0.053000 1.200000 0.034000 0.041000
1518385284035929566	1400 50 1.200000 0.708000 0.887000 1000 44 0.900000 2.086000 2.027000 600 52 1.000000 0.053000 0.053000 1.200000 0.033000 0.039000
1518385284600011983	1400 50 1.200000 0.708000 0.887000 1000 44 0.900000 2.086000 2.027000 600 52 1.000000 0.053000 0.053000 1.200000 0.038000 0.045000
1518385285151977983	1400 50 1.200000 0.709000 0.888000 1000 44 0.900000 2.086000 2.027000 600 52 1.000000 0.053000 0.053000 1.200000 0.034000 0.041000
1518385285707976399	1400 50 1.200000 0.709000 0.888000 1000 44 0.900000 2.082000 2.023000 600 52 1.000000 0.053000 0.053000 1.200000 0.034000 0.041000
1518385286279892899	1400 50 1.200000 0.708000 0.887000 1000 44 0.900000 2.078000 2.019000 600 53 1.000000 0.053000 0.053000 1.200000 0.034000 0.041000
1518385286831238025	1400 50 1.200000 0.708000 0.887000 1000 44 0.900000 2.029000 1.972000 600 53 1.000000 0.053000 0.053000 1.200000 0.035000 0.042000
1518385287395998608	1400 50 1.200000 0.708000 0.887000 1000 44 0.900000 2.038000 1.978000 600 52 1.000000 0.053000 0.053000 1.200000 0.036000 0.043000
1518385287955974816	1400 50 1.200000 0.708000 0.887000 1000 45 0.900000 2.087000 2.028000 600 53 1.000000 0.054000 0.054000 1.200000 0.034000 0.041000
1518385288515981525	1400 50 1.200000 0.708000 0.887000 1000 45 0.900000 2.085000 2.026000 600 53 1.000000 0.053000 0.053000 1.200000 0.034000 0.041000
1518385289071970858	1400 50 1.200000 0.709000 0.888000 1000 44 0.900000 2.083000 2.024000 600 53 1.000000 0.053000 0.053000 1.200000 0.034000 0.041000
1518385289639952317	1400 50 1.200000 0.708000 0.887000 1000 44 0.900000 2.082000 2.023000 600 53 1.000000 0.053000 0.053000 1.200000 0.034000 0.041000
1518385290195978108	1400 50 1.200000 0.709000 0.888000 1000 45 0.900000 2.076000 2.017000 600 53 1.000000 0.053000 0.053000 1.200000 0.034000 0.041000
1518385290759944025	1400 50 1.200000 0.709000 0.888000 1000 44 0.900000 2.079000 2.020000 600 53 1.000000 0.053000 0.053000 1.200000 0.034000 0.041000
1518385291319892400	1400 50 1.200000 0.709000 0.888000 1000 45 0.900000 2.087000 2.028000 600 53 1.000000 0.053000 0.053000 1.200000 0.033000 0.039000
1518385291883951567	1400 50 1.200000 0.709000 0.888000 1000 44 0.900000 2.088000 2.029000 600 53 1.000000 0.053000 0.053000 1.200000 0.034000 0.041000
1518385292432083067	1400 50 1.200000 0.709000 0.888000 1000 44 0.900000 2.077000 2.018000 600 52 1.000000 0.053000 0.053000 1.200000 0.033000 0.039000
1518385292992153234	1400 50 1.200000 0.708000 0.887000 1000 44 0.900000 2.045000 1.987000 600 52 1.000000 0.053000 0.053000 1.200000 0.036000 0.043000
1518385293555943817	1400 50 1.200000 0.705000 0.883000 1000 44 0.900000 2.031000 1.974000 600 52 1.000000 0.053000 0.053000 1.200000 0.037000 0.044000
1518385294115978525	1400 50 1.200000 0.706000 0.884000 1000 44 0.900000 2.061000 2.003000 600 52 1.000000 0.053000 0.053000 1.200000 0.036000 0.043000
1518385294680009192	1400 50 1.200000 0.706000 0.884000 1000 44 0.900000 2.059000 2.001000 600 52 1.000000 0.054000 0.054000 1.200000 0.036000 0.043000
1518385295243969484	1400 50 1.200000 0.705000 0.883000 1000 44 0.900000 2.062000 2.004000 600 52 1.000000 0.053000 0.053000 1.200000 0.035000 0.042000
1518385295799968317	1400 50 1.200000 0.705000 0.883000 1000 44 0.900000 2.063000 2.005000 600 52 1.000000 0.053000 0.053000 1.200000 0.035000 0.042000
1518385296363930484	1400 50 1.200000 0.705000 0.883000 1000 44 0.900000 2.064000 2.006000 600 52 1.000000 0.053000 0.053000 1.200000 0.036000 0.043000
1518385296927958317	1400 50 1.200000 0.706000 0.884000 1000 44 0.900000 2.062000 2.004000 600 52 1.000000 0.053000 0.053000 1.200000 0.036000 0.043000
1518385297483941526	1400 50 1.200000 0.705000 0.883000 1000 44 0.900000 2.060000 2.002000 600 52 1.000000 0.053000 0.053000 1.200000 0.035000 0.042000
1518385298047938984	1400 50 1.200000 0.705000 0.883000 1000 44 0.900000 2.061000 2.003000 600 52 1.000000 0.054000 0.054000 1.200000 0.035000 0.042000
1518385298616030984	1400 50 1.200000 0.705000 0.883000 1000 44 0.900000 2.040000 1.982000 600 52 1.000000 0.053000 0.053000 1.200000 0.036000 0.043000
1518385299179962984	1400 50 1.200000 0.704000 0.882000 1000 44 0.900000 2.037000 1.979000 600 52 1.000000 0.053000 0.053000 1.200000 0.039000 0.047000
1518385299735977359	1400 50 1.200000 0.706000 0.884000 1000 44 0.900000 2.062000 2.004000 600 52 1.000000 0.053000 0.053000 1.200000 0.035000 0.042000
1518385300299957026	1400 50 1.200000 0.706000 0.884000 1000 44 0.900000 2.061000 2.003000 600 52 1.000000 0.053000 0.053000 1.200000 0.035000 0.042000
1518385300859937526	1400 50 1.200000 0.706000 0.884000 1000 44 0.900000 2.049000 1.991000 600 52 1.000000 0.053000 0.053000 1.200000 0.035000 0.042000
1518385301423897235	1400 50 1.200000 0.705000 0.883000 1000 44 0.900000 2.055000 1.997000 600 52 1.000000 0.053000 0.053000 1.200000 0.035000 0.042000
1518385301995948985	1400 50 1.200000 0.705000 0.883000 1000 44 0.900000 2.060000 2.002000 600 52 1.000000 0.054000 0.054000 1.200000 0.035000 0.042000
1518385302555968193	1400 50 1.200000 0.706000 0.884000 1000 44 0.900000 2.054000 1.996000 600 53 1.000000 0.053000 0.053000 1.200000 0.035000 0.042000
1518385303119926526	1400 50 1.200000 0.705000 0.883000 1000 44 0.900000 2.067000 2.009000 600 53 1.000000 0.053000 0.053000 1.200000 0.035000 0.042000
1518385303667903235	1400 50 1.200000 0.705000 0.883000 1000 45 0.900000 2.070000 2.012000 600 53 1.000000 0.053000 0.053000 1.200000 0.036000 0.043000
1518385304231934235	1400 50 1.200000 0.706000 0.884000 1000 44 0.900000 2.075000 2.016000 600 52 1.000000 0.053000 0.053000 1.200000 0.035000 0.042000
1518385304796113985	1400 50 1.200000 0.701000 0.878000 1000 44 0.900000 2.017000 1.960000 600 52 1.000000 0.053000 0.053000 1.200000 0.041000 0.049000
1518385305363979943	1400 50 1.200000 0.705000 0.883000 1000 44 0.900000 2.043000 1.985000 600 52 1.000000 0.053000 0.053000 1.200000 0.037000 0.044000
1518385305923933235	1400 50 1.200000 0.706000 0.884000 1000 45 0.900000 2.063000 2.005000 600 53 1.000000 0.053000 0.053000 1.200000 0.035000 0.042000
1518385306483930485	1400 50 1.200000 0.706000 0.884000 1000 45 0.900000 2.069000 2.011000 600 53 1.000000 0.053000 0.053000 1.200000 0.036000 0.043000
1518385307051967360	1400 50 1.200000 0.705000 0.883000 1000 44 0.900000 2.070000 2.012000 600 53 1.000000 0.053000 0.053000 1.200000 0.036000 0.043000
1518385307563955735	1400 50 1.200000 0.706000 0.884000 1000 44 0.900000 2.077000 2.018000 600 53 1.000000 0.053000 0.053000 1.200000 0.036000 0.043000
1518385308071598860	1400 48 1.200000 0.544000 0.683000 1000 42 0.900000 2.073000 2.014000 600 53 1.000000 0.053000 0.053000 1.200000 0.030000 0.036000
1518385308579083985	1400 47 1.200000 0.087000 0.110000 1000 42 0.900000 2.082000 2.023000 600 52 1.000000 0.053000 0.053000 1.200000 0.024000 0.028000
1518385309086558277	1400 47 1.200000 0.088000 0.112000 1000 41 0.900000 2.082000 2.023000 600 52 1.000000 0.053000 0.053000 1.200000 0.024000 0.028000
1518385309593890027	1400 46 1.200000 0.084000 0.106000 1000 41 0.900000 2.081000 2.024000 600 52 1.000000 0.053000 0.053000 1.200000 0.023000 0.027000
1518385310101898319	1400 46 1.200000 0.087000 0.110000 1000 41 0.900000 2.081000 2.022000 600 52 1.000000 0.053000 0.053000 1.200000 0.024000 0.028000
1518385310609532361	1400 46 1.200000 0.100000 0.127000 1000 41 0.900000 2.046000 1.988000 600 51 1.000000 0.053000 0.053000 1.200000 0.027000 0.032000
1518385311116932902	1400 46 1.200000 0.082000 0.104000 1000 40 0.900000 2.080000 2.023000 600 51 1.000000 0.053000 0.053000 1.200000 0.023000 0.027000
1518385311624568444	1400 46 1.200000 0.083000 0.105000 1000 40 0.900000 2.078000 2.021000 600 51 1.000000 0.053000 0.053000 1.200000 0.023000 0.027000
1518385312131981611	1400 46 1.200000 0.082000 0.104000 1000 40 0.900000 2.078000 2.019000 600 51 1.000000 0.053000 0.053000 1.200000 0.023000 0.027000
1518385312639569069	1400 45 1.200000 0.082000 0.104000 1000 40 0.900000 2.079000 2.020000 600 49 1.000000 0.053000 0.053000 1.200000 0.023000 0.027000
1518385313146760653	1400 41 1.200000 0.082000 0.104000 1000 39 0.900000 0.801000 0.774000 600 45 1.000000 0.053000 0.053000 1.200000 0.022000 0.026000
1518385313653885278	1400 40 1.200000 0.081000 0.103000 1000 38 0.900000 0.680000 0.656000 600 44 1.000000 0.053000 0.053000 1.200000 0.023000 0.027000
1518385314161037778	1400 38 1.200000 0.080000 0.101000 1000 37 0.900000 0.622000 0.601000 600 42 1.000000 0.053000 0.053000 1.200000 0.024000 0.028000
1518385314668370903	1400 37 1.200000 0.080000 0.101000 1000 36 0.900000 0.113000 0.110000 600 41 1.000000 0.053000 0.053000 1.200000 0.023000 0.027000
