#Timestamp	CPU(0) Frequency(MHz)	CPU(0) Temperature(C)	A7 Voltage(V)	A7 Current(A)	A7 Power(W)	CPU(4) Frequency(MHz)	CPU(4) Temperature(C)	A15 Voltage(V)	A15 Current(A)	A15 Power(W)	GPU Frequency(MHz)	GPU Temperature(C)	GPU Voltage(V)	GPU Current(A)	GPU Power(W)	RAM Voltage(V)	RAM Current(A)	RAM Power(W)
1538310254582822102	700 28 0.900000 0.116000 0.114000 1100 22 0.900000 2.188000 2.183000 600 32 1.000000 0.050000 0.050000 1.200000 0.030000 0.036000
1538310255142713727	700 30 0.900000 0.257000 0.250000 1100 24 0.900000 2.298000 2.293000 600 34 1.000000 0.050000 0.050000 1.200000 0.026000 0.031000
1538310255698759894	700 32 0.900000 0.257000 0.250000 1100 25 0.900000 2.300000 2.295000 600 36 1.000000 0.050000 0.050000 1.200000 0.026000 0.031000
1538310256254714478	700 32 0.900000 0.258000 0.251000 1100 26 0.900000 2.302000 2.297000 600 37 1.000000 0.050000 0.050000 1.200000 0.027000 0.032000
1538310256810701603	700 33 0.900000 0.258000 0.251000 1100 26 0.900000 2.304000 2.299000 600 37 1.000000 0.050000 0.050000 1.200000 0.027000 0.032000
1538310257370745686	700 33 0.900000 0.258000 0.251000 1100 27 0.900000 2.304000 2.299000 600 38 1.000000 0.050000 0.050000 1.200000 0.027000 0.032000
1538310257934724144	700 34 0.900000 0.258000 0.251000 1100 27 0.900000 2.293000 2.288000 600 38 1.000000 0.050000 0.050000 1.200000 0.026000 0.031000
1538310258494726519	700 34 0.900000 0.259000 0.252000 1100 28 0.900000 2.306000 2.301000 600 39 1.000000 0.050000 0.050000 1.200000 0.026000 0.031000
1538310259050666436	700 34 0.900000 0.259000 0.252000 1100 28 0.900000 2.307000 2.302000 600 39 1.000000 0.050000 0.050000 1.200000 0.026000 0.031000
1538310259610729145	700 35 0.900000 0.258000 0.251000 1100 28 0.900000 2.307000 2.302000 600 39 1.000000 0.050000 0.050000 1.200000 0.027000 0.032000
1538310260162680728	700 35 0.900000 0.259000 0.252000 1100 28 0.900000 2.307000 2.302000 600 40 1.000000 0.050000 0.050000 1.200000 0.026000 0.031000
1538310260726715353	700 35 0.900000 0.258000 0.251000 1100 28 0.900000 2.307000 2.302000 600 40 1.000000 0.050000 0.050000 1.200000 0.026000 0.031000
1538310261282667353	700 35 0.900000 0.259000 0.252000 1100 29 0.900000 2.308000 2.303000 600 40 1.000000 0.050000 0.050000 1.200000 0.026000 0.031000
1538310261822741353	700 35 0.900000 0.259000 0.252000 1100 29 0.900000 2.309000 2.304000 600 40 1.000000 0.051000 0.051000 1.200000 0.026000 0.031000
1538310262386686853	700 35 0.900000 0.259000 0.252000 1100 29 0.900000 2.308000 2.303000 600 40 1.000000 0.050000 0.050000 1.200000 0.027000 0.032000
1538310262946704062	700 36 0.900000 0.259000 0.252000 1100 29 0.900000 2.307000 2.302000 600 40 1.000000 0.050000 0.050000 1.200000 0.027000 0.032000
1538310263510729312	700 36 0.900000 0.259000 0.252000 1100 29 0.900000 2.310000 2.305000 600 40 1.000000 0.050000 0.050000 1.200000 0.026000 0.031000
1538310264062691812	700 36 0.900000 0.259000 0.252000 1100 29 0.900000 2.308000 2.303000 600 41 1.000000 0.050000 0.050000 1.200000 0.026000 0.031000
1538310264626724687	700 36 0.900000 0.259000 0.252000 1100 29 0.900000 2.317000 2.312000 600 41 1.000000 0.050000 0.050000 1.200000 0.026000 0.031000
1538310265182712979	700 36 0.900000 0.259000 0.252000 1100 30 0.900000 2.321000 2.316000 600 41 1.000000 0.051000 0.051000 1.200000 0.026000 0.031000
1538310265742696520	700 36 0.900000 0.259000 0.252000 1100 30 0.900000 2.311000 2.306000 600 41 1.000000 0.050000 0.050000 1.200000 0.026000 0.031000
1538310266306674812	700 36 0.900000 0.259000 0.252000 1100 30 0.900000 2.316000 2.311000 600 41 1.000000 0.050000 0.050000 1.200000 0.026000 0.031000
1538310266862703395	700 36 0.900000 0.259000 0.252000 1100 30 0.900000 2.321000 2.316000 600 41 1.000000 0.050000 0.050000 1.200000 0.026000 0.031000
1538310267422676021	700 36 0.900000 0.259000 0.252000 1100 30 0.900000 2.316000 2.311000 600 41 1.000000 0.051000 0.051000 1.200000 0.027000 0.032000
1538310267962731062	700 36 0.900000 0.259000 0.252000 1100 30 0.900000 2.316000 2.311000 600 41 1.000000 0.051000 0.051000 1.200000 0.026000 0.031000
1538310268522694396	700 36 0.900000 0.259000 0.252000 1100 30 0.900000 2.321000 2.316000 600 41 1.000000 0.051000 0.051000 1.200000 0.026000 0.031000
1538310269078763562	700 36 0.900000 0.259000 0.252000 1100 30 0.900000 2.316000 2.311000 600 41 1.000000 0.051000 0.051000 1.200000 0.026000 0.031000
1538310269638733354	700 36 0.900000 0.259000 0.252000 1100 30 0.900000 2.318000 2.313000 600 41 1.000000 0.050000 0.050000 1.200000 0.026000 0.031000
1538310270198670688	700 36 0.900000 0.259000 0.252000 1100 30 0.900000 2.319000 2.314000 600 41 1.000000 0.051000 0.051000 1.200000 0.026000 0.031000
1538310270754695854	700 37 0.900000 0.259000 0.252000 1100 30 0.900000 2.316000 2.311000 600 41 1.000000 0.051000 0.051000 1.200000 0.026000 0.031000
1538310271318697354	700 37 0.900000 0.259000 0.252000 1100 30 0.900000 2.317000 2.312000 600 41 1.000000 0.051000 0.051000 1.200000 0.027000 0.032000
1538310271874647521	700 37 0.900000 0.259000 0.252000 1100 30 0.900000 2.321000 2.316000 600 42 1.000000 0.051000 0.051000 1.200000 0.026000 0.031000
1538310272426648146	700 37 0.900000 0.259000 0.252000 1100 30 0.900000 2.318000 2.313000 600 41 1.000000 0.051000 0.051000 1.200000 0.026000 0.031000
1538310272974740688	700 37 0.900000 0.259000 0.252000 1100 30 0.900000 2.315000 2.310000 600 42 1.000000 0.050000 0.050000 1.200000 0.026000 0.031000
1538310273518676021	700 37 0.900000 0.259000 0.252000 1100 30 0.900000 2.312000 2.307000 600 42 1.000000 0.050000 0.050000 1.200000 0.027000 0.032000
1538310274074733813	700 37 0.900000 0.259000 0.252000 1100 30 0.900000 2.314000 2.309000 600 42 1.000000 0.051000 0.051000 1.200000 0.026000 0.031000
1538310274630730646	700 37 0.900000 0.259000 0.252000 1100 30 0.900000 2.313000 2.308000 600 42 1.000000 0.050000 0.050000 1.200000 0.027000 0.032000
1538310275182659855	700 37 0.900000 0.259000 0.252000 1100 30 0.900000 2.307000 2.302000 600 42 1.000000 0.051000 0.051000 1.200000 0.026000 0.031000
1538310275734748772	700 37 0.900000 0.259000 0.252000 1100 30 0.900000 2.311000 2.306000 600 42 1.000000 0.051000 0.051000 1.200000 0.026000 0.031000
1538310276290690063	700 37 0.900000 0.259000 0.252000 1100 30 0.900000 2.312000 2.307000 600 42 1.000000 0.051000 0.051000 1.200000 0.026000 0.031000
1538310276854769063	700 37 0.900000 0.259000 0.252000 1100 30 0.900000 2.305000 2.300000 600 42 1.000000 0.050000 0.050000 1.200000 0.027000 0.032000
1538310277410714188	700 37 0.900000 0.259000 0.252000 1100 30 0.900000 2.301000 2.296000 600 42 1.000000 0.050000 0.050000 1.200000 0.027000 0.032000
1538310277962714647	700 37 0.900000 0.259000 0.252000 1100 30 0.900000 2.306000 2.301000 600 42 1.000000 0.051000 0.051000 1.200000 0.027000 0.032000
1538310278522736814	700 37 0.900000 0.259000 0.252000 1100 30 0.900000 2.300000 2.295000 600 42 1.000000 0.050000 0.050000 1.200000 0.027000 0.032000
1538310279066715480	700 37 0.900000 0.259000 0.252000 1100 30 0.900000 2.314000 2.309000 600 42 1.000000 0.050000 0.050000 1.200000 0.026000 0.031000
1538310279622787897	700 37 0.900000 0.258000 0.251000 1100 30 0.900000 2.219000 2.214000 600 42 1.000000 0.050000 0.050000 1.200000 0.038000 0.045000
1538310280186706772	700 37 0.900000 0.259000 0.252000 1100 30 0.900000 2.313000 2.308000 600 42 1.000000 0.051000 0.051000 1.200000 0.027000 0.032000
1538310280746711355	700 37 0.900000 0.259000 0.252000 1100 30 0.900000 2.306000 2.301000 600 42 1.000000 0.050000 0.050000 1.200000 0.027000 0.032000
1538310281298663439	700 37 0.900000 0.259000 0.252000 1100 30 0.900000 2.313000 2.308000 600 42 1.000000 0.051000 0.051000 1.200000 0.027000 0.032000
1538310281854724481	700 37 0.900000 0.259000 0.252000 1100 31 0.900000 2.299000 2.294000 600 42 1.000000 0.051000 0.051000 1.200000 0.027000 0.032000
1538310282402694231	700 37 0.900000 0.259000 0.252000 1100 30 0.900000 2.312000 2.307000 600 42 1.000000 0.050000 0.050000 1.200000 0.027000 0.032000
1538310282954716356	700 37 0.900000 0.259000 0.252000 1100 30 0.900000 2.322000 2.317000 600 42 1.000000 0.051000 0.051000 1.200000 0.027000 0.032000
1538310283495308814	700 37 0.900000 0.259000 0.252000 1100 30 0.900000 2.322000 2.317000 600 42 1.000000 0.051000 0.051000 1.200000 0.027000 0.032000
1538310284058741564	700 37 0.900000 0.259000 0.252000 1100 30 0.900000 2.315000 2.310000 600 42 1.000000 0.051000 0.051000 1.200000 0.029000 0.035000
1538310284610729023	700 37 0.900000 0.259000 0.252000 1100 31 0.900000 2.325000 2.320000 600 42 1.000000 0.051000 0.051000 1.200000 0.030000 0.036000
1538310285170684314	700 37 0.900000 0.259000 0.252000 1100 31 0.900000 2.324000 2.319000 600 42 1.000000 0.050000 0.050000 1.200000 0.030000 0.036000
1538310285730715689	700 37 0.900000 0.259000 0.252000 1100 31 0.900000 2.323000 2.318000 600 42 1.000000 0.051000 0.051000 1.200000 0.030000 0.036000
1538310286282683856	700 37 0.900000 0.259000 0.252000 1100 31 0.900000 2.322000 2.317000 600 42 1.000000 0.051000 0.051000 1.200000 0.030000 0.036000
1538310286838727231	700 37 0.900000 0.259000 0.252000 1100 31 0.900000 2.318000 2.313000 600 42 1.000000 0.051000 0.051000 1.200000 0.030000 0.036000
1538310287398727648	700 37 0.900000 0.259000 0.252000 1100 30 0.900000 2.318000 2.313000 600 42 1.000000 0.051000 0.051000 1.200000 0.030000 0.036000
1538310287950744398	700 37 0.900000 0.259000 0.252000 1100 30 0.900000 2.322000 2.317000 600 42 1.000000 0.050000 0.050000 1.200000 0.030000 0.036000
1538310288510740398	700 37 0.900000 0.259000 0.252000 1100 31 0.900000 2.321000 2.316000 600 42 1.000000 0.050000 0.050000 1.200000 0.030000 0.036000
1538310289062750356	700 37 0.900000 0.259000 0.252000 1100 31 0.900000 2.321000 2.316000 600 42 1.000000 0.051000 0.051000 1.200000 0.030000 0.036000
1538310289618737982	700 37 0.900000 0.259000 0.252000 1100 31 0.900000 2.325000 2.320000 600 42 1.000000 0.051000 0.051000 1.200000 0.030000 0.036000
1538310290178703732	700 37 0.900000 0.259000 0.252000 1100 31 0.900000 2.324000 2.319000 600 42 1.000000 0.051000 0.051000 1.200000 0.030000 0.036000
1538310290734665148	700 37 0.900000 0.259000 0.252000 1100 31 0.900000 2.324000 2.319000 600 42 1.000000 0.050000 0.050000 1.200000 0.030000 0.036000
1538310291294662023	700 37 0.900000 0.259000 0.252000 1100 31 0.900000 2.324000 2.319000 600 42 1.000000 0.051000 0.051000 1.200000 0.030000 0.036000
1538310291854753648	700 37 0.900000 0.259000 0.252000 1100 31 0.900000 2.318000 2.313000 600 42 1.000000 0.051000 0.051000 1.200000 0.030000 0.036000
1538310292406721648	700 37 0.900000 0.259000 0.252000 1100 31 0.900000 2.321000 2.316000 600 42 1.000000 0.051000 0.051000 1.200000 0.030000 0.036000
1538310292966706982	700 37 0.900000 0.259000 0.252000 1100 31 0.900000 2.316000 2.311000 600 42 1.000000 0.051000 0.051000 1.200000 0.030000 0.036000
1538310293526738649	700 37 0.900000 0.259000 0.252000 1100 31 0.900000 2.313000 2.308000 600 42 1.000000 0.051000 0.051000 1.200000 0.030000 0.036000
1538310294090701357	700 37 0.900000 0.259000 0.252000 1100 31 0.900000 2.323000 2.318000 600 42 1.000000 0.051000 0.051000 1.200000 0.030000 0.036000
1538310294650725149	700 37 0.900000 0.259000 0.252000 1100 31 0.900000 2.325000 2.320000 600 42 1.000000 0.050000 0.050000 1.200000 0.030000 0.036000
1538310295210735566	700 37 0.900000 0.259000 0.252000 1100 31 0.900000 2.328000 2.323000 600 42 1.000000 0.051000 0.051000 1.200000 0.030000 0.036000
1538310295754774316	700 37 0.900000 0.259000 0.252000 1100 31 0.900000 2.326000 2.321000 600 42 1.000000 0.051000 0.051000 1.200000 0.030000 0.036000
1538310296310711941	700 37 0.900000 0.259000 0.252000 1100 31 0.900000 2.325000 2.320000 600 42 1.000000 0.050000 0.050000 1.200000 0.030000 0.036000
1538310296862703399	700 37 0.900000 0.259000 0.252000 1100 31 0.900000 2.325000 2.320000 600 42 1.000000 0.051000 0.051000 1.200000 0.030000 0.036000
1538310297422751607	700 37 0.900000 0.259000 0.252000 1100 31 0.900000 2.324000 2.319000 600 42 1.000000 0.051000 0.051000 1.200000 0.030000 0.036000
1538310297982703857	700 37 0.900000 0.259000 0.252000 1100 31 0.900000 2.324000 2.319000 600 42 1.000000 0.050000 0.050000 1.200000 0.030000 0.036000
1538310298538741816	700 37 0.900000 0.259000 0.252000 1100 31 0.900000 2.317000 2.312000 600 42 1.000000 0.050000 0.050000 1.200000 0.030000 0.036000
1538310299106740066	700 37 0.900000 0.259000 0.252000 1100 31 0.900000 2.318000 2.313000 600 42 1.000000 0.051000 0.051000 1.200000 0.030000 0.036000
1538310299662656733	700 37 0.900000 0.259000 0.252000 1100 31 0.900000 2.326000 2.321000 600 42 1.000000 0.051000 0.051000 1.200000 0.029000 0.035000
1538310300214726441	700 37 0.900000 0.259000 0.252000 1100 31 0.900000 2.325000 2.320000 600 42 1.000000 0.051000 0.051000 1.200000 0.030000 0.036000
1538310300778726816	700 37 0.900000 0.259000 0.252000 1100 31 0.900000 2.325000 2.320000 600 42 1.000000 0.051000 0.051000 1.200000 0.030000 0.036000
1538310301330720525	700 37 0.900000 0.259000 0.252000 1100 31 0.900000 2.309000 2.304000 600 42 1.000000 0.051000 0.051000 1.200000 0.030000 0.036000
1538310301874681316	700 37 0.900000 0.259000 0.252000 1100 31 0.900000 2.307000 2.302000 600 42 1.000000 0.051000 0.051000 1.200000 0.030000 0.036000
1538310302422767691	700 37 0.900000 0.259000 0.252000 1100 31 0.900000 2.307000 2.302000 600 42 1.000000 0.051000 0.051000 1.200000 0.030000 0.036000
1538310302982719816	700 37 0.900000 0.259000 0.252000 1100 31 0.900000 2.308000 2.303000 600 42 1.000000 0.051000 0.051000 1.200000 0.030000 0.036000
1538310303546707150	700 37 0.900000 0.259000 0.252000 1100 31 0.900000 2.307000 2.302000 600 42 1.000000 0.051000 0.051000 1.200000 0.030000 0.036000
1538310304110657817	700 37 0.900000 0.259000 0.252000 1100 31 0.900000 2.307000 2.302000 600 42 1.000000 0.051000 0.051000 1.200000 0.030000 0.036000
1538310304666682858	700 37 0.900000 0.259000 0.252000 1100 31 0.900000 2.305000 2.300000 600 42 1.000000 0.051000 0.051000 1.200000 0.029000 0.035000
1538310305226654775	700 37 0.900000 0.259000 0.252000 1100 31 0.900000 2.296000 2.291000 600 42 1.000000 0.051000 0.051000 1.200000 0.029000 0.035000
1538310305786745108	700 37 0.900000 0.259000 0.252000 1100 31 0.900000 2.304000 2.299000 600 42 1.000000 0.051000 0.051000 1.200000 0.030000 0.036000
1538310306346718692	700 37 0.900000 0.259000 0.252000 1100 31 0.900000 2.305000 2.300000 600 42 1.000000 0.051000 0.051000 1.200000 0.030000 0.036000
1538310306910755275	700 37 0.900000 0.259000 0.252000 1100 31 0.900000 2.301000 2.296000 600 42 1.000000 0.051000 0.051000 1.200000 0.030000 0.036000
1538310307470695817	700 37 0.900000 0.259000 0.252000 1100 31 0.900000 2.296000 2.291000 600 42 1.000000 0.050000 0.050000 1.200000 0.029000 0.035000
1538310308030686234	700 37 0.900000 0.259000 0.252000 1100 31 0.900000 2.299000 2.294000 600 42 1.000000 0.051000 0.051000 1.200000 0.030000 0.036000
1538310308590734192	700 37 0.900000 0.259000 0.252000 1100 31 0.900000 2.302000 2.297000 600 42 1.000000 0.051000 0.051000 1.200000 0.030000 0.036000
1538310309146698109	700 37 0.900000 0.259000 0.252000 1100 31 0.900000 2.304000 2.299000 600 42 1.000000 0.051000 0.051000 1.200000 0.030000 0.036000
1538310309706729567	700 37 0.900000 0.260000 0.252000 1100 31 0.900000 2.298000 2.293000 600 42 1.000000 0.051000 0.051000 1.200000 0.029000 0.035000
1538310310254743734	700 37 0.900000 0.259000 0.252000 1100 31 0.900000 2.301000 2.296000 600 42 1.000000 0.051000 0.051000 1.200000 0.030000 0.036000
1538310310814666401	700 37 0.900000 0.259000 0.252000 1100 31 0.900000 2.315000 2.310000 600 42 1.000000 0.051000 0.051000 1.200000 0.030000 0.036000
1538310311370699442	700 37 0.900000 0.259000 0.252000 1100 31 0.900000 2.313000 2.308000 600 42 1.000000 0.051000 0.051000 1.200000 0.030000 0.036000
1538310311938704401	700 37 0.900000 0.259000 0.252000 1100 31 0.900000 2.308000 2.303000 600 42 1.000000 0.051000 0.051000 1.200000 0.030000 0.036000
1538310312494697901	700 37 0.900000 0.259000 0.252000 1100 31 0.900000 2.304000 2.299000 600 42 1.000000 0.050000 0.050000 1.200000 0.030000 0.036000
1538310313038780401	700 37 0.900000 0.259000 0.252000 1100 31 0.900000 2.310000 2.305000 600 42 1.000000 0.051000 0.051000 1.200000 0.030000 0.036000
1538310313594723234	700 37 0.900000 0.259000 0.252000 1100 31 0.900000 2.312000 2.307000 600 42 1.000000 0.051000 0.051000 1.200000 0.030000 0.036000
1538310314150711026	700 37 0.900000 0.259000 0.252000 1100 31 0.900000 2.308000 2.303000 600 42 1.000000 0.051000 0.051000 1.200000 0.031000 0.037000
1538310314698744401	700 37 0.900000 0.260000 0.252000 1100 31 0.900000 2.316000 2.311000 600 42 1.000000 0.050000 0.050000 1.200000 0.029000 0.035000
1538310315258714776	700 37 0.900000 0.260000 0.252000 1100 31 0.900000 2.317000 2.312000 600 42 1.000000 0.051000 0.051000 1.200000 0.029000 0.035000
1538310315810724401	700 37 0.900000 0.260000 0.252000 1100 31 0.900000 2.311000 2.306000 600 42 1.000000 0.051000 0.051000 1.200000 0.030000 0.036000
1538310316354759860	700 37 0.900000 0.260000 0.252000 1100 31 0.900000 2.315000 2.310000 600 42 1.000000 0.051000 0.051000 1.200000 0.030000 0.036000
1538310316910732026	700 37 0.900000 0.260000 0.252000 1100 31 0.900000 2.306000 2.301000 600 42 1.000000 0.051000 0.051000 1.200000 0.029000 0.035000
1538310317462747401	700 37 0.900000 0.259000 0.252000 1100 31 0.900000 2.310000 2.305000 600 42 1.000000 0.051000 0.051000 1.200000 0.030000 0.036000
1538310318026708985	700 37 0.900000 0.259000 0.252000 1100 31 0.900000 2.310000 2.305000 600 42 1.000000 0.051000 0.051000 1.200000 0.030000 0.036000
1538310318590686110	700 37 0.900000 0.259000 0.252000 1100 31 0.900000 2.304000 2.299000 600 42 1.000000 0.050000 0.050000 1.200000 0.030000 0.036000
1538310319154710693	700 37 0.900000 0.259000 0.252000 1100 31 0.900000 2.305000 2.300000 600 42 1.000000 0.051000 0.051000 1.200000 0.029000 0.035000
1538310319710718068	700 37 0.900000 0.259000 0.252000 1100 31 0.900000 2.319000 2.314000 600 42 1.000000 0.051000 0.051000 1.200000 0.030000 0.036000
1538310320274722277	700 37 0.900000 0.259000 0.252000 1100 31 0.900000 2.310000 2.305000 600 42 1.000000 0.051000 0.051000 1.200000 0.030000 0.036000
1538310320826715360	700 37 0.900000 0.260000 0.252000 1100 31 0.900000 2.308000 2.303000 600 42 1.000000 0.051000 0.051000 1.200000 0.030000 0.036000
1538310321390709319	700 37 0.900000 0.260000 0.252000 1100 31 0.900000 2.311000 2.306000 600 42 1.000000 0.051000 0.051000 1.200000 0.030000 0.036000
1538310321950711819	700 37 0.900000 0.259000 0.252000 1100 31 0.900000 2.308000 2.303000 600 42 1.000000 0.051000 0.051000 1.200000 0.030000 0.036000
1538310322502700360	700 37 0.900000 0.260000 0.252000 1100 31 0.900000 2.306000 2.301000 600 42 1.000000 0.051000 0.051000 1.200000 0.030000 0.036000
1538310323062712402	700 37 0.900000 0.260000 0.252000 1100 31 0.900000 2.310000 2.305000 600 42 1.000000 0.051000 0.051000 1.200000 0.030000 0.036000
1538310323622698569	700 37 0.900000 0.259000 0.252000 1100 31 0.900000 2.307000 2.302000 600 42 1.000000 0.051000 0.051000 1.200000 0.030000 0.036000
1538310324182722944	700 37 0.900000 0.260000 0.252000 1100 31 0.900000 2.311000 2.306000 600 42 1.000000 0.051000 0.051000 1.200000 0.029000 0.035000
1538310324730738111	700 37 0.900000 0.259000 0.252000 1100 31 0.900000 2.308000 2.303000 600 42 1.000000 0.051000 0.051000 1.200000 0.030000 0.036000
1538310325290662361	700 37 0.900000 0.260000 0.252000 1100 31 0.900000 2.310000 2.305000 600 42 1.000000 0.051000 0.051000 1.200000 0.030000 0.036000
1538310325854704611	700 37 0.900000 0.259000 0.252000 1100 31 0.900000 2.310000 2.305000 600 42 1.000000 0.051000 0.051000 1.200000 0.030000 0.036000
1538310326418683861	700 37 0.900000 0.259000 0.252000 1100 31 0.900000 2.310000 2.305000 600 42 1.000000 0.051000 0.051000 1.200000 0.030000 0.036000
1538310326970735819	700 37 0.900000 0.259000 0.252000 1100 31 0.900000 2.310000 2.305000 600 42 1.000000 0.051000 0.051000 1.200000 0.030000 0.036000
1538310327534719069	700 37 0.900000 0.259000 0.252000 1100 31 0.900000 2.308000 2.303000 600 42 1.000000 0.051000 0.051000 1.200000 0.030000 0.036000
1538310328094665153	700 37 0.900000 0.259000 0.252000 1100 31 0.900000 2.303000 2.298000 600 42 1.000000 0.050000 0.050000 1.200000 0.030000 0.036000
1538310328658721611	700 37 0.900000 0.259000 0.252000 1100 31 0.900000 2.308000 2.303000 600 42 1.000000 0.051000 0.051000 1.200000 0.030000 0.036000
1538310329214693986	700 37 0.900000 0.259000 0.252000 1100 31 0.900000 2.322000 2.317000 600 42 1.000000 0.051000 0.051000 1.200000 0.030000 0.036000
1538310329774714195	700 37 0.900000 0.259000 0.252000 1100 31 0.900000 2.321000 2.316000 600 42 1.000000 0.051000 0.051000 1.200000 0.029000 0.035000
1538310330326707236	700 37 0.900000 0.259000 0.252000 1100 31 0.900000 2.321000 2.316000 600 42 1.000000 0.051000 0.051000 1.200000 0.030000 0.036000
1538310330878723111	700 38 0.900000 0.259000 0.252000 1100 31 0.900000 2.323000 2.318000 600 42 1.000000 0.051000 0.051000 1.200000 0.029000 0.035000
1538310331434751445	700 37 0.900000 0.259000 0.252000 1100 31 0.900000 2.322000 2.317000 600 42 1.000000 0.051000 0.051000 1.200000 0.030000 0.036000
1538310331982695070	700 38 0.900000 0.259000 0.252000 1100 31 0.900000 2.318000 2.313000 600 42 1.000000 0.051000 0.051000 1.200000 0.030000 0.036000
1538310332546717237	700 37 0.900000 0.260000 0.252000 1100 31 0.900000 2.315000 2.310000 600 42 1.000000 0.051000 0.051000 1.200000 0.029000 0.035000
1538310333094748445	700 37 0.900000 0.259000 0.252000 1100 31 0.900000 2.318000 2.313000 600 42 1.000000 0.051000 0.051000 1.200000 0.029000 0.035000
1538310333654725903	700 37 0.900000 0.259000 0.252000 1100 31 0.900000 2.315000 2.310000 600 42 1.000000 0.051000 0.051000 1.200000 0.030000 0.036000
1538310334210751237	700 38 0.900000 0.260000 0.252000 1100 31 0.900000 2.322000 2.317000 600 42 1.000000 0.051000 0.051000 1.200000 0.029000 0.035000
1538310334770705904	700 37 0.900000 0.260000 0.252000 1100 31 0.900000 2.321000 2.316000 600 42 1.000000 0.050000 0.050000 1.200000 0.029000 0.035000
1538310335330717695	700 38 0.900000 0.260000 0.252000 1100 31 0.900000 2.321000 2.316000 600 42 1.000000 0.051000 0.051000 1.200000 0.029000 0.035000
1538310335886714779	700 38 0.900000 0.259000 0.252000 1100 31 0.900000 2.324000 2.319000 600 42 1.000000 0.051000 0.051000 1.200000 0.030000 0.036000
1538310336438786237	700 38 0.900000 0.260000 0.252000 1100 31 0.900000 2.322000 2.317000 600 42 1.000000 0.051000 0.051000 1.200000 0.030000 0.036000
1538310336986704237	700 38 0.900000 0.259000 0.252000 1100 31 0.900000 2.321000 2.316000 600 42 1.000000 0.051000 0.051000 1.200000 0.030000 0.036000
1538310337538724696	700 38 0.900000 0.259000 0.252000 1100 31 0.900000 2.322000 2.317000 600 42 1.000000 0.051000 0.051000 1.200000 0.030000 0.036000
1538310338098731321	700 37 0.900000 0.260000 0.252000 1100 31 0.900000 2.321000 2.316000 600 42 1.000000 0.051000 0.051000 1.200000 0.030000 0.036000
1538310338658739279	700 38 0.900000 0.259000 0.252000 1100 31 0.900000 2.316000 2.311000 600 42 1.000000 0.051000 0.051000 1.200000 0.030000 0.036000
1538310339210681487	700 38 0.900000 0.259000 0.252000 1100 31 0.900000 2.313000 2.308000 600 42 1.000000 0.050000 0.050000 1.200000 0.030000 0.036000
1538310339770716196	700 38 0.900000 0.259000 0.252000 1100 31 0.900000 2.322000 2.317000 600 42 1.000000 0.051000 0.051000 1.200000 0.029000 0.035000
1538310340326711446	700 37 0.900000 0.260000 0.252000 1100 31 0.900000 2.322000 2.317000 600 42 1.000000 0.051000 0.051000 1.200000 0.029000 0.035000
1538310340878720779	700 38 0.900000 0.259000 0.252000 1100 31 0.900000 2.322000 2.317000 600 42 1.000000 0.050000 0.050000 1.200000 0.030000 0.036000
1538310341430775946	700 37 0.900000 0.259000 0.252000 1100 31 0.900000 2.324000 2.319000 600 42 1.000000 0.051000 0.051000 1.200000 0.029000 0.035000
1538310341994721154	700 38 0.900000 0.260000 0.252000 1100 31 0.900000 2.322000 2.317000 600 42 1.000000 0.051000 0.051000 1.200000 0.030000 0.036000
1538310342546726363	700 38 0.900000 0.260000 0.252000 1100 31 0.900000 2.321000 2.316000 600 42 1.000000 0.050000 0.050000 1.200000 0.030000 0.036000
1538310343098739071	700 37 0.900000 0.259000 0.252000 1100 31 0.900000 2.322000 2.317000 600 42 1.000000 0.051000 0.051000 1.200000 0.029000 0.035000
1538310343662678071	700 38 0.900000 0.259000 0.252000 1100 31 0.900000 2.321000 2.316000 600 42 1.000000 0.051000 0.051000 1.200000 0.029000 0.035000
1538310344218672405	700 38 0.900000 0.259000 0.252000 1100 31 0.900000 2.323000 2.318000 600 42 1.000000 0.051000 0.051000 1.200000 0.029000 0.035000
1538310344778703488	700 38 0.900000 0.259000 0.252000 1100 31 0.900000 2.321000 2.316000 600 42 1.000000 0.050000 0.050000 1.200000 0.029000 0.035000
1538310345334740696	700 37 0.900000 0.259000 0.252000 1100 31 0.900000 2.320000 2.315000 600 42 1.000000 0.051000 0.051000 1.200000 0.029000 0.035000
1538310345898689488	700 38 0.900000 0.259000 0.252000 1100 31 0.900000 2.313000 2.308000 600 42 1.000000 0.050000 0.050000 1.200000 0.029000 0.035000
1538310346454760905	700 38 0.900000 0.259000 0.252000 1100 31 0.900000 2.313000 2.308000 600 43 1.000000 0.051000 0.051000 1.200000 0.029000 0.035000
1538310347006705655	700 38 0.900000 0.259000 0.252000 1100 31 0.900000 2.315000 2.310000 600 42 1.000000 0.051000 0.051000 1.200000 0.029000 0.035000
1538310347566761947	700 38 0.900000 0.259000 0.252000 1100 31 0.900000 2.320000 2.315000 600 42 1.000000 0.051000 0.051000 1.200000 0.029000 0.035000
1538310348122783447	700 38 0.900000 0.259000 0.252000 1100 31 0.900000 2.329000 2.324000 600 43 1.000000 0.051000 0.051000 1.200000 0.030000 0.036000
1538310348686741030	700 38 0.900000 0.259000 0.252000 1100 31 0.900000 2.341000 2.336000 600 43 1.000000 0.050000 0.050000 1.200000 0.029000 0.035000
1538310349246779114	700 38 0.900000 0.259000 0.252000 1100 31 0.900000 2.342000 2.337000 600 43 1.000000 0.051000 0.051000 1.200000 0.029000 0.035000
1538310349806725114	700 38 0.900000 0.259000 0.252000 1100 31 0.900000 2.336000 2.331000 600 43 1.000000 0.050000 0.050000 1.200000 0.029000 0.035000
1538310350366765489	700 38 0.900000 0.259000 0.252000 1100 31 0.900000 2.344000 2.339000 600 43 1.000000 0.051000 0.051000 1.200000 0.029000 0.035000
1538310350922721322	700 38 0.900000 0.259000 0.252000 1100 31 0.900000 2.345000 2.340000 600 43 1.000000 0.051000 0.051000 1.200000 0.029000 0.035000
1538310351482741781	700 38 0.900000 0.259000 0.252000 1100 31 0.900000 2.337000 2.332000 600 43 1.000000 0.051000 0.051000 1.200000 0.029000 0.035000
1538310352042754197	700 38 0.900000 0.259000 0.252000 1100 31 0.900000 2.345000 2.340000 600 43 1.000000 0.051000 0.051000 1.200000 0.029000 0.035000
1538310352606689572	700 38 0.900000 0.259000 0.252000 1100 31 0.900000 2.344000 2.339000 600 43 1.000000 0.051000 0.051000 1.200000 0.029000 0.035000
1538310353154715239	700 38 0.900000 0.259000 0.252000 1100 31 0.900000 2.347000 2.342000 600 43 1.000000 0.051000 0.051000 1.200000 0.029000 0.035000
1538310353714752114	700 38 0.900000 0.259000 0.252000 1100 31 0.900000 2.348000 2.343000 600 43 1.000000 0.050000 0.050000 1.200000 0.029000 0.035000
1538310354274749531	700 38 0.900000 0.259000 0.252000 1100 31 0.900000 2.347000 2.342000 600 43 1.000000 0.050000 0.050000 1.200000 0.029000 0.035000
1538310354834760864	700 38 0.900000 0.259000 0.252000 1100 31 0.900000 2.339000 2.334000 600 43 1.000000 0.051000 0.051000 1.200000 0.029000 0.035000
1538310355386696823	700 38 0.900000 0.259000 0.252000 1100 31 0.900000 2.344000 2.339000 600 43 1.000000 0.051000 0.051000 1.200000 0.029000 0.035000
1538310355946752156	700 38 0.900000 0.259000 0.252000 1100 31 0.900000 2.341000 2.336000 600 43 1.000000 0.051000 0.051000 1.200000 0.029000 0.035000
1538310356490759906	700 38 0.900000 0.259000 0.252000 1100 31 0.900000 2.340000 2.335000 600 43 1.000000 0.051000 0.051000 1.200000 0.029000 0.035000
1538310357050732823	700 38 0.900000 0.259000 0.252000 1100 31 0.900000 2.345000 2.340000 600 43 1.000000 0.051000 0.051000 1.200000 0.029000 0.035000
1538310357602780823	700 38 0.900000 0.259000 0.252000 1100 31 0.900000 2.316000 2.311000 600 43 1.000000 0.050000 0.050000 1.200000 0.029000 0.035000
1538310358166730365	700 38 0.900000 0.259000 0.252000 1100 31 0.900000 2.313000 2.308000 600 43 1.000000 0.051000 0.051000 1.200000 0.029000 0.035000
1538310358726717573	700 38 0.900000 0.259000 0.252000 1100 31 0.900000 2.312000 2.307000 600 43 1.000000 0.050000 0.050000 1.200000 0.029000 0.035000
1538310359290735990	700 38 0.900000 0.259000 0.252000 1100 31 0.900000 2.312000 2.307000 600 43 1.000000 0.051000 0.051000 1.200000 0.029000 0.035000
1538310359850720157	700 38 0.900000 0.259000 0.252000 1100 31 0.900000 2.311000 2.306000 600 42 1.000000 0.051000 0.051000 1.200000 0.029000 0.035000
1538310360402713282	700 38 0.900000 0.259000 0.252000 1100 31 0.900000 2.305000 2.300000 600 42 1.000000 0.051000 0.051000 1.200000 0.029000 0.035000
1538310360954749532	700 38 0.900000 0.259000 0.252000 1100 31 0.900000 2.298000 2.293000 600 43 1.000000 0.051000 0.051000 1.200000 0.029000 0.035000
1538310361522731032	700 38 0.900000 0.259000 0.252000 1100 31 0.900000 2.310000 2.305000 600 42 1.000000 0.050000 0.050000 1.200000 0.030000 0.036000
1538310362086762198	700 37 0.900000 0.259000 0.252000 1100 31 0.900000 2.310000 2.305000 600 43 1.000000 0.051000 0.051000 1.200000 0.030000 0.036000
1538310362642750074	700 38 0.900000 0.259000 0.252000 1100 31 0.900000 2.307000 2.302000 600 42 1.000000 0.050000 0.050000 1.200000 0.030000 0.036000
1538310363190705115	700 38 0.900000 0.259000 0.252000 1100 31 0.900000 2.302000 2.297000 600 42 1.000000 0.050000 0.050000 1.200000 0.029000 0.035000
1538310363742742407	700 38 0.900000 0.259000 0.252000 1100 31 0.900000 2.304000 2.299000 600 42 1.000000 0.051000 0.051000 1.200000 0.029000 0.035000
1538310364294732532	700 38 0.900000 0.259000 0.252000 1100 31 0.900000 2.312000 2.307000 600 43 1.000000 0.051000 0.051000 1.200000 0.029000 0.035000
1538310364842672949	700 38 0.900000 0.259000 0.252000 1100 31 0.900000 2.311000 2.306000 600 42 1.000000 0.050000 0.050000 1.200000 0.030000 0.036000
1538310365394650991	700 38 0.900000 0.259000 0.252000 1100 31 0.900000 2.312000 2.307000 600 42 1.000000 0.050000 0.050000 1.200000 0.029000 0.035000
1538310365946745282	700 38 0.900000 0.259000 0.252000 1100 31 0.900000 2.312000 2.307000 600 43 1.000000 0.051000 0.051000 1.200000 0.029000 0.035000
1538310366514667866	700 38 0.900000 0.259000 0.252000 1100 31 0.900000 2.316000 2.311000 600 42 1.000000 0.051000 0.051000 1.200000 0.029000 0.035000
1538310367074713032	700 38 0.900000 0.259000 0.252000 1100 31 0.900000 2.336000 2.331000 600 43 1.000000 0.051000 0.051000 1.200000 0.029000 0.035000
1538310367634730199	700 38 0.900000 0.259000 0.252000 1100 31 0.900000 2.325000 2.320000 600 42 1.000000 0.051000 0.051000 1.200000 0.029000 0.035000
1538310368190729491	700 38 0.900000 0.259000 0.252000 1100 31 0.900000 2.324000 2.319000 600 43 1.000000 0.051000 0.051000 1.200000 0.029000 0.035000
1538310368750753949	700 38 0.900000 0.259000 0.252000 1100 31 0.900000 2.333000 2.328000 600 43 1.000000 0.051000 0.051000 1.200000 0.029000 0.035000
1538310369310710366	700 38 0.900000 0.259000 0.252000 1100 31 0.900000 2.338000 2.333000 600 43 1.000000 0.050000 0.050000 1.200000 0.029000 0.035000
1538310369874737783	700 38 0.900000 0.259000 0.252000 1100 31 0.900000 2.337000 2.332000 600 43 1.000000 0.051000 0.051000 1.200000 0.029000 0.035000
1538310370434734241	700 38 0.900000 0.259000 0.252000 1100 31 0.900000 2.336000 2.331000 600 42 1.000000 0.051000 0.051000 1.200000 0.029000 0.035000
1538310370994697783	700 38 0.900000 0.259000 0.252000 1100 31 0.900000 2.336000 2.331000 600 43 1.000000 0.051000 0.051000 1.200000 0.029000 0.035000
1538310371546738116	700 38 0.900000 0.259000 0.252000 1100 31 0.900000 2.334000 2.329000 600 43 1.000000 0.051000 0.051000 1.200000 0.029000 0.035000
1538310372106719575	700 38 0.900000 0.259000 0.252000 1100 31 0.900000 2.336000 2.331000 600 43 1.000000 0.050000 0.050000 1.200000 0.029000 0.035000
1538310372662708575	700 38 0.900000 0.259000 0.252000 1100 31 0.900000 2.332000 2.327000 600 43 1.000000 0.050000 0.050000 1.200000 0.029000 0.035000
1538310373222715450	700 38 0.900000 0.259000 0.252000 1100 31 0.900000 2.328000 2.323000 600 43 1.000000 0.051000 0.051000 1.200000 0.031000 0.037000
1538310373786731950	700 38 0.900000 0.259000 0.252000 1100 31 0.900000 2.337000 2.332000 600 43 1.000000 0.051000 0.051000 1.200000 0.030000 0.036000
1538310374338700533	700 38 0.900000 0.260000 0.252000 1100 31 0.900000 2.339000 2.334000 600 43 1.000000 0.051000 0.051000 1.200000 0.030000 0.036000
1538310374898672242	700 38 0.900000 0.259000 0.252000 1100 31 0.900000 2.338000 2.333000 600 43 1.000000 0.051000 0.051000 1.200000 0.031000 0.037000
1538310375446743200	700 38 0.900000 0.260000 0.252000 1100 31 0.900000 2.343000 2.338000 600 43 1.000000 0.051000 0.051000 1.200000 0.031000 0.037000
1538310376010724408	700 38 0.900000 0.259000 0.252000 1100 31 0.900000 2.341000 2.336000 600 43 1.000000 0.051000 0.051000 1.200000 0.031000 0.037000
1538310376562755117	700 38 0.900000 0.259000 0.252000 1100 31 0.900000 2.332000 2.327000 600 43 1.000000 0.051000 0.051000 1.200000 0.031000 0.037000
1538310377122706034	700 38 0.900000 0.259000 0.252000 1100 31 0.900000 2.329000 2.324000 600 43 1.000000 0.051000 0.051000 1.200000 0.031000 0.037000
1538310377670701450	700 38 0.900000 0.259000 0.252000 1100 31 0.900000 2.328000 2.323000 600 43 1.000000 0.051000 0.051000 1.200000 0.030000 0.036000
1538310378230755534	700 38 0.900000 0.259000 0.252000 1100 31 0.900000 2.328000 2.323000 600 43 1.000000 0.051000 0.051000 1.200000 0.031000 0.037000
1538310378786713284	700 38 0.900000 0.259000 0.252000 1100 31 0.900000 2.328000 2.323000 600 43 1.000000 0.051000 0.051000 1.200000 0.031000 0.037000
1538310379330692742	700 38 0.900000 0.260000 0.252000 1100 31 0.900000 2.334000 2.329000 600 43 1.000000 0.051000 0.051000 1.200000 0.031000 0.037000
1538310379882742076	700 38 0.900000 0.260000 0.252000 1100 31 0.900000 2.333000 2.328000 600 43 1.000000 0.051000 0.051000 1.200000 0.030000 0.036000
1538310380442705159	700 38 0.900000 0.260000 0.252000 1100 31 0.900000 2.332000 2.327000 600 43 1.000000 0.051000 0.051000 1.200000 0.031000 0.037000
1538310381002722617	700 38 0.900000 0.260000 0.252000 1100 31 0.900000 2.331000 2.326000 600 43 1.000000 0.051000 0.051000 1.200000 0.031000 0.037000
1538310381554729201	700 38 0.900000 0.260000 0.252000 1100 31 0.900000 2.330000 2.325000 600 43 1.000000 0.051000 0.051000 1.200000 0.031000 0.037000
1538310382110705243	700 38 0.900000 0.260000 0.252000 1100 31 0.900000 2.332000 2.327000 600 43 1.000000 0.050000 0.050000 1.200000 0.031000 0.037000
1538310382662714909	700 38 0.900000 0.259000 0.252000 1100 31 0.900000 2.331000 2.326000 600 43 1.000000 0.051000 0.051000 1.200000 0.031000 0.037000
1538310383226722118	700 38 0.900000 0.260000 0.252000 1100 31 0.900000 2.331000 2.326000 600 43 1.000000 0.051000 0.051000 1.200000 0.031000 0.037000
1538310383778669201	700 38 0.900000 0.260000 0.252000 1100 31 0.900000 2.327000 2.322000 600 43 1.000000 0.051000 0.051000 1.200000 0.031000 0.037000
1538310384334740868	700 38 0.900000 0.260000 0.252000 1100 31 0.900000 2.332000 2.327000 600 43 1.000000 0.051000 0.051000 1.200000 0.030000 0.036000
1538310384898709410	700 38 0.900000 0.259000 0.252000 1100 31 0.900000 2.337000 2.332000 600 43 1.000000 0.051000 0.051000 1.200000 0.030000 0.036000
1538310385446765993	700 38 0.900000 0.260000 0.252000 1100 31 0.900000 2.332000 2.327000 600 42 1.000000 0.050000 0.050000 1.200000 0.030000 0.036000
1538310385990729743	700 38 0.900000 0.260000 0.252000 1100 31 0.900000 2.330000 2.325000 600 43 1.000000 0.051000 0.051000 1.200000 0.030000 0.036000
1538310386550680326	700 38 0.900000 0.259000 0.252000 1100 31 0.900000 2.321000 2.316000 600 43 1.000000 0.051000 0.051000 1.200000 0.031000 0.037000
1538310387106721701	700 38 0.900000 0.260000 0.252000 1100 31 0.900000 2.324000 2.319000 600 43 1.000000 0.051000 0.051000 1.200000 0.030000 0.036000
1538310387654749202	700 38 0.900000 0.259000 0.252000 1100 31 0.900000 2.324000 2.319000 600 42 1.000000 0.051000 0.051000 1.200000 0.031000 0.037000
1538310388218781910	700 38 0.900000 0.259000 0.252000 1100 31 0.900000 2.320000 2.315000 600 43 1.000000 0.051000 0.051000 1.200000 0.031000 0.037000
1538310388778686577	700 38 0.900000 0.259000 0.252000 1100 31 0.900000 2.320000 2.315000 600 42 1.000000 0.051000 0.051000 1.200000 0.031000 0.037000
1538310389326736160	700 38 0.900000 0.260000 0.252000 1100 31 0.900000 2.326000 2.321000 600 43 1.000000 0.051000 0.051000 1.200000 0.031000 0.037000
1538310389866692452	700 38 0.900000 0.260000 0.252000 1100 31 0.900000 2.327000 2.322000 600 43 1.000000 0.051000 0.051000 1.200000 0.031000 0.037000
1538310390422741869	700 37 0.900000 0.259000 0.252000 1100 31 0.900000 2.323000 2.318000 600 43 1.000000 0.051000 0.051000 1.200000 0.030000 0.036000
1538310390982709744	700 38 0.900000 0.260000 0.252000 1100 31 0.900000 2.320000 2.315000 600 43 1.000000 0.051000 0.051000 1.200000 0.030000 0.036000
1538310391542736577	700 37 0.900000 0.260000 0.252000 1100 31 0.900000 2.322000 2.317000 600 43 1.000000 0.051000 0.051000 1.200000 0.030000 0.036000
1538310392090728369	700 38 0.900000 0.260000 0.252000 1100 31 0.900000 2.324000 2.319000 600 42 1.000000 0.051000 0.051000 1.200000 0.030000 0.036000
1538310392650732952	700 38 0.900000 0.260000 0.252000 1100 31 0.900000 2.329000 2.324000 600 42 1.000000 0.051000 0.051000 1.200000 0.031000 0.037000
1538310393190733452	700 38 0.900000 0.260000 0.252000 1100 31 0.900000 2.318000 2.313000 600 43 1.000000 0.051000 0.051000 1.200000 0.031000 0.037000
1538310393750750577	700 38 0.900000 0.259000 0.252000 1100 31 0.900000 2.329000 2.324000 600 43 1.000000 0.051000 0.051000 1.200000 0.031000 0.037000
1538310394302751786	700 38 0.900000 0.259000 0.252000 1100 31 0.900000 2.324000 2.319000 600 42 1.000000 0.051000 0.051000 1.200000 0.031000 0.037000
1538310394862708744	700 38 0.900000 0.259000 0.252000 1100 31 0.900000 2.312000 2.307000 600 42 1.000000 0.051000 0.051000 1.200000 0.031000 0.037000
1538310395414726244	700 38 0.900000 0.260000 0.252000 1100 31 0.900000 2.308000 2.303000 600 43 1.000000 0.051000 0.051000 1.200000 0.031000 0.037000
1538310395974727494	700 37 0.900000 0.259000 0.252000 1100 31 0.900000 2.306000 2.301000 600 42 1.000000 0.051000 0.051000 1.200000 0.030000 0.036000
1538310396534662994	700 37 0.900000 0.260000 0.252000 1100 31 0.900000 2.307000 2.302000 600 42 1.000000 0.051000 0.051000 1.200000 0.031000 0.037000
1538310397090674203	700 37 0.900000 0.260000 0.252000 1100 31 0.900000 2.299000 2.294000 600 42 1.000000 0.051000 0.051000 1.200000 0.030000 0.036000
1538310397638685161	700 37 0.900000 0.260000 0.252000 1100 31 0.900000 2.302000 2.297000 600 42 1.000000 0.051000 0.051000 1.200000 0.031000 0.037000
1538310398186730244	700 38 0.900000 0.260000 0.252000 1100 31 0.900000 2.299000 2.294000 600 42 1.000000 0.051000 0.051000 1.200000 0.031000 0.037000
1538310398738711370	700 37 0.900000 0.260000 0.252000 1100 31 0.900000 2.300000 2.295000 600 43 1.000000 0.051000 0.051000 1.200000 0.031000 0.037000
1538310399286767120	700 37 0.900000 0.260000 0.252000 1100 31 0.900000 2.301000 2.296000 600 42 1.000000 0.051000 0.051000 1.200000 0.030000 0.036000
1538310399846743870	700 38 0.900000 0.260000 0.252000 1100 31 0.900000 2.296000 2.291000 600 42 1.000000 0.051000 0.051000 1.200000 0.031000 0.037000
1538310400394733328	700 37 0.900000 0.259000 0.252000 1100 31 0.900000 2.301000 2.296000 600 42 1.000000 0.051000 0.051000 1.200000 0.031000 0.037000
1538310400946786286	700 37 0.900000 0.260000 0.252000 1100 31 0.900000 2.305000 2.300000 600 42 1.000000 0.051000 0.051000 1.200000 0.031000 0.037000
1538310401498699953	700 37 0.900000 0.260000 0.252000 1100 31 0.900000 2.307000 2.302000 600 42 1.000000 0.051000 0.051000 1.200000 0.031000 0.037000
1538310402058705953	700 37 0.900000 0.259000 0.252000 1100 31 0.900000 2.306000 2.301000 600 42 1.000000 0.051000 0.051000 1.200000 0.031000 0.037000
1538310402618702120	700 37 0.900000 0.259000 0.252000 1100 31 0.900000 2.301000 2.296000 600 42 1.000000 0.051000 0.051000 1.200000 0.029000 0.035000
1538310403166728787	700 37 0.900000 0.260000 0.252000 1100 31 0.900000 2.304000 2.299000 600 42 1.000000 0.051000 0.051000 1.200000 0.029000 0.035000
1538310403726738453	700 38 0.900000 0.260000 0.252000 1100 31 0.900000 2.315000 2.310000 600 42 1.000000 0.051000 0.051000 1.200000 0.029000 0.035000
1538310404290715995	700 38 0.900000 0.260000 0.252000 1100 31 0.900000 2.338000 2.333000 600 43 1.000000 0.051000 0.051000 1.200000 0.029000 0.035000
1538310404842675829	700 38 0.900000 0.260000 0.252000 1100 31 0.900000 2.347000 2.342000 600 43 1.000000 0.051000 0.051000 1.200000 0.029000 0.035000
1538310405406720620	700 38 0.900000 0.260000 0.252000 1100 31 0.900000 2.343000 2.338000 600 43 1.000000 0.050000 0.050000 1.200000 0.028000 0.033000
1538310405962763245	700 38 0.900000 0.260000 0.252000 1100 31 0.900000 2.344000 2.339000 600 42 1.000000 0.051000 0.051000 1.200000 0.029000 0.035000
1538310406522730329	700 38 0.900000 0.260000 0.252000 1100 31 0.900000 2.344000 2.339000 600 43 1.000000 0.051000 0.051000 1.200000 0.029000 0.035000
1538310407086768162	700 38 0.900000 0.260000 0.252000 1100 31 0.900000 2.346000 2.341000 600 43 1.000000 0.051000 0.051000 1.200000 0.029000 0.035000
1538310407630794246	700 38 0.900000 0.260000 0.252000 1100 31 0.900000 2.348000 2.343000 600 43 1.000000 0.051000 0.051000 1.200000 0.029000 0.035000
1538310408194781954	700 37 0.900000 0.260000 0.252000 1100 31 0.900000 2.347000 2.342000 600 43 1.000000 0.051000 0.051000 1.200000 0.029000 0.035000
1538310408758678037	700 38 0.900000 0.260000 0.252000 1100 31 0.900000 2.346000 2.341000 600 42 1.000000 0.051000 0.051000 1.200000 0.029000 0.035000
1538310409310731579	700 38 0.900000 0.260000 0.252000 1100 31 0.900000 2.344000 2.339000 600 43 1.000000 0.051000 0.051000 1.200000 0.029000 0.035000
1538310409866703871	700 38 0.900000 0.260000 0.252000 1100 31 0.900000 2.339000 2.334000 600 42 1.000000 0.050000 0.050000 1.200000 0.028000 0.033000
1538310410422712371	700 38 0.900000 0.260000 0.252000 1100 31 0.900000 2.339000 2.334000 600 42 1.000000 0.051000 0.051000 1.200000 0.029000 0.035000
1538310410978705371	700 38 0.900000 0.260000 0.252000 1100 31 0.900000 2.336000 2.331000 600 42 1.000000 0.050000 0.050000 1.200000 0.029000 0.035000
1538310411534714746	700 38 0.900000 0.260000 0.252000 1100 31 0.900000 2.345000 2.340000 600 43 1.000000 0.051000 0.051000 1.200000 0.028000 0.033000
1538310412090766871	700 38 0.900000 0.260000 0.252000 1100 31 0.900000 2.347000 2.342000 600 43 1.000000 0.051000 0.051000 1.200000 0.029000 0.035000
1538310412654711413	700 38 0.900000 0.260000 0.253000 1100 31 0.900000 2.347000 2.342000 600 43 1.000000 0.051000 0.051000 1.200000 0.028000 0.033000
1538310413202703580	700 38 0.900000 0.260000 0.252000 1100 31 0.900000 2.344000 2.339000 600 43 1.000000 0.051000 0.051000 1.200000 0.029000 0.035000
1538310413754749038	700 38 0.900000 0.260000 0.252000 1100 31 0.900000 2.333000 2.328000 600 43 1.000000 0.051000 0.051000 1.200000 0.028000 0.033000
1538310414310751288	700 38 0.900000 0.260000 0.252000 1100 31 0.900000 2.331000 2.326000 600 43 1.000000 0.050000 0.050000 1.200000 0.029000 0.035000
1538310414858720371	700 38 0.900000 0.260000 0.252000 1100 31 0.900000 2.326000 2.321000 600 42 1.000000 0.050000 0.050000 1.200000 0.029000 0.035000
1538310415418665496	700 38 0.900000 0.260000 0.252000 1100 31 0.900000 2.325000 2.320000 600 43 1.000000 0.050000 0.050000 1.200000 0.029000 0.035000
1538310415978761497	700 38 0.900000 0.260000 0.252000 1100 31 0.900000 2.320000 2.315000 600 42 1.000000 0.051000 0.051000 1.200000 0.029000 0.035000
1538310416534751663	700 38 0.900000 0.260000 0.252000 1100 31 0.900000 2.330000 2.325000 600 43 1.000000 0.051000 0.051000 1.200000 0.028000 0.033000
1538310417094703830	700 38 0.900000 0.260000 0.252000 1100 31 0.900000 2.331000 2.326000 600 42 1.000000 0.051000 0.051000 1.200000 0.029000 0.035000
1538310417654681288	700 38 0.900000 0.260000 0.252000 1100 31 0.900000 2.333000 2.328000 600 43 1.000000 0.051000 0.051000 1.200000 0.029000 0.035000
1538310418214723622	700 38 0.900000 0.260000 0.252000 1100 31 0.900000 2.332000 2.327000 600 43 1.000000 0.050000 0.050000 1.200000 0.029000 0.035000
1538310418774745455	700 38 0.900000 0.260000 0.252000 1100 31 0.900000 2.331000 2.326000 600 43 1.000000 0.051000 0.051000 1.200000 0.029000 0.035000
1538310419334737705	700 38 0.900000 0.260000 0.252000 1100 31 0.900000 2.330000 2.325000 600 42 1.000000 0.051000 0.051000 1.200000 0.029000 0.035000
1538310419890791914	700 38 0.900000 0.260000 0.252000 1100 31 0.900000 2.324000 2.319000 600 43 1.000000 0.051000 0.051000 1.200000 0.029000 0.035000
1538310420438703497	700 37 0.900000 0.260000 0.252000 1100 31 0.900000 2.331000 2.326000 600 43 1.000000 0.051000 0.051000 1.200000 0.029000 0.035000
1538310420994727039	700 38 0.900000 0.260000 0.252000 1100 31 0.900000 2.329000 2.324000 600 43 1.000000 0.051000 0.051000 1.200000 0.029000 0.035000
1538310421546667039	700 38 0.900000 0.260000 0.252000 1100 31 0.900000 2.331000 2.326000 600 43 1.000000 0.051000 0.051000 1.200000 0.028000 0.033000
1538310422110736456	700 38 0.900000 0.260000 0.252000 1100 31 0.900000 2.330000 2.325000 600 43 1.000000 0.051000 0.051000 1.200000 0.029000 0.035000
1538310422678735872	700 37 0.900000 0.260000 0.252000 1100 31 0.900000 2.328000 2.323000 600 42 1.000000 0.051000 0.051000 1.200000 0.028000 0.033000
1538310423230737372	700 37 0.900000 0.260000 0.252000 1100 31 0.900000 2.310000 2.305000 600 42 1.000000 0.051000 0.051000 1.200000 0.028000 0.033000
1538310423778691456	700 38 0.900000 0.260000 0.252000 1100 31 0.900000 2.310000 2.305000 600 42 1.000000 0.051000 0.051000 1.200000 0.029000 0.035000
1538310424342698289	700 38 0.900000 0.260000 0.252000 1100 31 0.900000 2.308000 2.303000 600 42 1.000000 0.051000 0.051000 1.200000 0.029000 0.035000
1538310424898727539	700 37 0.900000 0.260000 0.252000 1100 31 0.900000 2.308000 2.303000 600 42 1.000000 0.051000 0.051000 1.200000 0.029000 0.035000
1538310425450702831	700 37 0.900000 0.260000 0.252000 1100 31 0.900000 2.305000 2.300000 600 42 1.000000 0.050000 0.050000 1.200000 0.029000 0.035000
1538310426006702956	700 38 0.900000 0.260000 0.252000 1100 31 0.900000 2.309000 2.304000 600 42 1.000000 0.051000 0.051000 1.200000 0.029000 0.035000
1538310426562686289	700 37 0.900000 0.260000 0.252000 1100 31 0.900000 2.309000 2.304000 600 42 1.000000 0.051000 0.051000 1.200000 0.028000 0.033000
1538310427122711915	700 38 0.900000 0.260000 0.252000 1100 31 0.900000 2.310000 2.305000 600 42 1.000000 0.051000 0.051000 1.200000 0.028000 0.033000
1538310427670690581	700 38 0.900000 0.260000 0.252000 1100 31 0.900000 2.302000 2.297000 600 42 1.000000 0.051000 0.051000 1.200000 0.028000 0.033000
1538310428222647040	700 37 0.900000 0.260000 0.252000 1100 31 0.900000 2.298000 2.293000 600 42 1.000000 0.051000 0.051000 1.200000 0.029000 0.035000
1538310428774703165	700 38 0.900000 0.260000 0.252000 1100 31 0.900000 2.304000 2.299000 600 42 1.000000 0.051000 0.051000 1.200000 0.028000 0.033000
1538310429338696498	700 38 0.900000 0.260000 0.252000 1100 31 0.900000 2.307000 2.302000 600 42 1.000000 0.051000 0.051000 1.200000 0.028000 0.033000
1538310429898705332	700 38 0.900000 0.260000 0.252000 1100 31 0.900000 2.307000 2.302000 600 42 1.000000 0.050000 0.050000 1.200000 0.029000 0.035000
1538310430454709373	700 37 0.900000 0.260000 0.252000 1100 31 0.900000 2.308000 2.303000 600 42 1.000000 0.051000 0.051000 1.200000 0.029000 0.035000
1538310431010709123	700 38 0.900000 0.260000 0.252000 1100 31 0.900000 2.304000 2.299000 600 42 1.000000 0.051000 0.051000 1.200000 0.029000 0.035000
1538310431570692832	700 38 0.900000 0.260000 0.252000 1100 31 0.900000 2.310000 2.305000 600 42 1.000000 0.051000 0.051000 1.200000 0.029000 0.035000
1538310432126686082	700 38 0.900000 0.260000 0.252000 1100 31 0.900000 2.303000 2.298000 600 42 1.000000 0.051000 0.051000 1.200000 0.030000 0.036000
1538310432674726624	700 37 0.900000 0.259000 0.252000 1100 31 0.900000 2.313000 2.308000 600 42 1.000000 0.051000 0.051000 1.200000 0.031000 0.037000
1538310433234678249	700 37 0.900000 0.259000 0.252000 1100 31 0.900000 2.312000 2.307000 600 42 1.000000 0.051000 0.051000 1.200000 0.031000 0.037000
1538310433790706540	700 37 0.900000 0.259000 0.252000 1100 31 0.900000 2.317000 2.312000 600 42 1.000000 0.051000 0.051000 1.200000 0.031000 0.037000
1538310434350702874	700 38 0.900000 0.259000 0.252000 1100 31 0.900000 2.312000 2.307000 600 43 1.000000 0.051000 0.051000 1.200000 0.031000 0.037000
1538310434902729415	700 38 0.900000 0.259000 0.252000 1100 31 0.900000 2.312000 2.307000 600 42 1.000000 0.051000 0.051000 1.200000 0.031000 0.037000
1538310435454747041	700 37 0.900000 0.259000 0.252000 1100 31 0.900000 2.308000 2.303000 600 42 1.000000 0.051000 0.051000 1.200000 0.031000 0.037000
1538310436018724374	700 38 0.900000 0.259000 0.252000 1100 31 0.900000 2.311000 2.306000 600 42 1.000000 0.051000 0.051000 1.200000 0.031000 0.037000
1538310436582730166	700 37 0.900000 0.259000 0.252000 1100 31 0.900000 2.319000 2.314000 600 42 1.000000 0.051000 0.051000 1.200000 0.031000 0.037000
1538310437130719916	700 37 0.900000 0.259000 0.252000 1100 31 0.900000 2.313000 2.308000 600 42 1.000000 0.051000 0.051000 1.200000 0.031000 0.037000
1538310437690734124	700 37 0.900000 0.259000 0.252000 1100 31 0.900000 2.313000 2.308000 600 42 1.000000 0.051000 0.051000 1.200000 0.031000 0.037000
1538310438246640958	700 38 0.900000 0.259000 0.252000 1100 31 0.900000 2.308000 2.303000 600 42 1.000000 0.051000 0.051000 1.200000 0.031000 0.037000
1538310438794711458	700 38 0.900000 0.259000 0.252000 1100 31 0.900000 2.312000 2.307000 600 42 1.000000 0.051000 0.051000 1.200000 0.031000 0.037000
1538310439354719208	700 38 0.900000 0.259000 0.252000 1100 31 0.900000 2.314000 2.309000 600 42 1.000000 0.051000 0.051000 1.200000 0.031000 0.037000
1538310439910692291	700 38 0.900000 0.259000 0.252000 1100 31 0.900000 2.312000 2.307000 600 42 1.000000 0.051000 0.051000 1.200000 0.031000 0.037000
1538310440470767041	700 38 0.900000 0.259000 0.252000 1100 31 0.900000 2.313000 2.308000 600 42 1.000000 0.051000 0.051000 1.200000 0.031000 0.037000
1538310441022723666	700 38 0.900000 0.259000 0.252000 1100 31 0.900000 2.320000 2.315000 600 42 1.000000 0.051000 0.051000 1.200000 0.031000 0.037000
1538310441582754583	700 38 0.900000 0.259000 0.252000 1100 31 0.900000 2.341000 2.336000 600 42 1.000000 0.051000 0.051000 1.200000 0.031000 0.037000
1538310442142666083	700 38 0.900000 0.259000 0.252000 1100 31 0.900000 2.338000 2.333000 600 42 1.000000 0.051000 0.051000 1.200000 0.031000 0.037000
1538310442698745958	700 38 0.900000 0.259000 0.252000 1100 31 0.900000 2.339000 2.334000 600 42 1.000000 0.051000 0.051000 1.200000 0.031000 0.037000
1538310443258695208	700 38 0.900000 0.259000 0.252000 1100 31 0.900000 2.339000 2.334000 600 42 1.000000 0.051000 0.051000 1.200000 0.031000 0.037000
1538310443814738583	700 38 0.900000 0.259000 0.252000 1100 31 0.900000 2.339000 2.334000 600 43 1.000000 0.051000 0.051000 1.200000 0.031000 0.037000
1538310444370695333	700 38 0.900000 0.259000 0.252000 1100 31 0.900000 2.331000 2.326000 600 42 1.000000 0.050000 0.050000 1.200000 0.031000 0.037000
1538310444930696667	700 38 0.900000 0.259000 0.252000 1100 31 0.900000 2.336000 2.331000 600 42 1.000000 0.051000 0.051000 1.200000 0.031000 0.037000
1538310445494701792	700 38 0.900000 0.259000 0.252000 1100 31 0.900000 2.328000 2.323000 600 43 1.000000 0.051000 0.051000 1.200000 0.031000 0.037000
1538310446054658500	700 38 0.900000 0.259000 0.252000 1100 31 0.900000 2.329000 2.324000 600 42 1.000000 0.050000 0.050000 1.200000 0.031000 0.037000
1538310446614667959	700 38 0.900000 0.259000 0.252000 1100 31 0.900000 2.340000 2.335000 600 42 1.000000 0.050000 0.050000 1.200000 0.030000 0.036000
1538310447166659167	700 38 0.900000 0.259000 0.252000 1100 31 0.900000 2.338000 2.333000 600 42 1.000000 0.051000 0.051000 1.200000 0.030000 0.036000
1538310447722666834	700 38 0.900000 0.259000 0.252000 1100 31 0.900000 2.338000 2.333000 600 42 1.000000 0.051000 0.051000 1.200000 0.031000 0.037000
1538310448274701459	700 38 0.900000 0.259000 0.252000 1100 31 0.900000 2.340000 2.335000 600 42 1.000000 0.051000 0.051000 1.200000 0.031000 0.037000
1538310448834735917	700 38 0.900000 0.259000 0.252000 1100 31 0.900000 2.340000 2.335000 600 43 1.000000 0.051000 0.051000 1.200000 0.031000 0.037000
1538310449370745292	700 38 0.900000 0.259000 0.252000 1100 31 0.900000 2.337000 2.332000 600 42 1.000000 0.051000 0.051000 1.200000 0.031000 0.037000
1538310449934732209	700 38 0.900000 0.259000 0.252000 1100 31 0.900000 2.339000 2.334000 600 42 1.000000 0.051000 0.051000 1.200000 0.031000 0.037000
1538310450474755251	700 38 0.900000 0.259000 0.252000 1100 31 0.900000 2.332000 2.327000 600 42 1.000000 0.051000 0.051000 1.200000 0.031000 0.037000
1538310451034745209	700 38 0.900000 0.259000 0.252000 1100 31 0.900000 2.337000 2.332000 600 42 1.000000 0.051000 0.051000 1.200000 0.031000 0.037000
1538310451590711417	700 38 0.900000 0.259000 0.252000 1100 31 0.900000 2.342000 2.337000 600 42 1.000000 0.050000 0.050000 1.200000 0.031000 0.037000
1538310452138644043	700 38 0.900000 0.259000 0.252000 1100 31 0.900000 2.355000 2.350000 600 42 1.000000 0.051000 0.051000 1.200000 0.031000 0.037000
1538310452702670959	700 38 0.900000 0.259000 0.252000 1100 31 0.900000 2.355000 2.350000 600 42 1.000000 0.050000 0.050000 1.200000 0.031000 0.037000
1538310453250754626	700 38 0.900000 0.259000 0.252000 1100 31 0.900000 2.356000 2.351000 600 42 1.000000 0.051000 0.051000 1.200000 0.031000 0.037000
1538310453806716418	700 38 0.900000 0.259000 0.252000 1100 31 0.900000 2.354000 2.349000 600 42 1.000000 0.051000 0.051000 1.200000 0.031000 0.037000
1538310454354733376	700 38 0.900000 0.259000 0.252000 1100 31 0.900000 2.354000 2.349000 600 42 1.000000 0.051000 0.051000 1.200000 0.031000 0.037000
1538310454914763501	700 38 0.900000 0.259000 0.252000 1100 31 0.900000 2.353000 2.348000 600 42 1.000000 0.051000 0.051000 1.200000 0.031000 0.037000
1538310455462752626	700 38 0.900000 0.259000 0.252000 1100 31 0.900000 2.352000 2.347000 600 42 1.000000 0.050000 0.050000 1.200000 0.031000 0.037000
1538310456022707501	700 38 0.900000 0.259000 0.252000 1100 31 0.900000 2.347000 2.342000 600 43 1.000000 0.051000 0.051000 1.200000 0.031000 0.037000
1538310456582715835	700 38 0.900000 0.259000 0.252000 1100 31 0.900000 2.352000 2.347000 600 42 1.000000 0.051000 0.051000 1.200000 0.031000 0.037000
1538310457134713126	700 38 0.900000 0.259000 0.252000 1100 31 0.900000 2.342000 2.337000 600 42 1.000000 0.050000 0.050000 1.200000 0.031000 0.037000
1538310457694688335	700 38 0.900000 0.259000 0.252000 1100 31 0.900000 2.354000 2.349000 600 42 1.000000 0.050000 0.050000 1.200000 0.031000 0.037000
1538310458254722918	700 38 0.900000 0.259000 0.252000 1100 31 0.900000 2.355000 2.350000 600 42 1.000000 0.051000 0.051000 1.200000 0.031000 0.037000
1538310458806730543	700 38 0.900000 0.259000 0.252000 1100 31 0.900000 2.353000 2.348000 600 42 1.000000 0.051000 0.051000 1.200000 0.031000 0.037000
1538310459362710543	700 38 0.900000 0.259000 0.252000 1100 31 0.900000 2.355000 2.350000 600 42 1.000000 0.051000 0.051000 1.200000 0.031000 0.037000
1538310459922728252	700 38 0.900000 0.259000 0.252000 1100 31 0.900000 2.353000 2.348000 600 43 1.000000 0.051000 0.051000 1.200000 0.031000 0.037000
1538310460470732002	700 38 0.900000 0.259000 0.252000 1100 31 0.900000 2.346000 2.341000 600 43 1.000000 0.051000 0.051000 1.200000 0.031000 0.037000
1538310461018725294	700 38 0.900000 0.259000 0.252000 1100 31 0.900000 2.340000 2.335000 600 42 1.000000 0.051000 0.051000 1.200000 0.031000 0.037000
1538310461578747294	700 38 0.900000 0.259000 0.252000 1100 31 0.900000 2.341000 2.336000 600 42 1.000000 0.051000 0.051000 1.200000 0.032000 0.038000
1538310462142669710	700 38 0.900000 0.259000 0.252000 1100 31 0.900000 2.335000 2.330000 600 43 1.000000 0.051000 0.051000 1.200000 0.031000 0.037000
1538310462702717252	700 38 0.900000 0.260000 0.252000 1100 31 0.900000 2.341000 2.336000 600 42 1.000000 0.051000 0.051000 1.200000 0.030000 0.036000
1538310463250718294	700 38 0.900000 0.260000 0.252000 1100 31 0.900000 2.341000 2.336000 600 42 1.000000 0.051000 0.051000 1.200000 0.030000 0.036000
1538310463806673127	700 38 0.900000 0.259000 0.252000 1100 31 0.900000 2.344000 2.339000 600 43 1.000000 0.051000 0.051000 1.200000 0.030000 0.036000
1538310464366738169	700 38 0.900000 0.260000 0.252000 1100 31 0.900000 2.342000 2.337000 600 43 1.000000 0.051000 0.051000 1.200000 0.030000 0.036000
1538310464930665711	700 38 0.900000 0.260000 0.252000 1100 31 0.900000 2.341000 2.336000 600 42 1.000000 0.051000 0.051000 1.200000 0.030000 0.036000
1538310465490708502	700 38 0.900000 0.259000 0.252000 1100 31 0.900000 2.340000 2.335000 600 43 1.000000 0.051000 0.051000 1.200000 0.030000 0.036000
1538310466042718128	700 38 0.900000 0.260000 0.252000 1100 31 0.900000 2.341000 2.336000 600 43 1.000000 0.051000 0.051000 1.200000 0.030000 0.036000
1538310466602649086	700 38 0.900000 0.260000 0.252000 1100 31 0.900000 2.341000 2.336000 600 42 1.000000 0.051000 0.051000 1.200000 0.030000 0.036000
1538310467162708878	700 38 0.900000 0.259000 0.252000 1100 31 0.900000 2.335000 2.330000 600 43 1.000000 0.051000 0.051000 1.200000 0.030000 0.036000
1538310467710760086	700 38 0.900000 0.260000 0.252000 1100 31 0.900000 2.340000 2.335000 600 42 1.000000 0.051000 0.051000 1.200000 0.030000 0.036000
1538310468270755669	700 38 0.900000 0.260000 0.252000 1100 31 0.900000 2.338000 2.333000 600 43 1.000000 0.051000 0.051000 1.200000 0.031000 0.037000
1538310468826703753	700 38 0.900000 0.260000 0.252000 1100 31 0.900000 2.340000 2.335000 600 42 1.000000 0.051000 0.051000 1.200000 0.030000 0.036000
1538310469378735836	700 38 0.900000 0.260000 0.252000 1100 31 0.900000 2.329000 2.324000 600 42 1.000000 0.051000 0.051000 1.200000 0.031000 0.037000
1538310469926733378	700 38 0.900000 0.260000 0.252000 1100 31 0.900000 2.324000 2.319000 600 42 1.000000 0.050000 0.050000 1.200000 0.030000 0.036000
1538310470482721545	700 38 0.900000 0.259000 0.252000 1100 31 0.900000 2.329000 2.324000 600 42 1.000000 0.051000 0.051000 1.200000 0.031000 0.037000
1538310471030758336	700 38 0.900000 0.260000 0.252000 1100 31 0.900000 2.329000 2.324000 600 43 1.000000 0.050000 0.050000 1.200000 0.030000 0.036000
1538310471594715045	700 38 0.900000 0.259000 0.252000 1100 31 0.900000 2.335000 2.330000 600 43 1.000000 0.051000 0.051000 1.200000 0.031000 0.037000
1538310472154725670	700 38 0.900000 0.259000 0.252000 1100 31 0.900000 2.334000 2.329000 600 43 1.000000 0.051000 0.051000 1.200000 0.031000 0.037000
1538310472714706920	700 38 0.900000 0.260000 0.252000 1100 31 0.900000 2.335000 2.330000 600 43 1.000000 0.051000 0.051000 1.200000 0.031000 0.037000
1538310473274688920	700 38 0.900000 0.260000 0.252000 1100 31 0.900000 2.330000 2.325000 600 42 1.000000 0.051000 0.051000 1.200000 0.030000 0.036000
1538310473834731920	700 37 0.900000 0.260000 0.252000 1100 31 0.900000 2.324000 2.319000 600 42 1.000000 0.051000 0.051000 1.200000 0.030000 0.036000
1538310474394733129	700 38 0.900000 0.260000 0.252000 1100 31 0.900000 2.329000 2.324000 600 42 1.000000 0.051000 0.051000 1.200000 0.030000 0.036000
1538310474946720254	700 38 0.900000 0.260000 0.252000 1100 31 0.900000 2.333000 2.328000 600 42 1.000000 0.051000 0.051000 1.200000 0.030000 0.036000
1538310475506711754	700 38 0.900000 0.260000 0.252000 1100 31 0.900000 2.335000 2.330000 600 43 1.000000 0.051000 0.051000 1.200000 0.031000 0.037000
1538310476066664295	700 38 0.900000 0.260000 0.252000 1100 31 0.900000 2.334000 2.329000 600 42 1.000000 0.050000 0.050000 1.200000 0.030000 0.036000
1538310476618764712	700 38 0.900000 0.260000 0.252000 1100 31 0.900000 2.325000 2.320000 600 43 1.000000 0.051000 0.051000 1.200000 0.031000 0.037000
1538310477178747462	700 38 0.900000 0.259000 0.252000 1100 31 0.900000 2.330000 2.325000 600 42 1.000000 0.051000 0.051000 1.200000 0.031000 0.037000
1538310477730671462	700 38 0.900000 0.260000 0.252000 1100 31 0.900000 2.335000 2.330000 600 43 1.000000 0.051000 0.051000 1.200000 0.030000 0.036000
1538310478286749587	700 38 0.900000 0.260000 0.252000 1100 31 0.900000 2.336000 2.331000 600 42 1.000000 0.051000 0.051000 1.200000 0.030000 0.036000
1538310478793281337	700 33 0.900000 0.260000 0.252000 1100 31 0.900000 2.169000 2.162000 600 41 1.000000 0.051000 0.051000 1.200000 0.030000 0.036000
1538310479299637504	700 31 0.900000 0.260000 0.252000 1100 29 0.900000 0.765000 0.758000 600 35 1.000000 0.051000 0.051000 1.200000 0.030000 0.036000
1538310479806015838	700 30 0.900000 0.260000 0.253000 1100 28 1.000000 0.121000 0.121000 600 33 1.000000 0.050000 0.050000 1.200000 0.030000 0.036000
1538310480312517254	700 29 0.900000 0.260000 0.253000 1100 27 1.000000 0.131000 0.131000 600 31 1.000000 0.050000 0.050000 1.200000 0.031000 0.037000
1538310480818919254	700 28 0.900000 0.259000 0.252000 1100 27 1.000000 0.133000 0.133000 600 31 1.000000 0.050000 0.050000 1.200000 0.030000 0.036000
1538310481325530921	700 27 0.900000 0.259000 0.252000 1100 26 1.000000 0.123000 0.123000 600 30 1.000000 0.050000 0.050000 1.200000 0.030000 0.036000
1538310481831850921	700 27 0.900000 0.259000 0.252000 1100 26 1.000000 0.132000 0.132000 600 29 1.000000 0.050000 0.050000 1.200000 0.030000 0.036000
1538310482338316213	700 26 0.900000 0.259000 0.252000 1100 25 1.000000 0.123000 0.123000 600 29 1.000000 0.050000 0.050000 1.200000 0.030000 0.036000
1538310482844623921	700 26 0.900000 0.259000 0.252000 1100 25 1.000000 0.134000 0.134000 600 29 1.000000 0.050000 0.050000 1.200000 0.030000 0.036000
1538310483350938880	700 26 0.900000 0.259000 0.252000 1100 24 1.000000 0.121000 0.121000 600 28 1.000000 0.050000 0.050000 1.200000 0.031000 0.037000
1538310483857288088	700 26 0.900000 0.259000 0.252000 1100 24 1.000000 0.131000 0.131000 600 28 1.000000 0.050000 0.050000 1.200000 0.030000 0.036000
1538310484363610546	700 25 0.900000 0.259000 0.252000 1100 24 1.000000 0.117000 0.117000 600 28 1.000000 0.050000 0.050000 1.200000 0.030000 0.036000
1538310484869936213	700 25 0.900000 0.259000 0.252000 1100 24 1.000000 0.115000 0.115000 600 27 1.000000 0.050000 0.050000 1.200000 0.030000 0.036000
1538310485376129922	700 25 0.900000 0.259000 0.252000 1100 23 1.000000 0.116000 0.116000 600 27 1.000000 0.050000 0.050000 1.200000 0.030000 0.036000
1538310485882370588	700 25 0.900000 0.259000 0.252000 1100 23 1.000000 0.112000 0.112000 600 27 1.000000 0.050000 0.050000 1.200000 0.030000 0.036000
1538310486388553713	700 25 0.900000 0.259000 0.252000 1100 23 1.000000 0.110000 0.110000 600 27 1.000000 0.050000 0.050000 1.200000 0.030000 0.036000
1538310486894868797	700 24 0.900000 0.259000 0.252000 1100 23 1.000000 0.132000 0.132000 600 27 1.000000 0.050000 0.050000 1.200000 0.031000 0.037000
1538310487401172672	700 24 0.900000 0.259000 0.252000 1100 23 1.000000 0.114000 0.114000 600 26 1.000000 0.050000 0.050000 1.200000 0.030000 0.036000
1538310487907505713	700 24 0.900000 0.259000 0.252000 1100 23 1.000000 0.135000 0.135000 600 26 1.000000 0.050000 0.050000 1.200000 0.030000 0.036000
1538310488413733380	700 24 0.900000 0.259000 0.252000 1100 23 1.000000 0.116000 0.116000 600 26 1.000000 0.050000 0.050000 1.200000 0.031000 0.037000
1538310488919899297	700 24 0.900000 0.259000 0.252000 1100 22 1.000000 0.134000 0.134000 600 26 1.000000 0.050000 0.050000 1.200000 0.030000 0.036000
1538310489426092255	700 24 0.900000 0.259000 0.252000 1100 22 1.000000 0.111000 0.111000 600 26 1.000000 0.050000 0.050000 1.200000 0.030000 0.036000
1538310489932271297	700 24 0.900000 0.259000 0.252000 1100 22 1.000000 0.133000 0.133000 600 26 1.000000 0.050000 0.050000 1.200000 0.030000 0.036000
1538310490438586797	700 24 0.900000 0.259000 0.252000 1100 22 1.000000 0.115000 0.115000 600 26 1.000000 0.050000 0.050000 1.200000 0.030000 0.036000
1538310490944813131	700 23 0.900000 0.187000 0.184000 1100 22 1.000000 0.110000 0.110000 600 26 1.000000 0.050000 0.050000 1.200000 0.026000 0.031000
1538310491451110006	700 23 0.900000 0.098000 0.096000 1100 21 1.000000 0.106000 0.106000 600 26 1.000000 0.050000 0.050000 1.200000 0.023000 0.027000
1538310491957539422	700 23 0.900000 0.054000 0.053000 1100 21 1.000000 0.136000 0.136000 600 25 1.000000 0.050000 0.050000 1.200000 0.022000 0.026000
1538310492463849339	700 22 0.900000 0.027000 0.026000 1100 21 1.000000 0.105000 0.105000 600 25 1.000000 0.050000 0.050000 1.200000 0.023000 0.027000
