#Timestamp	CPU(0) Frequency(MHz)	CPU(0) Temperature(C)	A7 Voltage(V)	A7 Current(A)	A7 Power(W)	CPU(4) Frequency(MHz)	CPU(4) Temperature(C)	A15 Voltage(V)	A15 Current(A)	A15 Power(W)	GPU Frequency(MHz)	GPU Temperature(C)	GPU Voltage(V)	GPU Current(A)	GPU Power(W)	RAM Voltage(V)	RAM Current(A)	RAM Power(W)
1517247618857799529	500 39 0.900000 0.061000 0.056000 1100 34 0.900000 0.135000 0.129000 600 43 1.000000 0.051000 0.051000 1.200000 0.042000 0.050000
1517247619366547862	500 41 0.900000 0.074000 0.067000 1100 35 0.900000 2.096000 2.089000 600 46 1.000000 0.051000 0.051000 1.200000 0.023000 0.027000
1517247619874923154	500 42 0.900000 0.074000 0.067000 1100 36 0.900000 2.107000 2.100000 600 48 1.000000 0.052000 0.052000 1.200000 0.023000 0.027000
1517247620383374904	500 43 0.900000 0.075000 0.068000 1100 37 0.900000 2.127000 2.120000 600 49 1.000000 0.052000 0.052000 1.200000 0.023000 0.027000
1517247620891884446	500 43 0.900000 0.075000 0.068000 1100 38 0.900000 2.124000 2.117000 600 49 1.000000 0.052000 0.052000 1.200000 0.023000 0.027000
1517247621400310196	500 44 0.900000 0.075000 0.068000 1100 38 0.900000 2.141000 2.134000 600 50 1.000000 0.052000 0.052000 1.200000 0.023000 0.027000
1517247621908722654	500 44 0.900000 0.075000 0.068000 1100 38 0.900000 2.144000 2.137000 600 50 1.000000 0.053000 0.053000 1.200000 0.023000 0.027000
1517247622417151821	500 45 0.900000 0.076000 0.069000 1100 39 0.900000 2.124000 2.117000 600 50 1.000000 0.052000 0.052000 1.200000 0.023000 0.027000
1517247622925540613	500 45 0.900000 0.075000 0.068000 1100 39 0.900000 2.127000 2.120000 600 51 1.000000 0.052000 0.052000 1.200000 0.023000 0.027000
1517247623433860738	500 45 0.900000 0.076000 0.069000 1100 39 0.900000 2.126000 2.119000 600 51 1.000000 0.052000 0.052000 1.200000 0.023000 0.027000
1517247623942199863	500 45 0.900000 0.076000 0.069000 1100 39 0.900000 2.126000 2.119000 600 51 1.000000 0.052000 0.052000 1.200000 0.023000 0.027000
1517247624450515321	500 45 0.900000 0.076000 0.069000 1100 39 0.900000 2.138000 2.131000 600 51 1.000000 0.053000 0.053000 1.200000 0.023000 0.027000
1517247624958689696	500 45 0.900000 0.076000 0.069000 1100 39 0.900000 2.131000 2.124000 600 51 1.000000 0.053000 0.053000 1.200000 0.023000 0.027000
1517247625471982238	500 46 0.900000 0.076000 0.069000 1100 40 0.900000 2.136000 2.129000 600 51 1.000000 0.052000 0.052000 1.200000 0.023000 0.027000
1517247625981301446	500 46 0.900000 0.077000 0.070000 1100 40 0.900000 2.131000 2.124000 600 52 1.000000 0.052000 0.052000 1.200000 0.024000 0.028000
1517247626489502447	500 46 0.900000 0.075000 0.068000 1100 40 0.900000 2.150000 2.143000 600 52 1.000000 0.053000 0.053000 1.200000 0.024000 0.028000
1517247626997756905	500 46 0.900000 0.076000 0.069000 1100 40 0.900000 2.133000 2.126000 600 52 1.000000 0.053000 0.053000 1.200000 0.023000 0.027000
1517247627506274488	500 46 0.900000 0.075000 0.068000 1100 40 0.900000 2.150000 2.143000 600 52 1.000000 0.053000 0.053000 1.200000 0.023000 0.027000
1517247628014660197	500 46 0.900000 0.075000 0.068000 1100 40 0.900000 2.128000 2.121000 600 52 1.000000 0.052000 0.052000 1.200000 0.024000 0.028000
1517247628523043197	500 46 0.900000 0.076000 0.069000 1100 40 0.900000 2.119000 2.112000 600 52 1.000000 0.053000 0.053000 1.200000 0.023000 0.027000
1517247629031413614	500 46 0.900000 0.076000 0.069000 1100 40 0.900000 2.140000 2.133000 600 52 1.000000 0.053000 0.053000 1.200000 0.023000 0.027000
1517247629539766947	500 46 0.900000 0.076000 0.069000 1100 40 0.900000 2.127000 2.120000 600 52 1.000000 0.053000 0.053000 1.200000 0.023000 0.027000
1517247630048121614	500 46 0.900000 0.076000 0.069000 1100 40 0.900000 2.164000 2.157000 600 52 1.000000 0.053000 0.053000 1.200000 0.023000 0.027000
1517247630556472905	500 46 0.900000 0.076000 0.069000 1100 40 0.900000 2.120000 2.113000 600 52 1.000000 0.053000 0.053000 1.200000 0.023000 0.027000
1517247631064853572	500 46 0.900000 0.076000 0.069000 1100 40 0.900000 2.141000 2.134000 600 52 1.000000 0.053000 0.053000 1.200000 0.023000 0.027000
1517247631573382405	500 46 0.900000 0.076000 0.069000 1100 41 0.900000 2.138000 2.131000 600 52 1.000000 0.053000 0.053000 1.200000 0.023000 0.027000
1517247632081861947	500 46 0.900000 0.076000 0.069000 1100 41 0.900000 2.143000 2.136000 600 52 1.000000 0.053000 0.053000 1.200000 0.023000 0.027000
1517247632590296322	500 47 0.900000 0.076000 0.069000 1100 41 0.900000 2.153000 2.146000 600 52 1.000000 0.053000 0.053000 1.200000 0.023000 0.027000
1517247633098698156	500 46 0.900000 0.076000 0.069000 1100 41 0.900000 2.146000 2.139000 600 53 1.000000 0.053000 0.053000 1.200000 0.023000 0.027000
1517247633607119447	500 47 0.900000 0.076000 0.069000 1100 41 0.900000 2.144000 2.137000 600 53 1.000000 0.053000 0.053000 1.200000 0.024000 0.028000
1517247634115597989	500 47 0.900000 0.075000 0.068000 1100 41 0.900000 2.144000 2.137000 600 53 1.000000 0.053000 0.053000 1.200000 0.023000 0.027000
1517247634623833781	500 47 0.900000 0.076000 0.069000 1100 41 0.900000 2.140000 2.133000 600 53 1.000000 0.053000 0.053000 1.200000 0.023000 0.027000
1517247635132177364	500 47 0.900000 0.076000 0.069000 1100 41 0.900000 2.139000 2.132000 600 53 1.000000 0.053000 0.053000 1.200000 0.023000 0.027000
1517247635640535364	500 47 0.900000 0.076000 0.069000 1100 41 0.900000 2.138000 2.131000 600 53 1.000000 0.053000 0.053000 1.200000 0.023000 0.027000
1517247636148904698	500 47 0.900000 0.076000 0.069000 1100 41 0.900000 2.128000 2.121000 600 53 1.000000 0.053000 0.053000 1.200000 0.023000 0.027000
1517247636657342864	500 47 0.900000 0.076000 0.069000 1100 41 0.900000 2.144000 2.137000 600 53 1.000000 0.053000 0.053000 1.200000 0.023000 0.027000
1517247637165646489	500 47 0.900000 0.076000 0.069000 1100 41 0.900000 2.142000 2.135000 600 53 1.000000 0.053000 0.053000 1.200000 0.023000 0.027000
1517247637673877240	500 47 0.900000 0.076000 0.069000 1100 41 0.900000 2.109000 2.102000 600 53 1.000000 0.053000 0.053000 1.200000 0.023000 0.027000
1517247638182284281	500 47 0.900000 0.076000 0.069000 1100 41 0.900000 2.134000 2.127000 600 53 1.000000 0.053000 0.053000 1.200000 0.023000 0.027000
1517247638690561906	500 47 0.900000 0.076000 0.069000 1100 41 0.900000 2.125000 2.118000 600 53 1.000000 0.053000 0.053000 1.200000 0.023000 0.027000
1517247639198915656	500 47 0.900000 0.076000 0.069000 1100 41 0.900000 2.149000 2.142000 600 53 1.000000 0.053000 0.053000 1.200000 0.023000 0.027000
1517247639707285448	500 47 0.900000 0.076000 0.069000 1100 41 0.900000 2.134000 2.129000 600 53 1.000000 0.053000 0.053000 1.200000 0.023000 0.027000
1517247640215755157	500 47 0.900000 0.075000 0.068000 1100 41 0.900000 2.141000 2.134000 600 53 1.000000 0.053000 0.053000 1.200000 0.023000 0.027000
1517247640724102740	500 47 0.900000 0.076000 0.069000 1100 41 0.900000 2.137000 2.130000 600 53 1.000000 0.053000 0.053000 1.200000 0.023000 0.027000
1517247641232499990	500 47 0.900000 0.076000 0.069000 1100 41 0.900000 2.163000 2.156000 600 53 1.000000 0.053000 0.053000 1.200000 0.023000 0.027000
1517247641740826990	500 47 0.900000 0.075000 0.068000 1100 41 0.900000 2.170000 2.165000 600 53 1.000000 0.053000 0.053000 1.200000 0.023000 0.027000
1517247642249168573	500 47 0.900000 0.076000 0.069000 1100 41 0.900000 2.139000 2.134000 600 53 1.000000 0.053000 0.053000 1.200000 0.023000 0.027000
1517247642757357740	500 47 0.900000 0.076000 0.069000 1100 41 0.900000 2.132000 2.125000 600 53 1.000000 0.053000 0.053000 1.200000 0.023000 0.027000
1517247643265637365	500 47 0.900000 0.076000 0.069000 1100 41 0.900000 2.154000 2.147000 600 53 1.000000 0.053000 0.053000 1.200000 0.023000 0.027000
1517247643774101240	500 47 0.900000 0.076000 0.069000 1100 41 0.900000 2.126000 2.119000 600 53 1.000000 0.053000 0.053000 1.200000 0.023000 0.027000
1517247644282418365	500 47 0.900000 0.076000 0.069000 1100 41 0.900000 2.149000 2.142000 600 53 1.000000 0.053000 0.053000 1.200000 0.023000 0.027000
1517247644790842949	500 47 0.900000 0.076000 0.069000 1100 41 0.900000 2.153000 2.148000 600 53 1.000000 0.053000 0.053000 1.200000 0.023000 0.027000
1517247645299318365	500 47 0.900000 0.076000 0.069000 1100 41 0.900000 2.155000 2.148000 600 53 1.000000 0.053000 0.053000 1.200000 0.023000 0.027000
1517247645807748991	500 47 0.900000 0.076000 0.069000 1100 41 0.900000 2.144000 2.137000 600 53 1.000000 0.053000 0.053000 1.200000 0.024000 0.028000
1517247646316253324	500 47 0.900000 0.076000 0.069000 1100 41 0.900000 2.151000 2.144000 600 53 1.000000 0.053000 0.053000 1.200000 0.023000 0.027000
1517247646824496699	500 47 0.900000 0.076000 0.069000 1100 41 0.900000 2.119000 2.112000 600 53 1.000000 0.053000 0.053000 1.200000 0.023000 0.027000
1517247647333095366	500 47 0.900000 0.076000 0.069000 1100 41 0.900000 2.125000 2.118000 600 53 1.000000 0.053000 0.053000 1.200000 0.023000 0.027000
1517247647841509116	500 47 0.900000 0.076000 0.069000 1100 41 0.900000 2.123000 2.116000 600 53 1.000000 0.053000 0.053000 1.200000 0.023000 0.027000
1517247648349949949	500 47 0.900000 0.076000 0.069000 1100 41 0.900000 2.129000 2.122000 600 53 1.000000 0.053000 0.053000 1.200000 0.023000 0.027000
1517247648858342699	500 47 0.900000 0.076000 0.069000 1100 41 0.900000 2.141000 2.134000 600 53 1.000000 0.053000 0.053000 1.200000 0.023000 0.027000
1517247649366625574	500 47 0.900000 0.076000 0.069000 1100 41 0.900000 2.141000 2.134000 600 53 1.000000 0.053000 0.053000 1.200000 0.023000 0.027000
1517247649875055324	500 47 0.900000 0.075000 0.068000 1100 41 0.900000 2.136000 2.129000 600 53 1.000000 0.053000 0.053000 1.200000 0.023000 0.027000
1517247650383326741	500 47 0.900000 0.076000 0.069000 1100 41 0.900000 2.109000 2.102000 600 53 1.000000 0.053000 0.053000 1.200000 0.023000 0.027000
1517247650891611949	500 47 0.900000 0.076000 0.069000 1100 41 0.900000 2.141000 2.134000 600 53 1.000000 0.053000 0.053000 1.200000 0.023000 0.027000
1517247651400105700	500 47 0.900000 0.076000 0.069000 1100 41 0.900000 2.134000 2.127000 600 53 1.000000 0.053000 0.053000 1.200000 0.024000 0.028000
1517247651908381366	500 47 0.900000 0.076000 0.069000 1100 41 0.900000 2.127000 2.120000 600 53 1.000000 0.053000 0.053000 1.200000 0.023000 0.027000
1517247652416805741	500 47 0.900000 0.076000 0.069000 1100 42 0.900000 2.130000 2.123000 600 53 1.000000 0.053000 0.053000 1.200000 0.023000 0.027000
1517247652925234866	500 47 0.900000 0.076000 0.069000 1100 41 0.900000 2.141000 2.134000 600 53 1.000000 0.053000 0.053000 1.200000 0.023000 0.027000
1517247653433529408	500 47 0.900000 0.076000 0.069000 1100 41 0.900000 2.098000 2.091000 600 53 1.000000 0.053000 0.053000 1.200000 0.023000 0.027000
1517247653941928658	500 47 0.900000 0.076000 0.069000 1100 41 0.900000 2.131000 2.124000 600 53 1.000000 0.053000 0.053000 1.200000 0.023000 0.027000
1517247654450298242	500 47 0.900000 0.076000 0.069000 1100 41 0.900000 2.145000 2.138000 600 53 1.000000 0.053000 0.053000 1.200000 0.023000 0.027000
1517247654958762867	500 47 0.900000 0.076000 0.069000 1100 41 0.900000 2.149000 2.142000 600 53 1.000000 0.053000 0.053000 1.200000 0.023000 0.027000
1517247655467068450	500 47 0.900000 0.076000 0.069000 1100 41 0.900000 2.135000 2.128000 600 53 1.000000 0.053000 0.053000 1.200000 0.023000 0.027000
1517247655975249950	500 47 0.900000 0.076000 0.069000 1100 41 0.900000 2.143000 2.136000 600 53 1.000000 0.053000 0.053000 1.200000 0.023000 0.027000
1517247656483701533	500 47 0.900000 0.076000 0.069000 1100 41 0.900000 2.127000 2.120000 600 53 1.000000 0.053000 0.053000 1.200000 0.023000 0.027000
1517247656992063034	500 47 0.900000 0.076000 0.069000 1100 41 0.900000 2.147000 2.140000 600 53 1.000000 0.053000 0.053000 1.200000 0.023000 0.027000
1517247657500288117	500 47 0.900000 0.076000 0.069000 1100 42 0.900000 2.148000 2.141000 600 53 1.000000 0.053000 0.053000 1.200000 0.023000 0.027000
1517247658008703367	500 47 0.900000 0.076000 0.069000 1100 41 0.900000 2.132000 2.125000 600 53 1.000000 0.053000 0.053000 1.200000 0.024000 0.028000
1517247658517199117	500 47 0.900000 0.076000 0.069000 1100 41 0.900000 2.141000 2.134000 600 53 1.000000 0.053000 0.053000 1.200000 0.023000 0.027000
1517247659025604325	500 47 0.900000 0.076000 0.069000 1100 41 0.900000 2.149000 2.142000 600 53 1.000000 0.053000 0.053000 1.200000 0.023000 0.027000
1517247659534071492	500 47 0.900000 0.076000 0.069000 1100 42 0.900000 2.131000 2.124000 600 53 1.000000 0.053000 0.053000 1.200000 0.023000 0.027000
1517247660042427701	500 47 0.900000 0.076000 0.069000 1100 42 0.900000 2.134000 2.127000 600 53 1.000000 0.053000 0.053000 1.200000 0.023000 0.027000
1517247660550861159	500 47 0.900000 0.076000 0.069000 1100 42 0.900000 2.142000 2.135000 600 53 1.000000 0.053000 0.053000 1.200000 0.023000 0.027000
1517247661064146076	500 47 0.900000 0.077000 0.070000 1100 42 0.900000 2.138000 2.131000 600 53 1.000000 0.053000 0.053000 1.200000 0.023000 0.027000
1517247661573369201	500 47 0.900000 0.078000 0.071000 1100 42 0.900000 2.127000 2.120000 600 53 1.000000 0.053000 0.053000 1.200000 0.023000 0.027000
1517247662081712867	500 47 0.900000 0.075000 0.068000 1100 42 0.900000 2.158000 2.151000 600 53 1.000000 0.053000 0.053000 1.200000 0.023000 0.027000
1517247662590077409	500 47 0.900000 0.076000 0.069000 1100 42 0.900000 2.145000 2.138000 600 53 1.000000 0.053000 0.053000 1.200000 0.023000 0.027000
1517247663098413201	500 47 0.900000 0.076000 0.069000 1100 42 0.900000 2.154000 2.147000 600 53 1.000000 0.053000 0.053000 1.200000 0.023000 0.027000
1517247663606775284	500 47 0.900000 0.075000 0.068000 1100 42 0.900000 2.141000 2.134000 600 54 1.000000 0.053000 0.053000 1.200000 0.023000 0.027000
1517247664115057909	500 47 0.900000 0.076000 0.069000 1100 42 0.900000 2.125000 2.118000 600 54 1.000000 0.053000 0.053000 1.200000 0.024000 0.028000
1517247664626221451	500 47 0.900000 0.076000 0.069000 1100 42 0.900000 2.164000 2.157000 600 54 1.000000 0.053000 0.053000 1.200000 0.023000 0.027000
1517247665135130701	500 47 0.900000 0.078000 0.071000 1100 42 0.900000 2.140000 2.133000 600 54 1.000000 0.053000 0.053000 1.200000 0.023000 0.027000
1517247665643629951	500 47 0.900000 0.076000 0.069000 1100 42 0.900000 2.137000 2.130000 600 54 1.000000 0.053000 0.053000 1.200000 0.024000 0.028000
1517247666152004076	500 47 0.900000 0.076000 0.069000 1100 42 0.900000 2.136000 2.129000 600 54 1.000000 0.053000 0.053000 1.200000 0.023000 0.027000
1517247666660439160	500 47 0.900000 0.076000 0.069000 1100 42 0.900000 2.151000 2.146000 600 54 1.000000 0.053000 0.053000 1.200000 0.023000 0.027000
1517247667168783743	500 47 0.900000 0.076000 0.069000 1100 42 0.900000 2.138000 2.131000 600 54 1.000000 0.053000 0.053000 1.200000 0.024000 0.028000
1517247667677033368	500 47 0.900000 0.076000 0.069000 1100 42 0.900000 2.141000 2.134000 600 54 1.000000 0.053000 0.053000 1.200000 0.023000 0.027000
1517247668185457452	500 48 0.900000 0.076000 0.069000 1100 42 0.900000 2.147000 2.140000 600 54 1.000000 0.053000 0.053000 1.200000 0.023000 0.027000
1517247668693897785	500 48 0.900000 0.076000 0.069000 1100 42 0.900000 2.148000 2.141000 600 54 1.000000 0.053000 0.053000 1.200000 0.024000 0.028000
1517247669202328118	500 48 0.900000 0.075000 0.068000 1100 42 0.900000 2.147000 2.140000 600 54 1.000000 0.053000 0.053000 1.200000 0.023000 0.027000
1517247669710728410	500 48 0.900000 0.076000 0.069000 1100 42 0.900000 2.132000 2.125000 600 54 1.000000 0.053000 0.053000 1.200000 0.023000 0.027000
1517247670218944327	500 47 0.900000 0.076000 0.069000 1100 42 0.900000 2.145000 2.138000 600 54 1.000000 0.053000 0.053000 1.200000 0.023000 0.027000
1517247670727298743	500 48 0.900000 0.076000 0.069000 1100 42 0.900000 2.115000 2.108000 600 54 1.000000 0.053000 0.053000 1.200000 0.023000 0.027000
1517247671235712327	500 47 0.900000 0.076000 0.069000 1100 42 0.900000 2.139000 2.132000 600 54 1.000000 0.053000 0.053000 1.200000 0.023000 0.027000
1517247671744133619	500 47 0.900000 0.076000 0.069000 1100 42 0.900000 2.146000 2.139000 600 54 1.000000 0.053000 0.053000 1.200000 0.023000 0.027000
1517247672252644910	500 48 0.900000 0.076000 0.069000 1100 42 0.900000 2.141000 2.134000 600 54 1.000000 0.053000 0.053000 1.200000 0.023000 0.027000
1517247672760954369	500 48 0.900000 0.076000 0.069000 1100 42 0.900000 2.150000 2.143000 600 54 1.000000 0.053000 0.053000 1.200000 0.023000 0.027000
1517247673269369744	500 48 0.900000 0.075000 0.068000 1100 42 0.900000 2.138000 2.131000 600 54 1.000000 0.053000 0.053000 1.200000 0.023000 0.027000
1517247673777847077	500 47 0.900000 0.076000 0.069000 1100 42 0.900000 2.138000 2.131000 600 54 1.000000 0.053000 0.053000 1.200000 0.024000 0.028000
1517247674286369952	500 48 0.900000 0.076000 0.069000 1100 42 0.900000 2.157000 2.150000 600 54 1.000000 0.053000 0.053000 1.200000 0.023000 0.027000
1517247674794806911	500 48 0.900000 0.076000 0.069000 1100 42 0.900000 2.155000 2.148000 600 54 1.000000 0.053000 0.053000 1.200000 0.023000 0.027000
1517247675307945119	500 48 0.900000 0.076000 0.069000 1100 42 0.900000 2.135000 2.128000 600 54 1.000000 0.053000 0.053000 1.200000 0.024000 0.028000
1517247675816966119	500 48 0.900000 0.077000 0.070000 1100 42 0.900000 2.145000 2.138000 600 54 1.000000 0.053000 0.053000 1.200000 0.025000 0.030000
1517247676325333452	500 47 0.900000 0.075000 0.068000 1100 42 0.900000 2.148000 2.141000 600 54 1.000000 0.053000 0.053000 1.200000 0.023000 0.027000
1517247676833712036	500 48 0.900000 0.076000 0.069000 1100 42 0.900000 2.132000 2.125000 600 54 1.000000 0.053000 0.053000 1.200000 0.023000 0.027000
1517247677342184036	500 48 0.900000 0.076000 0.069000 1100 42 0.900000 2.141000 2.134000 600 54 1.000000 0.053000 0.053000 1.200000 0.023000 0.027000
1517247677850519244	500 48 0.900000 0.076000 0.069000 1100 42 0.900000 2.134000 2.127000 600 54 1.000000 0.053000 0.053000 1.200000 0.023000 0.027000
1517247678358918494	500 48 0.900000 0.076000 0.069000 1100 42 0.900000 2.141000 2.134000 600 54 1.000000 0.053000 0.053000 1.200000 0.023000 0.027000
1517247678867266744	500 47 0.900000 0.077000 0.070000 1100 42 0.900000 2.154000 2.147000 600 54 1.000000 0.053000 0.053000 1.200000 0.023000 0.027000
1517247679375628161	500 48 0.900000 0.076000 0.069000 1100 42 0.900000 2.143000 2.136000 600 54 1.000000 0.053000 0.053000 1.200000 0.023000 0.027000
1517247679883959120	500 48 0.900000 0.076000 0.069000 1100 42 0.900000 2.150000 2.143000 600 54 1.000000 0.053000 0.053000 1.200000 0.023000 0.027000
1517247680392460828	500 48 0.900000 0.076000 0.069000 1100 42 0.900000 2.144000 2.137000 600 54 1.000000 0.053000 0.053000 1.200000 0.023000 0.027000
1517247680900895370	500 48 0.900000 0.077000 0.070000 1100 42 0.900000 2.131000 2.124000 600 54 1.000000 0.053000 0.053000 1.200000 0.023000 0.027000
1517247681409390953	500 48 0.900000 0.076000 0.069000 1100 42 0.900000 2.168000 2.161000 600 54 1.000000 0.053000 0.053000 1.200000 0.023000 0.027000
1517247681917626870	500 48 0.900000 0.076000 0.069000 1100 42 0.900000 2.138000 2.131000 600 54 1.000000 0.053000 0.053000 1.200000 0.023000 0.027000
1517247682426037787	500 48 0.900000 0.076000 0.069000 1100 42 0.900000 2.135000 2.128000 600 54 1.000000 0.053000 0.053000 1.200000 0.023000 0.027000
1517247682934376495	500 48 0.900000 0.076000 0.069000 1100 42 0.900000 2.142000 2.135000 600 54 1.000000 0.053000 0.053000 1.200000 0.023000 0.027000
1517247683442652287	500 48 0.900000 0.076000 0.069000 1100 42 0.900000 2.141000 2.134000 600 54 1.000000 0.053000 0.053000 1.200000 0.023000 0.027000
1517247683950926912	500 48 0.900000 0.076000 0.069000 1100 42 0.900000 2.150000 2.143000 600 54 1.000000 0.053000 0.053000 1.200000 0.023000 0.027000
1517247684459510453	500 48 0.900000 0.076000 0.069000 1100 42 0.900000 2.128000 2.121000 600 54 1.000000 0.053000 0.053000 1.200000 0.023000 0.027000
1517247684967798245	500 48 0.900000 0.076000 0.069000 1100 42 0.900000 2.127000 2.120000 600 54 1.000000 0.053000 0.053000 1.200000 0.023000 0.027000
1517247685476241870	500 48 0.900000 0.076000 0.069000 1100 42 0.900000 2.114000 2.107000 600 54 1.000000 0.053000 0.053000 1.200000 0.023000 0.027000
1517247685984454204	500 48 0.900000 0.076000 0.069000 1100 42 0.900000 2.138000 2.131000 600 54 1.000000 0.053000 0.053000 1.200000 0.023000 0.027000
1517247686492757287	500 48 0.900000 0.076000 0.069000 1100 42 0.900000 2.144000 2.137000 600 54 1.000000 0.053000 0.053000 1.200000 0.023000 0.027000
1517247687000957954	500 48 0.900000 0.076000 0.069000 1100 42 0.900000 2.111000 2.104000 600 54 1.000000 0.053000 0.053000 1.200000 0.023000 0.027000
1517247687509390204	500 48 0.900000 0.076000 0.069000 1100 42 0.900000 2.133000 2.126000 600 54 1.000000 0.053000 0.053000 1.200000 0.023000 0.027000
1517247688017752662	500 48 0.900000 0.076000 0.069000 1100 42 0.900000 2.116000 2.109000 600 54 1.000000 0.053000 0.053000 1.200000 0.024000 0.028000
1517247688526064662	500 48 0.900000 0.076000 0.069000 1100 42 0.900000 2.141000 2.134000 600 54 1.000000 0.053000 0.053000 1.200000 0.023000 0.027000
1517247689034487412	500 48 0.900000 0.076000 0.069000 1100 42 0.900000 2.138000 2.131000 600 54 1.000000 0.053000 0.053000 1.200000 0.023000 0.027000
1517247689542779121	500 48 0.900000 0.076000 0.069000 1100 42 0.900000 2.147000 2.140000 600 54 1.000000 0.053000 0.053000 1.200000 0.023000 0.027000
1517247690051019954	500 48 0.900000 0.076000 0.069000 1100 42 0.900000 2.148000 2.141000 600 54 1.000000 0.053000 0.053000 1.200000 0.023000 0.027000
1517247690559314621	500 48 0.900000 0.076000 0.069000 1100 42 0.900000 2.144000 2.137000 600 54 1.000000 0.053000 0.053000 1.200000 0.023000 0.027000
1517247691067587204	500 48 0.900000 0.076000 0.069000 1100 42 0.900000 2.125000 2.118000 600 54 1.000000 0.053000 0.053000 1.200000 0.023000 0.027000
1517247691575820788	500 48 0.900000 0.076000 0.069000 1100 42 0.900000 2.124000 2.117000 600 54 1.000000 0.053000 0.053000 1.200000 0.023000 0.027000
1517247692084180538	500 48 0.900000 0.076000 0.069000 1100 42 0.900000 2.163000 2.156000 600 54 1.000000 0.053000 0.053000 1.200000 0.022000 0.026000
1517247692592556829	500 48 0.900000 0.076000 0.069000 1100 42 0.900000 2.140000 2.133000 600 54 1.000000 0.053000 0.053000 1.200000 0.023000 0.027000
1517247693100835996	500 48 0.900000 0.077000 0.070000 1100 42 0.900000 2.147000 2.140000 600 54 1.000000 0.053000 0.053000 1.200000 0.023000 0.027000
1517247693609338163	500 48 0.900000 0.076000 0.069000 1100 42 0.900000 2.143000 2.136000 600 54 1.000000 0.053000 0.053000 1.200000 0.023000 0.027000
1517247694117748205	500 42 0.900000 0.073000 0.066000 1100 41 0.900000 2.145000 2.138000 600 47 1.000000 0.053000 0.053000 1.200000 0.025000 0.030000
1517247694625733913	500 40 0.900000 0.022000 0.020000 1100 39 1.000000 0.143000 0.143000 600 45 1.000000 0.053000 0.053000 1.200000 0.023000 0.027000
