#Timestamp	CPU(0) Frequency(MHz)	CPU(0) Temperature(C)	A7 Voltage(V)	A7 Current(A)	A7 Power(W)	CPU(4) Frequency(MHz)	CPU(4) Temperature(C)	A15 Voltage(V)	A15 Current(A)	A15 Power(W)	GPU Frequency(MHz)	GPU Temperature(C)	GPU Voltage(V)	GPU Current(A)	GPU Power(W)	RAM Voltage(V)	RAM Current(A)	RAM Power(W)
1517187826327960734	1300 39 1.200000 0.081000 0.103000 700 38 0.900000 0.117000 0.106000 600 42 1.000000 0.051000 0.051000 1.200000 0.043000 0.051000
1517187826840020443	1300 39 1.200000 0.077000 0.094000 700 38 0.900000 0.365000 0.332000 600 43 1.000000 0.051000 0.051000 1.200000 0.032000 0.038000
1517187827350187901	1300 39 1.200000 0.076000 0.093000 700 38 0.900000 0.369000 0.335000 600 42 1.000000 0.051000 0.051000 1.200000 0.035000 0.042000
1517187827861934068	1300 39 1.200000 0.076000 0.093000 700 38 0.900000 0.378000 0.343000 600 42 1.000000 0.051000 0.051000 1.200000 0.031000 0.037000
1517187828371714443	1300 39 1.200000 0.076000 0.093000 700 38 0.900000 0.378000 0.343000 600 42 1.000000 0.051000 0.051000 1.200000 0.034000 0.041000
1517187828889124651	1300 41 1.200000 0.078000 0.095000 700 39 0.900000 0.385000 0.350000 600 43 1.000000 0.051000 0.051000 1.200000 0.044000 0.053000
1517187829398259318	1300 42 1.200000 0.372000 0.450000 700 40 0.900000 1.039000 0.941000 600 44 1.000000 0.051000 0.051000 1.200000 0.039000 0.047000
1517187829953244068	1300 42 1.200000 0.279000 0.339000 700 40 0.900000 0.934000 0.846000 600 44 1.000000 0.051000 0.051000 1.200000 0.052000 0.062000
1517187830463068693	1300 41 1.200000 0.419000 0.506000 700 40 0.900000 0.996000 0.899000 600 44 1.000000 0.051000 0.051000 1.200000 0.039000 0.047000
1517187831013193527	1300 43 1.200000 0.366000 0.442000 700 40 0.900000 0.752000 0.682000 600 45 1.000000 0.051000 0.051000 1.200000 0.044000 0.053000
1517187831521801860	1300 43 1.200000 0.230000 0.279000 700 40 0.900000 1.066000 0.964000 600 45 1.000000 0.051000 0.051000 1.200000 0.042000 0.050000
1517187832064870110	1300 43 1.200000 0.189000 0.230000 700 41 0.900000 1.008000 0.912000 600 46 1.000000 0.052000 0.052000 1.200000 0.040000 0.048000
1517187832574348735	1300 42 1.200000 0.341000 0.414000 700 40 0.900000 0.740000 0.671000 600 46 1.000000 0.051000 0.051000 1.200000 0.042000 0.050000
1517187833094890652	1300 41 1.200000 0.291000 0.354000 700 40 0.900000 1.016000 0.919000 600 44 1.000000 0.051000 0.051000 1.200000 0.039000 0.047000
1517187833661263944	1300 43 1.200000 0.231000 0.281000 700 41 0.900000 0.683000 0.619000 600 46 1.000000 0.051000 0.051000 1.200000 0.053000 0.064000
1517187834217463402	1300 43 1.200000 0.429000 0.519000 700 41 0.900000 1.068000 0.966000 600 46 1.000000 0.051000 0.051000 1.200000 0.041000 0.049000
1517187834726814277	1300 42 1.200000 0.411000 0.497000 700 41 0.900000 1.049000 0.949000 600 44 1.000000 0.052000 0.052000 1.200000 0.044000 0.053000
1517187835246799444	1300 43 1.200000 0.220000 0.268000 700 41 0.900000 0.459000 0.416000 600 46 1.000000 0.052000 0.052000 1.200000 0.051000 0.061000
1517187835801265361	1300 43 1.200000 0.432000 0.523000 700 41 0.900000 1.008000 0.912000 600 45 1.000000 0.052000 0.052000 1.200000 0.041000 0.049000
1517187836310958902	1300 44 1.200000 0.418000 0.505000 700 41 0.900000 1.000000 0.905000 600 46 1.000000 0.051000 0.051000 1.200000 0.049000 0.059000
1517187836845182527	1300 44 1.200000 0.240000 0.292000 700 41 0.900000 0.770000 0.698000 600 46 1.000000 0.051000 0.051000 1.200000 0.041000 0.049000
1517187837393972694	1300 44 1.200000 0.406000 0.491000 700 41 0.900000 1.036000 0.937000 600 46 1.000000 0.051000 0.051000 1.200000 0.040000 0.048000
1517187837903772278	1300 43 1.200000 0.409000 0.495000 700 41 0.900000 1.099000 0.994000 600 47 1.000000 0.052000 0.052000 1.200000 0.046000 0.055000
1517187838432220486	1300 44 1.200000 0.311000 0.378000 700 41 0.900000 0.740000 0.671000 600 46 1.000000 0.052000 0.052000 1.200000 0.042000 0.050000
1517187838949371069	1300 43 1.200000 0.403000 0.488000 700 41 0.900000 0.985000 0.891000 600 45 1.000000 0.052000 0.052000 1.200000 0.041000 0.049000
1517187839509274319	1300 44 1.200000 0.303000 0.368000 700 41 0.900000 0.963000 0.871000 600 46 1.000000 0.051000 0.051000 1.200000 0.049000 0.059000
1517187840064530944	1300 44 1.200000 0.374000 0.453000 700 41 0.900000 0.773000 0.701000 600 46 1.000000 0.052000 0.052000 1.200000 0.042000 0.050000
1517187840610398945	1300 44 1.200000 0.424000 0.513000 700 41 0.900000 1.062000 0.961000 600 46 1.000000 0.052000 0.052000 1.200000 0.042000 0.050000
1517187841120529611	1300 44 1.200000 0.369000 0.446000 700 42 0.900000 1.052000 0.952000 600 46 1.000000 0.052000 0.052000 1.200000 0.048000 0.057000
1517187841630000236	1300 44 1.200000 0.277000 0.337000 700 42 0.900000 0.765000 0.693000 600 46 1.000000 0.052000 0.052000 1.200000 0.041000 0.049000
1517187842141382445	1300 43 1.200000 0.389000 0.471000 700 41 0.900000 1.003000 0.907000 600 46 1.000000 0.052000 0.052000 1.200000 0.039000 0.047000
1517187842688272736	1300 43 1.200000 0.376000 0.456000 700 41 0.900000 0.790000 0.715000 600 46 1.000000 0.052000 0.052000 1.200000 0.052000 0.062000
1517187843203165403	1300 43 1.200000 0.367000 0.444000 700 41 0.900000 1.028000 0.930000 600 46 1.000000 0.052000 0.052000 1.200000 0.039000 0.047000
1517187843723332945	1300 42 1.200000 0.408000 0.494000 700 41 0.900000 1.054000 0.953000 600 45 1.000000 0.052000 0.052000 1.200000 0.042000 0.050000
1517187844231911278	1300 43 1.200000 0.311000 0.378000 700 41 0.900000 0.455000 0.413000 600 46 1.000000 0.052000 0.052000 1.200000 0.051000 0.061000
1517187844743537653	1300 43 1.200000 0.338000 0.409000 700 41 0.900000 1.059000 0.958000 600 46 1.000000 0.051000 0.051000 1.200000 0.037000 0.044000
1517187845297134820	1300 43 1.200000 0.234000 0.285000 700 41 0.900000 0.976000 0.884000 600 46 1.000000 0.051000 0.051000 1.200000 0.046000 0.055000
1517187845849246487	1300 44 1.200000 0.324000 0.392000 700 41 0.900000 0.973000 0.880000 600 46 1.000000 0.051000 0.051000 1.200000 0.040000 0.048000
1517187846358483487	1300 42 1.200000 0.429000 0.519000 700 41 0.900000 1.027000 0.929000 600 45 1.000000 0.051000 0.051000 1.200000 0.043000 0.051000
1517187846868025862	1300 44 1.200000 0.299000 0.364000 700 41 0.900000 0.845000 0.766000 600 46 1.000000 0.052000 0.052000 1.200000 0.050000 0.060000
1517187847379974612	1300 44 1.200000 0.365000 0.442000 700 41 0.900000 0.779000 0.706000 600 46 1.000000 0.051000 0.051000 1.200000 0.042000 0.050000
1517187847889631612	1300 43 1.200000 0.410000 0.496000 700 41 0.900000 1.026000 0.928000 600 46 1.000000 0.051000 0.051000 1.200000 0.042000 0.050000
1517187848453178237	1300 43 1.200000 0.419000 0.507000 700 41 0.900000 1.088000 0.984000 600 46 1.000000 0.051000 0.051000 1.200000 0.047000 0.056000
1517187848961854029	1300 43 1.200000 0.300000 0.365000 700 41 0.900000 0.521000 0.473000 600 46 1.000000 0.052000 0.052000 1.200000 0.047000 0.056000
1517187849471203154	1300 42 1.200000 0.345000 0.418000 700 41 0.900000 1.045000 0.945000 600 45 1.000000 0.052000 0.052000 1.200000 0.039000 0.047000
1517187850029255446	1300 44 1.200000 0.382000 0.462000 700 41 0.900000 0.854000 0.773000 600 46 1.000000 0.051000 0.051000 1.200000 0.053000 0.064000
1517187850578210321	1300 44 1.200000 0.237000 0.288000 700 41 0.900000 0.811000 0.734000 600 46 1.000000 0.052000 0.052000 1.200000 0.040000 0.048000
1517187851090013404	1300 43 1.200000 0.405000 0.490000 700 41 0.900000 1.070000 0.968000 600 45 1.000000 0.052000 0.052000 1.200000 0.042000 0.050000
1517187851637274071	1300 44 1.200000 0.284000 0.345000 700 42 0.900000 1.084000 0.981000 600 47 1.000000 0.051000 0.051000 1.200000 0.046000 0.055000
1517187852209162988	1300 44 1.200000 0.431000 0.521000 700 41 0.900000 0.738000 0.669000 600 47 1.000000 0.052000 0.052000 1.200000 0.041000 0.049000
1517187852744816196	1300 44 1.200000 0.401000 0.485000 700 41 0.900000 1.057000 0.956000 600 46 1.000000 0.051000 0.051000 1.200000 0.041000 0.049000
1517187853260303238	1300 44 1.200000 0.324000 0.393000 700 42 0.900000 1.011000 0.914000 600 47 1.000000 0.051000 0.051000 1.200000 0.045000 0.054000
1517187853821205738	1300 43 1.200000 0.326000 0.395000 700 41 0.900000 0.718000 0.651000 600 46 1.000000 0.051000 0.051000 1.200000 0.042000 0.050000
1517187854372493071	1300 43 1.200000 0.299000 0.363000 700 41 0.900000 0.760000 0.689000 600 46 1.000000 0.052000 0.052000 1.200000 0.042000 0.050000
1517187854882246030	1300 43 1.200000 0.397000 0.480000 700 41 0.900000 1.033000 0.934000 600 46 1.000000 0.052000 0.052000 1.200000 0.039000 0.047000
1517187855441153030	1300 43 1.200000 0.230000 0.280000 700 41 0.900000 1.082000 0.979000 600 47 1.000000 0.051000 0.051000 1.200000 0.043000 0.051000
1517187855999305071	1300 44 1.200000 0.268000 0.326000 700 41 0.900000 0.716000 0.649000 600 46 1.000000 0.051000 0.051000 1.200000 0.041000 0.049000
1517187856509195988	1300 43 1.200000 0.383000 0.464000 700 41 0.900000 1.030000 0.932000 600 46 1.000000 0.051000 0.051000 1.200000 0.041000 0.049000
1517187857018398113	1300 44 1.200000 0.384000 0.464000 700 42 0.900000 1.012000 0.915000 600 46 1.000000 0.052000 0.052000 1.200000 0.046000 0.055000
1517187857556789405	1300 44 1.200000 0.247000 0.298000 700 41 0.900000 0.734000 0.665000 600 46 1.000000 0.052000 0.052000 1.200000 0.043000 0.051000
1517187858066619322	1300 44 1.200000 0.425000 0.514000 700 41 0.900000 1.070000 0.968000 600 46 1.000000 0.052000 0.052000 1.200000 0.040000 0.048000
1517187858625126738	1300 44 1.200000 0.279000 0.339000 700 41 0.900000 1.088000 0.984000 600 47 1.000000 0.051000 0.051000 1.200000 0.044000 0.053000
1517187859137472613	1300 44 1.200000 0.330000 0.400000 700 41 0.900000 0.748000 0.678000 600 46 1.000000 0.051000 0.051000 1.200000 0.045000 0.054000
1517187859647736780	1300 42 1.200000 0.400000 0.484000 700 41 0.900000 1.030000 0.932000 600 46 1.000000 0.052000 0.052000 1.200000 0.041000 0.049000
1517187860193908905	1300 44 1.200000 0.429000 0.519000 700 42 0.900000 1.042000 0.943000 600 47 1.000000 0.052000 0.052000 1.200000 0.041000 0.049000
1517187860743131197	1300 44 1.200000 0.273000 0.332000 700 41 0.900000 0.837000 0.758000 600 46 1.000000 0.052000 0.052000 1.200000 0.046000 0.055000
1517187861252159655	1300 42 1.200000 0.283000 0.344000 700 41 0.900000 1.018000 0.921000 600 45 1.000000 0.052000 0.052000 1.200000 0.038000 0.045000
1517187861817272572	1300 43 1.200000 0.394000 0.476000 700 41 0.900000 1.059000 0.958000 600 47 1.000000 0.052000 0.052000 1.200000 0.042000 0.050000
1517187862326727447	1300 44 1.200000 0.265000 0.322000 700 41 0.900000 0.497000 0.451000 600 46 1.000000 0.052000 0.052000 1.200000 0.049000 0.059000
1517187862836334030	1300 42 1.200000 0.407000 0.492000 700 41 0.900000 1.063000 0.962000 600 46 1.000000 0.051000 0.051000 1.200000 0.039000 0.047000
1517187863409225406	1300 44 1.200000 0.423000 0.511000 700 41 0.900000 0.733000 0.664000 600 46 1.000000 0.052000 0.052000 1.200000 0.041000 0.049000
1517187863934202031	1300 44 1.200000 0.274000 0.331000 700 41 0.900000 1.002000 0.906000 600 46 1.000000 0.052000 0.052000 1.200000 0.046000 0.055000
1517187864447444239	1300 44 1.200000 0.404000 0.489000 700 41 0.900000 1.042000 0.943000 600 46 1.000000 0.052000 0.052000 1.200000 0.040000 0.048000
1517187865001214614	1300 44 1.200000 0.322000 0.390000 700 42 0.900000 0.876000 0.793000 600 46 1.000000 0.052000 0.052000 1.200000 0.040000 0.048000
1517187865510441406	1300 44 1.200000 0.254000 0.308000 700 42 0.900000 0.861000 0.780000 600 46 1.000000 0.052000 0.052000 1.200000 0.045000 0.054000
1517187866030401656	1300 43 1.200000 0.387000 0.468000 700 41 0.900000 1.016000 0.919000 600 45 1.000000 0.052000 0.052000 1.200000 0.038000 0.045000
1517187866539870739	1300 44 1.200000 0.409000 0.494000 700 42 0.900000 0.851000 0.771000 600 46 1.000000 0.052000 0.052000 1.200000 0.039000 0.047000
1517187867096204323	1300 44 1.200000 0.191000 0.232000 700 41 0.900000 0.948000 0.858000 600 47 1.000000 0.051000 0.051000 1.200000 0.047000 0.056000
1517187867609185323	1300 43 1.200000 0.415000 0.502000 700 41 0.900000 1.053000 0.952000 600 46 1.000000 0.052000 0.052000 1.200000 0.039000 0.047000
1517187868157245198	1300 43 1.200000 0.427000 0.516000 700 41 0.900000 0.911000 0.824000 600 46 1.000000 0.052000 0.052000 1.200000 0.041000 0.049000
1517187868701363906	1300 44 1.200000 0.213000 0.259000 700 41 0.900000 0.768000 0.696000 600 46 1.000000 0.052000 0.052000 1.200000 0.044000 0.053000
1517187869225109031	1300 43 1.200000 0.377000 0.456000 700 41 0.900000 1.052000 0.952000 600 45 1.000000 0.052000 0.052000 1.200000 0.042000 0.050000
1517187869733688448	1300 44 1.200000 0.406000 0.491000 700 41 0.900000 0.888000 0.804000 600 46 1.000000 0.052000 0.052000 1.200000 0.037000 0.044000
1517187870293173865	1300 44 1.200000 0.262000 0.319000 700 41 0.900000 1.009000 0.913000 600 46 1.000000 0.052000 0.052000 1.200000 0.047000 0.056000
1517187870805148406	1300 42 1.200000 0.422000 0.510000 700 41 0.900000 1.012000 0.915000 600 45 1.000000 0.052000 0.052000 1.200000 0.040000 0.048000
1517187871371615740	1300 44 1.200000 0.223000 0.271000 700 41 0.900000 0.802000 0.726000 600 46 1.000000 0.051000 0.051000 1.200000 0.047000 0.056000
1517187871903339698	1300 44 1.200000 0.379000 0.459000 700 41 0.900000 0.968000 0.877000 600 46 1.000000 0.051000 0.051000 1.200000 0.040000 0.048000
1517187872413002948	1300 43 1.200000 0.392000 0.474000 700 41 0.900000 1.037000 0.938000 600 46 1.000000 0.052000 0.052000 1.200000 0.040000 0.048000
1517187872957269990	1300 43 1.200000 0.378000 0.458000 700 41 0.900000 0.875000 0.792000 600 47 1.000000 0.051000 0.051000 1.200000 0.046000 0.055000
1517187873517110198	1300 44 1.200000 0.234000 0.284000 700 41 0.900000 0.803000 0.728000 600 47 1.000000 0.051000 0.051000 1.200000 0.042000 0.050000
1517187874026054948	1300 44 1.200000 0.412000 0.498000 700 41 0.900000 1.068000 0.966000 600 46 1.000000 0.052000 0.052000 1.200000 0.040000 0.048000
1517187874539457490	1300 44 1.200000 0.331000 0.401000 700 41 0.900000 0.982000 0.888000 600 46 1.000000 0.052000 0.052000 1.200000 0.047000 0.056000
1517187875048281657	1300 43 1.200000 0.175000 0.214000 700 41 0.900000 1.049000 0.949000 600 46 1.000000 0.051000 0.051000 1.200000 0.038000 0.045000
1517187875557896365	1300 44 1.200000 0.411000 0.497000 700 41 0.900000 1.012000 0.915000 600 46 1.000000 0.051000 0.051000 1.200000 0.040000 0.048000
1517187876078450699	1300 44 1.200000 0.387000 0.469000 700 41 0.900000 0.759000 0.688000 600 46 1.000000 0.051000 0.051000 1.200000 0.043000 0.051000
1517187876598336657	1300 44 1.200000 0.428000 0.518000 700 41 0.900000 1.073000 0.971000 600 46 1.000000 0.052000 0.052000 1.200000 0.038000 0.045000
1517187877108007032	1300 44 1.200000 0.404000 0.488000 700 41 0.900000 1.061000 0.960000 600 45 1.000000 0.052000 0.052000 1.200000 0.042000 0.050000
1517187877673088657	1300 43 1.200000 0.211000 0.257000 700 41 0.900000 0.840000 0.761000 600 46 1.000000 0.052000 0.052000 1.200000 0.046000 0.055000
1517187878190888782	1300 44 1.200000 0.418000 0.505000 700 41 0.900000 1.064000 0.962000 600 46 1.000000 0.051000 0.051000 1.200000 0.042000 0.050000
1517187878699998616	1300 43 1.200000 0.428000 0.517000 700 41 0.900000 1.031000 0.933000 600 45 1.000000 0.051000 0.051000 1.200000 0.041000 0.049000
1517187879241194282	1300 44 1.200000 0.233000 0.284000 700 41 0.900000 0.709000 0.643000 600 46 1.000000 0.051000 0.051000 1.200000 0.053000 0.064000
1517187879753175908	1300 44 1.200000 0.356000 0.431000 700 41 0.900000 0.968000 0.876000 600 46 1.000000 0.051000 0.051000 1.200000 0.041000 0.049000
1517187880263004241	1300 43 1.200000 0.406000 0.490000 700 41 0.900000 1.012000 0.915000 600 47 1.000000 0.052000 0.052000 1.200000 0.041000 0.049000
1517187880785795908	1300 44 1.200000 0.329000 0.399000 700 41 0.900000 0.829000 0.751000 600 46 1.000000 0.051000 0.051000 1.200000 0.045000 0.054000
1517187881295073616	1300 44 1.200000 0.259000 0.315000 700 41 0.900000 0.862000 0.780000 600 46 1.000000 0.051000 0.051000 1.200000 0.041000 0.049000
1517187881804673533	1300 43 1.200000 0.426000 0.515000 700 41 0.900000 1.062000 0.961000 600 45 1.000000 0.051000 0.051000 1.200000 0.042000 0.050000
1517187882372977199	1300 44 1.200000 0.428000 0.517000 700 42 0.900000 1.045000 0.945000 600 46 1.000000 0.051000 0.051000 1.200000 0.048000 0.057000
1517187882913120325	1300 44 1.200000 0.352000 0.426000 700 41 0.900000 0.741000 0.672000 600 46 1.000000 0.052000 0.052000 1.200000 0.043000 0.051000
1517187883426869241	1300 43 1.200000 0.418000 0.505000 700 41 0.900000 1.061000 0.960000 600 46 1.000000 0.051000 0.051000 1.200000 0.039000 0.047000
1517187883940172158	1300 44 1.200000 0.378000 0.458000 700 42 0.900000 1.058000 0.957000 600 47 1.000000 0.052000 0.052000 1.200000 0.045000 0.054000
1517187884472040241	1300 44 1.200000 0.249000 0.303000 700 41 0.900000 0.717000 0.650000 600 46 1.000000 0.052000 0.052000 1.200000 0.044000 0.053000
1517187884989571658	1300 43 1.200000 0.396000 0.479000 700 41 0.900000 1.054000 0.953000 600 45 1.000000 0.052000 0.052000 1.200000 0.041000 0.049000
1517187885502222117	1300 44 1.200000 0.401000 0.484000 700 42 0.900000 1.059000 0.958000 600 46 1.000000 0.052000 0.052000 1.200000 0.043000 0.051000
1517187886057270325	1300 44 1.200000 0.257000 0.313000 700 41 0.900000 0.664000 0.602000 600 46 1.000000 0.052000 0.052000 1.200000 0.044000 0.053000
1517187886567133492	1300 42 1.200000 0.385000 0.466000 700 41 0.900000 1.012000 0.915000 600 46 1.000000 0.051000 0.051000 1.200000 0.040000 0.048000
1517187887088113325	1300 44 1.200000 0.264000 0.321000 700 41 0.900000 1.048000 0.948000 600 46 1.000000 0.052000 0.052000 1.200000 0.040000 0.048000
1517187887635218408	1300 44 1.200000 0.268000 0.326000 700 41 0.900000 0.727000 0.659000 600 46 1.000000 0.052000 0.052000 1.200000 0.041000 0.049000
1517187888144315575	1300 43 1.200000 0.405000 0.490000 700 42 0.900000 1.052000 0.952000 600 46 1.000000 0.052000 0.052000 1.200000 0.040000 0.048000
1517187888657035575	1300 44 1.200000 0.398000 0.481000 700 41 0.900000 0.946000 0.856000 600 46 1.000000 0.052000 0.052000 1.200000 0.049000 0.059000
1517187889175757825	1300 43 1.200000 0.309000 0.374000 700 41 0.900000 0.988000 0.894000 600 46 1.000000 0.052000 0.052000 1.200000 0.037000 0.044000
1517187889688329075	1300 44 1.200000 0.435000 0.526000 700 42 0.900000 0.992000 0.897000 600 46 1.000000 0.052000 0.052000 1.200000 0.039000 0.047000
1517187890233170742	1300 44 1.200000 0.410000 0.496000 700 41 0.900000 0.839000 0.760000 600 46 1.000000 0.051000 0.051000 1.200000 0.046000 0.055000
1517187890742473700	1300 42 1.200000 0.404000 0.488000 700 41 0.900000 0.889000 0.805000 600 45 1.000000 0.052000 0.052000 1.200000 0.039000 0.047000
1517187891253093909	1300 44 1.200000 0.288000 0.350000 700 41 0.900000 1.024000 0.926000 600 45 1.000000 0.052000 0.052000 1.200000 0.055000 0.066000
1517187891761812701	1300 43 1.200000 0.415000 0.502000 700 41 0.900000 0.985000 0.891000 600 46 1.000000 0.052000 0.052000 1.200000 0.041000 0.049000
1517187892270773951	1300 43 1.200000 0.239000 0.291000 700 41 0.900000 1.103000 0.998000 600 46 1.000000 0.051000 0.051000 1.200000 0.042000 0.050000
1517187892819665284	1300 44 1.200000 0.280000 0.339000 700 41 0.900000 0.745000 0.674000 600 46 1.000000 0.052000 0.052000 1.200000 0.040000 0.048000
1517187893339716492	1300 42 1.200000 0.426000 0.515000 700 41 0.900000 1.060000 0.957000 600 45 1.000000 0.051000 0.051000 1.200000 0.041000 0.049000
1517187893867649784	1300 44 1.200000 0.359000 0.436000 700 42 0.900000 1.007000 0.911000 600 46 1.000000 0.052000 0.052000 1.200000 0.047000 0.056000
1517187894416715868	1300 44 1.200000 0.285000 0.346000 700 41 0.900000 0.764000 0.692000 600 46 1.000000 0.052000 0.052000 1.200000 0.042000 0.050000
1517187894926104784	1300 43 1.200000 0.437000 0.528000 700 41 0.900000 1.059000 0.958000 600 45 1.000000 0.052000 0.052000 1.200000 0.041000 0.049000
1517187895442343951	1300 44 1.200000 0.441000 0.536000 700 41 0.900000 1.065000 0.963000 600 47 1.000000 0.052000 0.052000 1.200000 0.046000 0.055000
1517187895951176076	1300 43 1.200000 0.394000 0.476000 700 41 0.900000 0.561000 0.509000 600 46 1.000000 0.052000 0.052000 1.200000 0.046000 0.055000
1517187896461092618	1300 43 1.200000 0.252000 0.306000 700 41 0.900000 1.010000 0.914000 600 46 1.000000 0.051000 0.051000 1.200000 0.039000 0.047000
1517187896969919243	1300 43 1.200000 0.249000 0.303000 700 41 0.900000 0.855000 0.774000 600 46 1.000000 0.051000 0.051000 1.200000 0.048000 0.057000
1517187897509374701	1300 43 1.200000 0.330000 0.399000 700 41 0.900000 0.920000 0.833000 600 46 1.000000 0.051000 0.051000 1.200000 0.041000 0.049000
1517187898064584118	1300 44 1.200000 0.413000 0.500000 700 41 0.900000 1.061000 0.960000 600 47 1.000000 0.051000 0.051000 1.200000 0.044000 0.053000
1517187898617336618	1300 44 1.200000 0.269000 0.327000 700 41 0.900000 0.769000 0.697000 600 46 1.000000 0.052000 0.052000 1.200000 0.048000 0.057000
1517187899125790868	1300 42 1.200000 0.407000 0.492000 700 41 0.900000 1.016000 0.919000 600 45 1.000000 0.051000 0.051000 1.200000 0.040000 0.048000
1517187899634997702	1300 43 1.200000 0.400000 0.484000 700 41 0.900000 1.024000 0.926000 600 46 1.000000 0.052000 0.052000 1.200000 0.046000 0.055000
1517187900144139410	1300 43 1.200000 0.273000 0.332000 700 41 0.900000 0.493000 0.447000 600 46 1.000000 0.051000 0.051000 1.200000 0.050000 0.060000
1517187900661988535	1300 44 1.200000 0.284000 0.345000 700 41 0.900000 1.061000 0.960000 600 46 1.000000 0.051000 0.051000 1.200000 0.037000 0.044000
1517187901199897368	1300 44 1.200000 0.268000 0.325000 700 41 0.900000 0.868000 0.786000 600 46 1.000000 0.052000 0.052000 1.200000 0.046000 0.055000
1517187901748064743	1300 43 1.200000 0.299000 0.361000 700 41 0.900000 1.057000 0.956000 600 46 1.000000 0.052000 0.052000 1.200000 0.041000 0.049000
1517187902256755369	1300 43 1.200000 0.335000 0.407000 700 41 0.900000 0.965000 0.873000 600 46 1.000000 0.051000 0.051000 1.200000 0.038000 0.045000
1517187902817290910	1300 44 1.200000 0.240000 0.292000 700 41 0.900000 1.026000 0.929000 600 46 1.000000 0.052000 0.052000 1.200000 0.045000 0.054000
1517187903355593035	1300 44 1.200000 0.416000 0.502000 700 41 0.900000 1.008000 0.912000 600 46 1.000000 0.052000 0.052000 1.200000 0.038000 0.045000
1517187903864519077	1300 44 1.200000 0.423000 0.512000 700 41 0.900000 0.940000 0.851000 600 46 1.000000 0.052000 0.052000 1.200000 0.040000 0.048000
1517187904402860202	1300 44 1.200000 0.180000 0.219000 700 41 0.900000 0.909000 0.823000 600 46 1.000000 0.052000 0.052000 1.200000 0.046000 0.055000
1517187904913341494	1300 44 1.200000 0.400000 0.484000 700 41 0.900000 1.082000 0.979000 600 46 1.000000 0.052000 0.052000 1.200000 0.042000 0.050000
1517187905423251327	1300 42 1.200000 0.428000 0.517000 700 41 0.900000 1.053000 0.952000 600 45 1.000000 0.052000 0.052000 1.200000 0.040000 0.048000
1517187905954171702	1300 44 1.200000 0.333000 0.404000 700 41 0.900000 0.763000 0.692000 600 46 1.000000 0.052000 0.052000 1.200000 0.045000 0.054000
1517187906509393994	1300 44 1.200000 0.193000 0.236000 700 41 0.900000 1.054000 0.953000 600 46 1.000000 0.051000 0.051000 1.200000 0.046000 0.055000
1517187907021473327	1300 43 1.200000 0.407000 0.492000 700 41 0.900000 1.072000 0.970000 600 46 1.000000 0.052000 0.052000 1.200000 0.040000 0.048000
1517187907593403786	1300 43 1.200000 0.429000 0.518000 700 41 0.900000 0.749000 0.678000 600 46 1.000000 0.052000 0.052000 1.200000 0.042000 0.050000
1517187908127442411	1300 44 1.200000 0.338000 0.409000 700 41 0.900000 0.970000 0.878000 600 46 1.000000 0.052000 0.052000 1.200000 0.046000 0.055000
1517187908636204494	1300 43 1.200000 0.405000 0.490000 700 41 0.900000 1.066000 0.964000 600 46 1.000000 0.052000 0.052000 1.200000 0.043000 0.051000
1517187909180064994	1300 44 1.200000 0.227000 0.276000 700 41 0.900000 0.909000 0.823000 600 46 1.000000 0.051000 0.051000 1.200000 0.037000 0.044000
1517187909718364828	1300 44 1.200000 0.339000 0.410000 700 41 0.900000 0.925000 0.838000 600 46 1.000000 0.051000 0.051000 1.200000 0.046000 0.055000
1517187910227190203	1300 43 1.200000 0.418000 0.505000 700 41 0.900000 1.054000 0.953000 600 46 1.000000 0.051000 0.051000 1.200000 0.040000 0.048000
1517187910781415370	1300 44 1.200000 0.228000 0.278000 700 41 0.900000 0.803000 0.727000 600 46 1.000000 0.052000 0.052000 1.200000 0.054000 0.065000
1517187911341314328	1300 44 1.200000 0.346000 0.419000 700 41 0.900000 1.013000 0.916000 600 46 1.000000 0.051000 0.051000 1.200000 0.040000 0.048000
1517187911851436328	1300 43 1.200000 0.256000 0.311000 700 41 0.900000 1.044000 0.944000 600 46 1.000000 0.052000 0.052000 1.200000 0.036000 0.043000
1517187912401427870	1300 44 1.200000 0.421000 0.509000 700 41 0.900000 1.062000 0.961000 600 46 1.000000 0.051000 0.051000 1.200000 0.042000 0.050000
1517187912912850786	1300 44 1.200000 0.331000 0.400000 700 41 0.900000 0.698000 0.633000 600 46 1.000000 0.052000 0.052000 1.200000 0.045000 0.054000
1517187913422112537	1300 42 1.200000 0.312000 0.378000 700 41 0.900000 1.033000 0.934000 600 45 1.000000 0.052000 0.052000 1.200000 0.039000 0.047000
1517187913959977953	1300 44 1.200000 0.320000 0.389000 700 41 0.900000 0.536000 0.486000 600 46 1.000000 0.052000 0.052000 1.200000 0.042000 0.050000
1517187914498290328	1300 44 1.200000 0.267000 0.325000 700 41 0.900000 1.060000 0.959000 600 46 1.000000 0.052000 0.052000 1.200000 0.034000 0.041000
1517187915007561703	1300 43 1.200000 0.404000 0.488000 700 41 0.900000 1.067000 0.965000 600 45 1.000000 0.052000 0.052000 1.200000 0.042000 0.050000
1517187915554013912	1300 44 1.200000 0.382000 0.462000 700 41 0.900000 0.598000 0.542000 600 46 1.000000 0.051000 0.051000 1.200000 0.042000 0.050000
1517187916062219412	1300 41 1.200000 0.183000 0.223000 700 40 0.900000 1.070000 0.968000 600 44 1.000000 0.051000 0.051000 1.200000 0.035000 0.042000
1517187916609397870	1300 43 1.200000 0.207000 0.252000 700 41 0.900000 0.483000 0.439000 600 46 1.000000 0.052000 0.052000 1.200000 0.046000 0.055000
1517187917165405537	1300 43 1.200000 0.259000 0.315000 700 41 0.900000 0.763000 0.692000 600 46 1.000000 0.052000 0.052000 1.200000 0.040000 0.048000
1517187917675520787	1300 42 1.200000 0.423000 0.512000 700 41 0.900000 1.005000 0.909000 600 45 1.000000 0.051000 0.051000 1.200000 0.041000 0.049000
1517187918237444537	1300 44 1.200000 0.406000 0.491000 700 41 0.900000 1.064000 0.963000 600 46 1.000000 0.052000 0.052000 1.200000 0.045000 0.054000
1517187918748526954	1300 43 1.200000 0.265000 0.323000 700 41 0.900000 0.571000 0.518000 600 46 1.000000 0.051000 0.051000 1.200000 0.042000 0.050000
1517187919258035162	1300 44 1.200000 0.340000 0.411000 700 41 0.900000 1.058000 0.957000 600 46 1.000000 0.052000 0.052000 1.200000 0.040000 0.048000
1517187919784760996	1300 44 1.200000 0.427000 0.516000 700 41 0.900000 1.012000 0.916000 600 46 1.000000 0.052000 0.052000 1.200000 0.047000 0.056000
1517187920333040204	1300 44 1.200000 0.238000 0.289000 700 41 0.900000 0.737000 0.668000 600 46 1.000000 0.052000 0.052000 1.200000 0.038000 0.045000
1517187920880446162	1300 44 1.200000 0.416000 0.503000 700 41 0.900000 1.014000 0.917000 600 46 1.000000 0.051000 0.051000 1.200000 0.039000 0.047000
1517187921389870204	1300 44 1.200000 0.272000 0.331000 700 41 0.900000 0.671000 0.608000 600 46 1.000000 0.052000 0.052000 1.200000 0.051000 0.061000
1517187921904333788	1300 42 1.200000 0.392000 0.474000 700 41 0.900000 1.031000 0.933000 600 46 1.000000 0.051000 0.051000 1.200000 0.041000 0.049000
1517187922426782829	1300 44 1.200000 0.447000 0.541000 700 41 0.900000 1.064000 0.962000 600 47 1.000000 0.051000 0.051000 1.200000 0.044000 0.053000
1517187922942381538	1300 44 1.200000 0.170000 0.207000 700 41 0.900000 0.497000 0.451000 600 46 1.000000 0.052000 0.052000 1.200000 0.041000 0.049000
1517187923452220746	1300 43 1.200000 0.427000 0.516000 700 41 0.900000 1.003000 0.907000 600 46 1.000000 0.052000 0.052000 1.200000 0.040000 0.048000
1517187923967831871	1300 44 1.200000 0.262000 0.318000 700 41 0.900000 0.711000 0.644000 600 46 1.000000 0.052000 0.052000 1.200000 0.040000 0.048000
1517187924505581455	1300 44 1.200000 0.399000 0.483000 700 41 0.900000 1.063000 0.962000 600 46 1.000000 0.052000 0.052000 1.200000 0.039000 0.047000
1517187925015670205	1300 43 1.200000 0.425000 0.514000 700 41 0.900000 1.070000 0.968000 600 46 1.000000 0.052000 0.052000 1.200000 0.048000 0.057000
1517187925528953788	1300 44 1.200000 0.246000 0.299000 700 41 0.900000 0.713000 0.646000 600 46 1.000000 0.052000 0.052000 1.200000 0.042000 0.050000
1517187926038209288	1300 44 1.200000 0.410000 0.496000 700 41 0.900000 1.084000 0.981000 600 46 1.000000 0.051000 0.051000 1.200000 0.038000 0.045000
1517187926593280330	1300 43 1.200000 0.429000 0.519000 700 41 0.900000 0.943000 0.853000 600 46 1.000000 0.052000 0.052000 1.200000 0.043000 0.051000
1517187927104975538	1300 44 1.200000 0.269000 0.327000 700 41 0.900000 0.757000 0.686000 600 46 1.000000 0.052000 0.052000 1.200000 0.040000 0.048000
1517187927629251330	1300 43 1.200000 0.405000 0.490000 700 41 0.900000 0.993000 0.898000 600 46 1.000000 0.052000 0.052000 1.200000 0.040000 0.048000
1517187928138404663	1300 44 1.200000 0.239000 0.291000 700 41 0.900000 1.032000 0.933000 600 46 1.000000 0.052000 0.052000 1.200000 0.048000 0.057000
1517187928675375997	1300 44 1.200000 0.421000 0.509000 700 41 0.900000 0.739000 0.670000 600 46 1.000000 0.052000 0.052000 1.200000 0.039000 0.047000
1517187929189140330	1300 43 1.200000 0.420000 0.508000 700 41 0.900000 1.062000 0.958000 600 46 1.000000 0.051000 0.051000 1.200000 0.044000 0.053000
1517187929749234080	1300 44 1.200000 0.275000 0.333000 700 41 0.900000 1.039000 0.940000 600 46 1.000000 0.051000 0.051000 1.200000 0.046000 0.055000
1517187930284630372	1300 44 1.200000 0.375000 0.454000 700 41 0.900000 0.811000 0.734000 600 46 1.000000 0.052000 0.052000 1.200000 0.040000 0.048000
1517187930800451872	1300 43 1.200000 0.406000 0.491000 700 41 0.900000 1.068000 0.964000 600 46 1.000000 0.052000 0.052000 1.200000 0.043000 0.051000
1517187931309255455	1300 44 1.200000 0.391000 0.473000 700 41 0.900000 1.054000 0.953000 600 46 1.000000 0.052000 0.052000 1.200000 0.046000 0.055000
1517187931818827414	1300 44 1.200000 0.155000 0.189000 700 41 0.900000 0.777000 0.704000 600 46 1.000000 0.051000 0.051000 1.200000 0.038000 0.045000
1517187932331083664	1300 43 1.200000 0.422000 0.510000 700 41 0.900000 1.064000 0.962000 600 46 1.000000 0.052000 0.052000 1.200000 0.040000 0.048000
1517187932872696247	1300 44 1.200000 0.429000 0.518000 700 41 0.900000 1.065000 0.963000 600 47 1.000000 0.052000 0.052000 1.200000 0.045000 0.054000
1517187933382159539	1300 44 1.200000 0.343000 0.416000 700 41 0.900000 0.774000 0.701000 600 46 1.000000 0.051000 0.051000 1.200000 0.049000 0.059000
1517187933891169122	1300 43 1.200000 0.425000 0.513000 700 41 0.900000 0.792000 0.718000 600 46 1.000000 0.051000 0.051000 1.200000 0.039000 0.047000
1517187934400185539	1300 44 1.200000 0.338000 0.409000 700 41 0.900000 1.022000 0.924000 600 46 1.000000 0.052000 0.052000 1.200000 0.040000 0.048000
1517187934909763581	1300 43 1.200000 0.245000 0.298000 700 41 0.900000 0.638000 0.578000 600 46 1.000000 0.051000 0.051000 1.200000 0.053000 0.064000
1517187935425200747	1300 43 1.200000 0.350000 0.423000 700 41 0.900000 0.932000 0.844000 600 46 1.000000 0.051000 0.051000 1.200000 0.038000 0.045000
1517187935941390373	1300 44 1.200000 0.416000 0.503000 700 41 0.900000 1.066000 0.964000 600 46 1.000000 0.052000 0.052000 1.200000 0.041000 0.049000
1517187936505132373	1300 44 1.200000 0.271000 0.330000 700 41 0.900000 0.949000 0.859000 600 46 1.000000 0.052000 0.052000 1.200000 0.051000 0.061000
1517187937019789498	1300 44 1.200000 0.338000 0.409000 700 41 0.900000 0.739000 0.670000 600 46 1.000000 0.051000 0.051000 1.200000 0.041000 0.049000
1517187937529397164	1300 42 1.200000 0.423000 0.511000 700 41 0.900000 1.060000 0.959000 600 46 1.000000 0.051000 0.051000 1.200000 0.041000 0.049000
1517187938089266664	1300 44 1.200000 0.398000 0.481000 700 41 0.900000 0.712000 0.645000 600 46 1.000000 0.051000 0.051000 1.200000 0.042000 0.050000
1517187938623423498	1300 44 1.200000 0.254000 0.309000 700 41 0.900000 1.061000 0.960000 600 46 1.000000 0.052000 0.052000 1.200000 0.043000 0.051000
1517187939132904831	1300 43 1.200000 0.405000 0.490000 700 41 0.900000 1.060000 0.959000 600 46 1.000000 0.051000 0.051000 1.200000 0.038000 0.045000
1517187939646916665	1300 43 1.200000 0.292000 0.355000 700 41 0.900000 0.878000 0.795000 600 46 1.000000 0.052000 0.052000 1.200000 0.040000 0.048000
1517187940183908290	1300 44 1.200000 0.347000 0.420000 700 41 0.900000 0.905000 0.819000 600 46 1.000000 0.051000 0.051000 1.200000 0.046000 0.055000
1517187940696180040	1300 43 1.200000 0.387000 0.468000 700 41 0.900000 0.991000 0.894000 600 45 1.000000 0.052000 0.052000 1.200000 0.038000 0.045000
1517187941244901540	1300 44 1.200000 0.320000 0.387000 700 41 0.900000 0.859000 0.778000 600 47 1.000000 0.052000 0.052000 1.200000 0.040000 0.048000
1517187941796452082	1300 44 1.200000 0.308000 0.374000 700 41 0.900000 0.959000 0.867000 600 46 1.000000 0.052000 0.052000 1.200000 0.045000 0.054000
1517187942306192290	1300 43 1.200000 0.429000 0.519000 700 41 0.900000 1.027000 0.929000 600 45 1.000000 0.052000 0.052000 1.200000 0.040000 0.048000
1517187942825711707	1300 44 1.200000 0.433000 0.523000 700 42 0.900000 0.899000 0.814000 600 47 1.000000 0.052000 0.052000 1.200000 0.040000 0.048000
1517187943335058540	1300 43 1.200000 0.251000 0.305000 700 41 0.900000 0.929000 0.840000 600 46 1.000000 0.052000 0.052000 1.200000 0.046000 0.055000
1517187943847868373	1300 44 1.200000 0.407000 0.492000 700 41 0.900000 1.018000 0.921000 600 46 1.000000 0.052000 0.052000 1.200000 0.038000 0.045000
1517187944361143124	1300 44 1.200000 0.443000 0.536000 700 41 0.900000 0.712000 0.645000 600 47 1.000000 0.052000 0.052000 1.200000 0.042000 0.050000
1517187944906945790	1300 44 1.200000 0.253000 0.307000 700 41 0.900000 1.069000 0.967000 600 46 1.000000 0.052000 0.052000 1.200000 0.045000 0.054000
1517187945415995040	1300 43 1.200000 0.428000 0.518000 700 42 0.900000 1.077000 0.974000 600 46 1.000000 0.052000 0.052000 1.200000 0.042000 0.050000
1517187945985163957	1300 43 1.200000 0.274000 0.333000 700 41 0.900000 0.436000 0.395000 600 46 1.000000 0.052000 0.052000 1.200000 0.042000 0.050000
1517187946504358457	1300 43 1.200000 0.401000 0.485000 700 41 0.900000 1.052000 0.952000 600 45 1.000000 0.051000 0.051000 1.200000 0.045000 0.054000
1517187947017617541	1300 44 1.200000 0.241000 0.294000 700 41 0.900000 1.026000 0.928000 600 47 1.000000 0.052000 0.052000 1.200000 0.040000 0.048000
1517187947556885957	1300 44 1.200000 0.281000 0.341000 700 41 0.900000 0.783000 0.710000 600 46 1.000000 0.051000 0.051000 1.200000 0.045000 0.054000
1517187948066779999	1300 42 1.200000 0.424000 0.513000 700 41 0.900000 1.049000 0.949000 600 46 1.000000 0.052000 0.052000 1.200000 0.037000 0.044000
1517187948625189874	1300 44 1.200000 0.390000 0.472000 700 41 0.900000 0.888000 0.804000 600 47 1.000000 0.051000 0.051000 1.200000 0.039000 0.047000
1517187949185190749	1300 44 1.200000 0.276000 0.335000 700 41 0.900000 0.863000 0.781000 600 46 1.000000 0.051000 0.051000 1.200000 0.047000 0.056000
1517187949700741999	1300 42 1.200000 0.399000 0.482000 700 41 0.900000 1.053000 0.952000 600 45 1.000000 0.052000 0.052000 1.200000 0.039000 0.047000
1517187950243638999	1300 44 1.200000 0.414000 0.500000 700 41 0.900000 0.843000 0.763000 600 47 1.000000 0.051000 0.051000 1.200000 0.041000 0.049000
1517187950788307583	1300 44 1.200000 0.244000 0.296000 700 41 0.900000 0.915000 0.828000 600 46 1.000000 0.052000 0.052000 1.200000 0.040000 0.048000
1517187951297463416	1300 42 1.200000 0.426000 0.515000 700 41 0.900000 1.059000 0.958000 600 45 1.000000 0.052000 0.052000 1.200000 0.041000 0.049000
1517187951805719083	1300 43 1.200000 0.337000 0.407000 700 41 0.900000 0.737000 0.667000 600 46 1.000000 0.052000 0.052000 1.200000 0.056000 0.067000
1517187952365219916	1300 43 1.200000 0.400000 0.484000 700 41 0.900000 1.017000 0.920000 600 46 1.000000 0.052000 0.052000 1.200000 0.041000 0.049000
1517187952904826958	1300 44 1.200000 0.397000 0.480000 700 41 0.900000 1.063000 0.962000 600 47 1.000000 0.052000 0.052000 1.200000 0.049000 0.059000
1517187953473230416	1300 44 1.200000 0.259000 0.315000 700 41 0.900000 0.744000 0.674000 600 46 1.000000 0.052000 0.052000 1.200000 0.039000 0.047000
1517187953992880333	1300 43 1.200000 0.415000 0.502000 700 41 0.900000 0.975000 0.882000 600 46 1.000000 0.052000 0.052000 1.200000 0.042000 0.050000
1517187954553469916	1300 44 1.200000 0.318000 0.385000 700 41 0.900000 1.003000 0.907000 600 46 1.000000 0.051000 0.051000 1.200000 0.048000 0.057000
1517187955113227041	1300 44 1.200000 0.292000 0.355000 700 41 0.900000 0.770000 0.697000 600 46 1.000000 0.051000 0.051000 1.200000 0.042000 0.050000
1517187955657227125	1300 44 1.200000 0.426000 0.515000 700 41 0.900000 1.065000 0.963000 600 46 1.000000 0.051000 0.051000 1.200000 0.042000 0.050000
1517187956166954792	1300 44 1.200000 0.393000 0.475000 700 42 0.900000 1.055000 0.954000 600 46 1.000000 0.052000 0.052000 1.200000 0.038000 0.045000
1517187956688327958	1300 44 1.200000 0.257000 0.312000 700 41 0.900000 0.739000 0.670000 600 46 1.000000 0.051000 0.051000 1.200000 0.041000 0.049000
1517187957253263375	1300 43 1.200000 0.422000 0.510000 700 41 0.900000 1.019000 0.922000 600 46 1.000000 0.052000 0.052000 1.200000 0.041000 0.049000
1517187957763192625	1300 44 1.200000 0.411000 0.497000 700 41 0.900000 1.060000 0.959000 600 46 1.000000 0.052000 0.052000 1.200000 0.042000 0.050000
1517187958279955959	1300 44 1.200000 0.254000 0.309000 700 42 0.900000 1.087000 0.983000 600 46 1.000000 0.052000 0.052000 1.200000 0.047000 0.056000
1517187958821209917	1300 44 1.200000 0.423000 0.511000 700 41 0.900000 0.962000 0.870000 600 46 1.000000 0.052000 0.052000 1.200000 0.043000 0.051000
1517187959331202459	1300 44 1.200000 0.394000 0.477000 700 41 0.900000 1.006000 0.910000 600 45 1.000000 0.051000 0.051000 1.200000 0.041000 0.049000
1517187959869407250	1300 44 1.200000 0.327000 0.397000 700 41 0.900000 0.732000 0.663000 600 46 1.000000 0.052000 0.052000 1.200000 0.042000 0.050000
1517187960429298000	1300 44 1.200000 0.424000 0.513000 700 41 0.900000 0.745000 0.675000 600 46 1.000000 0.051000 0.051000 1.200000 0.042000 0.050000
1517187960948893209	1300 42 1.200000 0.402000 0.486000 700 41 0.900000 1.034000 0.935000 600 46 1.000000 0.051000 0.051000 1.200000 0.039000 0.047000
1517187961461440042	1300 44 1.200000 0.278000 0.338000 700 41 0.900000 1.032000 0.933000 600 47 1.000000 0.051000 0.051000 1.200000 0.039000 0.047000
1517187962015376167	1300 44 1.200000 0.247000 0.300000 700 41 0.900000 0.721000 0.653000 600 46 1.000000 0.051000 0.051000 1.200000 0.043000 0.051000
1517187962540513292	1300 43 1.200000 0.341000 0.413000 700 41 0.900000 0.905000 0.819000 600 46 1.000000 0.051000 0.051000 1.200000 0.042000 0.050000
1517187963060059292	1300 44 1.200000 0.432000 0.521000 700 42 0.900000 1.068000 0.966000 600 46 1.000000 0.052000 0.052000 1.200000 0.041000 0.049000
1517187963570192668	1300 44 1.200000 0.428000 0.518000 700 41 0.900000 1.088000 0.984000 600 46 1.000000 0.051000 0.051000 1.200000 0.046000 0.055000
1517187964088650501	1300 44 1.200000 0.223000 0.271000 700 41 0.900000 0.747000 0.677000 600 46 1.000000 0.051000 0.051000 1.200000 0.039000 0.047000
1517187964598391376	1300 43 1.200000 0.419000 0.507000 700 41 0.900000 1.093000 0.989000 600 45 1.000000 0.052000 0.052000 1.200000 0.047000 0.056000
1517187965153356501	1300 44 1.200000 0.333000 0.404000 700 42 0.900000 0.717000 0.649000 600 46 1.000000 0.052000 0.052000 1.200000 0.046000 0.055000
1517187965670930918	1300 44 1.200000 0.246000 0.299000 700 41 0.900000 0.827000 0.749000 600 46 1.000000 0.052000 0.052000 1.200000 0.046000 0.055000
1517187966187851709	1300 43 1.200000 0.392000 0.473000 700 41 0.900000 1.082000 0.977000 600 46 1.000000 0.052000 0.052000 1.200000 0.042000 0.050000
1517187966733124001	1300 44 1.200000 0.223000 0.271000 700 42 0.900000 1.012000 0.915000 600 47 1.000000 0.052000 0.052000 1.200000 0.047000 0.056000
1517187967247266418	1300 44 1.200000 0.203000 0.247000 700 41 0.900000 1.039000 0.940000 600 46 1.000000 0.051000 0.051000 1.200000 0.045000 0.054000
1517187967758161793	1300 42 1.200000 0.367000 0.444000 700 41 0.900000 1.081000 0.978000 600 45 1.000000 0.052000 0.052000 1.200000 0.039000 0.047000
1517187968317130335	1300 44 1.200000 0.282000 0.343000 700 41 0.900000 0.784000 0.710000 600 46 1.000000 0.052000 0.052000 1.200000 0.056000 0.067000
1517187968877251335	1300 44 1.200000 0.262000 0.318000 700 41 0.900000 0.817000 0.740000 600 46 1.000000 0.052000 0.052000 1.200000 0.046000 0.055000
1517187969393730918	1300 42 1.200000 0.381000 0.461000 700 41 0.900000 0.974000 0.881000 600 45 1.000000 0.051000 0.051000 1.200000 0.042000 0.050000
1517187969945266252	1300 43 1.200000 0.291000 0.352000 700 41 0.900000 1.026000 0.928000 600 47 1.000000 0.052000 0.052000 1.200000 0.039000 0.047000
1517187970481298793	1300 43 1.200000 0.272000 0.331000 700 41 0.900000 0.769000 0.697000 600 46 1.000000 0.052000 0.052000 1.200000 0.044000 0.053000
1517187970990383835	1300 43 1.200000 0.422000 0.510000 700 41 0.900000 1.026000 0.928000 600 46 1.000000 0.052000 0.052000 1.200000 0.041000 0.049000
1517187971537283543	1300 44 1.200000 0.226000 0.275000 700 41 0.900000 1.019000 0.920000 600 47 1.000000 0.052000 0.052000 1.200000 0.048000 0.057000
1517187972097201960	1300 44 1.200000 0.428000 0.517000 700 41 0.900000 0.712000 0.645000 600 47 1.000000 0.052000 0.052000 1.200000 0.041000 0.049000
1517187972606259919	1300 43 1.200000 0.430000 0.520000 700 42 0.900000 1.035000 0.936000 600 46 1.000000 0.052000 0.052000 1.200000 0.042000 0.050000
1517187973114809544	1300 44 1.200000 0.240000 0.292000 700 41 0.900000 0.988000 0.894000 600 46 1.000000 0.052000 0.052000 1.200000 0.052000 0.062000
1517187973629028044	1300 43 1.200000 0.423000 0.510000 700 41 0.900000 0.891000 0.807000 600 46 1.000000 0.051000 0.051000 1.200000 0.040000 0.048000
1517187974149213127	1300 44 1.200000 0.421000 0.509000 700 42 0.900000 1.062000 0.958000 600 47 1.000000 0.051000 0.051000 1.200000 0.042000 0.050000
1517187974687451919	1300 44 1.200000 0.269000 0.327000 700 41 0.900000 0.958000 0.867000 600 47 1.000000 0.051000 0.051000 1.200000 0.047000 0.056000
1517187975197077836	1300 43 1.200000 0.391000 0.473000 700 41 0.900000 0.813000 0.735000 600 46 1.000000 0.052000 0.052000 1.200000 0.040000 0.048000
1517187975717048419	1300 44 1.200000 0.396000 0.479000 700 42 0.900000 0.950000 0.859000 600 47 1.000000 0.052000 0.052000 1.200000 0.042000 0.050000
1517187976260984252	1300 44 1.200000 0.302000 0.366000 700 41 0.900000 0.826000 0.748000 600 47 1.000000 0.052000 0.052000 1.200000 0.047000 0.056000
1517187976777307294	1300 43 1.200000 0.313000 0.380000 700 41 0.900000 1.059000 0.958000 600 46 1.000000 0.052000 0.052000 1.200000 0.041000 0.049000
1517187977286445502	1300 44 1.200000 0.390000 0.472000 700 42 0.900000 1.052000 0.952000 600 47 1.000000 0.051000 0.051000 1.200000 0.039000 0.047000
1517187977823469669	1300 44 1.200000 0.274000 0.333000 700 42 0.900000 0.735000 0.666000 600 47 1.000000 0.052000 0.052000 1.200000 0.048000 0.057000
1517187978333159336	1300 43 1.200000 0.391000 0.473000 700 41 0.900000 1.072000 0.970000 600 46 1.000000 0.052000 0.052000 1.200000 0.040000 0.048000
1517187978856159669	1300 44 1.200000 0.271000 0.329000 700 42 0.900000 0.714000 0.646000 600 47 1.000000 0.052000 0.052000 1.200000 0.047000 0.056000
1517187979401536086	1300 44 1.200000 0.425000 0.514000 700 42 0.900000 1.031000 0.933000 600 47 1.000000 0.052000 0.052000 1.200000 0.044000 0.053000
1517187979925119336	1300 43 1.200000 0.418000 0.505000 700 41 0.900000 1.015000 0.918000 600 46 1.000000 0.051000 0.051000 1.200000 0.040000 0.048000
1517187980434263628	1300 44 1.200000 0.420000 0.508000 700 42 0.900000 1.061000 0.960000 600 47 1.000000 0.051000 0.051000 1.200000 0.040000 0.048000
1517187980973261003	1300 44 1.200000 0.391000 0.473000 700 41 0.900000 1.023000 0.923000 600 47 1.000000 0.052000 0.052000 1.200000 0.041000 0.049000
1517187981489658628	1300 43 1.200000 0.400000 0.484000 700 41 0.900000 1.067000 0.965000 600 46 1.000000 0.051000 0.051000 1.200000 0.041000 0.049000
1517187981999097336	1300 45 1.200000 0.307000 0.372000 700 42 0.900000 0.751000 0.680000 600 47 1.000000 0.052000 0.052000 1.200000 0.047000 0.056000
1517187982537300628	1300 44 1.200000 0.291000 0.353000 700 42 0.900000 1.077000 0.972000 600 47 1.000000 0.051000 0.051000 1.200000 0.043000 0.051000
1517187983056568711	1300 43 1.200000 0.428000 0.517000 700 41 0.900000 1.068000 0.966000 600 46 1.000000 0.051000 0.051000 1.200000 0.042000 0.050000
1517187983571760587	1300 44 1.200000 0.417000 0.507000 700 42 0.900000 0.752000 0.682000 600 46 1.000000 0.051000 0.051000 1.200000 0.046000 0.055000
1517187984091769128	1300 44 1.200000 0.417000 0.504000 700 42 0.900000 1.047000 0.947000 600 46 1.000000 0.052000 0.052000 1.200000 0.044000 0.053000
1517187984610101503	1300 43 1.200000 0.430000 0.520000 700 41 0.900000 1.063000 0.959000 600 46 1.000000 0.052000 0.052000 1.200000 0.039000 0.047000
1517187985173406837	1300 44 1.200000 0.262000 0.319000 700 42 0.900000 0.732000 0.663000 600 47 1.000000 0.052000 0.052000 1.200000 0.043000 0.051000
1517187985733182128	1300 44 1.200000 0.368000 0.446000 700 42 0.900000 0.988000 0.894000 600 46 1.000000 0.052000 0.052000 1.200000 0.046000 0.055000
1517187986267740545	1300 44 1.200000 0.285000 0.346000 700 41 0.900000 0.895000 0.810000 600 46 1.000000 0.052000 0.052000 1.200000 0.048000 0.057000
1517187986777636754	1300 44 1.200000 0.405000 0.490000 700 42 0.900000 1.079000 0.976000 600 46 1.000000 0.052000 0.052000 1.200000 0.040000 0.048000
1517187987353290212	1300 44 1.200000 0.250000 0.304000 700 42 0.900000 0.776000 0.703000 600 46 1.000000 0.052000 0.052000 1.200000 0.049000 0.059000
1517187987861924629	1300 44 1.200000 0.266000 0.323000 700 41 0.900000 0.706000 0.639000 600 46 1.000000 0.052000 0.052000 1.200000 0.048000 0.057000
1517187988371161587	1300 43 1.200000 0.396000 0.479000 700 41 0.900000 1.048000 0.948000 600 45 1.000000 0.052000 0.052000 1.200000 0.041000 0.049000
1517187988881021254	1300 43 1.200000 0.275000 0.334000 700 41 0.900000 0.914000 0.827000 600 46 1.000000 0.052000 0.052000 1.200000 0.037000 0.044000
1517187989412314921	1300 43 1.200000 0.378000 0.457000 700 41 0.900000 1.000000 0.905000 600 45 1.000000 0.052000 0.052000 1.200000 0.041000 0.049000
1517187989935307296	1300 44 1.200000 0.416000 0.502000 700 42 0.900000 1.026000 0.928000 600 47 1.000000 0.052000 0.052000 1.200000 0.044000 0.053000
1517187990497267171	1300 44 1.200000 0.424000 0.513000 700 41 0.900000 0.831000 0.752000 600 46 1.000000 0.052000 0.052000 1.200000 0.039000 0.047000
1517187991014716087	1300 44 1.200000 0.365000 0.442000 700 41 0.900000 0.808000 0.732000 600 46 1.000000 0.052000 0.052000 1.200000 0.042000 0.050000
1517187991523660921	1300 43 1.200000 0.405000 0.490000 700 41 0.900000 1.026000 0.928000 600 45 1.000000 0.052000 0.052000 1.200000 0.040000 0.048000
1517187992037177088	1300 44 1.200000 0.292000 0.355000 700 42 0.900000 0.516000 0.468000 600 46 1.000000 0.052000 0.052000 1.200000 0.042000 0.050000
1517187992552619879	1300 44 1.200000 0.387000 0.468000 700 41 0.900000 1.022000 0.924000 600 46 1.000000 0.052000 0.052000 1.200000 0.042000 0.050000
1517187993062091254	1300 42 1.200000 0.425000 0.514000 700 41 0.900000 1.029000 0.931000 600 45 1.000000 0.051000 0.051000 1.200000 0.049000 0.059000
1517187993608364629	1300 44 1.200000 0.275000 0.334000 700 42 0.900000 0.734000 0.665000 600 47 1.000000 0.051000 0.051000 1.200000 0.042000 0.050000
1517187994117841504	1300 44 1.200000 0.329000 0.399000 700 42 0.900000 0.948000 0.857000 600 46 1.000000 0.052000 0.052000 1.200000 0.044000 0.053000
1517187994632100421	1300 43 1.200000 0.424000 0.513000 700 41 0.900000 1.072000 0.970000 600 46 1.000000 0.052000 0.052000 1.200000 0.043000 0.051000
1517187995185319880	1300 44 1.200000 0.395000 0.478000 700 41 0.900000 0.978000 0.885000 600 46 1.000000 0.052000 0.052000 1.200000 0.047000 0.056000
1517187995737205671	1300 43 1.200000 0.210000 0.255000 700 41 0.900000 0.741000 0.672000 600 46 1.000000 0.052000 0.052000 1.200000 0.040000 0.048000
1517187996293400588	1300 44 1.200000 0.350000 0.423000 700 41 0.900000 1.065000 0.963000 600 46 1.000000 0.051000 0.051000 1.200000 0.041000 0.049000
1517187996803242463	1300 44 1.200000 0.420000 0.508000 700 41 0.900000 1.007000 0.911000 600 46 1.000000 0.052000 0.052000 1.200000 0.041000 0.049000
1517187997312721713	1300 44 1.200000 0.369000 0.447000 700 42 0.900000 0.746000 0.675000 600 46 1.000000 0.052000 0.052000 1.200000 0.041000 0.049000
1517187997821364630	1300 43 1.200000 0.422000 0.510000 700 41 0.900000 1.050000 0.948000 600 46 1.000000 0.051000 0.051000 1.200000 0.042000 0.050000
1517187998330926213	1300 44 1.200000 0.236000 0.288000 700 41 0.900000 1.111000 1.003000 600 47 1.000000 0.052000 0.052000 1.200000 0.044000 0.053000
1517187998872170505	1300 44 1.200000 0.330000 0.400000 700 41 0.900000 0.578000 0.524000 600 46 1.000000 0.052000 0.052000 1.200000 0.044000 0.053000
1517187999381839505	1300 42 1.200000 0.404000 0.489000 700 41 0.900000 1.008000 0.912000 600 45 1.000000 0.052000 0.052000 1.200000 0.042000 0.050000
1517187999925992672	1300 44 1.200000 0.308000 0.374000 700 41 0.900000 0.871000 0.789000 600 47 1.000000 0.052000 0.052000 1.200000 0.048000 0.057000
1517188000481240922	1300 44 1.200000 0.334000 0.405000 700 41 0.900000 0.904000 0.819000 600 46 1.000000 0.052000 0.052000 1.200000 0.040000 0.048000
1517188001001494464	1300 43 1.200000 0.423000 0.511000 700 41 0.900000 1.060000 0.959000 600 46 1.000000 0.052000 0.052000 1.200000 0.043000 0.051000
1517188001517616464	1300 44 1.200000 0.416000 0.503000 700 42 0.900000 0.919000 0.831000 600 47 1.000000 0.052000 0.052000 1.200000 0.047000 0.056000
1517188002077424797	1300 44 1.200000 0.232000 0.282000 700 41 0.900000 0.889000 0.805000 600 46 1.000000 0.052000 0.052000 1.200000 0.041000 0.049000
1517188002588539422	1300 43 1.200000 0.392000 0.473000 700 41 0.900000 1.059000 0.956000 600 46 1.000000 0.052000 0.052000 1.200000 0.042000 0.050000
1517188003111786006	1300 44 1.200000 0.266000 0.323000 700 42 0.900000 0.930000 0.841000 600 47 1.000000 0.052000 0.052000 1.200000 0.047000 0.056000
1517188003661221547	1300 44 1.200000 0.404000 0.488000 700 42 0.900000 0.867000 0.785000 600 46 1.000000 0.052000 0.052000 1.200000 0.042000 0.050000
1517188004171093047	1300 43 1.200000 0.408000 0.494000 700 41 0.900000 1.054000 0.951000 600 46 1.000000 0.052000 0.052000 1.200000 0.042000 0.050000
1517188004737187047	1300 44 1.200000 0.140000 0.171000 700 41 0.900000 0.681000 0.616000 600 46 1.000000 0.052000 0.052000 1.200000 0.038000 0.045000
1517188005297330131	1300 44 1.200000 0.345000 0.418000 700 41 0.900000 0.746000 0.676000 600 46 1.000000 0.051000 0.051000 1.200000 0.040000 0.048000
1517188005807224798	1300 44 1.200000 0.425000 0.514000 700 42 0.900000 1.009000 0.913000 600 47 1.000000 0.052000 0.052000 1.200000 0.040000 0.048000
1517188006344653131	1300 44 1.200000 0.383000 0.463000 700 41 0.900000 1.100000 0.995000 600 47 1.000000 0.052000 0.052000 1.200000 0.046000 0.055000
1517188006912928839	1300 44 1.200000 0.269000 0.327000 700 41 0.900000 0.741000 0.672000 600 46 1.000000 0.052000 0.052000 1.200000 0.040000 0.048000
1517188007477131464	1300 44 1.200000 0.233000 0.283000 700 41 0.900000 1.005000 0.909000 600 46 1.000000 0.052000 0.052000 1.200000 0.039000 0.047000
1517188007985983006	1300 44 1.200000 0.302000 0.366000 700 41 0.900000 0.708000 0.642000 600 46 1.000000 0.051000 0.051000 1.200000 0.052000 0.062000
1517188008495758423	1300 42 1.200000 0.394000 0.477000 700 41 0.900000 1.074000 0.971000 600 45 1.000000 0.052000 0.052000 1.200000 0.041000 0.049000
1517188009042874090	1300 44 1.200000 0.266000 0.323000 700 41 0.900000 1.059000 0.958000 600 47 1.000000 0.052000 0.052000 1.200000 0.044000 0.053000
1517188009594318173	1300 44 1.200000 0.368000 0.445000 700 41 0.900000 0.757000 0.685000 600 46 1.000000 0.052000 0.052000 1.200000 0.044000 0.053000
1517188010111747756	1300 43 1.200000 0.417000 0.504000 700 41 0.900000 1.050000 0.950000 600 46 1.000000 0.051000 0.051000 1.200000 0.042000 0.050000
1517188010621114840	1300 44 1.200000 0.385000 0.466000 700 42 0.900000 1.060000 0.959000 600 47 1.000000 0.052000 0.052000 1.200000 0.044000 0.053000
1517188011157003423	1300 44 1.200000 0.249000 0.303000 700 42 0.900000 0.786000 0.712000 600 47 1.000000 0.052000 0.052000 1.200000 0.044000 0.053000
1517188011677346340	1300 42 1.200000 0.373000 0.451000 700 41 0.900000 0.998000 0.903000 600 46 1.000000 0.052000 0.052000 1.200000 0.040000 0.048000
1517188012231812132	1300 44 1.200000 0.397000 0.480000 700 41 0.900000 1.003000 0.907000 600 46 1.000000 0.052000 0.052000 1.200000 0.043000 0.051000
1517188012793422340	1300 43 1.200000 0.277000 0.337000 700 41 0.900000 0.479000 0.433000 600 46 1.000000 0.052000 0.052000 1.200000 0.046000 0.055000
1517188013303383840	1300 42 1.200000 0.334000 0.404000 700 41 0.900000 1.025000 0.927000 600 45 1.000000 0.052000 0.052000 1.200000 0.040000 0.048000
1517188013849326257	1300 44 1.200000 0.386000 0.467000 700 41 0.900000 0.729000 0.661000 600 47 1.000000 0.052000 0.052000 1.200000 0.049000 0.059000
1517188014358033799	1300 43 1.200000 0.271000 0.329000 700 41 0.900000 1.050000 0.950000 600 46 1.000000 0.051000 0.051000 1.200000 0.045000 0.054000
1517188014866897674	1300 43 1.200000 0.272000 0.331000 700 41 0.900000 1.036000 0.937000 600 47 1.000000 0.052000 0.052000 1.200000 0.037000 0.044000
1517188015389111507	1300 43 1.200000 0.278000 0.338000 700 41 0.900000 1.076000 0.973000 600 46 1.000000 0.052000 0.052000 1.200000 0.049000 0.059000
1517188015898253049	1300 42 1.200000 0.435000 0.526000 700 41 0.900000 1.020000 0.923000 600 45 1.000000 0.052000 0.052000 1.200000 0.040000 0.048000
1517188016444915465	1300 44 1.200000 0.237000 0.289000 700 41 0.900000 0.500000 0.454000 600 46 1.000000 0.052000 0.052000 1.200000 0.049000 0.059000
1517188016953494049	1300 43 1.200000 0.425000 0.514000 700 41 0.900000 1.009000 0.913000 600 46 1.000000 0.052000 0.052000 1.200000 0.043000 0.051000
1517188017462140966	1300 43 1.200000 0.272000 0.330000 700 41 0.900000 1.020000 0.923000 600 46 1.000000 0.052000 0.052000 1.200000 0.037000 0.044000
1517188018013174049	1300 43 1.200000 0.267000 0.324000 700 41 0.900000 0.887000 0.803000 600 46 1.000000 0.052000 0.052000 1.200000 0.049000 0.059000
1517188018522913299	1300 42 1.200000 0.407000 0.492000 700 41 0.900000 1.018000 0.921000 600 46 1.000000 0.051000 0.051000 1.200000 0.042000 0.050000
1517188019032105466	1300 44 1.200000 0.400000 0.484000 700 41 0.900000 0.895000 0.810000 600 46 1.000000 0.051000 0.051000 1.200000 0.041000 0.049000
1517188019541674674	1300 43 1.200000 0.269000 0.327000 700 41 0.900000 0.744000 0.674000 600 46 1.000000 0.052000 0.052000 1.200000 0.046000 0.055000
1517188020055728716	1300 43 1.200000 0.357000 0.433000 700 41 0.900000 0.929000 0.838000 600 45 1.000000 0.052000 0.052000 1.200000 0.043000 0.051000
1517188020590775924	1300 44 1.200000 0.285000 0.346000 700 41 0.900000 1.077000 0.974000 600 46 1.000000 0.052000 0.052000 1.200000 0.038000 0.045000
1517188021133389008	1300 43 1.200000 0.392000 0.476000 700 41 0.900000 0.707000 0.641000 600 46 1.000000 0.052000 0.052000 1.200000 0.047000 0.056000
1517188021665092049	1300 44 1.200000 0.411000 0.497000 700 41 0.900000 1.079000 0.976000 600 46 1.000000 0.052000 0.052000 1.200000 0.042000 0.050000
1517188022174131133	1300 42 1.200000 0.440000 0.532000 700 41 0.900000 1.016000 0.919000 600 45 1.000000 0.052000 0.052000 1.200000 0.041000 0.049000
1517188022707362133	1300 44 1.200000 0.365000 0.443000 700 41 0.900000 0.917000 0.830000 600 46 1.000000 0.051000 0.051000 1.200000 0.042000 0.050000
1517188023236399050	1300 44 1.200000 0.158000 0.193000 700 41 0.900000 0.720000 0.653000 600 46 1.000000 0.051000 0.051000 1.200000 0.046000 0.055000
1517188023746095383	1300 42 1.200000 0.278000 0.338000 700 41 0.900000 0.997000 0.902000 600 45 1.000000 0.051000 0.051000 1.200000 0.038000 0.045000
1517188024301561300	1300 44 1.200000 0.411000 0.497000 700 41 0.900000 0.959000 0.867000 600 46 1.000000 0.051000 0.051000 1.200000 0.042000 0.050000
1517188024810878716	1300 44 1.200000 0.265000 0.322000 700 41 0.900000 0.704000 0.638000 600 46 1.000000 0.051000 0.051000 1.200000 0.046000 0.055000
1517188025328990883	1300 44 1.200000 0.377000 0.456000 700 41 0.900000 1.079000 0.976000 600 45 1.000000 0.051000 0.051000 1.200000 0.041000 0.049000
1517188025897413008	1300 44 1.200000 0.425000 0.514000 700 41 0.900000 1.063000 0.962000 600 46 1.000000 0.051000 0.051000 1.200000 0.040000 0.048000
1517188026443923508	1300 44 1.200000 0.387000 0.468000 700 41 0.900000 0.728000 0.660000 600 46 1.000000 0.051000 0.051000 1.200000 0.044000 0.053000
1517188026973381217	1300 44 1.200000 0.271000 0.330000 700 41 0.900000 1.017000 0.920000 600 46 1.000000 0.052000 0.052000 1.200000 0.045000 0.054000
1517188027482385217	1300 43 1.200000 0.392000 0.474000 700 42 0.900000 1.002000 0.906000 600 46 1.000000 0.052000 0.052000 1.200000 0.041000 0.049000
1517188028016774842	1300 44 1.200000 0.259000 0.315000 700 41 0.900000 0.654000 0.593000 600 46 1.000000 0.052000 0.052000 1.200000 0.045000 0.054000
1517188028541862134	1300 44 1.200000 0.431000 0.521000 700 41 0.900000 0.932000 0.843000 600 46 1.000000 0.052000 0.052000 1.200000 0.045000 0.054000
1517188029051716259	1300 44 1.200000 0.430000 0.520000 700 41 0.900000 1.062000 0.961000 600 46 1.000000 0.051000 0.051000 1.200000 0.041000 0.049000
1517188029613145759	1300 43 1.200000 0.302000 0.366000 700 41 0.900000 0.938000 0.849000 600 47 1.000000 0.052000 0.052000 1.200000 0.042000 0.050000
1517188030169273800	1300 44 1.200000 0.299000 0.363000 700 41 0.900000 0.769000 0.697000 600 46 1.000000 0.052000 0.052000 1.200000 0.043000 0.051000
1517188030693292134	1300 43 1.200000 0.437000 0.528000 700 41 0.900000 1.080000 0.977000 600 45 1.000000 0.051000 0.051000 1.200000 0.044000 0.053000
1517188031253415259	1300 44 1.200000 0.392000 0.474000 700 42 0.900000 1.073000 0.971000 600 47 1.000000 0.052000 0.052000 1.200000 0.048000 0.057000
1517188031811855801	1300 44 1.200000 0.261000 0.317000 700 41 0.900000 0.715000 0.648000 600 47 1.000000 0.052000 0.052000 1.200000 0.043000 0.051000
1517188032333710426	1300 44 1.200000 0.378000 0.458000 700 41 0.900000 1.070000 0.968000 600 46 1.000000 0.052000 0.052000 1.200000 0.043000 0.051000
1517188032843427509	1300 43 1.200000 0.432000 0.522000 700 41 0.900000 1.081000 0.976000 600 45 1.000000 0.052000 0.052000 1.200000 0.047000 0.056000
1517188033397113759	1300 44 1.200000 0.415000 0.502000 700 42 0.900000 0.812000 0.735000 600 46 1.000000 0.052000 0.052000 1.200000 0.047000 0.056000
1517188033945347051	1300 44 1.200000 0.401000 0.485000 700 41 0.900000 0.828000 0.750000 600 46 1.000000 0.051000 0.051000 1.200000 0.042000 0.050000
1517188034464051843	1300 43 1.200000 0.419000 0.507000 700 41 0.900000 1.013000 0.916000 600 45 1.000000 0.052000 0.052000 1.200000 0.045000 0.054000
1517188034978763301	1300 44 1.200000 0.249000 0.303000 700 42 0.900000 0.901000 0.815000 600 47 1.000000 0.052000 0.052000 1.200000 0.047000 0.056000
1517188035496903843	1300 44 1.200000 0.399000 0.483000 700 42 0.900000 0.765000 0.693000 600 46 1.000000 0.052000 0.052000 1.200000 0.040000 0.048000
1517188036006314884	1300 43 1.200000 0.411000 0.497000 700 41 0.900000 1.067000 0.965000 600 46 1.000000 0.052000 0.052000 1.200000 0.044000 0.053000
1517188036577393801	1300 44 1.200000 0.371000 0.450000 700 42 0.900000 1.101000 0.996000 600 46 1.000000 0.051000 0.051000 1.200000 0.047000 0.056000
1517188037093196801	1300 44 1.200000 0.255000 0.310000 700 41 0.900000 0.722000 0.654000 600 46 1.000000 0.051000 0.051000 1.200000 0.043000 0.051000
1517188037602768051	1300 42 1.200000 0.363000 0.439000 700 41 0.900000 1.062000 0.958000 600 45 1.000000 0.051000 0.051000 1.200000 0.041000 0.049000
1517188038112151010	1300 40 1.200000 0.071000 0.087000 700 40 0.900000 0.088000 0.080000 600 43 1.000000 0.052000 0.052000 1.200000 0.032000 0.038000
