#Timestamp	CPU(0) Frequency(MHz)	CPU(0) Temperature(C)	A7 Voltage(V)	A7 Current(A)	A7 Power(W)	CPU(4) Frequency(MHz)	CPU(4) Temperature(C)	A15 Voltage(V)	A15 Current(A)	A15 Power(W)	GPU Frequency(MHz)	GPU Temperature(C)	GPU Voltage(V)	GPU Current(A)	GPU Power(W)	RAM Voltage(V)	RAM Current(A)	RAM Power(W)
1517195942248959660	900 37 1.000000 0.041000 0.043000 500 36 0.900000 0.290000 0.263000 600 40 1.000000 0.051000 0.051000 1.200000 0.035000 0.042000
1517195942763855910	900 37 1.000000 0.044000 0.046000 500 36 0.900000 0.268000 0.243000 600 40 1.000000 0.051000 0.051000 1.200000 0.027000 0.032000
1517195943277364660	900 37 1.000000 0.044000 0.046000 500 36 0.900000 0.270000 0.245000 600 40 1.000000 0.051000 0.051000 1.200000 0.030000 0.036000
1517195943791345035	900 37 1.000000 0.043000 0.045000 500 36 0.900000 0.273000 0.248000 600 40 1.000000 0.051000 0.051000 1.200000 0.033000 0.039000
1517195944305170411	900 37 1.000000 0.043000 0.045000 500 36 0.900000 0.272000 0.247000 600 40 1.000000 0.051000 0.051000 1.200000 0.032000 0.038000
1517195944818869827	900 37 1.000000 0.043000 0.045000 500 36 0.900000 0.272000 0.247000 600 40 1.000000 0.051000 0.051000 1.200000 0.033000 0.039000
1517195945332837036	900 37 1.000000 0.043000 0.045000 500 36 0.900000 0.282000 0.256000 600 40 1.000000 0.051000 0.051000 1.200000 0.034000 0.041000
1517195945847924244	900 38 1.000000 0.044000 0.046000 500 36 0.900000 0.304000 0.276000 600 41 1.000000 0.051000 0.051000 1.200000 0.041000 0.049000
1517195946410566161	900 39 1.000000 0.194000 0.204000 500 37 0.900000 0.721000 0.652000 600 42 1.000000 0.051000 0.051000 1.200000 0.043000 0.051000
1517195946923787244	900 38 1.000000 0.262000 0.275000 500 37 0.900000 0.754000 0.680000 600 42 1.000000 0.051000 0.051000 1.200000 0.038000 0.045000
1517195947494144911	900 39 1.000000 0.117000 0.124000 500 37 0.900000 0.488000 0.442000 600 42 1.000000 0.051000 0.051000 1.200000 0.037000 0.044000
1517195948007251036	900 38 1.000000 0.245000 0.257000 500 37 0.900000 0.773000 0.698000 600 42 1.000000 0.051000 0.051000 1.200000 0.037000 0.044000
1517195948519408203	900 39 1.000000 0.234000 0.246000 500 38 0.900000 0.763000 0.688000 600 42 1.000000 0.051000 0.051000 1.200000 0.045000 0.054000
1517195949032402161	900 39 1.000000 0.257000 0.269000 500 38 0.900000 0.760000 0.686000 600 42 1.000000 0.051000 0.051000 1.200000 0.037000 0.044000
1517195949598154203	900 40 1.000000 0.120000 0.127000 500 38 0.900000 0.424000 0.384000 600 43 1.000000 0.051000 0.051000 1.200000 0.036000 0.043000
1517195950119885661	900 40 1.000000 0.234000 0.245000 500 38 0.900000 0.720000 0.650000 600 43 1.000000 0.051000 0.051000 1.200000 0.036000 0.043000
1517195950631291495	900 39 1.000000 0.151000 0.160000 500 38 0.900000 0.702000 0.635000 600 43 1.000000 0.051000 0.051000 1.200000 0.040000 0.048000
1517195951171900911	900 40 1.000000 0.191000 0.201000 500 38 0.900000 0.773000 0.698000 600 43 1.000000 0.051000 0.051000 1.200000 0.039000 0.047000
1517195951737935120	900 39 1.000000 0.195000 0.205000 500 38 0.900000 0.443000 0.402000 600 43 1.000000 0.051000 0.051000 1.200000 0.040000 0.048000
1517195952298151078	900 39 1.000000 0.168000 0.177000 500 38 0.900000 0.791000 0.713000 600 43 1.000000 0.051000 0.051000 1.200000 0.036000 0.043000
1517195952825615412	900 39 1.000000 0.264000 0.277000 500 38 0.900000 0.518000 0.469000 600 42 1.000000 0.051000 0.051000 1.200000 0.038000 0.045000
1517195953406140495	900 40 1.000000 0.249000 0.261000 500 38 0.900000 0.717000 0.647000 600 43 1.000000 0.051000 0.051000 1.200000 0.042000 0.050000
1517195953924947287	900 39 1.000000 0.262000 0.275000 500 38 0.900000 0.566000 0.512000 600 43 1.000000 0.051000 0.051000 1.200000 0.037000 0.044000
1517195954436251245	900 39 1.000000 0.232000 0.244000 500 38 0.900000 0.781000 0.705000 600 43 1.000000 0.051000 0.051000 1.200000 0.041000 0.049000
1517195954949361287	900 39 1.000000 0.192000 0.202000 500 38 0.900000 0.757000 0.683000 600 43 1.000000 0.051000 0.051000 1.200000 0.034000 0.041000
1517195955480734579	900 40 1.000000 0.200000 0.211000 500 38 0.900000 0.728000 0.658000 600 43 1.000000 0.051000 0.051000 1.200000 0.044000 0.053000
1517195956005293537	900 40 1.000000 0.234000 0.247000 500 38 0.900000 0.730000 0.659000 600 43 1.000000 0.051000 0.051000 1.200000 0.038000 0.045000
1517195956582023120	900 40 1.000000 0.182000 0.192000 500 38 0.900000 0.672000 0.608000 600 43 1.000000 0.051000 0.051000 1.200000 0.040000 0.048000
1517195957109744120	900 40 1.000000 0.260000 0.273000 500 38 0.900000 0.788000 0.711000 600 43 1.000000 0.051000 0.051000 1.200000 0.037000 0.044000
1517195957674387662	900 40 1.000000 0.176000 0.185000 500 38 0.900000 0.617000 0.559000 600 43 1.000000 0.051000 0.051000 1.200000 0.041000 0.049000
1517195958200334996	900 40 1.000000 0.238000 0.250000 500 38 0.900000 0.769000 0.694000 600 44 1.000000 0.051000 0.051000 1.200000 0.040000 0.048000
1517195958712139204	900 40 1.000000 0.183000 0.193000 500 38 0.900000 0.648000 0.586000 600 43 1.000000 0.051000 0.051000 1.200000 0.040000 0.048000
1517195959282188454	900 40 1.000000 0.213000 0.225000 500 38 0.900000 0.747000 0.674000 600 43 1.000000 0.051000 0.051000 1.200000 0.039000 0.047000
1517195959850158037	900 40 1.000000 0.195000 0.205000 500 38 0.900000 0.793000 0.716000 600 43 1.000000 0.051000 0.051000 1.200000 0.039000 0.047000
1517195960413455787	900 40 1.000000 0.239000 0.251000 500 38 0.900000 0.797000 0.719000 600 43 1.000000 0.051000 0.051000 1.200000 0.037000 0.044000
1517195960924635996	900 40 1.000000 0.163000 0.172000 500 38 0.900000 0.424000 0.384000 600 43 1.000000 0.051000 0.051000 1.200000 0.044000 0.053000
1517195961486182996	900 40 1.000000 0.159000 0.168000 500 38 0.900000 0.734000 0.662000 600 43 1.000000 0.051000 0.051000 1.200000 0.038000 0.045000
1517195962058196788	900 40 1.000000 0.112000 0.118000 500 38 0.900000 0.639000 0.578000 600 43 1.000000 0.051000 0.051000 1.200000 0.035000 0.042000
1517195962614418913	900 40 1.000000 0.253000 0.265000 500 38 0.900000 0.777000 0.701000 600 43 1.000000 0.051000 0.051000 1.200000 0.039000 0.047000
1517195963127321413	900 39 1.000000 0.162000 0.171000 500 38 0.900000 0.750000 0.677000 600 43 1.000000 0.051000 0.051000 1.200000 0.040000 0.048000
1517195963638906413	900 40 1.000000 0.223000 0.234000 500 38 0.900000 0.701000 0.634000 600 43 1.000000 0.051000 0.051000 1.200000 0.042000 0.050000
1517195964151119955	900 39 1.000000 0.193000 0.204000 500 38 0.900000 0.737000 0.665000 600 42 1.000000 0.051000 0.051000 1.200000 0.037000 0.044000
1517195964705793871	900 40 1.000000 0.132000 0.140000 500 38 0.900000 0.352000 0.319000 600 43 1.000000 0.051000 0.051000 1.200000 0.049000 0.059000
1517195965277985205	900 40 1.000000 0.251000 0.264000 500 38 0.900000 0.681000 0.616000 600 43 1.000000 0.051000 0.051000 1.200000 0.037000 0.044000
1517195965829964746	900 40 1.000000 0.144000 0.152000 500 38 0.900000 0.540000 0.489000 600 43 1.000000 0.051000 0.051000 1.200000 0.039000 0.047000
1517195966387073247	900 40 1.000000 0.238000 0.250000 500 38 0.900000 0.762000 0.688000 600 43 1.000000 0.051000 0.051000 1.200000 0.039000 0.047000
1517195966938279663	900 40 1.000000 0.143000 0.151000 500 38 0.900000 0.581000 0.526000 600 43 1.000000 0.051000 0.051000 1.200000 0.038000 0.045000
1517195967450303538	900 40 1.000000 0.263000 0.276000 500 39 0.900000 0.752000 0.679000 600 43 1.000000 0.051000 0.051000 1.200000 0.039000 0.047000
1517195968014126955	900 40 1.000000 0.120000 0.127000 500 38 0.900000 0.561000 0.508000 600 43 1.000000 0.051000 0.051000 1.200000 0.042000 0.050000
1517195968538367955	900 40 1.000000 0.256000 0.269000 500 38 0.900000 0.682000 0.617000 600 43 1.000000 0.051000 0.051000 1.200000 0.038000 0.045000
1517195969098202664	900 40 1.000000 0.108000 0.114000 500 38 0.900000 0.612000 0.554000 600 43 1.000000 0.051000 0.051000 1.200000 0.037000 0.044000
1517195969610756455	900 40 1.000000 0.246000 0.258000 500 38 0.900000 0.752000 0.679000 600 43 1.000000 0.051000 0.051000 1.200000 0.040000 0.048000
1517195970165698039	900 40 1.000000 0.110000 0.116000 500 38 0.900000 0.624000 0.565000 600 43 1.000000 0.051000 0.051000 1.200000 0.035000 0.042000
1517195970678710747	900 40 1.000000 0.238000 0.250000 500 38 0.900000 0.794000 0.716000 600 43 1.000000 0.051000 0.051000 1.200000 0.036000 0.043000
1517195971190302622	900 40 1.000000 0.225000 0.236000 500 38 0.900000 0.546000 0.494000 600 43 1.000000 0.051000 0.051000 1.200000 0.037000 0.044000
1517195971758039164	900 40 1.000000 0.209000 0.220000 500 38 0.900000 0.780000 0.704000 600 43 1.000000 0.051000 0.051000 1.200000 0.037000 0.044000
1517195972330093414	900 40 1.000000 0.102000 0.108000 500 38 0.900000 0.467000 0.424000 600 43 1.000000 0.051000 0.051000 1.200000 0.042000 0.050000
1517195972850742206	900 40 1.000000 0.239000 0.251000 500 38 0.900000 0.725000 0.654000 600 43 1.000000 0.051000 0.051000 1.200000 0.036000 0.043000
1517195973361820122	900 40 1.000000 0.132000 0.140000 500 38 0.900000 0.462000 0.419000 600 43 1.000000 0.051000 0.051000 1.200000 0.043000 0.051000
1517195973933888539	900 39 1.000000 0.190000 0.200000 500 38 0.900000 0.789000 0.712000 600 43 1.000000 0.051000 0.051000 1.200000 0.035000 0.042000
1517195974451397414	900 39 1.000000 0.109000 0.115000 500 38 0.900000 0.451000 0.409000 600 43 1.000000 0.051000 0.051000 1.200000 0.046000 0.055000
1517195974974028789	900 40 1.000000 0.238000 0.250000 500 38 0.900000 0.686000 0.619000 600 43 1.000000 0.051000 0.051000 1.200000 0.037000 0.044000
1517195975528166498	900 40 1.000000 0.108000 0.114000 500 38 0.900000 0.487000 0.441000 600 43 1.000000 0.051000 0.051000 1.200000 0.040000 0.048000
1517195976046367081	900 40 1.000000 0.230000 0.242000 500 38 0.900000 0.684000 0.617000 600 43 1.000000 0.051000 0.051000 1.200000 0.036000 0.043000
1517195976561415914	900 39 1.000000 0.123000 0.130000 500 38 0.900000 0.481000 0.436000 600 43 1.000000 0.051000 0.051000 1.200000 0.044000 0.053000
1517195977072894789	900 40 1.000000 0.225000 0.237000 500 38 0.900000 0.753000 0.679000 600 43 1.000000 0.051000 0.051000 1.200000 0.038000 0.045000
1517195977594176956	900 40 1.000000 0.234000 0.246000 500 38 0.900000 0.746000 0.673000 600 42 1.000000 0.051000 0.051000 1.200000 0.034000 0.041000
1517195978166103373	900 40 1.000000 0.238000 0.250000 500 38 0.900000 0.780000 0.704000 600 43 1.000000 0.051000 0.051000 1.200000 0.036000 0.043000
1517195978691406415	900 39 1.000000 0.237000 0.249000 500 38 0.900000 0.769000 0.694000 600 42 1.000000 0.051000 0.051000 1.200000 0.035000 0.042000
1517195979235293831	900 40 1.000000 0.244000 0.256000 500 38 0.900000 0.752000 0.679000 600 43 1.000000 0.051000 0.051000 1.200000 0.037000 0.044000
1517195979751126581	900 39 1.000000 0.247000 0.260000 500 38 0.900000 0.796000 0.717000 600 43 1.000000 0.051000 0.051000 1.200000 0.035000 0.042000
1517195980297955290	900 40 1.000000 0.248000 0.260000 500 38 0.900000 0.760000 0.686000 600 43 1.000000 0.051000 0.051000 1.200000 0.036000 0.043000
1517195980813436040	900 39 1.000000 0.264000 0.277000 500 38 0.900000 0.789000 0.711000 600 43 1.000000 0.051000 0.051000 1.200000 0.035000 0.042000
1517195981326345457	900 40 1.000000 0.246000 0.258000 500 38 0.900000 0.730000 0.659000 600 43 1.000000 0.051000 0.051000 1.200000 0.037000 0.044000
1517195981838773790	900 39 1.000000 0.245000 0.257000 500 38 0.900000 0.692000 0.624000 600 42 1.000000 0.051000 0.051000 1.200000 0.037000 0.044000
1517195982371028207	900 40 1.000000 0.228000 0.240000 500 38 0.900000 0.685000 0.619000 600 43 1.000000 0.051000 0.051000 1.200000 0.041000 0.049000
1517195982883824873	900 40 1.000000 0.240000 0.252000 500 38 0.900000 0.785000 0.708000 600 43 1.000000 0.051000 0.051000 1.200000 0.035000 0.042000
1517195983454172540	900 40 1.000000 0.107000 0.113000 500 38 0.900000 0.598000 0.541000 600 43 1.000000 0.051000 0.051000 1.200000 0.042000 0.050000
1517195983982317915	900 40 1.000000 0.257000 0.270000 500 38 0.900000 0.751000 0.678000 600 43 1.000000 0.051000 0.051000 1.200000 0.035000 0.042000
1517195984549968540	900 40 1.000000 0.110000 0.117000 500 38 0.900000 0.472000 0.428000 600 43 1.000000 0.051000 0.051000 1.200000 0.044000 0.053000
1517195985074617165	900 40 1.000000 0.257000 0.270000 500 38 0.900000 0.721000 0.651000 600 44 1.000000 0.051000 0.051000 1.200000 0.036000 0.043000
1517195985585751957	900 40 1.000000 0.119000 0.126000 500 38 0.900000 0.466000 0.422000 600 43 1.000000 0.051000 0.051000 1.200000 0.044000 0.053000
1517195986098231624	900 40 1.000000 0.133000 0.141000 500 38 0.900000 0.779000 0.702000 600 43 1.000000 0.051000 0.051000 1.200000 0.035000 0.042000
1517195986650899791	900 40 1.000000 0.159000 0.168000 500 38 0.900000 0.458000 0.415000 600 43 1.000000 0.051000 0.051000 1.200000 0.042000 0.050000
1517195987213996249	900 40 1.000000 0.249000 0.261000 500 38 0.900000 0.793000 0.715000 600 43 1.000000 0.051000 0.051000 1.200000 0.040000 0.048000
1517195987726543416	900 40 1.000000 0.131000 0.138000 500 38 0.900000 0.453000 0.410000 600 43 1.000000 0.051000 0.051000 1.200000 0.037000 0.044000
1517195988297938707	900 40 1.000000 0.264000 0.277000 500 38 0.900000 0.774000 0.698000 600 43 1.000000 0.051000 0.051000 1.200000 0.040000 0.048000
1517195988853997208	900 40 1.000000 0.105000 0.111000 500 38 0.900000 0.464000 0.420000 600 43 1.000000 0.051000 0.051000 1.200000 0.036000 0.043000
1517195989413922083	900 40 1.000000 0.245000 0.257000 500 38 0.900000 0.778000 0.701000 600 43 1.000000 0.051000 0.051000 1.200000 0.041000 0.049000
1517195989982195041	900 40 1.000000 0.257000 0.270000 500 38 0.900000 0.452000 0.409000 600 43 1.000000 0.051000 0.051000 1.200000 0.037000 0.044000
1517195990495124666	900 40 1.000000 0.242000 0.254000 500 39 0.900000 0.744000 0.671000 600 43 1.000000 0.051000 0.051000 1.200000 0.038000 0.045000
1517195991055984999	900 40 1.000000 0.135000 0.143000 500 38 0.900000 0.738000 0.666000 600 43 1.000000 0.051000 0.051000 1.200000 0.040000 0.048000
1517195991569169208	900 40 1.000000 0.239000 0.251000 500 38 0.900000 0.757000 0.683000 600 44 1.000000 0.051000 0.051000 1.200000 0.038000 0.045000
1517195992125799083	900 40 1.000000 0.165000 0.174000 500 38 0.900000 0.723000 0.654000 600 43 1.000000 0.051000 0.051000 1.200000 0.040000 0.048000
1517195992640085791	900 40 1.000000 0.256000 0.269000 500 38 0.900000 0.739000 0.667000 600 43 1.000000 0.051000 0.051000 1.200000 0.038000 0.045000
1517195993176783875	900 40 1.000000 0.196000 0.206000 500 38 0.900000 0.743000 0.670000 600 43 1.000000 0.051000 0.051000 1.200000 0.041000 0.049000
1517195993689724083	900 40 1.000000 0.235000 0.246000 500 38 0.900000 0.718000 0.648000 600 43 1.000000 0.051000 0.051000 1.200000 0.037000 0.044000
1517195994233392791	900 40 1.000000 0.230000 0.242000 500 39 0.900000 0.771000 0.696000 600 43 1.000000 0.051000 0.051000 1.200000 0.046000 0.055000
1517195994746197583	900 40 1.000000 0.240000 0.252000 500 38 0.900000 0.760000 0.686000 600 44 1.000000 0.051000 0.051000 1.200000 0.037000 0.044000
1517195995309489958	900 40 1.000000 0.231000 0.243000 500 38 0.900000 0.733000 0.661000 600 43 1.000000 0.051000 0.051000 1.200000 0.046000 0.055000
1517195995822180083	900 40 1.000000 0.263000 0.276000 500 38 0.900000 0.751000 0.678000 600 43 1.000000 0.051000 0.051000 1.200000 0.039000 0.047000
1517195996381901375	900 40 1.000000 0.120000 0.127000 500 38 0.900000 0.723000 0.655000 600 43 1.000000 0.051000 0.051000 1.200000 0.044000 0.053000
1517195996942293458	900 40 1.000000 0.256000 0.269000 500 38 0.900000 0.740000 0.668000 600 43 1.000000 0.051000 0.051000 1.200000 0.036000 0.043000
1517195997479091875	900 40 1.000000 0.180000 0.190000 500 38 0.900000 0.574000 0.520000 600 43 1.000000 0.051000 0.051000 1.200000 0.042000 0.050000
1517195998000893917	900 40 1.000000 0.226000 0.239000 500 38 0.900000 0.781000 0.705000 600 43 1.000000 0.051000 0.051000 1.200000 0.037000 0.044000
1517195998570151875	900 40 1.000000 0.202000 0.213000 500 38 0.900000 0.789000 0.711000 600 43 1.000000 0.051000 0.051000 1.200000 0.036000 0.043000
1517195999083252084	900 40 1.000000 0.238000 0.250000 500 38 0.900000 0.740000 0.668000 600 43 1.000000 0.051000 0.051000 1.200000 0.039000 0.047000
1517195999654142417	900 40 1.000000 0.188000 0.198000 500 38 0.900000 0.726000 0.655000 600 43 1.000000 0.051000 0.051000 1.200000 0.036000 0.043000
1517196000167691292	900 40 1.000000 0.240000 0.252000 500 38 0.900000 0.744000 0.671000 600 43 1.000000 0.051000 0.051000 1.200000 0.039000 0.047000
1517196000730229917	900 40 1.000000 0.175000 0.184000 500 38 0.900000 0.718000 0.648000 600 43 1.000000 0.051000 0.051000 1.200000 0.036000 0.043000
1517196001250692251	900 40 1.000000 0.239000 0.251000 500 38 0.900000 0.772000 0.698000 600 43 1.000000 0.051000 0.051000 1.200000 0.042000 0.050000
1517196001817911751	900 40 1.000000 0.160000 0.169000 500 38 0.900000 0.748000 0.675000 600 43 1.000000 0.051000 0.051000 1.200000 0.038000 0.045000
1517196002374014501	900 40 1.000000 0.200000 0.211000 500 38 0.900000 0.764000 0.689000 600 43 1.000000 0.051000 0.051000 1.200000 0.043000 0.051000
1517196002897465126	900 40 1.000000 0.217000 0.228000 500 38 0.900000 0.678000 0.612000 600 43 1.000000 0.051000 0.051000 1.200000 0.038000 0.045000
1517196003458080418	900 40 1.000000 0.259000 0.271000 500 38 0.900000 0.780000 0.703000 600 43 1.000000 0.051000 0.051000 1.200000 0.036000 0.043000
1517196003975360376	900 40 1.000000 0.213000 0.224000 500 38 0.900000 0.755000 0.681000 600 43 1.000000 0.051000 0.051000 1.200000 0.036000 0.043000
1517196004550120418	900 40 1.000000 0.253000 0.265000 500 38 0.900000 0.787000 0.709000 600 43 1.000000 0.051000 0.051000 1.200000 0.035000 0.042000
1517196005106296751	900 40 1.000000 0.203000 0.214000 500 38 0.900000 0.783000 0.706000 600 43 1.000000 0.051000 0.051000 1.200000 0.037000 0.044000
1517196005666068668	900 40 1.000000 0.248000 0.260000 500 38 0.900000 0.794000 0.716000 600 43 1.000000 0.051000 0.051000 1.200000 0.036000 0.043000
1517196006230195751	900 40 1.000000 0.168000 0.177000 500 38 0.900000 0.769000 0.693000 600 43 1.000000 0.051000 0.051000 1.200000 0.039000 0.047000
1517196006744770085	900 40 1.000000 0.242000 0.254000 500 39 0.900000 0.764000 0.689000 600 44 1.000000 0.051000 0.051000 1.200000 0.037000 0.044000
1517196007302069126	900 40 1.000000 0.146000 0.154000 500 38 0.900000 0.787000 0.709000 600 43 1.000000 0.051000 0.051000 1.200000 0.036000 0.043000
1517196007814392168	900 40 1.000000 0.246000 0.258000 500 38 0.900000 0.755000 0.681000 600 43 1.000000 0.051000 0.051000 1.200000 0.037000 0.044000
1517196008374113835	900 40 1.000000 0.238000 0.250000 500 38 0.900000 0.789000 0.711000 600 43 1.000000 0.051000 0.051000 1.200000 0.036000 0.043000
1517196008938183752	900 40 1.000000 0.237000 0.249000 500 38 0.900000 0.784000 0.707000 600 43 1.000000 0.051000 0.051000 1.200000 0.037000 0.044000
1517196009458106960	900 40 1.000000 0.241000 0.253000 500 38 0.900000 0.795000 0.717000 600 43 1.000000 0.051000 0.051000 1.200000 0.039000 0.047000
1517196010034255543	900 40 1.000000 0.247000 0.259000 500 38 0.900000 0.785000 0.708000 600 43 1.000000 0.051000 0.051000 1.200000 0.037000 0.044000
1517196010564044710	900 40 1.000000 0.128000 0.135000 500 38 0.900000 0.234000 0.212000 600 43 1.000000 0.051000 0.051000 1.200000 0.051000 0.061000
1517196011118187794	900 40 1.000000 0.258000 0.271000 500 38 0.900000 0.785000 0.708000 600 44 1.000000 0.051000 0.051000 1.200000 0.035000 0.042000
1517196011635548002	900 40 1.000000 0.114000 0.121000 500 38 0.900000 0.453000 0.410000 600 43 1.000000 0.051000 0.051000 1.200000 0.043000 0.051000
1517196012185976210	900 40 1.000000 0.239000 0.251000 500 38 0.900000 0.782000 0.706000 600 43 1.000000 0.051000 0.051000 1.200000 0.036000 0.043000
1517196012697333044	900 40 1.000000 0.101000 0.107000 500 38 0.900000 0.464000 0.420000 600 43 1.000000 0.051000 0.051000 1.200000 0.041000 0.049000
1517196013261486335	900 40 1.000000 0.255000 0.268000 500 38 0.900000 0.699000 0.631000 600 43 1.000000 0.051000 0.051000 1.200000 0.036000 0.043000
1517196013813949294	900 40 1.000000 0.109000 0.116000 500 38 0.900000 0.554000 0.501000 600 43 1.000000 0.051000 0.051000 1.200000 0.035000 0.042000
1517196014337395002	900 40 1.000000 0.246000 0.258000 500 38 0.900000 0.727000 0.656000 600 43 1.000000 0.051000 0.051000 1.200000 0.036000 0.043000
1517196014894127836	900 40 1.000000 0.262000 0.275000 500 38 0.900000 0.547000 0.495000 600 43 1.000000 0.051000 0.051000 1.200000 0.040000 0.048000
1517196015411864294	900 40 1.000000 0.244000 0.256000 500 38 0.900000 0.729000 0.658000 600 43 1.000000 0.051000 0.051000 1.200000 0.037000 0.044000
1517196015956508086	900 40 1.000000 0.240000 0.252000 500 38 0.900000 0.475000 0.430000 600 43 1.000000 0.051000 0.051000 1.200000 0.035000 0.042000
1517196016517903794	900 40 1.000000 0.258000 0.271000 500 38 0.900000 0.752000 0.679000 600 43 1.000000 0.051000 0.051000 1.200000 0.037000 0.044000
1517196017029901586	900 40 1.000000 0.175000 0.184000 500 38 0.900000 0.513000 0.464000 600 43 1.000000 0.051000 0.051000 1.200000 0.043000 0.051000
1517196017582128711	900 40 1.000000 0.171000 0.181000 500 38 0.900000 0.706000 0.637000 600 44 1.000000 0.051000 0.051000 1.200000 0.034000 0.041000
1517196018146199044	900 40 1.000000 0.152000 0.161000 500 38 0.900000 0.518000 0.469000 600 43 1.000000 0.051000 0.051000 1.200000 0.042000 0.050000
1517196018681275003	900 40 1.000000 0.236000 0.248000 500 38 0.900000 0.734000 0.662000 600 44 1.000000 0.051000 0.051000 1.200000 0.037000 0.044000
1517196019242152961	900 40 1.000000 0.131000 0.138000 500 38 0.900000 0.494000 0.447000 600 43 1.000000 0.051000 0.051000 1.200000 0.040000 0.048000
1517196019755430836	900 40 1.000000 0.257000 0.270000 500 38 0.900000 0.709000 0.640000 600 44 1.000000 0.051000 0.051000 1.200000 0.038000 0.045000
1517196020314729545	900 40 1.000000 0.112000 0.118000 500 38 0.900000 0.473000 0.429000 600 44 1.000000 0.051000 0.051000 1.200000 0.043000 0.051000
1517196020827796503	900 40 1.000000 0.241000 0.253000 500 39 0.900000 0.758000 0.684000 600 43 1.000000 0.051000 0.051000 1.200000 0.036000 0.043000
1517196021387033753	900 40 1.000000 0.101000 0.107000 500 38 0.900000 0.749000 0.676000 600 43 1.000000 0.051000 0.051000 1.200000 0.041000 0.049000
1517196021899224128	900 41 1.000000 0.231000 0.242000 500 39 0.900000 0.758000 0.684000 600 44 1.000000 0.051000 0.051000 1.200000 0.035000 0.042000
1517196022442348503	900 40 1.000000 0.113000 0.120000 500 38 0.900000 0.700000 0.633000 600 43 1.000000 0.051000 0.051000 1.200000 0.042000 0.050000
1517196022998369753	900 40 1.000000 0.231000 0.243000 500 39 0.900000 0.763000 0.688000 600 43 1.000000 0.051000 0.051000 1.200000 0.036000 0.043000
1517196023519763878	900 40 1.000000 0.123000 0.130000 500 38 0.900000 0.332000 0.301000 600 43 1.000000 0.051000 0.051000 1.200000 0.048000 0.057000
1517196024032250670	900 40 1.000000 0.258000 0.270000 500 39 0.900000 0.749000 0.676000 600 43 1.000000 0.051000 0.051000 1.200000 0.035000 0.042000
1517196024543644087	900 40 1.000000 0.124000 0.131000 500 38 0.900000 0.456000 0.414000 600 43 1.000000 0.051000 0.051000 1.200000 0.052000 0.062000
1517196025056089045	900 40 1.000000 0.220000 0.232000 500 38 0.900000 0.741000 0.669000 600 43 1.000000 0.051000 0.051000 1.200000 0.036000 0.043000
1517196025588224962	900 39 1.000000 0.165000 0.174000 500 38 0.900000 0.584000 0.528000 600 42 1.000000 0.051000 0.051000 1.200000 0.036000 0.043000
1517196026099895587	900 40 1.000000 0.231000 0.243000 500 38 0.900000 0.691000 0.623000 600 43 1.000000 0.051000 0.051000 1.200000 0.036000 0.043000
1517196026612803504	900 39 1.000000 0.222000 0.233000 500 38 0.900000 0.777000 0.701000 600 43 1.000000 0.051000 0.051000 1.200000 0.036000 0.043000
1517196027155277879	900 40 1.000000 0.141000 0.149000 500 38 0.900000 0.411000 0.373000 600 43 1.000000 0.051000 0.051000 1.200000 0.036000 0.043000
1517196027667871170	900 40 1.000000 0.245000 0.257000 500 38 0.900000 0.788000 0.710000 600 44 1.000000 0.051000 0.051000 1.200000 0.036000 0.043000
1517196028242074379	900 40 1.000000 0.227000 0.238000 500 38 0.900000 0.466000 0.422000 600 44 1.000000 0.051000 0.051000 1.200000 0.034000 0.041000
1517196028753446296	900 40 1.000000 0.227000 0.239000 500 38 0.900000 0.691000 0.623000 600 43 1.000000 0.051000 0.051000 1.200000 0.038000 0.045000
1517196029310328337	900 40 1.000000 0.078000 0.083000 500 38 0.900000 0.557000 0.505000 600 43 1.000000 0.051000 0.051000 1.200000 0.038000 0.045000
1517196029821721004	900 40 1.000000 0.246000 0.258000 500 38 0.900000 0.667000 0.603000 600 44 1.000000 0.051000 0.051000 1.200000 0.038000 0.045000
1517196030342456212	900 39 1.000000 0.176000 0.186000 500 38 0.900000 0.452000 0.409000 600 43 1.000000 0.051000 0.051000 1.200000 0.035000 0.042000
1517196030860505504	900 40 1.000000 0.243000 0.255000 500 38 0.900000 0.760000 0.685000 600 43 1.000000 0.051000 0.051000 1.200000 0.041000 0.049000
1517196031373083963	900 39 1.000000 0.198000 0.208000 500 38 0.900000 0.547000 0.495000 600 42 1.000000 0.051000 0.051000 1.200000 0.037000 0.044000
1517196031954162338	900 40 1.000000 0.239000 0.251000 500 38 0.900000 0.710000 0.641000 600 43 1.000000 0.051000 0.051000 1.200000 0.042000 0.050000
1517196032467219129	900 40 1.000000 0.195000 0.205000 500 38 0.900000 0.588000 0.532000 600 42 1.000000 0.051000 0.051000 1.200000 0.037000 0.044000
1517196032980108588	900 39 1.000000 0.199000 0.210000 500 38 0.900000 0.734000 0.662000 600 43 1.000000 0.051000 0.051000 1.200000 0.046000 0.055000
1517196033493252838	900 40 1.000000 0.222000 0.234000 500 39 0.900000 0.796000 0.717000 600 43 1.000000 0.051000 0.051000 1.200000 0.039000 0.047000
1517196034054366755	900 40 1.000000 0.101000 0.107000 500 38 0.900000 0.769000 0.698000 600 43 1.000000 0.051000 0.051000 1.200000 0.042000 0.050000
1517196034579619046	900 40 1.000000 0.244000 0.256000 500 39 0.900000 0.784000 0.707000 600 43 1.000000 0.051000 0.051000 1.200000 0.039000 0.047000
1517196035134132671	900 40 1.000000 0.103000 0.109000 500 38 0.900000 0.469000 0.425000 600 43 1.000000 0.051000 0.051000 1.200000 0.044000 0.053000
1517196035676204338	900 40 1.000000 0.244000 0.256000 500 39 0.900000 0.792000 0.714000 600 44 1.000000 0.051000 0.051000 1.200000 0.037000 0.044000
1517196036234205255	900 40 1.000000 0.113000 0.120000 500 38 0.900000 0.487000 0.441000 600 43 1.000000 0.051000 0.051000 1.200000 0.044000 0.053000
1517196036762238213	900 40 1.000000 0.238000 0.250000 500 39 0.900000 0.755000 0.681000 600 43 1.000000 0.051000 0.051000 1.200000 0.038000 0.045000
1517196037329969588	900 40 1.000000 0.109000 0.115000 500 38 0.900000 0.528000 0.478000 600 43 1.000000 0.051000 0.051000 1.200000 0.043000 0.051000
1517196037860966755	900 40 1.000000 0.231000 0.242000 500 39 0.900000 0.721000 0.651000 600 44 1.000000 0.051000 0.051000 1.200000 0.038000 0.045000
1517196038430035547	900 40 1.000000 0.120000 0.127000 500 38 0.900000 0.574000 0.519000 600 43 1.000000 0.051000 0.051000 1.200000 0.042000 0.050000
1517196038993009963	900 40 1.000000 0.231000 0.243000 500 39 0.900000 0.675000 0.610000 600 43 1.000000 0.051000 0.051000 1.200000 0.038000 0.045000
1517196039505296714	900 40 1.000000 0.123000 0.130000 500 38 0.900000 0.636000 0.574000 600 43 1.000000 0.051000 0.051000 1.200000 0.041000 0.049000
1517196040032237339	900 40 1.000000 0.231000 0.243000 500 38 0.900000 0.758000 0.684000 600 44 1.000000 0.051000 0.051000 1.200000 0.039000 0.047000
1517196040610130464	900 40 1.000000 0.210000 0.221000 500 38 0.900000 0.743000 0.670000 600 43 1.000000 0.051000 0.051000 1.200000 0.039000 0.047000
1517196041123071089	900 40 1.000000 0.239000 0.251000 500 38 0.900000 0.759000 0.685000 600 43 1.000000 0.051000 0.051000 1.200000 0.038000 0.045000
1517196041694024130	900 40 1.000000 0.246000 0.258000 500 38 0.900000 0.752000 0.679000 600 43 1.000000 0.051000 0.051000 1.200000 0.038000 0.045000
1517196042242711589	900 40 1.000000 0.237000 0.249000 500 38 0.900000 0.702000 0.633000 600 43 1.000000 0.051000 0.051000 1.200000 0.039000 0.047000
1517196042753538547	900 40 1.000000 0.177000 0.187000 500 38 0.900000 0.532000 0.481000 600 43 1.000000 0.051000 0.051000 1.200000 0.041000 0.049000
1517196043267480756	900 40 1.000000 0.211000 0.222000 500 38 0.900000 0.776000 0.699000 600 43 1.000000 0.051000 0.051000 1.200000 0.035000 0.042000
1517196043779003881	900 40 1.000000 0.205000 0.216000 500 38 0.900000 0.795000 0.717000 600 42 1.000000 0.051000 0.051000 1.200000 0.036000 0.043000
1517196044353987714	900 40 1.000000 0.256000 0.269000 500 38 0.900000 0.729000 0.658000 600 43 1.000000 0.051000 0.051000 1.200000 0.039000 0.047000
1517196044866748048	900 39 1.000000 0.202000 0.213000 500 38 0.900000 0.712000 0.642000 600 42 1.000000 0.051000 0.051000 1.200000 0.037000 0.044000
1517196045379208506	900 40 1.000000 0.165000 0.174000 500 38 0.900000 0.756000 0.684000 600 43 1.000000 0.051000 0.051000 1.200000 0.042000 0.050000
1517196045891676673	900 40 1.000000 0.263000 0.277000 500 38 0.900000 0.791000 0.713000 600 43 1.000000 0.051000 0.051000 1.200000 0.036000 0.043000
1517196046440092298	900 40 1.000000 0.097000 0.102000 500 38 0.900000 0.602000 0.545000 600 43 1.000000 0.051000 0.051000 1.200000 0.044000 0.053000
1517196046952909839	900 40 1.000000 0.237000 0.249000 500 38 0.900000 0.785000 0.708000 600 43 1.000000 0.051000 0.051000 1.200000 0.034000 0.041000
1517196047517885965	900 40 1.000000 0.127000 0.134000 500 38 0.900000 0.569000 0.516000 600 43 1.000000 0.051000 0.051000 1.200000 0.043000 0.051000
1517196048071432506	900 40 1.000000 0.156000 0.165000 500 38 0.900000 0.688000 0.621000 600 43 1.000000 0.051000 0.051000 1.200000 0.035000 0.042000
1517196048591468465	900 39 1.000000 0.122000 0.129000 500 38 0.900000 0.226000 0.205000 600 43 1.000000 0.051000 0.051000 1.200000 0.050000 0.060000
1517196049103834048	900 40 1.000000 0.231000 0.244000 500 38 0.900000 0.757000 0.682000 600 43 1.000000 0.051000 0.051000 1.200000 0.036000 0.043000
1517196049648065006	900 40 1.000000 0.122000 0.129000 500 38 0.900000 0.488000 0.442000 600 43 1.000000 0.051000 0.051000 1.200000 0.041000 0.049000
1517196050214132048	900 40 1.000000 0.142000 0.150000 500 38 0.900000 0.701000 0.633000 600 43 1.000000 0.051000 0.051000 1.200000 0.033000 0.039000
1517196050786155965	900 40 1.000000 0.165000 0.174000 500 38 0.900000 0.528000 0.478000 600 43 1.000000 0.051000 0.051000 1.200000 0.042000 0.050000
1517196051297385382	900 40 1.000000 0.234000 0.246000 500 38 0.900000 0.768000 0.693000 600 43 1.000000 0.051000 0.051000 1.200000 0.039000 0.047000
1517196051820110382	900 40 1.000000 0.149000 0.157000 500 38 0.900000 0.792000 0.714000 600 43 1.000000 0.051000 0.051000 1.200000 0.035000 0.042000
1517196052394103298	900 40 1.000000 0.198000 0.209000 500 38 0.900000 0.749000 0.676000 600 43 1.000000 0.051000 0.051000 1.200000 0.037000 0.044000
1517196052906337423	900 40 1.000000 0.236000 0.248000 500 38 0.900000 0.692000 0.626000 600 43 1.000000 0.051000 0.051000 1.200000 0.040000 0.048000
1517196053462364840	900 40 1.000000 0.225000 0.237000 500 38 0.900000 0.775000 0.699000 600 43 1.000000 0.051000 0.051000 1.200000 0.039000 0.047000
1517196054026444674	900 40 1.000000 0.242000 0.254000 500 38 0.900000 0.765000 0.690000 600 43 1.000000 0.051000 0.051000 1.200000 0.037000 0.044000
1517196054582379465	900 40 1.000000 0.253000 0.266000 500 38 0.900000 0.793000 0.715000 600 43 1.000000 0.051000 0.051000 1.200000 0.038000 0.045000
1517196055154410465	900 40 1.000000 0.244000 0.256000 500 38 0.900000 0.662000 0.599000 600 43 1.000000 0.051000 0.051000 1.200000 0.034000 0.041000
1517196055684605382	900 40 1.000000 0.245000 0.257000 500 38 0.900000 0.771000 0.695000 600 43 1.000000 0.051000 0.051000 1.200000 0.036000 0.043000
1517196056196198091	900 40 1.000000 0.178000 0.187000 500 38 0.900000 0.614000 0.556000 600 43 1.000000 0.051000 0.051000 1.200000 0.044000 0.053000
1517196056766592799	900 40 1.000000 0.239000 0.251000 500 38 0.900000 0.727000 0.656000 600 43 1.000000 0.051000 0.051000 1.200000 0.038000 0.045000
1517196057333882674	900 40 1.000000 0.157000 0.165000 500 38 0.900000 0.463000 0.420000 600 43 1.000000 0.051000 0.051000 1.200000 0.045000 0.054000
1517196057878858966	900 40 1.000000 0.254000 0.266000 500 38 0.900000 0.706000 0.637000 600 43 1.000000 0.051000 0.051000 1.200000 0.037000 0.044000
1517196058446175716	900 40 1.000000 0.185000 0.195000 500 38 0.900000 0.451000 0.409000 600 43 1.000000 0.051000 0.051000 1.200000 0.045000 0.054000
1517196058968291383	900 40 1.000000 0.242000 0.254000 500 38 0.900000 0.712000 0.642000 600 43 1.000000 0.051000 0.051000 1.200000 0.037000 0.044000
1517196059533920966	900 40 1.000000 0.165000 0.174000 500 38 0.900000 0.428000 0.388000 600 43 1.000000 0.051000 0.051000 1.200000 0.043000 0.051000
1517196060059527758	900 40 1.000000 0.246000 0.258000 500 38 0.900000 0.758000 0.684000 600 43 1.000000 0.051000 0.051000 1.200000 0.037000 0.044000
1517196060642163883	900 40 1.000000 0.170000 0.179000 500 38 0.900000 0.431000 0.391000 600 43 1.000000 0.051000 0.051000 1.200000 0.044000 0.053000
1517196061161181549	900 40 1.000000 0.246000 0.258000 500 39 0.900000 0.777000 0.700000 600 44 1.000000 0.051000 0.051000 1.200000 0.037000 0.044000
1517196061726508925	900 40 1.000000 0.167000 0.176000 500 38 0.900000 0.459000 0.416000 600 43 1.000000 0.051000 0.051000 1.200000 0.041000 0.049000
1517196062263924675	900 40 1.000000 0.256000 0.269000 500 39 0.900000 0.749000 0.676000 600 43 1.000000 0.051000 0.051000 1.200000 0.035000 0.042000
1517196062830281008	900 40 1.000000 0.180000 0.190000 500 38 0.900000 0.704000 0.637000 600 43 1.000000 0.051000 0.051000 1.200000 0.042000 0.050000
1517196063398090591	900 40 1.000000 0.229000 0.241000 500 38 0.900000 0.745000 0.671000 600 43 1.000000 0.051000 0.051000 1.200000 0.035000 0.042000
1517196063962152925	900 40 1.000000 0.133000 0.140000 500 38 0.900000 0.468000 0.424000 600 43 1.000000 0.051000 0.051000 1.200000 0.043000 0.051000
1517196064517916925	900 40 1.000000 0.246000 0.258000 500 38 0.900000 0.723000 0.652000 600 44 1.000000 0.051000 0.051000 1.200000 0.036000 0.043000
1517196065070185883	900 40 1.000000 0.226000 0.237000 500 38 0.900000 0.427000 0.387000 600 43 1.000000 0.051000 0.051000 1.200000 0.045000 0.054000
1517196065634036467	900 40 1.000000 0.264000 0.277000 500 38 0.900000 0.748000 0.675000 600 43 1.000000 0.051000 0.051000 1.200000 0.035000 0.042000
1517196066202119550	900 40 1.000000 0.225000 0.237000 500 38 0.900000 0.449000 0.407000 600 43 1.000000 0.051000 0.051000 1.200000 0.045000 0.054000
1517196066769872425	900 40 1.000000 0.256000 0.268000 500 38 0.900000 0.752000 0.679000 600 43 1.000000 0.051000 0.051000 1.200000 0.035000 0.042000
1517196067338192175	900 40 1.000000 0.113000 0.120000 500 38 0.900000 0.651000 0.589000 600 43 1.000000 0.051000 0.051000 1.200000 0.039000 0.047000
1517196067902071050	900 40 1.000000 0.236000 0.248000 500 39 0.900000 0.780000 0.703000 600 44 1.000000 0.051000 0.051000 1.200000 0.040000 0.048000
1517196068458018175	900 40 1.000000 0.109000 0.115000 500 38 0.900000 0.576000 0.521000 600 43 1.000000 0.051000 0.051000 1.200000 0.038000 0.045000
1517196069005368300	900 40 1.000000 0.243000 0.255000 500 38 0.900000 0.774000 0.698000 600 44 1.000000 0.051000 0.051000 1.200000 0.038000 0.045000
1517196069570093550	900 40 1.000000 0.109000 0.115000 500 38 0.900000 0.530000 0.480000 600 43 1.000000 0.051000 0.051000 1.200000 0.037000 0.044000
1517196070103438592	900 41 1.000000 0.252000 0.265000 500 39 0.900000 0.744000 0.671000 600 43 1.000000 0.051000 0.051000 1.200000 0.037000 0.044000
1517196070677927676	900 40 1.000000 0.098000 0.104000 500 38 0.900000 0.445000 0.404000 600 43 1.000000 0.051000 0.051000 1.200000 0.036000 0.043000
1517196071233322592	900 40 1.000000 0.236000 0.248000 500 39 0.900000 0.684000 0.617000 600 43 1.000000 0.051000 0.051000 1.200000 0.039000 0.047000
1517196071801934884	900 40 1.000000 0.138000 0.146000 500 38 0.900000 0.737000 0.670000 600 43 1.000000 0.051000 0.051000 1.200000 0.048000 0.057000
1517196072358314676	900 40 1.000000 0.254000 0.266000 500 38 0.900000 0.746000 0.673000 600 43 1.000000 0.051000 0.051000 1.200000 0.038000 0.045000
1517196072934521301	900 40 1.000000 0.116000 0.123000 500 38 0.900000 0.537000 0.486000 600 43 1.000000 0.051000 0.051000 1.200000 0.041000 0.049000
1517196073451958968	900 40 1.000000 0.193000 0.204000 500 38 0.900000 0.671000 0.607000 600 44 1.000000 0.051000 0.051000 1.200000 0.039000 0.047000
1517196073998227176	900 40 1.000000 0.179000 0.189000 500 38 0.900000 0.787000 0.710000 600 43 1.000000 0.051000 0.051000 1.200000 0.036000 0.043000
1517196074531431176	900 40 1.000000 0.246000 0.258000 500 38 0.900000 0.772000 0.697000 600 43 1.000000 0.051000 0.051000 1.200000 0.039000 0.047000
1517196075106116551	900 40 1.000000 0.188000 0.198000 500 38 0.900000 0.761000 0.686000 600 43 1.000000 0.051000 0.051000 1.200000 0.038000 0.045000
1517196075619301926	900 41 1.000000 0.245000 0.257000 500 39 0.900000 0.768000 0.693000 600 44 1.000000 0.051000 0.051000 1.200000 0.042000 0.050000
1517196076190148093	900 40 1.000000 0.181000 0.191000 500 38 0.900000 0.761000 0.687000 600 43 1.000000 0.051000 0.051000 1.200000 0.039000 0.047000
1517196076724001468	900 41 1.000000 0.242000 0.254000 500 38 0.900000 0.756000 0.682000 600 44 1.000000 0.051000 0.051000 1.200000 0.043000 0.051000
1517196077298042593	900 40 1.000000 0.178000 0.187000 500 38 0.900000 0.730000 0.659000 600 43 1.000000 0.051000 0.051000 1.200000 0.037000 0.044000
1517196077815113593	900 41 1.000000 0.230000 0.241000 500 39 0.900000 0.720000 0.650000 600 44 1.000000 0.051000 0.051000 1.200000 0.038000 0.045000
1517196078366282510	900 40 1.000000 0.167000 0.176000 500 38 0.900000 0.565000 0.511000 600 43 1.000000 0.051000 0.051000 1.200000 0.036000 0.043000
1517196078905375593	900 40 1.000000 0.244000 0.256000 500 39 0.900000 0.757000 0.683000 600 44 1.000000 0.051000 0.051000 1.200000 0.037000 0.044000
1517196079458199468	900 40 1.000000 0.163000 0.172000 500 38 0.900000 0.612000 0.554000 600 43 1.000000 0.051000 0.051000 1.200000 0.038000 0.045000
1517196079996847177	900 40 1.000000 0.233000 0.244000 500 38 0.900000 0.755000 0.681000 600 44 1.000000 0.051000 0.051000 1.200000 0.038000 0.045000
1517196080550167677	900 40 1.000000 0.162000 0.171000 500 38 0.900000 0.675000 0.610000 600 43 1.000000 0.051000 0.051000 1.200000 0.037000 0.044000
1517196081086252552	900 40 1.000000 0.244000 0.256000 500 39 0.900000 0.788000 0.710000 600 44 1.000000 0.051000 0.051000 1.200000 0.038000 0.045000
1517196081650290510	900 40 1.000000 0.165000 0.174000 500 38 0.900000 0.723000 0.652000 600 43 1.000000 0.051000 0.051000 1.200000 0.037000 0.044000
1517196082190361427	900 41 1.000000 0.239000 0.251000 500 39 0.900000 0.785000 0.708000 600 44 1.000000 0.051000 0.051000 1.200000 0.039000 0.047000
1517196082746123719	900 40 1.000000 0.162000 0.171000 500 38 0.900000 0.798000 0.719000 600 43 1.000000 0.051000 0.051000 1.200000 0.037000 0.044000
1517196083257450760	900 40 1.000000 0.242000 0.254000 500 38 0.900000 0.749000 0.676000 600 43 1.000000 0.051000 0.051000 1.200000 0.039000 0.047000
1517196083783269927	900 39 1.000000 0.198000 0.209000 500 38 0.900000 0.712000 0.642000 600 42 1.000000 0.051000 0.051000 1.200000 0.036000 0.043000
1517196084348641177	900 40 1.000000 0.144000 0.152000 500 38 0.900000 0.604000 0.547000 600 43 1.000000 0.051000 0.051000 1.200000 0.048000 0.057000
1517196084861311511	900 39 1.000000 0.231000 0.243000 500 38 0.900000 0.771000 0.696000 600 42 1.000000 0.051000 0.051000 1.200000 0.039000 0.047000
1517196085434159511	900 39 1.000000 0.105000 0.111000 500 38 0.900000 0.481000 0.436000 600 44 1.000000 0.051000 0.051000 1.200000 0.045000 0.054000
1517196085947423261	900 39 1.000000 0.203000 0.214000 500 38 0.900000 0.710000 0.641000 600 43 1.000000 0.051000 0.051000 1.200000 0.037000 0.044000
1517196086490260427	900 40 1.000000 0.089000 0.094000 500 38 0.900000 0.421000 0.382000 600 43 1.000000 0.051000 0.051000 1.200000 0.040000 0.048000
1517196087003669261	900 40 1.000000 0.231000 0.243000 500 38 0.900000 0.735000 0.663000 600 43 1.000000 0.051000 0.051000 1.200000 0.039000 0.047000
1517196087526420469	900 40 1.000000 0.119000 0.126000 500 38 0.900000 0.471000 0.427000 600 43 1.000000 0.051000 0.051000 1.200000 0.038000 0.045000
1517196088040067094	900 39 1.000000 0.244000 0.256000 500 38 0.900000 0.800000 0.721000 600 43 1.000000 0.051000 0.051000 1.200000 0.038000 0.045000
1517196088610062303	900 40 1.000000 0.101000 0.107000 500 38 0.900000 0.474000 0.429000 600 43 1.000000 0.051000 0.051000 1.200000 0.041000 0.049000
1517196089124319386	900 40 1.000000 0.245000 0.257000 500 38 0.900000 0.739000 0.667000 600 43 1.000000 0.051000 0.051000 1.200000 0.037000 0.044000
1517196089659232428	900 40 1.000000 0.104000 0.110000 500 38 0.900000 0.521000 0.472000 600 43 1.000000 0.051000 0.051000 1.200000 0.039000 0.047000
1517196090172249678	900 39 1.000000 0.241000 0.253000 500 38 0.900000 0.759000 0.685000 600 43 1.000000 0.051000 0.051000 1.200000 0.038000 0.045000
1517196090684610970	900 40 1.000000 0.169000 0.178000 500 38 0.900000 0.431000 0.390000 600 43 1.000000 0.051000 0.051000 1.200000 0.040000 0.048000
1517196091196739470	900 39 1.000000 0.235000 0.247000 500 38 0.900000 0.780000 0.704000 600 43 1.000000 0.051000 0.051000 1.200000 0.038000 0.045000
1517196091757668261	900 40 1.000000 0.163000 0.172000 500 38 0.900000 0.229000 0.207000 600 43 1.000000 0.051000 0.051000 1.200000 0.051000 0.061000
1517196092270496678	900 39 1.000000 0.244000 0.256000 500 38 0.900000 0.778000 0.701000 600 43 1.000000 0.051000 0.051000 1.200000 0.037000 0.044000
1517196092782978303	900 40 1.000000 0.127000 0.134000 500 38 0.900000 0.441000 0.400000 600 43 1.000000 0.051000 0.051000 1.200000 0.046000 0.055000
1517196093296236178	900 39 1.000000 0.249000 0.261000 500 38 0.900000 0.738000 0.666000 600 43 1.000000 0.051000 0.051000 1.200000 0.037000 0.044000
1517196093865953512	900 40 1.000000 0.120000 0.127000 500 38 0.900000 0.479000 0.434000 600 43 1.000000 0.051000 0.051000 1.200000 0.043000 0.051000
1517196094379336803	900 40 1.000000 0.238000 0.250000 500 38 0.900000 0.735000 0.663000 600 42 1.000000 0.051000 0.051000 1.200000 0.040000 0.048000
1517196094950802179	900 40 1.000000 0.160000 0.169000 500 38 0.900000 0.519000 0.470000 600 43 1.000000 0.051000 0.051000 1.200000 0.045000 0.054000
1517196095464038179	900 40 1.000000 0.252000 0.264000 500 38 0.900000 0.727000 0.656000 600 42 1.000000 0.051000 0.051000 1.200000 0.037000 0.044000
1517196095979100637	900 40 1.000000 0.213000 0.224000 500 38 0.900000 0.527000 0.477000 600 43 1.000000 0.051000 0.051000 1.200000 0.045000 0.054000
1517196096502973220	900 40 1.000000 0.229000 0.241000 500 38 0.900000 0.731000 0.660000 600 42 1.000000 0.051000 0.051000 1.200000 0.037000 0.044000
1517196097066291220	900 40 1.000000 0.149000 0.157000 500 38 0.900000 0.470000 0.426000 600 43 1.000000 0.051000 0.051000 1.200000 0.044000 0.053000
1517196097579498720	900 40 1.000000 0.241000 0.253000 500 38 0.900000 0.718000 0.648000 600 42 1.000000 0.051000 0.051000 1.200000 0.040000 0.048000
1517196098091925387	900 40 1.000000 0.145000 0.153000 500 38 0.900000 0.458000 0.415000 600 43 1.000000 0.051000 0.051000 1.200000 0.046000 0.055000
1517196098604805887	900 40 1.000000 0.241000 0.253000 500 38 0.900000 0.682000 0.615000 600 43 1.000000 0.051000 0.051000 1.200000 0.039000 0.047000
1517196099115556429	900 40 1.000000 0.170000 0.180000 500 38 0.900000 0.254000 0.231000 600 43 1.000000 0.051000 0.051000 1.200000 0.048000 0.057000
1517196099626794346	900 40 1.000000 0.249000 0.261000 500 38 0.900000 0.728000 0.658000 600 43 1.000000 0.051000 0.051000 1.200000 0.040000 0.048000
1517196100138136679	900 39 1.000000 0.212000 0.223000 500 38 0.900000 0.594000 0.537000 600 42 1.000000 0.051000 0.051000 1.200000 0.040000 0.048000
1517196100655933554	900 40 1.000000 0.239000 0.251000 500 38 0.900000 0.735000 0.663000 600 43 1.000000 0.051000 0.051000 1.200000 0.038000 0.045000
1517196101168826179	900 40 1.000000 0.224000 0.236000 500 38 0.900000 0.719000 0.649000 600 42 1.000000 0.051000 0.051000 1.200000 0.037000 0.044000
1517196101729896304	900 40 1.000000 0.236000 0.248000 500 38 0.900000 0.746000 0.675000 600 43 1.000000 0.051000 0.051000 1.200000 0.042000 0.050000
1517196102243055513	900 40 1.000000 0.244000 0.256000 500 38 0.900000 0.736000 0.664000 600 43 1.000000 0.051000 0.051000 1.200000 0.037000 0.044000
1517196102755452721	900 40 1.000000 0.240000 0.254000 500 38 0.900000 0.661000 0.598000 600 43 1.000000 0.051000 0.051000 1.200000 0.043000 0.051000
1517196103268192888	900 40 1.000000 0.236000 0.248000 500 39 0.900000 0.798000 0.719000 600 43 1.000000 0.051000 0.051000 1.200000 0.035000 0.042000
1517196103841665388	900 40 1.000000 0.130000 0.137000 500 38 0.900000 0.597000 0.540000 600 43 1.000000 0.051000 0.051000 1.200000 0.045000 0.054000
1517196104353932138	900 40 1.000000 0.246000 0.258000 500 38 0.900000 0.772000 0.697000 600 44 1.000000 0.051000 0.051000 1.200000 0.036000 0.043000
1517196104917981805	900 40 1.000000 0.132000 0.139000 500 38 0.900000 0.496000 0.449000 600 43 1.000000 0.051000 0.051000 1.200000 0.043000 0.051000
1517196105457350013	900 40 1.000000 0.238000 0.250000 500 38 0.900000 0.752000 0.679000 600 44 1.000000 0.051000 0.051000 1.200000 0.036000 0.043000
1517196106021988846	900 40 1.000000 0.145000 0.153000 500 38 0.900000 0.405000 0.367000 600 43 1.000000 0.051000 0.051000 1.200000 0.043000 0.051000
1517196106560674513	900 40 1.000000 0.247000 0.259000 500 39 0.900000 0.740000 0.668000 600 44 1.000000 0.051000 0.051000 1.200000 0.038000 0.045000
1517196107130314722	900 40 1.000000 0.142000 0.150000 500 38 0.900000 0.429000 0.389000 600 43 1.000000 0.051000 0.051000 1.200000 0.041000 0.049000
1517196107670814680	900 40 1.000000 0.244000 0.256000 500 38 0.900000 0.712000 0.642000 600 44 1.000000 0.051000 0.051000 1.200000 0.039000 0.047000
1517196108222301388	900 40 1.000000 0.228000 0.239000 500 38 0.900000 0.752000 0.680000 600 43 1.000000 0.051000 0.051000 1.200000 0.040000 0.048000
1517196108762816930	900 40 1.000000 0.240000 0.252000 500 38 0.900000 0.721000 0.651000 600 44 1.000000 0.051000 0.051000 1.200000 0.040000 0.048000
1517196109325774555	900 40 1.000000 0.145000 0.153000 500 38 0.900000 0.697000 0.630000 600 43 1.000000 0.051000 0.051000 1.200000 0.039000 0.047000
1517196109885905889	900 40 1.000000 0.230000 0.242000 500 38 0.900000 0.777000 0.703000 600 44 1.000000 0.051000 0.051000 1.200000 0.040000 0.048000
1517196110398487972	900 40 1.000000 0.177000 0.186000 500 38 0.900000 0.713000 0.643000 600 43 1.000000 0.051000 0.051000 1.200000 0.038000 0.045000
1517196110911316972	900 40 1.000000 0.244000 0.256000 500 38 0.900000 0.769000 0.694000 600 44 1.000000 0.051000 0.051000 1.200000 0.040000 0.048000
1517196111474195930	900 40 1.000000 0.205000 0.215000 500 38 0.900000 0.790000 0.712000 600 43 1.000000 0.051000 0.051000 1.200000 0.039000 0.047000
1517196112021603764	900 40 1.000000 0.261000 0.274000 500 39 0.900000 0.756000 0.682000 600 44 1.000000 0.051000 0.051000 1.200000 0.043000 0.051000
1517196112586213139	900 40 1.000000 0.232000 0.244000 500 38 0.900000 0.732000 0.660000 600 43 1.000000 0.051000 0.051000 1.200000 0.039000 0.047000
1517196113150070806	900 40 1.000000 0.254000 0.266000 500 38 0.900000 0.765000 0.690000 600 43 1.000000 0.051000 0.051000 1.200000 0.044000 0.053000
1517196113678379347	900 39 1.000000 0.252000 0.264000 500 38 0.900000 0.743000 0.670000 600 43 1.000000 0.051000 0.051000 1.200000 0.038000 0.045000
1517196114202157056	900 40 1.000000 0.240000 0.252000 500 38 0.900000 0.439000 0.398000 600 43 1.000000 0.051000 0.051000 1.200000 0.051000 0.061000
1517196114714351431	900 39 1.000000 0.237000 0.249000 500 38 0.900000 0.657000 0.594000 600 42 1.000000 0.051000 0.051000 1.200000 0.039000 0.047000
1517196115278339098	900 40 1.000000 0.214000 0.225000 500 38 0.900000 0.252000 0.229000 600 43 1.000000 0.051000 0.051000 1.200000 0.049000 0.059000
1517196115791281223	900 40 1.000000 0.232000 0.243000 500 38 0.900000 0.720000 0.650000 600 42 1.000000 0.051000 0.051000 1.200000 0.037000 0.044000
1517196116303729348	900 40 1.000000 0.168000 0.177000 500 38 0.900000 0.575000 0.520000 600 43 1.000000 0.051000 0.051000 1.200000 0.041000 0.049000
1517196116816039014	900 40 1.000000 0.240000 0.252000 500 39 0.900000 0.740000 0.668000 600 43 1.000000 0.051000 0.051000 1.200000 0.038000 0.045000
1517196117390295140	900 40 1.000000 0.172000 0.181000 500 38 0.900000 0.628000 0.568000 600 43 1.000000 0.051000 0.051000 1.200000 0.041000 0.049000
1517196117930149223	900 40 1.000000 0.261000 0.274000 500 38 0.900000 0.747000 0.674000 600 44 1.000000 0.051000 0.051000 1.200000 0.039000 0.047000
1517196118498141515	900 40 1.000000 0.159000 0.168000 500 38 0.900000 0.411000 0.373000 600 43 1.000000 0.051000 0.051000 1.200000 0.043000 0.051000
1517196119039809556	900 40 1.000000 0.259000 0.271000 500 39 0.900000 0.754000 0.680000 600 44 1.000000 0.051000 0.051000 1.200000 0.040000 0.048000
1517196119552052390	900 40 1.000000 0.129000 0.136000 500 38 0.900000 0.427000 0.387000 600 43 1.000000 0.051000 0.051000 1.200000 0.042000 0.050000
1517196120064437556	900 40 1.000000 0.246000 0.258000 500 38 0.900000 0.723000 0.652000 600 43 1.000000 0.051000 0.051000 1.200000 0.038000 0.045000
1517196120637906057	900 40 1.000000 0.127000 0.134000 500 38 0.900000 0.473000 0.428000 600 43 1.000000 0.051000 0.051000 1.200000 0.042000 0.050000
1517196121150295723	900 40 1.000000 0.163000 0.173000 500 38 0.900000 0.769000 0.694000 600 43 1.000000 0.051000 0.051000 1.200000 0.040000 0.048000
1517196121667078765	900 39 1.000000 0.193000 0.204000 500 38 0.900000 0.732000 0.660000 600 43 1.000000 0.051000 0.051000 1.200000 0.040000 0.048000
1517196122221923265	900 40 1.000000 0.203000 0.214000 500 38 0.900000 0.743000 0.672000 600 43 1.000000 0.051000 0.051000 1.200000 0.042000 0.050000
1517196122734970640	900 40 1.000000 0.246000 0.259000 500 38 0.900000 0.694000 0.628000 600 42 1.000000 0.051000 0.051000 1.200000 0.038000 0.045000
1517196123282047515	900 39 1.000000 0.157000 0.166000 500 38 0.900000 0.634000 0.574000 600 43 1.000000 0.051000 0.051000 1.200000 0.043000 0.051000
1517196123795262682	900 39 1.000000 0.254000 0.266000 500 38 0.900000 0.779000 0.703000 600 42 1.000000 0.051000 0.051000 1.200000 0.038000 0.045000
1517196124307847307	900 40 1.000000 0.176000 0.186000 500 38 0.900000 0.626000 0.567000 600 43 1.000000 0.051000 0.051000 1.200000 0.046000 0.055000
1517196124820882349	900 40 1.000000 0.262000 0.275000 500 38 0.900000 0.794000 0.716000 600 43 1.000000 0.051000 0.051000 1.200000 0.038000 0.045000
1517196125393794015	900 40 1.000000 0.185000 0.195000 500 38 0.900000 0.537000 0.487000 600 43 1.000000 0.051000 0.051000 1.200000 0.046000 0.055000
1517196125906298266	900 40 1.000000 0.253000 0.265000 500 38 0.900000 0.722000 0.651000 600 44 1.000000 0.051000 0.051000 1.200000 0.038000 0.045000
1517196126467178474	900 40 1.000000 0.188000 0.198000 500 38 0.900000 0.450000 0.408000 600 43 1.000000 0.051000 0.051000 1.200000 0.045000 0.054000
1517196126980388932	900 39 1.000000 0.240000 0.252000 500 38 0.900000 0.738000 0.666000 600 44 1.000000 0.051000 0.051000 1.200000 0.038000 0.045000
1517196127494408057	900 40 1.000000 0.238000 0.251000 500 38 0.900000 0.509000 0.461000 600 43 1.000000 0.051000 0.051000 1.200000 0.042000 0.050000
1517196128005856349	900 40 1.000000 0.205000 0.217000 500 38 0.900000 0.672000 0.606000 600 44 1.000000 0.051000 0.051000 1.200000 0.038000 0.045000
1517196128570755808	900 40 1.000000 0.104000 0.110000 500 38 0.900000 0.275000 0.249000 600 43 1.000000 0.051000 0.051000 1.200000 0.046000 0.055000
1517196129082545224	900 40 1.000000 0.207000 0.219000 500 38 0.900000 0.688000 0.621000 600 43 1.000000 0.051000 0.051000 1.200000 0.037000 0.044000
1517196129607436099	900 39 1.000000 0.178000 0.188000 500 38 0.900000 0.755000 0.681000 600 43 1.000000 0.051000 0.051000 1.200000 0.037000 0.044000
1517196130166109599	900 40 1.000000 0.250000 0.263000 500 38 0.900000 0.778000 0.701000 600 43 1.000000 0.051000 0.051000 1.200000 0.039000 0.047000
1517196130710202766	900 40 1.000000 0.226000 0.237000 500 38 0.900000 0.653000 0.590000 600 43 1.000000 0.051000 0.051000 1.200000 0.037000 0.044000
1517196131228335308	900 40 1.000000 0.243000 0.255000 500 38 0.900000 0.757000 0.683000 600 43 1.000000 0.051000 0.051000 1.200000 0.039000 0.047000
1517196131764557766	900 40 1.000000 0.137000 0.145000 500 38 0.900000 0.502000 0.455000 600 43 1.000000 0.051000 0.051000 1.200000 0.039000 0.047000
1517196132326018183	900 40 1.000000 0.262000 0.275000 500 38 0.900000 0.769000 0.694000 600 43 1.000000 0.051000 0.051000 1.200000 0.039000 0.047000
1517196132890404558	900 40 1.000000 0.117000 0.124000 500 38 0.900000 0.440000 0.399000 600 43 1.000000 0.051000 0.051000 1.200000 0.041000 0.049000
1517196133403519933	900 40 1.000000 0.247000 0.259000 500 38 0.900000 0.738000 0.666000 600 43 1.000000 0.051000 0.051000 1.200000 0.040000 0.048000
1517196133932476308	900 40 1.000000 0.165000 0.174000 500 38 0.900000 0.415000 0.376000 600 43 1.000000 0.051000 0.051000 1.200000 0.045000 0.054000
1517196134445811392	900 39 1.000000 0.249000 0.261000 500 38 0.900000 0.741000 0.669000 600 43 1.000000 0.051000 0.051000 1.200000 0.037000 0.044000
1517196134970147600	900 40 1.000000 0.145000 0.153000 500 38 0.900000 0.471000 0.427000 600 44 1.000000 0.051000 0.051000 1.200000 0.045000 0.054000
1517196135483149683	900 39 1.000000 0.236000 0.248000 500 38 0.900000 0.764000 0.689000 600 44 1.000000 0.051000 0.051000 1.200000 0.038000 0.045000
1517196136017293767	900 40 1.000000 0.122000 0.129000 500 38 0.900000 0.545000 0.494000 600 43 1.000000 0.051000 0.051000 1.200000 0.044000 0.053000
1517196136574312808	900 40 1.000000 0.254000 0.266000 500 38 0.900000 0.697000 0.629000 600 43 1.000000 0.051000 0.051000 1.200000 0.037000 0.044000
1517196137150001434	900 40 1.000000 0.157000 0.166000 500 38 0.900000 0.440000 0.399000 600 43 1.000000 0.051000 0.051000 1.200000 0.042000 0.050000
1517196137662358809	900 40 1.000000 0.231000 0.243000 500 38 0.900000 0.738000 0.666000 600 44 1.000000 0.051000 0.051000 1.200000 0.039000 0.047000
1517196138226219517	900 40 1.000000 0.183000 0.193000 500 38 0.900000 0.670000 0.606000 600 43 1.000000 0.051000 0.051000 1.200000 0.036000 0.043000
1517196138747239600	900 40 1.000000 0.256000 0.268000 500 38 0.900000 0.779000 0.702000 600 44 1.000000 0.051000 0.051000 1.200000 0.038000 0.045000
1517196139322187809	900 40 1.000000 0.242000 0.254000 500 38 0.900000 0.739000 0.667000 600 43 1.000000 0.051000 0.051000 1.200000 0.038000 0.045000
1517196139849659642	900 40 1.000000 0.238000 0.250000 500 38 0.900000 0.758000 0.684000 600 44 1.000000 0.051000 0.051000 1.200000 0.035000 0.042000
1517196140410194892	900 40 1.000000 0.117000 0.124000 500 38 0.900000 0.431000 0.391000 600 43 1.000000 0.051000 0.051000 1.200000 0.045000 0.054000
1517196140921501517	900 40 1.000000 0.256000 0.269000 500 38 0.900000 0.781000 0.705000 600 43 1.000000 0.051000 0.051000 1.200000 0.037000 0.044000
1517196141433600059	900 39 1.000000 0.132000 0.140000 500 38 0.900000 0.520000 0.471000 600 42 1.000000 0.051000 0.051000 1.200000 0.040000 0.048000
1517196141994195684	900 40 1.000000 0.213000 0.224000 500 38 0.900000 0.787000 0.710000 600 43 1.000000 0.051000 0.051000 1.200000 0.037000 0.044000
1517196142507233518	900 39 1.000000 0.256000 0.269000 500 38 0.900000 0.785000 0.708000 600 43 1.000000 0.051000 0.051000 1.200000 0.036000 0.043000
1517196143032552809	900 40 1.000000 0.185000 0.195000 500 38 0.900000 0.748000 0.675000 600 43 1.000000 0.051000 0.051000 1.200000 0.039000 0.047000
1517196143558862809	900 40 1.000000 0.255000 0.267000 500 38 0.900000 0.711000 0.642000 600 43 1.000000 0.051000 0.051000 1.200000 0.038000 0.045000
1517196144071163018	900 40 1.000000 0.135000 0.143000 500 38 0.900000 0.555000 0.502000 600 43 1.000000 0.051000 0.051000 1.200000 0.048000 0.057000
1517196144591053768	900 40 1.000000 0.236000 0.248000 500 38 0.900000 0.735000 0.663000 600 43 1.000000 0.051000 0.051000 1.200000 0.038000 0.045000
1517196145113957809	900 39 1.000000 0.134000 0.142000 500 38 0.900000 0.252000 0.229000 600 43 1.000000 0.051000 0.051000 1.200000 0.050000 0.060000
1517196145690071310	900 40 1.000000 0.107000 0.113000 500 38 0.900000 0.743000 0.670000 600 43 1.000000 0.051000 0.051000 1.200000 0.033000 0.039000
1517196146202234560	900 39 1.000000 0.178000 0.188000 500 38 0.900000 0.717000 0.648000 600 42 1.000000 0.051000 0.051000 1.200000 0.033000 0.039000
1517196146718369976	900 40 1.000000 0.220000 0.233000 500 38 0.900000 0.652000 0.590000 600 43 1.000000 0.051000 0.051000 1.200000 0.042000 0.050000
1517196147262143476	900 40 1.000000 0.224000 0.236000 500 38 0.900000 0.744000 0.671000 600 43 1.000000 0.051000 0.051000 1.200000 0.037000 0.044000
1517196147810147518	900 40 1.000000 0.138000 0.146000 500 38 0.900000 0.685000 0.620000 600 43 1.000000 0.051000 0.051000 1.200000 0.036000 0.043000
1517196148385988935	900 40 1.000000 0.246000 0.258000 500 38 0.900000 0.743000 0.670000 600 44 1.000000 0.051000 0.051000 1.200000 0.039000 0.047000
1517196148909747852	900 40 1.000000 0.145000 0.153000 500 38 0.900000 0.618000 0.559000 600 43 1.000000 0.051000 0.051000 1.200000 0.038000 0.045000
1517196149421234018	900 40 1.000000 0.237000 0.249000 500 38 0.900000 0.784000 0.707000 600 43 1.000000 0.051000 0.051000 1.200000 0.040000 0.048000
1517196149986007935	900 40 1.000000 0.180000 0.190000 500 38 0.900000 0.794000 0.716000 600 43 1.000000 0.051000 0.051000 1.200000 0.034000 0.041000
1517196150541959393	900 40 1.000000 0.255000 0.268000 500 38 0.900000 0.741000 0.669000 600 43 1.000000 0.051000 0.051000 1.200000 0.045000 0.054000
1517196151102096935	900 40 1.000000 0.222000 0.233000 500 38 0.900000 0.738000 0.666000 600 43 1.000000 0.051000 0.051000 1.200000 0.037000 0.044000
1517196151670111519	900 40 1.000000 0.250000 0.262000 500 38 0.900000 0.731000 0.660000 600 43 1.000000 0.051000 0.051000 1.200000 0.045000 0.054000
1517196152234143269	900 40 1.000000 0.233000 0.245000 500 38 0.900000 0.769000 0.694000 600 43 1.000000 0.051000 0.051000 1.200000 0.035000 0.042000
1517196152790178310	900 40 1.000000 0.234000 0.246000 500 38 0.900000 0.699000 0.631000 600 43 1.000000 0.051000 0.051000 1.200000 0.038000 0.045000
1517196153362350102	900 40 1.000000 0.253000 0.265000 500 38 0.900000 0.707000 0.638000 600 43 1.000000 0.051000 0.051000 1.200000 0.036000 0.043000
1517196153919100644	900 40 1.000000 0.258000 0.271000 500 38 0.900000 0.792000 0.715000 600 43 1.000000 0.051000 0.051000 1.200000 0.038000 0.045000
1517196154469966436	900 40 1.000000 0.260000 0.273000 500 38 0.900000 0.780000 0.704000 600 43 1.000000 0.051000 0.051000 1.200000 0.038000 0.045000
1517196155025413811	900 40 1.000000 0.253000 0.266000 500 38 0.900000 0.782000 0.706000 600 43 1.000000 0.051000 0.051000 1.200000 0.041000 0.049000
1517196155598223436	900 40 1.000000 0.263000 0.276000 500 38 0.900000 0.785000 0.708000 600 43 1.000000 0.051000 0.051000 1.200000 0.038000 0.045000
1517196156165758811	900 40 1.000000 0.251000 0.263000 500 38 0.900000 0.723000 0.654000 600 43 1.000000 0.051000 0.051000 1.200000 0.044000 0.053000
1517196156734059144	900 40 1.000000 0.243000 0.255000 500 38 0.900000 0.744000 0.671000 600 43 1.000000 0.051000 0.051000 1.200000 0.038000 0.045000
1517196157279332311	900 40 1.000000 0.254000 0.266000 500 38 0.900000 0.713000 0.643000 600 44 1.000000 0.051000 0.051000 1.200000 0.036000 0.043000
1517196157842420353	900 40 1.000000 0.115000 0.122000 500 38 0.900000 0.603000 0.546000 600 43 1.000000 0.051000 0.051000 1.200000 0.036000 0.043000
1517196158376391311	900 40 1.000000 0.258000 0.271000 500 38 0.900000 0.729000 0.658000 600 43 1.000000 0.051000 0.051000 1.200000 0.037000 0.044000
1517196158942339686	900 40 1.000000 0.123000 0.130000 500 38 0.900000 0.663000 0.600000 600 43 1.000000 0.051000 0.051000 1.200000 0.038000 0.045000
1517196159469403478	900 40 1.000000 0.240000 0.252000 500 38 0.900000 0.791000 0.714000 600 43 1.000000 0.051000 0.051000 1.200000 0.038000 0.045000
1517196160042252186	900 40 1.000000 0.249000 0.261000 500 38 0.900000 0.721000 0.651000 600 43 1.000000 0.051000 0.051000 1.200000 0.038000 0.045000
1517196160553832978	900 40 1.000000 0.243000 0.255000 500 38 0.900000 0.752000 0.679000 600 43 1.000000 0.051000 0.051000 1.200000 0.040000 0.048000
1517196161064330936	900 39 1.000000 0.157000 0.166000 500 38 0.900000 0.756000 0.682000 600 42 1.000000 0.051000 0.051000 1.200000 0.035000 0.042000
1517196161575473270	900 40 1.000000 0.196000 0.207000 500 38 0.900000 0.709000 0.642000 600 43 1.000000 0.051000 0.051000 1.200000 0.049000 0.059000
1517196162088279353	900 40 1.000000 0.127000 0.134000 500 38 0.900000 0.775000 0.699000 600 43 1.000000 0.051000 0.051000 1.200000 0.034000 0.041000
1517196162633227895	900 40 1.000000 0.117000 0.124000 500 38 0.900000 0.401000 0.364000 600 43 1.000000 0.051000 0.051000 1.200000 0.042000 0.050000
1517196163146216978	900 39 1.000000 0.252000 0.264000 500 38 0.900000 0.745000 0.672000 600 43 1.000000 0.051000 0.051000 1.200000 0.038000 0.045000
1517196163698125895	900 40 1.000000 0.148000 0.156000 500 38 0.900000 0.417000 0.378000 600 43 1.000000 0.051000 0.051000 1.200000 0.042000 0.050000
1517196164210986437	900 40 1.000000 0.255000 0.267000 500 38 0.900000 0.728000 0.657000 600 44 1.000000 0.051000 0.051000 1.200000 0.038000 0.045000
1517196164762932895	900 40 1.000000 0.172000 0.181000 500 38 0.900000 0.399000 0.362000 600 43 1.000000 0.051000 0.051000 1.200000 0.043000 0.051000
1517196165275877687	900 40 1.000000 0.256000 0.269000 500 38 0.900000 0.743000 0.670000 600 43 1.000000 0.051000 0.051000 1.200000 0.038000 0.045000
1517196165819283062	900 40 1.000000 0.145000 0.153000 500 38 0.900000 0.410000 0.372000 600 43 1.000000 0.051000 0.051000 1.200000 0.040000 0.048000
1517196166332453562	900 40 1.000000 0.244000 0.256000 500 38 0.900000 0.736000 0.664000 600 43 1.000000 0.051000 0.051000 1.200000 0.037000 0.044000
1517196166857922354	900 40 1.000000 0.129000 0.136000 500 38 0.900000 0.479000 0.434000 600 43 1.000000 0.051000 0.051000 1.200000 0.043000 0.051000
1517196167371026187	900 40 1.000000 0.249000 0.261000 500 38 0.900000 0.749000 0.676000 600 43 1.000000 0.051000 0.051000 1.200000 0.038000 0.045000
1517196167893305479	900 40 1.000000 0.108000 0.114000 500 38 0.900000 0.529000 0.479000 600 43 1.000000 0.051000 0.051000 1.200000 0.046000 0.055000
1517196168406338854	900 39 1.000000 0.235000 0.247000 500 38 0.900000 0.746000 0.672000 600 43 1.000000 0.051000 0.051000 1.200000 0.036000 0.043000
1517196168935052479	900 40 1.000000 0.142000 0.150000 500 38 0.900000 0.584000 0.529000 600 43 1.000000 0.051000 0.051000 1.200000 0.047000 0.056000
1517196169447928896	900 39 1.000000 0.261000 0.274000 500 38 0.900000 0.795000 0.717000 600 43 1.000000 0.051000 0.051000 1.200000 0.036000 0.043000
1517196169973542146	900 40 1.000000 0.175000 0.184000 500 38 0.900000 0.601000 0.544000 600 43 1.000000 0.051000 0.051000 1.200000 0.043000 0.051000
1517196170486451813	900 39 1.000000 0.239000 0.251000 500 38 0.900000 0.778000 0.702000 600 43 1.000000 0.051000 0.051000 1.200000 0.036000 0.043000
1517196170999105979	900 40 1.000000 0.240000 0.252000 500 38 0.900000 0.675000 0.610000 600 43 1.000000 0.051000 0.051000 1.200000 0.044000 0.053000
1517196171512222063	900 39 1.000000 0.247000 0.259000 500 38 0.900000 0.736000 0.664000 600 43 1.000000 0.051000 0.051000 1.200000 0.037000 0.044000
1517196172024709521	900 40 1.000000 0.107000 0.113000 500 38 0.900000 0.726000 0.657000 600 43 1.000000 0.051000 0.051000 1.200000 0.042000 0.050000
1517196172537608896	900 40 1.000000 0.239000 0.251000 500 38 0.900000 0.756000 0.682000 600 43 1.000000 0.051000 0.051000 1.200000 0.036000 0.043000
1517196173054316521	900 40 1.000000 0.166000 0.175000 500 38 0.900000 0.766000 0.691000 600 43 1.000000 0.051000 0.051000 1.200000 0.042000 0.050000
1517196173567646188	900 39 1.000000 0.243000 0.255000 500 38 0.900000 0.735000 0.663000 600 43 1.000000 0.051000 0.051000 1.200000 0.036000 0.043000
1517196174080348688	900 40 1.000000 0.140000 0.148000 500 38 0.900000 0.424000 0.384000 600 43 1.000000 0.051000 0.051000 1.200000 0.044000 0.053000
1517196174593442646	900 40 1.000000 0.244000 0.256000 500 38 0.900000 0.736000 0.664000 600 43 1.000000 0.051000 0.051000 1.200000 0.039000 0.047000
1517196175106623730	900 40 1.000000 0.112000 0.118000 500 38 0.900000 0.456000 0.413000 600 43 1.000000 0.051000 0.051000 1.200000 0.046000 0.055000
1517196175620853063	900 40 1.000000 0.223000 0.235000 500 38 0.900000 0.699000 0.631000 600 43 1.000000 0.051000 0.051000 1.200000 0.038000 0.045000
1517196176158944813	900 40 1.000000 0.109000 0.115000 500 38 0.900000 0.435000 0.394000 600 43 1.000000 0.051000 0.051000 1.200000 0.041000 0.049000
1517196176672116980	900 39 1.000000 0.247000 0.259000 500 38 0.900000 0.759000 0.685000 600 43 1.000000 0.051000 0.051000 1.200000 0.038000 0.045000
1517196177189692355	900 40 1.000000 0.151000 0.160000 500 38 0.900000 0.531000 0.481000 600 43 1.000000 0.051000 0.051000 1.200000 0.046000 0.055000
1517196177702958605	900 40 1.000000 0.264000 0.277000 500 38 0.900000 0.748000 0.675000 600 43 1.000000 0.051000 0.051000 1.200000 0.038000 0.045000
1517196178262225647	900 40 1.000000 0.164000 0.173000 500 38 0.900000 0.500000 0.453000 600 43 1.000000 0.051000 0.051000 1.200000 0.045000 0.054000
1517196178775001313	900 40 1.000000 0.242000 0.254000 500 38 0.900000 0.731000 0.660000 600 43 1.000000 0.051000 0.051000 1.200000 0.036000 0.043000
1517196179347763022	900 40 1.000000 0.175000 0.184000 500 38 0.900000 0.462000 0.419000 600 43 1.000000 0.051000 0.051000 1.200000 0.044000 0.053000
1517196179859916980	900 40 1.000000 0.239000 0.251000 500 38 0.900000 0.758000 0.684000 600 44 1.000000 0.051000 0.051000 1.200000 0.035000 0.042000
1517196180410140647	900 40 1.000000 0.160000 0.169000 500 38 0.900000 0.423000 0.384000 600 43 1.000000 0.051000 0.051000 1.200000 0.045000 0.054000
1517196180941393980	900 40 1.000000 0.240000 0.252000 500 38 0.900000 0.709000 0.640000 600 44 1.000000 0.051000 0.051000 1.200000 0.038000 0.045000
1517196181501870939	900 40 1.000000 0.163000 0.172000 500 38 0.900000 0.433000 0.392000 600 43 1.000000 0.051000 0.051000 1.200000 0.040000 0.048000
1517196182074129439	900 39 1.000000 0.228000 0.240000 500 38 0.900000 0.743000 0.670000 600 44 1.000000 0.051000 0.051000 1.200000 0.038000 0.045000
1517196182587222689	900 40 1.000000 0.112000 0.118000 500 38 0.900000 0.590000 0.534000 600 43 1.000000 0.051000 0.051000 1.200000 0.044000 0.053000
1517196183138113897	900 40 1.000000 0.187000 0.197000 500 38 0.900000 0.713000 0.643000 600 44 1.000000 0.051000 0.051000 1.200000 0.035000 0.042000
1517196183686094731	900 40 1.000000 0.122000 0.129000 500 38 0.900000 0.434000 0.393000 600 43 1.000000 0.051000 0.051000 1.200000 0.042000 0.050000
1517196184250144147	900 40 1.000000 0.259000 0.272000 500 38 0.900000 0.742000 0.670000 600 43 1.000000 0.051000 0.051000 1.200000 0.035000 0.042000
1517196184814236564	900 40 1.000000 0.246000 0.258000 500 38 0.900000 0.437000 0.396000 600 43 1.000000 0.051000 0.051000 1.200000 0.039000 0.047000
1517196185377807481	900 40 1.000000 0.235000 0.247000 500 38 0.900000 0.743000 0.670000 600 43 1.000000 0.051000 0.051000 1.200000 0.036000 0.043000
1517196185893014689	900 39 1.000000 0.232000 0.244000 500 38 0.900000 0.702000 0.635000 600 42 1.000000 0.051000 0.051000 1.200000 0.040000 0.048000
1517196186437663773	900 40 1.000000 0.176000 0.186000 500 38 0.900000 0.487000 0.441000 600 43 1.000000 0.051000 0.051000 1.200000 0.033000 0.039000
1517196186950708981	900 39 1.000000 0.262000 0.275000 500 38 0.900000 0.747000 0.674000 600 42 1.000000 0.051000 0.051000 1.200000 0.035000 0.042000
1517196187513962148	900 40 1.000000 0.153000 0.161000 500 38 0.900000 0.409000 0.371000 600 43 1.000000 0.051000 0.051000 1.200000 0.039000 0.047000
1517196188027000190	900 40 1.000000 0.238000 0.249000 500 38 0.900000 0.789000 0.712000 600 42 1.000000 0.051000 0.051000 1.200000 0.036000 0.043000
1517196188585847648	900 40 1.000000 0.146000 0.154000 500 38 0.900000 0.456000 0.413000 600 43 1.000000 0.051000 0.051000 1.200000 0.041000 0.049000
1517196189099488398	900 39 1.000000 0.235000 0.246000 500 38 0.900000 0.775000 0.699000 600 43 1.000000 0.051000 0.051000 1.200000 0.037000 0.044000
1517196189614412856	900 40 1.000000 0.123000 0.130000 500 38 0.900000 0.541000 0.490000 600 43 1.000000 0.051000 0.051000 1.200000 0.040000 0.048000
1517196190125115898	900 40 1.000000 0.230000 0.242000 500 38 0.900000 0.760000 0.686000 600 44 1.000000 0.051000 0.051000 1.200000 0.034000 0.041000
1517196190690110440	900 40 1.000000 0.160000 0.169000 500 38 0.900000 0.790000 0.713000 600 43 1.000000 0.051000 0.051000 1.200000 0.035000 0.042000
1517196191201460857	900 40 1.000000 0.218000 0.229000 500 38 0.900000 0.734000 0.664000 600 43 1.000000 0.051000 0.051000 1.200000 0.044000 0.053000
1517196191713641607	900 39 1.000000 0.107000 0.113000 500 38 0.900000 0.732000 0.660000 600 42 1.000000 0.051000 0.051000 1.200000 0.034000 0.041000
1517196192226234398	900 39 1.000000 0.165000 0.175000 500 38 0.900000 0.334000 0.303000 600 43 1.000000 0.051000 0.051000 1.200000 0.043000 0.051000
1517196192739144523	900 40 1.000000 0.180000 0.190000 500 38 0.900000 0.786000 0.709000 600 43 1.000000 0.051000 0.051000 1.200000 0.034000 0.041000
1517196193323783815	900 40 1.000000 0.249000 0.262000 500 38 0.900000 0.780000 0.704000 600 43 1.000000 0.051000 0.051000 1.200000 0.036000 0.043000
1517196193836229274	900 40 1.000000 0.256000 0.269000 500 38 0.900000 0.766000 0.691000 600 43 1.000000 0.051000 0.051000 1.200000 0.041000 0.049000
1517196194402155857	900 40 1.000000 0.241000 0.253000 500 38 0.900000 0.761000 0.687000 600 43 1.000000 0.051000 0.051000 1.200000 0.036000 0.043000
1517196194950449690	900 40 1.000000 0.248000 0.260000 500 38 0.900000 0.746000 0.675000 600 43 1.000000 0.051000 0.051000 1.200000 0.043000 0.051000
1517196195506247857	900 40 1.000000 0.262000 0.275000 500 38 0.900000 0.740000 0.668000 600 43 1.000000 0.051000 0.051000 1.200000 0.037000 0.044000
1517196196024030566	900 39 1.000000 0.156000 0.165000 500 38 0.900000 0.676000 0.610000 600 43 1.000000 0.051000 0.051000 1.200000 0.034000 0.041000
1517196196545819941	900 39 1.000000 0.140000 0.148000 500 38 0.900000 0.749000 0.676000 600 42 1.000000 0.051000 0.051000 1.200000 0.035000 0.042000
1517196197070291316	900 40 1.000000 0.232000 0.245000 500 38 0.900000 0.752000 0.680000 600 43 1.000000 0.051000 0.051000 1.200000 0.046000 0.055000
1517196197582832066	900 40 1.000000 0.232000 0.245000 500 39 0.900000 0.773000 0.697000 600 43 1.000000 0.051000 0.051000 1.200000 0.037000 0.044000
1517196198103426691	900 40 1.000000 0.244000 0.256000 500 38 0.900000 0.607000 0.549000 600 43 1.000000 0.051000 0.051000 1.200000 0.038000 0.045000
1517196198614890274	900 40 1.000000 0.237000 0.250000 500 38 0.900000 0.666000 0.603000 600 43 1.000000 0.051000 0.051000 1.200000 0.038000 0.045000
1517196199178240316	900 40 1.000000 0.162000 0.171000 500 38 0.900000 0.796000 0.718000 600 43 1.000000 0.051000 0.051000 1.200000 0.036000 0.043000
1517196199735614191	900 40 1.000000 0.244000 0.256000 500 38 0.900000 0.712000 0.644000 600 43 1.000000 0.051000 0.051000 1.200000 0.043000 0.051000
1517196200294249441	900 40 1.000000 0.130000 0.137000 500 38 0.900000 0.519000 0.470000 600 43 1.000000 0.051000 0.051000 1.200000 0.040000 0.048000
1517196200842926066	900 40 1.000000 0.242000 0.254000 500 38 0.900000 0.722000 0.651000 600 43 1.000000 0.051000 0.051000 1.200000 0.037000 0.044000
1517196201361872400	900 40 1.000000 0.170000 0.179000 500 38 0.900000 0.504000 0.456000 600 43 1.000000 0.051000 0.051000 1.200000 0.040000 0.048000
1517196201921899983	900 40 1.000000 0.230000 0.242000 500 38 0.900000 0.782000 0.705000 600 44 1.000000 0.051000 0.051000 1.200000 0.037000 0.044000
1517196202437448941	900 40 1.000000 0.175000 0.184000 500 38 0.900000 0.770000 0.694000 600 43 1.000000 0.051000 0.051000 1.200000 0.037000 0.044000
1517196202949837733	900 40 1.000000 0.246000 0.258000 500 38 0.900000 0.769000 0.694000 600 43 1.000000 0.051000 0.051000 1.200000 0.040000 0.048000
1517196203468950525	900 39 1.000000 0.162000 0.170000 500 38 0.900000 0.775000 0.699000 600 42 1.000000 0.051000 0.051000 1.200000 0.036000 0.043000
1517196204026348900	900 40 1.000000 0.182000 0.192000 500 38 0.900000 0.721000 0.651000 600 43 1.000000 0.051000 0.051000 1.200000 0.041000 0.049000
1517196204538819942	900 39 1.000000 0.203000 0.214000 500 38 0.900000 0.751000 0.677000 600 43 1.000000 0.051000 0.051000 1.200000 0.034000 0.041000
1517196205109858650	900 40 1.000000 0.130000 0.138000 500 38 0.900000 0.336000 0.305000 600 43 1.000000 0.051000 0.051000 1.200000 0.051000 0.061000
1517196205634999025	900 40 1.000000 0.254000 0.266000 500 38 0.900000 0.747000 0.674000 600 43 1.000000 0.051000 0.051000 1.200000 0.037000 0.044000
1517196206146069567	900 40 1.000000 0.116000 0.123000 500 38 0.900000 0.431000 0.391000 600 43 1.000000 0.051000 0.051000 1.200000 0.046000 0.055000
1517196206698133775	900 40 1.000000 0.109000 0.115000 500 38 0.900000 0.749000 0.676000 600 43 1.000000 0.051000 0.051000 1.200000 0.034000 0.041000
1517196207267582275	900 40 1.000000 0.168000 0.177000 500 38 0.900000 0.569000 0.515000 600 43 1.000000 0.051000 0.051000 1.200000 0.037000 0.044000
1517196207780019859	900 40 1.000000 0.239000 0.251000 500 38 0.900000 0.761000 0.687000 600 43 1.000000 0.051000 0.051000 1.200000 0.038000 0.045000
1517196208316159900	900 40 1.000000 0.146000 0.154000 500 38 0.900000 0.519000 0.470000 600 43 1.000000 0.051000 0.051000 1.200000 0.038000 0.045000
1517196208890142567	900 40 1.000000 0.264000 0.277000 500 38 0.900000 0.755000 0.681000 600 43 1.000000 0.051000 0.051000 1.200000 0.038000 0.045000
1517196209434260650	900 40 1.000000 0.121000 0.128000 500 38 0.900000 0.508000 0.460000 600 43 1.000000 0.051000 0.051000 1.200000 0.036000 0.043000
1517196209962605692	900 40 1.000000 0.236000 0.248000 500 38 0.900000 0.743000 0.670000 600 44 1.000000 0.051000 0.051000 1.200000 0.038000 0.045000
1517196210533368276	900 40 1.000000 0.248000 0.260000 500 38 0.900000 0.457000 0.414000 600 43 1.000000 0.051000 0.051000 1.200000 0.037000 0.044000
1517196211046190567	900 40 1.000000 0.241000 0.253000 500 38 0.900000 0.751000 0.678000 600 43 1.000000 0.051000 0.051000 1.200000 0.035000 0.042000
1517196211559405734	900 40 1.000000 0.170000 0.179000 500 38 0.900000 0.477000 0.432000 600 43 1.000000 0.051000 0.051000 1.200000 0.040000 0.048000
1517196212072280609	900 40 1.000000 0.240000 0.252000 500 38 0.900000 0.737000 0.666000 600 43 1.000000 0.051000 0.051000 1.200000 0.036000 0.043000
1517196212588390401	900 40 1.000000 0.096000 0.102000 500 38 0.900000 0.441000 0.400000 600 43 1.000000 0.051000 0.051000 1.200000 0.038000 0.045000
1517196213100985818	900 39 1.000000 0.262000 0.275000 500 38 0.900000 0.768000 0.693000 600 42 1.000000 0.051000 0.051000 1.200000 0.038000 0.045000
1517196213670178109	900 40 1.000000 0.099000 0.105000 500 38 0.900000 0.514000 0.466000 600 43 1.000000 0.051000 0.051000 1.200000 0.042000 0.050000
1517196214192445359	900 40 1.000000 0.238000 0.250000 500 38 0.900000 0.789000 0.711000 600 42 1.000000 0.051000 0.051000 1.200000 0.038000 0.045000
1517196214707137193	900 40 1.000000 0.205000 0.216000 500 38 0.900000 0.686000 0.620000 600 43 1.000000 0.051000 0.051000 1.200000 0.045000 0.054000
1517196215230027776	900 39 1.000000 0.237000 0.249000 500 38 0.900000 0.695000 0.627000 600 42 1.000000 0.051000 0.051000 1.200000 0.038000 0.045000
1517196215775148568	900 40 1.000000 0.217000 0.229000 500 38 0.900000 0.691000 0.625000 600 43 1.000000 0.051000 0.051000 1.200000 0.048000 0.057000
1517196216287354693	900 38 1.000000 0.162000 0.170000 500 38 0.900000 0.740000 0.668000 600 42 1.000000 0.051000 0.051000 1.200000 0.035000 0.042000
1517196216854251901	900 40 1.000000 0.153000 0.162000 500 38 0.900000 0.520000 0.471000 600 43 1.000000 0.051000 0.051000 1.200000 0.051000 0.061000
1517196217367195026	900 39 1.000000 0.236000 0.248000 500 38 0.900000 0.746000 0.672000 600 43 1.000000 0.051000 0.051000 1.200000 0.037000 0.044000
1517196217880540360	900 39 1.000000 0.104000 0.110000 500 38 0.900000 0.518000 0.469000 600 43 1.000000 0.051000 0.051000 1.200000 0.042000 0.050000
1517196218398873943	900 39 1.000000 0.240000 0.252000 500 38 0.900000 0.718000 0.648000 600 43 1.000000 0.051000 0.051000 1.200000 0.037000 0.044000
1517196218913668402	900 40 1.000000 0.118000 0.125000 500 38 0.900000 0.515000 0.466000 600 43 1.000000 0.051000 0.051000 1.200000 0.044000 0.053000
1517196219426434735	900 40 1.000000 0.264000 0.277000 500 38 0.900000 0.756000 0.682000 600 44 1.000000 0.051000 0.051000 1.200000 0.036000 0.043000
1517196219993984943	900 40 1.000000 0.100000 0.106000 500 38 0.900000 0.493000 0.447000 600 43 1.000000 0.051000 0.051000 1.200000 0.045000 0.054000
1517196220506285027	900 40 1.000000 0.256000 0.269000 500 38 0.900000 0.737000 0.665000 600 44 1.000000 0.051000 0.051000 1.200000 0.036000 0.043000
1517196221074104110	900 40 1.000000 0.119000 0.126000 500 38 0.900000 0.414000 0.375000 600 43 1.000000 0.051000 0.051000 1.200000 0.042000 0.050000
1517196221587596194	900 40 1.000000 0.238000 0.250000 500 38 0.900000 0.716000 0.646000 600 44 1.000000 0.051000 0.051000 1.200000 0.036000 0.043000
1517196222158197652	900 40 1.000000 0.116000 0.123000 500 38 0.900000 0.431000 0.391000 600 43 1.000000 0.051000 0.051000 1.200000 0.042000 0.050000
1517196222669707985	900 40 1.000000 0.241000 0.253000 500 38 0.900000 0.740000 0.668000 600 43 1.000000 0.051000 0.051000 1.200000 0.036000 0.043000
1517196223217976860	900 40 1.000000 0.121000 0.128000 500 38 0.900000 0.595000 0.539000 600 43 1.000000 0.051000 0.051000 1.200000 0.049000 0.059000
1517196223734305611	900 40 1.000000 0.236000 0.248000 500 38 0.900000 0.700000 0.633000 600 43 1.000000 0.051000 0.051000 1.200000 0.036000 0.043000
1517196224251528527	900 39 1.000000 0.190000 0.200000 500 38 0.900000 0.663000 0.600000 600 42 1.000000 0.051000 0.051000 1.200000 0.051000 0.061000
1517196224810128652	900 40 1.000000 0.157000 0.166000 500 38 0.900000 0.720000 0.651000 600 43 1.000000 0.051000 0.051000 1.200000 0.034000 0.041000
1517196225323275444	900 39 1.000000 0.258000 0.271000 500 38 0.900000 0.757000 0.683000 600 42 1.000000 0.051000 0.051000 1.200000 0.034000 0.041000
1517196225834378861	900 40 1.000000 0.255000 0.268000 500 38 0.900000 0.672000 0.608000 600 43 1.000000 0.051000 0.051000 1.200000 0.036000 0.043000
1517196226347352611	900 40 1.000000 0.210000 0.221000 500 38 0.900000 0.789000 0.712000 600 43 1.000000 0.051000 0.051000 1.200000 0.035000 0.042000
1517196226909543778	900 40 1.000000 0.117000 0.124000 500 38 0.900000 0.738000 0.666000 600 43 1.000000 0.051000 0.051000 1.200000 0.041000 0.049000
1517196227422032403	900 40 1.000000 0.240000 0.252000 500 38 0.900000 0.735000 0.663000 600 43 1.000000 0.051000 0.051000 1.200000 0.035000 0.042000
1517196227968163944	900 40 1.000000 0.245000 0.257000 500 38 0.900000 0.469000 0.425000 600 43 1.000000 0.051000 0.051000 1.200000 0.042000 0.050000
1517196228480898653	900 40 1.000000 0.257000 0.270000 500 38 0.900000 0.729000 0.658000 600 43 1.000000 0.051000 0.051000 1.200000 0.038000 0.045000
1517196229017894694	900 40 1.000000 0.109000 0.115000 500 38 0.900000 0.498000 0.451000 600 43 1.000000 0.051000 0.051000 1.200000 0.042000 0.050000
1517196229530787320	900 40 1.000000 0.241000 0.253000 500 38 0.900000 0.728000 0.657000 600 43 1.000000 0.051000 0.051000 1.200000 0.038000 0.045000
1517196230075114320	900 40 1.000000 0.141000 0.149000 500 38 0.900000 0.492000 0.446000 600 43 1.000000 0.051000 0.051000 1.200000 0.042000 0.050000
1517196230588122528	900 40 1.000000 0.250000 0.262000 500 38 0.900000 0.730000 0.659000 600 43 1.000000 0.051000 0.051000 1.200000 0.037000 0.044000
1517196231154102361	900 40 1.000000 0.168000 0.178000 500 38 0.900000 0.496000 0.449000 600 43 1.000000 0.051000 0.051000 1.200000 0.044000 0.053000
1517196231667194528	900 39 1.000000 0.264000 0.277000 500 38 0.900000 0.728000 0.657000 600 44 1.000000 0.051000 0.051000 1.200000 0.038000 0.045000
1517196232211884112	900 40 1.000000 0.189000 0.199000 500 38 0.900000 0.491000 0.445000 600 43 1.000000 0.051000 0.051000 1.200000 0.041000 0.049000
1517196232724720903	900 39 1.000000 0.238000 0.250000 500 38 0.900000 0.742000 0.670000 600 43 1.000000 0.051000 0.051000 1.200000 0.037000 0.044000
1517196233264773153	900 40 1.000000 0.226000 0.237000 500 38 0.900000 0.515000 0.467000 600 43 1.000000 0.051000 0.051000 1.200000 0.046000 0.055000
1517196233777752737	900 39 1.000000 0.241000 0.253000 500 38 0.900000 0.755000 0.681000 600 44 1.000000 0.051000 0.051000 1.200000 0.036000 0.043000
1517196234327207487	900 40 1.000000 0.239000 0.251000 500 38 0.900000 0.538000 0.487000 600 43 1.000000 0.051000 0.051000 1.200000 0.045000 0.054000
1517196234840043945	900 40 1.000000 0.247000 0.259000 500 38 0.900000 0.745000 0.672000 600 44 1.000000 0.051000 0.051000 1.200000 0.036000 0.043000
1517196235351400779	900 40 1.000000 0.117000 0.124000 500 38 0.900000 0.510000 0.462000 600 43 1.000000 0.051000 0.051000 1.200000 0.047000 0.056000
1517196235910148362	900 40 1.000000 0.163000 0.172000 500 38 0.900000 0.743000 0.670000 600 43 1.000000 0.051000 0.051000 1.200000 0.032000 0.038000
1517196236423168945	900 38 1.000000 0.124000 0.131000 500 37 0.900000 0.375000 0.340000 600 41 1.000000 0.051000 0.051000 1.200000 0.038000 0.045000
1517196236935973695	900 37 1.000000 0.040000 0.042000 500 37 0.900000 0.066000 0.060000 600 41 1.000000 0.051000 0.051000 1.200000 0.024000 0.028000
