#Timestamp	CPU(0) Frequency(MHz)	CPU(0) Temperature(C)	A7 Voltage(V)	A7 Current(A)	A7 Power(W)	CPU(4) Frequency(MHz)	CPU(4) Temperature(C)	A15 Voltage(V)	A15 Current(A)	A15 Power(W)	GPU Frequency(MHz)	GPU Temperature(C)	GPU Voltage(V)	GPU Current(A)	GPU Power(W)	RAM Voltage(V)	RAM Current(A)	RAM Power(W)
1517263542481462594	800 39 1.000000 0.038000 0.039000 1700 37 1.100000 0.610000 0.714000 600 42 1.000000 0.052000 0.052000 1.200000 0.038000 0.045000
1517263542986962469	800 39 1.000000 0.035000 0.035000 1700 37 1.100000 1.218000 1.426000 600 43 1.000000 0.052000 0.052000 1.200000 0.031000 0.037000
1517263543492385011	800 40 1.000000 0.035000 0.035000 1700 37 1.100000 1.229000 1.439000 600 44 1.000000 0.053000 0.053000 1.200000 0.032000 0.038000
1517263543997767844	800 40 1.000000 0.035000 0.035000 1700 37 1.100000 1.234000 1.445000 600 44 1.000000 0.053000 0.053000 1.200000 0.031000 0.037000
1517263544503120802	800 40 1.000000 0.035000 0.035000 1700 37 1.100000 1.224000 1.433000 600 44 1.000000 0.053000 0.053000 1.200000 0.030000 0.036000
1517263545008468969	800 40 1.000000 0.036000 0.036000 1700 37 1.100000 1.240000 1.452000 600 44 1.000000 0.052000 0.052000 1.200000 0.031000 0.037000
1517263545513765219	800 40 1.000000 0.035000 0.035000 1700 38 1.100000 1.214000 1.421000 600 44 1.000000 0.053000 0.053000 1.200000 0.031000 0.037000
1517263546019190469	800 40 1.000000 0.035000 0.035000 1700 38 1.100000 1.245000 1.457000 600 44 1.000000 0.052000 0.052000 1.200000 0.031000 0.037000
1517263546524565719	800 40 1.000000 0.035000 0.035000 1700 38 1.100000 1.222000 1.430000 600 44 1.000000 0.052000 0.052000 1.200000 0.031000 0.037000
1517263547029875094	800 40 1.000000 0.035000 0.035000 1700 38 1.100000 1.241000 1.453000 600 44 1.000000 0.053000 0.053000 1.200000 0.032000 0.038000
1517263547535326886	800 40 1.000000 0.035000 0.035000 1700 38 1.100000 1.229000 1.439000 600 44 1.000000 0.053000 0.053000 1.200000 0.031000 0.037000
1517263548040597261	800 40 1.000000 0.036000 0.036000 1700 38 1.100000 1.219000 1.427000 600 44 1.000000 0.053000 0.053000 1.200000 0.032000 0.038000
1517263548546095761	800 40 1.000000 0.035000 0.035000 1700 38 1.100000 1.238000 1.449000 600 44 1.000000 0.053000 0.053000 1.200000 0.031000 0.037000
1517263549051555886	800 40 1.000000 0.035000 0.035000 1700 38 1.100000 1.223000 1.432000 600 44 1.000000 0.052000 0.052000 1.200000 0.033000 0.039000
1517263549556874720	800 40 1.000000 0.035000 0.035000 1700 38 1.100000 1.246000 1.459000 600 44 1.000000 0.053000 0.053000 1.200000 0.031000 0.037000
1517263550062262136	800 40 1.000000 0.035000 0.035000 1700 38 1.100000 1.218000 1.426000 600 44 1.000000 0.053000 0.053000 1.200000 0.031000 0.037000
1517263550567622012	800 40 1.000000 0.036000 0.036000 1700 38 1.100000 1.240000 1.452000 600 44 1.000000 0.053000 0.053000 1.200000 0.030000 0.036000
1517263551072959137	800 40 1.000000 0.035000 0.035000 1700 38 1.100000 1.226000 1.435000 600 44 1.000000 0.052000 0.052000 1.200000 0.032000 0.038000
1517263551578448720	800 40 1.000000 0.035000 0.035000 1700 38 1.100000 1.223000 1.432000 600 44 1.000000 0.052000 0.052000 1.200000 0.030000 0.036000
1517263552083786428	800 40 1.000000 0.035000 0.035000 1700 38 1.100000 1.216000 1.423000 600 44 1.000000 0.053000 0.053000 1.200000 0.031000 0.037000
1517263552589187887	800 40 1.000000 0.035000 0.035000 1700 38 1.100000 1.215000 1.422000 600 44 1.000000 0.052000 0.052000 1.200000 0.030000 0.036000
1517263553094596553	800 40 1.000000 0.036000 0.036000 1700 37 1.100000 1.241000 1.453000 600 44 1.000000 0.053000 0.053000 1.200000 0.031000 0.037000
1517263553599942679	800 40 1.000000 0.035000 0.035000 1700 37 1.100000 1.215000 1.422000 600 44 1.000000 0.053000 0.053000 1.200000 0.031000 0.037000
1517263554105225470	800 40 1.000000 0.035000 0.035000 1700 37 1.100000 1.243000 1.455000 600 44 1.000000 0.053000 0.053000 1.200000 0.031000 0.037000
1517263554610622095	800 40 1.000000 0.035000 0.035000 1700 37 1.100000 1.219000 1.427000 600 44 1.000000 0.052000 0.052000 1.200000 0.031000 0.037000
1517263555115947804	800 40 1.000000 0.035000 0.035000 1700 37 1.100000 1.232000 1.442000 600 44 1.000000 0.052000 0.052000 1.200000 0.031000 0.037000
1517263555621286429	800 40 1.000000 0.035000 0.035000 1700 37 1.100000 1.231000 1.441000 600 44 1.000000 0.053000 0.053000 1.200000 0.031000 0.037000
1517263556126672096	800 40 1.000000 0.035000 0.035000 1700 37 1.100000 1.225000 1.433000 600 44 1.000000 0.052000 0.052000 1.200000 0.032000 0.038000
1517263556632016887	800 40 1.000000 0.035000 0.035000 1700 37 1.100000 1.223000 1.432000 600 44 1.000000 0.053000 0.053000 1.200000 0.029000 0.035000
1517263557137344221	800 40 1.000000 0.035000 0.035000 1700 37 1.100000 1.215000 1.422000 600 44 1.000000 0.053000 0.053000 1.200000 0.030000 0.036000
1517263557642749429	800 40 1.000000 0.035000 0.035000 1700 37 1.100000 1.216000 1.423000 600 44 1.000000 0.053000 0.053000 1.200000 0.031000 0.037000
1517263558148050096	800 40 1.000000 0.035000 0.035000 1700 37 1.100000 1.213000 1.420000 600 44 1.000000 0.052000 0.052000 1.200000 0.032000 0.038000
1517263558653457137	800 40 1.000000 0.035000 0.035000 1700 37 1.100000 1.223000 1.430000 600 44 1.000000 0.053000 0.053000 1.200000 0.030000 0.036000
1517263559158830471	800 40 1.000000 0.035000 0.035000 1700 37 1.100000 1.230000 1.439000 600 44 1.000000 0.053000 0.053000 1.200000 0.031000 0.037000
1517263559664267971	800 40 1.000000 0.035000 0.035000 1700 37 1.100000 1.227000 1.435000 600 44 1.000000 0.052000 0.052000 1.200000 0.031000 0.037000
1517263560169720679	800 40 1.000000 0.036000 0.036000 1700 37 1.100000 1.236000 1.446000 600 44 1.000000 0.052000 0.052000 1.200000 0.031000 0.037000
1517263560675210596	800 40 1.000000 0.035000 0.035000 1700 37 1.100000 1.216000 1.422000 600 44 1.000000 0.053000 0.053000 1.200000 0.031000 0.037000
1517263561180640429	800 40 1.000000 0.035000 0.035000 1700 37 1.100000 1.246000 1.457000 600 44 1.000000 0.052000 0.052000 1.200000 0.031000 0.037000
1517263561686017429	800 40 1.000000 0.035000 0.035000 1700 37 1.100000 1.219000 1.426000 600 44 1.000000 0.052000 0.052000 1.200000 0.032000 0.038000
1517263562191421388	800 40 1.000000 0.035000 0.035000 1700 37 1.100000 1.215000 1.421000 600 44 1.000000 0.052000 0.052000 1.200000 0.033000 0.039000
1517263562696819430	800 40 1.000000 0.035000 0.035000 1700 37 1.100000 1.212000 1.418000 600 44 1.000000 0.053000 0.053000 1.200000 0.030000 0.036000
1517263563202181305	800 40 1.000000 0.036000 0.036000 1700 37 1.100000 1.213000 1.419000 600 44 1.000000 0.053000 0.053000 1.200000 0.032000 0.038000
1517263563707592305	800 40 1.000000 0.035000 0.035000 1700 37 1.100000 1.223000 1.430000 600 44 1.000000 0.052000 0.052000 1.200000 0.032000 0.038000
1517263564212916221	800 40 1.000000 0.035000 0.035000 1700 37 1.100000 1.214000 1.420000 600 44 1.000000 0.052000 0.052000 1.200000 0.029000 0.035000
1517263564718488138	800 40 1.000000 0.035000 0.035000 1700 37 1.100000 1.245000 1.456000 600 44 1.000000 0.053000 0.053000 1.200000 0.031000 0.037000
1517263565223890597	800 40 1.000000 0.035000 0.035000 1700 37 1.100000 1.211000 1.416000 600 44 1.000000 0.053000 0.053000 1.200000 0.031000 0.037000
1517263565729383180	800 40 1.000000 0.035000 0.035000 1700 37 1.100000 1.237000 1.447000 600 44 1.000000 0.052000 0.052000 1.200000 0.031000 0.037000
1517263566234772888	800 40 1.000000 0.035000 0.035000 1700 37 1.100000 1.216000 1.422000 600 44 1.000000 0.052000 0.052000 1.200000 0.031000 0.037000
1517263566740184347	800 40 1.000000 0.035000 0.035000 1700 37 1.100000 1.236000 1.446000 600 44 1.000000 0.052000 0.052000 1.200000 0.032000 0.038000
1517263567245580722	800 40 1.000000 0.035000 0.035000 1700 37 1.100000 1.214000 1.420000 600 44 1.000000 0.052000 0.052000 1.200000 0.032000 0.038000
1517263567751074389	800 40 1.000000 0.035000 0.035000 1700 37 1.100000 1.214000 1.421000 600 44 1.000000 0.052000 0.052000 1.200000 0.029000 0.035000
1517263568256453639	800 40 1.000000 0.035000 0.035000 1700 37 1.100000 1.213000 1.420000 600 44 1.000000 0.053000 0.053000 1.200000 0.032000 0.038000
1517263568761860597	800 40 1.000000 0.035000 0.035000 1700 37 1.100000 1.211000 1.416000 600 44 1.000000 0.052000 0.052000 1.200000 0.032000 0.038000
1517263569267280347	800 40 1.000000 0.035000 0.035000 1700 37 1.100000 1.209000 1.415000 600 43 1.000000 0.052000 0.052000 1.200000 0.031000 0.037000
1517263569772669305	800 40 1.000000 0.035000 0.035000 1700 37 1.100000 1.209000 1.415000 600 44 1.000000 0.052000 0.052000 1.200000 0.030000 0.036000
1517263570278127514	800 40 1.000000 0.035000 0.035000 1700 37 1.100000 1.216000 1.422000 600 44 1.000000 0.053000 0.053000 1.200000 0.032000 0.038000
1517263570783711056	800 40 1.000000 0.036000 0.036000 1700 37 1.100000 1.219000 1.426000 600 43 1.000000 0.053000 0.053000 1.200000 0.031000 0.037000
1517263571289182722	800 40 1.000000 0.035000 0.035000 1700 37 1.100000 1.231000 1.440000 600 44 1.000000 0.052000 0.052000 1.200000 0.032000 0.038000
1517263571794629764	800 39 1.000000 0.035000 0.035000 1700 37 1.100000 1.224000 1.432000 600 44 1.000000 0.052000 0.052000 1.200000 0.031000 0.037000
1517263572300017264	800 39 1.000000 0.035000 0.035000 1700 37 1.100000 1.209000 1.414000 600 43 1.000000 0.053000 0.053000 1.200000 0.030000 0.036000
1517263572805445681	800 39 1.000000 0.035000 0.035000 1700 37 1.100000 1.214000 1.420000 600 43 1.000000 0.053000 0.053000 1.200000 0.031000 0.037000
1517263573310915473	800 40 1.000000 0.035000 0.035000 1700 37 1.100000 1.212000 1.419000 600 43 1.000000 0.053000 0.053000 1.200000 0.032000 0.038000
1517263573815823931	800 39 1.000000 0.035000 0.035000 1700 37 1.100000 1.209000 1.415000 600 43 1.000000 0.052000 0.052000 1.200000 0.033000 0.039000
1517263574320671181	800 39 1.000000 0.035000 0.035000 1700 37 1.100000 1.208000 1.413000 600 43 1.000000 0.052000 0.052000 1.200000 0.031000 0.037000
1517263574825597473	800 39 1.000000 0.035000 0.035000 1700 37 1.100000 1.212000 1.419000 600 43 1.000000 0.052000 0.052000 1.200000 0.032000 0.038000
1517263575330522348	800 40 1.000000 0.035000 0.035000 1700 37 1.100000 1.212000 1.419000 600 43 1.000000 0.052000 0.052000 1.200000 0.031000 0.037000
1517263575835486890	800 39 1.000000 0.035000 0.035000 1700 37 1.100000 1.232000 1.442000 600 43 1.000000 0.052000 0.052000 1.200000 0.031000 0.037000
1517263576340353598	800 39 1.000000 0.035000 0.035000 1700 37 1.100000 1.236000 1.447000 600 43 1.000000 0.052000 0.052000 1.200000 0.031000 0.037000
1517263576845222223	800 39 1.000000 0.035000 0.035000 1700 37 1.100000 1.209000 1.415000 600 43 1.000000 0.052000 0.052000 1.200000 0.031000 0.037000
1517263577350120181	800 39 1.000000 0.035000 0.035000 1700 37 1.100000 1.232000 1.442000 600 43 1.000000 0.052000 0.052000 1.200000 0.032000 0.038000
1517263577855030098	800 39 1.000000 0.035000 0.035000 1700 37 1.100000 1.225000 1.433000 600 43 1.000000 0.053000 0.053000 1.200000 0.030000 0.036000
1517263578359938390	800 39 1.000000 0.035000 0.035000 1700 37 1.100000 1.220000 1.427000 600 43 1.000000 0.052000 0.052000 1.200000 0.033000 0.039000
1517263578864856723	800 39 1.000000 0.035000 0.035000 1700 37 1.100000 1.234000 1.445000 600 43 1.000000 0.052000 0.052000 1.200000 0.030000 0.036000
1517263579369711932	800 39 1.000000 0.035000 0.035000 1700 37 1.100000 1.212000 1.419000 600 43 1.000000 0.052000 0.052000 1.200000 0.032000 0.038000
1517263579874576598	800 39 1.000000 0.035000 0.035000 1700 37 1.100000 1.238000 1.449000 600 43 1.000000 0.052000 0.052000 1.200000 0.032000 0.038000
1517263580379458432	800 39 1.000000 0.035000 0.035000 1700 37 1.100000 1.222000 1.429000 600 43 1.000000 0.053000 0.053000 1.200000 0.031000 0.037000
1517263580884146223	800 39 1.000000 0.035000 0.035000 1700 37 1.100000 1.223000 1.432000 600 43 1.000000 0.052000 0.052000 1.200000 0.031000 0.037000
1517263581389068307	800 39 1.000000 0.035000 0.035000 1700 37 1.100000 1.231000 1.440000 600 43 1.000000 0.052000 0.052000 1.200000 0.030000 0.036000
1517263581893951932	800 39 1.000000 0.035000 0.035000 1700 37 1.100000 1.216000 1.423000 600 43 1.000000 0.052000 0.052000 1.200000 0.030000 0.036000
1517263582398738557	800 39 1.000000 0.035000 0.035000 1700 37 1.100000 1.213000 1.420000 600 43 1.000000 0.052000 0.052000 1.200000 0.030000 0.036000
1517263582903508057	800 39 1.000000 0.035000 0.035000 1700 37 1.100000 1.220000 1.427000 600 43 1.000000 0.053000 0.053000 1.200000 0.031000 0.037000
1517263583408364974	800 39 1.000000 0.035000 0.035000 1700 36 1.100000 1.220000 1.427000 600 43 1.000000 0.052000 0.052000 1.200000 0.032000 0.038000
1517263583913192599	800 39 1.000000 0.035000 0.035000 1700 37 1.100000 1.228000 1.436000 600 43 1.000000 0.052000 0.052000 1.200000 0.031000 0.037000
1517263584417936974	800 39 1.000000 0.035000 0.035000 1700 37 1.100000 1.213000 1.420000 600 43 1.000000 0.052000 0.052000 1.200000 0.032000 0.038000
1517263584922745849	800 39 1.000000 0.035000 0.035000 1700 36 1.100000 1.237000 1.448000 600 43 1.000000 0.052000 0.052000 1.200000 0.031000 0.037000
1517263585427531141	800 39 1.000000 0.035000 0.035000 1700 36 1.100000 1.217000 1.425000 600 43 1.000000 0.052000 0.052000 1.200000 0.032000 0.038000
1517263585932358224	800 39 1.000000 0.035000 0.035000 1700 36 1.100000 1.223000 1.432000 600 43 1.000000 0.053000 0.053000 1.200000 0.031000 0.037000
1517263586437252266	800 39 1.000000 0.035000 0.035000 1700 36 1.100000 1.228000 1.436000 600 43 1.000000 0.052000 0.052000 1.200000 0.030000 0.036000
1517263586941992641	800 39 1.000000 0.035000 0.035000 1700 36 1.100000 1.212000 1.419000 600 43 1.000000 0.053000 0.053000 1.200000 0.031000 0.037000
1517263587446843849	800 39 1.000000 0.035000 0.035000 1700 37 1.100000 1.213000 1.419000 600 43 1.000000 0.052000 0.052000 1.200000 0.030000 0.036000
1517263587951648266	800 39 1.000000 0.035000 0.035000 1700 36 1.100000 1.210000 1.416000 600 43 1.000000 0.052000 0.052000 1.200000 0.031000 0.037000
1517263588456515099	800 39 1.000000 0.035000 0.035000 1700 36 1.100000 1.224000 1.432000 600 43 1.000000 0.052000 0.052000 1.200000 0.031000 0.037000
1517263588961253766	800 39 1.000000 0.035000 0.035000 1700 36 1.100000 1.226000 1.435000 600 43 1.000000 0.052000 0.052000 1.200000 0.032000 0.038000
1517263589467012433	800 39 1.000000 0.035000 0.035000 1700 37 1.100000 1.211000 1.418000 600 43 1.000000 0.052000 0.052000 1.200000 0.046000 0.055000
1517263590023233225	800 47 1.000000 0.040000 0.041000 1700 39 1.100000 1.167000 1.365000 600 51 1.000000 0.052000 0.052000 1.200000 0.131000 0.159000
1517263590575241058	800 49 1.000000 0.247000 0.251000 1700 40 1.100000 3.115000 3.675000 600 55 1.000000 0.053000 0.053000 1.200000 0.089000 0.107000
1517263591123235641	800 51 1.000000 0.245000 0.249000 1700 41 1.100000 3.167000 3.737000 600 56 1.000000 0.053000 0.053000 1.200000 0.084000 0.101000
1517263591683232016	800 52 1.000000 0.244000 0.248000 1700 42 1.100000 3.173000 3.744000 600 58 1.000000 0.053000 0.053000 1.200000 0.084000 0.101000
1517263592243241933	800 53 1.000000 0.245000 0.249000 1700 43 1.100000 3.186000 3.762000 600 59 1.000000 0.053000 0.053000 1.200000 0.084000 0.101000
1517263592799251683	800 53 1.000000 0.246000 0.250000 1700 44 1.100000 3.191000 3.765000 600 59 1.000000 0.053000 0.053000 1.200000 0.083000 0.100000
1517263593359247142	800 54 1.000000 0.246000 0.250000 1700 44 1.100000 3.191000 3.765000 600 60 1.000000 0.053000 0.053000 1.200000 0.084000 0.101000
1517263593903284433	800 54 1.000000 0.246000 0.250000 1700 45 1.100000 3.194000 3.768000 600 60 1.000000 0.053000 0.053000 1.200000 0.084000 0.101000
1517263594463221433	800 55 1.000000 0.246000 0.250000 1700 45 1.100000 3.198000 3.773000 600 61 1.000000 0.053000 0.053000 1.200000 0.083000 0.100000
1517263595019229642	800 55 1.000000 0.246000 0.250000 1700 46 1.100000 3.196000 3.771000 600 61 1.000000 0.053000 0.053000 1.200000 0.083000 0.100000
1517263595583255809	800 55 1.000000 0.247000 0.251000 1700 46 1.100000 3.201000 3.780000 600 61 1.000000 0.053000 0.053000 1.200000 0.084000 0.101000
1517263596131239850	800 56 1.000000 0.246000 0.250000 1700 46 1.100000 3.205000 3.781000 600 62 1.000000 0.054000 0.054000 1.200000 0.085000 0.102000
1517263596695268934	800 56 1.000000 0.246000 0.250000 1700 46 1.100000 3.204000 3.780000 600 62 1.000000 0.053000 0.053000 1.200000 0.085000 0.102000
1517263597255261809	800 56 1.000000 0.247000 0.251000 1700 47 1.100000 3.209000 3.786000 600 62 1.000000 0.053000 0.053000 1.200000 0.083000 0.100000
1517263597807223059	800 56 1.000000 0.246000 0.250000 1700 47 1.100000 3.208000 3.788000 600 62 1.000000 0.054000 0.054000 1.200000 0.084000 0.101000
1517263598367208476	800 57 1.000000 0.247000 0.251000 1700 47 1.100000 3.211000 3.788000 600 63 1.000000 0.054000 0.054000 1.200000 0.084000 0.101000
1517263598923272351	800 57 1.000000 0.247000 0.251000 1700 47 1.100000 3.214000 3.792000 600 63 1.000000 0.054000 0.054000 1.200000 0.084000 0.101000
1517263599475208809	800 57 1.000000 0.246000 0.250000 1700 47 1.100000 3.214000 3.795000 600 63 1.000000 0.054000 0.054000 1.200000 0.084000 0.101000
1517263600035201767	800 57 1.000000 0.247000 0.251000 1700 47 1.100000 3.208000 3.788000 600 63 1.000000 0.054000 0.054000 1.200000 0.085000 0.102000
1517263600595241892	800 57 1.000000 0.247000 0.251000 1700 48 1.100000 3.215000 3.796000 600 63 1.000000 0.054000 0.054000 1.200000 0.084000 0.101000
1517263601155265518	800 58 1.000000 0.247000 0.251000 1700 48 1.100000 3.214000 3.792000 600 63 1.000000 0.054000 0.054000 1.200000 0.084000 0.101000
1517263601715229268	800 58 1.000000 0.246000 0.250000 1700 48 1.100000 3.215000 3.796000 600 64 1.000000 0.054000 0.054000 1.200000 0.085000 0.102000
1517263602267248643	800 58 1.000000 0.247000 0.251000 1700 48 1.100000 3.217000 3.799000 600 64 1.000000 0.054000 0.054000 1.200000 0.085000 0.102000
1517263602823248768	800 58 1.000000 0.247000 0.251000 1700 48 1.100000 3.218000 3.800000 600 64 1.000000 0.054000 0.054000 1.200000 0.085000 0.102000
1517263603363232851	800 58 1.000000 0.247000 0.251000 1700 48 1.100000 3.219000 3.801000 600 64 1.000000 0.054000 0.054000 1.200000 0.084000 0.101000
1517263603923223476	800 58 1.000000 0.248000 0.252000 1700 48 1.100000 3.220000 3.802000 600 64 1.000000 0.054000 0.054000 1.200000 0.085000 0.102000
1517263604491237185	800 58 1.000000 0.247000 0.251000 1700 48 1.100000 3.218000 3.797000 600 64 1.000000 0.054000 0.054000 1.200000 0.086000 0.104000
1517263605047242268	800 58 1.000000 0.247000 0.251000 1700 49 1.100000 3.218000 3.800000 600 64 1.000000 0.055000 0.055000 1.200000 0.086000 0.104000
1517263605595255685	800 58 1.000000 0.248000 0.252000 1700 48 1.100000 3.222000 3.805000 600 64 1.000000 0.054000 0.054000 1.200000 0.084000 0.101000
1517263606147266976	800 58 1.000000 0.248000 0.252000 1700 49 1.100000 3.218000 3.800000 600 64 1.000000 0.054000 0.054000 1.200000 0.085000 0.102000
1517263606703242810	800 58 1.000000 0.248000 0.252000 1700 49 1.100000 3.222000 3.805000 600 64 1.000000 0.054000 0.054000 1.200000 0.085000 0.102000
1517263607255236268	800 58 1.000000 0.248000 0.252000 1700 49 1.100000 3.222000 3.805000 600 65 1.000000 0.054000 0.054000 1.200000 0.085000 0.102000
1517263607815247393	800 59 1.000000 0.248000 0.252000 1700 49 1.100000 3.220000 3.802000 600 65 1.000000 0.054000 0.054000 1.200000 0.085000 0.102000
1517263608363226810	800 59 1.000000 0.248000 0.252000 1700 49 1.100000 3.224000 3.807000 600 65 1.000000 0.054000 0.054000 1.200000 0.086000 0.104000
1517263608927245893	800 59 1.000000 0.247000 0.251000 1700 49 1.100000 3.226000 3.806000 600 65 1.000000 0.054000 0.054000 1.200000 0.086000 0.104000
1517263609475225560	800 59 1.000000 0.248000 0.252000 1700 49 1.100000 3.226000 3.809000 600 65 1.000000 0.054000 0.054000 1.200000 0.085000 0.102000
1517263610023232227	800 59 1.000000 0.247000 0.251000 1700 49 1.100000 3.227000 3.811000 600 65 1.000000 0.054000 0.054000 1.200000 0.085000 0.102000
1517263610583264894	800 59 1.000000 0.248000 0.252000 1700 49 1.100000 3.225000 3.808000 600 65 1.000000 0.054000 0.054000 1.200000 0.084000 0.101000
1517263611135244519	800 59 1.000000 0.248000 0.252000 1700 49 1.100000 3.225000 3.808000 600 65 1.000000 0.054000 0.054000 1.200000 0.085000 0.102000
1517263611679223644	800 59 1.000000 0.248000 0.252000 1700 49 1.100000 3.224000 3.807000 600 65 1.000000 0.054000 0.054000 1.200000 0.085000 0.102000
1517263612239258769	800 59 1.000000 0.248000 0.252000 1700 49 1.100000 3.228000 3.812000 600 65 1.000000 0.055000 0.055000 1.200000 0.085000 0.102000
1517263612795252102	800 59 1.000000 0.248000 0.252000 1700 49 1.100000 3.228000 3.812000 600 65 1.000000 0.054000 0.054000 1.200000 0.084000 0.101000
1517263613355253186	800 59 1.000000 0.248000 0.252000 1700 50 1.100000 3.228000 3.812000 600 65 1.000000 0.055000 0.055000 1.200000 0.084000 0.101000
1517263613911229102	800 59 1.000000 0.247000 0.251000 1700 50 1.100000 3.226000 3.809000 600 65 1.000000 0.055000 0.055000 1.200000 0.085000 0.102000
1517263614483256352	800 59 1.000000 0.248000 0.252000 1700 50 1.100000 3.227000 3.811000 600 65 1.000000 0.055000 0.055000 1.200000 0.085000 0.102000
1517263615043244894	800 59 1.000000 0.248000 0.252000 1700 50 1.100000 3.226000 3.809000 600 65 1.000000 0.055000 0.055000 1.200000 0.085000 0.102000
1517263615603245144	800 60 1.000000 0.248000 0.252000 1700 50 1.100000 3.223000 3.806000 600 66 1.000000 0.054000 0.054000 1.200000 0.085000 0.102000
1517263616159327478	800 60 1.000000 0.248000 0.252000 1700 50 1.100000 3.224000 3.807000 600 66 1.000000 0.055000 0.055000 1.200000 0.085000 0.102000
1517263616715217769	800 60 1.000000 0.248000 0.252000 1700 50 1.100000 3.228000 3.812000 600 66 1.000000 0.055000 0.055000 1.200000 0.085000 0.102000
1517263617279243978	800 60 1.000000 0.248000 0.252000 1700 50 1.100000 3.226000 3.806000 600 66 1.000000 0.055000 0.055000 1.200000 0.084000 0.101000
1517263617831251770	800 60 1.000000 0.249000 0.253000 1700 50 1.100000 3.223000 3.803000 600 66 1.000000 0.055000 0.055000 1.200000 0.084000 0.101000
1517263618391221728	800 60 1.000000 0.248000 0.252000 1700 50 1.100000 3.223000 3.806000 600 66 1.000000 0.055000 0.055000 1.200000 0.084000 0.101000
1517263618943210770	800 60 1.000000 0.248000 0.252000 1700 50 1.100000 3.226000 3.809000 600 66 1.000000 0.054000 0.054000 1.200000 0.085000 0.102000
1517263619499253228	800 60 1.000000 0.248000 0.252000 1700 50 1.100000 3.227000 3.811000 600 66 1.000000 0.055000 0.055000 1.200000 0.084000 0.101000
1517263620059257311	800 60 1.000000 0.249000 0.253000 1700 50 1.100000 3.227000 3.811000 600 66 1.000000 0.055000 0.055000 1.200000 0.085000 0.102000
1517263620611469603	800 60 1.000000 0.248000 0.252000 1700 50 1.100000 3.225000 3.808000 600 66 1.000000 0.055000 0.055000 1.200000 0.085000 0.102000
1517263621171234270	800 60 1.000000 0.249000 0.253000 1700 50 1.100000 3.225000 3.808000 600 66 1.000000 0.055000 0.055000 1.200000 0.085000 0.102000
1517263621727240812	800 60 1.000000 0.249000 0.253000 1700 50 1.100000 3.226000 3.809000 600 66 1.000000 0.055000 0.055000 1.200000 0.085000 0.102000
1517263622279292645	800 60 1.000000 0.249000 0.253000 1700 50 1.100000 3.231000 3.815000 600 66 1.000000 0.055000 0.055000 1.200000 0.084000 0.101000
1517263622839270853	800 60 1.000000 0.249000 0.253000 1700 50 1.100000 3.229000 3.813000 600 66 1.000000 0.055000 0.055000 1.200000 0.084000 0.101000
1517263623391212395	800 60 1.000000 0.248000 0.252000 1700 50 1.100000 3.231000 3.812000 600 66 1.000000 0.055000 0.055000 1.200000 0.084000 0.101000
1517263623947226604	800 60 1.000000 0.249000 0.253000 1700 50 1.100000 3.228000 3.809000 600 66 1.000000 0.055000 0.055000 1.200000 0.085000 0.102000
1517263624507224312	800 60 1.000000 0.249000 0.253000 1700 50 1.100000 3.227000 3.811000 600 66 1.000000 0.055000 0.055000 1.200000 0.084000 0.101000
1517263625067220770	800 60 1.000000 0.248000 0.252000 1700 50 1.100000 3.228000 3.812000 600 66 1.000000 0.055000 0.055000 1.200000 0.085000 0.102000
1517263625627244979	800 60 1.000000 0.249000 0.253000 1700 50 1.100000 3.231000 3.812000 600 66 1.000000 0.055000 0.055000 1.200000 0.084000 0.101000
1517263626191256646	800 60 1.000000 0.249000 0.253000 1700 50 1.100000 3.234000 3.819000 600 66 1.000000 0.055000 0.055000 1.200000 0.085000 0.102000
1517263626751205271	800 60 1.000000 0.249000 0.253000 1700 50 1.100000 3.231000 3.815000 600 66 1.000000 0.055000 0.055000 1.200000 0.085000 0.102000
1517263627299178937	800 60 1.000000 0.248000 0.252000 1700 50 1.100000 3.235000 3.820000 600 66 1.000000 0.055000 0.055000 1.200000 0.084000 0.101000
1517263627859248312	800 60 1.000000 0.249000 0.253000 1700 51 1.100000 3.234000 3.819000 600 66 1.000000 0.055000 0.055000 1.200000 0.084000 0.101000
1517263628427236437	800 60 1.000000 0.248000 0.252000 1700 51 1.100000 3.234000 3.819000 600 66 1.000000 0.055000 0.055000 1.200000 0.084000 0.101000
1517263628983281063	800 60 1.000000 0.249000 0.253000 1700 51 1.100000 3.229000 3.813000 600 66 1.000000 0.055000 0.055000 1.200000 0.084000 0.101000
1517263629539256104	800 60 1.000000 0.249000 0.253000 1700 51 1.100000 3.231000 3.815000 600 67 1.000000 0.055000 0.055000 1.200000 0.085000 0.102000
1517263630103253354	800 60 1.000000 0.248000 0.252000 1700 51 1.100000 3.229000 3.813000 600 67 1.000000 0.055000 0.055000 1.200000 0.084000 0.101000
1517263630659255354	800 60 1.000000 0.249000 0.253000 1700 51 1.100000 3.227000 3.811000 600 67 1.000000 0.055000 0.055000 1.200000 0.085000 0.102000
1517263631215234938	800 60 1.000000 0.249000 0.253000 1700 51 1.100000 3.235000 3.820000 600 66 1.000000 0.055000 0.055000 1.200000 0.085000 0.102000
1517263631775259313	800 60 1.000000 0.249000 0.253000 1700 51 1.100000 3.230000 3.814000 600 67 1.000000 0.055000 0.055000 1.200000 0.085000 0.102000
1517263632331198771	800 60 1.000000 0.249000 0.253000 1700 51 1.100000 3.236000 3.821000 600 67 1.000000 0.055000 0.055000 1.200000 0.084000 0.101000
1517263632891233980	800 60 1.000000 0.249000 0.253000 1700 51 1.100000 3.236000 3.821000 600 67 1.000000 0.055000 0.055000 1.200000 0.084000 0.101000
1517263633455271146	800 60 1.000000 0.249000 0.253000 1700 51 1.100000 3.237000 3.822000 600 67 1.000000 0.055000 0.055000 1.200000 0.084000 0.101000
1517263634003218688	800 61 1.000000 0.249000 0.253000 1700 51 1.100000 3.236000 3.821000 600 67 1.000000 0.055000 0.055000 1.200000 0.084000 0.101000
1517263634547231855	800 61 1.000000 0.248000 0.252000 1700 51 1.100000 3.237000 3.822000 600 67 1.000000 0.055000 0.055000 1.200000 0.084000 0.101000
1517263635107214813	800 61 1.000000 0.249000 0.253000 1700 51 1.100000 3.233000 3.818000 600 67 1.000000 0.055000 0.055000 1.200000 0.084000 0.101000
1517263635667229147	800 61 1.000000 0.249000 0.253000 1700 51 1.100000 3.232000 3.816000 600 67 1.000000 0.055000 0.055000 1.200000 0.084000 0.101000
1517263636223269855	800 61 1.000000 0.248000 0.252000 1700 51 1.100000 3.230000 3.814000 600 67 1.000000 0.055000 0.055000 1.200000 0.085000 0.102000
1517263636779249980	800 61 1.000000 0.249000 0.253000 1700 51 1.100000 3.237000 3.822000 600 67 1.000000 0.055000 0.055000 1.200000 0.084000 0.101000
1517263637335241105	800 61 1.000000 0.249000 0.253000 1700 51 1.100000 3.236000 3.821000 600 67 1.000000 0.055000 0.055000 1.200000 0.084000 0.101000
1517263637891285814	800 61 1.000000 0.249000 0.253000 1700 51 1.100000 3.236000 3.821000 600 67 1.000000 0.055000 0.055000 1.200000 0.085000 0.102000
1517263638447196605	800 61 1.000000 0.248000 0.252000 1700 51 1.100000 3.237000 3.822000 600 67 1.000000 0.055000 0.055000 1.200000 0.084000 0.101000
1517263639003216564	800 61 1.000000 0.249000 0.253000 1700 51 1.100000 3.241000 3.827000 600 67 1.000000 0.055000 0.055000 1.200000 0.084000 0.101000
1517263639559227897	800 61 1.000000 0.249000 0.253000 1700 51 1.100000 3.240000 3.826000 600 67 1.000000 0.055000 0.055000 1.200000 0.084000 0.101000
1517263640065103022	800 59 1.000000 0.249000 0.253000 1700 51 1.100000 3.238000 3.824000 600 63 1.000000 0.055000 0.055000 1.200000 0.084000 0.101000
1517263640570705689	800 58 1.000000 0.067000 0.068000 1700 49 1.100000 1.213000 1.420000 600 56 1.000000 0.055000 0.055000 1.200000 0.031000 0.037000
1517263641075950189	800 57 1.000000 0.039000 0.040000 1700 48 1.100000 1.322000 1.548000 600 53 1.000000 0.055000 0.055000 1.200000 0.027000 0.032000
1517263641581166481	800 55 1.000000 0.038000 0.038000 1700 47 1.100000 1.313000 1.537000 600 52 1.000000 0.054000 0.054000 1.200000 0.027000 0.032000
1517263642086510647	800 55 1.000000 0.038000 0.038000 1700 47 1.100000 1.356000 1.587000 600 51 1.000000 0.054000 0.054000 1.200000 0.028000 0.033000
1517263642591719731	800 54 1.000000 0.038000 0.039000 1700 46 1.100000 1.316000 1.541000 600 50 1.000000 0.054000 0.054000 1.200000 0.035000 0.042000
1517263643096938231	800 53 1.000000 0.037000 0.037000 1700 45 1.100000 1.306000 1.529000 600 50 1.000000 0.054000 0.054000 1.200000 0.027000 0.032000
1517263643602426939	800 53 1.000000 0.038000 0.038000 1700 45 1.100000 1.326000 1.552000 600 49 1.000000 0.054000 0.054000 1.200000 0.027000 0.032000
1517263644107646731	800 52 1.000000 0.037000 0.037000 1700 44 1.100000 1.300000 1.522000 600 49 1.000000 0.054000 0.054000 1.200000 0.028000 0.033000
1517263644612792814	800 52 1.000000 0.038000 0.038000 1700 44 1.100000 1.323000 1.549000 600 48 1.000000 0.053000 0.053000 1.200000 0.026000 0.031000
1517263645118053481	800 52 1.000000 0.037000 0.037000 1700 44 1.100000 1.318000 1.543000 600 48 1.000000 0.053000 0.053000 1.200000 0.028000 0.033000
1517263645623367398	800 51 1.000000 0.044000 0.045000 1700 44 1.100000 1.301000 1.523000 600 48 1.000000 0.053000 0.053000 1.200000 0.035000 0.042000
1517263646128589273	800 51 1.000000 0.042000 0.043000 1700 43 1.100000 1.392000 1.631000 600 48 1.000000 0.053000 0.053000 1.200000 0.031000 0.037000
1517263646634390565	800 51 1.000000 0.037000 0.037000 1700 43 1.100000 1.375000 1.610000 600 47 1.000000 0.053000 0.053000 1.200000 0.028000 0.033000
1517263647139666773	800 51 1.000000 0.041000 0.042000 1700 43 1.100000 1.297000 1.518000 600 47 1.000000 0.053000 0.053000 1.200000 0.032000 0.038000
1517263647645011940	800 51 1.000000 0.042000 0.043000 1700 43 1.100000 1.385000 1.621000 600 47 1.000000 0.053000 0.053000 1.200000 0.034000 0.041000
1517263648150398981	800 50 1.000000 0.037000 0.037000 1700 43 1.100000 1.322000 1.548000 600 47 1.000000 0.053000 0.053000 1.200000 0.034000 0.041000
1517263648655689857	800 50 1.000000 0.036000 0.036000 1700 42 1.100000 1.292000 1.512000 600 46 1.000000 0.053000 0.053000 1.200000 0.028000 0.033000
1517263649160525023	800 50 1.000000 0.037000 0.037000 1700 42 1.100000 1.293000 1.514000 600 46 1.000000 0.053000 0.053000 1.200000 0.027000 0.032000
1517263649665239232	800 50 1.000000 0.036000 0.036000 1700 42 1.100000 1.310000 1.534000 600 46 1.000000 0.053000 0.053000 1.200000 0.028000 0.033000
1517263650170043565	800 50 1.000000 0.037000 0.037000 1700 42 1.100000 1.297000 1.518000 600 46 1.000000 0.053000 0.053000 1.200000 0.028000 0.033000
1517263650674836357	800 50 1.000000 0.037000 0.037000 1700 42 1.100000 1.326000 1.552000 600 46 1.000000 0.053000 0.053000 1.200000 0.030000 0.036000
1517263651179590815	800 50 1.000000 0.037000 0.037000 1700 42 1.100000 1.295000 1.516000 600 46 1.000000 0.053000 0.053000 1.200000 0.028000 0.033000
1517263651684386274	800 49 1.000000 0.037000 0.037000 1700 42 1.100000 1.320000 1.545000 600 46 1.000000 0.053000 0.053000 1.200000 0.028000 0.033000
1517263652189126649	800 50 1.000000 0.038000 0.038000 1700 42 1.100000 1.346000 1.576000 600 46 1.000000 0.053000 0.053000 1.200000 0.032000 0.038000
1517263652694925357	800 50 1.000000 0.036000 0.036000 1700 42 1.100000 1.290000 1.510000 600 46 1.000000 0.053000 0.053000 1.200000 0.028000 0.033000
1517263653199796732	800 49 1.000000 0.041000 0.042000 1700 42 1.100000 1.418000 1.661000 600 46 1.000000 0.053000 0.053000 1.200000 0.034000 0.041000
1517263653704514690	800 49 1.000000 0.037000 0.037000 1700 41 1.100000 1.319000 1.544000 600 45 1.000000 0.053000 0.053000 1.200000 0.033000 0.039000
1517263654209290941	800 49 1.000000 0.036000 0.036000 1700 41 1.100000 1.310000 1.534000 600 45 1.000000 0.053000 0.053000 1.200000 0.027000 0.032000
1517263654714060857	800 49 1.000000 0.036000 0.036000 1700 41 1.100000 1.315000 1.539000 600 45 1.000000 0.053000 0.053000 1.200000 0.027000 0.032000
1517263655218791941	800 49 1.000000 0.036000 0.036000 1700 41 1.100000 1.295000 1.516000 600 45 1.000000 0.053000 0.053000 1.200000 0.026000 0.031000
1517263655723485816	800 49 1.000000 0.036000 0.036000 1700 41 1.100000 1.309000 1.532000 600 45 1.000000 0.053000 0.053000 1.200000 0.027000 0.032000
1517263656228114732	800 49 1.000000 0.036000 0.036000 1700 41 1.100000 1.313000 1.537000 600 45 1.000000 0.053000 0.053000 1.200000 0.030000 0.036000
1517263656732862566	800 49 1.000000 0.037000 0.037000 1700 41 1.100000 1.340000 1.569000 600 45 1.000000 0.053000 0.053000 1.200000 0.033000 0.039000
1517263657237556399	800 49 1.000000 0.036000 0.036000 1700 41 1.100000 1.307000 1.530000 600 45 1.000000 0.053000 0.053000 1.200000 0.027000 0.032000
1517263657743232899	800 49 1.000000 0.036000 0.036000 1700 41 1.100000 1.300000 1.522000 600 45 1.000000 0.053000 0.053000 1.200000 0.028000 0.033000
1517263658248139649	800 49 1.000000 0.038000 0.038000 1700 41 1.100000 1.403000 1.642000 600 45 1.000000 0.053000 0.053000 1.200000 0.036000 0.043000
1517263658752867441	800 49 1.000000 0.037000 0.037000 1700 41 1.100000 1.312000 1.536000 600 45 1.000000 0.053000 0.053000 1.200000 0.033000 0.039000
1517263659257463108	800 48 1.000000 0.036000 0.036000 1700 41 1.100000 1.310000 1.534000 600 45 1.000000 0.053000 0.053000 1.200000 0.027000 0.032000
1517263659762220025	800 48 1.000000 0.037000 0.037000 1700 41 1.100000 1.315000 1.539000 600 45 1.000000 0.053000 0.053000 1.200000 0.027000 0.032000
1517263660267483525	800 41 1.000000 0.039000 0.040000 1700 40 1.100000 1.240000 1.452000 600 44 1.000000 0.053000 0.053000 1.200000 0.041000 0.049000
1517263660772478650	800 39 1.000000 0.035000 0.035000 1700 38 1.100000 0.264000 0.308000 600 43 1.000000 0.053000 0.053000 1.200000 0.027000 0.032000
