#Timestamp	CPU(0) Frequency(MHz)	CPU(0) Temperature(C)	A7 Voltage(V)	A7 Current(A)	A7 Power(W)	CPU(4) Frequency(MHz)	CPU(4) Temperature(C)	A15 Voltage(V)	A15 Current(A)	A15 Power(W)	GPU Frequency(MHz)	GPU Temperature(C)	GPU Voltage(V)	GPU Current(A)	GPU Power(W)	RAM Voltage(V)	RAM Current(A)	RAM Power(W)
1517766051283730498	400 44 0.900000 0.047000 0.043000 1200 40 1.000000 1.697000 1.730000 600 48 1.000000 0.053000 0.053000 1.200000 0.045000 0.054000
1517766051847708664	400 45 0.900000 0.108000 0.098000 1200 40 1.000000 2.025000 2.071000 600 50 1.000000 0.053000 0.053000 1.200000 0.035000 0.042000
1517766052355347831	400 44 0.900000 0.111000 0.101000 1200 41 1.000000 1.798000 1.835000 600 51 1.000000 0.053000 0.053000 1.200000 0.036000 0.043000
1517766052882072956	400 47 0.900000 0.096000 0.087000 1200 41 1.000000 1.494000 1.525000 600 52 1.000000 0.053000 0.053000 1.200000 0.045000 0.054000
1517766053441565956	400 47 0.900000 0.088000 0.080000 1200 42 1.000000 1.974000 2.019000 600 52 1.000000 0.053000 0.053000 1.200000 0.047000 0.056000
1517766053991725665	400 47 0.900000 0.087000 0.079000 1200 42 1.000000 2.097000 2.145000 600 51 1.000000 0.053000 0.053000 1.200000 0.036000 0.043000
1517766054547648956	400 47 0.900000 0.105000 0.095000 1200 42 1.000000 2.041000 2.085000 600 51 1.000000 0.053000 0.053000 1.200000 0.036000 0.043000
1517766055055462998	400 45 0.900000 0.087000 0.079000 1200 42 1.000000 1.705000 1.740000 600 50 1.000000 0.053000 0.053000 1.200000 0.038000 0.045000
1517766055567786831	400 48 0.900000 0.081000 0.073000 1200 42 1.000000 1.567000 1.599000 600 53 1.000000 0.053000 0.053000 1.200000 0.047000 0.056000
1517766056115703457	400 48 0.900000 0.111000 0.101000 1200 42 1.000000 2.142000 2.191000 600 52 1.000000 0.053000 0.053000 1.200000 0.046000 0.055000
1517766056679989832	400 47 0.900000 0.112000 0.102000 1200 42 1.000000 2.022000 2.066000 600 52 1.000000 0.053000 0.053000 1.200000 0.037000 0.044000
1517766057225767915	400 48 0.900000 0.113000 0.103000 1200 42 1.000000 1.965000 2.010000 600 52 1.000000 0.053000 0.053000 1.200000 0.036000 0.043000
1517766057735583290	400 45 0.900000 0.113000 0.103000 1200 42 1.000000 1.966000 2.011000 600 50 1.000000 0.053000 0.053000 1.200000 0.037000 0.044000
1517766058291737540	400 48 0.900000 0.088000 0.080000 1200 42 1.000000 1.544000 1.576000 600 53 1.000000 0.053000 0.053000 1.200000 0.046000 0.055000
1517766058855679623	400 48 0.900000 0.112000 0.102000 1200 43 1.000000 1.516000 1.547000 600 53 1.000000 0.053000 0.053000 1.200000 0.034000 0.041000
1517766059407684374	400 48 0.900000 0.085000 0.077000 1200 43 1.000000 1.568000 1.600000 600 53 1.000000 0.053000 0.053000 1.200000 0.045000 0.054000
1517766059959688915	400 48 0.900000 0.082000 0.074000 1200 42 1.000000 2.014000 2.060000 600 52 1.000000 0.053000 0.053000 1.200000 0.044000 0.053000
1517766060519713290	400 47 0.900000 0.102000 0.093000 1200 42 1.000000 2.085000 2.132000 600 52 1.000000 0.053000 0.053000 1.200000 0.036000 0.043000
1517766061027739790	400 45 0.900000 0.098000 0.089000 1200 42 1.000000 2.014000 2.060000 600 53 1.000000 0.053000 0.053000 1.200000 0.034000 0.041000
1517766061538563415	400 48 0.900000 0.083000 0.075000 1200 43 1.000000 1.603000 1.636000 600 53 1.000000 0.053000 0.053000 1.200000 0.036000 0.043000
1517766062080105124	400 48 0.900000 0.087000 0.079000 1200 43 1.000000 1.536000 1.568000 600 53 1.000000 0.053000 0.053000 1.200000 0.047000 0.056000
1517766062636692957	400 48 0.900000 0.111000 0.101000 1200 43 1.000000 1.988000 2.033000 600 53 1.000000 0.053000 0.053000 1.200000 0.045000 0.054000
1517766063191720791	400 48 0.900000 0.111000 0.101000 1200 42 1.000000 2.162000 2.209000 600 53 1.000000 0.053000 0.053000 1.200000 0.036000 0.043000
1517766063699434624	400 45 0.900000 0.113000 0.103000 1200 43 1.000000 2.085000 2.130000 600 51 1.000000 0.053000 0.053000 1.200000 0.034000 0.041000
1517766064255749874	400 47 0.900000 0.090000 0.082000 1200 43 1.000000 1.595000 1.628000 600 53 1.000000 0.053000 0.053000 1.200000 0.038000 0.045000
1517766064815697958	400 47 0.900000 0.085000 0.077000 1200 43 1.000000 1.577000 1.608000 600 52 1.000000 0.053000 0.053000 1.200000 0.046000 0.055000
1517766065368375499	400 48 0.900000 0.087000 0.079000 1200 43 1.000000 2.097000 2.145000 600 53 1.000000 0.053000 0.053000 1.200000 0.045000 0.054000
1517766065907950666	400 48 0.900000 0.113000 0.103000 1200 43 1.000000 2.082000 2.129000 600 53 1.000000 0.053000 0.053000 1.200000 0.038000 0.045000
1517766066451546249	400 48 0.900000 0.111000 0.101000 1200 43 1.000000 2.041000 2.087000 600 53 1.000000 0.053000 0.053000 1.200000 0.038000 0.045000
1517766066963149833	400 47 0.900000 0.113000 0.103000 1200 43 1.000000 1.843000 1.883000 600 50 1.000000 0.053000 0.053000 1.200000 0.045000 0.054000
1517766067519704000	400 48 0.900000 0.088000 0.080000 1200 43 1.000000 1.676000 1.711000 600 53 1.000000 0.053000 0.053000 1.200000 0.042000 0.050000
1517766068075732208	400 48 0.900000 0.087000 0.079000 1200 43 1.000000 1.869000 1.910000 600 53 1.000000 0.053000 0.053000 1.200000 0.048000 0.058000
1517766068631690916	400 48 0.900000 0.086000 0.078000 1200 43 1.000000 1.668000 1.703000 600 53 1.000000 0.053000 0.053000 1.200000 0.038000 0.045000
1517766069187715833	400 48 0.900000 0.113000 0.103000 1200 43 1.000000 1.837000 1.875000 600 53 1.000000 0.053000 0.053000 1.200000 0.038000 0.045000
1517766069747668583	400 48 0.900000 0.111000 0.101000 1200 43 1.000000 1.957000 2.002000 600 52 1.000000 0.053000 0.053000 1.200000 0.038000 0.045000
1517766070255510625	400 46 0.900000 0.110000 0.100000 1200 43 1.000000 2.017000 2.061000 600 51 1.000000 0.053000 0.053000 1.200000 0.042000 0.050000
1517766070819743500	400 48 0.900000 0.105000 0.095000 1200 43 1.000000 1.939000 1.981000 600 53 1.000000 0.053000 0.053000 1.200000 0.048000 0.058000
1517766071379739833	400 48 0.900000 0.087000 0.079000 1200 43 1.000000 1.598000 1.631000 600 53 1.000000 0.053000 0.053000 1.200000 0.040000 0.048000
1517766071931711958	400 48 0.900000 0.083000 0.075000 1200 43 1.000000 1.702000 1.737000 600 53 1.000000 0.053000 0.053000 1.200000 0.037000 0.044000
1517766072463878542	400 48 0.900000 0.114000 0.103000 1200 43 1.000000 1.897000 1.938000 600 52 1.000000 0.053000 0.053000 1.200000 0.036000 0.043000
1517766072974405334	400 47 0.900000 0.114000 0.103000 1200 43 1.000000 2.013000 2.057000 600 53 1.000000 0.053000 0.053000 1.200000 0.042000 0.050000
1517766073496302625	400 49 0.900000 0.113000 0.103000 1200 43 1.000000 2.084000 2.129000 600 53 1.000000 0.053000 0.053000 1.200000 0.047000 0.056000
1517766074052755167	400 48 0.900000 0.097000 0.088000 1200 43 1.000000 1.670000 1.705000 600 54 1.000000 0.053000 0.053000 1.200000 0.043000 0.052000
1517766074607694792	400 48 0.900000 0.106000 0.096000 1200 43 1.000000 1.664000 1.698000 600 53 1.000000 0.053000 0.053000 1.200000 0.037000 0.044000
1517766075167135209	400 48 0.900000 0.106000 0.096000 1200 43 1.000000 1.924000 1.968000 600 53 1.000000 0.053000 0.053000 1.200000 0.036000 0.043000
1517766075727699001	400 48 0.900000 0.104000 0.094000 1200 43 1.000000 1.788000 1.825000 600 52 1.000000 0.053000 0.053000 1.200000 0.035000 0.042000
1517766076235660167	400 46 0.900000 0.109000 0.099000 1200 43 1.000000 2.023000 2.067000 600 53 1.000000 0.053000 0.053000 1.200000 0.037000 0.044000
1517766076795705584	400 47 0.900000 0.108000 0.098000 1200 43 1.000000 1.945000 1.989000 600 52 1.000000 0.053000 0.053000 1.200000 0.042000 0.050000
1517766077359707376	400 48 0.900000 0.097000 0.088000 1200 43 1.000000 1.979000 2.024000 600 53 1.000000 0.053000 0.053000 1.200000 0.044000 0.053000
1517766077915701542	400 48 0.900000 0.087000 0.079000 1200 43 1.000000 1.676000 1.711000 600 53 1.000000 0.053000 0.053000 1.200000 0.042000 0.050000
1517766078471668793	400 48 0.900000 0.086000 0.078000 1200 43 1.000000 1.579000 1.612000 600 53 1.000000 0.053000 0.053000 1.200000 0.038000 0.045000
1517766079021715668	400 48 0.900000 0.111000 0.101000 1200 43 1.000000 2.108000 2.156000 600 53 1.000000 0.053000 0.053000 1.200000 0.039000 0.047000
1517766079529445376	400 47 0.900000 0.108000 0.098000 1200 43 1.000000 1.976000 2.019000 600 50 1.000000 0.053000 0.053000 1.200000 0.039000 0.047000
1517766080087707209	400 48 0.900000 0.084000 0.076000 1200 43 1.000000 2.081000 2.128000 600 53 1.000000 0.053000 0.053000 1.200000 0.048000 0.057000
1517766080639696501	400 48 0.900000 0.096000 0.087000 1200 43 1.000000 1.589000 1.622000 600 53 1.000000 0.053000 0.053000 1.200000 0.044000 0.053000
1517766081199699584	400 48 0.900000 0.108000 0.098000 1200 43 1.000000 1.549000 1.581000 600 53 1.000000 0.053000 0.053000 1.200000 0.037000 0.044000
1517766081759709460	400 48 0.900000 0.107000 0.097000 1200 43 1.000000 2.073000 2.118000 600 53 1.000000 0.053000 0.053000 1.200000 0.035000 0.042000
1517766082315706376	400 48 0.900000 0.107000 0.097000 1200 43 1.000000 1.742000 1.776000 600 53 1.000000 0.053000 0.053000 1.200000 0.034000 0.041000
1517766082823567585	400 45 0.900000 0.109000 0.099000 1200 43 1.000000 2.083000 2.128000 600 51 1.000000 0.053000 0.053000 1.200000 0.033000 0.039000
1517766083379804835	400 48 0.900000 0.111000 0.101000 1200 43 1.000000 2.114000 2.160000 600 53 1.000000 0.053000 0.053000 1.200000 0.039000 0.047000
1517766083947694710	400 47 0.900000 0.100000 0.091000 1200 43 1.000000 2.105000 2.153000 600 52 1.000000 0.053000 0.053000 1.200000 0.048000 0.057000
1517766084487716168	400 48 0.900000 0.089000 0.081000 1200 43 1.000000 1.468000 1.500000 600 53 1.000000 0.053000 0.053000 1.200000 0.045000 0.054000
1517766084995899168	400 47 0.900000 0.076000 0.069000 1200 43 1.000000 1.403000 1.432000 600 52 1.000000 0.053000 0.053000 1.200000 0.034000 0.041000
1517766085503869668	400 47 0.900000 0.110000 0.100000 1200 43 1.000000 2.048000 2.095000 600 50 1.000000 0.053000 0.053000 1.200000 0.034000 0.041000
1517766086063704418	400 48 0.900000 0.109000 0.099000 1200 43 1.000000 2.017000 2.063000 600 53 1.000000 0.053000 0.053000 1.200000 0.039000 0.047000
1517766086619655668	400 48 0.900000 0.083000 0.075000 1200 43 1.000000 2.029000 2.073000 600 53 1.000000 0.053000 0.053000 1.200000 0.046000 0.055000
1517766087175703710	400 48 0.900000 0.103000 0.094000 1200 43 1.000000 1.647000 1.681000 600 53 1.000000 0.053000 0.053000 1.200000 0.045000 0.054000
1517766087733297544	400 48 0.900000 0.110000 0.100000 1200 43 1.000000 1.508000 1.539000 600 53 1.000000 0.053000 0.053000 1.200000 0.035000 0.042000
1517766088274306919	400 48 0.900000 0.102000 0.093000 1200 43 1.000000 1.970000 2.013000 600 53 1.000000 0.053000 0.053000 1.200000 0.037000 0.044000
1517766088782939669	400 47 0.900000 0.108000 0.098000 1200 43 1.000000 2.045000 2.087000 600 50 1.000000 0.053000 0.053000 1.200000 0.034000 0.041000
1517766089335712752	400 48 0.900000 0.088000 0.080000 1200 43 1.000000 1.580000 1.613000 600 53 1.000000 0.053000 0.053000 1.200000 0.047000 0.056000
1517766089895723377	400 48 0.900000 0.084000 0.076000 1200 43 1.000000 1.819000 1.859000 600 53 1.000000 0.053000 0.053000 1.200000 0.048000 0.057000
1517766090454189836	400 48 0.900000 0.085000 0.077000 1200 43 1.000000 2.055000 2.100000 600 53 1.000000 0.053000 0.053000 1.200000 0.038000 0.045000
1517766090980974711	400 48 0.900000 0.105000 0.095000 1200 43 1.000000 2.102000 2.150000 600 53 1.000000 0.053000 0.053000 1.200000 0.038000 0.045000
1517766091514870002	400 48 0.900000 0.110000 0.100000 1200 43 1.000000 1.857000 1.899000 600 53 1.000000 0.053000 0.053000 1.200000 0.035000 0.042000
1517766092024453919	400 47 0.900000 0.111000 0.101000 1200 43 1.000000 1.584000 1.617000 600 51 1.000000 0.053000 0.053000 1.200000 0.043000 0.051000
1517766092547778878	400 48 0.900000 0.111000 0.101000 1200 43 1.000000 1.578000 1.611000 600 53 1.000000 0.053000 0.053000 1.200000 0.048000 0.058000
1517766093071260461	400 48 0.900000 0.111000 0.101000 1200 43 1.000000 1.945000 1.987000 600 53 1.000000 0.053000 0.053000 1.200000 0.046000 0.055000
1517766093578779128	400 48 0.900000 0.106000 0.096000 1200 43 1.000000 2.077000 2.122000 600 53 1.000000 0.053000 0.053000 1.200000 0.042000 0.050000
1517766094099729044	400 48 0.900000 0.111000 0.101000 1200 43 1.000000 1.974000 2.019000 600 53 1.000000 0.053000 0.053000 1.200000 0.035000 0.042000
1517766094632232378	400 48 0.900000 0.113000 0.103000 1200 43 1.000000 2.119000 2.165000 600 53 1.000000 0.053000 0.053000 1.200000 0.035000 0.042000
1517766095140775836	400 45 0.900000 0.107000 0.097000 1200 43 1.000000 1.711000 1.748000 600 51 1.000000 0.053000 0.053000 1.200000 0.035000 0.042000
1517766095699765670	400 48 0.900000 0.083000 0.075000 1200 43 1.000000 1.602000 1.635000 600 53 1.000000 0.053000 0.053000 1.200000 0.046000 0.055000
1517766096259766128	400 48 0.900000 0.086000 0.078000 1200 43 1.000000 1.680000 1.716000 600 53 1.000000 0.053000 0.053000 1.200000 0.044000 0.053000
1517766096815701503	400 48 0.900000 0.102000 0.093000 1200 43 1.000000 2.044000 2.088000 600 53 1.000000 0.053000 0.053000 1.200000 0.042000 0.050000
1517766097367667586	400 48 0.900000 0.088000 0.080000 1200 43 1.000000 1.817000 1.855000 600 53 1.000000 0.053000 0.053000 1.200000 0.045000 0.054000
1517766097927731753	400 48 0.900000 0.088000 0.080000 1200 43 1.000000 2.042000 2.086000 600 53 1.000000 0.053000 0.053000 1.200000 0.037000 0.044000
1517766098435304170	400 46 0.900000 0.111000 0.101000 1200 43 1.000000 1.973000 2.018000 600 51 1.000000 0.053000 0.053000 1.200000 0.036000 0.043000
1517766098964132670	400 48 0.900000 0.086000 0.078000 1200 43 1.000000 1.657000 1.693000 600 53 1.000000 0.053000 0.053000 1.200000 0.034000 0.041000
1517766099526842420	400 48 0.900000 0.085000 0.077000 1200 43 1.000000 1.577000 1.610000 600 53 1.000000 0.053000 0.053000 1.200000 0.043000 0.051000
1517766100087740128	400 48 0.900000 0.109000 0.099000 1200 43 1.000000 2.047000 2.092000 600 53 1.000000 0.053000 0.053000 1.200000 0.045000 0.054000
1517766100643730712	400 48 0.900000 0.105000 0.095000 1200 43 1.000000 2.063000 2.110000 600 53 1.000000 0.053000 0.053000 1.200000 0.037000 0.044000
1517766101151581337	400 46 0.900000 0.109000 0.099000 1200 43 1.000000 2.071000 2.118000 600 53 1.000000 0.053000 0.053000 1.200000 0.035000 0.042000
1517766101660333629	400 49 0.900000 0.082000 0.074000 1200 43 1.000000 1.583000 1.616000 600 54 1.000000 0.053000 0.053000 1.200000 0.040000 0.048000
1517766102219741754	400 48 0.900000 0.083000 0.075000 1200 43 1.000000 1.592000 1.625000 600 53 1.000000 0.053000 0.053000 1.200000 0.044000 0.053000
1517766102783708212	400 48 0.900000 0.100000 0.091000 1200 43 1.000000 2.046000 2.093000 600 53 1.000000 0.053000 0.053000 1.200000 0.041000 0.049000
1517766103347719837	400 48 0.900000 0.108000 0.098000 1200 43 1.000000 2.053000 2.098000 600 53 1.000000 0.053000 0.053000 1.200000 0.036000 0.043000
1517766103855584296	400 46 0.900000 0.114000 0.103000 1200 43 1.000000 2.111000 2.157000 600 51 1.000000 0.053000 0.053000 1.200000 0.038000 0.045000
1517766104363235129	400 48 0.900000 0.099000 0.090000 1200 43 1.000000 1.740000 1.776000 600 53 1.000000 0.053000 0.053000 1.200000 0.041000 0.049000
1517766104915673337	400 48 0.900000 0.088000 0.080000 1200 43 1.000000 1.682000 1.717000 600 53 1.000000 0.053000 0.053000 1.200000 0.048000 0.057000
1517766105459697837	400 48 0.900000 0.106000 0.096000 1200 43 1.000000 2.063000 2.108000 600 53 1.000000 0.053000 0.053000 1.200000 0.039000 0.047000
1517766106019726962	400 48 0.900000 0.110000 0.100000 1200 43 1.000000 2.122000 2.168000 600 53 1.000000 0.053000 0.053000 1.200000 0.037000 0.044000
1517766106527680504	400 46 0.900000 0.086000 0.078000 1200 43 1.000000 1.881000 1.924000 600 51 1.000000 0.053000 0.053000 1.200000 0.046000 0.055000
1517766107039834588	400 49 0.900000 0.083000 0.075000 1200 43 1.000000 1.703000 1.738000 600 54 1.000000 0.053000 0.053000 1.200000 0.039000 0.047000
1517766107597220838	400 48 0.900000 0.111000 0.101000 1200 43 1.000000 1.853000 1.893000 600 53 1.000000 0.053000 0.053000 1.200000 0.036000 0.043000
1517766108157544254	400 48 0.900000 0.109000 0.099000 1200 43 1.000000 1.967000 2.012000 600 53 1.000000 0.053000 0.053000 1.200000 0.036000 0.043000
1517766108719722963	400 48 0.900000 0.096000 0.087000 1200 43 1.000000 1.876000 1.917000 600 53 1.000000 0.053000 0.053000 1.200000 0.037000 0.044000
1517766109227775130	400 46 0.900000 0.110000 0.100000 1200 43 1.000000 2.056000 2.103000 600 53 1.000000 0.053000 0.053000 1.200000 0.036000 0.043000
1517766109787814213	400 48 0.900000 0.109000 0.099000 1200 43 1.000000 2.095000 2.143000 600 53 1.000000 0.053000 0.053000 1.200000 0.043000 0.051000
1517766110295301505	400 48 0.900000 0.111000 0.101000 1200 43 1.000000 1.656000 1.692000 600 54 1.000000 0.053000 0.053000 1.200000 0.049000 0.059000
1517766110841475713	400 48 0.900000 0.086000 0.078000 1200 43 1.000000 1.495000 1.526000 600 53 1.000000 0.054000 0.054000 1.200000 0.036000 0.043000
1517766111400469713	400 48 0.900000 0.113000 0.103000 1200 43 1.000000 1.905000 1.946000 600 53 1.000000 0.053000 0.053000 1.200000 0.039000 0.047000
1517766111911257838	400 46 0.900000 0.109000 0.099000 1200 43 1.000000 2.031000 2.077000 600 53 1.000000 0.053000 0.053000 1.200000 0.039000 0.047000
1517766112449059588	400 48 0.900000 0.092000 0.083000 1200 43 1.000000 2.106000 2.154000 600 53 1.000000 0.053000 0.053000 1.200000 0.046000 0.055000
1517766112990170838	400 48 0.900000 0.088000 0.080000 1200 43 1.000000 1.974000 2.015000 600 53 1.000000 0.053000 0.053000 1.200000 0.048000 0.057000
1517766113497370922	400 48 0.900000 0.091000 0.083000 1200 43 1.000000 1.610000 1.643000 600 53 1.000000 0.053000 0.053000 1.200000 0.041000 0.049000
1517766114051703380	400 47 0.900000 0.084000 0.076000 1200 43 1.000000 1.620000 1.654000 600 52 1.000000 0.053000 0.053000 1.200000 0.038000 0.045000
1517766114577594963	400 48 0.900000 0.095000 0.086000 1200 43 1.000000 1.677000 1.712000 600 53 1.000000 0.053000 0.053000 1.200000 0.038000 0.045000
1517766115085039505	400 48 0.900000 0.110000 0.100000 1200 43 1.000000 1.953000 1.995000 600 54 1.000000 0.053000 0.053000 1.200000 0.039000 0.047000
1517766115595243297	400 47 0.900000 0.112000 0.102000 1200 43 1.000000 1.980000 2.025000 600 52 1.000000 0.053000 0.053000 1.200000 0.037000 0.044000
1517766116106318339	400 49 0.900000 0.108000 0.098000 1200 43 1.000000 1.962000 2.007000 600 54 1.000000 0.053000 0.053000 1.200000 0.043000 0.052000
1517766116655850880	400 49 0.900000 0.111000 0.101000 1200 43 1.000000 2.012000 2.056000 600 53 1.000000 0.053000 0.053000 1.200000 0.047000 0.056000
1517766117208227130	400 48 0.900000 0.089000 0.081000 1200 43 1.000000 1.445000 1.475000 600 53 1.000000 0.053000 0.053000 1.200000 0.043000 0.052000
1517766117759733881	400 48 0.900000 0.112000 0.102000 1200 43 1.000000 1.533000 1.565000 600 53 1.000000 0.053000 0.053000 1.200000 0.036000 0.043000
1517766118319652464	400 48 0.900000 0.107000 0.097000 1200 43 1.000000 2.104000 2.152000 600 53 1.000000 0.053000 0.053000 1.200000 0.036000 0.043000
1517766118827590506	400 46 0.900000 0.106000 0.096000 1200 43 1.000000 2.022000 2.068000 600 51 1.000000 0.053000 0.053000 1.200000 0.040000 0.048000
1517766119335086964	400 48 0.900000 0.085000 0.077000 1200 43 1.000000 2.016000 2.062000 600 53 1.000000 0.053000 0.053000 1.200000 0.047000 0.056000
1517766119888871089	400 48 0.900000 0.084000 0.076000 1200 43 1.000000 1.704000 1.739000 600 53 1.000000 0.053000 0.053000 1.200000 0.043000 0.051000
1517766120452041506	400 48 0.900000 0.112000 0.102000 1200 43 1.000000 1.577000 1.610000 600 53 1.000000 0.053000 0.053000 1.200000 0.038000 0.045000
1517766121012337964	400 48 0.900000 0.108000 0.098000 1200 43 1.000000 2.070000 2.115000 600 53 1.000000 0.053000 0.053000 1.200000 0.039000 0.047000
1517766121520244298	400 47 0.900000 0.112000 0.102000 1200 43 1.000000 2.033000 2.077000 600 51 1.000000 0.053000 0.053000 1.200000 0.042000 0.050000
1517766122083732548	400 48 0.900000 0.096000 0.087000 1200 43 1.000000 2.073000 2.118000 600 53 1.000000 0.053000 0.053000 1.200000 0.048000 0.057000
1517766122639738798	400 48 0.900000 0.086000 0.078000 1200 43 1.000000 1.776000 1.813000 600 53 1.000000 0.053000 0.053000 1.200000 0.044000 0.053000
1517766123199715464	400 48 0.900000 0.082000 0.074000 1200 43 1.000000 1.564000 1.596000 600 53 1.000000 0.053000 0.053000 1.200000 0.038000 0.045000
1517766123759715673	400 48 0.900000 0.087000 0.079000 1200 43 1.000000 1.679000 1.712000 600 53 1.000000 0.053000 0.053000 1.200000 0.042000 0.050000
1517766124323792756	400 48 0.900000 0.112000 0.102000 1200 43 1.000000 1.603000 1.636000 600 53 1.000000 0.053000 0.053000 1.200000 0.035000 0.042000
1517766124831881340	400 48 0.900000 0.108000 0.098000 1200 43 1.000000 2.121000 2.167000 600 51 1.000000 0.053000 0.053000 1.200000 0.036000 0.043000
1517766125391761798	400 48 0.900000 0.092000 0.083000 1200 43 1.000000 2.035000 2.077000 600 53 1.000000 0.053000 0.053000 1.200000 0.041000 0.049000
1517766125951696256	400 48 0.900000 0.089000 0.081000 1200 43 1.000000 1.571000 1.603000 600 53 1.000000 0.053000 0.053000 1.200000 0.044000 0.053000
1517766126471659507	400 48 0.900000 0.091000 0.083000 1200 43 1.000000 1.999000 2.044000 600 53 1.000000 0.053000 0.053000 1.200000 0.040000 0.048000
1517766127010969507	400 48 0.900000 0.107000 0.097000 1200 43 1.000000 2.031000 2.075000 600 53 1.000000 0.053000 0.053000 1.200000 0.038000 0.045000
1517766127518831257	400 46 0.900000 0.108000 0.098000 1200 43 1.000000 2.168000 2.215000 600 51 1.000000 0.053000 0.053000 1.200000 0.039000 0.047000
1517766128075744590	400 48 0.900000 0.109000 0.099000 1200 43 1.000000 1.544000 1.576000 600 53 1.000000 0.053000 0.053000 1.200000 0.044000 0.053000
1517766128635732840	400 48 0.900000 0.087000 0.079000 1200 43 1.000000 1.709000 1.744000 600 53 1.000000 0.053000 0.053000 1.200000 0.045000 0.054000
1517766129195766299	400 48 0.900000 0.086000 0.078000 1200 43 1.000000 2.032000 2.076000 600 54 1.000000 0.053000 0.053000 1.200000 0.041000 0.049000
1517766129739663882	400 47 0.900000 0.109000 0.099000 1200 43 1.000000 1.990000 2.033000 600 53 1.000000 0.053000 0.053000 1.200000 0.039000 0.047000
1517766130254220340	400 47 0.900000 0.112000 0.102000 1200 43 1.000000 1.907000 1.948000 600 52 1.000000 0.053000 0.053000 1.200000 0.037000 0.044000
1517766130792172340	400 48 0.900000 0.083000 0.075000 1200 43 1.000000 1.697000 1.732000 600 54 1.000000 0.053000 0.053000 1.200000 0.041000 0.049000
1517766131350823174	400 48 0.900000 0.099000 0.090000 1200 43 1.000000 1.746000 1.784000 600 53 1.000000 0.053000 0.053000 1.200000 0.047000 0.056000
1517766131907696382	400 48 0.900000 0.106000 0.096000 1200 43 1.000000 2.003000 2.047000 600 53 1.000000 0.053000 0.053000 1.200000 0.038000 0.045000
1517766132463691882	400 48 0.900000 0.091000 0.083000 1200 43 1.000000 1.891000 1.932000 600 53 1.000000 0.053000 0.053000 1.200000 0.044000 0.053000
1517766133027750632	400 48 0.900000 0.106000 0.096000 1200 43 1.000000 2.027000 2.071000 600 53 1.000000 0.053000 0.053000 1.200000 0.036000 0.043000
1517766133535683841	400 46 0.900000 0.111000 0.101000 1200 43 1.000000 2.082000 2.129000 600 51 1.000000 0.053000 0.053000 1.200000 0.033000 0.039000
1517766134090899049	400 48 0.900000 0.108000 0.098000 1200 43 1.000000 1.869000 1.910000 600 54 1.000000 0.053000 0.053000 1.200000 0.034000 0.041000
1517766134626997841	400 48 0.900000 0.101000 0.092000 1200 43 1.000000 1.784000 1.821000 600 54 1.000000 0.053000 0.053000 1.200000 0.044000 0.053000
1517766135155299091	400 48 0.900000 0.086000 0.078000 1200 43 1.000000 1.570000 1.602000 600 53 1.000000 0.053000 0.053000 1.200000 0.044000 0.053000
1517766135671680174	400 48 0.900000 0.090000 0.082000 1200 43 1.000000 2.027000 2.073000 600 53 1.000000 0.053000 0.053000 1.200000 0.044000 0.053000
1517766136183052674	400 48 0.900000 0.084000 0.076000 1200 43 1.000000 1.983000 2.028000 600 53 1.000000 0.053000 0.053000 1.200000 0.039000 0.047000
1517766136727789258	400 47 0.900000 0.112000 0.102000 1200 43 1.000000 2.003000 2.047000 600 52 1.000000 0.053000 0.053000 1.200000 0.035000 0.042000
1517766137237016883	400 46 0.900000 0.103000 0.093000 1200 43 1.000000 2.114000 2.162000 600 51 1.000000 0.053000 0.053000 1.200000 0.036000 0.043000
1517766137758965758	400 48 0.900000 0.091000 0.083000 1200 43 1.000000 1.855000 1.897000 600 53 1.000000 0.053000 0.053000 1.200000 0.036000 0.043000
1517766138274039758	400 49 0.900000 0.089000 0.081000 1200 43 1.000000 1.555000 1.587000 600 54 1.000000 0.053000 0.053000 1.200000 0.039000 0.047000
1517766138793219216	400 48 0.900000 0.088000 0.080000 1200 43 1.000000 1.652000 1.686000 600 53 1.000000 0.053000 0.053000 1.200000 0.045000 0.054000
1517766139300765925	400 48 0.900000 0.088000 0.080000 1200 43 1.000000 1.685000 1.720000 600 53 1.000000 0.053000 0.053000 1.200000 0.044000 0.053000
1517766139811625716	400 48 0.900000 0.094000 0.085000 1200 43 1.000000 2.041000 2.085000 600 53 1.000000 0.053000 0.053000 1.200000 0.044000 0.053000
1517766140323683300	400 47 0.900000 0.114000 0.104000 1200 43 1.000000 2.010000 2.054000 600 53 1.000000 0.053000 0.053000 1.200000 0.036000 0.043000
1517766140848674258	400 49 0.900000 0.083000 0.075000 1200 43 1.000000 1.719000 1.755000 600 54 1.000000 0.053000 0.053000 1.200000 0.046000 0.055000
1517766141401888717	400 48 0.900000 0.083000 0.075000 1200 43 1.000000 1.677000 1.712000 600 53 1.000000 0.053000 0.053000 1.200000 0.047000 0.056000
1517766141951732425	400 48 0.900000 0.107000 0.097000 1200 43 1.000000 1.555000 1.589000 600 53 1.000000 0.053000 0.053000 1.200000 0.041000 0.049000
1517766142499681092	400 48 0.900000 0.086000 0.078000 1200 43 1.000000 1.645000 1.679000 600 53 1.000000 0.053000 0.053000 1.200000 0.045000 0.054000
1517766143059789842	400 48 0.900000 0.111000 0.101000 1200 43 1.000000 2.077000 2.124000 600 53 1.000000 0.053000 0.053000 1.200000 0.038000 0.045000
1517766143567826342	400 48 0.900000 0.110000 0.100000 1200 43 1.000000 2.021000 2.067000 600 51 1.000000 0.053000 0.053000 1.200000 0.036000 0.043000
1517766144135750634	400 48 0.900000 0.086000 0.078000 1200 43 1.000000 2.051000 2.096000 600 52 1.000000 0.053000 0.053000 1.200000 0.035000 0.042000
1517766144699657759	400 48 0.900000 0.086000 0.078000 1200 43 1.000000 1.554000 1.588000 600 53 1.000000 0.053000 0.053000 1.200000 0.040000 0.048000
1517766145255724717	400 48 0.900000 0.096000 0.087000 1200 43 1.000000 1.587000 1.620000 600 54 1.000000 0.053000 0.053000 1.200000 0.047000 0.056000
1517766145811718717	400 48 0.900000 0.109000 0.099000 1200 43 1.000000 2.047000 2.094000 600 53 1.000000 0.053000 0.053000 1.200000 0.038000 0.045000
1517766146331841092	400 47 0.900000 0.109000 0.099000 1200 43 1.000000 1.998000 2.043000 600 52 1.000000 0.053000 0.053000 1.200000 0.044000 0.053000
1517766146841771676	400 49 0.900000 0.114000 0.103000 1200 43 1.000000 1.950000 1.994000 600 54 1.000000 0.053000 0.053000 1.200000 0.044000 0.053000
1517766147391725092	400 48 0.900000 0.085000 0.077000 1200 43 1.000000 1.686000 1.721000 600 53 1.000000 0.053000 0.053000 1.200000 0.039000 0.047000
1517766147947761467	400 48 0.900000 0.086000 0.078000 1200 43 1.000000 1.755000 1.791000 600 53 1.000000 0.053000 0.053000 1.200000 0.037000 0.044000
1517766148459836968	400 47 0.900000 0.109000 0.099000 1200 43 1.000000 1.928000 1.972000 600 53 1.000000 0.053000 0.053000 1.200000 0.036000 0.043000
1517766148967776509	400 48 0.900000 0.106000 0.096000 1200 43 1.000000 1.963000 2.008000 600 51 1.000000 0.053000 0.053000 1.200000 0.046000 0.055000
1517766149531712218	400 48 0.900000 0.085000 0.077000 1200 43 1.000000 1.650000 1.684000 600 53 1.000000 0.053000 0.053000 1.200000 0.045000 0.054000
1517766150039258134	400 48 0.900000 0.111000 0.101000 1200 43 1.000000 1.540000 1.572000 600 54 1.000000 0.053000 0.053000 1.200000 0.037000 0.044000
1517766150581108343	400 48 0.900000 0.111000 0.101000 1200 43 1.000000 2.116000 2.162000 600 53 1.000000 0.053000 0.053000 1.200000 0.035000 0.042000
1517766151140156259	400 48 0.900000 0.111000 0.101000 1200 43 1.000000 2.075000 2.122000 600 53 1.000000 0.053000 0.053000 1.200000 0.042000 0.050000
1517766151648254051	400 48 0.900000 0.096000 0.087000 1200 43 1.000000 2.147000 2.194000 600 51 1.000000 0.053000 0.053000 1.200000 0.047000 0.056000
1517766152195739093	400 48 0.900000 0.087000 0.079000 1200 43 1.000000 1.555000 1.587000 600 54 1.000000 0.053000 0.053000 1.200000 0.045000 0.054000
1517766152703384093	400 48 0.900000 0.091000 0.083000 1200 43 1.000000 1.572000 1.605000 600 54 1.000000 0.053000 0.053000 1.200000 0.035000 0.042000
1517766153267737968	400 48 0.900000 0.107000 0.097000 1200 43 1.000000 2.043000 2.089000 600 53 1.000000 0.053000 0.053000 1.200000 0.037000 0.044000
1517766153827716093	400 48 0.900000 0.083000 0.075000 1200 43 1.000000 1.614000 1.647000 600 53 1.000000 0.053000 0.053000 1.200000 0.037000 0.044000
1517766154335466302	400 46 0.900000 0.113000 0.103000 1200 43 1.000000 1.972000 2.017000 600 53 1.000000 0.053000 0.053000 1.200000 0.037000 0.044000
1517766154852836260	400 49 0.900000 0.108000 0.098000 1200 43 1.000000 1.960000 2.005000 600 54 1.000000 0.053000 0.053000 1.200000 0.045000 0.054000
1517766155411720718	400 48 0.900000 0.086000 0.078000 1200 43 1.000000 1.781000 1.820000 600 53 1.000000 0.053000 0.053000 1.200000 0.048000 0.057000
1517766155971702760	400 48 0.900000 0.109000 0.099000 1200 43 1.000000 1.610000 1.643000 600 53 1.000000 0.053000 0.053000 1.200000 0.039000 0.047000
1517766156527756802	400 48 0.900000 0.106000 0.096000 1200 43 1.000000 1.784000 1.823000 600 53 1.000000 0.053000 0.053000 1.200000 0.037000 0.044000
1517766157035501677	400 46 0.900000 0.111000 0.101000 1200 43 1.000000 1.986000 2.031000 600 51 1.000000 0.053000 0.053000 1.200000 0.038000 0.045000
1517766157595754302	400 48 0.900000 0.098000 0.089000 1200 43 1.000000 1.992000 2.037000 600 53 1.000000 0.053000 0.053000 1.200000 0.044000 0.053000
1517766158158457510	400 48 0.900000 0.087000 0.079000 1200 43 1.000000 1.865000 1.907000 600 53 1.000000 0.053000 0.053000 1.200000 0.046000 0.055000
1517766158691105177	400 48 0.900000 0.082000 0.074000 1200 43 1.000000 1.801000 1.838000 600 54 1.000000 0.053000 0.053000 1.200000 0.042000 0.050000
1517766159215767302	400 48 0.900000 0.101000 0.092000 1200 43 1.000000 1.710000 1.745000 600 54 1.000000 0.053000 0.053000 1.200000 0.037000 0.044000
1517766159728025969	400 48 0.900000 0.105000 0.095000 1200 43 1.000000 1.909000 1.950000 600 53 1.000000 0.053000 0.053000 1.200000 0.040000 0.048000
1517766160237138302	400 48 0.900000 0.114000 0.103000 1200 43 1.000000 1.958000 2.001000 600 52 1.000000 0.053000 0.053000 1.200000 0.038000 0.045000
1517766160744865427	400 48 0.900000 0.109000 0.099000 1200 43 1.000000 2.014000 2.060000 600 52 1.000000 0.053000 0.053000 1.200000 0.043000 0.051000
1517766161252345511	400 48 0.900000 0.113000 0.103000 1200 43 1.000000 2.097000 2.145000 600 54 1.000000 0.053000 0.053000 1.200000 0.047000 0.056000
1517766161770959802	400 48 0.900000 0.096000 0.087000 1200 43 1.000000 1.856000 1.898000 600 53 1.000000 0.053000 0.053000 1.200000 0.047000 0.056000
1517766162285110511	400 48 0.900000 0.113000 0.103000 1200 43 1.000000 1.656000 1.692000 600 53 1.000000 0.053000 0.053000 1.200000 0.042000 0.050000
1517766162810081303	400 48 0.900000 0.114000 0.103000 1200 43 1.000000 2.081000 2.126000 600 53 1.000000 0.053000 0.053000 1.200000 0.037000 0.044000
1517766163325472719	400 47 0.900000 0.112000 0.102000 1200 43 1.000000 2.065000 2.112000 600 52 1.000000 0.053000 0.053000 1.200000 0.034000 0.041000
1517766163855872678	400 49 0.900000 0.114000 0.103000 1200 43 1.000000 1.897000 1.938000 600 54 1.000000 0.053000 0.053000 1.200000 0.034000 0.041000
1517766164415060053	400 48 0.900000 0.090000 0.082000 1200 43 1.000000 1.664000 1.698000 600 53 1.000000 0.053000 0.053000 1.200000 0.044000 0.053000
1517766164963732344	400 48 0.900000 0.088000 0.080000 1200 43 1.000000 1.781000 1.818000 600 53 1.000000 0.053000 0.053000 1.200000 0.047000 0.056000
1517766165519797428	400 48 0.900000 0.089000 0.081000 1200 43 1.000000 2.056000 2.101000 600 53 1.000000 0.053000 0.053000 1.200000 0.038000 0.045000
1517766166055824595	400 47 0.900000 0.105000 0.095000 1200 43 1.000000 2.062000 2.107000 600 53 1.000000 0.053000 0.053000 1.200000 0.036000 0.043000
1517766166563639595	400 47 0.900000 0.113000 0.103000 1200 43 1.000000 1.776000 1.815000 600 53 1.000000 0.053000 0.053000 1.200000 0.037000 0.044000
1517766167123716845	400 48 0.900000 0.108000 0.098000 1200 43 1.000000 1.660000 1.694000 600 53 1.000000 0.053000 0.053000 1.200000 0.045000 0.054000
1517766167683724220	400 48 0.900000 0.086000 0.078000 1200 43 1.000000 2.010000 2.054000 600 53 1.000000 0.053000 0.053000 1.200000 0.042000 0.050000
1517766168239758428	400 47 0.900000 0.110000 0.100000 1200 43 1.000000 2.081000 2.126000 600 53 1.000000 0.053000 0.053000 1.200000 0.038000 0.045000
1517766168747672928	400 48 0.900000 0.113000 0.103000 1200 43 1.000000 1.992000 2.037000 600 52 1.000000 0.053000 0.053000 1.200000 0.038000 0.045000
1517766169286188178	400 49 0.900000 0.088000 0.080000 1200 43 1.000000 1.543000 1.575000 600 54 1.000000 0.053000 0.053000 1.200000 0.043000 0.051000
1517766169847768303	400 48 0.900000 0.081000 0.073000 1200 43 1.000000 1.698000 1.733000 600 53 1.000000 0.053000 0.053000 1.200000 0.044000 0.053000
1517766170407728345	400 48 0.900000 0.108000 0.098000 1200 43 1.000000 2.013000 2.057000 600 53 1.000000 0.053000 0.053000 1.200000 0.040000 0.048000
1517766170971707012	400 48 0.900000 0.082000 0.074000 1200 43 1.000000 1.822000 1.860000 600 53 1.000000 0.053000 0.053000 1.200000 0.047000 0.056000
1517766171535783554	400 48 0.900000 0.112000 0.102000 1200 43 1.000000 2.055000 2.100000 600 53 1.000000 0.053000 0.053000 1.200000 0.038000 0.045000
1517766172043575512	400 48 0.900000 0.108000 0.098000 1200 43 1.000000 2.132000 2.181000 600 51 1.000000 0.053000 0.053000 1.200000 0.034000 0.041000
1517766172575746345	400 48 0.900000 0.114000 0.103000 1200 43 1.000000 1.867000 1.908000 600 54 1.000000 0.053000 0.053000 1.200000 0.036000 0.043000
1517766173099347429	400 49 0.900000 0.100000 0.091000 1200 43 1.000000 1.548000 1.580000 600 54 1.000000 0.053000 0.053000 1.200000 0.046000 0.055000
1517766173655676679	400 49 0.900000 0.088000 0.080000 1200 43 1.000000 1.841000 1.879000 600 53 1.000000 0.053000 0.053000 1.200000 0.046000 0.055000
1517766174218040762	400 48 0.900000 0.083000 0.075000 1200 43 1.000000 2.021000 2.065000 600 53 1.000000 0.053000 0.053000 1.200000 0.036000 0.043000
1517766174725862262	400 46 0.900000 0.111000 0.101000 1200 43 1.000000 2.085000 2.132000 600 51 1.000000 0.053000 0.053000 1.200000 0.036000 0.043000
1517766175279717471	400 48 0.900000 0.087000 0.079000 1200 43 1.000000 1.746000 1.784000 600 53 1.000000 0.053000 0.053000 1.200000 0.040000 0.048000
1517766175787843554	400 49 0.900000 0.084000 0.076000 1200 43 1.000000 1.652000 1.685000 600 54 1.000000 0.053000 0.053000 1.200000 0.050000 0.060000
1517766176303762346	400 48 0.900000 0.108000 0.098000 1200 43 1.000000 2.059000 2.104000 600 53 1.000000 0.053000 0.053000 1.200000 0.043000 0.052000
1517766176814887138	400 48 0.900000 0.104000 0.094000 1200 43 1.000000 2.070000 2.117000 600 52 1.000000 0.053000 0.053000 1.200000 0.035000 0.042000
1517766177364368346	400 49 0.900000 0.109000 0.099000 1200 43 1.000000 2.008000 2.054000 600 54 1.000000 0.053000 0.053000 1.200000 0.036000 0.043000
1517766177927758138	400 48 0.900000 0.083000 0.075000 1200 43 1.000000 1.669000 1.704000 600 53 1.000000 0.053000 0.053000 1.200000 0.042000 0.050000
1517766178479811638	400 48 0.900000 0.083000 0.075000 1200 43 1.000000 1.598000 1.631000 600 53 1.000000 0.053000 0.053000 1.200000 0.048000 0.057000
1517766178987817721	400 47 0.900000 0.101000 0.092000 1200 43 1.000000 2.025000 2.071000 600 52 1.000000 0.053000 0.053000 1.200000 0.040000 0.048000
1517766179499186513	400 48 0.900000 0.111000 0.101000 1200 43 1.000000 1.937000 1.979000 600 51 1.000000 0.053000 0.053000 1.200000 0.035000 0.042000
1517766180055779388	400 48 0.900000 0.112000 0.102000 1200 43 1.000000 1.731000 1.770000 600 54 1.000000 0.053000 0.053000 1.200000 0.037000 0.044000
1517766180611734721	400 49 0.900000 0.102000 0.093000 1200 43 1.000000 1.693000 1.728000 600 53 1.000000 0.053000 0.053000 1.200000 0.045000 0.054000
1517766181150754805	400 48 0.900000 0.112000 0.102000 1200 43 1.000000 1.710000 1.745000 600 53 1.000000 0.053000 0.053000 1.200000 0.046000 0.055000
1517766181686496555	400 48 0.900000 0.109000 0.099000 1200 43 1.000000 2.070000 2.117000 600 53 1.000000 0.053000 0.053000 1.200000 0.041000 0.049000
1517766182206493972	400 48 0.900000 0.111000 0.101000 1200 43 1.000000 2.032000 2.078000 600 53 1.000000 0.053000 0.053000 1.200000 0.038000 0.045000
1517766182718664263	400 47 0.900000 0.109000 0.099000 1200 43 1.000000 2.119000 2.167000 600 52 1.000000 0.053000 0.053000 1.200000 0.035000 0.042000
1517766183226360013	400 48 0.900000 0.092000 0.083000 1200 43 1.000000 1.930000 1.974000 600 52 1.000000 0.053000 0.053000 1.200000 0.039000 0.047000
1517766183775862347	400 48 0.900000 0.088000 0.080000 1200 43 1.000000 1.630000 1.664000 600 54 1.000000 0.053000 0.053000 1.200000 0.043000 0.051000
1517766184285568930	400 49 0.900000 0.091000 0.083000 1200 43 1.000000 1.591000 1.626000 600 54 1.000000 0.053000 0.053000 1.200000 0.044000 0.053000
1517766184792992264	400 49 0.900000 0.087000 0.079000 1200 43 1.000000 1.542000 1.574000 600 54 1.000000 0.053000 0.053000 1.200000 0.046000 0.055000
1517766185335712097	400 48 0.900000 0.086000 0.078000 1200 43 1.000000 1.531000 1.563000 600 53 1.000000 0.053000 0.053000 1.200000 0.038000 0.045000
1517766185885620805	400 48 0.900000 0.090000 0.082000 1200 43 1.000000 1.952000 1.996000 600 53 1.000000 0.053000 0.053000 1.200000 0.038000 0.045000
1517766186393126472	400 48 0.900000 0.107000 0.097000 1200 43 1.000000 2.068000 2.113000 600 53 1.000000 0.053000 0.053000 1.200000 0.044000 0.053000
1517766186910491847	400 48 0.900000 0.092000 0.083000 1200 43 1.000000 2.020000 2.064000 600 52 1.000000 0.053000 0.053000 1.200000 0.046000 0.055000
1517766187418317722	400 46 0.900000 0.086000 0.078000 1200 43 1.000000 2.084000 2.131000 600 52 1.000000 0.053000 0.053000 1.200000 0.048000 0.058000
1517766187971698139	400 48 0.900000 0.083000 0.075000 1200 43 1.000000 1.838000 1.880000 600 54 1.000000 0.053000 0.053000 1.200000 0.047000 0.056000
1517766188530809056	400 48 0.900000 0.084000 0.076000 1200 43 1.000000 1.556000 1.588000 600 53 1.000000 0.053000 0.053000 1.200000 0.041000 0.049000
1517766189056644222	400 49 0.900000 0.101000 0.092000 1200 43 1.000000 1.479000 1.511000 600 54 1.000000 0.053000 0.053000 1.200000 0.037000 0.044000
1517766189604760972	400 48 0.900000 0.106000 0.096000 1200 43 1.000000 1.879000 1.920000 600 53 1.000000 0.053000 0.053000 1.200000 0.037000 0.044000
1517766190157960847	400 48 0.900000 0.106000 0.096000 1200 43 1.000000 2.038000 2.084000 600 53 1.000000 0.053000 0.053000 1.200000 0.040000 0.048000
1517766190665934806	400 45 0.900000 0.109000 0.099000 1200 43 1.000000 1.988000 2.033000 600 53 1.000000 0.053000 0.053000 1.200000 0.051000 0.061000
1517766191227709389	400 48 0.900000 0.086000 0.078000 1200 43 1.000000 1.940000 1.982000 600 53 1.000000 0.053000 0.053000 1.200000 0.047000 0.056000
1517766191787743556	400 48 0.900000 0.085000 0.077000 1200 43 1.000000 1.780000 1.815000 600 54 1.000000 0.053000 0.053000 1.200000 0.036000 0.043000
1517766192343647556	400 48 0.900000 0.103000 0.094000 1200 43 1.000000 1.748000 1.786000 600 53 1.000000 0.053000 0.053000 1.200000 0.044000 0.053000
1517766192863689473	400 48 0.900000 0.086000 0.078000 1200 43 1.000000 1.429000 1.459000 600 53 1.000000 0.053000 0.053000 1.200000 0.035000 0.042000
1517766193371449681	400 47 0.900000 0.109000 0.099000 1200 43 1.000000 1.881000 1.922000 600 51 1.000000 0.053000 0.053000 1.200000 0.035000 0.042000
1517766193905353390	400 49 0.900000 0.110000 0.100000 1200 43 1.000000 2.003000 2.049000 600 54 1.000000 0.053000 0.053000 1.200000 0.041000 0.049000
1517766194452435140	400 49 0.900000 0.085000 0.077000 1200 43 1.000000 2.123000 2.169000 600 54 1.000000 0.053000 0.053000 1.200000 0.047000 0.056000
1517766195002704556	400 48 0.900000 0.086000 0.078000 1200 43 1.000000 1.948000 1.990000 600 53 1.000000 0.053000 0.053000 1.200000 0.047000 0.056000
1517766195557799806	400 48 0.900000 0.096000 0.087000 1200 43 1.000000 1.560000 1.592000 600 53 1.000000 0.053000 0.053000 1.200000 0.039000 0.047000
1517766196103618265	400 48 0.900000 0.104000 0.094000 1200 43 1.000000 1.761000 1.797000 600 53 1.000000 0.053000 0.053000 1.200000 0.035000 0.042000
1517766196611708432	400 48 0.900000 0.106000 0.096000 1200 43 1.000000 1.950000 1.992000 600 51 1.000000 0.053000 0.053000 1.200000 0.038000 0.045000
1517766197143691348	400 48 0.900000 0.109000 0.099000 1200 43 1.000000 2.012000 2.056000 600 54 1.000000 0.053000 0.053000 1.200000 0.048000 0.058000
1517766197666285223	400 49 0.900000 0.084000 0.076000 1200 43 1.000000 1.856000 1.896000 600 53 1.000000 0.053000 0.053000 1.200000 0.047000 0.056000
1517766198219701640	400 48 0.900000 0.084000 0.076000 1200 43 1.000000 1.779000 1.816000 600 53 1.000000 0.053000 0.053000 1.200000 0.039000 0.047000
1517766198767735140	400 48 0.900000 0.096000 0.087000 1200 43 1.000000 1.724000 1.760000 600 53 1.000000 0.053000 0.053000 1.200000 0.037000 0.044000
1517766199275363224	400 48 0.900000 0.109000 0.099000 1200 43 1.000000 1.978000 2.021000 600 51 1.000000 0.053000 0.053000 1.200000 0.038000 0.045000
1517766199782707932	400 48 0.900000 0.086000 0.078000 1200 43 1.000000 1.608000 1.641000 600 54 1.000000 0.053000 0.053000 1.200000 0.047000 0.056000
1517766200332097432	400 48 0.900000 0.088000 0.080000 1200 43 1.000000 1.811000 1.850000 600 53 1.000000 0.053000 0.053000 1.200000 0.046000 0.055000
1517766200878139807	400 49 0.900000 0.106000 0.096000 1200 43 1.000000 2.070000 2.115000 600 53 1.000000 0.053000 0.053000 1.200000 0.041000 0.049000
1517766201437157640	400 48 0.900000 0.109000 0.099000 1200 43 1.000000 2.033000 2.077000 600 53 1.000000 0.053000 0.053000 1.200000 0.038000 0.045000
1517766201944911474	400 46 0.900000 0.114000 0.103000 1200 43 1.000000 1.945000 1.987000 600 51 1.000000 0.053000 0.053000 1.200000 0.039000 0.047000
1517766202507697349	400 48 0.900000 0.089000 0.081000 1200 43 1.000000 1.714000 1.749000 600 53 1.000000 0.053000 0.053000 1.200000 0.045000 0.054000
1517766203071690891	400 48 0.900000 0.088000 0.080000 1200 43 1.000000 1.660000 1.694000 600 53 1.000000 0.053000 0.053000 1.200000 0.046000 0.055000
1517766203626074766	400 49 0.900000 0.083000 0.075000 1200 43 1.000000 1.968000 2.013000 600 53 1.000000 0.053000 0.053000 1.200000 0.037000 0.044000
1517766204168240766	400 48 0.900000 0.113000 0.103000 1200 43 1.000000 1.957000 2.000000 600 53 1.000000 0.053000 0.053000 1.200000 0.037000 0.044000
1517766204697992599	400 48 0.900000 0.108000 0.098000 1200 43 1.000000 1.928000 1.970000 600 53 1.000000 0.053000 0.053000 1.200000 0.037000 0.044000
1517766205210633016	400 47 0.900000 0.113000 0.103000 1200 43 1.000000 1.541000 1.573000 600 52 1.000000 0.053000 0.053000 1.200000 0.045000 0.054000
1517766205722834641	400 49 0.900000 0.108000 0.098000 1200 43 1.000000 1.713000 1.747000 600 53 1.000000 0.053000 0.053000 1.200000 0.046000 0.055000
1517766206243475724	400 49 0.900000 0.106000 0.096000 1200 43 1.000000 1.700000 1.735000 600 54 1.000000 0.053000 0.053000 1.200000 0.045000 0.054000
1517766206759799266	400 48 0.900000 0.112000 0.102000 1200 43 1.000000 1.967000 2.012000 600 54 1.000000 0.053000 0.053000 1.200000 0.042000 0.050000
1517766207267264975	400 47 0.900000 0.104000 0.094000 1200 43 1.000000 2.008000 2.054000 600 53 1.000000 0.053000 0.053000 1.200000 0.041000 0.049000
1517766207774793766	400 48 0.900000 0.112000 0.102000 1200 43 1.000000 1.799000 1.838000 600 53 1.000000 0.053000 0.053000 1.200000 0.037000 0.044000
1517766208303805475	400 48 0.900000 0.111000 0.101000 1200 43 1.000000 2.035000 2.079000 600 52 1.000000 0.053000 0.053000 1.200000 0.039000 0.047000
1517766208811851225	400 48 0.900000 0.107000 0.097000 1200 43 1.000000 1.761000 1.797000 600 51 1.000000 0.053000 0.053000 1.200000 0.039000 0.047000
1517766209346767516	400 48 0.900000 0.091000 0.083000 1200 43 1.000000 1.762000 1.799000 600 53 1.000000 0.053000 0.053000 1.200000 0.045000 0.054000
1517766209873124975	400 49 0.900000 0.084000 0.076000 1200 43 1.000000 1.486000 1.517000 600 53 1.000000 0.053000 0.053000 1.200000 0.047000 0.056000
1517766210381319767	400 48 0.900000 0.091000 0.083000 1200 43 1.000000 1.648000 1.682000 600 53 1.000000 0.053000 0.053000 1.200000 0.047000 0.056000
1517766210892094100	400 48 0.900000 0.081000 0.073000 1200 43 1.000000 2.052000 2.097000 600 53 1.000000 0.053000 0.053000 1.200000 0.041000 0.049000
1517766211410957767	400 48 0.900000 0.089000 0.081000 1200 43 1.000000 1.994000 2.039000 600 53 1.000000 0.053000 0.053000 1.200000 0.035000 0.042000
1517766211919004433	400 47 0.900000 0.111000 0.101000 1200 43 1.000000 1.976000 2.021000 600 53 1.000000 0.053000 0.053000 1.200000 0.038000 0.045000
1517766212460482933	400 49 0.900000 0.087000 0.079000 1200 43 1.000000 1.911000 1.954000 600 54 1.000000 0.053000 0.053000 1.200000 0.037000 0.044000
1517766213015708392	400 48 0.900000 0.083000 0.075000 1200 43 1.000000 1.699000 1.734000 600 53 1.000000 0.053000 0.053000 1.200000 0.043000 0.052000
1517766213557994475	400 48 0.900000 0.093000 0.084000 1200 43 1.000000 1.592000 1.625000 600 53 1.000000 0.053000 0.053000 1.200000 0.046000 0.055000
1517766214097078184	400 48 0.900000 0.110000 0.100000 1200 43 1.000000 1.995000 2.038000 600 53 1.000000 0.053000 0.053000 1.200000 0.043000 0.051000
1517766214636997517	400 48 0.900000 0.104000 0.094000 1200 43 1.000000 2.064000 2.109000 600 53 1.000000 0.053000 0.053000 1.200000 0.037000 0.044000
1517766215153017184	400 47 0.900000 0.112000 0.102000 1200 43 1.000000 2.039000 2.085000 600 51 1.000000 0.053000 0.053000 1.200000 0.037000 0.044000
1517766215688789684	400 49 0.900000 0.101000 0.092000 1200 43 1.000000 1.681000 1.717000 600 54 1.000000 0.053000 0.053000 1.200000 0.039000 0.047000
1517766216247666017	400 48 0.900000 0.088000 0.080000 1200 43 1.000000 1.571000 1.603000 600 53 1.000000 0.053000 0.053000 1.200000 0.046000 0.055000
1517766216802427809	400 48 0.900000 0.087000 0.079000 1200 43 1.000000 1.689000 1.724000 600 53 1.000000 0.053000 0.053000 1.200000 0.046000 0.055000
1517766217335225684	400 48 0.900000 0.104000 0.094000 1200 43 1.000000 2.023000 2.067000 600 53 1.000000 0.053000 0.053000 1.200000 0.038000 0.045000
1517766217877627851	400 48 0.900000 0.104000 0.094000 1200 43 1.000000 1.982000 2.027000 600 53 1.000000 0.053000 0.053000 1.200000 0.037000 0.044000
1517766218391477809	400 46 0.900000 0.115000 0.104000 1200 43 1.000000 2.124000 2.170000 600 51 1.000000 0.053000 0.053000 1.200000 0.038000 0.045000
1517766218927685143	400 49 0.900000 0.086000 0.078000 1200 43 1.000000 1.518000 1.549000 600 54 1.000000 0.053000 0.053000 1.200000 0.043000 0.051000
1517766219478139643	400 49 0.900000 0.104000 0.094000 1200 43 1.000000 1.506000 1.537000 600 54 1.000000 0.053000 0.053000 1.200000 0.046000 0.055000
1517766220031342684	400 48 0.900000 0.112000 0.102000 1200 43 1.000000 1.545000 1.577000 600 53 1.000000 0.053000 0.053000 1.200000 0.040000 0.048000
1517766220583717643	400 48 0.900000 0.083000 0.075000 1200 43 1.000000 1.461000 1.491000 600 53 1.000000 0.053000 0.053000 1.200000 0.044000 0.053000
1517766221135671185	400 48 0.900000 0.111000 0.101000 1200 43 1.000000 2.006000 2.050000 600 53 1.000000 0.053000 0.053000 1.200000 0.041000 0.049000
1517766221643541976	400 46 0.900000 0.113000 0.103000 1200 43 1.000000 2.069000 2.116000 600 53 1.000000 0.053000 0.053000 1.200000 0.035000 0.042000
1517766222150797768	400 43 0.900000 0.019000 0.017000 1200 42 1.000000 0.151000 0.154000 600 47 1.000000 0.053000 0.053000 1.200000 0.023000 0.027000
1517766222657534101	400 41 0.900000 0.019000 0.017000 1200 41 1.000000 0.143000 0.146000 600 45 1.000000 0.053000 0.053000 1.200000 0.023000 0.027000
