#Timestamp	CPU(0) Frequency(MHz)	CPU(0) Temperature(C)	A7 Voltage(V)	A7 Current(A)	A7 Power(W)	CPU(4) Frequency(MHz)	CPU(4) Temperature(C)	A15 Voltage(V)	A15 Current(A)	A15 Power(W)	GPU Frequency(MHz)	GPU Temperature(C)	GPU Voltage(V)	GPU Current(A)	GPU Power(W)	RAM Voltage(V)	RAM Current(A)	RAM Power(W)
1518119654550191942	200 39 0.900000 0.015000 0.013000 1000 38 0.900000 0.561000 0.541000 600 43 1.000000 0.052000 0.052000 1.200000 0.036000 0.043000
1518119655062511692	200 40 0.900000 0.017000 0.015000 1000 38 0.900000 0.512000 0.494000 600 43 1.000000 0.053000 0.053000 1.200000 0.037000 0.044000
1518119655574738776	200 40 0.900000 0.016000 0.014000 1000 39 0.900000 0.520000 0.501000 600 43 1.000000 0.053000 0.053000 1.200000 0.035000 0.042000
1518119656087184526	200 40 0.900000 0.016000 0.014000 1000 39 0.900000 0.518000 0.499000 600 44 1.000000 0.052000 0.052000 1.200000 0.036000 0.043000
1518119656599560067	200 41 0.900000 0.016000 0.014000 1000 39 0.900000 0.527000 0.508000 600 43 1.000000 0.053000 0.053000 1.200000 0.035000 0.042000
1518119657154605817	200 44 0.900000 0.017000 0.015000 1000 39 0.900000 0.530000 0.511000 600 48 1.000000 0.053000 0.053000 1.200000 0.036000 0.043000
1518119657710530359	200 45 0.900000 0.074000 0.067000 1000 41 0.900000 2.048000 1.988000 600 50 1.000000 0.053000 0.053000 1.200000 0.029000 0.035000
1518119658282469859	200 46 0.900000 0.075000 0.068000 1000 41 0.900000 2.053000 1.993000 600 52 1.000000 0.053000 0.053000 1.200000 0.029000 0.035000
1518119658846432651	200 47 0.900000 0.074000 0.067000 1000 42 0.900000 2.056000 1.996000 600 52 1.000000 0.053000 0.053000 1.200000 0.029000 0.035000
1518119659398559151	200 47 0.900000 0.074000 0.067000 1000 43 0.900000 2.057000 1.999000 600 53 1.000000 0.053000 0.053000 1.200000 0.029000 0.035000
1518119659962549276	200 48 0.900000 0.075000 0.068000 1000 43 0.900000 2.057000 1.999000 600 53 1.000000 0.053000 0.053000 1.200000 0.028000 0.033000
1518119660526522609	200 48 0.900000 0.075000 0.068000 1000 43 0.900000 2.051000 1.993000 600 54 1.000000 0.053000 0.053000 1.200000 0.029000 0.035000
1518119661082548443	200 49 0.900000 0.075000 0.068000 1000 43 0.900000 2.058000 2.000000 600 54 1.000000 0.053000 0.053000 1.200000 0.029000 0.035000
1518119661642480235	200 49 0.900000 0.075000 0.068000 1000 44 0.900000 2.058000 2.000000 600 55 1.000000 0.053000 0.053000 1.200000 0.029000 0.035000
1518119662198509818	200 49 0.900000 0.075000 0.068000 1000 44 0.900000 2.057000 1.999000 600 55 1.000000 0.053000 0.053000 1.200000 0.029000 0.035000
1518119662762518401	200 49 0.900000 0.076000 0.069000 1000 44 0.900000 2.062000 2.002000 600 55 1.000000 0.053000 0.053000 1.200000 0.029000 0.035000
1518119663322518193	200 50 0.900000 0.075000 0.068000 1000 45 0.900000 2.068000 2.010000 600 55 1.000000 0.053000 0.053000 1.200000 0.029000 0.035000
1518119663874473068	200 50 0.900000 0.075000 0.068000 1000 45 0.900000 2.072000 2.013000 600 55 1.000000 0.053000 0.053000 1.200000 0.028000 0.033000
1518119664438396277	200 50 0.900000 0.075000 0.068000 1000 45 0.900000 2.071000 2.013000 600 55 1.000000 0.054000 0.054000 1.200000 0.028000 0.033000
1518119664998543818	200 50 0.900000 0.076000 0.069000 1000 45 0.900000 2.071000 2.013000 600 56 1.000000 0.053000 0.053000 1.200000 0.028000 0.033000
1518119665550506443	200 50 0.900000 0.075000 0.068000 1000 45 0.900000 2.062000 2.004000 600 56 1.000000 0.053000 0.053000 1.200000 0.028000 0.033000
1518119666102451152	200 50 0.900000 0.075000 0.068000 1000 45 0.900000 2.064000 2.004000 600 56 1.000000 0.053000 0.053000 1.200000 0.028000 0.033000
1518119666666504110	200 50 0.900000 0.076000 0.069000 1000 45 0.900000 2.071000 2.010000 600 56 1.000000 0.054000 0.054000 1.200000 0.028000 0.033000
1518119667238509944	200 50 0.900000 0.075000 0.068000 1000 45 0.900000 2.073000 2.014000 600 56 1.000000 0.054000 0.054000 1.200000 0.028000 0.033000
1518119667782456194	200 50 0.900000 0.075000 0.068000 1000 45 0.900000 2.067000 2.009000 600 56 1.000000 0.053000 0.053000 1.200000 0.029000 0.035000
1518119668350378652	200 51 0.900000 0.076000 0.069000 1000 45 0.900000 2.067000 2.009000 600 56 1.000000 0.054000 0.054000 1.200000 0.029000 0.035000
1518119668918512944	200 51 0.900000 0.076000 0.069000 1000 46 0.900000 2.076000 2.017000 600 56 1.000000 0.053000 0.053000 1.200000 0.028000 0.033000
1518119669474434319	200 51 0.900000 0.076000 0.069000 1000 46 0.900000 2.068000 2.010000 600 56 1.000000 0.054000 0.054000 1.200000 0.028000 0.033000
1518119670038576486	200 51 0.900000 0.076000 0.069000 1000 46 0.900000 2.070000 2.012000 600 56 1.000000 0.053000 0.053000 1.200000 0.028000 0.033000
1518119670602477444	200 51 0.900000 0.076000 0.069000 1000 46 0.900000 2.070000 2.012000 600 57 1.000000 0.054000 0.054000 1.200000 0.028000 0.033000
1518119671150546777	200 51 0.900000 0.076000 0.069000 1000 46 0.900000 2.076000 2.017000 600 57 1.000000 0.054000 0.054000 1.200000 0.028000 0.033000
1518119671706491527	200 51 0.900000 0.076000 0.069000 1000 46 0.900000 2.075000 2.016000 600 57 1.000000 0.053000 0.053000 1.200000 0.028000 0.033000
1518119672266499194	200 51 0.900000 0.076000 0.069000 1000 46 0.900000 2.071000 2.013000 600 57 1.000000 0.054000 0.054000 1.200000 0.029000 0.035000
1518119672830513986	200 51 0.900000 0.075000 0.068000 1000 46 0.900000 2.066000 2.008000 600 57 1.000000 0.053000 0.053000 1.200000 0.028000 0.033000
1518119673390408361	200 51 0.900000 0.076000 0.069000 1000 46 0.900000 2.079000 2.020000 600 57 1.000000 0.054000 0.054000 1.200000 0.028000 0.033000
1518119673950531528	200 51 0.900000 0.076000 0.069000 1000 46 0.900000 2.078000 2.019000 600 57 1.000000 0.054000 0.054000 1.200000 0.028000 0.033000
1518119674510514444	200 51 0.900000 0.076000 0.069000 1000 46 0.900000 2.077000 2.018000 600 57 1.000000 0.054000 0.054000 1.200000 0.028000 0.033000
1518119675078538070	200 51 0.900000 0.075000 0.068000 1000 46 0.900000 2.074000 2.015000 600 57 1.000000 0.054000 0.054000 1.200000 0.028000 0.033000
1518119675630411195	200 51 0.900000 0.075000 0.068000 1000 46 0.900000 2.068000 2.010000 600 57 1.000000 0.054000 0.054000 1.200000 0.028000 0.033000
1518119676186482278	200 51 0.900000 0.076000 0.069000 1000 46 0.900000 2.069000 2.011000 600 57 1.000000 0.054000 0.054000 1.200000 0.028000 0.033000
1518119676750498445	200 51 0.900000 0.076000 0.069000 1000 46 0.900000 2.071000 2.013000 600 57 1.000000 0.054000 0.054000 1.200000 0.029000 0.035000
1518119677314489986	200 51 0.900000 0.075000 0.068000 1000 46 0.900000 2.076000 2.017000 600 57 1.000000 0.053000 0.053000 1.200000 0.029000 0.035000
1518119677882421487	200 51 0.900000 0.076000 0.069000 1000 46 0.900000 2.087000 2.028000 600 57 1.000000 0.054000 0.054000 1.200000 0.028000 0.033000
1518119678446506528	200 52 0.900000 0.076000 0.069000 1000 46 0.900000 2.089000 2.030000 600 57 1.000000 0.054000 0.054000 1.200000 0.028000 0.033000
1518119679002480070	200 52 0.900000 0.076000 0.069000 1000 46 0.900000 2.089000 2.030000 600 57 1.000000 0.054000 0.054000 1.200000 0.028000 0.033000
1518119679558489195	200 52 0.900000 0.075000 0.068000 1000 46 0.900000 2.087000 2.028000 600 57 1.000000 0.054000 0.054000 1.200000 0.028000 0.033000
1518119680126520028	200 52 0.900000 0.076000 0.069000 1000 46 0.900000 2.087000 2.028000 600 57 1.000000 0.054000 0.054000 1.200000 0.029000 0.035000
1518119680674546862	200 52 0.900000 0.076000 0.069000 1000 46 0.900000 2.079000 2.020000 600 57 1.000000 0.054000 0.054000 1.200000 0.028000 0.033000
1518119681238544445	200 52 0.900000 0.076000 0.069000 1000 46 0.900000 2.079000 2.020000 600 57 1.000000 0.054000 0.054000 1.200000 0.029000 0.035000
1518119681802505445	200 52 0.900000 0.076000 0.069000 1000 46 0.900000 2.074000 2.015000 600 57 1.000000 0.054000 0.054000 1.200000 0.028000 0.033000
1518119682354416487	200 52 0.900000 0.076000 0.069000 1000 47 0.900000 2.090000 2.031000 600 57 1.000000 0.054000 0.054000 1.200000 0.028000 0.033000
1518119682906496695	200 52 0.900000 0.076000 0.069000 1000 47 0.900000 2.089000 2.030000 600 58 1.000000 0.054000 0.054000 1.200000 0.029000 0.035000
1518119683466402862	200 52 0.900000 0.076000 0.069000 1000 47 0.900000 2.090000 2.031000 600 57 1.000000 0.054000 0.054000 1.200000 0.029000 0.035000
1518119684022560404	200 52 0.900000 0.075000 0.068000 1000 47 0.900000 2.090000 2.031000 600 57 1.000000 0.054000 0.054000 1.200000 0.029000 0.035000
1518119684574439696	200 52 0.900000 0.076000 0.069000 1000 47 0.900000 2.089000 2.030000 600 58 1.000000 0.054000 0.054000 1.200000 0.029000 0.035000
1518119685130709696	200 52 0.900000 0.076000 0.069000 1000 47 0.900000 2.089000 2.030000 600 57 1.000000 0.054000 0.054000 1.200000 0.029000 0.035000
1518119685697109571	200 52 0.900000 0.075000 0.068000 1000 47 0.900000 2.079000 2.020000 600 58 1.000000 0.054000 0.054000 1.200000 0.030000 0.036000
1518119686250564237	200 52 0.900000 0.076000 0.069000 1000 47 0.900000 2.078000 2.019000 600 58 1.000000 0.054000 0.054000 1.200000 0.029000 0.035000
1518119686802496196	200 52 0.900000 0.076000 0.069000 1000 47 0.900000 2.078000 2.019000 600 58 1.000000 0.054000 0.054000 1.200000 0.029000 0.035000
1518119687362394821	200 52 0.900000 0.076000 0.069000 1000 47 0.900000 2.091000 2.032000 600 58 1.000000 0.054000 0.054000 1.200000 0.028000 0.033000
1518119687926415154	200 52 0.900000 0.076000 0.069000 1000 47 0.900000 2.096000 2.037000 600 58 1.000000 0.054000 0.054000 1.200000 0.029000 0.035000
1518119688490509779	200 52 0.900000 0.076000 0.069000 1000 47 0.900000 2.080000 2.021000 600 58 1.000000 0.054000 0.054000 1.200000 0.028000 0.033000
1518119689054512946	200 52 0.900000 0.076000 0.069000 1000 47 0.900000 2.079000 2.020000 600 58 1.000000 0.054000 0.054000 1.200000 0.029000 0.035000
1518119689610499363	200 52 0.900000 0.076000 0.069000 1000 47 0.900000 2.081000 2.022000 600 58 1.000000 0.054000 0.054000 1.200000 0.028000 0.033000
1518119690162496571	200 52 0.900000 0.076000 0.069000 1000 47 0.900000 2.081000 2.022000 600 58 1.000000 0.054000 0.054000 1.200000 0.028000 0.033000
1518119690738578780	200 52 0.900000 0.076000 0.069000 1000 47 0.900000 2.081000 2.022000 600 58 1.000000 0.054000 0.054000 1.200000 0.029000 0.035000
1518119691298505030	200 52 0.900000 0.076000 0.069000 1000 47 0.900000 2.081000 2.024000 600 58 1.000000 0.054000 0.054000 1.200000 0.029000 0.035000
1518119691854516947	200 52 0.900000 0.076000 0.069000 1000 47 0.900000 2.077000 2.018000 600 58 1.000000 0.054000 0.054000 1.200000 0.028000 0.033000
1518119692414535822	200 52 0.900000 0.076000 0.069000 1000 47 0.900000 2.068000 2.010000 600 58 1.000000 0.054000 0.054000 1.200000 0.029000 0.035000
1518119692978467988	200 52 0.900000 0.076000 0.069000 1000 47 0.900000 2.072000 2.013000 600 58 1.000000 0.054000 0.054000 1.200000 0.029000 0.035000
1518119693534511988	200 52 0.900000 0.076000 0.069000 1000 47 0.900000 2.079000 2.020000 600 58 1.000000 0.054000 0.054000 1.200000 0.028000 0.033000
1518119694094484988	200 52 0.900000 0.076000 0.069000 1000 47 0.900000 2.071000 2.013000 600 58 1.000000 0.054000 0.054000 1.200000 0.029000 0.035000
1518119694638491697	200 52 0.900000 0.076000 0.069000 1000 47 0.900000 2.072000 2.013000 600 58 1.000000 0.054000 0.054000 1.200000 0.029000 0.035000
1518119695186539322	200 52 0.900000 0.076000 0.069000 1000 47 0.900000 2.076000 2.017000 600 58 1.000000 0.054000 0.054000 1.200000 0.029000 0.035000
1518119695746427280	200 52 0.900000 0.076000 0.069000 1000 47 0.900000 2.073000 2.014000 600 58 1.000000 0.054000 0.054000 1.200000 0.028000 0.033000
1518119696318465364	200 52 0.900000 0.075000 0.068000 1000 47 0.900000 2.073000 2.014000 600 58 1.000000 0.054000 0.054000 1.200000 0.029000 0.035000
1518119696878545572	200 52 0.900000 0.076000 0.069000 1000 47 0.900000 2.080000 2.021000 600 58 1.000000 0.054000 0.054000 1.200000 0.028000 0.033000
1518119697442471864	200 52 0.900000 0.075000 0.068000 1000 47 0.900000 2.071000 2.013000 600 58 1.000000 0.054000 0.054000 1.200000 0.028000 0.033000
1518119698006535947	200 52 0.900000 0.076000 0.069000 1000 47 0.900000 2.077000 2.020000 600 58 1.000000 0.054000 0.054000 1.200000 0.028000 0.033000
1518119698546559864	200 52 0.900000 0.076000 0.069000 1000 47 0.900000 2.074000 2.018000 600 58 1.000000 0.054000 0.054000 1.200000 0.029000 0.035000
1518119699086543989	200 52 0.900000 0.076000 0.069000 1000 47 0.900000 2.079000 2.022000 600 58 1.000000 0.054000 0.054000 1.200000 0.029000 0.035000
1518119699654534697	200 52 0.900000 0.076000 0.069000 1000 47 0.900000 2.068000 2.012000 600 58 1.000000 0.054000 0.054000 1.200000 0.028000 0.033000
1518119700218521697	200 52 0.900000 0.076000 0.069000 1000 47 0.900000 2.082000 2.023000 600 58 1.000000 0.054000 0.054000 1.200000 0.029000 0.035000
1518119700774536198	200 52 0.900000 0.076000 0.069000 1000 47 0.900000 2.082000 2.023000 600 58 1.000000 0.054000 0.054000 1.200000 0.029000 0.035000
1518119701338454364	200 52 0.900000 0.077000 0.070000 1000 47 0.900000 2.084000 2.025000 600 58 1.000000 0.054000 0.054000 1.200000 0.028000 0.033000
1518119701890505656	200 52 0.900000 0.076000 0.069000 1000 47 0.900000 2.079000 2.020000 600 58 1.000000 0.054000 0.054000 1.200000 0.028000 0.033000
1518119702446493906	200 52 0.900000 0.076000 0.069000 1000 47 0.900000 2.073000 2.014000 600 58 1.000000 0.054000 0.054000 1.200000 0.028000 0.033000
1518119703010488614	200 52 0.900000 0.076000 0.069000 1000 47 0.900000 2.077000 2.018000 600 58 1.000000 0.054000 0.054000 1.200000 0.028000 0.033000
1518119703570389406	200 52 0.900000 0.076000 0.069000 1000 47 0.900000 2.076000 2.017000 600 58 1.000000 0.054000 0.054000 1.200000 0.028000 0.033000
1518119704134469198	200 52 0.900000 0.076000 0.069000 1000 47 0.900000 2.075000 2.016000 600 58 1.000000 0.054000 0.054000 1.200000 0.029000 0.035000
1518119704690588073	200 52 0.900000 0.076000 0.069000 1000 47 0.900000 2.068000 2.012000 600 58 1.000000 0.054000 0.054000 1.200000 0.029000 0.035000
1518119705242560281	200 52 0.900000 0.076000 0.069000 1000 47 0.900000 2.080000 2.021000 600 58 1.000000 0.054000 0.054000 1.200000 0.029000 0.035000
1518119705798505031	200 52 0.900000 0.076000 0.069000 1000 47 0.900000 2.079000 2.020000 600 58 1.000000 0.054000 0.054000 1.200000 0.029000 0.035000
1518119706358497698	200 52 0.900000 0.077000 0.070000 1000 47 0.900000 2.084000 2.025000 600 58 1.000000 0.054000 0.054000 1.200000 0.028000 0.033000
1518119706926467657	200 52 0.900000 0.076000 0.069000 1000 47 0.900000 2.084000 2.027000 600 58 1.000000 0.055000 0.055000 1.200000 0.028000 0.033000
1518119707490438115	200 52 0.900000 0.076000 0.069000 1000 47 0.900000 2.077000 2.018000 600 58 1.000000 0.054000 0.054000 1.200000 0.028000 0.033000
1518119708054486573	200 52 0.900000 0.076000 0.069000 1000 47 0.900000 2.077000 2.020000 600 58 1.000000 0.054000 0.054000 1.200000 0.028000 0.033000
1518119708610422032	200 53 0.900000 0.076000 0.069000 1000 47 0.900000 2.081000 2.022000 600 58 1.000000 0.054000 0.054000 1.200000 0.028000 0.033000
1518119709174530865	200 53 0.900000 0.076000 0.069000 1000 47 0.900000 2.104000 2.047000 600 58 1.000000 0.054000 0.054000 1.200000 0.029000 0.035000
1518119709742525157	200 53 0.900000 0.076000 0.069000 1000 47 0.900000 2.105000 2.046000 600 58 1.000000 0.054000 0.054000 1.200000 0.029000 0.035000
1518119710302427157	200 53 0.900000 0.076000 0.069000 1000 47 0.900000 2.108000 2.051000 600 58 1.000000 0.054000 0.054000 1.200000 0.028000 0.033000
1518119710858517699	200 53 0.900000 0.076000 0.069000 1000 48 0.900000 2.107000 2.048000 600 58 1.000000 0.054000 0.054000 1.200000 0.028000 0.033000
1518119711414508740	200 52 0.900000 0.076000 0.069000 1000 48 0.900000 2.107000 2.048000 600 58 1.000000 0.054000 0.054000 1.200000 0.028000 0.033000
1518119711966504116	200 53 0.900000 0.076000 0.069000 1000 47 0.900000 2.107000 2.048000 600 58 1.000000 0.054000 0.054000 1.200000 0.028000 0.033000
1518119712522498741	200 53 0.900000 0.076000 0.069000 1000 48 0.900000 2.107000 2.048000 600 58 1.000000 0.054000 0.054000 1.200000 0.029000 0.035000
1518119713066504991	200 53 0.900000 0.076000 0.069000 1000 47 0.900000 2.096000 2.037000 600 58 1.000000 0.054000 0.054000 1.200000 0.028000 0.033000
1518119713634523032	200 53 0.900000 0.076000 0.069000 1000 48 0.900000 2.101000 2.042000 600 58 1.000000 0.054000 0.054000 1.200000 0.028000 0.033000
1518119714182541782	200 53 0.900000 0.076000 0.069000 1000 48 0.900000 2.088000 2.031000 600 58 1.000000 0.054000 0.054000 1.200000 0.028000 0.033000
1518119714738446283	200 53 0.900000 0.076000 0.069000 1000 48 0.900000 2.091000 2.032000 600 58 1.000000 0.054000 0.054000 1.200000 0.028000 0.033000
1518119715298527408	200 53 0.900000 0.076000 0.069000 1000 48 0.900000 2.104000 2.045000 600 59 1.000000 0.054000 0.054000 1.200000 0.029000 0.035000
1518119715850547158	200 53 0.900000 0.075000 0.068000 1000 48 0.900000 2.107000 2.048000 600 58 1.000000 0.054000 0.054000 1.200000 0.028000 0.033000
1518119716414443574	200 53 0.900000 0.076000 0.069000 1000 48 0.900000 2.108000 2.048000 600 58 1.000000 0.054000 0.054000 1.200000 0.028000 0.033000
1518119716958500866	200 53 0.900000 0.076000 0.069000 1000 48 0.900000 2.106000 2.047000 600 58 1.000000 0.054000 0.054000 1.200000 0.028000 0.033000
1518119717518532658	200 53 0.900000 0.076000 0.069000 1000 48 0.900000 2.107000 2.048000 600 59 1.000000 0.054000 0.054000 1.200000 0.028000 0.033000
1518119718070528908	200 53 0.900000 0.077000 0.070000 1000 48 0.900000 2.107000 2.048000 600 58 1.000000 0.054000 0.054000 1.200000 0.029000 0.035000
1518119718634531950	200 53 0.900000 0.076000 0.069000 1000 48 0.900000 2.107000 2.048000 600 58 1.000000 0.054000 0.054000 1.200000 0.029000 0.035000
1518119719194506908	200 53 0.900000 0.076000 0.069000 1000 48 0.900000 2.096000 2.037000 600 58 1.000000 0.054000 0.054000 1.200000 0.029000 0.035000
1518119719754414533	200 53 0.900000 0.076000 0.069000 1000 48 0.900000 2.094000 2.035000 600 59 1.000000 0.054000 0.054000 1.200000 0.029000 0.035000
1518119720310542158	200 53 0.900000 0.076000 0.069000 1000 48 0.900000 2.101000 2.042000 600 59 1.000000 0.054000 0.054000 1.200000 0.028000 0.033000
1518119720878566033	200 53 0.900000 0.076000 0.069000 1000 48 0.900000 2.104000 2.045000 600 59 1.000000 0.054000 0.054000 1.200000 0.028000 0.033000
1518119721442448950	200 53 0.900000 0.076000 0.069000 1000 48 0.900000 2.107000 2.048000 600 59 1.000000 0.054000 0.054000 1.200000 0.029000 0.035000
1518119722006507742	200 53 0.900000 0.076000 0.069000 1000 48 0.900000 2.105000 2.046000 600 59 1.000000 0.054000 0.054000 1.200000 0.029000 0.035000
1518119722558510742	200 53 0.900000 0.076000 0.069000 1000 48 0.900000 2.105000 2.048000 600 59 1.000000 0.054000 0.054000 1.200000 0.029000 0.035000
1518119723130511950	200 53 0.900000 0.076000 0.069000 1000 48 0.900000 2.106000 2.049000 600 59 1.000000 0.054000 0.054000 1.200000 0.029000 0.035000
1518119723690421784	200 53 0.900000 0.077000 0.070000 1000 48 0.900000 2.106000 2.049000 600 59 1.000000 0.054000 0.054000 1.200000 0.029000 0.035000
1518119724238514617	200 53 0.900000 0.076000 0.069000 1000 48 0.900000 2.103000 2.046000 600 59 1.000000 0.054000 0.054000 1.200000 0.029000 0.035000
1518119724806444242	200 53 0.900000 0.076000 0.069000 1000 48 0.900000 2.105000 2.048000 600 59 1.000000 0.054000 0.054000 1.200000 0.028000 0.033000
1518119725370528075	200 53 0.900000 0.076000 0.069000 1000 48 0.900000 2.105000 2.046000 600 58 1.000000 0.054000 0.054000 1.200000 0.029000 0.035000
1518119725918505159	200 53 0.900000 0.076000 0.069000 1000 48 0.900000 2.105000 2.046000 600 59 1.000000 0.054000 0.054000 1.200000 0.028000 0.033000
1518119726478504576	200 53 0.900000 0.076000 0.069000 1000 48 0.900000 2.105000 2.046000 600 59 1.000000 0.054000 0.054000 1.200000 0.029000 0.035000
1518119727054444867	200 53 0.900000 0.076000 0.069000 1000 48 0.900000 2.103000 2.044000 600 59 1.000000 0.054000 0.054000 1.200000 0.029000 0.035000
1518119727622542951	200 53 0.900000 0.076000 0.069000 1000 48 0.900000 2.097000 2.040000 600 59 1.000000 0.054000 0.054000 1.200000 0.028000 0.033000
1518119728174505784	200 53 0.900000 0.076000 0.069000 1000 48 0.900000 2.086000 2.029000 600 59 1.000000 0.054000 0.054000 1.200000 0.030000 0.036000
1518119728746480243	200 53 0.900000 0.077000 0.070000 1000 48 0.900000 2.097000 2.040000 600 59 1.000000 0.054000 0.054000 1.200000 0.029000 0.035000
1518119729306513618	200 53 0.900000 0.076000 0.069000 1000 48 0.900000 2.096000 2.037000 600 59 1.000000 0.055000 0.055000 1.200000 0.028000 0.033000
1518119729854538243	200 53 0.900000 0.076000 0.069000 1000 48 0.900000 2.089000 2.032000 600 59 1.000000 0.054000 0.054000 1.200000 0.029000 0.035000
1518119730410498451	200 53 0.900000 0.076000 0.069000 1000 48 0.900000 2.088000 2.029000 600 59 1.000000 0.054000 0.054000 1.200000 0.028000 0.033000
1518119730974523493	200 53 0.900000 0.076000 0.069000 1000 48 0.900000 2.080000 2.021000 600 59 1.000000 0.054000 0.054000 1.200000 0.029000 0.035000
1518119731534458701	200 53 0.900000 0.076000 0.069000 1000 48 0.900000 2.079000 2.020000 600 58 1.000000 0.054000 0.054000 1.200000 0.029000 0.035000
1518119732090499285	200 53 0.900000 0.076000 0.069000 1000 48 0.900000 2.091000 2.032000 600 59 1.000000 0.054000 0.054000 1.200000 0.029000 0.035000
1518119732642500410	200 53 0.900000 0.076000 0.069000 1000 48 0.900000 2.082000 2.023000 600 59 1.000000 0.054000 0.054000 1.200000 0.029000 0.035000
1518119733202537326	200 53 0.900000 0.076000 0.069000 1000 48 0.900000 2.083000 2.024000 600 58 1.000000 0.054000 0.054000 1.200000 0.029000 0.035000
1518119733778487035	200 53 0.900000 0.076000 0.069000 1000 48 0.900000 2.082000 2.023000 600 59 1.000000 0.054000 0.054000 1.200000 0.029000 0.035000
1518119734322510868	200 53 0.900000 0.076000 0.069000 1000 48 0.900000 2.093000 2.034000 600 59 1.000000 0.054000 0.054000 1.200000 0.029000 0.035000
1518119734890527493	200 53 0.900000 0.076000 0.069000 1000 48 0.900000 2.084000 2.025000 600 59 1.000000 0.054000 0.054000 1.200000 0.029000 0.035000
1518119735454511285	200 53 0.900000 0.076000 0.069000 1000 48 0.900000 2.092000 2.033000 600 59 1.000000 0.054000 0.054000 1.200000 0.029000 0.035000
1518119736014532702	200 53 0.900000 0.077000 0.070000 1000 48 0.900000 2.085000 2.026000 600 59 1.000000 0.054000 0.054000 1.200000 0.029000 0.035000
1518119736562502660	200 53 0.900000 0.076000 0.069000 1000 48 0.900000 2.085000 2.026000 600 59 1.000000 0.054000 0.054000 1.200000 0.029000 0.035000
1518119737130530619	200 53 0.900000 0.076000 0.069000 1000 48 0.900000 2.078000 2.019000 600 59 1.000000 0.054000 0.054000 1.200000 0.030000 0.036000
1518119737698411619	200 53 0.900000 0.077000 0.070000 1000 48 0.900000 2.091000 2.032000 600 59 1.000000 0.054000 0.054000 1.200000 0.029000 0.035000
1518119738258524827	200 53 0.900000 0.076000 0.069000 1000 48 0.900000 2.089000 2.030000 600 59 1.000000 0.054000 0.054000 1.200000 0.030000 0.036000
1518119738814512369	200 53 0.900000 0.076000 0.069000 1000 48 0.900000 2.091000 2.032000 600 59 1.000000 0.054000 0.054000 1.200000 0.029000 0.035000
1518119739366539035	200 53 0.900000 0.076000 0.069000 1000 48 0.900000 2.089000 2.030000 600 59 1.000000 0.054000 0.054000 1.200000 0.029000 0.035000
1518119739922521286	200 53 0.900000 0.076000 0.069000 1000 48 0.900000 2.074000 2.015000 600 59 1.000000 0.054000 0.054000 1.200000 0.028000 0.033000
1518119740490526286	200 53 0.900000 0.076000 0.069000 1000 48 0.900000 2.079000 2.020000 600 59 1.000000 0.054000 0.054000 1.200000 0.029000 0.035000
1518119741050527619	200 53 0.900000 0.076000 0.069000 1000 48 0.900000 2.087000 2.028000 600 59 1.000000 0.054000 0.054000 1.200000 0.029000 0.035000
1518119741610442702	200 53 0.900000 0.076000 0.069000 1000 48 0.900000 2.085000 2.026000 600 59 1.000000 0.054000 0.054000 1.200000 0.029000 0.035000
1518119742166510577	200 53 0.900000 0.076000 0.069000 1000 48 0.900000 2.078000 2.019000 600 59 1.000000 0.054000 0.054000 1.200000 0.029000 0.035000
1518119742726546786	200 53 0.900000 0.076000 0.069000 1000 48 0.900000 2.086000 2.027000 600 59 1.000000 0.054000 0.054000 1.200000 0.029000 0.035000
1518119743278512161	200 53 0.900000 0.076000 0.069000 1000 48 0.900000 2.087000 2.028000 600 59 1.000000 0.054000 0.054000 1.200000 0.029000 0.035000
1518119743846529744	200 53 0.900000 0.077000 0.070000 1000 48 0.900000 2.088000 2.029000 600 59 1.000000 0.054000 0.054000 1.200000 0.029000 0.035000
1518119744398522369	200 53 0.900000 0.076000 0.069000 1000 48 0.900000 2.087000 2.028000 600 59 1.000000 0.054000 0.054000 1.200000 0.029000 0.035000
1518119744958525453	200 53 0.900000 0.076000 0.069000 1000 48 0.900000 2.080000 2.021000 600 59 1.000000 0.054000 0.054000 1.200000 0.029000 0.035000
1518119745522513911	200 53 0.900000 0.076000 0.069000 1000 48 0.900000 2.088000 2.029000 600 59 1.000000 0.054000 0.054000 1.200000 0.029000 0.035000
1518119746082440661	200 53 0.900000 0.076000 0.069000 1000 48 0.900000 2.087000 2.028000 600 59 1.000000 0.054000 0.054000 1.200000 0.029000 0.035000
1518119746658521286	200 53 0.900000 0.076000 0.069000 1000 48 0.900000 2.080000 2.021000 600 59 1.000000 0.054000 0.054000 1.200000 0.029000 0.035000
1518119747218547995	200 53 0.900000 0.076000 0.069000 1000 48 0.900000 2.075000 2.016000 600 59 1.000000 0.054000 0.054000 1.200000 0.030000 0.036000
1518119747770532120	200 53 0.900000 0.076000 0.069000 1000 48 0.900000 2.086000 2.027000 600 59 1.000000 0.055000 0.055000 1.200000 0.029000 0.035000
1518119748338528495	200 53 0.900000 0.076000 0.069000 1000 48 0.900000 2.087000 2.028000 600 59 1.000000 0.054000 0.054000 1.200000 0.029000 0.035000
1518119748898565912	200 53 0.900000 0.076000 0.069000 1000 48 0.900000 2.088000 2.029000 600 59 1.000000 0.054000 0.054000 1.200000 0.029000 0.035000
1518119749450452495	200 53 0.900000 0.077000 0.070000 1000 48 0.900000 2.087000 2.028000 600 59 1.000000 0.055000 0.055000 1.200000 0.029000 0.035000
1518119750010538870	200 53 0.900000 0.076000 0.069000 1000 48 0.900000 2.079000 2.020000 600 59 1.000000 0.054000 0.054000 1.200000 0.029000 0.035000
1518119750578416370	200 53 0.900000 0.076000 0.069000 1000 48 0.900000 2.080000 2.021000 600 59 1.000000 0.054000 0.054000 1.200000 0.029000 0.035000
1518119751146510495	200 53 0.900000 0.076000 0.069000 1000 48 0.900000 2.071000 2.013000 600 59 1.000000 0.054000 0.054000 1.200000 0.029000 0.035000
1518119751698606370	200 53 0.900000 0.076000 0.069000 1000 48 0.900000 2.071000 2.013000 600 59 1.000000 0.055000 0.055000 1.200000 0.029000 0.035000
1518119752262532662	200 53 0.900000 0.076000 0.069000 1000 48 0.900000 2.092000 2.033000 600 59 1.000000 0.054000 0.054000 1.200000 0.028000 0.033000
1518119752830544870	200 53 0.900000 0.076000 0.069000 1000 48 0.900000 2.091000 2.032000 600 59 1.000000 0.054000 0.054000 1.200000 0.028000 0.033000
1518119753390483121	200 53 0.900000 0.076000 0.069000 1000 48 0.900000 2.091000 2.032000 600 59 1.000000 0.054000 0.054000 1.200000 0.029000 0.035000
1518119753958514454	200 53 0.900000 0.076000 0.069000 1000 48 0.900000 2.090000 2.031000 600 59 1.000000 0.054000 0.054000 1.200000 0.028000 0.033000
1518119754514514454	200 53 0.900000 0.076000 0.069000 1000 48 0.900000 2.091000 2.032000 600 59 1.000000 0.054000 0.054000 1.200000 0.028000 0.033000
1518119755054410454	200 53 0.900000 0.076000 0.069000 1000 48 0.900000 2.082000 2.023000 600 59 1.000000 0.054000 0.054000 1.200000 0.028000 0.033000
1518119755613505829	200 53 0.900000 0.076000 0.069000 1000 48 0.900000 2.087000 2.028000 600 59 1.000000 0.054000 0.054000 1.200000 0.028000 0.033000
1518119756182543413	200 53 0.900000 0.077000 0.070000 1000 48 0.900000 2.079000 2.020000 600 59 1.000000 0.054000 0.054000 1.200000 0.029000 0.035000
1518119756754536996	200 53 0.900000 0.076000 0.069000 1000 48 0.900000 2.091000 2.032000 600 59 1.000000 0.054000 0.054000 1.200000 0.029000 0.035000
1518119757314546496	200 53 0.900000 0.076000 0.069000 1000 48 0.900000 2.091000 2.032000 600 59 1.000000 0.054000 0.054000 1.200000 0.028000 0.033000
1518119757874420121	200 53 0.900000 0.076000 0.069000 1000 48 0.900000 2.091000 2.032000 600 59 1.000000 0.054000 0.054000 1.200000 0.029000 0.035000
1518119758434526621	200 53 0.900000 0.077000 0.070000 1000 48 0.900000 2.091000 2.032000 600 59 1.000000 0.054000 0.054000 1.200000 0.029000 0.035000
1518119758986548996	200 53 0.900000 0.076000 0.069000 1000 48 0.900000 2.089000 2.030000 600 59 1.000000 0.054000 0.054000 1.200000 0.029000 0.035000
1518119759550413163	200 53 0.900000 0.076000 0.069000 1000 48 0.900000 2.092000 2.033000 600 59 1.000000 0.054000 0.054000 1.200000 0.029000 0.035000
1518119760106506913	200 53 0.900000 0.076000 0.069000 1000 48 0.900000 2.086000 2.027000 600 59 1.000000 0.054000 0.054000 1.200000 0.029000 0.035000
1518119760674529705	200 53 0.900000 0.076000 0.069000 1000 48 0.900000 2.096000 2.037000 600 59 1.000000 0.054000 0.054000 1.200000 0.029000 0.035000
1518119761250426705	200 53 0.900000 0.076000 0.069000 1000 48 0.900000 2.102000 2.043000 600 59 1.000000 0.054000 0.054000 1.200000 0.029000 0.035000
1518119761798516163	200 53 0.900000 0.076000 0.069000 1000 48 0.900000 2.102000 2.043000 600 59 1.000000 0.054000 0.054000 1.200000 0.029000 0.035000
1518119762346541997	200 53 0.900000 0.076000 0.069000 1000 48 0.900000 2.101000 2.042000 600 59 1.000000 0.054000 0.054000 1.200000 0.029000 0.035000
1518119762914523913	200 53 0.900000 0.077000 0.070000 1000 48 0.900000 2.101000 2.042000 600 59 1.000000 0.054000 0.054000 1.200000 0.029000 0.035000
1518119763482499705	200 53 0.900000 0.076000 0.069000 1000 48 0.900000 2.099000 2.040000 600 59 1.000000 0.054000 0.054000 1.200000 0.029000 0.035000
1518119764054478122	200 53 0.900000 0.076000 0.069000 1000 48 0.900000 2.097000 2.038000 600 59 1.000000 0.054000 0.054000 1.200000 0.028000 0.033000
1518119764614461497	200 53 0.900000 0.077000 0.070000 1000 48 0.900000 2.085000 2.026000 600 59 1.000000 0.054000 0.054000 1.200000 0.029000 0.035000
1518119765170550414	200 53 0.900000 0.076000 0.069000 1000 48 0.900000 2.092000 2.033000 600 59 1.000000 0.054000 0.054000 1.200000 0.028000 0.033000
1518119765746390455	200 53 0.900000 0.076000 0.069000 1000 48 0.900000 2.095000 2.036000 600 59 1.000000 0.054000 0.054000 1.200000 0.028000 0.033000
1518119766294417289	200 53 0.900000 0.076000 0.069000 1000 48 0.900000 2.091000 2.032000 600 59 1.000000 0.054000 0.054000 1.200000 0.028000 0.033000
1518119766854506455	200 53 0.900000 0.076000 0.069000 1000 48 0.900000 2.084000 2.025000 600 59 1.000000 0.054000 0.054000 1.200000 0.028000 0.033000
1518119767414500497	200 53 0.900000 0.076000 0.069000 1000 48 0.900000 2.089000 2.030000 600 59 1.000000 0.054000 0.054000 1.200000 0.028000 0.033000
1518119767970569706	200 53 0.900000 0.076000 0.069000 1000 48 0.900000 2.097000 2.038000 600 59 1.000000 0.054000 0.054000 1.200000 0.028000 0.033000
1518119768538523122	200 53 0.900000 0.076000 0.069000 1000 48 0.900000 2.097000 2.038000 600 59 1.000000 0.054000 0.054000 1.200000 0.028000 0.033000
1518119769090558581	200 53 0.900000 0.076000 0.069000 1000 48 0.900000 2.089000 2.030000 600 59 1.000000 0.054000 0.054000 1.200000 0.028000 0.033000
1518119769658508747	200 53 0.900000 0.076000 0.069000 1000 48 0.900000 2.087000 2.028000 600 59 1.000000 0.054000 0.054000 1.200000 0.028000 0.033000
1518119770218414414	200 53 0.900000 0.076000 0.069000 1000 48 0.900000 2.097000 2.038000 600 59 1.000000 0.054000 0.054000 1.200000 0.028000 0.033000
1518119770778438873	200 53 0.900000 0.077000 0.070000 1000 48 0.900000 2.074000 2.015000 600 59 1.000000 0.054000 0.054000 1.200000 0.028000 0.033000
1518119771346387748	200 53 0.900000 0.077000 0.070000 1000 48 0.900000 2.067000 2.009000 600 59 1.000000 0.054000 0.054000 1.200000 0.028000 0.033000
1518119771902505748	200 53 0.900000 0.076000 0.069000 1000 48 0.900000 2.063000 2.005000 600 59 1.000000 0.054000 0.054000 1.200000 0.028000 0.033000
1518119772450451039	200 53 0.900000 0.076000 0.069000 1000 48 0.900000 2.076000 2.017000 600 59 1.000000 0.054000 0.054000 1.200000 0.028000 0.033000
1518119773002539373	200 53 0.900000 0.076000 0.069000 1000 48 0.900000 2.076000 2.017000 600 59 1.000000 0.054000 0.054000 1.200000 0.028000 0.033000
1518119773554274123	200 53 0.900000 0.076000 0.069000 1000 48 0.900000 2.070000 2.012000 600 59 1.000000 0.054000 0.054000 1.200000 0.028000 0.033000
1518119774118550373	200 53 0.900000 0.076000 0.069000 1000 48 0.900000 2.066000 2.008000 600 59 1.000000 0.054000 0.054000 1.200000 0.028000 0.033000
1518119774674528206	200 53 0.900000 0.076000 0.069000 1000 48 0.900000 2.084000 2.025000 600 59 1.000000 0.054000 0.054000 1.200000 0.028000 0.033000
1518119775234423956	200 53 0.900000 0.076000 0.069000 1000 48 0.900000 2.082000 2.023000 600 59 1.000000 0.054000 0.054000 1.200000 0.028000 0.033000
1518119775798541457	200 53 0.900000 0.076000 0.069000 1000 48 0.900000 2.074000 2.015000 600 59 1.000000 0.054000 0.054000 1.200000 0.028000 0.033000
1518119776358397623	200 53 0.900000 0.076000 0.069000 1000 48 0.900000 2.065000 2.007000 600 59 1.000000 0.054000 0.054000 1.200000 0.028000 0.033000
1518119776918523748	200 53 0.900000 0.076000 0.069000 1000 48 0.900000 2.075000 2.016000 600 59 1.000000 0.054000 0.054000 1.200000 0.028000 0.033000
1518119777486546790	200 53 0.900000 0.076000 0.069000 1000 48 0.900000 2.072000 2.013000 600 59 1.000000 0.054000 0.054000 1.200000 0.028000 0.033000
1518119778054528373	200 53 0.900000 0.076000 0.069000 1000 48 0.900000 2.078000 2.019000 600 59 1.000000 0.054000 0.054000 1.200000 0.029000 0.035000
1518119778610526499	200 53 0.900000 0.076000 0.069000 1000 48 0.900000 2.065000 2.007000 600 59 1.000000 0.054000 0.054000 1.200000 0.028000 0.033000
1518119779178483457	200 53 0.900000 0.076000 0.069000 1000 48 0.900000 2.084000 2.025000 600 59 1.000000 0.054000 0.054000 1.200000 0.028000 0.033000
1518119779746510290	200 53 0.900000 0.076000 0.069000 1000 48 0.900000 2.082000 2.023000 600 59 1.000000 0.054000 0.054000 1.200000 0.028000 0.033000
1518119780318442499	200 53 0.900000 0.076000 0.069000 1000 48 0.900000 2.082000 2.023000 600 59 1.000000 0.054000 0.054000 1.200000 0.028000 0.033000
1518119780874466499	200 53 0.900000 0.076000 0.069000 1000 48 0.900000 2.105000 2.046000 600 59 1.000000 0.054000 0.054000 1.200000 0.028000 0.033000
1518119781442526666	200 53 0.900000 0.076000 0.069000 1000 48 0.900000 2.108000 2.048000 600 59 1.000000 0.054000 0.054000 1.200000 0.028000 0.033000
1518119781994545499	200 53 0.900000 0.076000 0.069000 1000 48 0.900000 2.102000 2.043000 600 59 1.000000 0.054000 0.054000 1.200000 0.028000 0.033000
1518119782550519291	200 53 0.900000 0.076000 0.069000 1000 48 0.900000 2.102000 2.043000 600 59 1.000000 0.054000 0.054000 1.200000 0.028000 0.033000
1518119783110511457	200 53 0.900000 0.076000 0.069000 1000 48 0.900000 2.111000 2.051000 600 59 1.000000 0.054000 0.054000 1.200000 0.028000 0.033000
1518119783666489832	200 53 0.900000 0.076000 0.069000 1000 48 0.900000 2.118000 2.058000 600 59 1.000000 0.054000 0.054000 1.200000 0.028000 0.033000
1518119784222476333	200 53 0.900000 0.076000 0.069000 1000 48 0.900000 2.118000 2.060000 600 59 1.000000 0.055000 0.055000 1.200000 0.028000 0.033000
1518119784786516458	200 53 0.900000 0.076000 0.069000 1000 48 0.900000 2.118000 2.058000 600 59 1.000000 0.054000 0.054000 1.200000 0.028000 0.033000
1518119785346557083	200 53 0.900000 0.076000 0.069000 1000 48 0.900000 2.117000 2.057000 600 59 1.000000 0.054000 0.054000 1.200000 0.028000 0.033000
1518119785894462083	200 53 0.900000 0.076000 0.069000 1000 48 0.900000 2.110000 2.050000 600 59 1.000000 0.054000 0.054000 1.200000 0.028000 0.033000
1518119786446544833	200 53 0.900000 0.077000 0.070000 1000 48 0.900000 2.108000 2.048000 600 59 1.000000 0.054000 0.054000 1.200000 0.028000 0.033000
1518119787006419083	200 53 0.900000 0.077000 0.070000 1000 48 0.900000 2.105000 2.048000 600 59 1.000000 0.054000 0.054000 1.200000 0.028000 0.033000
1518119787574495125	200 54 0.900000 0.076000 0.069000 1000 48 0.900000 2.105000 2.046000 600 59 1.000000 0.054000 0.054000 1.200000 0.028000 0.033000
1518119788138522416	200 53 0.900000 0.077000 0.070000 1000 49 0.900000 2.117000 2.057000 600 59 1.000000 0.055000 0.055000 1.200000 0.028000 0.033000
1518119788694421916	200 53 0.900000 0.076000 0.069000 1000 49 0.900000 2.118000 2.058000 600 59 1.000000 0.055000 0.055000 1.200000 0.028000 0.033000
1518119789258511333	200 53 0.900000 0.077000 0.070000 1000 48 0.900000 2.117000 2.057000 600 59 1.000000 0.054000 0.054000 1.200000 0.028000 0.033000
1518119789814508583	200 53 0.900000 0.076000 0.069000 1000 48 0.900000 2.118000 2.058000 600 59 1.000000 0.054000 0.054000 1.200000 0.028000 0.033000
1518119790370686500	200 53 0.900000 0.076000 0.069000 1000 48 0.900000 2.116000 2.056000 600 59 1.000000 0.055000 0.055000 1.200000 0.028000 0.033000
1518119790922542667	200 53 0.900000 0.076000 0.069000 1000 48 0.900000 2.107000 2.048000 600 59 1.000000 0.054000 0.054000 1.200000 0.028000 0.033000
1518119791474471875	200 53 0.900000 0.076000 0.069000 1000 48 0.900000 2.101000 2.042000 600 59 1.000000 0.054000 0.054000 1.200000 0.028000 0.033000
1518119792042507417	200 53 0.900000 0.076000 0.069000 1000 48 0.900000 2.093000 2.034000 600 59 1.000000 0.054000 0.054000 1.200000 0.028000 0.033000
1518119792606400292	200 54 0.900000 0.076000 0.069000 1000 48 0.900000 2.086000 2.027000 600 59 1.000000 0.054000 0.054000 1.200000 0.028000 0.033000
1518119793166525500	200 53 0.900000 0.076000 0.069000 1000 48 0.900000 2.105000 2.046000 600 59 1.000000 0.054000 0.054000 1.200000 0.028000 0.033000
1518119793726536625	200 53 0.900000 0.076000 0.069000 1000 48 0.900000 2.103000 2.044000 600 59 1.000000 0.054000 0.054000 1.200000 0.028000 0.033000
1518119794290517125	200 53 0.900000 0.076000 0.069000 1000 48 0.900000 2.104000 2.045000 600 59 1.000000 0.055000 0.055000 1.200000 0.028000 0.033000
1518119794854503500	200 53 0.900000 0.076000 0.069000 1000 48 0.900000 2.105000 2.046000 600 59 1.000000 0.054000 0.054000 1.200000 0.028000 0.033000
1518119795410548167	200 53 0.900000 0.076000 0.069000 1000 48 0.900000 2.104000 2.045000 600 59 1.000000 0.054000 0.054000 1.200000 0.029000 0.035000
1518119795962534376	200 53 0.900000 0.077000 0.070000 1000 49 0.900000 2.104000 2.045000 600 59 1.000000 0.054000 0.054000 1.200000 0.028000 0.033000
1518119796526522001	200 53 0.900000 0.076000 0.069000 1000 48 0.900000 2.097000 2.038000 600 59 1.000000 0.055000 0.055000 1.200000 0.029000 0.035000
1518119797078397251	200 53 0.900000 0.076000 0.069000 1000 48 0.900000 2.092000 2.033000 600 59 1.000000 0.054000 0.054000 1.200000 0.028000 0.033000
1518119797626519542	200 53 0.900000 0.076000 0.069000 1000 48 0.900000 2.105000 2.046000 600 59 1.000000 0.054000 0.054000 1.200000 0.028000 0.033000
1518119798194495084	200 53 0.900000 0.076000 0.069000 1000 48 0.900000 2.105000 2.046000 600 59 1.000000 0.055000 0.055000 1.200000 0.028000 0.033000
1518119798754435251	200 53 0.900000 0.076000 0.069000 1000 49 0.900000 2.104000 2.045000 600 59 1.000000 0.054000 0.054000 1.200000 0.028000 0.033000
1518119799314477584	200 53 0.900000 0.076000 0.069000 1000 49 0.900000 2.088000 2.029000 600 59 1.000000 0.054000 0.054000 1.200000 0.028000 0.033000
1518119799878511001	200 53 0.900000 0.076000 0.069000 1000 48 0.900000 2.093000 2.034000 600 59 1.000000 0.054000 0.054000 1.200000 0.028000 0.033000
1518119800442481584	200 53 0.900000 0.076000 0.069000 1000 49 0.900000 2.101000 2.042000 600 59 1.000000 0.055000 0.055000 1.200000 0.028000 0.033000
1518119801002518085	200 53 0.900000 0.076000 0.069000 1000 48 0.900000 2.099000 2.040000 600 59 1.000000 0.054000 0.054000 1.200000 0.028000 0.033000
1518119801566485501	200 53 0.900000 0.076000 0.069000 1000 48 0.900000 2.087000 2.028000 600 59 1.000000 0.054000 0.054000 1.200000 0.028000 0.033000
1518119802118505585	200 53 0.900000 0.076000 0.069000 1000 48 0.900000 2.086000 2.027000 600 59 1.000000 0.054000 0.054000 1.200000 0.028000 0.033000
1518119802674557418	200 53 0.900000 0.076000 0.069000 1000 48 0.900000 2.085000 2.028000 600 59 1.000000 0.055000 0.055000 1.200000 0.028000 0.033000
1518119803242476793	200 53 0.900000 0.076000 0.069000 1000 48 0.900000 2.084000 2.025000 600 59 1.000000 0.055000 0.055000 1.200000 0.029000 0.035000
1518119803798506252	200 53 0.900000 0.076000 0.069000 1000 48 0.900000 2.075000 2.016000 600 59 1.000000 0.055000 0.055000 1.200000 0.028000 0.033000
1518119804362493627	200 53 0.900000 0.077000 0.070000 1000 48 0.900000 2.093000 2.034000 600 59 1.000000 0.054000 0.054000 1.200000 0.028000 0.033000
1518119804930490085	200 53 0.900000 0.077000 0.070000 1000 49 0.900000 2.090000 2.031000 600 59 1.000000 0.054000 0.054000 1.200000 0.028000 0.033000
1518119805486421877	200 53 0.900000 0.077000 0.070000 1000 49 0.900000 2.086000 2.027000 600 59 1.000000 0.054000 0.054000 1.200000 0.029000 0.035000
1518119806042577543	200 53 0.900000 0.076000 0.069000 1000 48 0.900000 2.082000 2.023000 600 59 1.000000 0.054000 0.054000 1.200000 0.028000 0.033000
1518119806602512002	200 53 0.900000 0.077000 0.070000 1000 48 0.900000 2.093000 2.034000 600 59 1.000000 0.054000 0.054000 1.200000 0.028000 0.033000
1518119807158532877	200 53 0.900000 0.076000 0.069000 1000 48 0.900000 2.090000 2.031000 600 59 1.000000 0.054000 0.054000 1.200000 0.028000 0.033000
1518119807730396919	200 53 0.900000 0.077000 0.070000 1000 48 0.900000 2.084000 2.025000 600 59 1.000000 0.054000 0.054000 1.200000 0.028000 0.033000
1518119808294487002	200 53 0.900000 0.076000 0.069000 1000 48 0.900000 2.077000 2.018000 600 59 1.000000 0.054000 0.054000 1.200000 0.028000 0.033000
1518119808838539460	200 53 0.900000 0.076000 0.069000 1000 48 0.900000 2.080000 2.021000 600 59 1.000000 0.054000 0.054000 1.200000 0.028000 0.033000
1518119809402540294	200 53 0.900000 0.076000 0.069000 1000 48 0.900000 2.080000 2.021000 600 59 1.000000 0.054000 0.054000 1.200000 0.028000 0.033000
1518119809962579336	200 53 0.900000 0.076000 0.069000 1000 48 0.900000 2.074000 2.015000 600 59 1.000000 0.054000 0.054000 1.200000 0.028000 0.033000
1518119810530499169	200 53 0.900000 0.076000 0.069000 1000 48 0.900000 2.082000 2.023000 600 59 1.000000 0.055000 0.055000 1.200000 0.028000 0.033000
1518119811094500002	200 53 0.900000 0.076000 0.069000 1000 48 0.900000 2.094000 2.035000 600 59 1.000000 0.054000 0.054000 1.200000 0.028000 0.033000
1518119811654585211	200 54 0.900000 0.076000 0.069000 1000 48 0.900000 2.109000 2.049000 600 59 1.000000 0.054000 0.054000 1.200000 0.028000 0.033000
1518119812222535044	200 53 0.900000 0.077000 0.070000 1000 49 0.900000 2.107000 2.048000 600 59 1.000000 0.054000 0.054000 1.200000 0.028000 0.033000
1518119812778463836	200 54 0.900000 0.077000 0.070000 1000 49 0.900000 2.108000 2.048000 600 59 1.000000 0.054000 0.054000 1.200000 0.028000 0.033000
1518119813346386919	200 53 0.900000 0.076000 0.069000 1000 49 0.900000 2.098000 2.039000 600 59 1.000000 0.055000 0.055000 1.200000 0.028000 0.033000
1518119813910442503	200 54 0.900000 0.076000 0.069000 1000 49 0.900000 2.107000 2.048000 600 59 1.000000 0.054000 0.054000 1.200000 0.028000 0.033000
1518119814470531003	200 54 0.900000 0.076000 0.069000 1000 49 0.900000 2.101000 2.042000 600 59 1.000000 0.054000 0.054000 1.200000 0.028000 0.033000
1518119815022440711	200 54 0.900000 0.076000 0.069000 1000 49 0.900000 2.098000 2.039000 600 59 1.000000 0.054000 0.054000 1.200000 0.028000 0.033000
1518119815582522086	200 54 0.900000 0.076000 0.069000 1000 49 0.900000 2.112000 2.052000 600 59 1.000000 0.055000 0.055000 1.200000 0.028000 0.033000
1518119816138558253	200 53 0.900000 0.076000 0.069000 1000 48 0.900000 2.112000 2.052000 600 59 1.000000 0.055000 0.055000 1.200000 0.028000 0.033000
1518119816694468836	200 53 0.900000 0.076000 0.069000 1000 49 0.900000 2.111000 2.051000 600 59 1.000000 0.054000 0.054000 1.200000 0.028000 0.033000
1518119817250568003	200 53 0.900000 0.076000 0.069000 1000 48 0.900000 2.105000 2.046000 600 59 1.000000 0.054000 0.054000 1.200000 0.028000 0.033000
1518119817822519295	200 53 0.900000 0.076000 0.069000 1000 49 0.900000 2.100000 2.041000 600 59 1.000000 0.054000 0.054000 1.200000 0.028000 0.033000
1518119818386473087	200 54 0.900000 0.076000 0.069000 1000 48 0.900000 2.101000 2.042000 600 59 1.000000 0.054000 0.054000 1.200000 0.028000 0.033000
1518119818950440545	200 54 0.900000 0.076000 0.069000 1000 48 0.900000 2.104000 2.045000 600 59 1.000000 0.054000 0.054000 1.200000 0.028000 0.033000
1518119819502503587	200 54 0.900000 0.076000 0.069000 1000 49 0.900000 2.100000 2.041000 600 59 1.000000 0.054000 0.054000 1.200000 0.028000 0.033000
1518119820050535420	200 54 0.900000 0.076000 0.069000 1000 49 0.900000 2.112000 2.052000 600 59 1.000000 0.054000 0.054000 1.200000 0.028000 0.033000
1518119820602517587	200 54 0.900000 0.077000 0.070000 1000 48 0.900000 2.111000 2.051000 600 59 1.000000 0.054000 0.054000 1.200000 0.028000 0.033000
1518119821158408212	200 54 0.900000 0.076000 0.069000 1000 49 0.900000 2.111000 2.051000 600 59 1.000000 0.054000 0.054000 1.200000 0.028000 0.033000
1518119821710540795	200 54 0.900000 0.076000 0.069000 1000 49 0.900000 2.107000 2.050000 600 59 1.000000 0.054000 0.054000 1.200000 0.028000 0.033000
1518119822262403545	200 54 0.900000 0.076000 0.069000 1000 49 0.900000 2.103000 2.044000 600 59 1.000000 0.054000 0.054000 1.200000 0.028000 0.033000
1518119822830408170	200 54 0.900000 0.076000 0.069000 1000 49 0.900000 2.102000 2.043000 600 59 1.000000 0.054000 0.054000 1.200000 0.028000 0.033000
1518119823398524129	200 54 0.900000 0.076000 0.069000 1000 49 0.900000 2.094000 2.035000 600 59 1.000000 0.055000 0.055000 1.200000 0.028000 0.033000
1518119823954523921	200 53 0.900000 0.076000 0.069000 1000 49 0.900000 2.102000 2.043000 600 59 1.000000 0.054000 0.054000 1.200000 0.028000 0.033000
1518119824518506504	200 54 0.900000 0.076000 0.069000 1000 49 0.900000 2.094000 2.035000 600 59 1.000000 0.055000 0.055000 1.200000 0.028000 0.033000
1518119825078518087	200 54 0.900000 0.076000 0.069000 1000 49 0.900000 2.102000 2.043000 600 59 1.000000 0.054000 0.054000 1.200000 0.028000 0.033000
1518119825630418921	200 54 0.900000 0.076000 0.069000 1000 49 0.900000 2.102000 2.043000 600 59 1.000000 0.054000 0.054000 1.200000 0.028000 0.033000
1518119826186539921	200 54 0.900000 0.077000 0.070000 1000 49 0.900000 2.104000 2.045000 600 59 1.000000 0.054000 0.054000 1.200000 0.028000 0.033000
1518119826738536588	200 54 0.900000 0.076000 0.069000 1000 49 0.900000 2.104000 2.045000 600 59 1.000000 0.055000 0.055000 1.200000 0.028000 0.033000
1518119827294481171	200 54 0.900000 0.076000 0.069000 1000 49 0.900000 2.102000 2.043000 600 59 1.000000 0.054000 0.054000 1.200000 0.028000 0.033000
1518119827862441129	200 54 0.900000 0.077000 0.070000 1000 49 0.900000 2.102000 2.043000 600 59 1.000000 0.054000 0.054000 1.200000 0.028000 0.033000
1518119828414553171	200 54 0.900000 0.076000 0.069000 1000 49 0.900000 2.095000 2.036000 600 59 1.000000 0.054000 0.054000 1.200000 0.028000 0.033000
1518119828978419213	200 54 0.900000 0.076000 0.069000 1000 49 0.900000 2.094000 2.035000 600 59 1.000000 0.054000 0.054000 1.200000 0.028000 0.033000
1518119829526515338	200 54 0.900000 0.076000 0.069000 1000 49 0.900000 2.095000 2.036000 600 59 1.000000 0.055000 0.055000 1.200000 0.028000 0.033000
1518119830082518296	200 54 0.900000 0.076000 0.069000 1000 49 0.900000 2.102000 2.043000 600 59 1.000000 0.054000 0.054000 1.200000 0.028000 0.033000
1518119830638481796	200 54 0.900000 0.076000 0.069000 1000 49 0.900000 2.104000 2.045000 600 59 1.000000 0.054000 0.054000 1.200000 0.028000 0.033000
1518119831202558421	200 54 0.900000 0.077000 0.070000 1000 49 0.900000 2.104000 2.045000 600 59 1.000000 0.054000 0.054000 1.200000 0.028000 0.033000
1518119831770529005	200 54 0.900000 0.077000 0.070000 1000 49 0.900000 2.097000 2.038000 600 59 1.000000 0.054000 0.054000 1.200000 0.028000 0.033000
1518119832322529172	200 54 0.900000 0.077000 0.070000 1000 49 0.900000 2.110000 2.050000 600 59 1.000000 0.054000 0.054000 1.200000 0.028000 0.033000
1518119832882515672	200 54 0.900000 0.077000 0.070000 1000 49 0.900000 2.110000 2.050000 600 59 1.000000 0.054000 0.054000 1.200000 0.028000 0.033000
1518119833450551963	200 54 0.900000 0.077000 0.070000 1000 49 0.900000 2.110000 2.050000 600 59 1.000000 0.054000 0.054000 1.200000 0.028000 0.033000
1518119834002528088	200 54 0.900000 0.076000 0.069000 1000 49 0.900000 2.110000 2.050000 600 60 1.000000 0.054000 0.054000 1.200000 0.028000 0.033000
1518119834558489839	200 54 0.900000 0.076000 0.069000 1000 49 0.900000 2.109000 2.052000 600 59 1.000000 0.055000 0.055000 1.200000 0.028000 0.033000
1518119835114525964	200 54 0.900000 0.076000 0.069000 1000 49 0.900000 2.098000 2.039000 600 60 1.000000 0.055000 0.055000 1.200000 0.029000 0.035000
1518119835666509589	200 54 0.900000 0.076000 0.069000 1000 49 0.900000 2.103000 2.046000 600 59 1.000000 0.054000 0.054000 1.200000 0.028000 0.033000
1518119836222481589	200 54 0.900000 0.076000 0.069000 1000 49 0.900000 2.101000 2.042000 600 59 1.000000 0.055000 0.055000 1.200000 0.028000 0.033000
1518119836786499422	200 54 0.900000 0.076000 0.069000 1000 49 0.900000 2.105000 2.046000 600 59 1.000000 0.054000 0.054000 1.200000 0.028000 0.033000
1518119837350525589	200 54 0.900000 0.076000 0.069000 1000 49 0.900000 2.105000 2.046000 600 59 1.000000 0.055000 0.055000 1.200000 0.028000 0.033000
1518119837902473964	200 54 0.900000 0.076000 0.069000 1000 49 0.900000 2.101000 2.042000 600 60 1.000000 0.054000 0.054000 1.200000 0.028000 0.033000
1518119838454486297	200 54 0.900000 0.076000 0.069000 1000 49 0.900000 2.107000 2.048000 600 59 1.000000 0.054000 0.054000 1.200000 0.028000 0.033000
1518119839006533922	200 54 0.900000 0.076000 0.069000 1000 49 0.900000 2.101000 2.042000 600 59 1.000000 0.054000 0.054000 1.200000 0.028000 0.033000
1518119839570521339	200 54 0.900000 0.076000 0.069000 1000 49 0.900000 2.094000 2.035000 600 60 1.000000 0.054000 0.054000 1.200000 0.028000 0.033000
1518119840130500881	200 54 0.900000 0.077000 0.070000 1000 49 0.900000 2.102000 2.043000 600 60 1.000000 0.054000 0.054000 1.200000 0.028000 0.033000
1518119840690531006	200 54 0.900000 0.076000 0.069000 1000 49 0.900000 2.102000 2.043000 600 59 1.000000 0.054000 0.054000 1.200000 0.028000 0.033000
1518119841246431048	200 54 0.900000 0.076000 0.069000 1000 49 0.900000 2.099000 2.040000 600 60 1.000000 0.054000 0.054000 1.200000 0.028000 0.033000
1518119841802515714	200 54 0.900000 0.076000 0.069000 1000 49 0.900000 2.104000 2.045000 600 59 1.000000 0.054000 0.054000 1.200000 0.028000 0.033000
1518119842350548006	200 54 0.900000 0.076000 0.069000 1000 49 0.900000 2.099000 2.040000 600 60 1.000000 0.054000 0.054000 1.200000 0.028000 0.033000
1518119842914512423	200 54 0.900000 0.076000 0.069000 1000 49 0.900000 2.082000 2.023000 600 59 1.000000 0.055000 0.055000 1.200000 0.028000 0.033000
1518119843474559465	200 54 0.900000 0.076000 0.069000 1000 49 0.900000 2.076000 2.017000 600 59 1.000000 0.054000 0.054000 1.200000 0.028000 0.033000
1518119844030510506	200 54 0.900000 0.076000 0.069000 1000 49 0.900000 2.084000 2.025000 600 59 1.000000 0.054000 0.054000 1.200000 0.028000 0.033000
1518119844598403256	200 54 0.900000 0.076000 0.069000 1000 49 0.900000 2.093000 2.034000 600 59 1.000000 0.054000 0.054000 1.200000 0.028000 0.033000
1518119845162524173	200 54 0.900000 0.077000 0.070000 1000 49 0.900000 2.091000 2.032000 600 59 1.000000 0.055000 0.055000 1.200000 0.028000 0.033000
1518119845718529340	200 54 0.900000 0.076000 0.069000 1000 49 0.900000 2.089000 2.030000 600 59 1.000000 0.055000 0.055000 1.200000 0.028000 0.033000
1518119846282464465	200 54 0.900000 0.076000 0.069000 1000 49 0.900000 2.076000 2.017000 600 59 1.000000 0.054000 0.054000 1.200000 0.028000 0.033000
1518119846846510798	200 54 0.900000 0.076000 0.069000 1000 49 0.900000 2.075000 2.016000 600 59 1.000000 0.054000 0.054000 1.200000 0.028000 0.033000
1518119847406490590	200 54 0.900000 0.076000 0.069000 1000 49 0.900000 2.076000 2.017000 600 59 1.000000 0.054000 0.054000 1.200000 0.028000 0.033000
1518119847962520298	200 54 0.900000 0.077000 0.070000 1000 49 0.900000 2.083000 2.024000 600 60 1.000000 0.054000 0.054000 1.200000 0.028000 0.033000
1518119848538392299	200 54 0.900000 0.076000 0.069000 1000 49 0.900000 2.076000 2.017000 600 59 1.000000 0.054000 0.054000 1.200000 0.028000 0.033000
1518119849102492965	200 54 0.900000 0.076000 0.069000 1000 49 0.900000 2.093000 2.034000 600 59 1.000000 0.055000 0.055000 1.200000 0.028000 0.033000
1518119849670524382	200 54 0.900000 0.076000 0.069000 1000 49 0.900000 2.092000 2.033000 600 59 1.000000 0.055000 0.055000 1.200000 0.028000 0.033000
1518119850230408049	200 54 0.900000 0.076000 0.069000 1000 49 0.900000 2.085000 2.026000 600 59 1.000000 0.054000 0.054000 1.200000 0.028000 0.033000
1518119850786530757	200 54 0.900000 0.076000 0.069000 1000 49 0.900000 2.087000 2.028000 600 59 1.000000 0.054000 0.054000 1.200000 0.028000 0.033000
1518119851342423091	200 54 0.900000 0.077000 0.070000 1000 49 0.900000 2.085000 2.026000 600 59 1.000000 0.054000 0.054000 1.200000 0.028000 0.033000
1518119851898395632	200 54 0.900000 0.076000 0.069000 1000 49 0.900000 2.087000 2.028000 600 59 1.000000 0.054000 0.054000 1.200000 0.028000 0.033000
1518119852438554757	200 54 0.900000 0.076000 0.069000 1000 49 0.900000 2.085000 2.026000 600 60 1.000000 0.054000 0.054000 1.200000 0.028000 0.033000
1518119853010481757	200 54 0.900000 0.077000 0.070000 1000 49 0.900000 2.103000 2.046000 600 59 1.000000 0.054000 0.054000 1.200000 0.028000 0.033000
1518119853578495674	200 54 0.900000 0.076000 0.069000 1000 49 0.900000 2.103000 2.044000 600 59 1.000000 0.055000 0.055000 1.200000 0.028000 0.033000
1518119854142513174	200 54 0.900000 0.076000 0.069000 1000 49 0.900000 2.104000 2.045000 600 59 1.000000 0.054000 0.054000 1.200000 0.028000 0.033000
1518119854694478049	200 54 0.900000 0.076000 0.069000 1000 49 0.900000 2.104000 2.045000 600 60 1.000000 0.054000 0.054000 1.200000 0.028000 0.033000
1518119855262485841	200 54 0.900000 0.076000 0.069000 1000 49 0.900000 2.104000 2.047000 600 60 1.000000 0.054000 0.054000 1.200000 0.028000 0.033000
1518119855822520424	200 54 0.900000 0.076000 0.069000 1000 49 0.900000 2.103000 2.044000 600 60 1.000000 0.054000 0.054000 1.200000 0.028000 0.033000
1518119856378490508	200 54 0.900000 0.076000 0.069000 1000 49 0.900000 2.095000 2.036000 600 60 1.000000 0.054000 0.054000 1.200000 0.028000 0.033000
1518119856930555383	200 54 0.900000 0.076000 0.069000 1000 49 0.900000 2.102000 2.043000 600 59 1.000000 0.055000 0.055000 1.200000 0.028000 0.033000
1518119857494521175	200 54 0.900000 0.076000 0.069000 1000 49 0.900000 2.086000 2.029000 600 59 1.000000 0.054000 0.054000 1.200000 0.028000 0.033000
1518119858058427091	200 54 0.900000 0.077000 0.070000 1000 49 0.900000 2.103000 2.044000 600 60 1.000000 0.054000 0.054000 1.200000 0.028000 0.033000
1518119858622460883	200 54 0.900000 0.076000 0.069000 1000 49 0.900000 2.104000 2.047000 600 59 1.000000 0.054000 0.054000 1.200000 0.028000 0.033000
1518119859178392175	200 54 0.900000 0.076000 0.069000 1000 49 0.900000 2.103000 2.044000 600 60 1.000000 0.055000 0.055000 1.200000 0.028000 0.033000
1518119859746386133	200 54 0.900000 0.076000 0.069000 1000 49 0.900000 2.104000 2.045000 600 60 1.000000 0.054000 0.054000 1.200000 0.028000 0.033000
1518119860310372217	200 54 0.900000 0.076000 0.069000 1000 49 0.900000 2.103000 2.044000 600 60 1.000000 0.054000 0.054000 1.200000 0.028000 0.033000
1518119860874483967	200 54 0.900000 0.077000 0.070000 1000 49 0.900000 2.098000 2.041000 600 60 1.000000 0.054000 0.054000 1.200000 0.028000 0.033000
1518119861434497550	200 54 0.900000 0.076000 0.069000 1000 49 0.900000 2.095000 2.036000 600 60 1.000000 0.054000 0.054000 1.200000 0.028000 0.033000
1518119861994402925	200 54 0.900000 0.077000 0.070000 1000 49 0.900000 2.090000 2.031000 600 60 1.000000 0.054000 0.054000 1.200000 0.028000 0.033000
1518119862546457550	200 54 0.900000 0.077000 0.070000 1000 49 0.900000 2.102000 2.043000 600 60 1.000000 0.054000 0.054000 1.200000 0.028000 0.033000
1518119863106514592	200 54 0.900000 0.077000 0.070000 1000 49 0.900000 2.104000 2.045000 600 60 1.000000 0.054000 0.054000 1.200000 0.028000 0.033000
1518119863666413967	200 54 0.900000 0.076000 0.069000 1000 49 0.900000 2.103000 2.044000 600 60 1.000000 0.054000 0.054000 1.200000 0.028000 0.033000
1518119864230505217	200 54 0.900000 0.076000 0.069000 1000 49 0.900000 2.104000 2.045000 600 60 1.000000 0.054000 0.054000 1.200000 0.028000 0.033000
1518119864798482259	200 54 0.900000 0.077000 0.070000 1000 49 0.900000 2.102000 2.043000 600 60 1.000000 0.054000 0.054000 1.200000 0.028000 0.033000
1518119865358514176	200 54 0.900000 0.077000 0.070000 1000 49 0.900000 2.101000 2.042000 600 60 1.000000 0.054000 0.054000 1.200000 0.028000 0.033000
1518119865910543426	200 54 0.900000 0.076000 0.069000 1000 49 0.900000 2.093000 2.034000 600 60 1.000000 0.054000 0.054000 1.200000 0.028000 0.033000
1518119866466466717	200 54 0.900000 0.076000 0.069000 1000 49 0.900000 2.093000 2.034000 600 60 1.000000 0.054000 0.054000 1.200000 0.028000 0.033000
1518119867014413926	200 54 0.900000 0.076000 0.069000 1000 49 0.900000 2.102000 2.043000 600 60 1.000000 0.054000 0.054000 1.200000 0.028000 0.033000
1518119867566522676	200 54 0.900000 0.076000 0.069000 1000 49 0.900000 2.102000 2.043000 600 60 1.000000 0.054000 0.054000 1.200000 0.027000 0.032000
1518119868130399218	200 54 0.900000 0.076000 0.069000 1000 49 0.900000 2.103000 2.044000 600 60 1.000000 0.054000 0.054000 1.200000 0.028000 0.033000
1518119868690535426	200 54 0.900000 0.077000 0.070000 1000 49 0.900000 2.104000 2.047000 600 60 1.000000 0.054000 0.054000 1.200000 0.028000 0.033000
1518119869262414218	200 54 0.900000 0.076000 0.069000 1000 49 0.900000 2.103000 2.044000 600 60 1.000000 0.054000 0.054000 1.200000 0.027000 0.032000
1518119869826520093	200 54 0.900000 0.078000 0.071000 1000 49 0.900000 2.102000 2.045000 600 60 1.000000 0.054000 0.054000 1.200000 0.028000 0.033000
1518119870378533218	200 54 0.900000 0.077000 0.070000 1000 49 0.900000 2.103000 2.046000 600 60 1.000000 0.055000 0.055000 1.200000 0.027000 0.032000
1518119870942429135	200 54 0.900000 0.076000 0.069000 1000 49 0.900000 2.101000 2.042000 600 59 1.000000 0.054000 0.054000 1.200000 0.027000 0.032000
1518119871502526176	200 54 0.900000 0.076000 0.069000 1000 49 0.900000 2.098000 2.039000 600 60 1.000000 0.054000 0.054000 1.200000 0.027000 0.032000
1518119872062531760	200 54 0.900000 0.076000 0.069000 1000 49 0.900000 2.092000 2.033000 600 60 1.000000 0.054000 0.054000 1.200000 0.028000 0.033000
1518119872622523051	200 54 0.900000 0.077000 0.070000 1000 49 0.900000 2.092000 2.033000 600 60 1.000000 0.054000 0.054000 1.200000 0.028000 0.033000
1518119873182488468	200 54 0.900000 0.076000 0.069000 1000 49 0.900000 2.091000 2.032000 600 60 1.000000 0.054000 0.054000 1.200000 0.027000 0.032000
1518119873742411218	200 54 0.900000 0.076000 0.069000 1000 49 0.900000 2.085000 2.026000 600 60 1.000000 0.054000 0.054000 1.200000 0.027000 0.032000
1518119874306483260	200 54 0.900000 0.076000 0.069000 1000 49 0.900000 2.083000 2.024000 600 60 1.000000 0.054000 0.054000 1.200000 0.027000 0.032000
1518119874866458385	200 54 0.900000 0.076000 0.069000 1000 49 0.900000 2.081000 2.022000 600 60 1.000000 0.054000 0.054000 1.200000 0.028000 0.033000
1518119875430507427	200 54 0.900000 0.077000 0.070000 1000 49 0.900000 2.084000 2.025000 600 60 1.000000 0.054000 0.054000 1.200000 0.027000 0.032000
1518119875994493343	200 54 0.900000 0.076000 0.069000 1000 49 0.900000 2.093000 2.034000 600 60 1.000000 0.054000 0.054000 1.200000 0.028000 0.033000
1518119876562512844	200 54 0.900000 0.077000 0.070000 1000 49 0.900000 2.091000 2.032000 600 60 1.000000 0.054000 0.054000 1.200000 0.028000 0.033000
1518119877130424177	200 54 0.900000 0.076000 0.069000 1000 49 0.900000 2.091000 2.032000 600 59 1.000000 0.054000 0.054000 1.200000 0.028000 0.033000
1518119877678517219	200 54 0.900000 0.076000 0.069000 1000 49 0.900000 2.081000 2.022000 600 59 1.000000 0.055000 0.055000 1.200000 0.028000 0.033000
1518119878238505094	200 54 0.900000 0.077000 0.070000 1000 49 0.900000 2.082000 2.023000 600 60 1.000000 0.054000 0.054000 1.200000 0.028000 0.033000
1518119878794448552	200 54 0.900000 0.076000 0.069000 1000 49 0.900000 2.088000 2.031000 600 59 1.000000 0.054000 0.054000 1.200000 0.028000 0.033000
1518119879346483386	200 54 0.900000 0.076000 0.069000 1000 49 0.900000 2.080000 2.021000 600 60 1.000000 0.055000 0.055000 1.200000 0.027000 0.032000
1518119879906520052	200 54 0.900000 0.076000 0.069000 1000 49 0.900000 2.082000 2.023000 600 60 1.000000 0.054000 0.054000 1.200000 0.027000 0.032000
1518119880458546136	200 54 0.900000 0.077000 0.070000 1000 49 0.900000 2.084000 2.027000 600 59 1.000000 0.054000 0.054000 1.200000 0.028000 0.033000
1518119881010557219	200 54 0.900000 0.076000 0.069000 1000 49 0.900000 2.093000 2.034000 600 60 1.000000 0.054000 0.054000 1.200000 0.027000 0.032000
1518119881578494386	200 54 0.900000 0.077000 0.070000 1000 49 0.900000 2.093000 2.034000 600 59 1.000000 0.054000 0.054000 1.200000 0.027000 0.032000
1518119882138539928	200 54 0.900000 0.076000 0.069000 1000 49 0.900000 2.094000 2.035000 600 60 1.000000 0.054000 0.054000 1.200000 0.028000 0.033000
1518119882690470928	200 54 0.900000 0.077000 0.070000 1000 49 0.900000 2.087000 2.028000 600 59 1.000000 0.054000 0.054000 1.200000 0.028000 0.033000
1518119883258430219	200 54 0.900000 0.077000 0.070000 1000 49 0.900000 2.087000 2.028000 600 60 1.000000 0.054000 0.054000 1.200000 0.028000 0.033000
1518119883810500969	200 54 0.900000 0.077000 0.070000 1000 49 0.900000 2.085000 2.026000 600 60 1.000000 0.055000 0.055000 1.200000 0.027000 0.032000
1518119884370468553	200 54 0.900000 0.076000 0.069000 1000 49 0.900000 2.071000 2.013000 600 60 1.000000 0.055000 0.055000 1.200000 0.027000 0.032000
1518119884934524553	200 54 0.900000 0.076000 0.069000 1000 49 0.900000 2.079000 2.020000 600 60 1.000000 0.055000 0.055000 1.200000 0.027000 0.032000
1518119885502488845	200 54 0.900000 0.076000 0.069000 1000 49 0.900000 2.088000 2.029000 600 60 1.000000 0.055000 0.055000 1.200000 0.027000 0.032000
1518119886062460678	200 54 0.900000 0.077000 0.070000 1000 49 0.900000 2.088000 2.029000 600 59 1.000000 0.054000 0.054000 1.200000 0.027000 0.032000
1518119886618510595	200 54 0.900000 0.077000 0.070000 1000 49 0.900000 2.090000 2.031000 600 59 1.000000 0.054000 0.054000 1.200000 0.027000 0.032000
1518119887182504011	200 54 0.900000 0.076000 0.069000 1000 49 0.900000 2.078000 2.019000 600 60 1.000000 0.055000 0.055000 1.200000 0.027000 0.032000
1518119887734457095	200 54 0.900000 0.077000 0.070000 1000 49 0.900000 2.073000 2.014000 600 60 1.000000 0.055000 0.055000 1.200000 0.027000 0.032000
1518119888286493053	200 54 0.900000 0.077000 0.070000 1000 49 0.900000 2.079000 2.020000 600 60 1.000000 0.054000 0.054000 1.200000 0.027000 0.032000
1518119888862502053	200 54 0.900000 0.076000 0.069000 1000 49 0.900000 2.077000 2.018000 600 60 1.000000 0.054000 0.054000 1.200000 0.028000 0.033000
1518119889418505970	200 54 0.900000 0.076000 0.069000 1000 49 0.900000 2.075000 2.016000 600 60 1.000000 0.054000 0.054000 1.200000 0.028000 0.033000
1518119889970532845	200 54 0.900000 0.077000 0.070000 1000 49 0.900000 2.089000 2.030000 600 60 1.000000 0.055000 0.055000 1.200000 0.027000 0.032000
1518119890538517429	200 54 0.900000 0.076000 0.069000 1000 49 0.900000 2.089000 2.030000 600 59 1.000000 0.054000 0.054000 1.200000 0.027000 0.032000
1518119891102417595	200 54 0.900000 0.076000 0.069000 1000 49 0.900000 2.090000 2.031000 600 60 1.000000 0.054000 0.054000 1.200000 0.027000 0.032000
1518119891650507345	200 54 0.900000 0.076000 0.069000 1000 49 0.900000 2.089000 2.030000 600 60 1.000000 0.054000 0.054000 1.200000 0.027000 0.032000
1518119892214473720	200 54 0.900000 0.077000 0.070000 1000 49 0.900000 2.084000 2.025000 600 60 1.000000 0.055000 0.055000 1.200000 0.027000 0.032000
1518119892766480845	200 54 0.900000 0.077000 0.070000 1000 49 0.900000 2.078000 2.019000 600 59 1.000000 0.055000 0.055000 1.200000 0.027000 0.032000
1518119893326428346	200 54 0.900000 0.077000 0.070000 1000 49 0.900000 2.075000 2.016000 600 60 1.000000 0.054000 0.054000 1.200000 0.027000 0.032000
1518119893894488429	200 54 0.900000 0.076000 0.069000 1000 49 0.900000 2.085000 2.026000 600 60 1.000000 0.054000 0.054000 1.200000 0.028000 0.033000
1518119894470553137	200 54 0.900000 0.076000 0.069000 1000 49 0.900000 2.101000 2.042000 600 60 1.000000 0.054000 0.054000 1.200000 0.027000 0.032000
1518119895022525096	200 54 0.900000 0.076000 0.069000 1000 49 0.900000 2.101000 2.042000 600 60 1.000000 0.054000 0.054000 1.200000 0.027000 0.032000
1518119895598510387	200 54 0.900000 0.076000 0.069000 1000 49 0.900000 2.104000 2.045000 600 60 1.000000 0.054000 0.054000 1.200000 0.027000 0.032000
1518119896146430804	200 54 0.900000 0.076000 0.069000 1000 49 0.900000 2.102000 2.043000 600 60 1.000000 0.054000 0.054000 1.200000 0.027000 0.032000
1518119896714556513	200 54 0.900000 0.077000 0.070000 1000 49 0.900000 2.101000 2.042000 600 60 1.000000 0.054000 0.054000 1.200000 0.027000 0.032000
1518119897278506304	200 54 0.900000 0.076000 0.069000 1000 49 0.900000 2.100000 2.041000 600 60 1.000000 0.054000 0.054000 1.200000 0.027000 0.032000
1518119897830507638	200 54 0.900000 0.077000 0.070000 1000 49 0.900000 2.101000 2.042000 600 60 1.000000 0.054000 0.054000 1.200000 0.027000 0.032000
1518119898390565554	200 54 0.900000 0.076000 0.069000 1000 49 0.900000 2.088000 2.031000 600 59 1.000000 0.054000 0.054000 1.200000 0.028000 0.033000
1518119898950431513	200 54 0.900000 0.076000 0.069000 1000 49 0.900000 2.102000 2.043000 600 60 1.000000 0.054000 0.054000 1.200000 0.027000 0.032000
1518119899514513096	200 54 0.900000 0.076000 0.069000 1000 49 0.900000 2.102000 2.043000 600 60 1.000000 0.054000 0.054000 1.200000 0.027000 0.032000
1518119900070512805	200 54 0.900000 0.076000 0.069000 1000 49 0.900000 2.102000 2.043000 600 60 1.000000 0.055000 0.055000 1.200000 0.027000 0.032000
1518119900630579263	200 54 0.900000 0.077000 0.070000 1000 49 0.900000 2.102000 2.043000 600 60 1.000000 0.054000 0.054000 1.200000 0.027000 0.032000
1518119901194421680	200 54 0.900000 0.077000 0.070000 1000 49 0.900000 2.100000 2.041000 600 60 1.000000 0.054000 0.054000 1.200000 0.027000 0.032000
1518119901758532513	200 54 0.900000 0.076000 0.069000 1000 49 0.900000 2.103000 2.044000 600 60 1.000000 0.054000 0.054000 1.200000 0.027000 0.032000
1518119902322557263	200 54 0.900000 0.077000 0.070000 1000 49 0.900000 2.099000 2.040000 600 60 1.000000 0.055000 0.055000 1.200000 0.028000 0.033000
1518119902859798638	200 53 0.900000 0.077000 0.070000 1000 49 0.900000 2.093000 2.034000 600 59 1.000000 0.054000 0.054000 1.200000 0.028000 0.033000
1518119903426564222	200 54 0.900000 0.076000 0.069000 1000 49 0.900000 2.064000 2.006000 600 60 1.000000 0.054000 0.054000 1.200000 0.034000 0.041000
1518119903994583472	200 54 0.900000 0.076000 0.069000 1000 49 0.900000 2.120000 2.060000 600 60 1.000000 0.054000 0.054000 1.200000 0.028000 0.033000
1518119904546582472	200 54 0.900000 0.076000 0.069000 1000 49 0.900000 2.119000 2.059000 600 60 1.000000 0.055000 0.055000 1.200000 0.028000 0.033000
1518119905110552555	200 54 0.900000 0.076000 0.069000 1000 49 0.900000 2.119000 2.059000 600 60 1.000000 0.054000 0.054000 1.200000 0.027000 0.032000
1518119905670497680	200 54 0.900000 0.076000 0.069000 1000 49 0.900000 2.102000 2.043000 600 60 1.000000 0.055000 0.055000 1.200000 0.031000 0.037000
1518119906218583347	200 54 0.900000 0.076000 0.069000 1000 49 0.900000 2.107000 2.048000 600 60 1.000000 0.055000 0.055000 1.200000 0.027000 0.032000
1518119906774556680	200 54 0.900000 0.077000 0.070000 1000 49 0.900000 2.110000 2.050000 600 60 1.000000 0.055000 0.055000 1.200000 0.027000 0.032000
1518119907326542806	200 54 0.900000 0.076000 0.069000 1000 49 0.900000 2.107000 2.048000 600 60 1.000000 0.054000 0.054000 1.200000 0.027000 0.032000
1518119907894522639	200 54 0.900000 0.076000 0.069000 1000 49 0.900000 2.115000 2.055000 600 60 1.000000 0.055000 0.055000 1.200000 0.028000 0.033000
1518119908450564847	200 54 0.900000 0.077000 0.070000 1000 49 0.900000 2.120000 2.060000 600 60 1.000000 0.055000 0.055000 1.200000 0.028000 0.033000
1518119909010552014	200 54 0.900000 0.077000 0.070000 1000 49 0.900000 2.104000 2.045000 600 60 1.000000 0.055000 0.055000 1.200000 0.028000 0.033000
1518119909574514389	200 54 0.900000 0.076000 0.069000 1000 49 0.900000 2.107000 2.048000 600 60 1.000000 0.055000 0.055000 1.200000 0.028000 0.033000
1518119910130497348	200 54 0.900000 0.076000 0.069000 1000 49 0.900000 2.107000 2.048000 600 60 1.000000 0.054000 0.054000 1.200000 0.028000 0.033000
1518119910679889014	200 54 0.900000 0.076000 0.069000 1000 49 0.900000 2.105000 2.046000 600 60 1.000000 0.055000 0.055000 1.200000 0.028000 0.033000
1518119911238524098	200 54 0.900000 0.076000 0.069000 1000 49 0.900000 2.109000 2.049000 600 60 1.000000 0.054000 0.054000 1.200000 0.028000 0.033000
1518119911802534723	200 54 0.900000 0.077000 0.070000 1000 49 0.900000 2.104000 2.045000 600 60 1.000000 0.055000 0.055000 1.200000 0.027000 0.032000
1518119912358462639	200 54 0.900000 0.076000 0.069000 1000 49 0.900000 2.100000 2.041000 600 60 1.000000 0.054000 0.054000 1.200000 0.028000 0.033000
1518119912918542056	200 54 0.900000 0.076000 0.069000 1000 49 0.900000 2.105000 2.046000 600 60 1.000000 0.054000 0.054000 1.200000 0.027000 0.032000
1518119913474602223	200 54 0.900000 0.077000 0.070000 1000 49 0.900000 2.113000 2.053000 600 60 1.000000 0.054000 0.054000 1.200000 0.027000 0.032000
1518119914026649056	200 54 0.900000 0.077000 0.070000 1000 49 0.900000 2.107000 2.048000 600 60 1.000000 0.054000 0.054000 1.200000 0.028000 0.033000
1518119914606432181	200 54 0.900000 0.077000 0.070000 1000 49 0.900000 2.113000 2.053000 600 60 1.000000 0.054000 0.054000 1.200000 0.028000 0.033000
1518119915174542390	200 54 0.900000 0.078000 0.071000 1000 49 0.900000 2.098000 2.039000 600 60 1.000000 0.054000 0.054000 1.200000 0.028000 0.033000
1518119915746517515	200 54 0.900000 0.078000 0.071000 1000 49 0.900000 2.091000 2.032000 600 60 1.000000 0.054000 0.054000 1.200000 0.027000 0.032000
1518119916314437015	200 54 0.900000 0.077000 0.070000 1000 49 0.900000 2.093000 2.034000 600 60 1.000000 0.055000 0.055000 1.200000 0.027000 0.032000
1518119916862581890	200 54 0.900000 0.076000 0.069000 1000 49 0.900000 2.104000 2.045000 600 60 1.000000 0.055000 0.055000 1.200000 0.028000 0.033000
1518119917422426473	200 54 0.900000 0.077000 0.070000 1000 49 0.900000 2.105000 2.046000 600 60 1.000000 0.055000 0.055000 1.200000 0.028000 0.033000
1518119917978509223	200 54 0.900000 0.077000 0.070000 1000 49 0.900000 2.105000 2.046000 600 60 1.000000 0.054000 0.054000 1.200000 0.028000 0.033000
1518119918538505890	200 54 0.900000 0.076000 0.069000 1000 49 0.900000 2.104000 2.045000 600 60 1.000000 0.054000 0.054000 1.200000 0.028000 0.033000
1518119919098509849	200 54 0.900000 0.077000 0.070000 1000 49 0.900000 2.099000 2.040000 600 60 1.000000 0.055000 0.055000 1.200000 0.028000 0.033000
1518119919654549057	200 54 0.900000 0.077000 0.070000 1000 49 0.900000 2.096000 2.037000 600 60 1.000000 0.055000 0.055000 1.200000 0.028000 0.033000
1518119920214424224	200 54 0.900000 0.076000 0.069000 1000 49 0.900000 2.101000 2.042000 600 60 1.000000 0.054000 0.054000 1.200000 0.028000 0.033000
1518119920778542057	200 54 0.900000 0.077000 0.070000 1000 49 0.900000 2.097000 2.038000 600 60 1.000000 0.054000 0.054000 1.200000 0.028000 0.033000
1518119921326426974	200 54 0.900000 0.077000 0.070000 1000 49 0.900000 2.097000 2.038000 600 60 1.000000 0.054000 0.054000 1.200000 0.028000 0.033000
1518119921890530016	200 54 0.900000 0.076000 0.069000 1000 49 0.900000 2.098000 2.039000 600 60 1.000000 0.055000 0.055000 1.200000 0.028000 0.033000
1518119922442539557	200 54 0.900000 0.076000 0.069000 1000 49 0.900000 2.105000 2.046000 600 60 1.000000 0.054000 0.054000 1.200000 0.027000 0.032000
1518119923010501307	200 54 0.900000 0.076000 0.069000 1000 49 0.900000 2.105000 2.046000 600 60 1.000000 0.054000 0.054000 1.200000 0.027000 0.032000
1518119923558489474	200 54 0.900000 0.077000 0.070000 1000 49 0.900000 2.105000 2.046000 600 60 1.000000 0.054000 0.054000 1.200000 0.028000 0.033000
1518119924118544558	200 54 0.900000 0.076000 0.069000 1000 49 0.900000 2.105000 2.046000 600 60 1.000000 0.054000 0.054000 1.200000 0.028000 0.033000
1518119924674585474	200 54 0.900000 0.076000 0.069000 1000 49 0.900000 2.107000 2.048000 600 60 1.000000 0.055000 0.055000 1.200000 0.028000 0.033000
1518119925234516808	200 54 0.900000 0.076000 0.069000 1000 49 0.900000 2.112000 2.052000 600 60 1.000000 0.055000 0.055000 1.200000 0.028000 0.033000
1518119925802529141	200 54 0.900000 0.076000 0.069000 1000 49 0.900000 2.119000 2.061000 600 60 1.000000 0.054000 0.054000 1.200000 0.028000 0.033000
1518119926362466683	200 54 0.900000 0.077000 0.070000 1000 49 0.900000 2.121000 2.061000 600 60 1.000000 0.055000 0.055000 1.200000 0.028000 0.033000
1518119926930393100	200 54 0.900000 0.077000 0.070000 1000 49 0.900000 2.120000 2.060000 600 60 1.000000 0.055000 0.055000 1.200000 0.027000 0.032000
1518119927498440975	200 54 0.900000 0.076000 0.069000 1000 49 0.900000 2.121000 2.061000 600 60 1.000000 0.054000 0.054000 1.200000 0.027000 0.032000
1518119928050537808	200 54 0.900000 0.077000 0.070000 1000 49 0.900000 2.121000 2.063000 600 60 1.000000 0.055000 0.055000 1.200000 0.028000 0.033000
1518119928614427433	200 54 0.900000 0.076000 0.069000 1000 49 0.900000 2.121000 2.061000 600 60 1.000000 0.054000 0.054000 1.200000 0.028000 0.033000
1518119929166419225	200 54 0.900000 0.076000 0.069000 1000 49 0.900000 2.114000 2.054000 600 60 1.000000 0.054000 0.054000 1.200000 0.028000 0.033000
1518119929730539183	200 54 0.900000 0.077000 0.070000 1000 49 0.900000 2.102000 2.043000 600 60 1.000000 0.054000 0.054000 1.200000 0.029000 0.035000
1518119930282533017	200 54 0.900000 0.076000 0.069000 1000 49 0.900000 2.107000 2.048000 600 60 1.000000 0.054000 0.054000 1.200000 0.028000 0.033000
1518119930858525975	200 54 0.900000 0.077000 0.070000 1000 49 0.900000 2.111000 2.051000 600 60 1.000000 0.055000 0.055000 1.200000 0.028000 0.033000
1518119931414486600	200 54 0.900000 0.077000 0.070000 1000 49 0.900000 2.122000 2.062000 600 60 1.000000 0.055000 0.055000 1.200000 0.027000 0.032000
1518119931970547683	200 54 0.900000 0.076000 0.069000 1000 49 0.900000 2.122000 2.064000 600 60 1.000000 0.054000 0.054000 1.200000 0.027000 0.032000
1518119932530553225	200 54 0.900000 0.076000 0.069000 1000 49 0.900000 2.122000 2.062000 600 60 1.000000 0.054000 0.054000 1.200000 0.027000 0.032000
1518119933082470850	200 54 0.900000 0.077000 0.070000 1000 49 0.900000 2.122000 2.062000 600 60 1.000000 0.054000 0.054000 1.200000 0.027000 0.032000
1518119933638576559	200 54 0.900000 0.076000 0.069000 1000 49 0.900000 2.121000 2.061000 600 60 1.000000 0.054000 0.054000 1.200000 0.028000 0.033000
1518119934182552559	200 54 0.900000 0.077000 0.070000 1000 49 0.900000 2.120000 2.060000 600 60 1.000000 0.054000 0.054000 1.200000 0.027000 0.032000
1518119934754567725	200 54 0.900000 0.076000 0.069000 1000 49 0.900000 2.104000 2.045000 600 60 1.000000 0.055000 0.055000 1.200000 0.028000 0.033000
1518119935318528517	200 54 0.900000 0.077000 0.070000 1000 49 0.900000 2.103000 2.044000 600 60 1.000000 0.055000 0.055000 1.200000 0.028000 0.033000
1518119935882534184	200 54 0.900000 0.077000 0.070000 1000 49 0.900000 2.101000 2.042000 600 60 1.000000 0.055000 0.055000 1.200000 0.027000 0.032000
1518119936446564142	200 54 0.900000 0.077000 0.070000 1000 49 0.900000 2.099000 2.040000 600 60 1.000000 0.054000 0.054000 1.200000 0.028000 0.033000
1518119937010575351	200 54 0.900000 0.076000 0.069000 1000 49 0.900000 2.099000 2.040000 600 60 1.000000 0.055000 0.055000 1.200000 0.028000 0.033000
1518119937574560142	200 54 0.900000 0.077000 0.070000 1000 49 0.900000 2.101000 2.042000 600 60 1.000000 0.054000 0.054000 1.200000 0.027000 0.032000
1518119938134546434	200 54 0.900000 0.076000 0.069000 1000 49 0.900000 2.101000 2.042000 600 60 1.000000 0.054000 0.054000 1.200000 0.028000 0.033000
1518119938698536934	200 54 0.900000 0.076000 0.069000 1000 49 0.900000 2.099000 2.040000 600 60 1.000000 0.055000 0.055000 1.200000 0.028000 0.033000
1518119939258528476	200 54 0.900000 0.077000 0.070000 1000 49 0.900000 2.093000 2.034000 600 60 1.000000 0.054000 0.054000 1.200000 0.028000 0.033000
1518119939814419476	200 54 0.900000 0.076000 0.069000 1000 49 0.900000 2.094000 2.035000 600 60 1.000000 0.054000 0.054000 1.200000 0.028000 0.033000
1518119940370546309	200 54 0.900000 0.077000 0.070000 1000 49 0.900000 2.099000 2.040000 600 60 1.000000 0.054000 0.054000 1.200000 0.028000 0.033000
1518119940930406601	200 54 0.900000 0.077000 0.070000 1000 49 0.900000 2.099000 2.040000 600 60 1.000000 0.054000 0.054000 1.200000 0.028000 0.033000
1518119941494450476	200 54 0.900000 0.076000 0.069000 1000 49 0.900000 2.093000 2.034000 600 60 1.000000 0.054000 0.054000 1.200000 0.027000 0.032000
1518119942058540851	200 54 0.900000 0.076000 0.069000 1000 49 0.900000 2.087000 2.028000 600 60 1.000000 0.054000 0.054000 1.200000 0.028000 0.033000
1518119942622532893	200 54 0.900000 0.077000 0.070000 1000 49 0.900000 2.083000 2.024000 600 60 1.000000 0.055000 0.055000 1.200000 0.027000 0.032000
1518119943178554893	200 54 0.900000 0.076000 0.069000 1000 49 0.900000 2.087000 2.028000 600 60 1.000000 0.054000 0.054000 1.200000 0.028000 0.033000
1518119943746572018	200 54 0.900000 0.077000 0.070000 1000 49 0.900000 2.088000 2.029000 600 60 1.000000 0.054000 0.054000 1.200000 0.028000 0.033000
1518119944306493268	200 54 0.900000 0.076000 0.069000 1000 49 0.900000 2.096000 2.037000 600 60 1.000000 0.055000 0.055000 1.200000 0.028000 0.033000
1518119944870539268	200 54 0.900000 0.077000 0.070000 1000 49 0.900000 2.096000 2.037000 600 60 1.000000 0.054000 0.054000 1.200000 0.028000 0.033000
1518119945434508352	200 54 0.900000 0.077000 0.070000 1000 49 0.900000 2.103000 2.044000 600 60 1.000000 0.054000 0.054000 1.200000 0.028000 0.033000
1518119945994496393	200 54 0.900000 0.076000 0.069000 1000 49 0.900000 2.100000 2.041000 600 60 1.000000 0.054000 0.054000 1.200000 0.028000 0.033000
1518119946558565394	200 54 0.900000 0.077000 0.070000 1000 49 0.900000 2.088000 2.029000 600 60 1.000000 0.054000 0.054000 1.200000 0.028000 0.033000
1518119947130503352	200 54 0.900000 0.077000 0.070000 1000 49 0.900000 2.081000 2.022000 600 60 1.000000 0.055000 0.055000 1.200000 0.027000 0.032000
1518119947685644477	200 54 0.900000 0.076000 0.069000 1000 49 0.900000 2.091000 2.032000 600 60 1.000000 0.054000 0.054000 1.200000 0.028000 0.033000
1518119948254536894	200 54 0.900000 0.076000 0.069000 1000 49 0.900000 2.094000 2.035000 600 60 1.000000 0.054000 0.054000 1.200000 0.028000 0.033000
1518119948822521810	200 54 0.900000 0.076000 0.069000 1000 49 0.900000 2.101000 2.042000 600 60 1.000000 0.055000 0.055000 1.200000 0.028000 0.033000
1518119949382501561	200 54 0.900000 0.077000 0.070000 1000 49 0.900000 2.094000 2.035000 600 60 1.000000 0.055000 0.055000 1.200000 0.028000 0.033000
1518119949942558977	200 54 0.900000 0.077000 0.070000 1000 49 0.900000 2.086000 2.027000 600 60 1.000000 0.054000 0.054000 1.200000 0.028000 0.033000
1518119950510421686	200 54 0.900000 0.076000 0.069000 1000 49 0.900000 2.091000 2.032000 600 60 1.000000 0.054000 0.054000 1.200000 0.028000 0.033000
1518119951066453227	200 54 0.900000 0.076000 0.069000 1000 49 0.900000 2.083000 2.024000 600 60 1.000000 0.054000 0.054000 1.200000 0.027000 0.032000
1518119951634534436	200 54 0.900000 0.076000 0.069000 1000 49 0.900000 2.095000 2.036000 600 60 1.000000 0.054000 0.054000 1.200000 0.028000 0.033000
1518119952202539311	200 54 0.900000 0.076000 0.069000 1000 49 0.900000 2.099000 2.040000 600 60 1.000000 0.054000 0.054000 1.200000 0.028000 0.033000
1518119952746595144	200 54 0.900000 0.077000 0.070000 1000 49 0.900000 2.101000 2.042000 600 60 1.000000 0.054000 0.054000 1.200000 0.028000 0.033000
1518119953310577853	200 54 0.900000 0.077000 0.070000 1000 49 0.900000 2.101000 2.042000 600 60 1.000000 0.054000 0.054000 1.200000 0.028000 0.033000
1518119953866517228	200 54 0.900000 0.076000 0.069000 1000 49 0.900000 2.101000 2.044000 600 60 1.000000 0.054000 0.054000 1.200000 0.028000 0.033000
1518119954434545519	200 54 0.900000 0.076000 0.069000 1000 49 0.900000 2.092000 2.033000 600 60 1.000000 0.055000 0.055000 1.200000 0.027000 0.032000
1518119954944961645	200 54 0.900000 0.077000 0.070000 1000 49 0.900000 2.084000 2.025000 600 57 1.000000 0.054000 0.054000 1.200000 0.028000 0.033000
1518119955455207478	200 52 0.900000 0.076000 0.069000 1000 48 0.900000 1.391000 1.346000 600 54 1.000000 0.054000 0.054000 1.200000 0.027000 0.032000
1518119955965217311	200 49 0.900000 0.077000 0.070000 1000 47 0.900000 0.711000 0.686000 600 52 1.000000 0.054000 0.054000 1.200000 0.028000 0.033000
1518119956474913728	200 47 0.900000 0.076000 0.069000 1000 46 0.900000 0.134000 0.130000 600 51 1.000000 0.054000 0.054000 1.200000 0.027000 0.032000
1518119956984924770	200 46 0.900000 0.076000 0.069000 1000 45 0.900000 0.129000 0.125000 600 50 1.000000 0.054000 0.054000 1.200000 0.027000 0.032000
1518119957494739353	200 45 0.900000 0.076000 0.069000 1000 45 0.900000 0.124000 0.120000 600 49 1.000000 0.053000 0.053000 1.200000 0.026000 0.031000
1518119958004453187	200 45 0.900000 0.075000 0.068000 1000 45 0.900000 0.123000 0.119000 600 49 1.000000 0.053000 0.053000 1.200000 0.027000 0.032000
1518119958514136062	200 44 0.900000 0.075000 0.068000 1000 44 0.900000 0.125000 0.121000 600 48 1.000000 0.053000 0.053000 1.200000 0.027000 0.032000
1518119959023806645	200 44 0.900000 0.076000 0.069000 1000 44 0.900000 0.132000 0.128000 600 48 1.000000 0.053000 0.053000 1.200000 0.027000 0.032000
1518119959533463770	200 44 0.900000 0.076000 0.069000 1000 43 0.900000 0.142000 0.138000 600 47 1.000000 0.053000 0.053000 1.200000 0.027000 0.032000
1518119960043335770	200 43 0.900000 0.076000 0.069000 1000 43 0.900000 0.139000 0.135000 600 47 1.000000 0.053000 0.053000 1.200000 0.027000 0.032000
1518119960553095520	200 43 0.900000 0.075000 0.068000 1000 43 0.900000 0.127000 0.123000 600 47 1.000000 0.053000 0.053000 1.200000 0.027000 0.032000
1518119961062887520	200 43 0.900000 0.075000 0.068000 1000 43 0.900000 0.141000 0.137000 600 47 1.000000 0.053000 0.053000 1.200000 0.027000 0.032000
1518119961572888729	200 43 0.900000 0.075000 0.068000 1000 43 0.900000 0.144000 0.140000 600 46 1.000000 0.053000 0.053000 1.200000 0.027000 0.032000
1518119962082546562	200 43 0.900000 0.075000 0.068000 1000 42 0.900000 0.126000 0.122000 600 46 1.000000 0.053000 0.053000 1.200000 0.027000 0.032000
1518119962592393479	200 43 0.900000 0.074000 0.067000 1000 42 0.900000 0.122000 0.118000 600 46 1.000000 0.053000 0.053000 1.200000 0.027000 0.032000
1518119963101902521	200 42 0.900000 0.075000 0.068000 1000 42 0.900000 0.123000 0.119000 600 46 1.000000 0.053000 0.053000 1.200000 0.027000 0.032000
1518119963611509312	200 42 0.900000 0.074000 0.067000 1000 42 0.900000 0.120000 0.117000 600 46 1.000000 0.053000 0.053000 1.200000 0.027000 0.032000
1518119964121339062	200 42 0.900000 0.075000 0.068000 1000 42 0.900000 0.120000 0.117000 600 46 1.000000 0.053000 0.053000 1.200000 0.027000 0.032000
1518119964630920729	200 42 0.900000 0.074000 0.067000 1000 42 0.900000 0.119000 0.116000 600 46 1.000000 0.053000 0.053000 1.200000 0.027000 0.032000
1518119965140807021	200 42 0.900000 0.075000 0.068000 1000 42 0.900000 0.120000 0.117000 600 45 1.000000 0.053000 0.053000 1.200000 0.027000 0.032000
1518119965650356521	200 42 0.900000 0.074000 0.067000 1000 42 0.900000 0.124000 0.121000 600 45 1.000000 0.053000 0.053000 1.200000 0.027000 0.032000
1518119966160489146	200 42 0.900000 0.074000 0.067000 1000 41 0.900000 0.145000 0.141000 600 45 1.000000 0.053000 0.053000 1.200000 0.027000 0.032000
1518119966670083438	200 42 0.900000 0.075000 0.068000 1000 41 0.900000 0.135000 0.131000 600 45 1.000000 0.053000 0.053000 1.200000 0.027000 0.032000
1518119967180144021	200 42 0.900000 0.074000 0.067000 1000 41 0.900000 0.125000 0.121000 600 45 1.000000 0.053000 0.053000 1.200000 0.027000 0.032000
1518119967690132563	200 41 0.900000 0.074000 0.067000 1000 41 0.900000 0.141000 0.137000 600 45 1.000000 0.053000 0.053000 1.200000 0.027000 0.032000
1518119968199902688	200 41 0.900000 0.074000 0.067000 1000 41 0.900000 0.140000 0.136000 600 45 1.000000 0.053000 0.053000 1.200000 0.027000 0.032000
1518119968709754313	200 41 0.900000 0.074000 0.067000 1000 41 0.900000 0.126000 0.122000 600 45 1.000000 0.053000 0.053000 1.200000 0.027000 0.032000
1518119969219594688	200 41 0.900000 0.074000 0.067000 1000 41 0.900000 0.117000 0.114000 600 45 1.000000 0.053000 0.053000 1.200000 0.027000 0.032000
1518119969729482438	200 41 0.900000 0.075000 0.068000 1000 41 0.900000 0.120000 0.117000 600 45 1.000000 0.053000 0.053000 1.200000 0.027000 0.032000
1518119970239033480	200 41 0.900000 0.074000 0.067000 1000 41 0.900000 0.119000 0.116000 600 45 1.000000 0.053000 0.053000 1.200000 0.027000 0.032000
1518119970748758105	200 41 0.900000 0.074000 0.067000 1000 41 0.900000 0.120000 0.117000 600 45 1.000000 0.053000 0.053000 1.200000 0.027000 0.032000
1518119971258353605	200 41 0.900000 0.075000 0.068000 1000 41 0.900000 0.116000 0.113000 600 45 1.000000 0.053000 0.053000 1.200000 0.027000 0.032000
1518119971768347063	200 41 0.900000 0.075000 0.068000 1000 41 0.900000 0.118000 0.115000 600 44 1.000000 0.053000 0.053000 1.200000 0.027000 0.032000
1518119972277940480	200 41 0.900000 0.075000 0.068000 1000 41 0.900000 0.120000 0.117000 600 44 1.000000 0.053000 0.053000 1.200000 0.027000 0.032000
1518119972787565980	200 41 0.900000 0.074000 0.067000 1000 41 0.900000 0.118000 0.115000 600 44 1.000000 0.053000 0.053000 1.200000 0.027000 0.032000
1518119973297169022	200 41 0.900000 0.073000 0.066000 1000 40 0.900000 0.113000 0.110000 600 44 1.000000 0.053000 0.053000 1.200000 0.026000 0.031000
1518119973807333397	200 40 0.900000 0.044000 0.040000 1000 40 0.900000 0.118000 0.115000 600 44 1.000000 0.053000 0.053000 1.200000 0.025000 0.030000
1518119974317270522	200 40 0.900000 0.044000 0.040000 1000 40 0.900000 0.137000 0.133000 600 44 1.000000 0.053000 0.053000 1.200000 0.025000 0.030000
1518119974826893689	200 40 0.900000 0.044000 0.040000 1000 40 0.900000 0.138000 0.134000 600 44 1.000000 0.053000 0.053000 1.200000 0.025000 0.030000
1518119975336570439	200 40 0.900000 0.043000 0.039000 1000 40 0.900000 0.116000 0.113000 600 44 1.000000 0.053000 0.053000 1.200000 0.025000 0.030000
1518119975846466397	200 40 0.900000 0.027000 0.024000 1000 40 0.900000 0.112000 0.109000 600 44 1.000000 0.053000 0.053000 1.200000 0.024000 0.028000
1518119976356159480	200 40 0.900000 0.028000 0.025000 1000 40 0.900000 0.113000 0.110000 600 44 1.000000 0.053000 0.053000 1.200000 0.024000 0.028000
1518119976865809564	200 40 0.900000 0.028000 0.025000 1000 40 0.900000 0.115000 0.112000 600 44 1.000000 0.053000 0.053000 1.200000 0.024000 0.028000
1518119977376211647	200 40 0.900000 0.027000 0.024000 1000 40 0.900000 0.113000 0.110000 600 44 1.000000 0.053000 0.053000 1.200000 0.024000 0.028000
1518119977885991481	200 40 0.900000 0.012000 0.010000 1000 40 0.900000 0.209000 0.203000 600 44 1.000000 0.053000 0.053000 1.200000 0.023000 0.027000
