#Timestamp	CPU(0) Frequency(MHz)	CPU(0) Temperature(C)	A7 Voltage(V)	A7 Current(A)	A7 Power(W)	CPU(4) Frequency(MHz)	CPU(4) Temperature(C)	A15 Voltage(V)	A15 Current(A)	A15 Power(W)	GPU Frequency(MHz)	GPU Temperature(C)	GPU Voltage(V)	GPU Current(A)	GPU Power(W)	RAM Voltage(V)	RAM Current(A)	RAM Power(W)
1517399751896351165	600 39 0.900000 0.030000 0.028000 1100 38 0.900000 0.628000 0.622000 600 42 1.000000 0.051000 0.051000 1.200000 0.043000 0.051000
1517399752403411040	600 39 0.900000 0.033000 0.031000 1100 38 0.900000 0.611000 0.604000 600 43 1.000000 0.051000 0.051000 1.200000 0.035000 0.042000
1517399752909995790	600 39 0.900000 0.032000 0.030000 1100 37 0.900000 0.612000 0.605000 600 42 1.000000 0.051000 0.051000 1.200000 0.037000 0.044000
1517399753472483290	600 42 0.900000 0.073000 0.069000 1100 38 0.900000 1.296000 1.289000 600 46 1.000000 0.051000 0.051000 1.200000 0.046000 0.055000
1517399753985171498	600 43 0.900000 0.142000 0.135000 1100 39 0.900000 1.639000 1.634000 600 47 1.000000 0.051000 0.051000 1.200000 0.039000 0.047000
1517399754498736082	600 43 0.900000 0.126000 0.119000 1100 39 0.900000 1.586000 1.579000 600 47 1.000000 0.051000 0.051000 1.200000 0.046000 0.055000
1517399755006282957	600 40 0.900000 0.116000 0.110000 1100 39 0.900000 1.198000 1.195000 600 44 1.000000 0.051000 0.051000 1.200000 0.035000 0.042000
1517399755544486665	600 41 0.900000 0.116000 0.110000 1100 39 0.900000 1.399000 1.394000 600 46 1.000000 0.051000 0.051000 1.200000 0.044000 0.053000
1517399756059018873	600 43 0.900000 0.073000 0.069000 1100 39 0.900000 1.429000 1.423000 600 47 1.000000 0.052000 0.052000 1.200000 0.035000 0.042000
1517399756596206415	600 44 0.900000 0.160000 0.152000 1100 40 0.900000 1.903000 1.895000 600 49 1.000000 0.052000 0.052000 1.200000 0.040000 0.048000
1517399757152495207	600 44 0.900000 0.122000 0.116000 1100 40 0.900000 1.889000 1.881000 600 48 1.000000 0.051000 0.051000 1.200000 0.047000 0.056000
1517399757712082665	600 44 0.900000 0.117000 0.111000 1100 40 0.900000 1.400000 1.393000 600 49 1.000000 0.051000 0.051000 1.200000 0.041000 0.049000
1517399758272506707	600 44 0.900000 0.157000 0.149000 1100 40 0.900000 1.668000 1.661000 600 49 1.000000 0.052000 0.052000 1.200000 0.038000 0.045000
1517399758815250290	600 44 0.900000 0.157000 0.149000 1100 40 0.900000 1.657000 1.652000 600 49 1.000000 0.052000 0.052000 1.200000 0.039000 0.047000
1517399759321833082	600 44 0.900000 0.122000 0.116000 1100 41 0.900000 1.640000 1.633000 600 48 1.000000 0.051000 0.051000 1.200000 0.048000 0.057000
1517399759828033374	600 41 0.900000 0.135000 0.128000 1100 40 0.900000 1.051000 1.048000 600 45 1.000000 0.052000 0.052000 1.200000 0.038000 0.045000
1517399760349692332	600 44 0.900000 0.132000 0.125000 1100 40 0.900000 1.548000 1.543000 600 48 1.000000 0.052000 0.052000 1.200000 0.043000 0.051000
1517399760857089541	600 44 0.900000 0.104000 0.099000 1100 40 0.900000 1.458000 1.447000 600 49 1.000000 0.051000 0.051000 1.200000 0.039000 0.047000
1517399761363519666	600 43 0.900000 0.147000 0.139000 1100 40 0.900000 1.682000 1.676000 600 48 1.000000 0.052000 0.052000 1.200000 0.037000 0.044000
1517399761920531957	600 44 0.900000 0.090000 0.085000 1100 40 0.900000 1.098000 1.094000 600 48 1.000000 0.052000 0.052000 1.200000 0.047000 0.056000
1517399762426842833	600 41 0.900000 0.139000 0.132000 1100 40 0.900000 1.510000 1.505000 600 46 1.000000 0.052000 0.052000 1.200000 0.038000 0.045000
1517399762942376083	600 44 0.900000 0.063000 0.060000 1100 40 0.900000 1.245000 1.241000 600 48 1.000000 0.051000 0.051000 1.200000 0.047000 0.056000
1517399763448764249	600 41 0.900000 0.140000 0.133000 1100 40 0.900000 1.507000 1.502000 600 46 1.000000 0.051000 0.051000 1.200000 0.036000 0.043000
1517399764000544791	600 43 0.900000 0.079000 0.075000 1100 40 0.900000 1.736000 1.729000 600 47 1.000000 0.052000 0.052000 1.200000 0.045000 0.054000
1517399764534580708	600 44 0.900000 0.151000 0.143000 1100 40 0.900000 1.409000 1.403000 600 48 1.000000 0.052000 0.052000 1.200000 0.042000 0.050000
1517399765041636083	600 44 0.900000 0.153000 0.145000 1100 40 0.900000 1.782000 1.774000 600 47 1.000000 0.052000 0.052000 1.200000 0.037000 0.044000
1517399765584851041	600 45 0.900000 0.158000 0.150000 1100 40 0.900000 1.398000 1.391000 600 49 1.000000 0.052000 0.052000 1.200000 0.038000 0.045000
1517399766091421166	600 44 0.900000 0.130000 0.123000 1100 41 0.900000 1.516000 1.508000 600 48 1.000000 0.051000 0.051000 1.200000 0.046000 0.055000
1517399766632607333	600 44 0.900000 0.142000 0.135000 1100 40 0.900000 1.652000 1.645000 600 49 1.000000 0.052000 0.052000 1.200000 0.042000 0.050000
1517399767139253375	600 45 0.900000 0.160000 0.152000 1100 41 0.900000 1.772000 1.764000 600 50 1.000000 0.052000 0.052000 1.200000 0.038000 0.045000
1517399767708541333	600 45 0.900000 0.161000 0.152000 1100 41 0.900000 1.414000 1.406000 600 49 1.000000 0.052000 0.052000 1.200000 0.039000 0.047000
1517399768215299583	600 45 0.900000 0.115000 0.109000 1100 41 0.900000 1.556000 1.548000 600 50 1.000000 0.052000 0.052000 1.200000 0.047000 0.056000
1517399768764822542	600 45 0.900000 0.125000 0.119000 1100 41 0.900000 1.784000 1.776000 600 49 1.000000 0.052000 0.052000 1.200000 0.044000 0.053000
1517399769271830542	600 45 0.900000 0.158000 0.150000 1100 41 0.900000 1.806000 1.800000 600 48 1.000000 0.052000 0.052000 1.200000 0.037000 0.044000
1517399769816529625	600 46 0.900000 0.129000 0.122000 1100 41 0.900000 1.605000 1.598000 600 49 1.000000 0.052000 0.052000 1.200000 0.037000 0.044000
1517399770323336292	600 46 0.900000 0.120000 0.114000 1100 41 0.900000 1.346000 1.339000 600 50 1.000000 0.051000 0.051000 1.200000 0.042000 0.050000
1517399770892461334	600 45 0.900000 0.133000 0.126000 1100 41 0.900000 1.704000 1.697000 600 50 1.000000 0.052000 0.052000 1.200000 0.047000 0.056000
1517399771406430042	600 44 0.900000 0.156000 0.148000 1100 41 0.900000 1.831000 1.825000 600 48 1.000000 0.052000 0.052000 1.200000 0.040000 0.048000
1517399771956452667	600 45 0.900000 0.132000 0.125000 1100 41 0.900000 1.511000 1.506000 600 50 1.000000 0.052000 0.052000 1.200000 0.038000 0.045000
1517399772516440167	600 45 0.900000 0.124000 0.117000 1100 41 0.900000 1.422000 1.414000 600 50 1.000000 0.052000 0.052000 1.200000 0.043000 0.051000
1517399773064505209	600 45 0.900000 0.120000 0.114000 1100 41 0.900000 1.600000 1.592000 600 50 1.000000 0.052000 0.052000 1.200000 0.046000 0.055000
1517399773589553917	600 46 0.900000 0.152000 0.144000 1100 41 0.900000 1.886000 1.878000 600 50 1.000000 0.052000 0.052000 1.200000 0.041000 0.049000
1517399774101747459	600 45 0.900000 0.104000 0.099000 1100 41 0.900000 1.486000 1.481000 600 49 1.000000 0.052000 0.052000 1.200000 0.035000 0.042000
1517399774635134876	600 45 0.900000 0.126000 0.119000 1100 41 0.900000 1.273000 1.266000 600 50 1.000000 0.052000 0.052000 1.200000 0.047000 0.056000
1517399775200482626	600 45 0.900000 0.123000 0.117000 1100 41 0.900000 1.877000 1.869000 600 50 1.000000 0.052000 0.052000 1.200000 0.044000 0.053000
1517399775706749417	600 42 0.900000 0.157000 0.149000 1100 41 0.900000 1.752000 1.744000 600 47 1.000000 0.052000 0.052000 1.200000 0.036000 0.043000
1517399776213059584	600 43 0.900000 0.064000 0.060000 1100 40 0.900000 0.232000 0.231000 600 48 1.000000 0.052000 0.052000 1.200000 0.050000 0.060000
1517399776722908126	600 44 0.900000 0.134000 0.127000 1100 40 0.900000 1.594000 1.589000 600 48 1.000000 0.052000 0.052000 1.200000 0.036000 0.043000
1517399777253551251	600 45 0.900000 0.157000 0.149000 1100 41 0.900000 1.742000 1.735000 600 50 1.000000 0.052000 0.052000 1.200000 0.038000 0.045000
1517399777765855459	600 45 0.900000 0.126000 0.119000 1100 41 0.900000 1.423000 1.415000 600 50 1.000000 0.052000 0.052000 1.200000 0.045000 0.054000
1517399778324391209	600 45 0.900000 0.133000 0.126000 1100 41 0.900000 1.784000 1.776000 600 49 1.000000 0.052000 0.052000 1.200000 0.039000 0.047000
1517399778839490585	600 45 0.900000 0.159000 0.151000 1100 41 0.900000 1.854000 1.846000 600 49 1.000000 0.052000 0.052000 1.200000 0.040000 0.048000
1517399779366806085	600 46 0.900000 0.155000 0.147000 1100 41 0.900000 1.720000 1.713000 600 50 1.000000 0.052000 0.052000 1.200000 0.048000 0.058000
1517399779928488626	600 45 0.900000 0.135000 0.128000 1100 41 0.900000 1.407000 1.399000 600 50 1.000000 0.052000 0.052000 1.200000 0.046000 0.055000
1517399780472504710	600 45 0.900000 0.113000 0.107000 1100 41 0.900000 1.480000 1.472000 600 49 1.000000 0.052000 0.052000 1.200000 0.039000 0.047000
1517399780993974293	600 45 0.900000 0.145000 0.137000 1100 41 0.900000 1.758000 1.750000 600 50 1.000000 0.052000 0.052000 1.200000 0.041000 0.049000
1517399781500882876	600 43 0.900000 0.139000 0.132000 1100 41 0.900000 1.833000 1.825000 600 50 1.000000 0.052000 0.052000 1.200000 0.043000 0.051000
1517399782007526252	600 46 0.900000 0.123000 0.116000 1100 41 0.900000 1.468000 1.460000 600 50 1.000000 0.052000 0.052000 1.200000 0.048000 0.057000
1517399782556467293	600 46 0.900000 0.128000 0.121000 1100 41 0.900000 1.399000 1.392000 600 50 1.000000 0.052000 0.052000 1.200000 0.040000 0.048000
1517399783108481835	600 45 0.900000 0.149000 0.141000 1100 41 0.900000 1.836000 1.828000 600 49 1.000000 0.052000 0.052000 1.200000 0.039000 0.047000
1517399783618348127	600 45 0.900000 0.163000 0.155000 1100 41 0.900000 1.799000 1.793000 600 49 1.000000 0.052000 0.052000 1.200000 0.040000 0.048000
1517399784150340168	600 46 0.900000 0.150000 0.142000 1100 41 0.900000 1.728000 1.721000 600 51 1.000000 0.052000 0.052000 1.200000 0.047000 0.056000
1517399784704430044	600 45 0.900000 0.121000 0.115000 1100 41 0.900000 1.370000 1.363000 600 50 1.000000 0.052000 0.052000 1.200000 0.046000 0.055000
1517399785264435794	600 45 0.900000 0.127000 0.120000 1100 41 0.900000 1.500000 1.492000 600 50 1.000000 0.052000 0.052000 1.200000 0.040000 0.048000
1517399785814957127	600 45 0.900000 0.140000 0.133000 1100 41 0.900000 1.600000 1.593000 600 50 1.000000 0.052000 0.052000 1.200000 0.037000 0.044000
1517399786321652794	600 44 0.900000 0.157000 0.149000 1100 41 0.900000 1.777000 1.769000 600 49 1.000000 0.052000 0.052000 1.200000 0.046000 0.055000
1517399786871570752	600 46 0.900000 0.123000 0.117000 1100 41 0.900000 1.447000 1.439000 600 50 1.000000 0.052000 0.052000 1.200000 0.043000 0.051000
1517399787428516836	600 45 0.900000 0.118000 0.112000 1100 41 0.900000 1.594000 1.586000 600 49 1.000000 0.052000 0.052000 1.200000 0.038000 0.045000
1517399787935590752	600 46 0.900000 0.156000 0.148000 1100 41 0.900000 1.863000 1.857000 600 50 1.000000 0.052000 0.052000 1.200000 0.039000 0.047000
1517399788442557877	600 45 0.900000 0.124000 0.117000 1100 41 0.900000 1.864000 1.856000 600 48 1.000000 0.052000 0.052000 1.200000 0.045000 0.054000
1517399788955631336	600 46 0.900000 0.119000 0.113000 1100 41 0.900000 1.384000 1.377000 600 50 1.000000 0.052000 0.052000 1.200000 0.045000 0.054000
1517399789504481711	600 46 0.900000 0.160000 0.152000 1100 41 0.900000 1.515000 1.507000 600 50 1.000000 0.052000 0.052000 1.200000 0.041000 0.049000
1517399790011019836	600 45 0.900000 0.152000 0.144000 1100 41 0.900000 1.874000 1.866000 600 50 1.000000 0.052000 0.052000 1.200000 0.038000 0.045000
1517399790518091294	600 43 0.900000 0.155000 0.147000 1100 41 0.900000 1.867000 1.859000 600 50 1.000000 0.052000 0.052000 1.200000 0.043000 0.051000
1517399791030528586	600 45 0.900000 0.101000 0.096000 1100 41 0.900000 1.339000 1.333000 600 49 1.000000 0.052000 0.052000 1.200000 0.046000 0.055000
1517399791580508919	600 45 0.900000 0.101000 0.096000 1100 41 0.900000 1.602000 1.593000 600 50 1.000000 0.052000 0.052000 1.200000 0.036000 0.043000
1517399792086849044	600 42 0.900000 0.161000 0.153000 1100 41 0.900000 1.848000 1.840000 600 47 1.000000 0.052000 0.052000 1.200000 0.041000 0.049000
1517399792636395461	600 45 0.900000 0.093000 0.088000 1100 41 0.900000 0.762000 0.760000 600 49 1.000000 0.052000 0.052000 1.200000 0.046000 0.055000
1517399793188442878	600 45 0.900000 0.143000 0.135000 1100 41 0.900000 1.675000 1.668000 600 49 1.000000 0.052000 0.052000 1.200000 0.040000 0.048000
1517399793694734753	600 42 0.900000 0.157000 0.149000 1100 41 0.900000 1.842000 1.834000 600 47 1.000000 0.052000 0.052000 1.200000 0.042000 0.050000
1517399794202024086	600 44 0.900000 0.104000 0.099000 1100 40 0.900000 0.571000 0.569000 600 49 1.000000 0.052000 0.052000 1.200000 0.047000 0.056000
1517399794760394086	600 44 0.900000 0.108000 0.102000 1100 41 0.900000 1.794000 1.786000 600 49 1.000000 0.051000 0.051000 1.200000 0.037000 0.044000
1517399795266624211	600 43 0.900000 0.134000 0.127000 1100 41 0.900000 1.757000 1.749000 600 48 1.000000 0.052000 0.052000 1.200000 0.041000 0.049000
1517399795819342878	600 44 0.900000 0.099000 0.094000 1100 40 0.900000 0.342000 0.341000 600 48 1.000000 0.052000 0.052000 1.200000 0.042000 0.050000
1517399796325608795	600 41 0.900000 0.130000 0.123000 1100 40 0.900000 1.725000 1.718000 600 46 1.000000 0.052000 0.052000 1.200000 0.040000 0.048000
1517399796859221712	600 45 0.900000 0.069000 0.065000 1100 40 0.900000 1.003000 1.000000 600 49 1.000000 0.052000 0.052000 1.200000 0.049000 0.059000
1517399797420426587	600 45 0.900000 0.157000 0.149000 1100 41 0.900000 1.548000 1.540000 600 49 1.000000 0.052000 0.052000 1.200000 0.041000 0.049000
1517399797972473795	600 44 0.900000 0.151000 0.143000 1100 41 0.900000 1.746000 1.739000 600 48 1.000000 0.052000 0.052000 1.200000 0.039000 0.047000
1517399798479182712	600 45 0.900000 0.156000 0.148000 1100 41 0.900000 1.797000 1.789000 600 48 1.000000 0.052000 0.052000 1.200000 0.042000 0.050000
1517399799020941504	600 45 0.900000 0.121000 0.115000 1100 41 0.900000 1.502000 1.494000 600 50 1.000000 0.052000 0.052000 1.200000 0.046000 0.055000
1517399799580463587	600 45 0.900000 0.120000 0.114000 1100 41 0.900000 1.395000 1.385000 600 50 1.000000 0.052000 0.052000 1.200000 0.041000 0.049000
1517399800120413087	600 45 0.900000 0.124000 0.118000 1100 41 0.900000 1.379000 1.372000 600 50 1.000000 0.052000 0.052000 1.200000 0.047000 0.056000
1517399800672473670	600 45 0.900000 0.156000 0.148000 1100 41 0.900000 1.438000 1.430000 600 49 1.000000 0.052000 0.052000 1.200000 0.037000 0.044000
1517399801179494921	600 43 0.900000 0.167000 0.158000 1100 41 0.900000 1.803000 1.795000 600 48 1.000000 0.052000 0.052000 1.200000 0.035000 0.042000
1517399801686083004	600 46 0.900000 0.134000 0.127000 1100 41 0.900000 1.797000 1.788000 600 50 1.000000 0.052000 0.052000 1.200000 0.038000 0.045000
1517399802223120629	600 46 0.900000 0.130000 0.123000 1100 41 0.900000 1.419000 1.411000 600 50 1.000000 0.052000 0.052000 1.200000 0.044000 0.053000
1517399802787814754	600 45 0.900000 0.123000 0.117000 1100 41 0.900000 1.794000 1.786000 600 50 1.000000 0.052000 0.052000 1.200000 0.046000 0.055000
1517399803294144754	600 42 0.900000 0.150000 0.142000 1100 41 0.900000 1.825000 1.817000 600 47 1.000000 0.052000 0.052000 1.200000 0.037000 0.044000
1517399803848476754	600 45 0.900000 0.108000 0.102000 1100 41 0.900000 0.439000 0.438000 600 49 1.000000 0.052000 0.052000 1.200000 0.048000 0.057000
1517399804355027921	600 41 0.900000 0.124000 0.117000 1100 40 0.900000 1.833000 1.825000 600 45 1.000000 0.052000 0.052000 1.200000 0.039000 0.047000
1517399804912442754	600 44 0.900000 0.116000 0.110000 1100 40 0.900000 1.182000 1.178000 600 49 1.000000 0.052000 0.052000 1.200000 0.038000 0.045000
1517399805444485963	600 44 0.900000 0.126000 0.119000 1100 41 0.900000 1.583000 1.575000 600 50 1.000000 0.052000 0.052000 1.200000 0.046000 0.055000
1517399805979424171	600 45 0.900000 0.124000 0.118000 1100 41 0.900000 1.773000 1.765000 600 49 1.000000 0.052000 0.052000 1.200000 0.042000 0.050000
1517399806485764754	600 43 0.900000 0.157000 0.149000 1100 41 0.900000 1.879000 1.871000 600 48 1.000000 0.052000 0.052000 1.200000 0.038000 0.045000
1517399807007812505	600 45 0.900000 0.076000 0.072000 1100 40 1.000000 0.174000 0.174000 600 49 1.000000 0.051000 0.051000 1.200000 0.046000 0.055000
1517399807514116338	600 41 0.900000 0.163000 0.154000 1100 40 0.900000 1.864000 1.856000 600 46 1.000000 0.052000 0.052000 1.200000 0.037000 0.044000
1517399808068529046	600 44 0.900000 0.095000 0.090000 1100 40 0.900000 0.628000 0.626000 600 48 1.000000 0.051000 0.051000 1.200000 0.043000 0.051000
1517399808588904213	600 45 0.900000 0.159000 0.151000 1100 40 0.900000 1.889000 1.881000 600 49 1.000000 0.052000 0.052000 1.200000 0.044000 0.053000
1517399809096015921	600 45 0.900000 0.155000 0.147000 1100 41 0.900000 1.830000 1.822000 600 47 1.000000 0.051000 0.051000 1.200000 0.038000 0.045000
1517399809618068922	600 45 0.900000 0.161000 0.152000 1100 41 0.900000 1.625000 1.618000 600 50 1.000000 0.052000 0.052000 1.200000 0.039000 0.047000
1517399810184488963	600 45 0.900000 0.125000 0.118000 1100 41 0.900000 1.366000 1.359000 600 50 1.000000 0.052000 0.052000 1.200000 0.045000 0.054000
1517399810690914922	600 45 0.900000 0.120000 0.114000 1100 41 0.900000 1.843000 1.835000 600 50 1.000000 0.052000 0.052000 1.200000 0.046000 0.055000
1517399811197900672	600 45 0.900000 0.158000 0.150000 1100 41 0.900000 1.790000 1.782000 600 48 1.000000 0.052000 0.052000 1.200000 0.038000 0.045000
1517399811731194547	600 46 0.900000 0.142000 0.135000 1100 41 0.900000 1.799000 1.791000 600 50 1.000000 0.052000 0.052000 1.200000 0.039000 0.047000
1517399812237446130	600 43 0.900000 0.063000 0.060000 1100 40 0.900000 1.005000 1.002000 600 47 1.000000 0.052000 0.052000 1.200000 0.045000 0.054000
1517399812769501172	600 45 0.900000 0.134000 0.127000 1100 40 0.900000 1.621000 1.616000 600 49 1.000000 0.052000 0.052000 1.200000 0.040000 0.048000
1517399813328440964	600 45 0.900000 0.124000 0.117000 1100 41 0.900000 1.414000 1.406000 600 49 1.000000 0.052000 0.052000 1.200000 0.042000 0.050000
1517399813839485589	600 45 0.900000 0.161000 0.153000 1100 41 0.900000 1.712000 1.705000 600 50 1.000000 0.052000 0.052000 1.200000 0.046000 0.055000
1517399814346319797	600 43 0.900000 0.152000 0.144000 1100 41 0.900000 1.928000 1.920000 600 48 1.000000 0.052000 0.052000 1.200000 0.038000 0.045000
1517399814865020797	600 46 0.900000 0.153000 0.145000 1100 41 0.900000 1.846000 1.838000 600 50 1.000000 0.052000 0.052000 1.200000 0.039000 0.047000
1517399815373066839	600 45 0.900000 0.146000 0.138000 1100 41 0.900000 1.862000 1.854000 600 50 1.000000 0.052000 0.052000 1.200000 0.044000 0.053000
1517399815920455797	600 45 0.900000 0.157000 0.149000 1100 41 0.900000 1.633000 1.626000 600 49 1.000000 0.052000 0.052000 1.200000 0.039000 0.047000
1517399816429528422	600 45 0.900000 0.142000 0.135000 1100 41 0.900000 1.547000 1.539000 600 50 1.000000 0.052000 0.052000 1.200000 0.039000 0.047000
1517399816941981339	600 44 0.900000 0.100000 0.095000 1100 40 0.900000 1.061000 1.057000 600 48 1.000000 0.051000 0.051000 1.200000 0.044000 0.053000
1517399817450030422	600 45 0.900000 0.144000 0.136000 1100 41 0.900000 1.738000 1.732000 600 47 1.000000 0.052000 0.052000 1.200000 0.040000 0.048000
1517399817956928048	600 45 0.900000 0.136000 0.129000 1100 41 0.900000 1.433000 1.425000 600 50 1.000000 0.052000 0.052000 1.200000 0.043000 0.051000
1517399818516429173	600 45 0.900000 0.116000 0.110000 1100 41 0.900000 1.628000 1.619000 600 49 1.000000 0.052000 0.052000 1.200000 0.040000 0.048000
1517399819022702923	600 41 0.900000 0.142000 0.135000 1100 40 0.900000 1.657000 1.652000 600 46 1.000000 0.052000 0.052000 1.200000 0.039000 0.047000
1517399819544481464	600 44 0.900000 0.126000 0.120000 1100 40 0.900000 0.419000 0.418000 600 48 1.000000 0.052000 0.052000 1.200000 0.044000 0.053000
1517399820082061798	600 45 0.900000 0.130000 0.123000 1100 40 0.900000 1.585000 1.580000 600 49 1.000000 0.052000 0.052000 1.200000 0.039000 0.047000
1517399820589152131	600 43 0.900000 0.137000 0.130000 1100 41 0.900000 1.839000 1.831000 600 47 1.000000 0.052000 0.052000 1.200000 0.048000 0.057000
1517399821095654506	600 45 0.900000 0.106000 0.100000 1100 41 0.900000 1.085000 1.079000 600 50 1.000000 0.052000 0.052000 1.200000 0.045000 0.054000
1517399821601809798	600 41 0.900000 0.145000 0.137000 1100 40 0.900000 1.804000 1.796000 600 45 1.000000 0.052000 0.052000 1.200000 0.038000 0.045000
1517399822108241256	600 43 0.900000 0.121000 0.115000 1100 40 0.900000 1.238000 1.234000 600 47 1.000000 0.051000 0.051000 1.200000 0.052000 0.062000
1517399822614597590	600 41 0.900000 0.116000 0.110000 1100 40 0.900000 1.473000 1.468000 600 45 1.000000 0.051000 0.051000 1.200000 0.037000 0.044000
1517399823152482006	600 44 0.900000 0.119000 0.113000 1100 40 0.900000 1.398000 1.393000 600 48 1.000000 0.051000 0.051000 1.200000 0.051000 0.061000
1517399823688495173	600 44 0.900000 0.122000 0.116000 1100 40 0.900000 1.313000 1.303000 600 48 1.000000 0.052000 0.052000 1.200000 0.040000 0.048000
1517399824195294340	600 45 0.900000 0.128000 0.121000 1100 40 0.900000 1.731000 1.724000 600 49 1.000000 0.051000 0.051000 1.200000 0.039000 0.047000
1517399824703033882	600 43 0.900000 0.150000 0.142000 1100 40 0.900000 1.854000 1.846000 600 49 1.000000 0.052000 0.052000 1.200000 0.041000 0.049000
1517399825249813423	600 45 0.900000 0.159000 0.151000 1100 41 0.900000 1.857000 1.849000 600 50 1.000000 0.051000 0.051000 1.200000 0.045000 0.054000
1517399825756368382	600 43 0.900000 0.112000 0.106000 1100 40 1.000000 0.291000 0.291000 600 47 1.000000 0.051000 0.051000 1.200000 0.043000 0.051000
1517399826263162424	600 44 0.900000 0.120000 0.114000 1100 40 0.900000 1.522000 1.517000 600 49 1.000000 0.052000 0.052000 1.200000 0.037000 0.044000
1517399826824471382	600 44 0.900000 0.104000 0.099000 1100 40 0.900000 1.755000 1.747000 600 48 1.000000 0.051000 0.051000 1.200000 0.046000 0.055000
1517399827384387507	600 45 0.900000 0.109000 0.103000 1100 40 0.900000 1.457000 1.449000 600 49 1.000000 0.052000 0.052000 1.200000 0.040000 0.048000
1517399827920493507	600 45 0.900000 0.152000 0.144000 1100 41 0.900000 1.507000 1.499000 600 48 1.000000 0.052000 0.052000 1.200000 0.039000 0.047000
1517399828460537632	600 44 0.900000 0.149000 0.141000 1100 40 0.900000 1.782000 1.774000 600 49 1.000000 0.052000 0.052000 1.200000 0.039000 0.047000
1517399828967440424	600 44 0.900000 0.154000 0.146000 1100 41 0.900000 1.769000 1.761000 600 49 1.000000 0.052000 0.052000 1.200000 0.042000 0.050000
1517399829516018966	600 45 0.900000 0.131000 0.124000 1100 41 0.900000 1.765000 1.757000 600 50 1.000000 0.051000 0.051000 1.200000 0.046000 0.055000
1517399830068537382	600 45 0.900000 0.116000 0.110000 1100 41 0.900000 1.416000 1.406000 600 49 1.000000 0.052000 0.052000 1.200000 0.041000 0.049000
1517399830574900841	600 42 0.900000 0.149000 0.141000 1100 40 0.900000 1.628000 1.623000 600 46 1.000000 0.052000 0.052000 1.200000 0.038000 0.045000
1517399831096946091	600 45 0.900000 0.105000 0.099000 1100 41 0.900000 1.360000 1.355000 600 49 1.000000 0.052000 0.052000 1.200000 0.050000 0.060000
1517399831664489174	600 45 0.900000 0.118000 0.112000 1100 41 0.900000 1.486000 1.478000 600 49 1.000000 0.052000 0.052000 1.200000 0.039000 0.047000
1517399832176371091	600 44 0.900000 0.158000 0.150000 1100 41 0.900000 1.810000 1.802000 600 49 1.000000 0.052000 0.052000 1.200000 0.042000 0.050000
1517399832715758924	600 46 0.900000 0.127000 0.120000 1100 41 0.900000 1.843000 1.835000 600 50 1.000000 0.052000 0.052000 1.200000 0.044000 0.053000
1517399833284433424	600 46 0.900000 0.121000 0.115000 1100 41 0.900000 1.416000 1.408000 600 50 1.000000 0.052000 0.052000 1.200000 0.048000 0.057000
1517399833794729883	600 46 0.900000 0.158000 0.150000 1100 41 0.900000 1.439000 1.431000 600 50 1.000000 0.052000 0.052000 1.200000 0.039000 0.047000
1517399834352467758	600 45 0.900000 0.151000 0.143000 1100 41 0.900000 1.847000 1.839000 600 49 1.000000 0.052000 0.052000 1.200000 0.039000 0.047000
1517399834858912841	600 44 0.900000 0.155000 0.147000 1100 41 0.900000 1.757000 1.749000 600 49 1.000000 0.052000 0.052000 1.200000 0.042000 0.050000
1517399835365343300	600 43 0.900000 0.095000 0.090000 1100 40 1.000000 0.163000 0.163000 600 47 1.000000 0.052000 0.052000 1.200000 0.040000 0.048000
1517399835872116425	600 45 0.900000 0.120000 0.114000 1100 41 0.900000 1.836000 1.828000 600 47 1.000000 0.052000 0.052000 1.200000 0.039000 0.047000
1517399836399626258	600 45 0.900000 0.132000 0.125000 1100 41 0.900000 1.822000 1.814000 600 50 1.000000 0.052000 0.052000 1.200000 0.046000 0.055000
1517399836934930258	600 45 0.900000 0.109000 0.103000 1100 41 0.900000 1.098000 1.092000 600 50 1.000000 0.052000 0.052000 1.200000 0.043000 0.051000
1517399837447859425	600 44 0.900000 0.162000 0.153000 1100 41 0.900000 1.846000 1.838000 600 48 1.000000 0.052000 0.052000 1.200000 0.038000 0.045000
1517399838000458300	600 46 0.900000 0.131000 0.124000 1100 41 0.900000 1.861000 1.853000 600 50 1.000000 0.052000 0.052000 1.200000 0.040000 0.048000
1517399838512526633	600 45 0.900000 0.139000 0.132000 1100 41 0.900000 1.636000 1.627000 600 49 1.000000 0.051000 0.051000 1.200000 0.047000 0.056000
1517399839064456342	600 45 0.900000 0.161000 0.153000 1100 41 0.900000 1.325000 1.318000 600 50 1.000000 0.051000 0.051000 1.200000 0.040000 0.048000
1517399839571321592	600 45 0.900000 0.157000 0.149000 1100 41 0.900000 1.807000 1.799000 600 49 1.000000 0.052000 0.052000 1.200000 0.042000 0.050000
1517399840083873675	600 45 0.900000 0.120000 0.114000 1100 41 0.900000 1.423000 1.413000 600 50 1.000000 0.052000 0.052000 1.200000 0.044000 0.053000
1517399840622082925	600 46 0.900000 0.096000 0.091000 1100 41 0.900000 1.722000 1.713000 600 50 1.000000 0.052000 0.052000 1.200000 0.046000 0.055000
1517399841184497925	600 45 0.900000 0.164000 0.155000 1100 41 0.900000 1.878000 1.870000 600 50 1.000000 0.052000 0.052000 1.200000 0.041000 0.049000
1517399841690847092	600 42 0.900000 0.156000 0.148000 1100 41 0.900000 1.783000 1.775000 600 47 1.000000 0.052000 0.052000 1.200000 0.040000 0.048000
1517399842240467009	600 44 0.900000 0.080000 0.076000 1100 41 1.000000 0.402000 0.402000 600 49 1.000000 0.052000 0.052000 1.200000 0.048000 0.058000
1517399842746826675	600 42 0.900000 0.142000 0.135000 1100 40 0.900000 1.744000 1.737000 600 46 1.000000 0.052000 0.052000 1.200000 0.039000 0.047000
1517399843259030259	600 44 0.900000 0.115000 0.109000 1100 40 0.900000 0.166000 0.165000 600 48 1.000000 0.051000 0.051000 1.200000 0.047000 0.056000
1517399843822918926	600 45 0.900000 0.135000 0.128000 1100 40 0.900000 1.684000 1.678000 600 49 1.000000 0.052000 0.052000 1.200000 0.038000 0.045000
1517399844335129176	600 45 0.900000 0.143000 0.135000 1100 40 0.900000 1.717000 1.710000 600 49 1.000000 0.051000 0.051000 1.200000 0.038000 0.045000
1517399844842483801	600 45 0.900000 0.065000 0.061000 1100 41 0.900000 1.366000 1.359000 600 50 1.000000 0.052000 0.052000 1.200000 0.046000 0.055000
1517399845396484259	600 45 0.900000 0.160000 0.152000 1100 41 0.900000 1.843000 1.835000 600 49 1.000000 0.052000 0.052000 1.200000 0.042000 0.050000
1517399845903243593	600 45 0.900000 0.160000 0.152000 1100 41 0.900000 1.891000 1.883000 600 49 1.000000 0.052000 0.052000 1.200000 0.039000 0.047000
1517399846415672634	600 44 0.900000 0.122000 0.116000 1100 41 0.900000 1.425000 1.415000 600 49 1.000000 0.052000 0.052000 1.200000 0.040000 0.048000
1517399846944467051	600 43 0.900000 0.089000 0.084000 1100 40 0.900000 1.456000 1.451000 600 47 1.000000 0.052000 0.052000 1.200000 0.040000 0.048000
1517399847500442051	600 45 0.900000 0.154000 0.146000 1100 40 0.900000 1.380000 1.375000 600 49 1.000000 0.051000 0.051000 1.200000 0.037000 0.044000
1517399848008131176	600 45 0.900000 0.119000 0.113000 1100 41 0.900000 1.511000 1.500000 600 50 1.000000 0.051000 0.051000 1.200000 0.046000 0.055000
1517399848514623093	600 44 0.900000 0.151000 0.143000 1100 41 0.900000 1.742000 1.735000 600 48 1.000000 0.051000 0.051000 1.200000 0.041000 0.049000
1517399849026811593	600 45 0.900000 0.139000 0.132000 1100 41 0.900000 1.488000 1.482000 600 49 1.000000 0.052000 0.052000 1.200000 0.038000 0.045000
1517399849534246010	600 44 0.900000 0.068000 0.064000 1100 40 0.900000 0.737000 0.735000 600 48 1.000000 0.052000 0.052000 1.200000 0.045000 0.054000
1517399850041161676	600 43 0.900000 0.147000 0.139000 1100 40 0.900000 1.550000 1.545000 600 47 1.000000 0.051000 0.051000 1.200000 0.036000 0.043000
1517399850558588968	600 45 0.900000 0.152000 0.144000 1100 40 0.900000 1.411000 1.403000 600 50 1.000000 0.052000 0.052000 1.200000 0.042000 0.050000
1517399851064889093	600 44 0.900000 0.132000 0.125000 1100 40 0.900000 1.305000 1.298000 600 49 1.000000 0.052000 0.052000 1.200000 0.044000 0.053000
1517399851571203843	600 42 0.900000 0.115000 0.109000 1100 40 0.900000 1.494000 1.489000 600 46 1.000000 0.052000 0.052000 1.200000 0.038000 0.045000
1517399852083100885	600 44 0.900000 0.080000 0.076000 1100 40 0.900000 0.743000 0.741000 600 48 1.000000 0.051000 0.051000 1.200000 0.039000 0.047000
1517399852620983468	600 44 0.900000 0.161000 0.153000 1100 40 0.900000 1.731000 1.722000 600 48 1.000000 0.052000 0.052000 1.200000 0.044000 0.053000
1517399853128492593	600 44 0.900000 0.165000 0.156000 1100 40 0.900000 1.883000 1.875000 600 48 1.000000 0.051000 0.051000 1.200000 0.040000 0.048000
1517399853667214843	600 45 0.900000 0.123000 0.116000 1100 41 0.900000 1.867000 1.859000 600 49 1.000000 0.052000 0.052000 1.200000 0.036000 0.043000
1517399854220444135	600 45 0.900000 0.160000 0.152000 1100 41 0.900000 1.674000 1.667000 600 49 1.000000 0.052000 0.052000 1.200000 0.035000 0.042000
1517399854726817802	600 43 0.900000 0.122000 0.116000 1100 41 0.900000 1.396000 1.389000 600 48 1.000000 0.052000 0.052000 1.200000 0.041000 0.049000
1517399855292480302	600 45 0.900000 0.089000 0.084000 1100 41 0.900000 1.870000 1.862000 600 49 1.000000 0.052000 0.052000 1.200000 0.042000 0.050000
1517399855800576594	600 45 0.900000 0.150000 0.142000 1100 41 0.900000 1.842000 1.834000 600 47 1.000000 0.051000 0.051000 1.200000 0.036000 0.043000
1517399856319437177	600 45 0.900000 0.142000 0.135000 1100 41 0.900000 1.782000 1.774000 600 50 1.000000 0.052000 0.052000 1.200000 0.034000 0.041000
1517399856880445260	600 45 0.900000 0.149000 0.141000 1100 41 0.900000 1.431000 1.420000 600 49 1.000000 0.052000 0.052000 1.200000 0.041000 0.049000
1517399857387123761	600 45 0.900000 0.152000 0.144000 1100 41 0.900000 1.525000 1.517000 600 49 1.000000 0.051000 0.051000 1.200000 0.045000 0.054000
1517399857894230636	600 45 0.900000 0.160000 0.152000 1100 41 0.900000 1.862000 1.852000 600 48 1.000000 0.051000 0.051000 1.200000 0.038000 0.045000
1517399858414028844	600 46 0.900000 0.154000 0.146000 1100 41 0.900000 1.855000 1.847000 600 50 1.000000 0.052000 0.052000 1.200000 0.045000 0.054000
1517399858976523302	600 45 0.900000 0.129000 0.122000 1100 41 0.900000 1.468000 1.457000 600 50 1.000000 0.052000 0.052000 1.200000 0.044000 0.053000
1517399859483126261	600 45 0.900000 0.137000 0.130000 1100 41 0.900000 1.516000 1.505000 600 50 1.000000 0.052000 0.052000 1.200000 0.038000 0.045000
1517399859990171219	600 43 0.900000 0.158000 0.150000 1100 41 0.900000 1.831000 1.823000 600 48 1.000000 0.051000 0.051000 1.200000 0.039000 0.047000
1517399860520398594	600 46 0.900000 0.158000 0.150000 1100 41 0.900000 1.864000 1.856000 600 50 1.000000 0.052000 0.052000 1.200000 0.045000 0.054000
1517399861027132053	600 45 0.900000 0.096000 0.091000 1100 41 0.900000 1.380000 1.373000 600 50 1.000000 0.052000 0.052000 1.200000 0.045000 0.054000
1517399861584432386	600 45 0.900000 0.148000 0.140000 1100 41 0.900000 1.798000 1.789000 600 50 1.000000 0.052000 0.052000 1.200000 0.040000 0.048000
1517399862091163303	600 44 0.900000 0.157000 0.149000 1100 41 0.900000 1.809000 1.801000 600 49 1.000000 0.051000 0.051000 1.200000 0.038000 0.045000
1517399862640465720	600 46 0.900000 0.122000 0.116000 1100 41 0.900000 1.406000 1.396000 600 50 1.000000 0.051000 0.051000 1.200000 0.039000 0.047000
1517399863146746761	600 43 0.900000 0.080000 0.076000 1100 40 0.900000 0.196000 0.195000 600 47 1.000000 0.052000 0.052000 1.200000 0.039000 0.047000
1517399863700458428	600 45 0.900000 0.153000 0.145000 1100 41 0.900000 1.368000 1.362000 600 50 1.000000 0.052000 0.052000 1.200000 0.050000 0.060000
1517399864207071553	600 45 0.900000 0.115000 0.109000 1100 41 0.900000 1.834000 1.824000 600 50 1.000000 0.052000 0.052000 1.200000 0.045000 0.054000
1517399864756479053	600 45 0.900000 0.156000 0.148000 1100 41 0.900000 1.890000 1.880000 600 50 1.000000 0.052000 0.052000 1.200000 0.039000 0.047000
1517399865262955511	600 43 0.900000 0.151000 0.143000 1100 41 0.900000 1.673000 1.667000 600 47 1.000000 0.052000 0.052000 1.200000 0.039000 0.047000
1517399865775551803	600 44 0.900000 0.065000 0.061000 1100 40 0.900000 0.283000 0.282000 600 48 1.000000 0.052000 0.052000 1.200000 0.036000 0.043000
1517399866283777970	600 45 0.900000 0.120000 0.114000 1100 40 0.900000 1.392000 1.387000 600 48 1.000000 0.052000 0.052000 1.200000 0.040000 0.048000
1517399866790739220	600 45 0.900000 0.117000 0.111000 1100 40 0.900000 1.403000 1.393000 600 49 1.000000 0.052000 0.052000 1.200000 0.043000 0.051000
1517399867352467095	600 45 0.900000 0.122000 0.116000 1100 41 0.900000 1.815000 1.807000 600 49 1.000000 0.052000 0.052000 1.200000 0.036000 0.043000
1517399867860598512	600 44 0.900000 0.157000 0.149000 1100 41 0.900000 1.764000 1.756000 600 49 1.000000 0.051000 0.051000 1.200000 0.041000 0.049000
1517399868373174179	600 45 0.900000 0.154000 0.146000 1100 41 0.900000 1.764000 1.756000 600 50 1.000000 0.052000 0.052000 1.200000 0.046000 0.055000
1517399868925608137	600 45 0.900000 0.085000 0.080000 1100 41 0.900000 1.493000 1.485000 600 50 1.000000 0.052000 0.052000 1.200000 0.038000 0.045000
1517399869480481512	600 45 0.900000 0.147000 0.139000 1100 41 0.900000 1.886000 1.878000 600 49 1.000000 0.052000 0.052000 1.200000 0.039000 0.047000
1517399869989474137	600 45 0.900000 0.159000 0.151000 1100 41 0.900000 1.796000 1.788000 600 49 1.000000 0.052000 0.052000 1.200000 0.040000 0.048000
1517399870495975679	600 44 0.900000 0.125000 0.119000 1100 41 0.900000 1.844000 1.836000 600 49 1.000000 0.052000 0.052000 1.200000 0.046000 0.055000
1517399871002238096	600 43 0.900000 0.136000 0.129000 1100 40 0.900000 0.898000 0.896000 600 47 1.000000 0.052000 0.052000 1.200000 0.037000 0.044000
1517399871508708554	600 45 0.900000 0.114000 0.108000 1100 41 0.900000 1.617000 1.612000 600 49 1.000000 0.052000 0.052000 1.200000 0.048000 0.057000
1517399872056464387	600 45 0.900000 0.142000 0.135000 1100 41 0.900000 1.406000 1.398000 600 49 1.000000 0.052000 0.052000 1.200000 0.042000 0.050000
1517399872563625471	600 45 0.900000 0.157000 0.149000 1100 41 0.900000 1.758000 1.750000 600 50 1.000000 0.052000 0.052000 1.200000 0.040000 0.048000
1517399873070773971	600 43 0.900000 0.158000 0.150000 1100 41 0.900000 1.898000 1.890000 600 48 1.000000 0.051000 0.051000 1.200000 0.042000 0.050000
1517399873620861762	600 45 0.900000 0.085000 0.080000 1100 41 0.900000 1.719000 1.712000 600 50 1.000000 0.052000 0.052000 1.200000 0.047000 0.056000
1517399874176491471	600 45 0.900000 0.122000 0.116000 1100 41 0.900000 1.442000 1.434000 600 50 1.000000 0.052000 0.052000 1.200000 0.042000 0.050000
1517399874708465304	600 45 0.900000 0.155000 0.147000 1100 41 0.900000 1.596000 1.588000 600 49 1.000000 0.052000 0.052000 1.200000 0.040000 0.048000
1517399875216173346	600 45 0.900000 0.147000 0.139000 1100 41 0.900000 1.899000 1.891000 600 49 1.000000 0.052000 0.052000 1.200000 0.041000 0.049000
1517399875753826471	600 46 0.900000 0.158000 0.150000 1100 41 0.900000 1.883000 1.877000 600 50 1.000000 0.052000 0.052000 1.200000 0.045000 0.054000
1517399876308483138	600 46 0.900000 0.147000 0.139000 1100 41 0.900000 1.518000 1.510000 600 50 1.000000 0.052000 0.052000 1.200000 0.045000 0.054000
1517399876856473055	600 45 0.900000 0.157000 0.149000 1100 41 0.900000 1.401000 1.395000 600 49 1.000000 0.052000 0.052000 1.200000 0.040000 0.048000
1517399877408460513	600 45 0.900000 0.162000 0.153000 1100 41 0.900000 1.829000 1.821000 600 49 1.000000 0.052000 0.052000 1.200000 0.041000 0.049000
1517399877940548555	600 45 0.900000 0.152000 0.144000 1100 41 0.900000 1.815000 1.807000 600 49 1.000000 0.052000 0.052000 1.200000 0.039000 0.047000
1517399878447283305	600 44 0.900000 0.153000 0.145000 1100 41 0.900000 1.870000 1.862000 600 49 1.000000 0.052000 0.052000 1.200000 0.039000 0.047000
1517399879008523555	600 45 0.900000 0.122000 0.116000 1100 41 0.900000 1.658000 1.651000 600 49 1.000000 0.052000 0.052000 1.200000 0.045000 0.054000
1517399879561492013	600 46 0.900000 0.127000 0.120000 1100 41 0.900000 1.464000 1.456000 600 50 1.000000 0.051000 0.051000 1.200000 0.046000 0.055000
1517399880101390972	600 46 0.900000 0.111000 0.105000 1100 41 0.900000 1.797000 1.789000 600 50 1.000000 0.052000 0.052000 1.200000 0.042000 0.050000
1517399880612636930	600 44 0.900000 0.107000 0.101000 1100 41 0.900000 1.821000 1.813000 600 49 1.000000 0.052000 0.052000 1.200000 0.037000 0.044000
1517399881129688305	600 46 0.900000 0.137000 0.130000 1100 41 0.900000 1.700000 1.693000 600 50 1.000000 0.052000 0.052000 1.200000 0.038000 0.045000
1517399881668471513	600 46 0.900000 0.162000 0.154000 1100 41 0.900000 1.472000 1.464000 600 50 1.000000 0.052000 0.052000 1.200000 0.043000 0.051000
1517399882175064680	600 45 0.900000 0.138000 0.131000 1100 41 0.900000 1.496000 1.488000 600 49 1.000000 0.052000 0.052000 1.200000 0.047000 0.056000
1517399882682428014	600 45 0.900000 0.135000 0.128000 1100 41 0.900000 1.525000 1.520000 600 49 1.000000 0.052000 0.052000 1.200000 0.037000 0.044000
1517399883224580889	600 46 0.900000 0.157000 0.149000 1100 41 0.900000 1.854000 1.846000 600 50 1.000000 0.052000 0.052000 1.200000 0.039000 0.047000
1517399883772412930	600 45 0.900000 0.120000 0.114000 1100 41 0.900000 1.414000 1.406000 600 50 1.000000 0.052000 0.052000 1.200000 0.042000 0.050000
1517399884300819514	600 46 0.900000 0.121000 0.115000 1100 41 0.900000 1.497000 1.489000 600 50 1.000000 0.052000 0.052000 1.200000 0.047000 0.056000
1517399884864393639	600 45 0.900000 0.161000 0.152000 1100 41 0.900000 1.788000 1.780000 600 49 1.000000 0.052000 0.052000 1.200000 0.037000 0.044000
1517399885379876681	600 46 0.900000 0.152000 0.144000 1100 41 0.900000 1.827000 1.819000 600 50 1.000000 0.052000 0.052000 1.200000 0.039000 0.047000
1517399885936486181	600 46 0.900000 0.136000 0.129000 1100 41 0.900000 1.439000 1.431000 600 50 1.000000 0.052000 0.052000 1.200000 0.044000 0.053000
1517399886459227264	600 46 0.900000 0.111000 0.105000 1100 41 0.900000 1.617000 1.608000 600 50 1.000000 0.052000 0.052000 1.200000 0.046000 0.055000
1517399887024418097	600 46 0.900000 0.158000 0.150000 1100 41 0.900000 1.892000 1.884000 600 49 1.000000 0.052000 0.052000 1.200000 0.038000 0.045000
1517399887531367722	600 46 0.900000 0.161000 0.153000 1100 41 0.900000 1.933000 1.925000 600 49 1.000000 0.052000 0.052000 1.200000 0.039000 0.047000
1517399888043867764	600 46 0.900000 0.152000 0.144000 1100 41 0.900000 1.422000 1.414000 600 50 1.000000 0.052000 0.052000 1.200000 0.043000 0.051000
1517399888588788806	600 46 0.900000 0.125000 0.119000 1100 41 0.900000 1.681000 1.672000 600 50 1.000000 0.052000 0.052000 1.200000 0.046000 0.055000
1517399889132455556	600 45 0.900000 0.157000 0.149000 1100 41 0.900000 1.883000 1.875000 600 49 1.000000 0.052000 0.052000 1.200000 0.037000 0.044000
1517399889639339389	600 45 0.900000 0.157000 0.149000 1100 41 0.900000 1.835000 1.827000 600 50 1.000000 0.052000 0.052000 1.200000 0.040000 0.048000
1517399890156455473	600 46 0.900000 0.117000 0.111000 1100 41 0.900000 1.463000 1.455000 600 50 1.000000 0.052000 0.052000 1.200000 0.041000 0.049000
1517399890698860390	600 46 0.900000 0.124000 0.117000 1100 41 0.900000 1.532000 1.524000 600 50 1.000000 0.052000 0.052000 1.200000 0.048000 0.057000
1517399891268540973	600 45 0.900000 0.158000 0.150000 1100 41 0.900000 1.874000 1.866000 600 49 1.000000 0.052000 0.052000 1.200000 0.040000 0.048000
1517399891775068681	600 44 0.900000 0.157000 0.149000 1100 41 0.900000 1.779000 1.771000 600 49 1.000000 0.052000 0.052000 1.200000 0.039000 0.047000
1517399892300622681	600 43 0.900000 0.063000 0.060000 1100 41 1.000000 0.281000 0.281000 600 48 1.000000 0.052000 0.052000 1.200000 0.049000 0.059000
1517399892807287723	600 44 0.900000 0.141000 0.134000 1100 41 0.900000 1.566000 1.561000 600 48 1.000000 0.052000 0.052000 1.200000 0.036000 0.043000
1517399893313807973	600 43 0.900000 0.069000 0.065000 1100 40 1.000000 0.178000 0.178000 600 47 1.000000 0.051000 0.051000 1.200000 0.050000 0.060000
1517399893820562890	600 43 0.900000 0.141000 0.134000 1100 40 0.900000 1.752000 1.744000 600 48 1.000000 0.052000 0.052000 1.200000 0.039000 0.047000
1517399894378472182	600 45 0.900000 0.160000 0.152000 1100 41 0.900000 1.768000 1.760000 600 50 1.000000 0.051000 0.051000 1.200000 0.038000 0.045000
1517399894891133348	600 45 0.900000 0.124000 0.117000 1100 41 0.900000 1.373000 1.366000 600 49 1.000000 0.051000 0.051000 1.200000 0.048000 0.057000
1517399895407477390	600 44 0.900000 0.116000 0.110000 1100 40 0.900000 1.465000 1.460000 600 48 1.000000 0.052000 0.052000 1.200000 0.033000 0.039000
1517399895920074390	600 45 0.900000 0.145000 0.137000 1100 41 0.900000 1.861000 1.853000 600 50 1.000000 0.052000 0.052000 1.200000 0.037000 0.044000
1517399896433532224	600 43 0.900000 0.080000 0.076000 1100 40 1.000000 0.329000 0.329000 600 47 1.000000 0.052000 0.052000 1.200000 0.046000 0.055000
1517399896946954682	600 45 0.900000 0.105000 0.099000 1100 40 0.900000 1.436000 1.431000 600 49 1.000000 0.052000 0.052000 1.200000 0.036000 0.043000
1517399897471216182	600 45 0.900000 0.085000 0.080000 1100 40 0.900000 1.436000 1.428000 600 49 1.000000 0.051000 0.051000 1.200000 0.038000 0.045000
1517399897988582932	600 45 0.900000 0.115000 0.109000 1100 41 0.900000 1.812000 1.804000 600 49 1.000000 0.052000 0.052000 1.200000 0.038000 0.045000
1517399898512348474	600 46 0.900000 0.160000 0.152000 1100 41 0.900000 1.797000 1.789000 600 50 1.000000 0.052000 0.052000 1.200000 0.042000 0.050000
1517399899052423057	600 45 0.900000 0.153000 0.145000 1100 41 0.900000 1.784000 1.776000 600 49 1.000000 0.052000 0.052000 1.200000 0.048000 0.057000
1517399899583224807	600 45 0.900000 0.127000 0.120000 1100 41 0.900000 1.375000 1.368000 600 50 1.000000 0.052000 0.052000 1.200000 0.043000 0.051000
1517399900144472641	600 45 0.900000 0.117000 0.111000 1100 41 0.900000 1.633000 1.624000 600 49 1.000000 0.052000 0.052000 1.200000 0.038000 0.045000
1517399900651395724	600 44 0.900000 0.119000 0.113000 1100 41 0.900000 1.611000 1.606000 600 49 1.000000 0.052000 0.052000 1.200000 0.040000 0.048000
1517399901208174641	600 46 0.900000 0.155000 0.147000 1100 41 0.900000 1.749000 1.742000 600 50 1.000000 0.052000 0.052000 1.200000 0.047000 0.056000
1517399901772060349	600 45 0.900000 0.127000 0.120000 1100 41 0.900000 1.386000 1.376000 600 50 1.000000 0.052000 0.052000 1.200000 0.044000 0.053000
1517399902324520099	600 45 0.900000 0.158000 0.150000 1100 41 0.900000 1.508000 1.500000 600 50 1.000000 0.051000 0.051000 1.200000 0.041000 0.049000
1517399902880428349	600 45 0.900000 0.158000 0.150000 1100 41 0.900000 1.832000 1.824000 600 49 1.000000 0.052000 0.052000 1.200000 0.042000 0.050000
1517399903392628683	600 45 0.900000 0.160000 0.152000 1100 41 0.900000 1.681000 1.675000 600 50 1.000000 0.052000 0.052000 1.200000 0.045000 0.054000
1517399903900072558	600 44 0.900000 0.063000 0.060000 1100 40 1.000000 0.162000 0.162000 600 48 1.000000 0.052000 0.052000 1.200000 0.038000 0.045000
1517399904415173599	600 45 0.900000 0.114000 0.108000 1100 40 0.900000 1.442000 1.437000 600 49 1.000000 0.052000 0.052000 1.200000 0.039000 0.047000
1517399904921422141	600 43 0.900000 0.061000 0.058000 1100 40 1.000000 0.353000 0.353000 600 47 1.000000 0.052000 0.052000 1.200000 0.042000 0.050000
1517399905427705100	600 42 0.900000 0.125000 0.118000 1100 40 0.900000 1.722000 1.716000 600 47 1.000000 0.052000 0.052000 1.200000 0.038000 0.045000
1517399905961751308	600 44 0.900000 0.093000 0.088000 1100 40 0.900000 0.833000 0.831000 600 48 1.000000 0.051000 0.051000 1.200000 0.047000 0.056000
1517399906468038641	600 41 0.900000 0.099000 0.094000 1100 40 0.900000 1.494000 1.489000 600 46 1.000000 0.052000 0.052000 1.200000 0.037000 0.044000
1517399906974436016	600 44 0.900000 0.130000 0.123000 1100 40 0.900000 1.170000 1.166000 600 48 1.000000 0.052000 0.052000 1.200000 0.048000 0.058000
1517399907480839808	600 41 0.900000 0.074000 0.070000 1100 40 0.900000 1.179000 1.176000 600 45 1.000000 0.052000 0.052000 1.200000 0.037000 0.044000
1517399908048441433	600 43 0.900000 0.095000 0.090000 1100 40 0.900000 1.559000 1.554000 600 47 1.000000 0.051000 0.051000 1.200000 0.046000 0.055000
1517399908572531058	600 44 0.900000 0.122000 0.116000 1100 40 0.900000 1.312000 1.302000 600 48 1.000000 0.051000 0.051000 1.200000 0.036000 0.043000
1517399909079381558	600 42 0.900000 0.149000 0.141000 1100 40 0.900000 1.451000 1.446000 600 46 1.000000 0.052000 0.052000 1.200000 0.039000 0.047000
1517399909591620725	600 44 0.900000 0.089000 0.084000 1100 40 0.900000 1.343000 1.338000 600 48 1.000000 0.051000 0.051000 1.200000 0.048000 0.058000
1517399910099123850	600 41 0.900000 0.136000 0.129000 1100 40 0.900000 1.287000 1.283000 600 45 1.000000 0.052000 0.052000 1.200000 0.037000 0.044000
1517399910611543559	600 43 0.900000 0.089000 0.084000 1100 39 1.000000 0.350000 0.350000 600 48 1.000000 0.051000 0.051000 1.200000 0.043000 0.051000
1517399911119108767	600 41 0.900000 0.109000 0.103000 1100 39 0.900000 1.829000 1.821000 600 45 1.000000 0.051000 0.051000 1.200000 0.039000 0.047000
1517399911680435392	600 43 0.900000 0.080000 0.076000 1100 39 0.900000 0.893000 0.891000 600 47 1.000000 0.051000 0.051000 1.200000 0.046000 0.055000
1517399912236458850	600 44 0.900000 0.155000 0.147000 1100 40 0.900000 1.781000 1.773000 600 48 1.000000 0.051000 0.051000 1.200000 0.039000 0.047000
1517399912750946142	600 43 0.900000 0.091000 0.086000 1100 40 0.900000 1.334000 1.327000 600 48 1.000000 0.051000 0.051000 1.200000 0.037000 0.044000
1517399913308504142	600 44 0.900000 0.135000 0.128000 1100 40 0.900000 1.732000 1.725000 600 49 1.000000 0.051000 0.051000 1.200000 0.045000 0.054000
1517399913815020934	600 45 0.900000 0.153000 0.145000 1100 40 0.900000 1.821000 1.813000 600 50 1.000000 0.051000 0.051000 1.200000 0.048000 0.057000
1517399914321182226	600 41 0.900000 0.144000 0.136000 1100 40 0.900000 0.384000 0.382000 600 45 1.000000 0.052000 0.052000 1.200000 0.037000 0.044000
1517399914833655476	600 44 0.900000 0.071000 0.067000 1100 40 0.900000 0.384000 0.383000 600 48 1.000000 0.052000 0.052000 1.200000 0.048000 0.057000
1517399915359896517	600 44 0.900000 0.106000 0.100000 1100 40 0.900000 1.497000 1.492000 600 49 1.000000 0.051000 0.051000 1.200000 0.037000 0.044000
1517399915866762393	600 45 0.900000 0.148000 0.140000 1100 40 0.900000 1.404000 1.396000 600 47 1.000000 0.051000 0.051000 1.200000 0.044000 0.053000
1517399916379272601	600 44 0.900000 0.127000 0.120000 1100 40 0.900000 1.457000 1.449000 600 49 1.000000 0.051000 0.051000 1.200000 0.047000 0.056000
1517399916924525893	600 45 0.900000 0.123000 0.116000 1100 40 0.900000 1.610000 1.605000 600 49 1.000000 0.052000 0.052000 1.200000 0.038000 0.045000
1517399917476474101	600 45 0.900000 0.151000 0.143000 1100 40 0.900000 1.829000 1.821000 600 49 1.000000 0.051000 0.051000 1.200000 0.041000 0.049000
1517399917984312351	600 45 0.900000 0.158000 0.150000 1100 41 0.900000 1.417000 1.409000 600 50 1.000000 0.052000 0.052000 1.200000 0.043000 0.051000
1517399918528562351	600 45 0.900000 0.096000 0.091000 1100 41 0.900000 1.691000 1.682000 600 50 1.000000 0.051000 0.051000 1.200000 0.044000 0.053000
1517399919076415726	600 45 0.900000 0.104000 0.099000 1100 41 0.900000 1.891000 1.883000 600 50 1.000000 0.052000 0.052000 1.200000 0.036000 0.043000
1517399919592594726	600 45 0.900000 0.158000 0.150000 1100 41 0.900000 1.771000 1.763000 600 49 1.000000 0.052000 0.052000 1.200000 0.041000 0.049000
1517399920121577101	600 46 0.900000 0.160000 0.152000 1100 41 0.900000 1.372000 1.365000 600 50 1.000000 0.052000 0.052000 1.200000 0.045000 0.054000
1517399920628081601	600 44 0.900000 0.157000 0.149000 1100 41 0.900000 1.769000 1.761000 600 49 1.000000 0.052000 0.052000 1.200000 0.045000 0.054000
1517399921134241893	600 41 0.900000 0.142000 0.135000 1100 40 0.900000 1.640000 1.635000 600 46 1.000000 0.052000 0.052000 1.200000 0.038000 0.045000
1517399921641825643	600 44 0.900000 0.072000 0.068000 1100 40 0.900000 0.335000 0.334000 600 49 1.000000 0.051000 0.051000 1.200000 0.051000 0.061000
1517399922192393977	600 45 0.900000 0.147000 0.139000 1100 41 0.900000 1.882000 1.874000 600 49 1.000000 0.052000 0.052000 1.200000 0.038000 0.045000
1517399922706992852	600 44 0.900000 0.160000 0.152000 1100 41 0.900000 1.841000 1.833000 600 48 1.000000 0.052000 0.052000 1.200000 0.042000 0.050000
1517399923260495310	600 46 0.900000 0.135000 0.128000 1100 41 0.900000 1.432000 1.424000 600 50 1.000000 0.051000 0.051000 1.200000 0.043000 0.051000
1517399923828573102	600 45 0.900000 0.122000 0.116000 1100 41 0.900000 1.599000 1.591000 600 50 1.000000 0.052000 0.052000 1.200000 0.047000 0.056000
1517399924335286769	600 46 0.900000 0.160000 0.152000 1100 41 0.900000 1.804000 1.796000 600 50 1.000000 0.052000 0.052000 1.200000 0.042000 0.050000
1517399924884438310	600 45 0.900000 0.157000 0.149000 1100 41 0.900000 1.923000 1.915000 600 49 1.000000 0.052000 0.052000 1.200000 0.040000 0.048000
1517399925391133644	600 44 0.900000 0.163000 0.155000 1100 41 0.900000 1.340000 1.333000 600 49 1.000000 0.052000 0.052000 1.200000 0.043000 0.051000
1517399925897641227	600 44 0.900000 0.071000 0.067000 1100 40 0.900000 1.222000 1.219000 600 48 1.000000 0.052000 0.052000 1.200000 0.043000 0.051000
1517399926414611269	600 45 0.900000 0.139000 0.132000 1100 41 0.900000 1.616000 1.611000 600 50 1.000000 0.051000 0.051000 1.200000 0.038000 0.045000
1517399926968471894	600 45 0.900000 0.096000 0.091000 1100 41 0.900000 1.464000 1.453000 600 49 1.000000 0.052000 0.052000 1.200000 0.048000 0.058000
1517399927477319561	600 45 0.900000 0.159000 0.151000 1100 41 0.900000 1.857000 1.849000 600 50 1.000000 0.051000 0.051000 1.200000 0.041000 0.049000
1517399928036529727	600 45 0.900000 0.158000 0.150000 1100 41 0.900000 1.856000 1.848000 600 49 1.000000 0.052000 0.052000 1.200000 0.040000 0.048000
1517399928548714061	600 45 0.900000 0.121000 0.115000 1100 41 0.900000 1.542000 1.535000 600 50 1.000000 0.052000 0.052000 1.200000 0.042000 0.050000
1517399929060455144	600 44 0.900000 0.091000 0.086000 1100 40 0.900000 1.198000 1.195000 600 48 1.000000 0.052000 0.052000 1.200000 0.039000 0.047000
1517399929582908811	600 44 0.900000 0.133000 0.126000 1100 40 0.900000 1.444000 1.439000 600 48 1.000000 0.052000 0.052000 1.200000 0.039000 0.047000
1517399930116919769	600 45 0.900000 0.090000 0.085000 1100 40 0.900000 1.296000 1.290000 600 49 1.000000 0.052000 0.052000 1.200000 0.046000 0.055000
1517399930651668311	600 45 0.900000 0.140000 0.133000 1100 40 0.900000 1.642000 1.637000 600 49 1.000000 0.051000 0.051000 1.200000 0.037000 0.044000
1517399931166760353	600 45 0.900000 0.162000 0.153000 1100 41 0.900000 1.721000 1.714000 600 47 1.000000 0.052000 0.052000 1.200000 0.041000 0.049000
1517399931724465894	600 45 0.900000 0.139000 0.132000 1100 41 0.900000 1.426000 1.418000 600 49 1.000000 0.052000 0.052000 1.200000 0.044000 0.053000
1517399932276453561	600 45 0.900000 0.130000 0.123000 1100 41 0.900000 1.422000 1.414000 600 49 1.000000 0.052000 0.052000 1.200000 0.048000 0.058000
1517399932840470103	600 45 0.900000 0.121000 0.115000 1100 41 0.900000 1.797000 1.789000 600 50 1.000000 0.052000 0.052000 1.200000 0.043000 0.051000
1517399933394517686	600 45 0.900000 0.162000 0.153000 1100 41 0.900000 1.466000 1.455000 600 50 1.000000 0.052000 0.052000 1.200000 0.046000 0.055000
1517399933930508270	600 45 0.900000 0.156000 0.148000 1100 41 0.900000 1.785000 1.777000 600 50 1.000000 0.052000 0.052000 1.200000 0.043000 0.051000
1517399934437632978	600 43 0.900000 0.151000 0.143000 1100 41 0.900000 1.694000 1.688000 600 48 1.000000 0.052000 0.052000 1.200000 0.036000 0.043000
1517399934988503853	600 45 0.900000 0.156000 0.148000 1100 41 0.900000 1.886000 1.878000 600 50 1.000000 0.052000 0.052000 1.200000 0.039000 0.047000
1517399935540462520	600 45 0.900000 0.122000 0.116000 1100 41 0.900000 1.532000 1.525000 600 50 1.000000 0.052000 0.052000 1.200000 0.043000 0.051000
1517399936059816728	600 46 0.900000 0.121000 0.115000 1100 41 0.900000 1.346000 1.339000 600 50 1.000000 0.051000 0.051000 1.200000 0.045000 0.054000
1517399936569493437	600 42 0.900000 0.119000 0.113000 1100 40 0.900000 1.154000 1.151000 600 47 1.000000 0.052000 0.052000 1.200000 0.042000 0.050000
1517399937086124395	600 45 0.900000 0.131000 0.124000 1100 41 0.900000 1.611000 1.606000 600 49 1.000000 0.051000 0.051000 1.200000 0.038000 0.045000
1517399937598732603	600 44 0.900000 0.114000 0.108000 1100 41 0.900000 1.420000 1.412000 600 49 1.000000 0.052000 0.052000 1.200000 0.040000 0.048000
1517399938129684145	600 45 0.900000 0.121000 0.115000 1100 41 0.900000 1.502000 1.494000 600 49 1.000000 0.051000 0.051000 1.200000 0.039000 0.047000
1517399938640131312	600 43 0.900000 0.150000 0.142000 1100 41 0.900000 1.816000 1.808000 600 48 1.000000 0.052000 0.052000 1.200000 0.039000 0.047000
1517399939192407145	600 45 0.900000 0.129000 0.122000 1100 41 0.900000 1.798000 1.790000 600 50 1.000000 0.052000 0.052000 1.200000 0.046000 0.055000
1517399939736445562	600 44 0.900000 0.116000 0.110000 1100 41 0.900000 1.320000 1.314000 600 49 1.000000 0.051000 0.051000 1.200000 0.046000 0.055000
1517399940242755562	600 42 0.900000 0.143000 0.135000 1100 40 0.900000 1.495000 1.490000 600 46 1.000000 0.051000 0.051000 1.200000 0.039000 0.047000
1517399940779393979	600 45 0.900000 0.093000 0.088000 1100 40 0.900000 1.457000 1.452000 600 49 1.000000 0.051000 0.051000 1.200000 0.048000 0.057000
1517399941285905187	600 44 0.900000 0.132000 0.125000 1100 41 0.900000 1.340000 1.333000 600 48 1.000000 0.052000 0.052000 1.200000 0.040000 0.048000
1517399941792718437	600 44 0.900000 0.107000 0.101000 1100 41 0.900000 1.693000 1.687000 600 48 1.000000 0.051000 0.051000 1.200000 0.038000 0.045000
1517399942336720312	600 45 0.900000 0.161000 0.153000 1100 41 0.900000 1.812000 1.806000 600 50 1.000000 0.052000 0.052000 1.200000 0.048000 0.057000
1517399942843537562	600 45 0.900000 0.104000 0.099000 1100 41 0.900000 1.381000 1.374000 600 50 1.000000 0.052000 0.052000 1.200000 0.043000 0.051000
1517399943396473021	600 45 0.900000 0.118000 0.112000 1100 41 0.900000 1.404000 1.396000 600 50 1.000000 0.052000 0.052000 1.200000 0.041000 0.049000
1517399943902922771	600 43 0.900000 0.157000 0.149000 1100 41 0.900000 1.901000 1.895000 600 48 1.000000 0.052000 0.052000 1.200000 0.039000 0.047000
1517399944409637146	600 43 0.900000 0.114000 0.108000 1100 40 0.900000 1.071000 1.068000 600 47 1.000000 0.052000 0.052000 1.200000 0.047000 0.056000
1517399944916128188	600 44 0.900000 0.142000 0.135000 1100 40 0.900000 1.455000 1.450000 600 49 1.000000 0.052000 0.052000 1.200000 0.046000 0.055000
1517399945428495854	600 44 0.900000 0.062000 0.059000 1100 40 1.000000 0.491000 0.491000 600 48 1.000000 0.052000 0.052000 1.200000 0.035000 0.042000
1517399945936375396	600 44 0.900000 0.094000 0.089000 1100 40 0.900000 1.800000 1.792000 600 47 1.000000 0.052000 0.052000 1.200000 0.045000 0.054000
1517399946442976563	600 45 0.900000 0.119000 0.113000 1100 41 0.900000 1.668000 1.661000 600 50 1.000000 0.052000 0.052000 1.200000 0.046000 0.055000
1517399946960534063	600 44 0.900000 0.159000 0.151000 1100 40 0.900000 1.479000 1.471000 600 48 1.000000 0.051000 0.051000 1.200000 0.041000 0.049000
1517399947498085521	600 45 0.900000 0.137000 0.130000 1100 41 0.900000 1.804000 1.796000 600 49 1.000000 0.051000 0.051000 1.200000 0.039000 0.047000
1517399948014334688	600 43 0.900000 0.161000 0.152000 1100 40 0.900000 1.897000 1.891000 600 48 1.000000 0.052000 0.052000 1.200000 0.047000 0.056000
1517399948527049563	600 45 0.900000 0.122000 0.116000 1100 41 0.900000 1.797000 1.791000 600 49 1.000000 0.052000 0.052000 1.200000 0.046000 0.055000
1517399949040648105	600 45 0.900000 0.097000 0.092000 1100 41 0.900000 1.460000 1.452000 600 50 1.000000 0.052000 0.052000 1.200000 0.042000 0.050000
1517399949549094938	600 45 0.900000 0.145000 0.137000 1100 41 0.900000 1.484000 1.476000 600 50 1.000000 0.052000 0.052000 1.200000 0.041000 0.049000
1517399950055587313	600 43 0.900000 0.166000 0.157000 1100 41 0.900000 1.750000 1.743000 600 48 1.000000 0.051000 0.051000 1.200000 0.041000 0.049000
1517399950601619647	600 45 0.900000 0.095000 0.090000 1100 40 0.900000 0.998000 0.996000 600 49 1.000000 0.052000 0.052000 1.200000 0.047000 0.056000
1517399951107810647	600 42 0.900000 0.139000 0.132000 1100 40 0.900000 1.588000 1.580000 600 46 1.000000 0.052000 0.052000 1.200000 0.041000 0.049000
1517399951613804813	600 40 0.900000 0.026000 0.024000 1100 39 0.900000 0.129000 0.128000 600 44 1.000000 0.052000 0.052000 1.200000 0.023000 0.027000
