#Timestamp	CPU(0) Frequency(MHz)	CPU(0) Temperature(C)	A7 Voltage(V)	A7 Current(A)	A7 Power(W)	CPU(4) Frequency(MHz)	CPU(4) Temperature(C)	A15 Voltage(V)	A15 Current(A)	A15 Power(W)	GPU Frequency(MHz)	GPU Temperature(C)	GPU Voltage(V)	GPU Current(A)	GPU Power(W)	RAM Voltage(V)	RAM Current(A)	RAM Power(W)
1517411364514328882	300 37 0.900000 0.015000 0.013000 1600 35 1.100000 1.069000 1.209000 600 41 1.000000 0.052000 0.052000 1.200000 0.038000 0.045000
1517411365021480341	300 37 0.900000 0.015000 0.013000 1600 35 1.100000 1.080000 1.221000 600 41 1.000000 0.052000 0.052000 1.200000 0.031000 0.037000
1517411365528571674	300 38 0.900000 0.015000 0.013000 1600 35 1.100000 1.079000 1.220000 600 42 1.000000 0.052000 0.052000 1.200000 0.032000 0.038000
1517411366035619591	300 38 0.900000 0.015000 0.013000 1600 35 1.100000 1.080000 1.221000 600 42 1.000000 0.052000 0.052000 1.200000 0.032000 0.038000
1517411366548720341	300 38 0.900000 0.015000 0.013000 1600 35 1.100000 1.082000 1.223000 600 42 1.000000 0.052000 0.052000 1.200000 0.031000 0.037000
1517411367055833841	300 38 0.900000 0.016000 0.014000 1600 36 1.100000 1.084000 1.226000 600 42 1.000000 0.052000 0.052000 1.200000 0.033000 0.039000
1517411367562962466	300 38 0.900000 0.015000 0.013000 1600 36 1.100000 1.082000 1.224000 600 42 1.000000 0.052000 0.052000 1.200000 0.031000 0.037000
1517411368069911799	300 38 0.900000 0.015000 0.013000 1600 35 1.100000 1.082000 1.223000 600 42 1.000000 0.052000 0.052000 1.200000 0.031000 0.037000
1517411368576994383	300 38 0.900000 0.015000 0.013000 1600 36 1.100000 1.108000 1.253000 600 42 1.000000 0.053000 0.053000 1.200000 0.033000 0.039000
1517411369084107466	300 38 0.900000 0.015000 0.013000 1600 36 1.100000 1.088000 1.230000 600 42 1.000000 0.052000 0.052000 1.200000 0.031000 0.037000
1517411369591270216	300 38 0.900000 0.015000 0.013000 1600 36 1.100000 1.109000 1.254000 600 42 1.000000 0.052000 0.052000 1.200000 0.032000 0.038000
1517411370098382091	300 38 0.900000 0.015000 0.013000 1600 36 1.100000 1.096000 1.239000 600 42 1.000000 0.052000 0.052000 1.200000 0.031000 0.037000
1517411370605587133	300 38 0.900000 0.015000 0.013000 1600 36 1.100000 1.080000 1.221000 600 42 1.000000 0.052000 0.052000 1.200000 0.031000 0.037000
1517411371112726883	300 38 0.900000 0.015000 0.013000 1600 36 1.100000 1.082000 1.223000 600 42 1.000000 0.053000 0.053000 1.200000 0.031000 0.037000
1517411371619795966	300 38 0.900000 0.015000 0.013000 1600 36 1.100000 1.083000 1.224000 600 42 1.000000 0.052000 0.052000 1.200000 0.031000 0.037000
1517411372126828425	300 38 0.900000 0.015000 0.013000 1600 36 1.100000 1.082000 1.223000 600 42 1.000000 0.052000 0.052000 1.200000 0.031000 0.037000
1517411372634019050	300 38 0.900000 0.015000 0.013000 1600 36 1.100000 1.082000 1.223000 600 42 1.000000 0.052000 0.052000 1.200000 0.031000 0.037000
1517411373140958133	300 38 0.900000 0.015000 0.013000 1600 36 1.100000 1.079000 1.220000 600 42 1.000000 0.052000 0.052000 1.200000 0.030000 0.036000
1517411373648051467	300 38 0.900000 0.015000 0.013000 1600 36 1.100000 1.083000 1.224000 600 42 1.000000 0.052000 0.052000 1.200000 0.031000 0.037000
1517411374155090883	300 38 0.900000 0.015000 0.013000 1600 36 1.100000 1.084000 1.226000 600 42 1.000000 0.052000 0.052000 1.200000 0.031000 0.037000
1517411374662323009	300 38 0.900000 0.015000 0.013000 1600 36 1.100000 1.085000 1.227000 600 42 1.000000 0.052000 0.052000 1.200000 0.031000 0.037000
1517411375169506550	300 38 0.900000 0.015000 0.013000 1600 35 1.100000 1.107000 1.252000 600 42 1.000000 0.052000 0.052000 1.200000 0.032000 0.038000
1517411375676619050	300 38 0.900000 0.015000 0.013000 1600 35 1.100000 1.088000 1.230000 600 42 1.000000 0.052000 0.052000 1.200000 0.031000 0.037000
1517411376183688675	300 38 0.900000 0.015000 0.013000 1600 36 1.100000 1.083000 1.224000 600 42 1.000000 0.052000 0.052000 1.200000 0.032000 0.038000
1517411376690862509	300 38 0.900000 0.015000 0.013000 1600 35 1.100000 1.086000 1.228000 600 42 1.000000 0.052000 0.052000 1.200000 0.031000 0.037000
1517411377198043467	300 38 0.900000 0.015000 0.013000 1600 35 1.100000 1.082000 1.223000 600 42 1.000000 0.053000 0.053000 1.200000 0.030000 0.036000
1517411377705194967	300 38 0.900000 0.015000 0.013000 1600 35 1.100000 1.079000 1.220000 600 42 1.000000 0.052000 0.052000 1.200000 0.033000 0.039000
1517411378212109551	300 38 0.900000 0.015000 0.013000 1600 35 1.100000 1.082000 1.223000 600 42 1.000000 0.052000 0.052000 1.200000 0.030000 0.036000
1517411378719328801	300 38 0.900000 0.015000 0.013000 1600 35 1.100000 1.085000 1.227000 600 42 1.000000 0.052000 0.052000 1.200000 0.031000 0.037000
1517411379226344426	300 38 0.900000 0.015000 0.013000 1600 35 1.100000 1.084000 1.226000 600 42 1.000000 0.052000 0.052000 1.200000 0.031000 0.037000
1517411379733525801	300 38 0.900000 0.015000 0.013000 1600 35 1.100000 1.112000 1.257000 600 42 1.000000 0.052000 0.052000 1.200000 0.031000 0.037000
1517411380240465093	300 38 0.900000 0.015000 0.013000 1600 35 1.100000 1.083000 1.224000 600 42 1.000000 0.052000 0.052000 1.200000 0.030000 0.036000
1517411380747579801	300 38 0.900000 0.015000 0.013000 1600 35 1.100000 1.111000 1.256000 600 41 1.000000 0.052000 0.052000 1.200000 0.030000 0.036000
1517411381254630259	300 38 0.900000 0.015000 0.013000 1600 35 1.100000 1.085000 1.227000 600 42 1.000000 0.052000 0.052000 1.200000 0.032000 0.038000
1517411381761747968	300 38 0.900000 0.015000 0.013000 1600 35 1.100000 1.106000 1.250000 600 41 1.000000 0.052000 0.052000 1.200000 0.031000 0.037000
1517411382268782509	300 37 0.900000 0.015000 0.013000 1600 35 1.100000 1.090000 1.232000 600 42 1.000000 0.052000 0.052000 1.200000 0.032000 0.038000
1517411382775725218	300 37 0.900000 0.015000 0.013000 1600 35 1.100000 1.096000 1.239000 600 42 1.000000 0.052000 0.052000 1.200000 0.031000 0.037000
1517411383283072176	300 37 0.900000 0.015000 0.013000 1600 35 1.100000 1.096000 1.239000 600 41 1.000000 0.052000 0.052000 1.200000 0.033000 0.039000
1517411383790305551	300 37 0.900000 0.015000 0.013000 1600 35 1.100000 1.100000 1.244000 600 41 1.000000 0.052000 0.052000 1.200000 0.030000 0.036000
1517411384297271551	300 38 0.900000 0.015000 0.013000 1600 35 1.100000 1.104000 1.248000 600 41 1.000000 0.052000 0.052000 1.200000 0.031000 0.037000
1517411384804484510	300 37 0.900000 0.015000 0.013000 1600 35 1.100000 1.088000 1.230000 600 41 1.000000 0.052000 0.052000 1.200000 0.032000 0.038000
1517411385311481260	300 37 0.900000 0.015000 0.013000 1600 35 1.100000 1.107000 1.252000 600 41 1.000000 0.052000 0.052000 1.200000 0.031000 0.037000
1517411385818498885	300 37 0.900000 0.015000 0.013000 1600 35 1.100000 1.085000 1.227000 600 41 1.000000 0.052000 0.052000 1.200000 0.029000 0.035000
1517411386325464468	300 37 0.900000 0.015000 0.013000 1600 35 1.100000 1.113000 1.258000 600 41 1.000000 0.052000 0.052000 1.200000 0.029000 0.035000
1517411386832504552	300 38 0.900000 0.015000 0.013000 1600 35 1.100000 1.085000 1.227000 600 41 1.000000 0.052000 0.052000 1.200000 0.032000 0.038000
1517411387339812718	300 37 0.900000 0.015000 0.013000 1600 35 1.100000 1.108000 1.253000 600 41 1.000000 0.052000 0.052000 1.200000 0.032000 0.038000
1517411387847051552	300 37 0.900000 0.015000 0.013000 1600 35 1.100000 1.089000 1.231000 600 41 1.000000 0.052000 0.052000 1.200000 0.031000 0.037000
1517411388354143260	300 37 0.900000 0.015000 0.013000 1600 35 1.100000 1.108000 1.253000 600 41 1.000000 0.052000 0.052000 1.200000 0.030000 0.036000
1517411388861182344	300 37 0.900000 0.015000 0.013000 1600 35 1.100000 1.096000 1.239000 600 41 1.000000 0.052000 0.052000 1.200000 0.032000 0.038000
1517411389368285177	300 37 0.900000 0.015000 0.013000 1600 35 1.100000 1.097000 1.240000 600 41 1.000000 0.052000 0.052000 1.200000 0.031000 0.037000
1517411389875400052	300 37 0.900000 0.015000 0.013000 1600 35 1.100000 1.096000 1.239000 600 41 1.000000 0.052000 0.052000 1.200000 0.029000 0.035000
1517411390382487760	300 37 0.900000 0.015000 0.013000 1600 35 1.100000 1.091000 1.233000 600 41 1.000000 0.052000 0.052000 1.200000 0.031000 0.037000
1517411390889205427	300 37 0.900000 0.015000 0.013000 1600 35 1.100000 1.108000 1.253000 600 41 1.000000 0.052000 0.052000 1.200000 0.030000 0.036000
1517411391396139636	300 37 0.900000 0.015000 0.013000 1600 35 1.100000 1.087000 1.229000 600 41 1.000000 0.052000 0.052000 1.200000 0.031000 0.037000
1517411391903227719	300 37 0.900000 0.015000 0.013000 1600 35 1.100000 1.113000 1.258000 600 41 1.000000 0.052000 0.052000 1.200000 0.032000 0.038000
1517411392410165511	300 37 0.900000 0.015000 0.013000 1600 35 1.100000 1.081000 1.222000 600 41 1.000000 0.052000 0.052000 1.200000 0.031000 0.037000
1517411392917255261	300 37 0.900000 0.015000 0.013000 1600 35 1.100000 1.082000 1.223000 600 41 1.000000 0.052000 0.052000 1.200000 0.031000 0.037000
1517411393424038219	300 37 0.900000 0.015000 0.013000 1600 35 1.100000 1.085000 1.227000 600 41 1.000000 0.052000 0.052000 1.200000 0.030000 0.036000
1517411393930519344	300 37 0.900000 0.015000 0.013000 1600 35 1.100000 1.110000 1.255000 600 41 1.000000 0.052000 0.052000 1.200000 0.031000 0.037000
1517411394436924261	300 37 0.900000 0.015000 0.013000 1600 35 1.100000 1.085000 1.227000 600 41 1.000000 0.052000 0.052000 1.200000 0.032000 0.038000
1517411394943536928	300 37 0.900000 0.015000 0.013000 1600 35 1.100000 1.104000 1.248000 600 41 1.000000 0.052000 0.052000 1.200000 0.031000 0.037000
1517411395450084261	300 37 0.900000 0.015000 0.013000 1600 35 1.100000 1.089000 1.231000 600 41 1.000000 0.052000 0.052000 1.200000 0.030000 0.036000
1517411395956374261	300 37 0.900000 0.015000 0.013000 1600 35 1.100000 1.109000 1.254000 600 41 1.000000 0.052000 0.052000 1.200000 0.031000 0.037000
1517411396462843969	300 37 0.900000 0.015000 0.013000 1600 35 1.100000 1.088000 1.230000 600 41 1.000000 0.052000 0.052000 1.200000 0.030000 0.036000
1517411396969302261	300 37 0.900000 0.015000 0.013000 1600 35 1.100000 1.125000 1.272000 600 41 1.000000 0.052000 0.052000 1.200000 0.032000 0.038000
1517411397475947553	300 37 0.900000 0.015000 0.013000 1600 35 1.100000 1.089000 1.231000 600 41 1.000000 0.052000 0.052000 1.200000 0.031000 0.037000
1517411397982354595	300 37 0.900000 0.015000 0.013000 1600 35 1.100000 1.083000 1.224000 600 41 1.000000 0.052000 0.052000 1.200000 0.030000 0.036000
1517411398488815803	300 37 0.900000 0.015000 0.013000 1600 35 1.100000 1.083000 1.224000 600 41 1.000000 0.052000 0.052000 1.200000 0.030000 0.036000
1517411398995167636	300 37 0.900000 0.015000 0.013000 1600 35 1.100000 1.083000 1.224000 600 41 1.000000 0.052000 0.052000 1.200000 0.031000 0.037000
1517411399501561386	300 37 0.900000 0.015000 0.013000 1600 35 1.100000 1.079000 1.220000 600 41 1.000000 0.052000 0.052000 1.200000 0.031000 0.037000
1517411400008057720	300 37 0.900000 0.015000 0.013000 1600 35 1.100000 1.083000 1.224000 600 41 1.000000 0.052000 0.052000 1.200000 0.030000 0.036000
1517411400514393262	300 37 0.900000 0.015000 0.013000 1600 35 1.100000 1.091000 1.233000 600 41 1.000000 0.052000 0.052000 1.200000 0.031000 0.037000
1517411401020770303	300 37 0.900000 0.015000 0.013000 1600 35 1.100000 1.105000 1.249000 600 41 1.000000 0.052000 0.052000 1.200000 0.032000 0.038000
1517411401527372220	300 37 0.900000 0.015000 0.013000 1600 35 1.100000 1.088000 1.230000 600 41 1.000000 0.052000 0.052000 1.200000 0.030000 0.036000
1517411402033820303	300 37 0.900000 0.015000 0.013000 1600 35 1.100000 1.099000 1.242000 600 41 1.000000 0.052000 0.052000 1.200000 0.033000 0.039000
1517411402540273137	300 37 0.900000 0.015000 0.013000 1600 35 1.100000 1.091000 1.233000 600 41 1.000000 0.052000 0.052000 1.200000 0.031000 0.037000
1517411403046809220	300 37 0.900000 0.015000 0.013000 1600 35 1.100000 1.104000 1.248000 600 41 1.000000 0.052000 0.052000 1.200000 0.032000 0.038000
1517411403553173887	300 37 0.900000 0.015000 0.013000 1600 35 1.100000 1.082000 1.223000 600 41 1.000000 0.052000 0.052000 1.200000 0.031000 0.037000
1517411404059637137	300 37 0.900000 0.014000 0.012000 1600 34 1.100000 1.080000 1.221000 600 41 1.000000 0.052000 0.052000 1.200000 0.031000 0.037000
1517411404566124929	300 37 0.900000 0.015000 0.013000 1600 34 1.100000 1.080000 1.221000 600 41 1.000000 0.052000 0.052000 1.200000 0.030000 0.036000
1517411405072445637	300 37 0.900000 0.015000 0.013000 1600 34 1.100000 1.083000 1.224000 600 41 1.000000 0.052000 0.052000 1.200000 0.032000 0.038000
1517411405578988346	300 37 0.900000 0.014000 0.012000 1600 34 1.100000 1.084000 1.226000 600 41 1.000000 0.052000 0.052000 1.200000 0.031000 0.037000
1517411406085415887	300 37 0.900000 0.015000 0.013000 1600 35 1.100000 1.080000 1.221000 600 41 1.000000 0.052000 0.052000 1.200000 0.033000 0.039000
1517411406591932179	300 37 0.900000 0.015000 0.013000 1600 35 1.100000 1.089000 1.231000 600 41 1.000000 0.052000 0.052000 1.200000 0.031000 0.037000
1517411407098569721	300 37 0.900000 0.015000 0.013000 1600 35 1.100000 1.097000 1.240000 600 41 1.000000 0.052000 0.052000 1.200000 0.032000 0.038000
1517411407604954221	300 37 0.900000 0.015000 0.013000 1600 34 1.100000 1.095000 1.238000 600 41 1.000000 0.052000 0.052000 1.200000 0.031000 0.037000
1517411408111403512	300 37 0.900000 0.015000 0.013000 1600 34 1.100000 1.100000 1.244000 600 41 1.000000 0.052000 0.052000 1.200000 0.032000 0.038000
1517411408617799429	300 37 0.900000 0.015000 0.013000 1600 34 1.100000 1.094000 1.237000 600 41 1.000000 0.052000 0.052000 1.200000 0.031000 0.037000
1517411409124114554	300 37 0.900000 0.015000 0.013000 1600 35 1.100000 1.082000 1.223000 600 41 1.000000 0.052000 0.052000 1.200000 0.031000 0.037000
1517411409630697221	300 37 0.900000 0.014000 0.012000 1600 34 1.100000 1.081000 1.222000 600 41 1.000000 0.052000 0.052000 1.200000 0.031000 0.037000
1517411410137001263	300 37 0.900000 0.015000 0.013000 1600 34 1.100000 1.083000 1.224000 600 41 1.000000 0.052000 0.052000 1.200000 0.032000 0.038000
1517411410643381554	300 37 0.900000 0.015000 0.013000 1600 34 1.100000 1.082000 1.224000 600 41 1.000000 0.052000 0.052000 1.200000 0.032000 0.038000
1517411411149983888	300 37 0.900000 0.015000 0.013000 1600 34 1.100000 1.080000 1.221000 600 41 1.000000 0.052000 0.052000 1.200000 0.031000 0.037000
1517411411656453471	300 37 0.900000 0.015000 0.013000 1600 34 1.100000 1.078000 1.219000 600 41 1.000000 0.052000 0.052000 1.200000 0.031000 0.037000
1517411412162895888	300 37 0.900000 0.015000 0.013000 1600 34 1.100000 1.081000 1.222000 600 41 1.000000 0.052000 0.052000 1.200000 0.030000 0.036000
1517411412669309555	300 37 0.900000 0.015000 0.013000 1600 34 1.100000 1.085000 1.227000 600 41 1.000000 0.052000 0.052000 1.200000 0.031000 0.037000
1517411413175667180	300 37 0.900000 0.015000 0.013000 1600 34 1.100000 1.099000 1.242000 600 41 1.000000 0.052000 0.052000 1.200000 0.031000 0.037000
1517411413682176346	300 37 0.900000 0.014000 0.012000 1600 34 1.100000 1.094000 1.237000 600 41 1.000000 0.052000 0.052000 1.200000 0.032000 0.038000
1517411414189476097	300 37 0.900000 0.015000 0.013000 1600 34 1.100000 1.079000 1.220000 600 41 1.000000 0.052000 0.052000 1.200000 0.031000 0.037000
1517411414747672305	300 41 0.900000 0.018000 0.016000 1600 35 1.100000 1.007000 1.138000 600 45 1.000000 0.052000 0.052000 1.200000 0.148000 0.180000
1517411415311725847	300 45 0.900000 0.086000 0.078000 1600 37 1.100000 2.807000 3.199000 600 50 1.000000 0.052000 0.052000 1.200000 0.085000 0.102000
1517411415875635555	300 46 0.900000 0.086000 0.078000 1600 38 1.100000 2.835000 3.231000 600 52 1.000000 0.052000 0.052000 1.200000 0.081000 0.098000
1517411416431734597	300 47 0.900000 0.087000 0.079000 1600 39 1.100000 2.843000 3.241000 600 53 1.000000 0.053000 0.053000 1.200000 0.080000 0.096000
1517411417003801764	300 47 0.900000 0.086000 0.078000 1600 39 1.100000 2.845000 3.243000 600 54 1.000000 0.053000 0.053000 1.200000 0.081000 0.098000
1517411417567679514	300 48 0.900000 0.087000 0.079000 1600 40 1.100000 2.847000 3.245000 600 54 1.000000 0.053000 0.053000 1.200000 0.081000 0.098000
1517411418127746764	300 49 0.900000 0.087000 0.079000 1600 40 1.100000 2.850000 3.249000 600 55 1.000000 0.053000 0.053000 1.200000 0.081000 0.098000
1517411418695748347	300 49 0.900000 0.087000 0.079000 1600 41 1.100000 2.844000 3.242000 600 55 1.000000 0.053000 0.053000 1.200000 0.080000 0.096000
1517411419255820847	300 49 0.900000 0.087000 0.079000 1600 41 1.100000 2.853000 3.252000 600 56 1.000000 0.053000 0.053000 1.200000 0.080000 0.096000
1517411419823672764	300 50 0.900000 0.087000 0.079000 1600 41 1.100000 2.843000 3.241000 600 56 1.000000 0.053000 0.053000 1.200000 0.081000 0.098000
1517411420379794472	300 50 0.900000 0.087000 0.079000 1600 42 1.100000 2.855000 3.254000 600 56 1.000000 0.053000 0.053000 1.200000 0.080000 0.096000
1517411420943918472	300 50 0.900000 0.087000 0.079000 1600 42 1.100000 2.851000 3.250000 600 57 1.000000 0.053000 0.053000 1.200000 0.080000 0.096000
1517411421511721931	300 50 0.900000 0.088000 0.080000 1600 42 1.100000 2.852000 3.251000 600 57 1.000000 0.053000 0.053000 1.200000 0.080000 0.096000
1517411422067730181	300 50 0.900000 0.088000 0.080000 1600 42 1.100000 2.847000 3.245000 600 57 1.000000 0.053000 0.053000 1.200000 0.081000 0.098000
1517411422635728514	300 51 0.900000 0.087000 0.079000 1600 42 1.100000 2.857000 3.256000 600 57 1.000000 0.053000 0.053000 1.200000 0.081000 0.098000
1517411423195756806	300 51 0.900000 0.088000 0.080000 1600 43 1.100000 2.859000 3.259000 600 57 1.000000 0.053000 0.053000 1.200000 0.082000 0.099000
1517411423763732681	300 51 0.900000 0.088000 0.080000 1600 43 1.100000 2.854000 3.253000 600 57 1.000000 0.053000 0.053000 1.200000 0.081000 0.098000
1517411424327696389	300 51 0.900000 0.087000 0.079000 1600 43 1.100000 2.862000 3.262000 600 58 1.000000 0.053000 0.053000 1.200000 0.081000 0.098000
1517411424879745639	300 51 0.900000 0.088000 0.080000 1600 43 1.100000 2.861000 3.261000 600 58 1.000000 0.053000 0.053000 1.200000 0.080000 0.096000
1517411425447712681	300 51 0.900000 0.088000 0.080000 1600 43 1.100000 2.860000 3.260000 600 58 1.000000 0.053000 0.053000 1.200000 0.080000 0.096000
1517411425999725598	300 52 0.900000 0.088000 0.080000 1600 43 1.100000 2.853000 3.252000 600 58 1.000000 0.053000 0.053000 1.200000 0.080000 0.096000
1517411426551748681	300 52 0.900000 0.088000 0.080000 1600 43 1.100000 2.857000 3.256000 600 58 1.000000 0.053000 0.053000 1.200000 0.080000 0.096000
1517411427119651473	300 52 0.900000 0.088000 0.080000 1600 43 1.100000 2.864000 3.264000 600 58 1.000000 0.053000 0.053000 1.200000 0.081000 0.098000
1517411427679777848	300 52 0.900000 0.088000 0.080000 1600 44 1.100000 2.863000 3.263000 600 58 1.000000 0.053000 0.053000 1.200000 0.082000 0.099000
1517411428247792765	300 52 0.900000 0.088000 0.080000 1600 44 1.100000 2.864000 3.264000 600 58 1.000000 0.053000 0.053000 1.200000 0.082000 0.099000
1517411428811745390	300 52 0.900000 0.088000 0.080000 1600 44 1.100000 2.865000 3.266000 600 58 1.000000 0.053000 0.053000 1.200000 0.082000 0.099000
1517411429363663682	300 52 0.900000 0.088000 0.080000 1600 44 1.100000 2.865000 3.266000 600 58 1.000000 0.053000 0.053000 1.200000 0.080000 0.096000
1517411429931726307	300 52 0.900000 0.088000 0.080000 1600 44 1.100000 2.865000 3.266000 600 59 1.000000 0.053000 0.053000 1.200000 0.080000 0.096000
1517411430483728182	300 52 0.900000 0.088000 0.080000 1600 44 1.100000 2.857000 3.256000 600 59 1.000000 0.053000 0.053000 1.200000 0.080000 0.096000
1517411431047727682	300 52 0.900000 0.088000 0.080000 1600 44 1.100000 2.860000 3.260000 600 58 1.000000 0.053000 0.053000 1.200000 0.080000 0.096000
1517411431611732474	300 52 0.900000 0.088000 0.080000 1600 44 1.100000 2.860000 3.260000 600 59 1.000000 0.053000 0.053000 1.200000 0.080000 0.096000
1517411432175747057	300 52 0.900000 0.088000 0.080000 1600 44 1.100000 2.861000 3.261000 600 59 1.000000 0.053000 0.053000 1.200000 0.081000 0.098000
1517411432739733765	300 52 0.900000 0.088000 0.080000 1600 44 1.100000 2.861000 3.261000 600 59 1.000000 0.053000 0.053000 1.200000 0.081000 0.098000
1517411433307745182	300 52 0.900000 0.088000 0.080000 1600 44 1.100000 2.863000 3.263000 600 59 1.000000 0.053000 0.053000 1.200000 0.082000 0.099000
1517411433863724766	300 52 0.900000 0.088000 0.080000 1600 44 1.100000 2.868000 3.269000 600 59 1.000000 0.053000 0.053000 1.200000 0.080000 0.096000
1517411434415754224	300 53 0.900000 0.088000 0.080000 1600 44 1.100000 2.866000 3.267000 600 59 1.000000 0.054000 0.054000 1.200000 0.080000 0.096000
1517411434959716057	300 53 0.900000 0.088000 0.080000 1600 44 1.100000 2.863000 3.263000 600 59 1.000000 0.053000 0.053000 1.200000 0.080000 0.096000
1517411435515747307	300 53 0.900000 0.088000 0.080000 1600 44 1.100000 2.867000 3.268000 600 59 1.000000 0.053000 0.053000 1.200000 0.080000 0.096000
1517411436079663849	300 53 0.900000 0.088000 0.080000 1600 44 1.100000 2.865000 3.266000 600 59 1.000000 0.053000 0.053000 1.200000 0.080000 0.096000
1517411436623742933	300 53 0.900000 0.088000 0.080000 1600 44 1.100000 2.864000 3.264000 600 59 1.000000 0.053000 0.053000 1.200000 0.080000 0.096000
1517411437179748599	300 53 0.900000 0.088000 0.080000 1600 45 1.100000 2.862000 3.262000 600 59 1.000000 0.053000 0.053000 1.200000 0.080000 0.096000
1517411437747721599	300 53 0.900000 0.088000 0.080000 1600 45 1.100000 2.863000 3.263000 600 59 1.000000 0.053000 0.053000 1.200000 0.081000 0.098000
1517411438307714391	300 53 0.900000 0.088000 0.080000 1600 45 1.100000 2.869000 3.270000 600 59 1.000000 0.053000 0.053000 1.200000 0.081000 0.098000
1517411438859784891	300 53 0.900000 0.088000 0.080000 1600 45 1.100000 2.869000 3.270000 600 59 1.000000 0.054000 0.054000 1.200000 0.080000 0.096000
1517411439411678058	300 53 0.900000 0.088000 0.080000 1600 45 1.100000 2.870000 3.271000 600 59 1.000000 0.054000 0.054000 1.200000 0.080000 0.096000
1517411439963671641	300 53 0.900000 0.088000 0.080000 1600 45 1.100000 2.871000 3.272000 600 60 1.000000 0.053000 0.053000 1.200000 0.080000 0.096000
1517411440527738475	300 53 0.900000 0.088000 0.080000 1600 45 1.100000 2.870000 3.274000 600 60 1.000000 0.053000 0.053000 1.200000 0.080000 0.096000
1517411441087734266	300 53 0.900000 0.088000 0.080000 1600 45 1.100000 2.867000 3.268000 600 60 1.000000 0.054000 0.054000 1.200000 0.080000 0.096000
1517411441639667766	300 53 0.900000 0.088000 0.080000 1600 45 1.100000 2.865000 3.266000 600 60 1.000000 0.053000 0.053000 1.200000 0.080000 0.096000
1517411442195731475	300 53 0.900000 0.088000 0.080000 1600 45 1.100000 2.864000 3.264000 600 60 1.000000 0.054000 0.054000 1.200000 0.081000 0.098000
1517411442763682600	300 53 0.900000 0.088000 0.080000 1600 45 1.100000 2.868000 3.269000 600 60 1.000000 0.054000 0.054000 1.200000 0.081000 0.098000
1517411443323676642	300 53 0.900000 0.088000 0.080000 1600 45 1.100000 2.869000 3.270000 600 60 1.000000 0.054000 0.054000 1.200000 0.080000 0.096000
1517411443883724850	300 53 0.900000 0.088000 0.080000 1600 45 1.100000 2.873000 3.275000 600 60 1.000000 0.053000 0.053000 1.200000 0.081000 0.098000
1517411444443734058	300 53 0.900000 0.088000 0.080000 1600 45 1.100000 2.873000 3.275000 600 60 1.000000 0.054000 0.054000 1.200000 0.082000 0.099000
1517411445011661809	300 53 0.900000 0.089000 0.081000 1600 45 1.100000 2.873000 3.278000 600 60 1.000000 0.053000 0.053000 1.200000 0.082000 0.099000
1517411445567736475	300 53 0.900000 0.088000 0.080000 1600 45 1.100000 2.873000 3.275000 600 60 1.000000 0.054000 0.054000 1.200000 0.082000 0.099000
1517411446135746600	300 53 0.900000 0.088000 0.080000 1600 45 1.100000 2.871000 3.272000 600 60 1.000000 0.053000 0.053000 1.200000 0.081000 0.098000
1517411446699790975	300 53 0.900000 0.088000 0.080000 1600 45 1.100000 2.868000 3.269000 600 60 1.000000 0.054000 0.054000 1.200000 0.081000 0.098000
1517411447263723850	300 54 0.900000 0.088000 0.080000 1600 45 1.100000 2.867000 3.268000 600 60 1.000000 0.054000 0.054000 1.200000 0.081000 0.098000
1517411447831742101	300 53 0.900000 0.088000 0.080000 1600 45 1.100000 2.873000 3.278000 600 60 1.000000 0.053000 0.053000 1.200000 0.081000 0.098000
1517411448399759267	300 53 0.900000 0.088000 0.080000 1600 45 1.100000 2.871000 3.272000 600 60 1.000000 0.053000 0.053000 1.200000 0.081000 0.098000
1517411448963747142	300 54 0.900000 0.088000 0.080000 1600 45 1.100000 2.874000 3.279000 600 60 1.000000 0.053000 0.053000 1.200000 0.081000 0.098000
1517411449523758476	300 54 0.900000 0.088000 0.080000 1600 45 1.100000 2.873000 3.275000 600 60 1.000000 0.054000 0.054000 1.200000 0.081000 0.098000
1517411450091655934	300 54 0.900000 0.088000 0.080000 1600 45 1.100000 2.873000 3.275000 600 60 1.000000 0.053000 0.053000 1.200000 0.081000 0.098000
1517411450647736768	300 53 0.900000 0.088000 0.080000 1600 45 1.100000 2.869000 3.270000 600 60 1.000000 0.054000 0.054000 1.200000 0.082000 0.099000
1517411451207735726	300 54 0.900000 0.088000 0.080000 1600 45 1.100000 2.872000 3.274000 600 60 1.000000 0.054000 0.054000 1.200000 0.081000 0.098000
1517411451775755184	300 54 0.900000 0.088000 0.080000 1600 45 1.100000 2.865000 3.266000 600 60 1.000000 0.054000 0.054000 1.200000 0.080000 0.096000
1517411452331729518	300 54 0.900000 0.088000 0.080000 1600 45 1.100000 2.873000 3.275000 600 60 1.000000 0.054000 0.054000 1.200000 0.081000 0.098000
1517411452895733643	300 54 0.900000 0.088000 0.080000 1600 45 1.100000 2.873000 3.275000 600 60 1.000000 0.053000 0.053000 1.200000 0.082000 0.099000
1517411453451682018	300 54 0.900000 0.088000 0.080000 1600 45 1.100000 2.873000 3.275000 600 60 1.000000 0.054000 0.054000 1.200000 0.082000 0.099000
1517411454023732143	300 54 0.900000 0.088000 0.080000 1600 45 1.100000 2.872000 3.274000 600 60 1.000000 0.054000 0.054000 1.200000 0.082000 0.099000
1517411454583779768	300 54 0.900000 0.088000 0.080000 1600 45 1.100000 2.872000 3.274000 600 60 1.000000 0.054000 0.054000 1.200000 0.082000 0.099000
1517411455147739768	300 54 0.900000 0.088000 0.080000 1600 45 1.100000 2.870000 3.271000 600 60 1.000000 0.054000 0.054000 1.200000 0.083000 0.100000
1517411455711732018	300 54 0.900000 0.088000 0.080000 1600 45 1.100000 2.871000 3.272000 600 60 1.000000 0.054000 0.054000 1.200000 0.083000 0.100000
1517411456279758560	300 54 0.900000 0.088000 0.080000 1600 45 1.100000 2.871000 3.272000 600 60 1.000000 0.054000 0.054000 1.200000 0.082000 0.099000
1517411456835719435	300 54 0.900000 0.088000 0.080000 1600 45 1.100000 2.873000 3.275000 600 60 1.000000 0.054000 0.054000 1.200000 0.081000 0.098000
1517411457391731935	300 54 0.900000 0.088000 0.080000 1600 46 1.100000 2.864000 3.264000 600 60 1.000000 0.054000 0.054000 1.200000 0.082000 0.099000
1517411457939730643	300 54 0.900000 0.088000 0.080000 1600 45 1.100000 2.870000 3.271000 600 60 1.000000 0.054000 0.054000 1.200000 0.082000 0.099000
1517411458491743519	300 54 0.900000 0.088000 0.080000 1600 46 1.100000 2.871000 3.272000 600 60 1.000000 0.054000 0.054000 1.200000 0.082000 0.099000
1517411459051752894	300 54 0.900000 0.088000 0.080000 1600 46 1.100000 2.871000 3.272000 600 60 1.000000 0.054000 0.054000 1.200000 0.082000 0.099000
1517411459611729060	300 54 0.900000 0.088000 0.080000 1600 46 1.100000 2.871000 3.272000 600 60 1.000000 0.053000 0.053000 1.200000 0.081000 0.098000
1517411460171741602	300 54 0.900000 0.088000 0.080000 1600 46 1.100000 2.870000 3.271000 600 60 1.000000 0.053000 0.053000 1.200000 0.081000 0.098000
1517411460735724602	300 54 0.900000 0.089000 0.081000 1600 46 1.100000 2.865000 3.266000 600 60 1.000000 0.054000 0.054000 1.200000 0.081000 0.098000
1517411461283742936	300 54 0.900000 0.089000 0.081000 1600 46 1.100000 2.870000 3.271000 600 60 1.000000 0.054000 0.054000 1.200000 0.080000 0.096000
1517411461851803602	300 54 0.900000 0.088000 0.080000 1600 46 1.100000 2.869000 3.270000 600 60 1.000000 0.054000 0.054000 1.200000 0.080000 0.096000
1517411462407786602	300 54 0.900000 0.089000 0.081000 1600 46 1.100000 2.863000 3.263000 600 60 1.000000 0.053000 0.053000 1.200000 0.080000 0.096000
1517411462979749061	300 54 0.900000 0.088000 0.080000 1600 46 1.100000 2.870000 3.271000 600 60 1.000000 0.054000 0.054000 1.200000 0.081000 0.098000
1517411463547785977	300 54 0.900000 0.088000 0.080000 1600 46 1.100000 2.867000 3.268000 600 60 1.000000 0.053000 0.053000 1.200000 0.081000 0.098000
1517411464115741978	300 54 0.900000 0.088000 0.080000 1600 46 1.100000 2.866000 3.267000 600 60 1.000000 0.054000 0.054000 1.200000 0.081000 0.098000
1517411464683767019	300 54 0.900000 0.089000 0.081000 1600 46 1.100000 2.876000 3.278000 600 60 1.000000 0.053000 0.053000 1.200000 0.081000 0.098000
1517411465247742686	300 54 0.900000 0.088000 0.080000 1600 46 1.100000 2.875000 3.277000 600 60 1.000000 0.054000 0.054000 1.200000 0.080000 0.096000
1517411465811733769	300 54 0.900000 0.088000 0.080000 1600 46 1.100000 2.876000 3.278000 600 60 1.000000 0.054000 0.054000 1.200000 0.080000 0.096000
1517411466371806103	300 54 0.900000 0.088000 0.080000 1600 46 1.100000 2.872000 3.274000 600 60 1.000000 0.054000 0.054000 1.200000 0.080000 0.096000
1517411466935800603	300 54 0.900000 0.089000 0.081000 1600 46 1.100000 2.870000 3.271000 600 60 1.000000 0.054000 0.054000 1.200000 0.080000 0.096000
1517411467503775811	300 54 0.900000 0.088000 0.080000 1600 46 1.100000 2.871000 3.272000 600 60 1.000000 0.054000 0.054000 1.200000 0.081000 0.098000
1517411468071725061	300 54 0.900000 0.088000 0.080000 1600 46 1.100000 2.875000 3.277000 600 60 1.000000 0.054000 0.054000 1.200000 0.081000 0.098000
1517411468635726686	300 54 0.900000 0.088000 0.080000 1600 46 1.100000 2.876000 3.278000 600 60 1.000000 0.054000 0.054000 1.200000 0.081000 0.098000
1517411469187733436	300 54 0.900000 0.088000 0.080000 1600 46 1.100000 2.877000 3.279000 600 60 1.000000 0.054000 0.054000 1.200000 0.080000 0.096000
1517411469743636687	300 54 0.900000 0.088000 0.080000 1600 46 1.100000 2.876000 3.278000 600 60 1.000000 0.054000 0.054000 1.200000 0.080000 0.096000
1517411470295649603	300 54 0.900000 0.089000 0.081000 1600 46 1.100000 2.875000 3.277000 600 61 1.000000 0.053000 0.053000 1.200000 0.081000 0.098000
1517411470863799103	300 54 0.900000 0.088000 0.080000 1600 46 1.100000 2.874000 3.276000 600 61 1.000000 0.053000 0.053000 1.200000 0.080000 0.096000
1517411471419762103	300 54 0.900000 0.088000 0.080000 1600 46 1.100000 2.873000 3.275000 600 60 1.000000 0.054000 0.054000 1.200000 0.080000 0.096000
1517411471987754103	300 54 0.900000 0.089000 0.081000 1600 46 1.100000 2.871000 3.272000 600 61 1.000000 0.054000 0.054000 1.200000 0.080000 0.096000
1517411472559742354	300 54 0.900000 0.089000 0.081000 1600 46 1.100000 2.875000 3.277000 600 61 1.000000 0.054000 0.054000 1.200000 0.080000 0.096000
1517411473111744937	300 54 0.900000 0.088000 0.080000 1600 46 1.100000 2.866000 3.267000 600 61 1.000000 0.054000 0.054000 1.200000 0.081000 0.098000
1517411473671723520	300 54 0.900000 0.089000 0.081000 1600 46 1.100000 2.876000 3.278000 600 61 1.000000 0.054000 0.054000 1.200000 0.080000 0.096000
1517411474211665020	300 54 0.900000 0.088000 0.080000 1600 46 1.100000 2.876000 3.278000 600 61 1.000000 0.054000 0.054000 1.200000 0.080000 0.096000
1517411474775731229	300 54 0.900000 0.088000 0.080000 1600 46 1.100000 2.878000 3.280000 600 61 1.000000 0.054000 0.054000 1.200000 0.080000 0.096000
1517411475327714937	300 54 0.900000 0.088000 0.080000 1600 46 1.100000 2.876000 3.278000 600 61 1.000000 0.054000 0.054000 1.200000 0.080000 0.096000
1517411475891663687	300 54 0.900000 0.088000 0.080000 1600 46 1.100000 2.875000 3.277000 600 61 1.000000 0.053000 0.053000 1.200000 0.081000 0.098000
1517411476463748354	300 54 0.900000 0.088000 0.080000 1600 46 1.100000 2.874000 3.276000 600 61 1.000000 0.054000 0.054000 1.200000 0.080000 0.096000
1517411476970935687	300 47 0.900000 0.080000 0.072000 1600 44 1.100000 2.686000 3.056000 600 53 1.000000 0.054000 0.054000 1.200000 0.065000 0.078000
1517411477478015437	300 46 0.900000 0.017000 0.015000 1600 43 1.100000 1.103000 1.247000 600 51 1.000000 0.053000 0.053000 1.200000 0.027000 0.032000
1517411477984821396	300 45 0.900000 0.016000 0.014000 1600 42 1.100000 1.095000 1.238000 600 49 1.000000 0.053000 0.053000 1.200000 0.025000 0.030000
1517411478491802479	300 44 0.900000 0.016000 0.014000 1600 41 1.100000 1.088000 1.230000 600 48 1.000000 0.053000 0.053000 1.200000 0.027000 0.032000
1517411478998726854	300 43 0.900000 0.018000 0.016000 1600 41 1.100000 1.188000 1.343000 600 48 1.000000 0.053000 0.053000 1.200000 0.036000 0.043000
1517411479505569979	300 43 0.900000 0.016000 0.014000 1600 40 1.100000 1.068000 1.207000 600 47 1.000000 0.053000 0.053000 1.200000 0.024000 0.028000
1517411480012531104	300 42 0.900000 0.016000 0.014000 1600 40 1.100000 1.060000 1.198000 600 46 1.000000 0.053000 0.053000 1.200000 0.027000 0.032000
1517411480519385021	300 42 0.900000 0.015000 0.013000 1600 40 1.100000 1.061000 1.199000 600 46 1.000000 0.053000 0.053000 1.200000 0.026000 0.031000
1517411481026336813	300 42 0.900000 0.015000 0.013000 1600 39 1.100000 1.064000 1.203000 600 46 1.000000 0.053000 0.053000 1.200000 0.030000 0.036000
1517411481533358730	300 41 0.900000 0.015000 0.013000 1600 39 1.100000 1.058000 1.196000 600 45 1.000000 0.053000 0.053000 1.200000 0.028000 0.033000
1517411482040302396	300 41 0.900000 0.016000 0.014000 1600 39 1.100000 1.085000 1.227000 600 45 1.000000 0.053000 0.053000 1.200000 0.029000 0.035000
1517411482547227521	300 41 0.900000 0.016000 0.014000 1600 38 1.100000 1.070000 1.210000 600 45 1.000000 0.053000 0.053000 1.200000 0.033000 0.039000
1517411483054567896	300 41 0.900000 0.016000 0.014000 1600 38 1.100000 1.144000 1.293000 600 45 1.000000 0.053000 0.053000 1.200000 0.029000 0.035000
1517411483561567688	300 40 0.900000 0.015000 0.013000 1600 38 1.100000 1.077000 1.218000 600 44 1.000000 0.053000 0.053000 1.200000 0.030000 0.036000
1517411484068460522	300 40 0.900000 0.015000 0.013000 1600 38 1.100000 1.067000 1.206000 600 44 1.000000 0.053000 0.053000 1.200000 0.033000 0.039000
1517411484575431022	300 40 0.900000 0.016000 0.014000 1600 38 1.100000 1.136000 1.284000 600 44 1.000000 0.053000 0.053000 1.200000 0.028000 0.033000
1517411485082277980	300 40 0.900000 0.015000 0.013000 1600 38 1.100000 1.073000 1.213000 600 44 1.000000 0.053000 0.053000 1.200000 0.032000 0.038000
1517411485589165938	300 40 0.900000 0.015000 0.013000 1600 37 1.100000 1.060000 1.198000 600 44 1.000000 0.053000 0.053000 1.200000 0.028000 0.033000
1517411486096004230	300 39 0.900000 0.015000 0.013000 1600 37 1.100000 1.061000 1.199000 600 44 1.000000 0.053000 0.053000 1.200000 0.026000 0.031000
1517411486602927147	300 39 0.900000 0.015000 0.013000 1600 37 1.100000 1.055000 1.193000 600 43 1.000000 0.053000 0.053000 1.200000 0.028000 0.033000
1517411487109965189	300 39 0.900000 0.015000 0.013000 1600 37 1.100000 1.064000 1.203000 600 43 1.000000 0.053000 0.053000 1.200000 0.032000 0.038000
1517411487617010522	300 40 0.900000 0.015000 0.013000 1600 37 1.100000 1.113000 1.258000 600 43 1.000000 0.053000 0.053000 1.200000 0.028000 0.033000
1517411488124153814	300 39 0.900000 0.016000 0.014000 1600 37 1.100000 1.078000 1.219000 600 43 1.000000 0.052000 0.052000 1.200000 0.033000 0.039000
1517411488631267022	300 39 0.900000 0.015000 0.013000 1600 37 1.100000 1.119000 1.265000 600 43 1.000000 0.052000 0.052000 1.200000 0.027000 0.032000
1517411489138213189	300 40 0.900000 0.015000 0.013000 1600 37 1.100000 1.057000 1.195000 600 43 1.000000 0.052000 0.052000 1.200000 0.029000 0.035000
1517411489645030189	300 39 0.900000 0.016000 0.014000 1600 36 1.100000 1.088000 1.230000 600 43 1.000000 0.053000 0.053000 1.200000 0.032000 0.038000
1517411490152113356	300 39 0.900000 0.015000 0.013000 1600 37 1.100000 1.058000 1.196000 600 43 1.000000 0.052000 0.052000 1.200000 0.028000 0.033000
1517411490659137189	300 39 0.900000 0.015000 0.013000 1600 37 1.100000 1.102000 1.246000 600 43 1.000000 0.053000 0.053000 1.200000 0.033000 0.039000
1517411491165532356	300 39 0.900000 0.015000 0.013000 1600 36 1.100000 1.051000 1.188000 600 43 1.000000 0.052000 0.052000 1.200000 0.028000 0.033000
1517411491671837606	300 39 0.900000 0.015000 0.013000 1600 36 1.100000 1.049000 1.186000 600 43 1.000000 0.052000 0.052000 1.200000 0.027000 0.032000
1517411492178332064	300 38 0.900000 0.015000 0.013000 1600 36 1.100000 1.051000 1.188000 600 43 1.000000 0.052000 0.052000 1.200000 0.028000 0.033000
1517411492684763814	300 38 0.900000 0.015000 0.013000 1600 36 1.100000 1.104000 1.248000 600 43 1.000000 0.052000 0.052000 1.200000 0.029000 0.035000
1517411493191119773	300 38 0.900000 0.015000 0.013000 1600 36 1.100000 1.051000 1.188000 600 43 1.000000 0.052000 0.052000 1.200000 0.027000 0.032000
1517411493697805606	300 44 0.900000 0.015000 0.013000 1600 37 1.100000 1.113000 1.258000 600 42 1.000000 0.052000 0.052000 1.200000 0.032000 0.038000
1517411494204167939	300 44 0.900000 0.015000 0.013000 1600 37 1.100000 1.062000 1.201000 600 42 1.000000 0.052000 0.052000 1.200000 0.026000 0.031000
1517411494710636273	300 44 0.900000 0.016000 0.014000 1600 37 1.100000 1.108000 1.253000 600 41 1.000000 0.052000 0.052000 1.200000 0.033000 0.039000
1517411495216994523	300 44 0.900000 0.015000 0.013000 1600 37 1.100000 1.068000 1.207000 600 41 1.000000 0.052000 0.052000 1.200000 0.028000 0.033000
1517411495723660273	300 44 0.900000 0.015000 0.013000 1600 37 1.100000 1.083000 1.224000 600 41 1.000000 0.052000 0.052000 1.200000 0.028000 0.033000
1517411496230086315	300 44 0.900000 0.015000 0.013000 1600 37 1.100000 1.138000 1.287000 600 41 1.000000 0.053000 0.053000 1.200000 0.031000 0.037000
1517411496736409440	300 44 0.900000 0.016000 0.014000 1600 37 1.100000 1.109000 1.254000 600 41 1.000000 0.052000 0.052000 1.200000 0.033000 0.039000
1517411497242619815	300 44 0.900000 0.015000 0.013000 1600 37 1.100000 1.062000 1.201000 600 41 1.000000 0.052000 0.052000 1.200000 0.027000 0.032000
1517411497748674065	300 44 0.900000 0.015000 0.013000 1600 37 1.100000 1.077000 1.218000 600 41 1.000000 0.053000 0.053000 1.200000 0.027000 0.032000
1517411498255165732	300 38 0.900000 0.016000 0.014000 1600 36 1.100000 1.034000 1.169000 600 40 1.000000 0.053000 0.053000 1.200000 0.042000 0.050000
1517411498762060857	300 36 0.900000 0.021000 0.019000 1600 35 1.100000 0.295000 0.335000 600 39 1.000000 0.053000 0.053000 1.200000 0.030000 0.036000
