#Timestamp	CPU(0) Frequency(MHz)	CPU(0) Temperature(C)	A7 Voltage(V)	A7 Current(A)	A7 Power(W)	CPU(4) Frequency(MHz)	CPU(4) Temperature(C)	A15 Voltage(V)	A15 Current(A)	A15 Power(W)	GPU Frequency(MHz)	GPU Temperature(C)	GPU Voltage(V)	GPU Current(A)	GPU Power(W)	RAM Voltage(V)	RAM Current(A)	RAM Power(W)
1517781379392504033	500 41 0.900000 0.043000 0.039000 1800 31 1.200000 2.339000 2.837000 600 45 1.000000 0.051000 0.051000 1.200000 0.045000 0.054000
1517781379940714242	500 44 0.900000 0.111000 0.101000 1800 33 1.200000 2.844000 3.458000 600 49 1.000000 0.051000 0.051000 1.200000 0.038000 0.045000
1517781380494551325	500 46 0.900000 0.112000 0.102000 1800 35 1.200000 3.124000 3.801000 600 52 1.000000 0.052000 0.052000 1.200000 0.045000 0.054000
1517781381000713075	500 44 0.900000 0.107000 0.097000 1800 37 1.200000 3.188000 3.879000 600 51 1.000000 0.052000 0.052000 1.200000 0.048000 0.057000
1517781381507184950	500 44 0.900000 0.099000 0.090000 1800 37 1.200000 3.313000 4.035000 600 51 1.000000 0.052000 0.052000 1.200000 0.047000 0.056000
1517781382019959908	500 48 0.900000 0.135000 0.122000 1800 38 1.200000 3.685000 4.495000 600 53 1.000000 0.053000 0.053000 1.200000 0.047000 0.056000
1517781382566653700	500 51 0.900000 0.127000 0.115000 1800 40 1.200000 3.654000 4.461000 600 56 1.000000 0.053000 0.053000 1.200000 0.047000 0.056000
1517781383099840034	500 51 0.900000 0.112000 0.102000 1800 40 1.200000 3.897000 4.754000 600 58 1.000000 0.053000 0.053000 1.200000 0.040000 0.048000
1517781383631636159	500 52 0.900000 0.129000 0.117000 1800 41 1.200000 3.134000 3.817000 600 59 1.000000 0.053000 0.053000 1.200000 0.040000 0.048000
1517781384172710659	500 53 0.900000 0.132000 0.120000 1800 41 1.200000 3.257000 3.963000 600 59 1.000000 0.053000 0.053000 1.200000 0.039000 0.047000
1517781384715493575	500 53 0.900000 0.121000 0.110000 1800 42 1.200000 3.114000 3.792000 600 60 1.000000 0.053000 0.053000 1.200000 0.046000 0.055000
1517781385221744534	500 50 0.900000 0.113000 0.102000 1800 42 1.200000 3.050000 3.711000 600 58 1.000000 0.053000 0.053000 1.200000 0.048000 0.057000
1517781385728461492	500 53 0.900000 0.112000 0.102000 1800 43 1.200000 3.567000 4.355000 600 56 1.000000 0.053000 0.053000 1.200000 0.047000 0.056000
1517781386234704826	500 54 0.900000 0.112000 0.102000 1800 43 1.200000 3.758000 4.584000 600 58 1.000000 0.053000 0.053000 1.200000 0.046000 0.055000
1517781386772501076	500 54 0.900000 0.136000 0.123000 1800 43 1.200000 3.615000 4.410000 600 60 1.000000 0.053000 0.053000 1.200000 0.043000 0.051000
1517781387315626076	500 54 0.900000 0.133000 0.121000 1800 43 1.200000 3.349000 4.079000 600 62 1.000000 0.053000 0.053000 1.200000 0.038000 0.045000
1517781387851799159	500 55 0.900000 0.118000 0.107000 1800 44 1.200000 3.024000 3.680000 600 62 1.000000 0.053000 0.053000 1.200000 0.038000 0.045000
1517781388389918284	500 56 0.900000 0.111000 0.101000 1800 44 1.200000 3.271000 3.993000 600 62 1.000000 0.053000 0.053000 1.200000 0.043000 0.051000
1517781388909334034	500 56 0.900000 0.114000 0.103000 1800 44 1.200000 3.682000 4.492000 600 63 1.000000 0.053000 0.053000 1.200000 0.047000 0.056000
1517781389415544909	500 51 0.900000 0.114000 0.103000 1800 44 1.200000 3.352000 4.079000 600 62 1.000000 0.053000 0.053000 1.200000 0.050000 0.060000
1517781389922473451	500 54 0.900000 0.115000 0.104000 1800 44 1.200000 2.999000 3.649000 600 61 1.000000 0.053000 0.053000 1.200000 0.044000 0.053000
1517781390446061326	500 56 0.900000 0.115000 0.104000 1800 45 1.200000 3.195000 3.891000 600 63 1.000000 0.053000 0.053000 1.200000 0.039000 0.047000
1517781390973596285	500 57 0.900000 0.141000 0.128000 1800 45 1.200000 3.385000 4.122000 600 63 1.000000 0.053000 0.053000 1.200000 0.038000 0.045000
1517781391513064076	500 56 0.900000 0.135000 0.122000 1800 45 1.200000 3.743000 4.570000 600 63 1.000000 0.054000 0.054000 1.200000 0.040000 0.048000
1517781392052840826	500 57 0.900000 0.116000 0.105000 1800 45 1.200000 3.708000 4.523000 600 64 1.000000 0.054000 0.054000 1.200000 0.046000 0.055000
1517781392595221785	500 57 0.900000 0.115000 0.104000 1800 46 1.200000 3.477000 4.241000 600 64 1.000000 0.053000 0.053000 1.200000 0.047000 0.056000
1517781393101430118	500 53 0.900000 0.116000 0.105000 1800 46 1.200000 3.095000 3.766000 600 61 1.000000 0.054000 0.054000 1.200000 0.048000 0.057000
1517781393609203160	500 53 0.900000 0.125000 0.113000 1800 45 1.200000 3.169000 3.859000 600 63 1.000000 0.054000 0.054000 1.200000 0.043000 0.051000
1517781394169244910	500 57 0.900000 0.137000 0.124000 1800 46 1.200000 3.265000 3.976000 600 63 1.000000 0.054000 0.054000 1.200000 0.038000 0.045000
1517781394711829285	500 57 0.900000 0.136000 0.123000 1800 46 1.200000 3.231000 3.941000 600 64 1.000000 0.054000 0.054000 1.200000 0.039000 0.047000
1517781395243029577	500 58 0.900000 0.113000 0.103000 1800 46 1.200000 3.749000 4.577000 600 65 1.000000 0.054000 0.054000 1.200000 0.039000 0.047000
1517781395783405410	500 58 0.900000 0.137000 0.124000 1800 46 1.200000 3.694000 4.510000 600 65 1.000000 0.054000 0.054000 1.200000 0.045000 0.054000
1517781396329315119	500 58 0.900000 0.137000 0.124000 1800 47 1.200000 3.661000 4.470000 600 64 1.000000 0.054000 0.054000 1.200000 0.049000 0.059000
1517781396835571494	500 57 0.900000 0.116000 0.105000 1800 47 1.200000 3.174000 3.865000 600 62 1.000000 0.054000 0.054000 1.200000 0.049000 0.059000
1517781397344297160	500 54 0.900000 0.110000 0.100000 1800 46 1.200000 3.215000 3.915000 600 64 1.000000 0.054000 0.054000 1.200000 0.047000 0.056000
1517781397897774494	500 57 0.900000 0.116000 0.105000 1800 46 1.200000 3.223000 3.925000 600 64 1.000000 0.054000 0.054000 1.200000 0.039000 0.047000
1517781398429278785	500 58 0.900000 0.133000 0.121000 1800 47 1.200000 3.216000 3.917000 600 65 1.000000 0.054000 0.054000 1.200000 0.038000 0.045000
1517781398967745536	500 58 0.900000 0.134000 0.122000 1800 47 1.200000 3.732000 4.556000 600 66 1.000000 0.054000 0.054000 1.200000 0.040000 0.048000
1517781399500717411	500 59 0.900000 0.126000 0.114000 1800 47 1.200000 3.804000 4.640000 600 66 1.000000 0.054000 0.054000 1.200000 0.047000 0.056000
1517781400036480869	500 59 0.900000 0.114000 0.103000 1800 47 1.200000 3.729000 4.549000 600 67 1.000000 0.054000 0.054000 1.200000 0.049000 0.059000
1517781400542777202	500 54 0.900000 0.117000 0.106000 1800 47 1.200000 3.294000 4.012000 600 66 1.000000 0.054000 0.054000 1.200000 0.049000 0.059000
1517781401050491827	500 56 0.900000 0.125000 0.113000 1800 47 1.200000 3.237000 3.942000 600 63 1.000000 0.054000 0.054000 1.200000 0.044000 0.053000
1517781401588151994	500 58 0.900000 0.138000 0.125000 1800 47 1.200000 3.331000 4.057000 600 66 1.000000 0.054000 0.054000 1.200000 0.039000 0.047000
1517781402134789828	500 59 0.900000 0.111000 0.101000 1800 48 1.200000 3.340000 4.068000 600 65 1.000000 0.054000 0.054000 1.200000 0.036000 0.043000
1517781402673714661	500 59 0.900000 0.120000 0.109000 1800 48 1.200000 3.870000 4.725000 600 66 1.000000 0.054000 0.054000 1.200000 0.042000 0.050000
1517781403204656411	500 60 0.900000 0.142000 0.129000 1800 48 1.200000 3.758000 4.588000 600 67 1.000000 0.054000 0.054000 1.200000 0.043000 0.051000
1517781403741736328	500 59 0.900000 0.139000 0.126000 1800 48 1.200000 3.546000 4.319000 600 67 1.000000 0.054000 0.054000 1.200000 0.037000 0.044000
1517781404248087744	500 54 0.900000 0.114000 0.103000 1800 48 1.200000 3.150000 3.833000 600 66 1.000000 0.054000 0.054000 1.200000 0.038000 0.045000
1517781404754774870	500 57 0.900000 0.111000 0.101000 1800 48 1.200000 3.094000 3.765000 600 65 1.000000 0.054000 0.054000 1.200000 0.042000 0.050000
1517781405282905828	500 59 0.900000 0.112000 0.102000 1800 48 1.200000 3.217000 3.915000 600 66 1.000000 0.054000 0.054000 1.200000 0.048000 0.057000
1517781405814712703	500 59 0.900000 0.139000 0.126000 1800 48 1.200000 3.628000 4.426000 600 66 1.000000 0.055000 0.055000 1.200000 0.048000 0.057000
1517781406345941828	500 59 0.900000 0.142000 0.129000 1800 48 1.200000 3.690000 4.505000 600 66 1.000000 0.055000 0.055000 1.200000 0.047000 0.056000
1517781406877079661	500 59 0.900000 0.113000 0.103000 1800 48 1.200000 3.623000 4.423000 600 67 1.000000 0.055000 0.055000 1.200000 0.039000 0.047000
1517781407395506620	500 60 0.900000 0.111000 0.101000 1800 48 1.200000 3.142000 3.823000 600 67 1.000000 0.055000 0.055000 1.200000 0.036000 0.043000
1517781407901978245	500 59 0.900000 0.116000 0.105000 1800 48 1.200000 3.173000 3.864000 600 62 1.000000 0.055000 0.055000 1.200000 0.041000 0.049000
1517781408446100745	500 59 0.900000 0.114000 0.103000 1800 48 1.200000 3.030000 3.690000 600 65 1.000000 0.055000 0.055000 1.200000 0.047000 0.056000
1517781408961001870	500 60 0.900000 0.115000 0.104000 1800 48 1.200000 3.835000 4.678000 600 66 1.000000 0.055000 0.055000 1.200000 0.047000 0.056000
1517781409471836162	500 60 0.900000 0.136000 0.123000 1800 48 1.200000 3.660000 4.468000 600 67 1.000000 0.054000 0.054000 1.200000 0.042000 0.050000
1517781410001910120	500 60 0.900000 0.134000 0.122000 1800 48 1.200000 3.160000 3.848000 600 67 1.000000 0.055000 0.055000 1.200000 0.038000 0.045000
1517781410527246287	500 60 0.900000 0.118000 0.107000 1800 49 1.200000 3.371000 4.105000 600 68 1.000000 0.055000 0.055000 1.200000 0.038000 0.045000
1517781411033414454	500 55 0.900000 0.112000 0.102000 1800 48 1.200000 3.306000 4.026000 600 64 1.000000 0.055000 0.055000 1.200000 0.047000 0.056000
1517781411541418329	500 55 0.900000 0.111000 0.101000 1800 48 1.200000 3.416000 4.167000 600 63 1.000000 0.054000 0.054000 1.200000 0.047000 0.056000
1517781412063387037	500 58 0.900000 0.138000 0.125000 1800 48 1.200000 3.759000 4.589000 600 66 1.000000 0.054000 0.054000 1.200000 0.046000 0.055000
1517781412588757954	500 60 0.900000 0.134000 0.122000 1800 49 1.200000 3.784000 4.620000 600 67 1.000000 0.055000 0.055000 1.200000 0.043000 0.051000
1517781413137063704	500 61 0.900000 0.120000 0.109000 1800 49 1.200000 3.720000 4.542000 600 67 1.000000 0.055000 0.055000 1.200000 0.042000 0.050000
1517781413684421371	500 60 0.900000 0.111000 0.101000 1800 49 1.200000 3.273000 3.993000 600 67 1.000000 0.055000 0.055000 1.200000 0.039000 0.047000
1517781414233034912	500 61 0.900000 0.115000 0.104000 1800 49 1.200000 3.136000 3.819000 600 67 1.000000 0.055000 0.055000 1.200000 0.037000 0.044000
1517781414788943246	500 60 0.900000 0.137000 0.124000 1800 49 1.200000 3.195000 3.891000 600 67 1.000000 0.055000 0.055000 1.200000 0.042000 0.050000
1517781415295197704	500 61 0.900000 0.115000 0.104000 1800 49 1.200000 3.067000 3.735000 600 66 1.000000 0.055000 0.055000 1.200000 0.045000 0.054000
1517781415801475371	500 56 0.900000 0.115000 0.104000 1800 49 1.200000 3.161000 3.850000 600 63 1.000000 0.055000 0.055000 1.200000 0.046000 0.055000
1517781416311353704	500 59 0.900000 0.115000 0.104000 1800 49 1.200000 3.715000 4.536000 600 64 1.000000 0.055000 0.055000 1.200000 0.046000 0.055000
1517781416866364454	500 59 0.900000 0.113000 0.103000 1800 49 1.200000 3.971000 4.844000 600 66 1.000000 0.055000 0.055000 1.200000 0.045000 0.054000
1517781417415284538	500 60 0.900000 0.133000 0.121000 1800 49 1.200000 3.594000 4.388000 600 67 1.000000 0.055000 0.055000 1.200000 0.046000 0.055000
1517781417960854621	500 61 0.900000 0.134000 0.122000 1800 50 1.200000 3.714000 4.531000 600 67 1.000000 0.055000 0.055000 1.200000 0.037000 0.044000
1517781418498677788	500 61 0.900000 0.122000 0.111000 1800 50 1.200000 3.226000 3.929000 600 68 1.000000 0.055000 0.055000 1.200000 0.037000 0.044000
1517781419040824871	500 61 0.900000 0.119000 0.108000 1800 50 1.200000 3.357000 4.088000 600 68 1.000000 0.055000 0.055000 1.200000 0.039000 0.047000
1517781419547084288	500 57 0.900000 0.113000 0.103000 1800 50 1.200000 3.291000 4.008000 600 68 1.000000 0.055000 0.055000 1.200000 0.045000 0.054000
1517781420059131080	500 60 0.900000 0.117000 0.106000 1800 50 1.200000 3.266000 3.977000 600 64 1.000000 0.055000 0.055000 1.200000 0.045000 0.054000
1517781420611286621	500 61 0.900000 0.138000 0.125000 1800 50 1.200000 3.754000 4.583000 600 66 1.000000 0.055000 0.055000 1.200000 0.047000 0.056000
1517781421169269496	500 59 0.900000 0.117000 0.106000 1800 49 1.200000 3.878000 4.735000 600 66 1.000000 0.055000 0.055000 1.200000 0.047000 0.056000
1517781421707830372	500 61 0.900000 0.119000 0.108000 1800 50 1.200000 3.910000 4.778000 600 68 1.000000 0.055000 0.055000 1.200000 0.040000 0.048000
1517781422243306955	500 61 0.900000 0.119000 0.108000 1800 50 1.200000 3.740000 4.562000 600 68 1.000000 0.055000 0.055000 1.200000 0.046000 0.055000
1517781422749426997	500 61 0.900000 0.114000 0.103000 1800 50 1.200000 3.743000 4.570000 600 69 1.000000 0.055000 0.055000 1.200000 0.047000 0.056000
1517781423257097538	500 58 0.900000 0.116000 0.105000 1800 49 1.200000 3.166000 3.856000 600 65 1.000000 0.055000 0.055000 1.200000 0.044000 0.053000
1517781423767157538	500 60 0.900000 0.116000 0.105000 1800 50 1.200000 3.827000 4.672000 600 68 1.000000 0.055000 0.055000 1.200000 0.046000 0.055000
1517781424273112622	500 61 0.900000 0.133000 0.121000 1800 50 1.200000 3.626000 4.427000 600 68 1.000000 0.055000 0.055000 1.200000 0.044000 0.053000
1517781424795821039	500 61 0.900000 0.132000 0.120000 1800 50 1.200000 3.133000 3.815000 600 68 1.000000 0.055000 0.055000 1.200000 0.036000 0.043000
1517781425313420789	500 61 0.900000 0.118000 0.107000 1800 50 1.200000 3.288000 4.014000 600 69 1.000000 0.055000 0.055000 1.200000 0.040000 0.048000
1517781425844515872	500 62 0.900000 0.116000 0.105000 1800 50 1.200000 3.864000 4.717000 600 69 1.000000 0.055000 0.055000 1.200000 0.049000 0.059000
1517781426350565080	500 61 0.900000 0.117000 0.106000 1800 50 1.200000 3.403000 4.144000 600 65 1.000000 0.055000 0.055000 1.200000 0.048000 0.057000
1517781426857016081	500 56 0.900000 0.115000 0.104000 1800 50 1.200000 3.189000 3.884000 600 64 1.000000 0.055000 0.055000 1.200000 0.045000 0.054000
1517781427367748872	500 60 0.900000 0.108000 0.098000 1800 50 1.200000 3.077000 3.744000 600 65 1.000000 0.055000 0.055000 1.200000 0.045000 0.054000
1517781427927194539	500 60 0.900000 0.118000 0.107000 1800 50 1.200000 3.245000 3.949000 600 67 1.000000 0.055000 0.055000 1.200000 0.040000 0.048000
1517781428481819414	500 60 0.900000 0.127000 0.115000 1800 50 1.200000 3.139000 3.823000 600 67 1.000000 0.055000 0.055000 1.200000 0.036000 0.043000
1517781429028371414	500 61 0.900000 0.139000 0.126000 1800 50 1.200000 3.945000 4.812000 600 68 1.000000 0.055000 0.055000 1.200000 0.038000 0.045000
1517781429584776289	500 61 0.900000 0.138000 0.125000 1800 50 1.200000 3.839000 4.687000 600 68 1.000000 0.055000 0.055000 1.200000 0.041000 0.049000
1517781430130546664	500 62 0.900000 0.116000 0.105000 1800 50 1.200000 3.580000 4.371000 600 69 1.000000 0.055000 0.055000 1.200000 0.044000 0.053000
1517781430636680289	500 61 0.900000 0.113000 0.103000 1800 50 1.200000 3.683000 4.493000 600 68 1.000000 0.055000 0.055000 1.200000 0.049000 0.059000
1517781431142957289	500 61 0.900000 0.101000 0.092000 1800 50 1.200000 3.334000 4.060000 600 66 1.000000 0.055000 0.055000 1.200000 0.046000 0.055000
1517781431648919831	500 61 0.900000 0.109000 0.099000 1800 50 1.200000 3.134000 3.814000 600 64 1.000000 0.055000 0.055000 1.200000 0.047000 0.056000
1517781432157238164	500 60 0.900000 0.137000 0.124000 1800 50 1.200000 3.271000 3.984000 600 66 1.000000 0.055000 0.055000 1.200000 0.042000 0.050000
1517781432698848165	500 62 0.900000 0.135000 0.122000 1800 50 1.200000 3.309000 4.030000 600 68 1.000000 0.055000 0.055000 1.200000 0.038000 0.045000
1517781433238452123	500 62 0.900000 0.119000 0.108000 1800 51 1.200000 3.508000 4.272000 600 69 1.000000 0.055000 0.055000 1.200000 0.036000 0.043000
1517781433785060415	500 62 0.900000 0.122000 0.111000 1800 51 1.200000 3.783000 4.622000 600 69 1.000000 0.055000 0.055000 1.200000 0.036000 0.043000
1517781434334472873	500 62 0.900000 0.139000 0.126000 1800 51 1.200000 3.750000 4.578000 600 69 1.000000 0.055000 0.055000 1.200000 0.040000 0.048000
1517781434880991123	500 62 0.900000 0.139000 0.126000 1800 51 1.200000 3.842000 4.694000 600 69 1.000000 0.055000 0.055000 1.200000 0.048000 0.057000
1517781435387415248	500 62 0.900000 0.116000 0.105000 1800 51 1.200000 3.422000 4.167000 600 66 1.000000 0.055000 0.055000 1.200000 0.045000 0.054000
1517781435893957332	500 57 0.900000 0.114000 0.103000 1800 51 1.200000 3.208000 3.907000 600 68 1.000000 0.055000 0.055000 1.200000 0.048000 0.057000
1517781436401612373	500 60 0.900000 0.120000 0.109000 1800 50 1.200000 3.190000 3.885000 600 69 1.000000 0.055000 0.055000 1.200000 0.043000 0.051000
1517781436951539582	500 61 0.900000 0.119000 0.108000 1800 50 1.200000 3.226000 3.929000 600 70 1.000000 0.055000 0.055000 1.200000 0.039000 0.047000
1517781437482505207	500 62 0.900000 0.137000 0.124000 1800 51 1.200000 3.403000 4.144000 600 69 1.000000 0.055000 0.055000 1.200000 0.035000 0.042000
1517781438007784457	500 62 0.900000 0.136000 0.123000 1800 51 1.200000 3.686000 4.500000 600 70 1.000000 0.055000 0.055000 1.200000 0.037000 0.044000
1517781438524121207	500 62 0.900000 0.112000 0.102000 1800 51 1.200000 3.810000 4.652000 600 70 1.000000 0.055000 0.055000 1.200000 0.049000 0.059000
1517781439030512707	500 62 0.900000 0.116000 0.105000 1800 51 1.200000 3.263000 3.974000 600 68 1.000000 0.055000 0.055000 1.200000 0.047000 0.056000
1517781439541004457	500 59 0.900000 0.116000 0.105000 1800 50 1.200000 3.178000 3.870000 600 66 1.000000 0.055000 0.055000 1.200000 0.042000 0.050000
1517781440096778999	500 60 0.900000 0.119000 0.108000 1800 51 1.200000 3.146000 3.838000 600 68 1.000000 0.055000 0.055000 1.200000 0.036000 0.043000
1517781440643280374	500 61 0.900000 0.128000 0.116000 1800 51 1.200000 3.690000 4.505000 600 69 1.000000 0.055000 0.055000 1.200000 0.043000 0.051000
1517781441151546082	500 62 0.900000 0.132000 0.120000 1800 51 1.200000 3.240000 3.943000 600 70 1.000000 0.055000 0.055000 1.200000 0.046000 0.055000
1517781441661218457	500 57 0.900000 0.116000 0.105000 1800 51 1.200000 3.233000 3.937000 600 65 1.000000 0.055000 0.055000 1.200000 0.044000 0.053000
1517781442196382041	500 62 0.900000 0.117000 0.106000 1800 51 1.200000 3.175000 3.863000 600 68 1.000000 0.055000 0.055000 1.200000 0.035000 0.042000
1517781442726852291	500 62 0.900000 0.142000 0.129000 1800 51 1.200000 3.875000 4.731000 600 69 1.000000 0.055000 0.055000 1.200000 0.035000 0.042000
1517781443263593666	500 62 0.900000 0.134000 0.122000 1800 51 1.200000 3.658000 4.466000 600 69 1.000000 0.055000 0.055000 1.200000 0.044000 0.053000
1517781443805142083	500 62 0.900000 0.113000 0.103000 1800 51 1.200000 3.621000 4.410000 600 70 1.000000 0.055000 0.055000 1.200000 0.038000 0.045000
1517781444315272749	500 62 0.900000 0.115000 0.104000 1800 51 1.200000 3.281000 3.996000 600 69 1.000000 0.055000 0.055000 1.200000 0.038000 0.045000
1517781444831476458	500 63 0.900000 0.112000 0.102000 1800 51 1.200000 3.207000 3.906000 600 70 1.000000 0.055000 0.055000 1.200000 0.039000 0.047000
1517781445337447124	500 59 0.900000 0.126000 0.114000 1800 51 1.200000 3.264000 3.975000 600 70 1.000000 0.055000 0.055000 1.200000 0.041000 0.049000
1517781445848014374	500 61 0.900000 0.111000 0.101000 1800 51 1.200000 3.068000 3.733000 600 65 1.000000 0.055000 0.055000 1.200000 0.047000 0.056000
1517781446355509624	500 62 0.900000 0.112000 0.102000 1800 51 1.200000 3.741000 4.567000 600 68 1.000000 0.055000 0.055000 1.200000 0.045000 0.054000
1517781446891904958	500 62 0.900000 0.112000 0.102000 1800 51 1.200000 3.907000 4.770000 600 69 1.000000 0.055000 0.055000 1.200000 0.047000 0.056000
1517781447439306958	500 62 0.900000 0.139000 0.126000 1800 51 1.200000 3.655000 4.462000 600 69 1.000000 0.055000 0.055000 1.200000 0.044000 0.053000
1517781447984656083	500 63 0.900000 0.137000 0.124000 1800 51 1.200000 3.593000 4.383000 600 69 1.000000 0.055000 0.055000 1.200000 0.040000 0.048000
1517781448532907083	500 63 0.900000 0.127000 0.115000 1800 51 1.200000 3.255000 3.964000 600 70 1.000000 0.055000 0.055000 1.200000 0.038000 0.045000
1517781449080355041	500 63 0.900000 0.114000 0.103000 1800 51 1.200000 3.365000 4.098000 600 70 1.000000 0.055000 0.055000 1.200000 0.039000 0.047000
1517781449586609500	500 59 0.900000 0.115000 0.104000 1800 51 1.200000 3.372000 4.107000 600 70 1.000000 0.055000 0.055000 1.200000 0.041000 0.049000
1517781450092989125	500 58 0.900000 0.112000 0.102000 1800 51 1.200000 3.174000 3.865000 600 66 1.000000 0.055000 0.055000 1.200000 0.046000 0.055000
1517781450603321833	500 62 0.900000 0.139000 0.126000 1800 51 1.200000 3.735000 4.556000 600 67 1.000000 0.055000 0.055000 1.200000 0.049000 0.059000
1517781451149737958	500 62 0.900000 0.135000 0.122000 1800 51 1.200000 3.835000 4.682000 600 70 1.000000 0.055000 0.055000 1.200000 0.046000 0.055000
1517781451696915292	500 62 0.900000 0.130000 0.118000 1800 51 1.200000 3.841000 4.689000 600 70 1.000000 0.055000 0.055000 1.200000 0.047000 0.056000
1517781452241323250	500 63 0.900000 0.118000 0.107000 1800 51 1.200000 3.663000 4.468000 600 70 1.000000 0.055000 0.055000 1.200000 0.039000 0.047000
1517781452789193084	500 63 0.900000 0.138000 0.125000 1800 52 1.200000 3.114000 3.792000 600 70 1.000000 0.055000 0.055000 1.200000 0.037000 0.044000
1517781453333779417	500 63 0.900000 0.136000 0.123000 1800 52 1.200000 3.119000 3.798000 600 70 1.000000 0.055000 0.055000 1.200000 0.037000 0.044000
1517781453839962250	500 59 0.900000 0.115000 0.104000 1800 52 1.200000 3.188000 3.879000 600 70 1.000000 0.055000 0.055000 1.200000 0.042000 0.050000
1517781454350598000	500 62 0.900000 0.117000 0.106000 1800 51 1.200000 3.169000 3.859000 600 66 1.000000 0.055000 0.055000 1.200000 0.047000 0.056000
1517781454892781751	500 62 0.900000 0.119000 0.108000 1800 51 1.200000 3.715000 4.536000 600 69 1.000000 0.055000 0.055000 1.200000 0.049000 0.059000
1517781455405592542	500 63 0.900000 0.132000 0.120000 1800 51 1.200000 3.926000 4.789000 600 70 1.000000 0.055000 0.055000 1.200000 0.050000 0.060000
1517781455913464834	500 63 0.900000 0.137000 0.124000 1800 52 1.200000 3.248000 3.956000 600 71 1.000000 0.055000 0.055000 1.200000 0.039000 0.047000
1517781456420325167	500 61 0.900000 0.121000 0.110000 1800 52 1.200000 3.339000 4.066000 600 70 1.000000 0.055000 0.055000 1.200000 0.037000 0.044000
1517781456926590917	500 61 0.900000 0.119000 0.108000 1800 52 1.200000 3.200000 3.891000 600 69 1.000000 0.055000 0.055000 1.200000 0.047000 0.056000
1517781457436297751	500 62 0.900000 0.138000 0.125000 1800 52 1.200000 3.712000 4.532000 600 66 1.000000 0.055000 0.055000 1.200000 0.047000 0.056000
1517781457957528584	500 62 0.900000 0.140000 0.127000 1800 51 1.200000 3.787000 4.623000 600 71 1.000000 0.055000 0.055000 1.200000 0.046000 0.055000
1517781458467367543	500 63 0.900000 0.116000 0.105000 1800 52 1.200000 3.311000 4.032000 600 71 1.000000 0.055000 0.055000 1.200000 0.037000 0.044000
1517781458993868584	500 63 0.900000 0.138000 0.125000 1800 52 1.200000 3.085000 3.757000 600 71 1.000000 0.055000 0.055000 1.200000 0.040000 0.048000
1517781459547189001	500 63 0.900000 0.124000 0.113000 1800 52 1.200000 3.121000 3.798000 600 70 1.000000 0.055000 0.055000 1.200000 0.046000 0.055000
1517781460095281084	500 63 0.900000 0.114000 0.103000 1800 52 1.200000 3.431000 4.185000 600 70 1.000000 0.055000 0.055000 1.200000 0.048000 0.057000
1517781460601709793	500 62 0.900000 0.113000 0.103000 1800 52 1.200000 3.760000 4.587000 600 71 1.000000 0.055000 0.055000 1.200000 0.047000 0.056000
1517781461108074501	500 60 0.900000 0.107000 0.097000 1800 52 1.200000 3.874000 4.718000 600 68 1.000000 0.055000 0.055000 1.200000 0.050000 0.060000
1517781461614760376	500 62 0.900000 0.125000 0.114000 1800 52 1.200000 3.356000 4.084000 600 66 1.000000 0.055000 0.055000 1.200000 0.045000 0.054000
1517781462124312418	500 58 0.900000 0.139000 0.126000 1800 52 1.200000 3.171000 3.859000 600 66 1.000000 0.055000 0.055000 1.200000 0.041000 0.049000
1517781462632212501	500 61 0.900000 0.135000 0.122000 1800 52 1.200000 3.084000 3.753000 600 68 1.000000 0.055000 0.055000 1.200000 0.036000 0.043000
1517781463167341626	500 62 0.900000 0.133000 0.121000 1800 52 1.200000 3.485000 4.251000 600 68 1.000000 0.055000 0.055000 1.200000 0.035000 0.042000
1517781463675045418	500 64 0.900000 0.112000 0.102000 1800 52 1.200000 3.856000 4.708000 600 70 1.000000 0.055000 0.055000 1.200000 0.035000 0.042000
1517781464208820002	500 64 0.900000 0.119000 0.108000 1800 52 1.200000 3.749000 4.581000 600 71 1.000000 0.055000 0.055000 1.200000 0.038000 0.045000
1517781464760950293	500 62 0.900000 0.135000 0.122000 1800 52 1.200000 3.768000 4.600000 600 71 1.000000 0.055000 0.055000 1.200000 0.046000 0.055000
1517781465305153627	500 64 0.900000 0.117000 0.106000 1800 52 1.200000 3.405000 4.147000 600 71 1.000000 0.055000 0.055000 1.200000 0.048000 0.057000
1517781465854877793	500 63 0.900000 0.114000 0.103000 1800 52 1.200000 3.248000 3.956000 600 71 1.000000 0.055000 0.055000 1.200000 0.045000 0.054000
1517781466361158710	500 63 0.900000 0.111000 0.101000 1800 52 1.200000 3.324000 4.045000 600 68 1.000000 0.055000 0.055000 1.200000 0.044000 0.053000
1517781466868328669	500 59 0.900000 0.119000 0.108000 1800 52 1.200000 3.248000 3.956000 600 66 1.000000 0.055000 0.055000 1.200000 0.037000 0.044000
1517781467375232794	500 61 0.900000 0.135000 0.122000 1800 52 1.200000 3.333000 4.066000 600 68 1.000000 0.055000 0.055000 1.200000 0.035000 0.042000
1517781467926075752	500 64 0.900000 0.134000 0.122000 1800 52 1.200000 3.706000 4.528000 600 70 1.000000 0.055000 0.055000 1.200000 0.036000 0.043000
1517781468474884502	500 63 0.900000 0.123000 0.112000 1800 52 1.200000 3.745000 4.572000 600 70 1.000000 0.055000 0.055000 1.200000 0.038000 0.045000
1517781469010898961	500 64 0.900000 0.117000 0.106000 1800 52 1.200000 3.961000 4.840000 600 71 1.000000 0.055000 0.055000 1.200000 0.047000 0.056000
1517781469556199294	500 64 0.900000 0.114000 0.103000 1800 52 1.200000 3.329000 4.054000 600 71 1.000000 0.055000 0.055000 1.200000 0.047000 0.056000
1517781470078805127	500 64 0.900000 0.122000 0.111000 1800 52 1.200000 3.263000 3.974000 600 72 1.000000 0.055000 0.055000 1.200000 0.047000 0.056000
1517781470584937086	500 63 0.900000 0.128000 0.116000 1800 52 1.200000 3.240000 3.943000 600 67 1.000000 0.055000 0.055000 1.200000 0.040000 0.048000
1517781471137581877	500 62 0.900000 0.115000 0.104000 1800 52 1.200000 3.141000 3.832000 600 69 1.000000 0.055000 0.055000 1.200000 0.036000 0.043000
1517781471645418419	500 64 0.900000 0.130000 0.118000 1800 52 1.200000 3.949000 4.825000 600 71 1.000000 0.055000 0.055000 1.200000 0.038000 0.045000
1517781472151475794	500 62 0.900000 0.139000 0.126000 1800 52 1.200000 3.435000 4.190000 600 70 1.000000 0.055000 0.055000 1.200000 0.044000 0.053000
1517781472679366086	500 64 0.900000 0.115000 0.104000 1800 52 1.200000 3.251000 3.966000 600 71 1.000000 0.055000 0.055000 1.200000 0.045000 0.054000
1517781473186596544	500 62 0.900000 0.122000 0.111000 1800 52 1.200000 3.199000 3.893000 600 68 1.000000 0.055000 0.055000 1.200000 0.036000 0.043000
1517781473739253253	500 63 0.900000 0.138000 0.125000 1800 52 1.200000 3.844000 4.693000 600 69 1.000000 0.055000 0.055000 1.200000 0.040000 0.048000
1517781474245347711	500 64 0.900000 0.115000 0.104000 1800 52 1.200000 3.040000 3.702000 600 71 1.000000 0.055000 0.055000 1.200000 0.046000 0.055000
1517781474790005711	500 63 0.900000 0.117000 0.106000 1800 52 1.200000 3.360000 4.089000 600 70 1.000000 0.055000 0.055000 1.200000 0.044000 0.053000
1517781475299227295	500 61 0.900000 0.137000 0.124000 1800 52 1.200000 3.350000 4.080000 600 71 1.000000 0.055000 0.055000 1.200000 0.035000 0.042000
1517781475811079336	500 63 0.900000 0.117000 0.106000 1800 52 1.200000 3.682000 4.495000 600 71 1.000000 0.055000 0.055000 1.200000 0.041000 0.049000
1517781476332416211	500 63 0.900000 0.114000 0.103000 1800 52 1.200000 3.558000 4.333000 600 71 1.000000 0.055000 0.055000 1.200000 0.044000 0.053000
1517781476869751711	500 63 0.900000 0.114000 0.103000 1800 52 1.200000 2.998000 3.651000 600 71 1.000000 0.055000 0.055000 1.200000 0.043000 0.051000
1517781477401077170	500 64 0.900000 0.113000 0.103000 1800 52 1.200000 3.211000 3.910000 600 71 1.000000 0.055000 0.055000 1.200000 0.044000 0.053000
1517781477926478045	500 64 0.900000 0.122000 0.111000 1800 52 1.200000 3.046000 3.710000 600 72 1.000000 0.055000 0.055000 1.200000 0.035000 0.042000
1517781478432752795	500 60 0.900000 0.116000 0.105000 1800 52 1.200000 3.680000 4.493000 600 71 1.000000 0.055000 0.055000 1.200000 0.035000 0.042000
1517781478939883378	500 59 0.900000 0.132000 0.120000 1800 52 1.200000 3.877000 4.733000 600 70 1.000000 0.055000 0.055000 1.200000 0.039000 0.047000
1517781479471509837	500 62 0.900000 0.115000 0.104000 1800 52 1.200000 3.080000 3.748000 600 69 1.000000 0.055000 0.055000 1.200000 0.045000 0.054000
1517781479977469045	500 63 0.900000 0.119000 0.108000 1800 52 1.200000 3.154000 3.841000 600 71 1.000000 0.055000 0.055000 1.200000 0.037000 0.044000
1517781480508135920	500 64 0.900000 0.126000 0.114000 1800 52 1.200000 3.845000 4.690000 600 71 1.000000 0.055000 0.055000 1.200000 0.037000 0.044000
1517781481052262962	500 63 0.900000 0.139000 0.126000 1800 52 1.200000 3.994000 4.876000 600 71 1.000000 0.055000 0.055000 1.200000 0.039000 0.047000
1517781481593178337	500 64 0.900000 0.133000 0.121000 1800 53 1.200000 3.908000 4.771000 600 71 1.000000 0.055000 0.055000 1.200000 0.045000 0.054000
1517781482130417087	500 64 0.900000 0.135000 0.122000 1800 53 1.200000 3.660000 4.468000 600 72 1.000000 0.055000 0.055000 1.200000 0.048000 0.057000
1517781482636604587	500 60 0.900000 0.137000 0.124000 1800 53 1.200000 3.741000 4.567000 600 68 1.000000 0.055000 0.055000 1.200000 0.044000 0.053000
1517781483146795671	500 63 0.900000 0.113000 0.103000 1800 53 1.200000 3.265000 3.976000 600 67 1.000000 0.055000 0.055000 1.200000 0.036000 0.043000
1517781483710613879	500 63 0.900000 0.110000 0.100000 1800 52 1.200000 3.285000 4.001000 600 70 1.000000 0.055000 0.055000 1.200000 0.044000 0.053000
1517781484259651212	500 63 0.900000 0.136000 0.123000 1800 53 1.200000 3.064000 3.731000 600 70 1.000000 0.055000 0.055000 1.200000 0.035000 0.042000
1517781484803234296	500 63 0.900000 0.129000 0.117000 1800 52 1.200000 3.297000 4.015000 600 71 1.000000 0.055000 0.055000 1.200000 0.036000 0.043000
1517781485355208712	500 62 0.900000 0.113000 0.103000 1800 53 1.200000 3.198000 3.895000 600 70 1.000000 0.055000 0.055000 1.200000 0.042000 0.050000
1517781485891296671	500 65 0.900000 0.117000 0.106000 1800 53 1.200000 3.134000 3.817000 600 72 1.000000 0.055000 0.055000 1.200000 0.046000 0.055000
1517781486397385588	500 64 0.900000 0.112000 0.102000 1800 53 1.200000 3.727000 4.550000 600 68 1.000000 0.055000 0.055000 1.200000 0.049000 0.059000
1517781486904538588	500 61 0.900000 0.139000 0.126000 1800 52 1.200000 3.726000 4.549000 600 68 1.000000 0.055000 0.055000 1.200000 0.044000 0.053000
1517781487441487004	500 63 0.900000 0.135000 0.122000 1800 52 1.200000 3.711000 4.527000 600 70 1.000000 0.055000 0.055000 1.200000 0.043000 0.051000
1517781487956497796	500 64 0.900000 0.119000 0.108000 1800 53 1.200000 3.066000 3.734000 600 71 1.000000 0.055000 0.055000 1.200000 0.036000 0.043000
1517781488465921046	500 64 0.900000 0.114000 0.103000 1800 53 1.200000 3.223000 3.922000 600 72 1.000000 0.055000 0.055000 1.200000 0.039000 0.047000
1517781489003271338	500 63 0.900000 0.131000 0.119000 1800 53 1.200000 3.642000 4.435000 600 70 1.000000 0.055000 0.055000 1.200000 0.047000 0.056000
1517781489510937671	500 62 0.900000 0.128000 0.116000 1800 53 1.200000 3.762000 4.593000 600 67 1.000000 0.055000 0.055000 1.200000 0.047000 0.056000
1517781490019734255	500 63 0.900000 0.125000 0.114000 1800 52 1.200000 3.288000 4.001000 600 71 1.000000 0.055000 0.055000 1.200000 0.039000 0.047000
1517781490567306630	500 63 0.900000 0.116000 0.105000 1800 53 1.200000 3.805000 4.645000 600 71 1.000000 0.055000 0.055000 1.200000 0.045000 0.054000
1517781491082460588	500 64 0.900000 0.117000 0.106000 1800 53 1.200000 3.355000 4.096000 600 72 1.000000 0.055000 0.055000 1.200000 0.045000 0.054000
1517781491588974505	500 61 0.900000 0.138000 0.125000 1800 53 1.200000 3.319000 4.042000 600 68 1.000000 0.055000 0.055000 1.200000 0.038000 0.045000
1517781492095337797	500 64 0.900000 0.115000 0.104000 1800 53 1.200000 3.158000 3.843000 600 69 1.000000 0.055000 0.055000 1.200000 0.043000 0.051000
1517781492606563047	500 64 0.900000 0.119000 0.108000 1800 53 1.200000 3.855000 4.706000 600 71 1.000000 0.055000 0.055000 1.200000 0.047000 0.056000
1517781493141965422	500 64 0.900000 0.137000 0.124000 1800 53 1.200000 3.734000 4.559000 600 71 1.000000 0.055000 0.055000 1.200000 0.045000 0.054000
1517781493679249047	500 64 0.900000 0.134000 0.122000 1800 53 1.200000 3.245000 3.958000 600 72 1.000000 0.055000 0.055000 1.200000 0.043000 0.051000
1517781494213807755	500 64 0.900000 0.119000 0.108000 1800 53 1.200000 3.167000 3.857000 600 72 1.000000 0.055000 0.055000 1.200000 0.037000 0.044000
1517781494746947755	500 64 0.900000 0.123000 0.112000 1800 53 1.200000 3.126000 3.807000 600 71 1.000000 0.055000 0.055000 1.200000 0.039000 0.047000
1517781495253189130	500 60 0.900000 0.120000 0.109000 1800 53 1.200000 3.246000 3.950000 600 67 1.000000 0.055000 0.055000 1.200000 0.045000 0.054000
1517781495760561505	500 63 0.900000 0.130000 0.118000 1800 53 1.200000 3.797000 4.636000 600 69 1.000000 0.055000 0.055000 1.200000 0.047000 0.056000
1517781496284555089	500 64 0.900000 0.120000 0.109000 1800 53 1.200000 3.707000 4.526000 600 71 1.000000 0.055000 0.055000 1.200000 0.046000 0.055000
1517781496823226881	500 63 0.900000 0.116000 0.105000 1800 53 1.200000 3.594000 4.377000 600 71 1.000000 0.055000 0.055000 1.200000 0.043000 0.051000
1517781497353863506	500 64 0.900000 0.132000 0.120000 1800 53 1.200000 3.425000 4.171000 600 72 1.000000 0.055000 0.055000 1.200000 0.036000 0.043000
1517781497892196589	500 64 0.900000 0.138000 0.125000 1800 53 1.200000 3.800000 4.643000 600 71 1.000000 0.055000 0.055000 1.200000 0.038000 0.045000
1517781498428486672	500 64 0.900000 0.118000 0.107000 1800 53 1.200000 3.628000 4.429000 600 72 1.000000 0.055000 0.055000 1.200000 0.044000 0.053000
1517781498934769464	500 61 0.900000 0.113000 0.103000 1800 53 1.200000 3.504000 4.274000 600 69 1.000000 0.055000 0.055000 1.200000 0.044000 0.053000
1517781499441030964	500 62 0.900000 0.118000 0.107000 1800 53 1.200000 3.267000 3.975000 600 66 1.000000 0.055000 0.055000 1.200000 0.046000 0.055000
1517781499946534964	500 52 0.900000 0.027000 0.024000 1800 50 1.200000 2.079000 2.519000 600 57 1.000000 0.055000 0.055000 1.200000 0.032000 0.038000
