#Timestamp	CPU(0) Frequency(MHz)	CPU(0) Temperature(C)	A7 Voltage(V)	A7 Current(A)	A7 Power(W)	CPU(4) Frequency(MHz)	CPU(4) Temperature(C)	A15 Voltage(V)	A15 Current(A)	A15 Power(W)	GPU Frequency(MHz)	GPU Temperature(C)	GPU Voltage(V)	GPU Current(A)	GPU Power(W)	RAM Voltage(V)	RAM Current(A)	RAM Power(W)
1559634212247221298	700 46 0.900000 0.067000 0.064000 1200 42 1.000000 0.235000 0.243000 600 47 1.000000 0.053000 0.053000 1.200000 0.047000 0.056000
1559634212755088714	700 46 0.900000 0.050000 0.049000 1200 42 1.000000 0.766000 0.779000 600 47 1.000000 0.052000 0.052000 1.200000 0.051000 0.061000
1559634213262539964	700 46 0.900000 0.032000 0.031000 1200 42 1.000000 0.758000 0.770000 600 46 1.000000 0.052000 0.052000 1.200000 0.045000 0.054000
1559634213770260173	700 46 0.900000 0.031000 0.030000 1200 42 1.000000 0.720000 0.732000 600 46 1.000000 0.052000 0.052000 1.200000 0.027000 0.032000
1559634214277757173	700 45 0.900000 0.039000 0.038000 1200 41 1.000000 0.757000 0.769000 600 46 1.000000 0.052000 0.052000 1.200000 0.029000 0.035000
1559634214785070506	700 45 0.900000 0.031000 0.030000 1200 41 1.000000 0.733000 0.745000 600 45 1.000000 0.052000 0.052000 1.200000 0.030000 0.036000
1559634215292451006	700 45 0.900000 0.032000 0.031000 1200 41 1.000000 0.719000 0.731000 600 45 1.000000 0.052000 0.052000 1.200000 0.028000 0.033000
1559634215799777840	700 45 0.900000 0.031000 0.030000 1200 41 1.000000 0.733000 0.745000 600 45 1.000000 0.052000 0.052000 1.200000 0.029000 0.035000
1559634216307158340	700 44 0.900000 0.049000 0.048000 1200 40 1.000000 0.756000 0.768000 600 44 1.000000 0.052000 0.052000 1.200000 0.037000 0.044000
1559634216814634507	700 44 0.900000 0.048000 0.047000 1200 40 1.000000 0.723000 0.735000 600 44 1.000000 0.052000 0.052000 1.200000 0.032000 0.038000
1559634217322051882	700 44 0.900000 0.030000 0.029000 1200 40 1.000000 0.724000 0.736000 600 44 1.000000 0.052000 0.052000 1.200000 0.028000 0.033000
1559634217829323632	700 44 0.900000 0.031000 0.030000 1200 40 1.000000 0.723000 0.735000 600 44 1.000000 0.052000 0.052000 1.200000 0.028000 0.033000
1559634218336482132	700 44 0.900000 0.051000 0.050000 1200 40 1.000000 0.729000 0.741000 600 44 1.000000 0.052000 0.052000 1.200000 0.032000 0.038000
1559634218843665298	700 44 0.900000 0.033000 0.032000 1200 40 1.000000 0.722000 0.734000 600 43 1.000000 0.052000 0.052000 1.200000 0.033000 0.039000
1559634219351016507	700 43 0.900000 0.031000 0.030000 1200 39 1.000000 0.714000 0.726000 600 43 1.000000 0.051000 0.051000 1.200000 0.027000 0.032000
1559634219858389924	700 43 0.900000 0.031000 0.030000 1200 39 1.000000 0.714000 0.726000 600 43 1.000000 0.051000 0.051000 1.200000 0.028000 0.033000
1559634220370359590	700 43 0.900000 0.030000 0.029000 1200 39 1.000000 0.715000 0.727000 600 43 1.000000 0.051000 0.051000 1.200000 0.028000 0.033000
1559634220879913424	700 43 0.900000 0.037000 0.036000 1200 39 1.000000 0.720000 0.732000 600 43 1.000000 0.052000 0.052000 1.200000 0.034000 0.041000
1559634221387499549	700 43 0.900000 0.040000 0.039000 1200 39 1.000000 0.715000 0.727000 600 43 1.000000 0.052000 0.052000 1.200000 0.028000 0.033000
1559634221894799882	700 43 0.900000 0.031000 0.030000 1200 39 1.000000 0.726000 0.738000 600 43 1.000000 0.052000 0.052000 1.200000 0.029000 0.035000
1559634222401991466	700 43 0.900000 0.031000 0.030000 1200 38 1.000000 0.721000 0.733000 600 42 1.000000 0.052000 0.052000 1.200000 0.029000 0.035000
1559634222909414549	700 43 0.900000 0.063000 0.062000 1200 39 1.000000 0.776000 0.789000 600 43 1.000000 0.052000 0.052000 1.200000 0.047000 0.056000
1559634223416613549	700 43 0.900000 0.030000 0.029000 1200 38 1.000000 0.723000 0.735000 600 42 1.000000 0.051000 0.051000 1.200000 0.029000 0.035000
1559634223923943549	700 43 0.900000 0.030000 0.029000 1200 38 1.000000 0.718000 0.730000 600 42 1.000000 0.051000 0.051000 1.200000 0.028000 0.033000
1559634224431277716	700 42 0.900000 0.030000 0.029000 1200 38 1.000000 0.728000 0.740000 600 42 1.000000 0.051000 0.051000 1.200000 0.027000 0.032000
1559634224938700674	700 43 0.900000 0.030000 0.029000 1200 38 1.000000 0.745000 0.757000 600 42 1.000000 0.051000 0.051000 1.200000 0.040000 0.048000
1559634225446121591	700 42 0.900000 0.048000 0.047000 1200 38 1.000000 0.714000 0.726000 600 42 1.000000 0.051000 0.051000 1.200000 0.028000 0.033000
1559634225953363258	700 42 0.900000 0.030000 0.029000 1200 38 1.000000 0.712000 0.724000 600 42 1.000000 0.051000 0.051000 1.200000 0.028000 0.033000
1559634226460600091	700 42 0.900000 0.031000 0.030000 1200 38 1.000000 0.712000 0.724000 600 42 1.000000 0.051000 0.051000 1.200000 0.027000 0.032000
1559634226972109133	700 42 0.900000 0.030000 0.029000 1200 38 1.000000 0.713000 0.725000 600 42 1.000000 0.051000 0.051000 1.200000 0.032000 0.038000
1559634227480377008	700 42 0.900000 0.035000 0.034000 1200 38 1.000000 0.716000 0.728000 600 42 1.000000 0.051000 0.051000 1.200000 0.027000 0.032000
1559634227987888341	700 42 0.900000 0.031000 0.030000 1200 38 1.000000 0.730000 0.742000 600 42 1.000000 0.051000 0.051000 1.200000 0.027000 0.032000
1559634228495204175	700 42 0.900000 0.030000 0.029000 1200 38 1.000000 0.714000 0.726000 600 42 1.000000 0.051000 0.051000 1.200000 0.029000 0.035000
1559634229002444508	700 42 0.900000 0.031000 0.030000 1200 38 1.000000 0.723000 0.735000 600 42 1.000000 0.051000 0.051000 1.200000 0.028000 0.033000
1559634229509842425	700 42 0.900000 0.079000 0.077000 1200 38 1.000000 0.784000 0.797000 600 42 1.000000 0.051000 0.051000 1.200000 0.053000 0.064000
1559634230017094966	700 42 0.900000 0.031000 0.030000 1200 38 1.000000 0.723000 0.735000 600 42 1.000000 0.051000 0.051000 1.200000 0.027000 0.032000
1559634230524298467	700 42 0.900000 0.030000 0.029000 1200 38 1.000000 0.723000 0.735000 600 42 1.000000 0.051000 0.051000 1.200000 0.028000 0.033000
1559634231031612092	700 42 0.900000 0.030000 0.029000 1200 38 1.000000 0.709000 0.721000 600 42 1.000000 0.051000 0.051000 1.200000 0.029000 0.035000
1559634231538804508	700 42 0.900000 0.031000 0.030000 1200 38 1.000000 0.778000 0.791000 600 42 1.000000 0.051000 0.051000 1.200000 0.046000 0.055000
1559634232046083133	700 42 0.900000 0.030000 0.029000 1200 37 1.000000 0.714000 0.726000 600 41 1.000000 0.051000 0.051000 1.200000 0.027000 0.032000
1559634232553409425	700 42 0.900000 0.031000 0.030000 1200 37 1.000000 0.711000 0.723000 600 41 1.000000 0.051000 0.051000 1.200000 0.028000 0.033000
1559634233060598342	700 42 0.900000 0.030000 0.029000 1200 37 1.000000 0.709000 0.721000 600 41 1.000000 0.051000 0.051000 1.200000 0.028000 0.033000
1559634233569665009	700 41 0.900000 0.043000 0.042000 1200 37 1.000000 0.756000 0.768000 600 42 1.000000 0.051000 0.051000 1.200000 0.042000 0.050000
1559634234077474800	700 42 0.900000 0.030000 0.029000 1200 37 1.000000 0.712000 0.724000 600 41 1.000000 0.051000 0.051000 1.200000 0.028000 0.033000
1559634234585097009	700 41 0.900000 0.030000 0.029000 1200 37 1.000000 0.720000 0.732000 600 41 1.000000 0.051000 0.051000 1.200000 0.029000 0.035000
1559634235092249675	700 41 0.900000 0.030000 0.029000 1200 37 1.000000 0.726000 0.738000 600 41 1.000000 0.051000 0.051000 1.200000 0.028000 0.033000
1559634235599948717	700 41 0.900000 0.030000 0.029000 1200 37 1.000000 0.712000 0.724000 600 41 1.000000 0.051000 0.051000 1.200000 0.028000 0.033000
1559634236107324842	700 41 0.900000 0.060000 0.059000 1200 37 1.000000 0.791000 0.804000 600 41 1.000000 0.051000 0.051000 1.200000 0.043000 0.051000
1559634236614560259	700 41 0.900000 0.030000 0.029000 1200 37 1.000000 0.713000 0.725000 600 41 1.000000 0.051000 0.051000 1.200000 0.030000 0.036000
1559634237121850051	700 41 0.900000 0.030000 0.029000 1200 37 1.000000 0.712000 0.724000 600 41 1.000000 0.051000 0.051000 1.200000 0.028000 0.033000
1559634237629174134	700 41 0.900000 0.031000 0.030000 1200 37 1.000000 0.711000 0.723000 600 41 1.000000 0.051000 0.051000 1.200000 0.029000 0.035000
1559634238136481842	700 41 0.900000 0.045000 0.044000 1200 37 1.000000 0.774000 0.787000 600 41 1.000000 0.051000 0.051000 1.200000 0.033000 0.039000
1559634238643819468	700 41 0.900000 0.030000 0.029000 1200 37 1.000000 0.711000 0.723000 600 41 1.000000 0.051000 0.051000 1.200000 0.029000 0.035000
1559634239151050384	700 41 0.900000 0.030000 0.029000 1200 37 1.000000 0.714000 0.726000 600 41 1.000000 0.051000 0.051000 1.200000 0.028000 0.033000
1559634239658726884	700 41 0.900000 0.030000 0.029000 1200 37 1.000000 0.714000 0.726000 600 41 1.000000 0.051000 0.051000 1.200000 0.027000 0.032000
1559634240172218884	700 41 0.900000 0.030000 0.029000 1200 37 1.000000 0.749000 0.761000 600 41 1.000000 0.051000 0.051000 1.200000 0.031000 0.037000
1559634240680614634	700 41 0.900000 0.030000 0.029000 1200 37 1.000000 0.710000 0.722000 600 41 1.000000 0.051000 0.051000 1.200000 0.034000 0.041000
1559634241188013634	700 41 0.900000 0.030000 0.029000 1200 37 1.000000 0.712000 0.724000 600 41 1.000000 0.051000 0.051000 1.200000 0.028000 0.033000
1559634241695532551	700 41 0.900000 0.030000 0.029000 1200 37 1.000000 0.715000 0.727000 600 41 1.000000 0.051000 0.051000 1.200000 0.029000 0.035000
1559634242203259968	700 41 0.900000 0.046000 0.045000 1200 37 1.000000 0.719000 0.731000 600 41 1.000000 0.051000 0.051000 1.200000 0.032000 0.038000
1559634242710561051	700 41 0.900000 0.053000 0.052000 1200 37 1.000000 0.735000 0.747000 600 41 1.000000 0.051000 0.051000 1.200000 0.036000 0.043000
1559634243218027635	700 41 0.900000 0.031000 0.030000 1200 37 1.000000 0.720000 0.732000 600 41 1.000000 0.051000 0.051000 1.200000 0.029000 0.035000
1559634243725348926	700 41 0.900000 0.030000 0.029000 1200 37 1.000000 0.723000 0.735000 600 41 1.000000 0.051000 0.051000 1.200000 0.028000 0.033000
1559634244232607302	700 41 0.900000 0.041000 0.040000 1200 37 1.000000 0.722000 0.734000 600 41 1.000000 0.051000 0.051000 1.200000 0.034000 0.041000
1559634244739921635	700 41 0.900000 0.030000 0.029000 1200 37 1.000000 0.726000 0.738000 600 41 1.000000 0.051000 0.051000 1.200000 0.032000 0.038000
1559634245247328302	700 41 0.900000 0.030000 0.029000 1200 37 1.000000 0.710000 0.722000 600 41 1.000000 0.051000 0.051000 1.200000 0.028000 0.033000
1559634245754649760	700 41 0.900000 0.030000 0.029000 1200 37 1.000000 0.729000 0.741000 600 41 1.000000 0.051000 0.051000 1.200000 0.029000 0.035000
1559634246262061052	700 41 0.900000 0.048000 0.047000 1200 37 1.000000 0.724000 0.736000 600 41 1.000000 0.051000 0.051000 1.200000 0.034000 0.041000
1559634246769227510	700 41 0.900000 0.032000 0.031000 1200 37 1.000000 0.725000 0.737000 600 41 1.000000 0.051000 0.051000 1.200000 0.028000 0.033000
1559634247276507510	700 41 0.900000 0.030000 0.029000 1200 37 1.000000 0.717000 0.729000 600 41 1.000000 0.051000 0.051000 1.200000 0.027000 0.032000
1559634247783961552	700 41 0.900000 0.030000 0.029000 1200 37 1.000000 0.711000 0.723000 600 41 1.000000 0.051000 0.051000 1.200000 0.029000 0.035000
1559634248291427135	700 41 0.900000 0.030000 0.029000 1200 37 1.000000 0.720000 0.732000 600 41 1.000000 0.051000 0.051000 1.200000 0.028000 0.033000
1559634248798837135	700 41 0.900000 0.030000 0.029000 1200 37 1.000000 0.718000 0.730000 600 41 1.000000 0.051000 0.051000 1.200000 0.028000 0.033000
1559634249306175010	700 41 0.900000 0.053000 0.052000 1200 37 1.000000 0.791000 0.804000 600 41 1.000000 0.051000 0.051000 1.200000 0.044000 0.053000
1559634249813509594	700 41 0.900000 0.030000 0.029000 1200 37 1.000000 0.710000 0.722000 600 41 1.000000 0.051000 0.051000 1.200000 0.028000 0.033000
1559634250320944802	700 41 0.900000 0.030000 0.029000 1200 37 1.000000 0.726000 0.738000 600 40 1.000000 0.051000 0.051000 1.200000 0.028000 0.033000
1559634250828282177	700 41 0.900000 0.030000 0.029000 1200 37 1.000000 0.714000 0.726000 600 41 1.000000 0.051000 0.051000 1.200000 0.027000 0.032000
1559634251335701052	700 41 0.900000 0.038000 0.037000 1200 37 1.000000 0.751000 0.763000 600 41 1.000000 0.051000 0.051000 1.200000 0.041000 0.049000
1559634251843115886	700 41 0.900000 0.030000 0.029000 1200 37 1.000000 0.719000 0.731000 600 40 1.000000 0.051000 0.051000 1.200000 0.029000 0.035000
1559634252350431302	700 41 0.900000 0.030000 0.029000 1200 37 1.000000 0.718000 0.730000 600 40 1.000000 0.051000 0.051000 1.200000 0.029000 0.035000
1559634252857964844	700 41 0.900000 0.030000 0.029000 1200 37 1.000000 0.721000 0.733000 600 41 1.000000 0.051000 0.051000 1.200000 0.028000 0.033000
1559634253365251136	700 41 0.900000 0.038000 0.037000 1200 37 1.000000 0.713000 0.725000 600 41 1.000000 0.051000 0.051000 1.200000 0.031000 0.037000
1559634253872648344	700 41 0.900000 0.030000 0.029000 1200 36 1.000000 0.712000 0.724000 600 40 1.000000 0.051000 0.051000 1.200000 0.028000 0.033000
1559634254379964428	700 41 0.900000 0.039000 0.038000 1200 36 1.000000 0.708000 0.720000 600 40 1.000000 0.051000 0.051000 1.200000 0.028000 0.033000
1559634254887418928	700 41 0.900000 0.037000 0.036000 1200 36 1.000000 0.736000 0.748000 600 40 1.000000 0.051000 0.051000 1.200000 0.035000 0.042000
1559634255397705303	700 41 0.900000 0.030000 0.029000 1200 36 1.000000 0.714000 0.726000 600 40 1.000000 0.051000 0.051000 1.200000 0.029000 0.035000
1559634255906443470	700 40 0.900000 0.050000 0.049000 1200 36 1.000000 0.804000 0.817000 600 42 1.000000 0.051000 0.051000 1.200000 0.060000 0.072000
1559634256417284886	700 43 0.900000 0.032000 0.031000 1200 37 1.000000 1.482000 1.513000 600 47 1.000000 0.051000 0.051000 1.200000 0.069000 0.083000
1559634256925698386	700 43 0.900000 0.050000 0.049000 1200 38 1.000000 1.960000 2.003000 600 48 1.000000 0.051000 0.051000 1.200000 0.066000 0.079000
1559634257433968095	700 44 0.900000 0.033000 0.032000 1200 38 1.000000 1.959000 2.004000 600 49 1.000000 0.051000 0.051000 1.200000 0.065000 0.078000
1559634257942298636	700 45 0.900000 0.040000 0.039000 1200 39 1.000000 2.012000 2.058000 600 50 1.000000 0.052000 0.052000 1.200000 0.076000 0.092000
1559634258450565303	700 45 0.900000 0.033000 0.032000 1200 39 1.000000 1.958000 2.003000 600 50 1.000000 0.052000 0.052000 1.200000 0.065000 0.078000
1559634258958893470	700 45 0.900000 0.051000 0.050000 1200 39 1.000000 1.966000 2.011000 600 51 1.000000 0.051000 0.051000 1.200000 0.066000 0.079000
1559634259467262095	700 45 0.900000 0.032000 0.031000 1200 40 1.000000 1.956000 2.000000 600 51 1.000000 0.051000 0.051000 1.200000 0.064000 0.077000
1559634259975535512	700 46 0.900000 0.040000 0.039000 1200 40 1.000000 1.976000 2.019000 600 51 1.000000 0.052000 0.052000 1.200000 0.070000 0.084000
1559634260483800303	700 46 0.900000 0.033000 0.032000 1200 40 1.000000 1.925000 1.967000 600 51 1.000000 0.052000 0.052000 1.200000 0.064000 0.077000
1559634260992094887	700 46 0.900000 0.033000 0.032000 1200 40 1.000000 1.960000 2.003000 600 51 1.000000 0.051000 0.051000 1.200000 0.065000 0.078000
1559634261500294345	700 46 0.900000 0.033000 0.032000 1200 40 1.000000 1.964000 2.009000 600 52 1.000000 0.052000 0.052000 1.200000 0.065000 0.078000
1559634262011932804	700 46 0.900000 0.033000 0.032000 1200 40 1.000000 1.968000 2.013000 600 52 1.000000 0.052000 0.052000 1.200000 0.065000 0.078000
1559634262521092929	700 46 0.900000 0.048000 0.047000 1200 41 1.000000 2.036000 2.082000 600 52 1.000000 0.052000 0.052000 1.200000 0.079000 0.095000
1559634263029421762	700 46 0.900000 0.033000 0.032000 1200 41 1.000000 1.972000 2.017000 600 52 1.000000 0.052000 0.052000 1.200000 0.067000 0.081000
1559634263537762179	700 47 0.900000 0.033000 0.032000 1200 41 1.000000 1.975000 2.020000 600 52 1.000000 0.052000 0.052000 1.200000 0.065000 0.078000
1559634264045900846	700 47 0.900000 0.033000 0.032000 1200 41 1.000000 1.962000 2.007000 600 52 1.000000 0.051000 0.051000 1.200000 0.065000 0.078000
1559634264554102221	700 47 0.900000 0.044000 0.043000 1200 41 1.000000 1.973000 2.018000 600 52 1.000000 0.052000 0.052000 1.200000 0.077000 0.093000
1559634265062393804	700 47 0.900000 0.040000 0.039000 1200 41 1.000000 1.907000 1.950000 600 52 1.000000 0.052000 0.052000 1.200000 0.067000 0.081000
1559634265570679637	700 47 0.900000 0.033000 0.032000 1200 41 1.000000 1.962000 2.007000 600 52 1.000000 0.052000 0.052000 1.200000 0.064000 0.077000
1559634266078679679	700 47 0.900000 0.033000 0.032000 1200 41 1.000000 1.963000 2.008000 600 52 1.000000 0.052000 0.052000 1.200000 0.064000 0.077000
1559634266586854929	700 47 0.900000 0.042000 0.041000 1200 41 1.000000 1.974000 2.019000 600 52 1.000000 0.052000 0.052000 1.200000 0.072000 0.087000
1559634267095103138	700 47 0.900000 0.050000 0.049000 1200 41 1.000000 1.941000 1.985000 600 52 1.000000 0.052000 0.052000 1.200000 0.068000 0.082000
1559634267603199179	700 47 0.900000 0.033000 0.032000 1200 41 1.000000 1.963000 2.008000 600 52 1.000000 0.052000 0.052000 1.200000 0.064000 0.077000
1559634268111319638	700 47 0.900000 0.033000 0.032000 1200 41 1.000000 1.962000 2.007000 600 52 1.000000 0.052000 0.052000 1.200000 0.065000 0.078000
1559634268623648304	700 47 0.900000 0.034000 0.033000 1200 41 1.000000 1.979000 2.024000 600 52 1.000000 0.052000 0.052000 1.200000 0.066000 0.079000
1559634269132718054	700 47 0.900000 0.056000 0.055000 1200 41 1.000000 2.010000 2.056000 600 53 1.000000 0.052000 0.052000 1.200000 0.077000 0.093000
1559634269640967805	700 47 0.900000 0.051000 0.050000 1200 41 1.000000 1.964000 2.009000 600 53 1.000000 0.052000 0.052000 1.200000 0.065000 0.078000
1559634270148997555	700 47 0.900000 0.033000 0.032000 1200 41 1.000000 1.944000 1.988000 600 53 1.000000 0.052000 0.052000 1.200000 0.064000 0.077000
1559634270657295513	700 47 0.900000 0.033000 0.032000 1200 41 1.000000 1.971000 2.016000 600 53 1.000000 0.052000 0.052000 1.200000 0.064000 0.077000
1559634271165560305	700 47 0.900000 0.041000 0.040000 1200 42 1.000000 2.021000 2.067000 600 53 1.000000 0.052000 0.052000 1.200000 0.078000 0.094000
1559634271673659763	700 47 0.900000 0.036000 0.035000 1200 42 1.000000 1.963000 2.008000 600 53 1.000000 0.052000 0.052000 1.200000 0.064000 0.077000
1559634272181725472	700 47 0.900000 0.033000 0.032000 1200 41 1.000000 1.932000 1.976000 600 53 1.000000 0.052000 0.052000 1.200000 0.064000 0.077000
1559634272689773638	700 47 0.900000 0.033000 0.032000 1200 41 1.000000 1.961000 2.006000 600 53 1.000000 0.052000 0.052000 1.200000 0.064000 0.077000
1559634273198115930	700 48 0.900000 0.039000 0.038000 1200 42 1.000000 2.003000 2.049000 600 53 1.000000 0.052000 0.052000 1.200000 0.074000 0.089000
1559634273706393347	700 48 0.900000 0.033000 0.032000 1200 42 1.000000 1.965000 2.010000 600 53 1.000000 0.052000 0.052000 1.200000 0.066000 0.079000
1559634274214730555	700 48 0.900000 0.033000 0.032000 1200 42 1.000000 1.967000 2.012000 600 53 1.000000 0.052000 0.052000 1.200000 0.065000 0.078000
1559634274722855638	700 47 0.900000 0.033000 0.032000 1200 42 1.000000 1.965000 2.010000 600 53 1.000000 0.052000 0.052000 1.200000 0.064000 0.077000
1559634275231211722	700 47 0.900000 0.040000 0.039000 1200 42 1.000000 1.902000 1.945000 600 53 1.000000 0.052000 0.052000 1.200000 0.067000 0.081000
1559634275739862930	700 48 0.900000 0.040000 0.039000 1200 42 1.000000 2.009000 2.055000 600 53 1.000000 0.052000 0.052000 1.200000 0.080000 0.096000
1559634276250768389	700 48 0.900000 0.034000 0.033000 1200 42 1.000000 1.939000 1.983000 600 53 1.000000 0.052000 0.052000 1.200000 0.065000 0.078000
1559634276759562847	700 48 0.900000 0.035000 0.034000 1200 42 1.000000 1.969000 2.014000 600 53 1.000000 0.052000 0.052000 1.200000 0.065000 0.078000
1559634277267800472	700 48 0.900000 0.033000 0.032000 1200 42 1.000000 1.967000 2.012000 600 53 1.000000 0.052000 0.052000 1.200000 0.066000 0.079000
1559634277776012347	700 48 0.900000 0.055000 0.054000 1200 42 1.000000 2.006000 2.052000 600 53 1.000000 0.052000 0.052000 1.200000 0.066000 0.079000
1559634278285731972	700 48 0.900000 0.033000 0.032000 1200 42 1.000000 1.966000 2.011000 600 53 1.000000 0.052000 0.052000 1.200000 0.064000 0.077000
1559634278794467014	700 48 0.900000 0.035000 0.034000 1200 42 1.000000 1.898000 1.941000 600 53 1.000000 0.052000 0.052000 1.200000 0.066000 0.079000
1559634279302605056	700 48 0.900000 0.034000 0.033000 1200 42 1.000000 1.964000 2.009000 600 53 1.000000 0.052000 0.052000 1.200000 0.065000 0.078000
1559634279810835347	700 48 0.900000 0.053000 0.052000 1200 42 1.000000 1.984000 2.029000 600 53 1.000000 0.052000 0.052000 1.200000 0.066000 0.079000
1559634280318938889	700 48 0.900000 0.033000 0.032000 1200 42 1.000000 1.987000 2.032000 600 53 1.000000 0.052000 0.052000 1.200000 0.071000 0.085000
1559634280828474348	700 48 0.900000 0.033000 0.032000 1200 42 1.000000 1.979000 2.024000 600 53 1.000000 0.052000 0.052000 1.200000 0.066000 0.079000
1559634281337063056	700 48 0.900000 0.033000 0.032000 1200 42 1.000000 1.934000 1.978000 600 53 1.000000 0.052000 0.052000 1.200000 0.065000 0.078000
1559634281848978889	700 48 0.900000 0.036000 0.035000 1200 42 1.000000 1.969000 2.014000 600 53 1.000000 0.052000 0.052000 1.200000 0.068000 0.082000
1559634282357921014	700 48 0.900000 0.065000 0.064000 1200 42 1.000000 2.004000 2.050000 600 53 1.000000 0.052000 0.052000 1.200000 0.077000 0.093000
1559634282866338056	700 48 0.900000 0.034000 0.033000 1200 42 1.000000 1.965000 2.010000 600 53 1.000000 0.052000 0.052000 1.200000 0.065000 0.078000
1559634283374605015	700 48 0.900000 0.033000 0.032000 1200 42 1.000000 1.939000 1.983000 600 53 1.000000 0.053000 0.053000 1.200000 0.065000 0.078000
1559634283882926973	700 48 0.900000 0.034000 0.033000 1200 42 1.000000 1.969000 2.014000 600 53 1.000000 0.052000 0.052000 1.200000 0.065000 0.078000
1559634284391323306	700 48 0.900000 0.033000 0.032000 1200 42 1.000000 1.946000 1.990000 600 53 1.000000 0.052000 0.052000 1.200000 0.066000 0.079000
1559634284899765056	700 48 0.900000 0.034000 0.033000 1200 42 1.000000 1.971000 2.016000 600 53 1.000000 0.052000 0.052000 1.200000 0.065000 0.078000
1559634285407841806	700 48 0.900000 0.033000 0.032000 1200 42 1.000000 1.977000 2.022000 600 53 1.000000 0.052000 0.052000 1.200000 0.065000 0.078000
1559634285916104806	700 48 0.900000 0.034000 0.033000 1200 42 1.000000 1.962000 2.007000 600 53 1.000000 0.052000 0.052000 1.200000 0.065000 0.078000
1559634286424737182	700 48 0.900000 0.033000 0.032000 1200 42 1.000000 1.976000 2.021000 600 53 1.000000 0.052000 0.052000 1.200000 0.066000 0.079000
1559634286933050682	700 48 0.900000 0.033000 0.032000 1200 42 1.000000 1.988000 2.033000 600 53 1.000000 0.052000 0.052000 1.200000 0.071000 0.085000
1559634287441331265	700 48 0.900000 0.033000 0.032000 1200 42 1.000000 1.969000 2.014000 600 53 1.000000 0.052000 0.052000 1.200000 0.065000 0.078000
1559634287949502973	700 48 0.900000 0.044000 0.043000 1200 42 1.000000 1.978000 2.023000 600 53 1.000000 0.052000 0.052000 1.200000 0.065000 0.078000
1559634288457963848	700 48 0.900000 0.040000 0.039000 1200 42 1.000000 1.968000 2.013000 600 53 1.000000 0.052000 0.052000 1.200000 0.065000 0.078000
1559634288966272974	700 48 0.900000 0.065000 0.064000 1200 42 1.000000 2.003000 2.049000 600 53 1.000000 0.052000 0.052000 1.200000 0.076000 0.092000
1559634289474584849	700 48 0.900000 0.033000 0.032000 1200 42 1.000000 1.964000 2.009000 600 53 1.000000 0.052000 0.052000 1.200000 0.064000 0.077000
1559634289985778765	700 48 0.900000 0.034000 0.033000 1200 42 1.000000 1.951000 1.995000 600 53 1.000000 0.053000 0.053000 1.200000 0.066000 0.079000
1559634290494484265	700 48 0.900000 0.053000 0.052000 1200 42 1.000000 1.971000 2.016000 600 53 1.000000 0.052000 0.052000 1.200000 0.069000 0.083000
1559634291002886932	700 48 0.900000 0.033000 0.032000 1200 42 1.000000 1.941000 1.985000 600 53 1.000000 0.052000 0.052000 1.200000 0.065000 0.078000
1559634291511125932	700 48 0.900000 0.034000 0.033000 1200 42 1.000000 1.969000 2.014000 600 53 1.000000 0.052000 0.052000 1.200000 0.065000 0.078000
1559634292019820974	700 48 0.900000 0.033000 0.032000 1200 42 1.000000 1.976000 2.021000 600 53 1.000000 0.052000 0.052000 1.200000 0.066000 0.079000
1559634292528125849	700 48 0.900000 0.051000 0.050000 1200 42 1.000000 1.971000 2.016000 600 53 1.000000 0.052000 0.052000 1.200000 0.068000 0.082000
1559634293039713807	700 48 0.900000 0.033000 0.032000 1200 42 1.000000 1.969000 2.014000 600 53 1.000000 0.052000 0.052000 1.200000 0.065000 0.078000
1559634293549007724	700 48 0.900000 0.033000 0.032000 1200 42 1.000000 1.985000 2.030000 600 53 1.000000 0.052000 0.052000 1.200000 0.071000 0.085000
1559634294057333307	700 48 0.900000 0.033000 0.032000 1200 42 1.000000 1.974000 2.019000 600 53 1.000000 0.052000 0.052000 1.200000 0.065000 0.078000
1559634294565728016	700 48 0.900000 0.051000 0.050000 1200 42 1.000000 1.971000 2.016000 600 53 1.000000 0.052000 0.052000 1.200000 0.068000 0.082000
1559634295074010891	700 48 0.900000 0.034000 0.033000 1200 42 1.000000 1.968000 2.013000 600 53 1.000000 0.052000 0.052000 1.200000 0.065000 0.078000
1559634295582319183	700 48 0.900000 0.064000 0.063000 1200 42 1.000000 2.000000 2.046000 600 54 1.000000 0.052000 0.052000 1.200000 0.077000 0.093000
1559634296090447683	700 48 0.900000 0.033000 0.032000 1200 42 1.000000 1.968000 2.013000 600 54 1.000000 0.052000 0.052000 1.200000 0.065000 0.078000
1559634296598688516	700 48 0.900000 0.051000 0.050000 1200 42 1.000000 1.939000 1.983000 600 53 1.000000 0.052000 0.052000 1.200000 0.068000 0.082000
1559634297106935183	700 48 0.900000 0.034000 0.033000 1200 42 1.000000 1.971000 2.016000 600 53 1.000000 0.052000 0.052000 1.200000 0.065000 0.078000
1559634297615289516	700 48 0.900000 0.034000 0.033000 1200 42 1.000000 1.979000 2.024000 600 54 1.000000 0.052000 0.052000 1.200000 0.066000 0.079000
1559634298123940600	700 47 0.900000 0.034000 0.033000 1200 42 1.000000 1.971000 2.016000 600 51 1.000000 0.052000 0.052000 1.200000 0.066000 0.079000
1559634298631274766	700 41 0.900000 0.041000 0.040000 1200 41 1.000000 0.670000 0.685000 600 46 1.000000 0.052000 0.052000 1.200000 0.036000 0.043000
1559634299138161308	700 40 0.900000 0.031000 0.030000 1200 39 1.000000 0.159000 0.163000 600 44 1.000000 0.052000 0.052000 1.200000 0.024000 0.028000
