#Timestamp	CPU(0) Frequency(MHz)	CPU(0) Temperature(C)	A7 Voltage(V)	A7 Current(A)	A7 Power(W)	CPU(4) Frequency(MHz)	CPU(4) Temperature(C)	A15 Voltage(V)	A15 Current(A)	A15 Power(W)	GPU Frequency(MHz)	GPU Temperature(C)	GPU Voltage(V)	GPU Current(A)	GPU Power(W)	RAM Voltage(V)	RAM Current(A)	RAM Power(W)
1517167444663893805	1400 39 1.200000 0.083000 0.105000 1400 38 1.000000 0.561000 0.608000 600 43 1.000000 0.053000 0.053000 1.200000 0.036000 0.043000
1517167445169877388	1400 40 1.200000 0.081000 0.103000 1400 38 1.000000 0.903000 0.964000 600 43 1.000000 0.053000 0.053000 1.200000 0.031000 0.037000
1517167445675836513	1400 40 1.200000 0.080000 0.101000 1400 38 1.000000 0.916000 0.978000 600 44 1.000000 0.053000 0.053000 1.200000 0.030000 0.036000
1517167446181762513	1400 40 1.200000 0.081000 0.103000 1400 38 1.000000 0.905000 0.966000 600 44 1.000000 0.053000 0.053000 1.200000 0.031000 0.037000
1517167446687738805	1400 40 1.200000 0.079000 0.100000 1400 38 1.000000 0.912000 0.974000 600 44 1.000000 0.053000 0.053000 1.200000 0.030000 0.036000
1517167447193740222	1400 40 1.200000 0.080000 0.101000 1400 38 1.000000 0.914000 0.976000 600 44 1.000000 0.053000 0.053000 1.200000 0.031000 0.037000
1517167447699832472	1400 40 1.200000 0.080000 0.101000 1400 39 1.000000 0.913000 0.975000 600 44 1.000000 0.053000 0.053000 1.200000 0.030000 0.036000
1517167448205807389	1400 40 1.200000 0.081000 0.103000 1400 38 1.000000 0.905000 0.966000 600 44 1.000000 0.053000 0.053000 1.200000 0.030000 0.036000
1517167448711938930	1400 40 1.200000 0.081000 0.103000 1400 38 1.000000 0.912000 0.974000 600 44 1.000000 0.053000 0.053000 1.200000 0.032000 0.038000
1517167449217840889	1400 40 1.200000 0.081000 0.103000 1400 38 1.000000 0.922000 0.984000 600 44 1.000000 0.053000 0.053000 1.200000 0.030000 0.036000
1517167449723838180	1400 40 1.200000 0.081000 0.103000 1400 39 1.000000 0.910000 0.971000 600 44 1.000000 0.052000 0.052000 1.200000 0.030000 0.036000
1517167450229763180	1400 40 1.200000 0.081000 0.103000 1400 38 1.000000 0.926000 0.988000 600 44 1.000000 0.052000 0.052000 1.200000 0.030000 0.036000
1517167450735894764	1400 40 1.200000 0.080000 0.101000 1400 38 1.000000 0.905000 0.966000 600 44 1.000000 0.052000 0.052000 1.200000 0.031000 0.037000
1517167451241876889	1400 40 1.200000 0.081000 0.103000 1400 38 1.000000 0.926000 0.988000 600 44 1.000000 0.052000 0.052000 1.200000 0.030000 0.036000
1517167451747888431	1400 40 1.200000 0.081000 0.103000 1400 38 1.000000 0.906000 0.967000 600 44 1.000000 0.053000 0.053000 1.200000 0.031000 0.037000
1517167452253956722	1400 40 1.200000 0.080000 0.101000 1400 38 1.000000 0.929000 0.992000 600 44 1.000000 0.053000 0.053000 1.200000 0.031000 0.037000
1517167452759916639	1400 40 1.200000 0.081000 0.103000 1400 38 1.000000 0.906000 0.967000 600 44 1.000000 0.053000 0.053000 1.200000 0.031000 0.037000
1517167453265909472	1400 40 1.200000 0.080000 0.101000 1400 39 1.000000 0.904000 0.965000 600 44 1.000000 0.053000 0.053000 1.200000 0.030000 0.036000
1517167453771935681	1400 40 1.200000 0.080000 0.101000 1400 38 1.000000 0.905000 0.966000 600 44 1.000000 0.053000 0.053000 1.200000 0.030000 0.036000
1517167454277870848	1400 40 1.200000 0.080000 0.101000 1400 39 1.000000 0.906000 0.967000 600 44 1.000000 0.053000 0.053000 1.200000 0.030000 0.036000
1517167454784201306	1400 40 1.200000 0.081000 0.103000 1400 38 1.000000 0.913000 0.975000 600 44 1.000000 0.053000 0.053000 1.200000 0.031000 0.037000
1517167455290230848	1400 40 1.200000 0.081000 0.103000 1400 38 1.000000 0.920000 0.982000 600 44 1.000000 0.053000 0.053000 1.200000 0.030000 0.036000
1517167455796271514	1400 40 1.200000 0.080000 0.101000 1400 38 1.000000 0.911000 0.972000 600 44 1.000000 0.053000 0.053000 1.200000 0.031000 0.037000
1517167456302195223	1400 40 1.200000 0.081000 0.103000 1400 38 1.000000 0.916000 0.978000 600 44 1.000000 0.052000 0.052000 1.200000 0.030000 0.036000
1517167456808182431	1400 40 1.200000 0.081000 0.103000 1400 38 1.000000 0.919000 0.981000 600 44 1.000000 0.052000 0.052000 1.200000 0.031000 0.037000
1517167457314202223	1400 40 1.200000 0.081000 0.103000 1400 38 1.000000 0.914000 0.976000 600 44 1.000000 0.053000 0.053000 1.200000 0.030000 0.036000
1517167457820255556	1400 40 1.200000 0.081000 0.103000 1400 38 1.000000 0.918000 0.980000 600 44 1.000000 0.053000 0.053000 1.200000 0.032000 0.038000
1517167458326222640	1400 40 1.200000 0.080000 0.101000 1400 38 1.000000 0.910000 0.971000 600 44 1.000000 0.053000 0.053000 1.200000 0.030000 0.036000
1517167458832258390	1400 40 1.200000 0.080000 0.101000 1400 38 1.000000 0.906000 0.967000 600 44 1.000000 0.053000 0.053000 1.200000 0.030000 0.036000
1517167459338240807	1400 40 1.200000 0.080000 0.101000 1400 38 1.000000 0.906000 0.967000 600 44 1.000000 0.053000 0.053000 1.200000 0.030000 0.036000
1517167459844246807	1400 40 1.200000 0.081000 0.103000 1400 38 1.000000 0.902000 0.963000 600 44 1.000000 0.053000 0.053000 1.200000 0.030000 0.036000
1517167460350222265	1400 40 1.200000 0.080000 0.101000 1400 38 1.000000 0.901000 0.962000 600 43 1.000000 0.053000 0.053000 1.200000 0.030000 0.036000
1517167460856230390	1400 40 1.200000 0.081000 0.103000 1400 38 1.000000 0.905000 0.966000 600 44 1.000000 0.053000 0.053000 1.200000 0.030000 0.036000
1517167461362212223	1400 40 1.200000 0.081000 0.103000 1400 38 1.000000 0.908000 0.969000 600 44 1.000000 0.052000 0.052000 1.200000 0.030000 0.036000
1517167461868186890	1400 40 1.200000 0.080000 0.101000 1400 38 1.000000 0.928000 0.991000 600 44 1.000000 0.053000 0.053000 1.200000 0.031000 0.037000
1517167462374092265	1400 40 1.200000 0.081000 0.103000 1400 38 1.000000 0.906000 0.967000 600 44 1.000000 0.052000 0.052000 1.200000 0.030000 0.036000
1517167462880111682	1400 40 1.200000 0.080000 0.101000 1400 38 1.000000 0.920000 0.982000 600 44 1.000000 0.053000 0.053000 1.200000 0.031000 0.037000
1517167463386150349	1400 40 1.200000 0.080000 0.101000 1400 38 1.000000 0.911000 0.972000 600 43 1.000000 0.053000 0.053000 1.200000 0.031000 0.037000
1517167463892123015	1400 40 1.200000 0.081000 0.103000 1400 38 1.000000 0.907000 0.968000 600 43 1.000000 0.052000 0.052000 1.200000 0.030000 0.036000
1517167464398089307	1400 40 1.200000 0.080000 0.101000 1400 38 1.000000 0.905000 0.966000 600 43 1.000000 0.053000 0.053000 1.200000 0.029000 0.035000
1517167464904072724	1400 40 1.200000 0.080000 0.101000 1400 38 1.000000 0.903000 0.964000 600 43 1.000000 0.052000 0.052000 1.200000 0.030000 0.036000
1517167465410108724	1400 40 1.200000 0.080000 0.101000 1400 38 1.000000 0.903000 0.964000 600 43 1.000000 0.053000 0.053000 1.200000 0.030000 0.036000
1517167465916146932	1400 40 1.200000 0.080000 0.101000 1400 38 1.000000 0.906000 0.967000 600 43 1.000000 0.053000 0.053000 1.200000 0.030000 0.036000
1517167466422099807	1400 40 1.200000 0.080000 0.101000 1400 38 1.000000 0.905000 0.966000 600 43 1.000000 0.053000 0.053000 1.200000 0.030000 0.036000
1517167466928132516	1400 40 1.200000 0.080000 0.101000 1400 38 1.000000 0.903000 0.964000 600 43 1.000000 0.052000 0.052000 1.200000 0.030000 0.036000
1517167467434093266	1400 40 1.200000 0.081000 0.103000 1400 38 1.000000 0.921000 0.983000 600 43 1.000000 0.052000 0.052000 1.200000 0.031000 0.037000
1517167467940156183	1400 40 1.200000 0.080000 0.101000 1400 38 1.000000 0.906000 0.967000 600 43 1.000000 0.053000 0.053000 1.200000 0.030000 0.036000
1517167468446118308	1400 40 1.200000 0.080000 0.101000 1400 38 1.000000 0.926000 0.988000 600 43 1.000000 0.053000 0.053000 1.200000 0.030000 0.036000
1517167468952197391	1400 40 1.200000 0.080000 0.101000 1400 38 1.000000 0.907000 0.968000 600 43 1.000000 0.053000 0.053000 1.200000 0.030000 0.036000
1517167469458238641	1400 40 1.200000 0.080000 0.101000 1400 38 1.000000 0.902000 0.963000 600 43 1.000000 0.052000 0.052000 1.200000 0.030000 0.036000
1517167469964167433	1400 40 1.200000 0.080000 0.101000 1400 38 1.000000 0.901000 0.962000 600 43 1.000000 0.052000 0.052000 1.200000 0.029000 0.035000
1517167470470167266	1400 40 1.200000 0.081000 0.103000 1400 38 1.000000 0.904000 0.965000 600 43 1.000000 0.052000 0.052000 1.200000 0.031000 0.037000
1517167470976238558	1400 40 1.200000 0.080000 0.101000 1400 38 1.000000 0.906000 0.967000 600 43 1.000000 0.053000 0.053000 1.200000 0.030000 0.036000
1517167471482216891	1400 40 1.200000 0.080000 0.101000 1400 38 1.000000 0.903000 0.964000 600 43 1.000000 0.053000 0.053000 1.200000 0.030000 0.036000
1517167471988275308	1400 40 1.200000 0.080000 0.101000 1400 38 1.000000 0.902000 0.963000 600 43 1.000000 0.053000 0.053000 1.200000 0.030000 0.036000
1517167472494341141	1400 40 1.200000 0.080000 0.101000 1400 38 1.000000 0.903000 0.964000 600 43 1.000000 0.052000 0.052000 1.200000 0.029000 0.035000
1517167473000391142	1400 40 1.200000 0.079000 0.100000 1400 38 1.000000 0.905000 0.966000 600 43 1.000000 0.053000 0.053000 1.200000 0.031000 0.037000
1517167473506377558	1400 39 1.200000 0.080000 0.101000 1400 38 1.000000 0.920000 0.982000 600 43 1.000000 0.052000 0.052000 1.200000 0.031000 0.037000
1517167474012380850	1400 39 1.200000 0.081000 0.103000 1400 38 1.000000 0.914000 0.976000 600 43 1.000000 0.052000 0.052000 1.200000 0.030000 0.036000
1517167474518402433	1400 39 1.200000 0.080000 0.101000 1400 38 1.000000 0.902000 0.963000 600 43 1.000000 0.053000 0.053000 1.200000 0.032000 0.038000
1517167475024571683	1400 39 1.200000 0.081000 0.103000 1400 38 1.000000 0.903000 0.964000 600 43 1.000000 0.052000 0.052000 1.200000 0.029000 0.035000
1517167475530592433	1400 39 1.200000 0.080000 0.101000 1400 38 1.000000 0.905000 0.966000 600 43 1.000000 0.053000 0.053000 1.200000 0.031000 0.037000
1517167476036649642	1400 39 1.200000 0.080000 0.101000 1400 37 1.000000 0.904000 0.965000 600 43 1.000000 0.052000 0.052000 1.200000 0.030000 0.036000
1517167476542646059	1400 39 1.200000 0.083000 0.105000 1400 38 1.000000 0.908000 0.969000 600 43 1.000000 0.053000 0.053000 1.200000 0.030000 0.036000
1517167477048697600	1400 39 1.200000 0.079000 0.100000 1400 38 1.000000 0.922000 0.984000 600 43 1.000000 0.053000 0.053000 1.200000 0.030000 0.036000
1517167477554751184	1400 39 1.200000 0.080000 0.101000 1400 37 1.000000 0.905000 0.966000 600 43 1.000000 0.053000 0.053000 1.200000 0.028000 0.033000
1517167478060740059	1400 39 1.200000 0.079000 0.100000 1400 37 1.000000 0.928000 0.991000 600 43 1.000000 0.052000 0.052000 1.200000 0.031000 0.037000
1517167478566742017	1400 39 1.200000 0.079000 0.100000 1400 37 1.000000 0.904000 0.965000 600 43 1.000000 0.053000 0.053000 1.200000 0.030000 0.036000
1517167479072670434	1400 39 1.200000 0.080000 0.101000 1400 38 1.000000 0.922000 0.984000 600 43 1.000000 0.053000 0.053000 1.200000 0.029000 0.035000
1517167479578791142	1400 39 1.200000 0.079000 0.100000 1400 37 1.000000 0.902000 0.963000 600 43 1.000000 0.052000 0.052000 1.200000 0.031000 0.037000
1517167480084827934	1400 39 1.200000 0.081000 0.103000 1400 37 1.000000 0.925000 0.987000 600 43 1.000000 0.052000 0.052000 1.200000 0.029000 0.035000
1517167480590836767	1400 39 1.200000 0.080000 0.101000 1400 37 1.000000 0.906000 0.967000 600 43 1.000000 0.052000 0.052000 1.200000 0.030000 0.036000
1517167481096888392	1400 39 1.200000 0.080000 0.101000 1400 37 1.000000 0.921000 0.983000 600 43 1.000000 0.053000 0.053000 1.200000 0.030000 0.036000
1517167481602823476	1400 39 1.200000 0.080000 0.101000 1400 37 1.000000 0.907000 0.968000 600 43 1.000000 0.052000 0.052000 1.200000 0.031000 0.037000
1517167482108955393	1400 39 1.200000 0.080000 0.101000 1400 37 1.000000 0.919000 0.981000 600 43 1.000000 0.053000 0.053000 1.200000 0.031000 0.037000
1517167482614847101	1400 39 1.200000 0.080000 0.101000 1400 37 1.000000 0.914000 0.976000 600 43 1.000000 0.052000 0.052000 1.200000 0.030000 0.036000
1517167483120907059	1400 39 1.200000 0.080000 0.101000 1400 37 1.000000 0.916000 0.978000 600 43 1.000000 0.052000 0.052000 1.200000 0.031000 0.037000
1517167483626953393	1400 39 1.200000 0.079000 0.100000 1400 37 1.000000 0.912000 0.974000 600 43 1.000000 0.052000 0.052000 1.200000 0.029000 0.035000
1517167484132911976	1400 39 1.200000 0.079000 0.100000 1400 37 1.000000 0.912000 0.974000 600 42 1.000000 0.052000 0.052000 1.200000 0.031000 0.037000
1517167484638930935	1400 39 1.200000 0.079000 0.100000 1400 37 1.000000 0.919000 0.981000 600 43 1.000000 0.052000 0.052000 1.200000 0.031000 0.037000
1517167485144996060	1400 39 1.200000 0.079000 0.100000 1400 37 1.000000 0.905000 0.966000 600 43 1.000000 0.052000 0.052000 1.200000 0.032000 0.038000
1517167485651176393	1400 39 1.200000 0.080000 0.101000 1400 37 1.000000 0.920000 0.982000 600 42 1.000000 0.053000 0.053000 1.200000 0.031000 0.037000
1517167486157170976	1400 39 1.200000 0.079000 0.100000 1400 37 1.000000 0.905000 0.966000 600 43 1.000000 0.052000 0.052000 1.200000 0.030000 0.036000
1517167486663114435	1400 39 1.200000 0.079000 0.100000 1400 37 1.000000 0.919000 0.981000 600 43 1.000000 0.053000 0.053000 1.200000 0.031000 0.037000
1517167487168981268	1400 39 1.200000 0.080000 0.101000 1400 37 1.000000 0.903000 0.964000 600 42 1.000000 0.052000 0.052000 1.200000 0.031000 0.037000
1517167487675174310	1400 39 1.200000 0.080000 0.101000 1400 37 1.000000 0.925000 0.987000 600 42 1.000000 0.052000 0.052000 1.200000 0.030000 0.036000
1517167488181121227	1400 39 1.200000 0.080000 0.101000 1400 37 1.000000 0.902000 0.963000 600 42 1.000000 0.052000 0.052000 1.200000 0.031000 0.037000
1517167488687273852	1400 39 1.200000 0.080000 0.101000 1400 37 1.000000 0.922000 0.984000 600 42 1.000000 0.053000 0.053000 1.200000 0.028000 0.033000
1517167489193239935	1400 39 1.200000 0.081000 0.103000 1400 37 1.000000 0.905000 0.966000 600 42 1.000000 0.052000 0.052000 1.200000 0.031000 0.037000
1517167489699331643	1400 39 1.200000 0.079000 0.100000 1400 37 1.000000 0.926000 0.988000 600 42 1.000000 0.052000 0.052000 1.200000 0.029000 0.035000
1517167490205332269	1400 39 1.200000 0.079000 0.100000 1400 37 1.000000 0.905000 0.966000 600 42 1.000000 0.052000 0.052000 1.200000 0.032000 0.038000
1517167490711236144	1400 39 1.200000 0.079000 0.100000 1400 37 1.000000 0.900000 0.961000 600 42 1.000000 0.052000 0.052000 1.200000 0.029000 0.035000
1517167491217276769	1400 39 1.200000 0.079000 0.100000 1400 37 1.000000 0.901000 0.962000 600 42 1.000000 0.052000 0.052000 1.200000 0.028000 0.033000
1517167491723562352	1400 39 1.200000 0.080000 0.101000 1400 37 1.000000 0.903000 0.964000 600 42 1.000000 0.052000 0.052000 1.200000 0.030000 0.036000
1517167492229666477	1400 39 1.200000 0.079000 0.100000 1400 37 1.000000 0.913000 0.975000 600 42 1.000000 0.052000 0.052000 1.200000 0.031000 0.037000
1517167492735626644	1400 39 1.200000 0.080000 0.101000 1400 37 1.000000 0.922000 0.986000 600 42 1.000000 0.052000 0.052000 1.200000 0.029000 0.035000
1517167493241513477	1400 39 1.200000 0.079000 0.100000 1400 37 1.000000 0.917000 0.979000 600 42 1.000000 0.053000 0.053000 1.200000 0.031000 0.037000
1517167493747492977	1400 39 1.200000 0.080000 0.101000 1400 37 1.000000 0.918000 0.980000 600 42 1.000000 0.053000 0.053000 1.200000 0.031000 0.037000
1517167494253499311	1400 39 1.200000 0.080000 0.101000 1400 37 1.000000 0.918000 0.980000 600 42 1.000000 0.052000 0.052000 1.200000 0.032000 0.038000
1517167494759571602	1400 39 1.200000 0.079000 0.100000 1400 37 1.000000 0.914000 0.976000 600 42 1.000000 0.052000 0.052000 1.200000 0.030000 0.036000
1517167495265583269	1400 39 1.200000 0.080000 0.101000 1400 37 1.000000 0.920000 0.982000 600 42 1.000000 0.052000 0.052000 1.200000 0.029000 0.035000
1517167495771745728	1400 39 1.200000 0.080000 0.101000 1400 37 1.000000 0.902000 0.963000 600 42 1.000000 0.052000 0.052000 1.200000 0.031000 0.037000
1517167496277728311	1400 39 1.200000 0.079000 0.100000 1400 37 1.000000 0.903000 0.964000 600 42 1.000000 0.052000 0.052000 1.200000 0.031000 0.037000
1517167496783731436	1400 39 1.200000 0.080000 0.101000 1400 37 1.000000 0.904000 0.965000 600 42 1.000000 0.052000 0.052000 1.200000 0.029000 0.035000
1517167497289778061	1400 39 1.200000 0.079000 0.100000 1400 37 1.000000 0.902000 0.963000 600 42 1.000000 0.053000 0.053000 1.200000 0.029000 0.035000
1517167497795756936	1400 39 1.200000 0.079000 0.100000 1400 37 1.000000 0.902000 0.963000 600 42 1.000000 0.053000 0.053000 1.200000 0.029000 0.035000
1517167498301699770	1400 39 1.200000 0.079000 0.100000 1400 37 1.000000 0.923000 0.985000 600 42 1.000000 0.052000 0.052000 1.200000 0.032000 0.038000
1517167498807785228	1400 39 1.200000 0.079000 0.100000 1400 37 1.000000 0.904000 0.965000 600 42 1.000000 0.052000 0.052000 1.200000 0.029000 0.035000
1517167499313790061	1400 39 1.200000 0.081000 0.103000 1400 37 1.000000 0.926000 0.988000 600 42 1.000000 0.052000 0.052000 1.200000 0.030000 0.036000
1517167499819882311	1400 39 1.200000 0.080000 0.101000 1400 37 1.000000 0.905000 0.966000 600 42 1.000000 0.052000 0.052000 1.200000 0.031000 0.037000
1517167500325894311	1400 39 1.200000 0.080000 0.101000 1400 37 1.000000 0.922000 0.984000 600 42 1.000000 0.052000 0.052000 1.200000 0.030000 0.036000
1517167500833080603	1400 39 1.200000 0.080000 0.101000 1400 37 1.000000 0.904000 0.965000 600 42 1.000000 0.053000 0.053000 1.200000 0.031000 0.037000
1517167501339686770	1400 39 1.200000 0.085000 0.108000 1400 37 1.000000 0.825000 0.881000 600 42 1.000000 0.053000 0.053000 1.200000 0.104000 0.126000
1517167501892604020	1400 46 1.200000 0.338000 0.426000 1400 40 1.000000 2.085000 2.241000 600 49 1.000000 0.052000 0.052000 1.200000 0.100000 0.121000
1517167502448680103	1400 48 1.200000 0.537000 0.674000 1400 41 1.000000 2.334000 2.511000 600 51 1.000000 0.053000 0.053000 1.200000 0.087000 0.105000
1517167503008660270	1400 49 1.200000 0.538000 0.675000 1400 42 1.000000 2.339000 2.516000 600 52 1.000000 0.053000 0.053000 1.200000 0.086000 0.104000
1517167503564657812	1400 50 1.200000 0.539000 0.676000 1400 43 1.000000 2.340000 2.517000 600 53 1.000000 0.053000 0.053000 1.200000 0.087000 0.105000
1517167504136602479	1400 51 1.200000 0.539000 0.676000 1400 44 1.000000 2.342000 2.519000 600 53 1.000000 0.053000 0.053000 1.200000 0.087000 0.105000
1517167504700623270	1400 51 1.200000 0.540000 0.678000 1400 44 1.000000 2.341000 2.518000 600 54 1.000000 0.053000 0.053000 1.200000 0.088000 0.106000
1517167505264633145	1400 51 1.200000 0.541000 0.679000 1400 45 1.000000 2.349000 2.527000 600 55 1.000000 0.053000 0.053000 1.200000 0.087000 0.105000
1517167505820689604	1400 52 1.200000 0.541000 0.679000 1400 45 1.000000 2.351000 2.529000 600 55 1.000000 0.053000 0.053000 1.200000 0.086000 0.104000
1517167506376633645	1400 52 1.200000 0.541000 0.679000 1400 46 1.000000 2.352000 2.530000 600 55 1.000000 0.053000 0.053000 1.200000 0.086000 0.104000
1517167506932639562	1400 53 1.200000 0.541000 0.679000 1400 46 1.000000 2.353000 2.531000 600 56 1.000000 0.053000 0.053000 1.200000 0.086000 0.104000
1517167507480655812	1400 53 1.200000 0.541000 0.679000 1400 46 1.000000 2.355000 2.533000 600 56 1.000000 0.053000 0.053000 1.200000 0.086000 0.104000
1517167508040649979	1400 53 1.200000 0.542000 0.680000 1400 46 1.000000 2.354000 2.532000 600 56 1.000000 0.053000 0.053000 1.200000 0.086000 0.104000
1517167508588637687	1400 53 1.200000 0.542000 0.680000 1400 46 1.000000 2.353000 2.531000 600 56 1.000000 0.054000 0.054000 1.200000 0.087000 0.105000
1517167509148693646	1400 53 1.200000 0.542000 0.680000 1400 47 1.000000 2.353000 2.531000 600 56 1.000000 0.053000 0.053000 1.200000 0.088000 0.106000
1517167509708650188	1400 54 1.200000 0.542000 0.680000 1400 47 1.000000 2.353000 2.531000 600 57 1.000000 0.053000 0.053000 1.200000 0.088000 0.106000
1517167510268616479	1400 54 1.200000 0.542000 0.680000 1400 47 1.000000 2.357000 2.536000 600 57 1.000000 0.054000 0.054000 1.200000 0.086000 0.104000
1517167510824624771	1400 54 1.200000 0.542000 0.680000 1400 47 1.000000 2.357000 2.533000 600 57 1.000000 0.053000 0.053000 1.200000 0.086000 0.104000
1517167511380622521	1400 54 1.200000 0.543000 0.682000 1400 47 1.000000 2.359000 2.538000 600 57 1.000000 0.053000 0.053000 1.200000 0.086000 0.104000
1517167511936615021	1400 54 1.200000 0.543000 0.682000 1400 47 1.000000 2.358000 2.537000 600 57 1.000000 0.054000 0.054000 1.200000 0.086000 0.104000
1517167512496692688	1400 54 1.200000 0.543000 0.682000 1400 48 1.000000 2.360000 2.539000 600 57 1.000000 0.054000 0.054000 1.200000 0.087000 0.105000
1517167513052597396	1400 54 1.200000 0.543000 0.682000 1400 48 1.000000 2.359000 2.538000 600 57 1.000000 0.054000 0.054000 1.200000 0.087000 0.105000
1517167513608623396	1400 54 1.200000 0.543000 0.682000 1400 48 1.000000 2.358000 2.537000 600 57 1.000000 0.054000 0.054000 1.200000 0.088000 0.106000
1517167514164654230	1400 55 1.200000 0.544000 0.683000 1400 48 1.000000 2.360000 2.539000 600 57 1.000000 0.054000 0.054000 1.200000 0.088000 0.106000
1517167514728606896	1400 55 1.200000 0.543000 0.682000 1400 48 1.000000 2.359000 2.538000 600 58 1.000000 0.054000 0.054000 1.200000 0.088000 0.106000
1517167515252554772	1400 55 1.200000 0.543000 0.682000 1400 48 1.000000 2.357000 2.536000 600 58 1.000000 0.054000 0.054000 1.200000 0.086000 0.104000
1517167515804638522	1400 55 1.200000 0.543000 0.682000 1400 48 1.000000 2.359000 2.538000 600 58 1.000000 0.054000 0.054000 1.200000 0.087000 0.105000
1517167516368692647	1400 55 1.200000 0.543000 0.682000 1400 48 1.000000 2.360000 2.537000 600 58 1.000000 0.054000 0.054000 1.200000 0.087000 0.105000
1517167516924654522	1400 55 1.200000 0.543000 0.682000 1400 48 1.000000 2.361000 2.540000 600 58 1.000000 0.054000 0.054000 1.200000 0.087000 0.105000
1517167517480638563	1400 55 1.200000 0.543000 0.682000 1400 48 1.000000 2.359000 2.538000 600 58 1.000000 0.054000 0.054000 1.200000 0.087000 0.105000
1517167518040645272	1400 55 1.200000 0.543000 0.682000 1400 48 1.000000 2.360000 2.539000 600 58 1.000000 0.054000 0.054000 1.200000 0.087000 0.105000
1517167518588626022	1400 55 1.200000 0.544000 0.683000 1400 48 1.000000 2.359000 2.538000 600 58 1.000000 0.054000 0.054000 1.200000 0.087000 0.105000
1517167519152640272	1400 55 1.200000 0.543000 0.682000 1400 48 1.000000 2.360000 2.539000 600 58 1.000000 0.054000 0.054000 1.200000 0.087000 0.105000
1517167519708627147	1400 55 1.200000 0.543000 0.682000 1400 48 1.000000 2.358000 2.537000 600 58 1.000000 0.054000 0.054000 1.200000 0.086000 0.104000
1517167520268600564	1400 55 1.200000 0.543000 0.682000 1400 49 1.000000 2.362000 2.541000 600 58 1.000000 0.054000 0.054000 1.200000 0.088000 0.106000
1517167520824627564	1400 55 1.200000 0.544000 0.683000 1400 48 1.000000 2.362000 2.541000 600 58 1.000000 0.054000 0.054000 1.200000 0.087000 0.105000
1517167521380605939	1400 55 1.200000 0.543000 0.682000 1400 49 1.000000 2.359000 2.538000 600 58 1.000000 0.054000 0.054000 1.200000 0.087000 0.105000
1517167521940667356	1400 55 1.200000 0.544000 0.683000 1400 49 1.000000 2.364000 2.543000 600 58 1.000000 0.054000 0.054000 1.200000 0.087000 0.105000
1517167522488623772	1400 55 1.200000 0.544000 0.683000 1400 49 1.000000 2.359000 2.538000 600 58 1.000000 0.054000 0.054000 1.200000 0.087000 0.105000
1517167523044642981	1400 55 1.200000 0.543000 0.682000 1400 49 1.000000 2.361000 2.540000 600 58 1.000000 0.054000 0.054000 1.200000 0.088000 0.106000
1517167523604639439	1400 56 1.200000 0.544000 0.683000 1400 49 1.000000 2.361000 2.540000 600 59 1.000000 0.054000 0.054000 1.200000 0.088000 0.106000
1517167524164653023	1400 56 1.200000 0.544000 0.683000 1400 49 1.000000 2.361000 2.538000 600 59 1.000000 0.054000 0.054000 1.200000 0.088000 0.106000
1517167524732604898	1400 56 1.200000 0.544000 0.683000 1400 49 1.000000 2.360000 2.539000 600 59 1.000000 0.054000 0.054000 1.200000 0.087000 0.105000
1517167525284631064	1400 56 1.200000 0.544000 0.683000 1400 49 1.000000 2.365000 2.544000 600 59 1.000000 0.054000 0.054000 1.200000 0.087000 0.105000
1517167525832636731	1400 56 1.200000 0.544000 0.683000 1400 49 1.000000 2.365000 2.544000 600 59 1.000000 0.054000 0.054000 1.200000 0.087000 0.105000
1517167526388639065	1400 56 1.200000 0.544000 0.683000 1400 49 1.000000 2.364000 2.543000 600 59 1.000000 0.054000 0.054000 1.200000 0.088000 0.106000
1517167526944656731	1400 56 1.200000 0.544000 0.683000 1400 49 1.000000 2.362000 2.541000 600 59 1.000000 0.054000 0.054000 1.200000 0.088000 0.106000
1517167527504662856	1400 56 1.200000 0.544000 0.683000 1400 49 1.000000 2.363000 2.542000 600 59 1.000000 0.054000 0.054000 1.200000 0.088000 0.106000
1517167528064605273	1400 56 1.200000 0.544000 0.683000 1400 49 1.000000 2.361000 2.540000 600 59 1.000000 0.054000 0.054000 1.200000 0.088000 0.106000
1517167528624583773	1400 56 1.200000 0.544000 0.683000 1400 49 1.000000 2.362000 2.541000 600 59 1.000000 0.054000 0.054000 1.200000 0.088000 0.106000
1517167529172606148	1400 56 1.200000 0.545000 0.684000 1400 49 1.000000 2.363000 2.542000 600 59 1.000000 0.054000 0.054000 1.200000 0.087000 0.105000
1517167529720662815	1400 56 1.200000 0.544000 0.683000 1400 49 1.000000 2.362000 2.541000 600 59 1.000000 0.054000 0.054000 1.200000 0.088000 0.106000
1517167530280668065	1400 56 1.200000 0.544000 0.683000 1400 49 1.000000 2.364000 2.541000 600 59 1.000000 0.054000 0.054000 1.200000 0.086000 0.104000
1517167530832668607	1400 56 1.200000 0.544000 0.683000 1400 49 1.000000 2.366000 2.545000 600 59 1.000000 0.054000 0.054000 1.200000 0.087000 0.105000
1517167531380669732	1400 56 1.200000 0.544000 0.682000 1400 49 1.000000 2.365000 2.544000 600 59 1.000000 0.054000 0.054000 1.200000 0.087000 0.105000
1517167531940641940	1400 56 1.200000 0.544000 0.683000 1400 49 1.000000 2.365000 2.544000 600 59 1.000000 0.054000 0.054000 1.200000 0.088000 0.106000
1517167532488628440	1400 56 1.200000 0.544000 0.683000 1400 49 1.000000 2.366000 2.545000 600 59 1.000000 0.054000 0.054000 1.200000 0.088000 0.106000
1517167533048638107	1400 56 1.200000 0.544000 0.683000 1400 49 1.000000 2.364000 2.543000 600 59 1.000000 0.054000 0.054000 1.200000 0.088000 0.106000
1517167533608587107	1400 56 1.200000 0.544000 0.683000 1400 49 1.000000 2.361000 2.540000 600 59 1.000000 0.054000 0.054000 1.200000 0.088000 0.106000
1517167534168629107	1400 56 1.200000 0.544000 0.683000 1400 49 1.000000 2.365000 2.544000 600 59 1.000000 0.054000 0.054000 1.200000 0.087000 0.105000
1517167534732638232	1400 56 1.200000 0.545000 0.684000 1400 49 1.000000 2.364000 2.543000 600 59 1.000000 0.054000 0.054000 1.200000 0.088000 0.106000
1517167535284666857	1400 56 1.200000 0.544000 0.683000 1400 49 1.000000 2.363000 2.542000 600 59 1.000000 0.054000 0.054000 1.200000 0.087000 0.105000
1517167535844644524	1400 56 1.200000 0.544000 0.683000 1400 49 1.000000 2.366000 2.545000 600 59 1.000000 0.054000 0.054000 1.200000 0.088000 0.106000
1517167536400656607	1400 56 1.200000 0.544000 0.683000 1400 49 1.000000 2.365000 2.544000 600 59 1.000000 0.054000 0.054000 1.200000 0.088000 0.106000
1517167536956642441	1400 56 1.200000 0.544000 0.683000 1400 49 1.000000 2.364000 2.543000 600 59 1.000000 0.054000 0.054000 1.200000 0.088000 0.106000
1517167537512672149	1400 56 1.200000 0.544000 0.683000 1400 49 1.000000 2.365000 2.544000 600 59 1.000000 0.054000 0.054000 1.200000 0.088000 0.106000
1517167538064636066	1400 56 1.200000 0.544000 0.683000 1400 49 1.000000 2.366000 2.545000 600 59 1.000000 0.054000 0.054000 1.200000 0.088000 0.106000
1517167538624639691	1400 56 1.200000 0.544000 0.683000 1400 49 1.000000 2.365000 2.544000 600 59 1.000000 0.054000 0.054000 1.200000 0.088000 0.106000
1517167539164576024	1400 56 1.200000 0.544000 0.683000 1400 50 1.000000 2.367000 2.546000 600 59 1.000000 0.054000 0.054000 1.200000 0.087000 0.105000
1517167539724608274	1400 56 1.200000 0.545000 0.684000 1400 49 1.000000 2.364000 2.543000 600 59 1.000000 0.054000 0.054000 1.200000 0.088000 0.106000
1517167540280646941	1400 56 1.200000 0.545000 0.684000 1400 50 1.000000 2.364000 2.543000 600 59 1.000000 0.054000 0.054000 1.200000 0.088000 0.106000
1517167540840633608	1400 56 1.200000 0.544000 0.683000 1400 50 1.000000 2.365000 2.544000 600 59 1.000000 0.054000 0.054000 1.200000 0.087000 0.105000
1517167541392637650	1400 56 1.200000 0.544000 0.683000 1400 49 1.000000 2.368000 2.547000 600 59 1.000000 0.054000 0.054000 1.200000 0.086000 0.104000
1517167541948656858	1400 56 1.200000 0.544000 0.683000 1400 50 1.000000 2.368000 2.547000 600 59 1.000000 0.054000 0.054000 1.200000 0.086000 0.104000
1517167542500663275	1400 56 1.200000 0.545000 0.684000 1400 50 1.000000 2.370000 2.550000 600 60 1.000000 0.054000 0.054000 1.200000 0.086000 0.104000
1517167543056604900	1400 56 1.200000 0.544000 0.683000 1400 50 1.000000 2.368000 2.547000 600 60 1.000000 0.054000 0.054000 1.200000 0.086000 0.104000
1517167543616646442	1400 57 1.200000 0.545000 0.684000 1400 50 1.000000 2.367000 2.546000 600 59 1.000000 0.054000 0.054000 1.200000 0.087000 0.105000
1517167544168602483	1400 56 1.200000 0.545000 0.684000 1400 50 1.000000 2.368000 2.547000 600 60 1.000000 0.054000 0.054000 1.200000 0.087000 0.105000
1517167544720665108	1400 57 1.200000 0.545000 0.684000 1400 50 1.000000 2.367000 2.546000 600 60 1.000000 0.054000 0.054000 1.200000 0.088000 0.106000
1517167545280677442	1400 57 1.200000 0.545000 0.684000 1400 50 1.000000 2.366000 2.545000 600 60 1.000000 0.055000 0.055000 1.200000 0.088000 0.106000
1517167545840668984	1400 57 1.200000 0.545000 0.684000 1400 50 1.000000 2.366000 2.545000 600 60 1.000000 0.054000 0.054000 1.200000 0.088000 0.106000
1517167546380608484	1400 56 1.200000 0.545000 0.684000 1400 50 1.000000 2.369000 2.549000 600 60 1.000000 0.054000 0.054000 1.200000 0.086000 0.104000
1517167546932692775	1400 57 1.200000 0.545000 0.684000 1400 50 1.000000 2.368000 2.547000 600 60 1.000000 0.054000 0.054000 1.200000 0.087000 0.105000
1517167547484659484	1400 56 1.200000 0.545000 0.684000 1400 50 1.000000 2.367000 2.546000 600 60 1.000000 0.054000 0.054000 1.200000 0.087000 0.105000
1517167548040634442	1400 57 1.200000 0.545000 0.684000 1400 50 1.000000 2.367000 2.546000 600 60 1.000000 0.054000 0.054000 1.200000 0.087000 0.105000
1517167548584647026	1400 57 1.200000 0.544000 0.683000 1400 50 1.000000 2.367000 2.546000 600 60 1.000000 0.054000 0.054000 1.200000 0.087000 0.105000
1517167549144588984	1400 57 1.200000 0.544000 0.683000 1400 50 1.000000 2.369000 2.549000 600 60 1.000000 0.054000 0.054000 1.200000 0.087000 0.105000
1517167549704641234	1400 57 1.200000 0.545000 0.684000 1400 50 1.000000 2.368000 2.547000 600 60 1.000000 0.054000 0.054000 1.200000 0.087000 0.105000
1517167550260613067	1400 57 1.200000 0.544000 0.683000 1400 50 1.000000 2.369000 2.549000 600 60 1.000000 0.054000 0.054000 1.200000 0.087000 0.105000
1517167550767231026	1400 57 1.200000 0.545000 0.684000 1400 50 1.000000 2.370000 2.550000 600 59 1.000000 0.055000 0.055000 1.200000 0.087000 0.105000
1517167551273260901	1400 49 1.200000 0.345000 0.435000 1400 47 1.000000 2.010000 2.156000 600 53 1.000000 0.054000 0.054000 1.200000 0.037000 0.044000
1517167551779164401	1400 47 1.200000 0.085000 0.108000 1400 45 1.000000 0.990000 1.057000 600 51 1.000000 0.054000 0.054000 1.200000 0.027000 0.032000
1517167552284463734	1400 46 1.200000 0.084000 0.106000 1400 44 1.000000 0.971000 1.038000 600 50 1.000000 0.054000 0.054000 1.200000 0.026000 0.031000
1517167552789760693	1400 45 1.200000 0.083000 0.105000 1400 44 1.000000 0.979000 1.047000 600 50 1.000000 0.054000 0.054000 1.200000 0.025000 0.030000
1517167553295073943	1400 45 1.200000 0.083000 0.105000 1400 43 1.000000 0.966000 1.031000 600 49 1.000000 0.053000 0.053000 1.200000 0.026000 0.031000
1517167553800349943	1400 44 1.200000 0.082000 0.104000 1400 42 1.000000 0.961000 1.028000 600 48 1.000000 0.053000 0.053000 1.200000 0.027000 0.032000
1517167554305625068	1400 44 1.200000 0.081000 0.103000 1400 42 1.000000 0.971000 1.038000 600 48 1.000000 0.053000 0.053000 1.200000 0.026000 0.031000
1517167554810927276	1400 43 1.200000 0.081000 0.103000 1400 42 1.000000 0.960000 1.027000 600 48 1.000000 0.053000 0.053000 1.200000 0.026000 0.031000
1517167555316173235	1400 43 1.200000 0.081000 0.103000 1400 41 1.000000 0.979000 1.047000 600 47 1.000000 0.053000 0.053000 1.200000 0.027000 0.032000
1517167555821419526	1400 43 1.200000 0.081000 0.103000 1400 41 1.000000 0.958000 1.025000 600 47 1.000000 0.053000 0.053000 1.200000 0.027000 0.032000
1517167556326668401	1400 42 1.200000 0.081000 0.103000 1400 41 1.000000 0.968000 1.035000 600 47 1.000000 0.053000 0.053000 1.200000 0.027000 0.032000
1517167556831970776	1400 42 1.200000 0.081000 0.103000 1400 41 1.000000 0.965000 1.032000 600 47 1.000000 0.053000 0.053000 1.200000 0.027000 0.032000
1517167557337230068	1400 42 1.200000 0.081000 0.103000 1400 40 1.000000 0.959000 1.026000 600 46 1.000000 0.053000 0.053000 1.200000 0.026000 0.031000
1517167557842593193	1400 43 1.200000 0.081000 0.103000 1400 40 1.000000 0.971000 1.038000 600 46 1.000000 0.053000 0.053000 1.200000 0.026000 0.031000
1517167558347860985	1400 42 1.200000 0.102000 0.129000 1400 40 1.000000 1.065000 1.139000 600 46 1.000000 0.053000 0.053000 1.200000 0.033000 0.039000
1517167558853250402	1400 42 1.200000 0.082000 0.104000 1400 40 1.000000 0.989000 1.058000 600 46 1.000000 0.053000 0.053000 1.200000 0.025000 0.030000
1517167559359507902	1400 42 1.200000 0.081000 0.103000 1400 40 1.000000 0.963000 1.030000 600 46 1.000000 0.053000 0.053000 1.200000 0.025000 0.030000
1517167559864810944	1400 41 1.200000 0.081000 0.103000 1400 40 1.000000 0.960000 1.027000 600 46 1.000000 0.053000 0.053000 1.200000 0.026000 0.031000
1517167560370151360	1400 41 1.200000 0.083000 0.105000 1400 40 1.000000 1.072000 1.147000 600 46 1.000000 0.053000 0.053000 1.200000 0.029000 0.035000
1517167560875495819	1400 41 1.200000 0.081000 0.103000 1400 40 1.000000 0.967000 1.034000 600 46 1.000000 0.053000 0.053000 1.200000 0.030000 0.036000
1517167561380886152	1400 41 1.200000 0.083000 0.105000 1400 39 1.000000 0.986000 1.055000 600 45 1.000000 0.053000 0.053000 1.200000 0.034000 0.041000
1517167561886166569	1400 41 1.200000 0.082000 0.104000 1400 39 1.000000 0.979000 1.047000 600 45 1.000000 0.053000 0.053000 1.200000 0.035000 0.042000
1517167562391434194	1400 41 1.200000 0.081000 0.103000 1400 39 1.000000 0.973000 1.041000 600 45 1.000000 0.053000 0.053000 1.200000 0.027000 0.032000
1517167562896601277	1400 41 1.200000 0.080000 0.101000 1400 39 1.000000 0.954000 1.020000 600 45 1.000000 0.053000 0.053000 1.200000 0.027000 0.032000
1517167563401886736	1400 41 1.200000 0.081000 0.103000 1400 39 1.000000 0.962000 1.029000 600 45 1.000000 0.053000 0.053000 1.200000 0.026000 0.031000
1517167563907078402	1400 41 1.200000 0.081000 0.103000 1400 39 1.000000 0.958000 1.023000 600 45 1.000000 0.053000 0.053000 1.200000 0.027000 0.032000
1517167564412194819	1400 41 1.200000 0.080000 0.101000 1400 39 1.000000 0.957000 1.022000 600 45 1.000000 0.053000 0.053000 1.200000 0.025000 0.030000
1517167564917366819	1400 40 1.200000 0.080000 0.101000 1400 39 1.000000 0.963000 1.030000 600 45 1.000000 0.053000 0.053000 1.200000 0.026000 0.031000
1517167565422635069	1400 40 1.200000 0.080000 0.101000 1400 39 1.000000 0.946000 1.010000 600 45 1.000000 0.053000 0.053000 1.200000 0.025000 0.030000
1517167565927945819	1400 40 1.200000 0.080000 0.101000 1400 39 1.000000 0.946000 1.010000 600 44 1.000000 0.053000 0.053000 1.200000 0.026000 0.031000
1517167566433231944	1400 40 1.200000 0.080000 0.101000 1400 39 1.000000 0.949000 1.013000 600 44 1.000000 0.053000 0.053000 1.200000 0.027000 0.032000
1517167566938623319	1400 41 1.200000 0.081000 0.103000 1400 39 1.000000 0.950000 1.016000 600 44 1.000000 0.053000 0.053000 1.200000 0.027000 0.032000
1517167567444150028	1400 40 1.200000 0.083000 0.105000 1400 39 1.000000 1.019000 1.090000 600 44 1.000000 0.052000 0.052000 1.200000 0.030000 0.036000
1517167567949499278	1400 40 1.200000 0.081000 0.103000 1400 39 1.000000 0.972000 1.040000 600 45 1.000000 0.053000 0.053000 1.200000 0.032000 0.038000
1517167568454728570	1400 40 1.200000 0.080000 0.101000 1400 38 1.000000 0.963000 1.030000 600 44 1.000000 0.053000 0.053000 1.200000 0.027000 0.032000
1517167568960075278	1400 40 1.200000 0.081000 0.103000 1400 38 1.000000 0.948000 1.012000 600 44 1.000000 0.053000 0.053000 1.200000 0.026000 0.031000
1517167569465459403	1400 40 1.200000 0.080000 0.101000 1400 38 1.000000 0.995000 1.064000 600 44 1.000000 0.053000 0.053000 1.200000 0.028000 0.033000
1517167569970695570	1400 41 1.200000 0.081000 0.103000 1400 39 1.000000 0.971000 1.038000 600 44 1.000000 0.053000 0.053000 1.200000 0.029000 0.035000
1517167570475912153	1400 40 1.200000 0.081000 0.103000 1400 38 1.000000 0.966000 1.031000 600 44 1.000000 0.053000 0.053000 1.200000 0.027000 0.032000
1517167570981107570	1400 40 1.200000 0.080000 0.101000 1400 39 1.000000 0.951000 1.017000 600 44 1.000000 0.053000 0.053000 1.200000 0.027000 0.032000
1517167571486685570	1400 40 1.200000 0.080000 0.101000 1400 38 1.000000 0.954000 1.020000 600 44 1.000000 0.053000 0.053000 1.200000 0.027000 0.032000
1517167571992176737	1400 41 1.200000 0.084000 0.106000 1400 39 1.000000 1.000000 1.070000 600 44 1.000000 0.053000 0.053000 1.200000 0.038000 0.045000
1517167572497467903	1400 41 1.200000 0.082000 0.104000 1400 38 1.000000 0.977000 1.045000 600 44 1.000000 0.053000 0.053000 1.200000 0.032000 0.038000
1517167573002752195	1400 41 1.200000 0.081000 0.103000 1400 39 1.000000 0.978000 1.046000 600 44 1.000000 0.053000 0.053000 1.200000 0.034000 0.041000
1517167573509144237	1400 40 1.200000 0.080000 0.101000 1400 38 1.000000 0.961000 1.028000 600 44 1.000000 0.053000 0.053000 1.200000 0.029000 0.035000
1517167574014440279	1400 40 1.200000 0.079000 0.100000 1400 38 1.000000 0.962000 1.029000 600 44 1.000000 0.053000 0.053000 1.200000 0.027000 0.032000
1517167574519628445	1400 40 1.200000 0.081000 0.103000 1400 38 1.000000 0.956000 1.022000 600 44 1.000000 0.053000 0.053000 1.200000 0.026000 0.031000
1517167575025193154	1400 39 1.200000 0.080000 0.101000 1400 38 1.000000 0.893000 0.953000 600 43 1.000000 0.053000 0.053000 1.200000 0.029000 0.035000
1517167575530821195	1400 39 1.200000 0.081000 0.103000 1400 38 1.000000 0.224000 0.241000 600 42 1.000000 0.053000 0.053000 1.200000 0.028000 0.033000
