#Timestamp	CPU(0) Frequency(MHz)	CPU(0) Temperature(C)	A7 Voltage(V)	A7 Current(A)	A7 Power(W)	CPU(4) Frequency(MHz)	CPU(4) Temperature(C)	A15 Voltage(V)	A15 Current(A)	A15 Power(W)	GPU Frequency(MHz)	GPU Temperature(C)	GPU Voltage(V)	GPU Current(A)	GPU Power(W)	RAM Voltage(V)	RAM Current(A)	RAM Power(W)
1517164573008812587	500 47 0.900000 0.028000 0.025000 1700 44 1.100000 1.130000 1.319000 600 51 1.000000 0.052000 0.052000 1.200000 0.042000 0.050000
1517164573515029254	500 48 0.900000 0.030000 0.027000 1700 44 1.100000 1.111000 1.297000 600 50 1.000000 0.053000 0.053000 1.200000 0.036000 0.043000
1517164574020904088	500 46 0.900000 0.030000 0.027000 1700 44 1.100000 1.138000 1.329000 600 49 1.000000 0.052000 0.052000 1.200000 0.039000 0.047000
1517164574527820629	500 51 0.900000 0.050000 0.045000 1700 44 1.100000 0.589000 0.686000 600 56 1.000000 0.053000 0.053000 1.200000 0.044000 0.053000
1517164575034355671	500 54 0.900000 0.129000 0.118000 1700 46 1.100000 2.987000 3.524000 600 57 1.000000 0.053000 0.053000 1.200000 0.040000 0.048000
1517164575543743713	500 55 0.900000 0.138000 0.125000 1700 47 1.100000 3.078000 3.622000 600 58 1.000000 0.053000 0.053000 1.200000 0.038000 0.045000
1517164576049763629	500 56 0.900000 0.119000 0.108000 1700 47 1.100000 2.161000 2.539000 600 62 1.000000 0.053000 0.053000 1.200000 0.036000 0.043000
1517164576555508171	500 49 0.900000 0.068000 0.062000 1700 46 1.100000 1.415000 1.655000 600 54 1.000000 0.053000 0.053000 1.200000 0.042000 0.050000
1517164577061682713	500 55 0.900000 0.086000 0.078000 1700 46 1.100000 0.510000 0.594000 600 60 1.000000 0.053000 0.053000 1.200000 0.048000 0.057000
1517164577567485005	500 49 0.900000 0.105000 0.096000 1700 46 1.100000 2.142000 2.512000 600 53 1.000000 0.053000 0.053000 1.200000 0.038000 0.045000
1517164578078070921	500 54 0.900000 0.103000 0.094000 1700 46 1.100000 0.745000 0.869000 600 59 1.000000 0.053000 0.053000 1.200000 0.046000 0.055000
1517164578583934755	500 48 0.900000 0.089000 0.081000 1700 45 1.100000 2.472000 2.907000 600 53 1.000000 0.053000 0.053000 1.200000 0.038000 0.045000
1517164579091443547	500 54 0.900000 0.111000 0.101000 1700 46 1.100000 1.193000 1.395000 600 59 1.000000 0.053000 0.053000 1.200000 0.042000 0.050000
1517164579597072713	500 48 0.900000 0.068000 0.062000 1700 45 1.100000 2.302000 2.704000 600 53 1.000000 0.053000 0.053000 1.200000 0.039000 0.047000
1517164580103209088	500 54 0.900000 0.084000 0.076000 1700 46 1.100000 1.768000 2.072000 600 59 1.000000 0.053000 0.053000 1.200000 0.040000 0.048000
1517164580664223005	500 56 0.900000 0.090000 0.082000 1700 47 1.100000 2.365000 2.781000 600 61 1.000000 0.053000 0.053000 1.200000 0.044000 0.053000
1517164581193499588	500 57 0.900000 0.112000 0.102000 1700 48 1.100000 2.892000 3.406000 600 64 1.000000 0.053000 0.053000 1.200000 0.050000 0.060000
1517164581700666672	500 49 0.900000 0.113000 0.103000 1700 46 1.100000 2.503000 2.943000 600 54 1.000000 0.053000 0.053000 1.200000 0.040000 0.048000
1517164582206669130	500 53 0.900000 0.109000 0.099000 1700 47 1.100000 1.690000 1.980000 600 59 1.000000 0.053000 0.053000 1.200000 0.037000 0.044000
1517164582712345880	500 50 0.900000 0.078000 0.071000 1700 46 1.100000 1.712000 2.004000 600 55 1.000000 0.053000 0.053000 1.200000 0.042000 0.050000
1517164583218034255	500 52 0.900000 0.109000 0.099000 1700 47 1.100000 2.270000 2.669000 600 58 1.000000 0.053000 0.053000 1.200000 0.036000 0.043000
1517164583723706089	500 49 0.900000 0.061000 0.055000 1700 46 1.100000 1.214000 1.420000 600 54 1.000000 0.053000 0.053000 1.200000 0.042000 0.050000
1517164584286859547	500 53 0.900000 0.109000 0.099000 1700 46 1.100000 2.240000 2.632000 600 58 1.000000 0.053000 0.053000 1.200000 0.034000 0.041000
1517164584811815547	500 57 0.900000 0.134000 0.122000 1700 47 1.100000 2.802000 3.297000 600 63 1.000000 0.053000 0.053000 1.200000 0.038000 0.045000
1517164585331330631	500 58 0.900000 0.132000 0.120000 1700 48 1.100000 2.867000 3.374000 600 65 1.000000 0.053000 0.053000 1.200000 0.046000 0.055000
1517164585849890339	500 59 0.900000 0.129000 0.117000 1700 49 1.100000 2.728000 3.213000 600 66 1.000000 0.053000 0.053000 1.200000 0.051000 0.061000
1517164586400274422	500 57 0.900000 0.114000 0.104000 1700 49 1.100000 2.823000 3.325000 600 64 1.000000 0.053000 0.053000 1.200000 0.049000 0.059000
1517164586945170714	500 54 0.900000 0.079000 0.072000 1700 48 1.100000 0.441000 0.513000 600 59 1.000000 0.053000 0.053000 1.200000 0.041000 0.049000
1517164587451072798	500 53 0.900000 0.110000 0.100000 1700 48 1.100000 2.278000 2.676000 600 59 1.000000 0.053000 0.053000 1.200000 0.038000 0.045000
1517164587958469589	500 54 0.900000 0.053000 0.048000 1700 47 1.100000 0.302000 0.351000 600 59 1.000000 0.053000 0.053000 1.200000 0.041000 0.049000
1517164588464499881	500 52 0.900000 0.103000 0.094000 1700 47 1.100000 2.332000 2.742000 600 58 1.000000 0.053000 0.053000 1.200000 0.036000 0.043000
1517164588970318589	500 52 0.900000 0.058000 0.053000 1700 46 1.100000 0.438000 0.510000 600 57 1.000000 0.053000 0.053000 1.200000 0.044000 0.053000
1517164589476253339	500 50 0.900000 0.116000 0.106000 1700 47 1.100000 2.486000 2.923000 600 55 1.000000 0.053000 0.053000 1.200000 0.046000 0.055000
1517164590026884881	500 52 0.900000 0.068000 0.062000 1700 46 1.100000 1.179000 1.377000 600 57 1.000000 0.053000 0.053000 1.200000 0.038000 0.045000
1517164590532789215	500 48 0.900000 0.111000 0.101000 1700 46 1.100000 2.716000 3.194000 600 54 1.000000 0.053000 0.053000 1.200000 0.044000 0.053000
1517164591076266298	500 51 0.900000 0.053000 0.048000 1700 46 1.100000 0.303000 0.353000 600 57 1.000000 0.053000 0.053000 1.200000 0.040000 0.048000
1517164591582238631	500 47 0.900000 0.105000 0.096000 1700 45 1.100000 2.681000 3.155000 600 52 1.000000 0.053000 0.053000 1.200000 0.036000 0.043000
1517164592088170506	500 51 0.900000 0.092000 0.084000 1700 46 1.100000 0.657000 0.766000 600 57 1.000000 0.053000 0.053000 1.200000 0.044000 0.053000
1517164592593836715	500 47 0.900000 0.095000 0.086000 1700 45 1.100000 2.307000 2.713000 600 52 1.000000 0.053000 0.053000 1.200000 0.036000 0.043000
1517164593148291590	500 51 0.900000 0.052000 0.047000 1700 46 1.100000 1.132000 1.324000 600 56 1.000000 0.053000 0.053000 1.200000 0.048000 0.057000
1517164593653976298	500 48 0.900000 0.103000 0.094000 1700 45 1.100000 2.062000 2.418000 600 53 1.000000 0.053000 0.053000 1.200000 0.036000 0.043000
1517164594159954965	500 54 0.900000 0.080000 0.073000 1700 46 1.100000 1.778000 2.082000 600 59 1.000000 0.053000 0.053000 1.200000 0.052000 0.062000
1517164594668360507	500 48 0.900000 0.102000 0.093000 1700 45 1.100000 1.759000 2.059000 600 52 1.000000 0.053000 0.053000 1.200000 0.035000 0.042000
1517164595174382632	500 53 0.900000 0.099000 0.090000 1700 46 1.100000 2.306000 2.711000 600 58 1.000000 0.053000 0.053000 1.200000 0.048000 0.057000
1517164595680321715	500 56 0.900000 0.104000 0.095000 1700 47 1.100000 2.656000 3.126000 600 62 1.000000 0.053000 0.053000 1.200000 0.043000 0.051000
1517164596191651549	500 57 0.900000 0.116000 0.106000 1700 48 1.100000 2.974000 3.497000 600 64 1.000000 0.053000 0.053000 1.200000 0.045000 0.054000
1517164596716408965	500 58 0.900000 0.112000 0.102000 1700 48 1.100000 2.559000 3.009000 600 64 1.000000 0.053000 0.053000 1.200000 0.047000 0.056000
1517164597222453549	500 59 0.900000 0.109000 0.099000 1700 49 1.100000 2.738000 3.222000 600 66 1.000000 0.053000 0.053000 1.200000 0.047000 0.056000
1517164597728448049	500 58 0.900000 0.121000 0.110000 1700 49 1.100000 2.806000 3.302000 600 66 1.000000 0.053000 0.053000 1.200000 0.047000 0.056000
1517164598234881674	500 58 0.900000 0.134000 0.122000 1700 50 1.100000 2.888000 3.402000 600 66 1.000000 0.053000 0.053000 1.200000 0.048000 0.057000
1517164598759981216	500 59 0.900000 0.086000 0.078000 1700 50 1.100000 2.978000 3.508000 600 67 1.000000 0.053000 0.053000 1.200000 0.047000 0.056000
1517164599271186091	500 60 0.900000 0.118000 0.107000 1700 50 1.100000 3.238000 3.820000 600 67 1.000000 0.053000 0.053000 1.200000 0.049000 0.059000
1517164599782919299	500 60 0.900000 0.115000 0.105000 1700 50 1.100000 3.308000 3.906000 600 67 1.000000 0.053000 0.053000 1.200000 0.046000 0.055000
1517164600300290674	500 60 0.900000 0.132000 0.120000 1700 51 1.100000 2.737000 3.221000 600 67 1.000000 0.053000 0.053000 1.200000 0.037000 0.044000
1517164600818972257	500 61 0.900000 0.136000 0.124000 1700 51 1.100000 2.771000 3.261000 600 68 1.000000 0.053000 0.053000 1.200000 0.039000 0.047000
1517164601325330258	500 61 0.900000 0.123000 0.112000 1700 51 1.100000 2.887000 3.400000 600 66 1.000000 0.053000 0.053000 1.200000 0.043000 0.051000
1517164601835020883	500 61 0.900000 0.109000 0.099000 1700 51 1.100000 2.857000 3.359000 600 68 1.000000 0.053000 0.053000 1.200000 0.041000 0.049000
1517164602372315258	500 61 0.900000 0.105000 0.096000 1700 51 1.100000 2.850000 3.357000 600 67 1.000000 0.053000 0.053000 1.200000 0.045000 0.054000
1517164602907327424	500 61 0.900000 0.112000 0.102000 1700 51 1.100000 2.917000 3.433000 600 68 1.000000 0.053000 0.053000 1.200000 0.046000 0.055000
1517164603428561758	500 61 0.900000 0.109000 0.099000 1700 51 1.100000 2.747000 3.233000 600 68 1.000000 0.053000 0.053000 1.200000 0.048000 0.057000
1517164603965347799	500 61 0.900000 0.109000 0.099000 1700 51 1.100000 2.455000 2.889000 600 68 1.000000 0.054000 0.054000 1.200000 0.048000 0.057000
1517164604471533633	500 61 0.900000 0.117000 0.107000 1700 52 1.100000 2.851000 3.358000 600 69 1.000000 0.053000 0.053000 1.200000 0.045000 0.054000
1517164604977378883	500 62 0.900000 0.115000 0.105000 1700 52 1.100000 2.756000 3.246000 600 69 1.000000 0.054000 0.054000 1.200000 0.046000 0.055000
1517164605488226633	500 62 0.900000 0.108000 0.098000 1700 52 1.100000 3.040000 3.581000 600 69 1.000000 0.054000 0.054000 1.200000 0.048000 0.057000
1517164605996244258	500 62 0.900000 0.110000 0.100000 1700 52 1.100000 3.178000 3.750000 600 69 1.000000 0.054000 0.054000 1.200000 0.049000 0.059000
1517164606516670883	500 62 0.900000 0.115000 0.105000 1700 52 1.100000 3.176000 3.750000 600 69 1.000000 0.054000 0.054000 1.200000 0.046000 0.055000
1517164607032076717	500 62 0.900000 0.107000 0.097000 1700 52 1.100000 3.550000 4.189000 600 69 1.000000 0.054000 0.054000 1.200000 0.049000 0.059000
1517164607545125758	500 62 0.900000 0.116000 0.106000 1700 52 1.100000 3.134000 3.701000 600 70 1.000000 0.053000 0.053000 1.200000 0.047000 0.056000
1517164608056075050	500 60 0.900000 0.114000 0.104000 1700 52 1.100000 3.149000 3.709000 600 67 1.000000 0.054000 0.054000 1.200000 0.046000 0.055000
1517164608561793342	500 54 0.900000 0.081000 0.074000 1700 50 1.100000 0.577000 0.672000 600 59 1.000000 0.053000 0.053000 1.200000 0.048000 0.057000
1517164609074222258	500 58 0.900000 0.104000 0.095000 1700 50 1.100000 2.128000 2.496000 600 64 1.000000 0.053000 0.053000 1.200000 0.038000 0.045000
1517164609580074467	500 52 0.900000 0.058000 0.053000 1700 48 1.100000 2.079000 2.442000 600 57 1.000000 0.053000 0.053000 1.200000 0.040000 0.048000
1517164610085837384	500 56 0.900000 0.104000 0.095000 1700 49 1.100000 1.834000 2.151000 600 62 1.000000 0.053000 0.053000 1.200000 0.035000 0.042000
1517164610591708675	500 51 0.900000 0.052000 0.047000 1700 48 1.100000 1.423000 1.664000 600 56 1.000000 0.053000 0.053000 1.200000 0.043000 0.051000
1517164611097560009	500 53 0.900000 0.117000 0.107000 1700 48 1.100000 0.521000 0.607000 600 59 1.000000 0.053000 0.053000 1.200000 0.044000 0.053000
1517164611605972884	500 50 0.900000 0.106000 0.096000 1700 47 1.100000 2.068000 2.431000 600 55 1.000000 0.053000 0.053000 1.200000 0.037000 0.044000
1517164612160422425	500 53 0.900000 0.077000 0.070000 1700 48 1.100000 0.776000 0.906000 600 59 1.000000 0.053000 0.053000 1.200000 0.042000 0.050000
1517164612699724634	500 53 0.900000 0.106000 0.097000 1700 47 1.100000 2.415000 2.837000 600 58 1.000000 0.053000 0.053000 1.200000 0.041000 0.049000
1517164613207376967	500 52 0.900000 0.100000 0.091000 1700 48 1.100000 1.666000 1.952000 600 59 1.000000 0.053000 0.053000 1.200000 0.040000 0.048000
1517164613733960801	500 56 0.900000 0.099000 0.090000 1700 48 1.100000 2.188000 2.573000 600 61 1.000000 0.053000 0.053000 1.200000 0.044000 0.053000
1517164614265952842	500 53 0.900000 0.092000 0.084000 1700 47 1.100000 1.982000 2.328000 600 58 1.000000 0.053000 0.053000 1.200000 0.041000 0.049000
1517164614771846634	500 51 0.900000 0.111000 0.101000 1700 47 1.100000 1.730000 2.027000 600 57 1.000000 0.053000 0.053000 1.200000 0.037000 0.044000
1517164615277675801	500 51 0.900000 0.063000 0.057000 1700 46 1.100000 1.598000 1.871000 600 56 1.000000 0.053000 0.053000 1.200000 0.043000 0.051000
1517164615783479676	500 50 0.900000 0.107000 0.097000 1700 47 1.100000 2.430000 2.855000 600 56 1.000000 0.053000 0.053000 1.200000 0.038000 0.045000
1517164616320299468	500 52 0.900000 0.056000 0.051000 1700 46 1.100000 1.077000 1.257000 600 57 1.000000 0.053000 0.053000 1.200000 0.043000 0.051000
1517164616826099968	500 49 0.900000 0.103000 0.094000 1700 46 1.100000 2.495000 2.936000 600 54 1.000000 0.053000 0.053000 1.200000 0.034000 0.041000
1517164617332049634	500 53 0.900000 0.083000 0.076000 1700 46 1.100000 0.323000 0.376000 600 59 1.000000 0.053000 0.053000 1.200000 0.048000 0.057000
1517164617837827634	500 48 0.900000 0.114000 0.104000 1700 46 1.100000 2.121000 2.492000 600 54 1.000000 0.053000 0.053000 1.200000 0.036000 0.043000
1517164618343784593	500 50 0.900000 0.052000 0.047000 1700 46 1.100000 0.336000 0.391000 600 56 1.000000 0.053000 0.053000 1.200000 0.050000 0.060000
1517164618849542760	500 48 0.900000 0.116000 0.106000 1700 46 1.100000 2.224000 2.608000 600 53 1.000000 0.053000 0.053000 1.200000 0.041000 0.049000
1517164619395427926	500 52 0.900000 0.071000 0.065000 1700 46 1.100000 0.663000 0.773000 600 57 1.000000 0.053000 0.053000 1.200000 0.045000 0.054000
1517164619901118968	500 47 0.900000 0.107000 0.097000 1700 45 1.100000 2.520000 2.961000 600 52 1.000000 0.053000 0.053000 1.200000 0.041000 0.049000
1517164620460291676	500 49 0.900000 0.103000 0.094000 1700 46 1.100000 1.716000 2.009000 600 55 1.000000 0.053000 0.053000 1.200000 0.038000 0.045000
1517164620966277135	500 49 0.900000 0.074000 0.067000 1700 45 1.100000 1.659000 1.942000 600 54 1.000000 0.053000 0.053000 1.200000 0.043000 0.051000
1517164621510814093	500 52 0.900000 0.119000 0.108000 1700 46 1.100000 2.387000 2.804000 600 58 1.000000 0.053000 0.053000 1.200000 0.037000 0.044000
1517164622034073427	500 52 0.900000 0.051000 0.046000 1700 45 1.100000 0.696000 0.811000 600 57 1.000000 0.053000 0.053000 1.200000 0.046000 0.055000
1517164622540054385	500 49 0.900000 0.107000 0.097000 1700 46 1.100000 2.210000 2.596000 600 55 1.000000 0.053000 0.053000 1.200000 0.037000 0.044000
1517164623096283635	500 50 0.900000 0.081000 0.074000 1700 45 1.100000 0.311000 0.362000 600 55 1.000000 0.053000 0.053000 1.200000 0.048000 0.057000
1517164623601923052	500 48 0.900000 0.099000 0.090000 1700 45 1.100000 2.290000 2.690000 600 53 1.000000 0.053000 0.053000 1.200000 0.036000 0.043000
1517164624107732677	500 50 0.900000 0.051000 0.046000 1700 45 1.100000 0.790000 0.921000 600 55 1.000000 0.053000 0.053000 1.200000 0.046000 0.055000
1517164624613440677	500 47 0.900000 0.111000 0.101000 1700 45 1.100000 2.521000 2.964000 600 52 1.000000 0.053000 0.053000 1.200000 0.035000 0.042000
1517164625148295635	500 49 0.900000 0.076000 0.069000 1700 45 1.100000 1.545000 1.810000 600 54 1.000000 0.053000 0.053000 1.200000 0.047000 0.056000
1517164625654260927	500 47 0.900000 0.111000 0.101000 1700 45 1.100000 2.003000 2.349000 600 52 1.000000 0.053000 0.053000 1.200000 0.036000 0.043000
1517164626181610302	500 53 0.900000 0.100000 0.091000 1700 45 1.100000 1.805000 2.115000 600 58 1.000000 0.053000 0.053000 1.200000 0.050000 0.060000
1517164626687348011	500 47 0.900000 0.091000 0.083000 1700 45 1.100000 1.610000 1.885000 600 52 1.000000 0.053000 0.053000 1.200000 0.035000 0.042000
1517164627193267344	500 52 0.900000 0.057000 0.052000 1700 46 1.100000 0.455000 0.530000 600 58 1.000000 0.053000 0.053000 1.200000 0.042000 0.050000
1517164627699109594	500 47 0.900000 0.099000 0.090000 1700 45 1.100000 2.134000 2.507000 600 51 1.000000 0.052000 0.052000 1.200000 0.034000 0.041000
1517164628204852177	500 51 0.900000 0.081000 0.074000 1700 45 1.100000 0.774000 0.903000 600 57 1.000000 0.053000 0.053000 1.200000 0.044000 0.053000
1517164628710695844	500 47 0.900000 0.109000 0.099000 1700 45 1.100000 2.542000 2.989000 600 52 1.000000 0.053000 0.053000 1.200000 0.035000 0.042000
1517164629216609094	500 51 0.900000 0.099000 0.090000 1700 45 1.100000 1.165000 1.363000 600 57 1.000000 0.053000 0.053000 1.200000 0.046000 0.055000
1517164629722393386	500 47 0.900000 0.089000 0.081000 1700 45 1.100000 2.276000 2.669000 600 52 1.000000 0.053000 0.053000 1.200000 0.034000 0.041000
1517164630228407136	500 51 0.900000 0.057000 0.052000 1700 45 1.100000 1.721000 2.017000 600 57 1.000000 0.053000 0.053000 1.200000 0.049000 0.059000
1517164630734139553	500 47 0.900000 0.100000 0.091000 1700 45 1.100000 2.142000 2.512000 600 51 1.000000 0.053000 0.053000 1.200000 0.035000 0.042000
1517164631240086344	500 51 0.900000 0.081000 0.074000 1700 45 1.100000 1.929000 2.262000 600 57 1.000000 0.053000 0.053000 1.200000 0.051000 0.061000
1517164631745937678	500 47 0.900000 0.107000 0.098000 1700 45 1.100000 1.406000 1.646000 600 51 1.000000 0.053000 0.053000 1.200000 0.036000 0.043000
1517164632251815470	500 50 0.900000 0.104000 0.095000 1700 45 1.100000 2.442000 2.871000 600 56 1.000000 0.053000 0.053000 1.200000 0.046000 0.055000
1517164632757536803	500 47 0.900000 0.088000 0.080000 1700 45 1.100000 1.241000 1.451000 600 51 1.000000 0.053000 0.053000 1.200000 0.037000 0.044000
1517164633263494761	500 50 0.900000 0.060000 0.055000 1700 45 1.100000 0.728000 0.849000 600 56 1.000000 0.053000 0.053000 1.200000 0.043000 0.051000
1517164633769171261	500 46 0.900000 0.103000 0.094000 1700 45 1.100000 2.484000 2.921000 600 51 1.000000 0.053000 0.053000 1.200000 0.036000 0.043000
1517164634275204095	500 50 0.900000 0.083000 0.076000 1700 45 1.100000 1.345000 1.573000 600 55 1.000000 0.053000 0.053000 1.200000 0.044000 0.053000
1517164634780867928	500 46 0.900000 0.100000 0.091000 1700 45 1.100000 2.071000 2.433000 600 51 1.000000 0.053000 0.053000 1.200000 0.035000 0.042000
1517164635286818762	500 50 0.900000 0.100000 0.091000 1700 45 1.100000 1.840000 2.156000 600 55 1.000000 0.053000 0.053000 1.200000 0.047000 0.056000
1517164635792551720	500 46 0.900000 0.089000 0.081000 1700 45 1.100000 2.056000 2.411000 600 51 1.000000 0.053000 0.053000 1.200000 0.037000 0.044000
1517164636298376345	500 49 0.900000 0.111000 0.101000 1700 45 1.100000 2.041000 2.398000 600 55 1.000000 0.053000 0.053000 1.200000 0.048000 0.057000
1517164636804148512	500 46 0.900000 0.105000 0.096000 1700 44 1.100000 1.456000 1.703000 600 51 1.000000 0.053000 0.053000 1.200000 0.036000 0.043000
1517164637354334678	500 53 0.900000 0.084000 0.076000 1700 45 1.100000 2.456000 2.885000 600 59 1.000000 0.053000 0.053000 1.200000 0.046000 0.055000
1517164637876638345	500 56 0.900000 0.107000 0.097000 1700 46 1.100000 2.526000 2.975000 600 62 1.000000 0.053000 0.053000 1.200000 0.046000 0.055000
1517164638392078095	500 57 0.900000 0.110000 0.100000 1700 48 1.100000 2.715000 3.198000 600 64 1.000000 0.053000 0.053000 1.200000 0.049000 0.059000
1517164638912858387	500 58 0.900000 0.113000 0.103000 1700 48 1.100000 3.020000 3.554000 600 64 1.000000 0.053000 0.053000 1.200000 0.049000 0.059000
1517164639429102679	500 58 0.900000 0.115000 0.105000 1700 49 1.100000 3.169000 3.733000 600 65 1.000000 0.053000 0.053000 1.200000 0.049000 0.059000
1517164639948363470	500 59 0.900000 0.117000 0.107000 1700 49 1.100000 3.117000 3.678000 600 66 1.000000 0.053000 0.053000 1.200000 0.048000 0.057000
1517164640457114387	500 59 0.900000 0.115000 0.105000 1700 49 1.100000 3.535000 4.171000 600 67 1.000000 0.053000 0.053000 1.200000 0.050000 0.060000
1517164640979592429	500 60 0.900000 0.126000 0.115000 1700 50 1.100000 3.366000 3.971000 600 66 1.000000 0.053000 0.053000 1.200000 0.050000 0.060000
1517164641502857721	500 60 0.900000 0.130000 0.118000 1700 50 1.100000 3.218000 3.800000 600 67 1.000000 0.053000 0.053000 1.200000 0.048000 0.057000
1517164642026153679	500 60 0.900000 0.133000 0.121000 1700 50 1.100000 3.540000 4.177000 600 67 1.000000 0.053000 0.053000 1.200000 0.049000 0.059000
1517164642533304554	500 60 0.900000 0.134000 0.122000 1700 50 1.100000 3.515000 4.147000 600 68 1.000000 0.053000 0.053000 1.200000 0.047000 0.056000
1517164643043094846	500 61 0.900000 0.116000 0.106000 1700 51 1.100000 3.477000 4.102000 600 68 1.000000 0.053000 0.053000 1.200000 0.048000 0.057000
1517164643581481096	500 59 0.900000 0.122000 0.111000 1700 50 1.100000 2.778000 3.269000 600 66 1.000000 0.054000 0.054000 1.200000 0.044000 0.053000
1517164644090963221	500 52 0.900000 0.109000 0.099000 1700 49 1.100000 1.700000 1.990000 600 58 1.000000 0.053000 0.053000 1.200000 0.037000 0.044000
1517164644596736971	500 54 0.900000 0.077000 0.070000 1700 49 1.100000 2.470000 2.902000 600 60 1.000000 0.053000 0.053000 1.200000 0.047000 0.056000
1517164645102503179	500 51 0.900000 0.101000 0.092000 1700 47 1.100000 1.132000 1.322000 600 56 1.000000 0.053000 0.053000 1.200000 0.038000 0.045000
1517164645614433846	500 56 0.900000 0.106000 0.096000 1700 48 1.100000 2.648000 3.092000 600 62 1.000000 0.053000 0.053000 1.200000 0.046000 0.055000
1517164646129354596	500 54 0.900000 0.070000 0.064000 1700 47 1.100000 1.983000 2.326000 600 59 1.000000 0.053000 0.053000 1.200000 0.041000 0.049000
1517164646635238346	500 50 0.900000 0.114000 0.104000 1700 47 1.100000 2.091000 2.452000 600 56 1.000000 0.053000 0.053000 1.200000 0.039000 0.047000
1517164647166390346	500 53 0.900000 0.055000 0.050000 1700 46 1.100000 1.008000 1.177000 600 58 1.000000 0.053000 0.053000 1.200000 0.043000 0.051000
1517164647672353555	500 48 0.900000 0.113000 0.103000 1700 46 1.100000 2.560000 3.013000 600 54 1.000000 0.053000 0.053000 1.200000 0.036000 0.043000
1517164648196955930	500 54 0.900000 0.098000 0.089000 1700 46 1.100000 0.330000 0.384000 600 59 1.000000 0.053000 0.053000 1.200000 0.049000 0.059000
1517164648702624180	500 47 0.900000 0.084000 0.076000 1700 46 1.100000 2.457000 2.886000 600 52 1.000000 0.053000 0.053000 1.200000 0.037000 0.044000
1517164649255700263	500 52 0.900000 0.068000 0.062000 1700 46 1.100000 0.837000 0.976000 600 57 1.000000 0.053000 0.053000 1.200000 0.045000 0.054000
1517164649761648055	500 49 0.900000 0.106000 0.096000 1700 45 1.100000 2.116000 2.482000 600 54 1.000000 0.053000 0.053000 1.200000 0.039000 0.047000
1517164650267530888	500 50 0.900000 0.100000 0.091000 1700 46 1.100000 1.604000 1.879000 600 56 1.000000 0.053000 0.053000 1.200000 0.040000 0.048000
1517164650773183180	500 48 0.900000 0.078000 0.071000 1700 45 1.100000 1.531000 1.792000 600 53 1.000000 0.053000 0.053000 1.200000 0.042000 0.050000
1517164651313510138	500 53 0.900000 0.109000 0.099000 1700 46 1.100000 2.485000 2.919000 600 58 1.000000 0.053000 0.053000 1.200000 0.035000 0.042000
1517164651843320514	500 52 0.900000 0.055000 0.050000 1700 45 1.100000 1.131000 1.321000 600 56 1.000000 0.053000 0.053000 1.200000 0.045000 0.054000
1517164652349084264	500 50 0.900000 0.105000 0.096000 1700 46 1.100000 2.556000 3.005000 600 56 1.000000 0.053000 0.053000 1.200000 0.034000 0.041000
1517164652854996764	500 53 0.900000 0.057000 0.052000 1700 45 1.100000 0.315000 0.366000 600 57 1.000000 0.053000 0.053000 1.200000 0.045000 0.054000
1517164653360853430	500 50 0.900000 0.100000 0.091000 1700 46 1.100000 2.184000 2.566000 600 56 1.000000 0.053000 0.053000 1.200000 0.036000 0.043000
1517164653866767139	500 51 0.900000 0.081000 0.074000 1700 45 1.100000 0.295000 0.343000 600 56 1.000000 0.053000 0.053000 1.200000 0.049000 0.059000
1517164654372735597	500 49 0.900000 0.116000 0.106000 1700 46 1.100000 1.908000 2.238000 600 55 1.000000 0.053000 0.053000 1.200000 0.038000 0.045000
1517164654878674222	500 49 0.900000 0.051000 0.046000 1700 45 1.100000 1.434000 1.679000 600 55 1.000000 0.052000 0.052000 1.200000 0.042000 0.050000
1517164655384476556	500 49 0.900000 0.102000 0.093000 1700 46 1.100000 2.572000 3.022000 600 55 1.000000 0.053000 0.053000 1.200000 0.036000 0.043000
1517164655890434681	500 49 0.900000 0.086000 0.078000 1700 45 1.100000 1.183000 1.384000 600 54 1.000000 0.053000 0.053000 1.200000 0.043000 0.051000
1517164656396326681	500 49 0.900000 0.111000 0.101000 1700 45 1.100000 2.446000 2.874000 600 55 1.000000 0.053000 0.053000 1.200000 0.037000 0.044000
1517164656902118556	500 49 0.900000 0.072000 0.065000 1700 45 1.100000 0.677000 0.789000 600 55 1.000000 0.053000 0.053000 1.200000 0.044000 0.053000
1517164657407807014	500 49 0.900000 0.108000 0.098000 1700 45 1.100000 2.487000 2.924000 600 55 1.000000 0.053000 0.053000 1.200000 0.036000 0.043000
1517164657913677639	500 49 0.900000 0.050000 0.045000 1700 45 1.100000 0.301000 0.350000 600 54 1.000000 0.053000 0.053000 1.200000 0.046000 0.055000
1517164658419481806	500 49 0.900000 0.109000 0.099000 1700 45 1.100000 2.185000 2.563000 600 55 1.000000 0.052000 0.052000 1.200000 0.036000 0.043000
1517164658925394681	500 49 0.900000 0.058000 0.053000 1700 45 1.100000 0.294000 0.342000 600 54 1.000000 0.053000 0.053000 1.200000 0.050000 0.060000
1517164659431192056	500 49 0.900000 0.101000 0.092000 1700 45 1.100000 2.500000 2.940000 600 55 1.000000 0.053000 0.053000 1.200000 0.036000 0.043000
1517164659937088556	500 49 0.900000 0.083000 0.076000 1700 45 1.100000 0.428000 0.499000 600 54 1.000000 0.053000 0.053000 1.200000 0.047000 0.056000
1517164660443082973	500 48 0.900000 0.114000 0.104000 1700 45 1.100000 2.528000 2.972000 600 54 1.000000 0.053000 0.053000 1.200000 0.035000 0.042000
1517164660949098931	500 48 0.900000 0.051000 0.046000 1700 45 1.100000 1.190000 1.392000 600 53 1.000000 0.053000 0.053000 1.200000 0.042000 0.050000
1517164661455083140	500 48 0.900000 0.113000 0.103000 1700 45 1.100000 2.455000 2.887000 600 54 1.000000 0.052000 0.052000 1.200000 0.037000 0.044000
1517164661964454848	500 48 0.900000 0.087000 0.079000 1700 45 1.100000 0.569000 0.663000 600 53 1.000000 0.053000 0.053000 1.200000 0.046000 0.055000
1517164662470433640	500 48 0.900000 0.110000 0.100000 1700 45 1.100000 2.480000 2.916000 600 54 1.000000 0.053000 0.053000 1.200000 0.043000 0.051000
1517164663020239890	500 49 0.900000 0.068000 0.062000 1700 45 1.100000 0.338000 0.393000 600 54 1.000000 0.053000 0.053000 1.200000 0.040000 0.048000
1517164663526077307	500 48 0.900000 0.115000 0.105000 1700 45 1.100000 2.313000 2.720000 600 53 1.000000 0.053000 0.053000 1.200000 0.037000 0.044000
1517164664040851390	500 52 0.900000 0.050000 0.045000 1700 45 1.100000 0.318000 0.370000 600 57 1.000000 0.053000 0.053000 1.200000 0.040000 0.048000
1517164664546835390	500 47 0.900000 0.110000 0.100000 1700 45 1.100000 2.410000 2.834000 600 53 1.000000 0.052000 0.052000 1.200000 0.039000 0.047000
1517164665057275723	500 52 0.900000 0.065000 0.059000 1700 45 1.100000 0.532000 0.620000 600 57 1.000000 0.053000 0.053000 1.200000 0.042000 0.050000
1517164665563056890	500 47 0.900000 0.107000 0.097000 1700 45 1.100000 2.067000 2.428000 600 53 1.000000 0.052000 0.052000 1.200000 0.037000 0.044000
1517164666068884307	500 52 0.900000 0.087000 0.079000 1700 45 1.100000 0.787000 0.918000 600 58 1.000000 0.053000 0.053000 1.200000 0.045000 0.054000
1517164666574609307	500 47 0.900000 0.104000 0.095000 1700 45 1.100000 2.577000 3.030000 600 53 1.000000 0.052000 0.052000 1.200000 0.037000 0.044000
1517164667080567640	500 52 0.900000 0.104000 0.095000 1700 45 1.100000 1.376000 1.611000 600 57 1.000000 0.053000 0.053000 1.200000 0.046000 0.055000
1517164667586430057	500 47 0.900000 0.081000 0.074000 1700 45 1.100000 2.118000 2.484000 600 52 1.000000 0.053000 0.053000 1.200000 0.037000 0.044000
1517164668092386515	500 49 0.900000 0.081000 0.074000 1700 45 1.100000 0.330000 0.384000 600 55 1.000000 0.053000 0.053000 1.200000 0.040000 0.048000
1517164668598114182	500 47 0.900000 0.108000 0.098000 1700 45 1.100000 2.616000 3.076000 600 52 1.000000 0.052000 0.052000 1.200000 0.038000 0.045000
1517164669104059349	500 49 0.900000 0.058000 0.053000 1700 45 1.100000 0.498000 0.580000 600 54 1.000000 0.053000 0.053000 1.200000 0.041000 0.049000
1517164669609927474	500 47 0.900000 0.105000 0.096000 1700 45 1.100000 2.226000 2.611000 600 52 1.000000 0.053000 0.053000 1.200000 0.037000 0.044000
1517164670115853391	500 49 0.900000 0.050000 0.045000 1700 45 1.100000 0.752000 0.877000 600 54 1.000000 0.053000 0.053000 1.200000 0.041000 0.049000
1517164670635058641	500 55 0.900000 0.118000 0.107000 1700 46 1.100000 3.126000 3.688000 600 61 1.000000 0.053000 0.053000 1.200000 0.039000 0.047000
1517164671155015182	500 56 0.900000 0.134000 0.122000 1700 47 1.100000 3.127000 3.689000 600 63 1.000000 0.053000 0.053000 1.200000 0.042000 0.050000
1517164671660775933	500 49 0.900000 0.115000 0.105000 1700 46 1.100000 2.578000 3.031000 600 55 1.000000 0.053000 0.053000 1.200000 0.039000 0.047000
1517164672208199349	500 51 0.900000 0.088000 0.080000 1700 46 1.100000 1.382000 1.618000 600 57 1.000000 0.053000 0.053000 1.200000 0.045000 0.054000
1517164672714037641	500 47 0.900000 0.104000 0.095000 1700 45 1.100000 2.056000 2.415000 600 53 1.000000 0.053000 0.053000 1.200000 0.035000 0.042000
1517164673248405724	500 53 0.900000 0.102000 0.093000 1700 46 1.100000 1.693000 1.984000 600 58 1.000000 0.053000 0.053000 1.200000 0.049000 0.059000
1517164673754194099	500 47 0.900000 0.086000 0.078000 1700 45 1.100000 1.983000 2.324000 600 52 1.000000 0.053000 0.053000 1.200000 0.036000 0.043000
1517164674260137391	500 52 0.900000 0.062000 0.056000 1700 46 1.100000 2.284000 2.683000 600 57 1.000000 0.052000 0.052000 1.200000 0.051000 0.061000
1517164674765873933	500 47 0.900000 0.114000 0.104000 1700 45 1.100000 1.143000 1.337000 600 52 1.000000 0.053000 0.053000 1.200000 0.034000 0.041000
1517164675271881308	500 51 0.900000 0.089000 0.081000 1700 45 1.100000 2.405000 2.825000 600 56 1.000000 0.053000 0.053000 1.200000 0.046000 0.055000
1517164675777714933	500 46 0.900000 0.099000 0.090000 1700 45 1.100000 0.800000 0.933000 600 51 1.000000 0.053000 0.053000 1.200000 0.036000 0.043000
1517164676335338433	500 51 0.900000 0.116000 0.106000 1700 45 1.100000 2.487000 2.922000 600 56 1.000000 0.052000 0.052000 1.200000 0.044000 0.053000
1517164676841214975	500 49 0.900000 0.072000 0.065000 1700 44 1.100000 0.294000 0.342000 600 53 1.000000 0.053000 0.053000 1.200000 0.041000 0.049000
1517164677396541725	500 49 0.900000 0.114000 0.104000 1700 45 1.100000 2.692000 3.165000 600 55 1.000000 0.053000 0.053000 1.200000 0.038000 0.045000
1517164677919682225	500 51 0.900000 0.053000 0.048000 1700 44 1.100000 0.704000 0.821000 600 56 1.000000 0.053000 0.053000 1.200000 0.045000 0.054000
1517164678425510767	500 49 0.900000 0.104000 0.095000 1700 45 1.100000 2.496000 2.935000 600 54 1.000000 0.052000 0.052000 1.200000 0.037000 0.044000
1517164678980227642	500 49 0.900000 0.087000 0.079000 1700 45 1.100000 1.673000 1.959000 600 54 1.000000 0.052000 0.052000 1.200000 0.046000 0.055000
1517164679486092475	500 47 0.900000 0.093000 0.085000 1700 45 1.100000 1.772000 2.075000 600 52 1.000000 0.052000 0.052000 1.200000 0.037000 0.044000
1517164680048282350	500 48 0.900000 0.116000 0.106000 1700 45 1.100000 2.210000 2.596000 600 54 1.000000 0.053000 0.053000 1.200000 0.050000 0.060000
1517164680554110475	500 46 0.900000 0.104000 0.095000 1700 44 1.100000 0.827000 0.965000 600 51 1.000000 0.052000 0.052000 1.200000 0.038000 0.045000
1517164681101306559	500 51 0.900000 0.097000 0.088000 1700 45 1.100000 2.398000 2.812000 600 56 1.000000 0.053000 0.053000 1.200000 0.042000 0.050000
1517164681607996559	500 49 0.900000 0.089000 0.081000 1700 44 1.100000 0.297000 0.348000 600 52 1.000000 0.053000 0.053000 1.200000 0.041000 0.049000
1517164682158743059	500 50 0.900000 0.107000 0.097000 1700 45 1.100000 1.985000 2.332000 600 55 1.000000 0.052000 0.052000 1.200000 0.036000 0.043000
1517164682678532017	500 51 0.900000 0.053000 0.048000 1700 44 1.100000 0.948000 1.107000 600 55 1.000000 0.053000 0.053000 1.200000 0.042000 0.050000
1517164683184301142	500 48 0.900000 0.112000 0.102000 1700 45 1.100000 2.498000 2.940000 600 53 1.000000 0.053000 0.053000 1.200000 0.035000 0.042000
1517164683720220267	500 51 0.900000 0.070000 0.064000 1700 44 1.100000 0.324000 0.377000 600 56 1.000000 0.052000 0.052000 1.200000 0.048000 0.057000
1517164684226146017	500 46 0.900000 0.102000 0.093000 1700 44 1.100000 2.556000 3.005000 600 52 1.000000 0.052000 0.052000 1.200000 0.035000 0.042000
1517164684788258392	500 49 0.900000 0.104000 0.095000 1700 44 1.100000 0.651000 0.759000 600 53 1.000000 0.052000 0.052000 1.200000 0.048000 0.057000
1517164685294007351	500 46 0.900000 0.071000 0.065000 1700 44 1.100000 2.480000 2.916000 600 51 1.000000 0.052000 0.052000 1.200000 0.038000 0.045000
1517164685799951476	500 49 0.900000 0.114000 0.104000 1700 45 1.100000 1.567000 1.836000 600 54 1.000000 0.053000 0.053000 1.200000 0.041000 0.049000
1517164686305762018	500 45 0.900000 0.109000 0.099000 1700 44 1.100000 1.857000 2.178000 600 50 1.000000 0.052000 0.052000 1.200000 0.039000 0.047000
1517164686856266726	500 51 0.900000 0.050000 0.045000 1700 45 1.100000 0.319000 0.371000 600 56 1.000000 0.052000 0.052000 1.200000 0.051000 0.061000
1517164687363858768	500 47 0.900000 0.081000 0.074000 1700 44 1.100000 1.061000 1.241000 600 51 1.000000 0.052000 0.052000 1.200000 0.041000 0.049000
1517164687869776559	500 50 0.900000 0.066000 0.060000 1700 45 1.100000 0.621000 0.724000 600 56 1.000000 0.052000 0.052000 1.200000 0.048000 0.057000
1517164688375490810	500 47 0.900000 0.114000 0.104000 1700 44 1.100000 2.588000 3.043000 600 52 1.000000 0.052000 0.052000 1.200000 0.036000 0.043000
1517164688932321060	500 49 0.900000 0.095000 0.086000 1700 45 1.100000 1.068000 1.250000 600 55 1.000000 0.052000 0.052000 1.200000 0.047000 0.056000
1517164689481832393	500 50 0.900000 0.097000 0.088000 1700 44 1.100000 2.097000 2.459000 600 54 1.000000 0.053000 0.053000 1.200000 0.040000 0.048000
1517164689987781560	500 49 0.900000 0.116000 0.106000 1700 45 1.100000 1.756000 2.058000 600 55 1.000000 0.052000 0.052000 1.200000 0.036000 0.043000
1517164690501858810	500 51 0.900000 0.073000 0.066000 1700 44 1.100000 1.879000 2.204000 600 56 1.000000 0.053000 0.053000 1.200000 0.041000 0.049000
1517164691007693018	500 49 0.900000 0.114000 0.104000 1700 45 1.100000 2.243000 2.635000 600 55 1.000000 0.053000 0.053000 1.200000 0.037000 0.044000
1517164691513655768	500 52 0.900000 0.052000 0.047000 1700 44 1.100000 1.231000 1.440000 600 56 1.000000 0.052000 0.052000 1.200000 0.043000 0.051000
1517164692019674518	500 49 0.900000 0.106000 0.096000 1700 45 1.100000 2.377000 2.795000 600 55 1.000000 0.053000 0.053000 1.200000 0.034000 0.041000
1517164692525486810	500 51 0.900000 0.058000 0.053000 1700 44 1.100000 1.043000 1.218000 600 55 1.000000 0.053000 0.053000 1.200000 0.042000 0.050000
1517164693031472435	500 49 0.900000 0.114000 0.104000 1700 45 1.100000 2.560000 3.010000 600 55 1.000000 0.053000 0.053000 1.200000 0.036000 0.043000
1517164693537333602	500 50 0.900000 0.075000 0.068000 1700 44 1.100000 0.350000 0.407000 600 55 1.000000 0.053000 0.053000 1.200000 0.046000 0.055000
1517164694043269227	500 49 0.900000 0.113000 0.103000 1700 45 1.100000 2.344000 2.754000 600 55 1.000000 0.052000 0.052000 1.200000 0.034000 0.041000
1517164694549578185	500 51 0.900000 0.051000 0.046000 1700 44 1.100000 0.326000 0.379000 600 56 1.000000 0.052000 0.052000 1.200000 0.048000 0.057000
1517164695055499769	500 49 0.900000 0.099000 0.090000 1700 45 1.100000 2.255000 2.649000 600 55 1.000000 0.053000 0.053000 1.200000 0.036000 0.043000
1517164695561868352	500 51 0.900000 0.051000 0.046000 1700 44 1.100000 0.293000 0.341000 600 56 1.000000 0.053000 0.053000 1.200000 0.048000 0.057000
1517164696067692602	500 49 0.900000 0.114000 0.104000 1700 45 1.100000 2.496000 2.935000 600 55 1.000000 0.053000 0.053000 1.200000 0.034000 0.041000
1517164696573705352	500 51 0.900000 0.074000 0.067000 1700 44 1.100000 1.411000 1.650000 600 56 1.000000 0.052000 0.052000 1.200000 0.042000 0.050000
1517164697079620352	500 49 0.900000 0.115000 0.105000 1700 45 1.100000 2.455000 2.884000 600 55 1.000000 0.053000 0.053000 1.200000 0.035000 0.042000
1517164697586125477	500 51 0.900000 0.056000 0.051000 1700 44 1.100000 1.200000 1.404000 600 56 1.000000 0.053000 0.053000 1.200000 0.042000 0.050000
1517164698092030852	500 49 0.900000 0.106000 0.097000 1700 45 1.100000 2.285000 2.687000 600 55 1.000000 0.052000 0.052000 1.200000 0.037000 0.044000
1517164698597842852	500 51 0.900000 0.050000 0.045000 1700 44 1.100000 0.742000 0.865000 600 56 1.000000 0.053000 0.053000 1.200000 0.044000 0.053000
1517164699103739436	500 49 0.900000 0.111000 0.101000 1700 45 1.100000 2.446000 2.876000 600 55 1.000000 0.052000 0.052000 1.200000 0.034000 0.041000
1517164699609526269	500 51 0.900000 0.074000 0.067000 1700 44 1.100000 0.305000 0.355000 600 56 1.000000 0.052000 0.052000 1.200000 0.044000 0.053000
1517164700115582728	500 49 0.900000 0.114000 0.104000 1700 45 1.100000 2.121000 2.487000 600 55 1.000000 0.052000 0.052000 1.200000 0.035000 0.042000
1517164700621398936	500 52 0.900000 0.057000 0.052000 1700 44 1.100000 0.292000 0.340000 600 56 1.000000 0.053000 0.053000 1.200000 0.047000 0.056000
1517164701127368811	500 49 0.900000 0.105000 0.096000 1700 45 1.100000 2.492000 2.930000 600 55 1.000000 0.053000 0.053000 1.200000 0.040000 0.048000
1517164701633216894	500 50 0.900000 0.050000 0.045000 1700 44 1.100000 0.447000 0.521000 600 56 1.000000 0.052000 0.052000 1.200000 0.041000 0.049000
1517164702139003728	500 49 0.900000 0.109000 0.099000 1700 45 1.100000 2.194000 2.573000 600 55 1.000000 0.052000 0.052000 1.200000 0.037000 0.044000
1517164702645175103	500 51 0.900000 0.077000 0.070000 1700 44 1.100000 1.248000 1.460000 600 56 1.000000 0.053000 0.053000 1.200000 0.033000 0.039000
1517164703151440186	500 50 0.900000 0.107000 0.097000 1700 45 1.100000 2.263000 2.659000 600 56 1.000000 0.053000 0.053000 1.200000 0.049000 0.059000
1517164703657389353	500 55 0.900000 0.100000 0.091000 1700 46 1.100000 2.953000 3.475000 600 61 1.000000 0.053000 0.053000 1.200000 0.040000 0.048000
1517164704179817770	500 56 0.900000 0.109000 0.099000 1700 47 1.100000 2.938000 3.455000 600 63 1.000000 0.053000 0.053000 1.200000 0.041000 0.049000
1517164704695585186	500 58 0.900000 0.117000 0.107000 1700 48 1.100000 2.699000 3.179000 600 64 1.000000 0.053000 0.053000 1.200000 0.042000 0.050000
1517164705226469520	500 58 0.900000 0.131000 0.119000 1700 48 1.100000 2.647000 3.115000 600 64 1.000000 0.053000 0.053000 1.200000 0.046000 0.055000
1517164705741705103	500 59 0.900000 0.111000 0.101000 1700 48 1.100000 2.788000 3.278000 600 65 1.000000 0.053000 0.053000 1.200000 0.043000 0.051000
1517164706248141853	500 58 0.900000 0.112000 0.102000 1700 49 1.100000 2.890000 3.401000 600 65 1.000000 0.053000 0.053000 1.200000 0.047000 0.056000
1517164706757423228	500 59 0.900000 0.109000 0.099000 1700 49 1.100000 2.689000 3.167000 600 66 1.000000 0.053000 0.053000 1.200000 0.049000 0.059000
1517164707290573603	500 54 0.900000 0.082000 0.075000 1700 47 1.100000 0.307000 0.357000 600 59 1.000000 0.053000 0.053000 1.200000 0.041000 0.049000
1517164707796411770	500 51 0.900000 0.114000 0.104000 1700 48 1.100000 2.496000 2.935000 600 58 1.000000 0.053000 0.053000 1.200000 0.040000 0.048000
1517164708302269937	500 50 0.900000 0.051000 0.046000 1700 46 1.100000 0.477000 0.556000 600 56 1.000000 0.053000 0.053000 1.200000 0.040000 0.048000
1517164708808525145	500 54 0.900000 0.099000 0.090000 1700 47 1.100000 2.526000 2.970000 600 59 1.000000 0.053000 0.053000 1.200000 0.036000 0.043000
1517164709314510270	500 56 0.900000 0.132000 0.120000 1700 48 1.100000 3.452000 4.076000 600 61 1.000000 0.053000 0.053000 1.200000 0.041000 0.049000
1517164709860323270	500 56 0.900000 0.130000 0.118000 1700 48 1.100000 3.214000 3.792000 600 63 1.000000 0.053000 0.053000 1.200000 0.043000 0.051000
1517164710366361979	500 58 0.900000 0.106000 0.096000 1700 49 1.100000 2.918000 3.434000 600 65 1.000000 0.053000 0.053000 1.200000 0.041000 0.049000
1517164710918486229	500 57 0.900000 0.111000 0.101000 1700 49 1.100000 2.657000 3.127000 600 63 1.000000 0.053000 0.053000 1.200000 0.040000 0.048000
1517164711472904479	500 58 0.900000 0.114000 0.104000 1700 49 1.100000 2.553000 3.004000 600 65 1.000000 0.053000 0.053000 1.200000 0.039000 0.047000
1517164712028229646	500 58 0.900000 0.130000 0.118000 1700 50 1.100000 2.690000 3.168000 600 66 1.000000 0.053000 0.053000 1.200000 0.042000 0.050000
1517164712558112646	500 59 0.900000 0.111000 0.101000 1700 50 1.100000 2.777000 3.268000 600 65 1.000000 0.053000 0.053000 1.200000 0.045000 0.054000
1517164713066490187	500 52 0.900000 0.097000 0.088000 1700 48 1.100000 0.622000 0.725000 600 57 1.000000 0.053000 0.053000 1.200000 0.038000 0.045000
1517164713620223521	500 53 0.900000 0.114000 0.104000 1700 48 1.100000 2.291000 2.691000 600 59 1.000000 0.053000 0.053000 1.200000 0.047000 0.056000
1517164714156390438	500 53 0.900000 0.073000 0.066000 1700 47 1.100000 0.301000 0.350000 600 58 1.000000 0.053000 0.053000 1.200000 0.042000 0.050000
1517164714662170146	500 51 0.900000 0.116000 0.106000 1700 47 1.100000 2.551000 2.997000 600 57 1.000000 0.053000 0.053000 1.200000 0.039000 0.047000
1517164715168257896	500 51 0.900000 0.052000 0.047000 1700 46 1.100000 0.653000 0.761000 600 56 1.000000 0.053000 0.053000 1.200000 0.042000 0.050000
1517164715673985188	500 50 0.900000 0.112000 0.102000 1700 47 1.100000 2.561000 3.011000 600 56 1.000000 0.053000 0.053000 1.200000 0.036000 0.043000
1517164716179959813	500 49 0.900000 0.069000 0.063000 1700 46 1.100000 1.109000 1.297000 600 55 1.000000 0.053000 0.053000 1.200000 0.043000 0.051000
1517164716685697021	500 50 0.900000 0.114000 0.104000 1700 46 1.100000 2.301000 2.699000 600 56 1.000000 0.053000 0.053000 1.200000 0.036000 0.043000
1517164717191629605	500 50 0.900000 0.093000 0.085000 1700 46 1.100000 1.695000 1.986000 600 55 1.000000 0.053000 0.053000 1.200000 0.045000 0.054000
1517164717697604646	500 49 0.900000 0.106000 0.096000 1700 46 1.100000 2.133000 2.502000 600 55 1.000000 0.053000 0.053000 1.200000 0.044000 0.053000
1517164718205433146	500 49 0.900000 0.103000 0.094000 1700 45 1.100000 0.337000 0.395000 600 54 1.000000 0.053000 0.053000 1.200000 0.039000 0.047000
1517164718711431688	500 49 0.900000 0.111000 0.101000 1700 46 1.100000 2.020000 2.369000 600 55 1.000000 0.053000 0.053000 1.200000 0.038000 0.045000
1517164719220837105	500 49 0.900000 0.076000 0.069000 1700 45 1.100000 1.487000 1.739000 600 54 1.000000 0.053000 0.053000 1.200000 0.041000 0.049000
1517164719762399438	500 54 0.900000 0.121000 0.110000 1700 46 1.100000 2.292000 2.693000 600 61 1.000000 0.053000 0.053000 1.200000 0.036000 0.043000
1517164720291093813	500 56 0.900000 0.133000 0.121000 1700 47 1.100000 2.902000 3.412000 600 62 1.000000 0.053000 0.053000 1.200000 0.044000 0.053000
1517164720796997522	500 50 0.900000 0.137000 0.125000 1700 47 1.100000 2.752000 3.236000 600 56 1.000000 0.053000 0.053000 1.200000 0.043000 0.051000
1517164721302945230	500 52 0.900000 0.053000 0.048000 1700 47 1.100000 0.323000 0.376000 600 58 1.000000 0.053000 0.053000 1.200000 0.047000 0.056000
1517164721808833480	500 49 0.900000 0.105000 0.096000 1700 46 1.100000 2.375000 2.790000 600 54 1.000000 0.053000 0.053000 1.200000 0.037000 0.044000
1517164722314770189	500 53 0.900000 0.071000 0.065000 1700 46 1.100000 0.302000 0.351000 600 59 1.000000 0.053000 0.053000 1.200000 0.045000 0.054000
1517164722820573189	500 48 0.900000 0.112000 0.102000 1700 46 1.100000 2.139000 2.513000 600 54 1.000000 0.053000 0.053000 1.200000 0.036000 0.043000
1517164723326373230	500 52 0.900000 0.097000 0.088000 1700 46 1.100000 0.297000 0.346000 600 57 1.000000 0.053000 0.053000 1.200000 0.049000 0.059000
1517164723832218314	500 48 0.900000 0.102000 0.093000 1700 46 1.100000 2.552000 2.998000 600 54 1.000000 0.053000 0.053000 1.200000 0.034000 0.041000
1517164724340368856	500 53 0.900000 0.050000 0.045000 1700 45 1.100000 0.443000 0.516000 600 58 1.000000 0.053000 0.053000 1.200000 0.051000 0.061000
1517164724867455481	500 56 0.900000 0.128000 0.117000 1700 47 1.100000 3.315000 3.905000 600 62 1.000000 0.053000 0.053000 1.200000 0.044000 0.053000
1517164725398785647	500 57 0.900000 0.129000 0.118000 1700 48 1.100000 3.055000 3.604000 600 63 1.000000 0.053000 0.053000 1.200000 0.045000 0.054000
1517164725922620814	500 58 0.900000 0.123000 0.112000 1700 48 1.100000 3.284000 3.868000 600 64 1.000000 0.053000 0.053000 1.200000 0.045000 0.054000
1517164726442720147	500 58 0.900000 0.110000 0.100000 1700 49 1.100000 3.212000 3.790000 600 65 1.000000 0.053000 0.053000 1.200000 0.048000 0.057000
1517164726975235106	500 58 0.900000 0.111000 0.101000 1700 49 1.100000 3.229000 3.810000 600 65 1.000000 0.053000 0.053000 1.200000 0.046000 0.055000
1517164727496367981	500 59 0.900000 0.108000 0.098000 1700 49 1.100000 3.317000 3.907000 600 66 1.000000 0.053000 0.053000 1.200000 0.048000 0.057000
1517164728002199523	500 51 0.900000 0.109000 0.099000 1700 48 1.100000 2.364000 2.780000 600 58 1.000000 0.053000 0.053000 1.200000 0.037000 0.044000
1517164728508008314	500 55 0.900000 0.052000 0.047000 1700 48 1.100000 0.999000 1.166000 600 61 1.000000 0.053000 0.053000 1.200000 0.044000 0.053000
1517164729013889856	500 50 0.900000 0.117000 0.107000 1700 47 1.100000 2.526000 2.970000 600 56 1.000000 0.053000 0.053000 1.200000 0.038000 0.045000
1517164729519684273	500 55 0.900000 0.060000 0.055000 1700 47 1.100000 0.337000 0.392000 600 60 1.000000 0.053000 0.053000 1.200000 0.048000 0.057000
1517164730025522148	500 49 0.900000 0.106000 0.096000 1700 47 1.100000 2.327000 2.729000 600 55 1.000000 0.053000 0.053000 1.200000 0.037000 0.044000
1517164730531318481	500 51 0.900000 0.086000 0.078000 1700 47 1.100000 0.325000 0.378000 600 57 1.000000 0.053000 0.053000 1.200000 0.048000 0.057000
1517164731037171315	500 48 0.900000 0.116000 0.106000 1700 46 1.100000 2.530000 2.975000 600 54 1.000000 0.053000 0.053000 1.200000 0.035000 0.042000
1517164731543138523	500 50 0.900000 0.052000 0.047000 1700 46 1.100000 0.426000 0.496000 600 56 1.000000 0.053000 0.053000 1.200000 0.050000 0.060000
1517164732048863356	500 48 0.900000 0.108000 0.098000 1700 46 1.100000 2.050000 2.408000 600 53 1.000000 0.053000 0.053000 1.200000 0.034000 0.041000
1517164732554753148	500 50 0.900000 0.065000 0.059000 1700 46 1.100000 0.653000 0.762000 600 55 1.000000 0.053000 0.053000 1.200000 0.046000 0.055000
1517164733062002440	500 55 0.900000 0.107000 0.097000 1700 46 1.100000 2.546000 2.994000 600 61 1.000000 0.053000 0.053000 1.200000 0.042000 0.050000
1517164733572408190	500 56 0.900000 0.131000 0.119000 1700 47 1.100000 3.544000 4.181000 600 63 1.000000 0.053000 0.053000 1.200000 0.044000 0.053000
1517164734116311398	500 55 0.900000 0.113000 0.103000 1700 48 1.100000 3.311000 3.900000 600 62 1.000000 0.053000 0.053000 1.200000 0.049000 0.059000
1517164734644007023	500 58 0.900000 0.113000 0.103000 1700 49 1.100000 2.953000 3.478000 600 65 1.000000 0.053000 0.053000 1.200000 0.049000 0.059000
1517164735192207732	500 57 0.900000 0.114000 0.104000 1700 49 1.100000 2.784000 3.276000 600 65 1.000000 0.053000 0.053000 1.200000 0.049000 0.059000
1517164735701144524	500 58 0.900000 0.115000 0.105000 1700 49 1.100000 2.922000 3.442000 600 66 1.000000 0.053000 0.053000 1.200000 0.050000 0.060000
1517164736256268065	500 58 0.900000 0.116000 0.106000 1700 50 1.100000 2.847000 3.350000 600 66 1.000000 0.053000 0.053000 1.200000 0.043000 0.051000
1517164736804261857	500 58 0.900000 0.134000 0.122000 1700 50 1.100000 2.915000 3.433000 600 67 1.000000 0.053000 0.053000 1.200000 0.042000 0.050000
1517164737324357482	500 55 0.900000 0.116000 0.106000 1700 50 1.100000 2.945000 3.466000 600 62 1.000000 0.053000 0.053000 1.200000 0.040000 0.048000
1517164737872750857	500 54 0.900000 0.082000 0.075000 1700 48 1.100000 0.440000 0.512000 600 60 1.000000 0.053000 0.053000 1.200000 0.045000 0.054000
1517164738378422107	500 52 0.900000 0.114000 0.104000 1700 48 1.100000 2.176000 2.558000 600 58 1.000000 0.053000 0.053000 1.200000 0.036000 0.043000
1517164738922376982	500 53 0.900000 0.051000 0.046000 1700 47 1.100000 0.478000 0.557000 600 58 1.000000 0.053000 0.053000 1.200000 0.048000 0.057000
1517164739428181274	500 49 0.900000 0.109000 0.099000 1700 47 1.100000 2.463000 2.896000 600 55 1.000000 0.053000 0.053000 1.200000 0.038000 0.045000
1517164739969495149	500 53 0.900000 0.081000 0.074000 1700 47 1.100000 1.544000 1.808000 600 59 1.000000 0.053000 0.053000 1.200000 0.046000 0.055000
1517164740475165482	500 48 0.900000 0.093000 0.085000 1700 46 1.100000 1.859000 2.180000 600 53 1.000000 0.053000 0.053000 1.200000 0.036000 0.043000
1517164740989330774	500 52 0.900000 0.114000 0.104000 1700 46 1.100000 2.145000 2.522000 600 58 1.000000 0.053000 0.053000 1.200000 0.049000 0.059000
1517164741497125191	500 50 0.900000 0.063000 0.057000 1700 45 1.100000 0.975000 1.138000 600 53 1.000000 0.053000 0.053000 1.200000 0.036000 0.043000
1517164742003384274	500 52 0.900000 0.132000 0.120000 1700 47 1.100000 3.189000 3.763000 600 58 1.000000 0.053000 0.053000 1.200000 0.046000 0.055000
1517164742509976441	500 53 0.900000 0.128000 0.117000 1700 48 1.100000 3.319000 3.916000 600 59 1.000000 0.053000 0.053000 1.200000 0.049000 0.059000
1517164743017451274	500 53 0.900000 0.120000 0.109000 1700 48 1.100000 2.853000 3.357000 600 60 1.000000 0.053000 0.053000 1.200000 0.042000 0.050000
1517164743523806191	500 54 0.900000 0.108000 0.098000 1700 49 1.100000 2.861000 3.367000 600 61 1.000000 0.053000 0.053000 1.200000 0.043000 0.051000
1517164744030268691	500 56 0.900000 0.110000 0.100000 1700 49 1.100000 2.941000 3.461000 600 63 1.000000 0.053000 0.053000 1.200000 0.045000 0.054000
1517164744536995191	500 58 0.900000 0.109000 0.099000 1700 50 1.100000 2.676000 3.149000 600 66 1.000000 0.053000 0.053000 1.200000 0.045000 0.054000
1517164745050992858	500 60 0.900000 0.118000 0.107000 1700 50 1.100000 2.880000 3.392000 600 67 1.000000 0.053000 0.053000 1.200000 0.045000 0.054000
1517164745583070900	500 60 0.900000 0.109000 0.099000 1700 50 1.100000 2.726000 3.211000 600 67 1.000000 0.053000 0.053000 1.200000 0.046000 0.055000
1517164746105876608	500 61 0.900000 0.106000 0.096000 1700 51 1.100000 2.868000 3.375000 600 68 1.000000 0.053000 0.053000 1.200000 0.047000 0.056000
1517164746633807566	500 61 0.900000 0.114000 0.104000 1700 51 1.100000 2.809000 3.314000 600 68 1.000000 0.053000 0.053000 1.200000 0.046000 0.055000
1517164747160645817	500 61 0.900000 0.108000 0.098000 1700 51 1.100000 2.848000 3.354000 600 68 1.000000 0.054000 0.054000 1.200000 0.045000 0.054000
1517164747682894442	500 61 0.900000 0.116000 0.106000 1700 51 1.100000 3.160000 3.719000 600 68 1.000000 0.054000 0.054000 1.200000 0.047000 0.056000
1517164748213408858	500 61 0.900000 0.105000 0.096000 1700 51 1.100000 2.854000 3.367000 600 68 1.000000 0.054000 0.054000 1.200000 0.046000 0.055000
1517164748748484108	500 61 0.900000 0.118000 0.107000 1700 51 1.100000 2.865000 3.380000 600 69 1.000000 0.054000 0.054000 1.200000 0.046000 0.055000
1517164749263663692	500 62 0.900000 0.136000 0.124000 1700 52 1.100000 2.907000 3.433000 600 69 1.000000 0.054000 0.054000 1.200000 0.046000 0.055000
1517164749788385567	500 61 0.900000 0.111000 0.101000 1700 52 1.100000 3.133000 3.700000 600 69 1.000000 0.053000 0.053000 1.200000 0.049000 0.059000
1517164750310558567	500 62 0.900000 0.109000 0.099000 1700 52 1.100000 3.187000 3.763000 600 69 1.000000 0.054000 0.054000 1.200000 0.044000 0.053000
1517164750849855234	500 57 0.900000 0.094000 0.086000 1700 50 1.100000 0.320000 0.372000 600 62 1.000000 0.054000 0.054000 1.200000 0.040000 0.048000
1517164751356308900	500 54 0.900000 0.117000 0.107000 1700 50 1.100000 2.587000 3.042000 600 61 1.000000 0.054000 0.054000 1.200000 0.037000 0.044000
1517164751862148650	500 55 0.900000 0.063000 0.057000 1700 49 1.100000 0.507000 0.591000 600 61 1.000000 0.053000 0.053000 1.200000 0.040000 0.048000
1517164752367874276	500 53 0.900000 0.109000 0.099000 1700 49 1.100000 2.164000 2.538000 600 59 1.000000 0.053000 0.053000 1.200000 0.037000 0.044000
1517164752873696776	500 53 0.900000 0.050000 0.045000 1700 48 1.100000 0.826000 0.963000 600 58 1.000000 0.053000 0.053000 1.200000 0.044000 0.053000
1517164753379509901	500 52 0.900000 0.113000 0.103000 1700 48 1.100000 2.499000 2.938000 600 58 1.000000 0.053000 0.053000 1.200000 0.036000 0.043000
1517164753885348317	500 52 0.900000 0.072000 0.065000 1700 47 1.100000 1.417000 1.652000 600 57 1.000000 0.053000 0.053000 1.200000 0.043000 0.051000
1517164754391126234	500 51 0.900000 0.114000 0.104000 1700 47 1.100000 2.466000 2.897000 600 57 1.000000 0.053000 0.053000 1.200000 0.036000 0.043000
1517164754897085776	500 51 0.900000 0.055000 0.050000 1700 47 1.100000 2.140000 2.510000 600 56 1.000000 0.053000 0.053000 1.200000 0.038000 0.045000
1517164755402949276	500 50 0.900000 0.106000 0.096000 1700 47 1.100000 1.773000 2.077000 600 56 1.000000 0.053000 0.053000 1.200000 0.039000 0.047000
1517164755908823776	500 50 0.900000 0.099000 0.090000 1700 46 1.100000 1.897000 2.223000 600 55 1.000000 0.053000 0.053000 1.200000 0.041000 0.049000
1517164756414561859	500 50 0.900000 0.115000 0.105000 1700 47 1.100000 2.348000 2.758000 600 56 1.000000 0.053000 0.053000 1.200000 0.039000 0.047000
1517164756972193734	500 52 0.900000 0.074000 0.067000 1700 46 1.100000 1.204000 1.408000 600 56 1.000000 0.053000 0.053000 1.200000 0.041000 0.049000
1517164757523307234	500 54 0.900000 0.117000 0.107000 1700 47 1.100000 2.221000 2.609000 600 60 1.000000 0.053000 0.053000 1.200000 0.036000 0.043000
1517164758029359151	500 57 0.900000 0.114000 0.104000 1700 48 1.100000 2.652000 3.121000 600 63 1.000000 0.053000 0.053000 1.200000 0.042000 0.050000
1517164758539023151	500 57 0.900000 0.139000 0.127000 1700 49 1.100000 2.593000 3.051000 600 64 1.000000 0.053000 0.053000 1.200000 0.044000 0.053000
1517164759098574818	500 58 0.900000 0.129000 0.118000 1700 49 1.100000 2.820000 3.321000 600 65 1.000000 0.053000 0.053000 1.200000 0.041000 0.049000
1517164759604438193	500 51 0.900000 0.132000 0.120000 1700 48 1.100000 3.246000 3.830000 600 57 1.000000 0.053000 0.053000 1.200000 0.040000 0.048000
1517164760110159235	500 53 0.900000 0.089000 0.081000 1700 48 1.100000 0.336000 0.391000 600 59 1.000000 0.053000 0.053000 1.200000 0.048000 0.057000
1517164760616160776	500 49 0.900000 0.094000 0.086000 1700 47 1.100000 2.108000 2.472000 600 54 1.000000 0.053000 0.053000 1.200000 0.036000 0.043000
1517164761135824027	500 55 0.900000 0.116000 0.106000 1700 47 1.100000 0.866000 1.010000 600 61 1.000000 0.053000 0.053000 1.200000 0.048000 0.057000
1517164761641650235	500 49 0.900000 0.063000 0.057000 1700 46 1.100000 2.122000 2.489000 600 54 1.000000 0.053000 0.053000 1.200000 0.041000 0.049000
1517164762182524443	500 53 0.900000 0.094000 0.086000 1700 47 1.100000 1.920000 2.250000 600 59 1.000000 0.053000 0.053000 1.200000 0.040000 0.048000
1517164762699001485	500 53 0.900000 0.089000 0.081000 1700 46 1.100000 1.213000 1.416000 600 58 1.000000 0.053000 0.053000 1.200000 0.040000 0.048000
1517164763229455902	500 55 0.900000 0.109000 0.099000 1700 47 1.100000 2.450000 2.881000 600 61 1.000000 0.053000 0.053000 1.200000 0.036000 0.043000
1517164763753502069	500 57 0.900000 0.138000 0.125000 1700 48 1.100000 3.395000 4.006000 600 64 1.000000 0.053000 0.053000 1.200000 0.040000 0.048000
1517164764279759277	500 58 0.900000 0.134000 0.122000 1700 49 1.100000 3.517000 4.153000 600 65 1.000000 0.053000 0.053000 1.200000 0.045000 0.054000
1517164764807520777	500 59 0.900000 0.114000 0.104000 1700 49 1.100000 2.952000 3.477000 600 66 1.000000 0.053000 0.053000 1.200000 0.045000 0.054000
1517164765342814902	500 59 0.900000 0.115000 0.105000 1700 50 1.100000 2.817000 3.315000 600 67 1.000000 0.053000 0.053000 1.200000 0.045000 0.054000
1517164765870342985	500 59 0.900000 0.116000 0.106000 1700 50 1.100000 2.687000 3.165000 600 65 1.000000 0.053000 0.053000 1.200000 0.048000 0.057000
1517164766394510111	500 55 0.900000 0.053000 0.048000 1700 48 1.100000 1.134000 1.324000 600 61 1.000000 0.053000 0.053000 1.200000 0.043000 0.051000
1517164766900440652	500 53 0.900000 0.114000 0.104000 1700 48 1.100000 2.498000 2.937000 600 59 1.000000 0.053000 0.053000 1.200000 0.036000 0.043000
1517164767406195944	500 53 0.900000 0.063000 0.057000 1700 47 1.100000 0.343000 0.399000 600 58 1.000000 0.053000 0.053000 1.200000 0.043000 0.051000
1517164767912631027	500 56 0.900000 0.111000 0.101000 1700 48 1.100000 2.086000 2.446000 600 58 1.000000 0.053000 0.053000 1.200000 0.035000 0.042000
1517164768449009361	500 56 0.900000 0.110000 0.100000 1700 48 1.100000 2.980000 3.507000 600 61 1.000000 0.053000 0.053000 1.200000 0.035000 0.042000
1517164768985250111	500 53 0.900000 0.075000 0.068000 1700 47 1.100000 0.308000 0.358000 600 58 1.000000 0.053000 0.053000 1.200000 0.044000 0.053000
1517164769491115944	500 51 0.900000 0.117000 0.107000 1700 47 1.100000 2.099000 2.462000 600 57 1.000000 0.053000 0.053000 1.200000 0.034000 0.041000
1517164769996955861	500 51 0.900000 0.051000 0.046000 1700 47 1.100000 0.303000 0.352000 600 56 1.000000 0.053000 0.053000 1.200000 0.048000 0.057000
1517164770502865611	500 50 0.900000 0.114000 0.104000 1700 47 1.100000 2.544000 2.991000 600 56 1.000000 0.053000 0.053000 1.200000 0.035000 0.042000
1517164771012148069	500 50 0.900000 0.064000 0.058000 1700 46 1.100000 0.667000 0.778000 600 55 1.000000 0.053000 0.053000 1.200000 0.046000 0.055000
1517164771518049611	500 50 0.900000 0.098000 0.089000 1700 47 1.100000 2.358000 2.770000 600 55 1.000000 0.053000 0.053000 1.200000 0.035000 0.042000
1517164772068289695	500 51 0.900000 0.067000 0.061000 1700 46 1.100000 1.012000 1.181000 600 56 1.000000 0.053000 0.053000 1.200000 0.044000 0.053000
1517164772574202570	500 48 0.900000 0.110000 0.100000 1700 46 1.100000 2.543000 2.993000 600 54 1.000000 0.053000 0.053000 1.200000 0.038000 0.045000
1517164773080150653	500 51 0.900000 0.052000 0.047000 1700 46 1.100000 0.306000 0.356000 600 57 1.000000 0.053000 0.053000 1.200000 0.044000 0.053000
1517164773599490570	500 55 0.900000 0.109000 0.099000 1700 46 1.100000 2.331000 2.741000 600 61 1.000000 0.053000 0.053000 1.200000 0.033000 0.039000
1517164774107370403	500 57 0.900000 0.130000 0.118000 1700 48 1.100000 3.354000 3.957000 600 63 1.000000 0.053000 0.053000 1.200000 0.041000 0.049000
1517164774613175111	500 50 0.900000 0.108000 0.098000 1700 47 1.100000 3.421000 4.040000 600 56 1.000000 0.053000 0.053000 1.200000 0.036000 0.043000
1517164775164291945	500 52 0.900000 0.053000 0.048000 1700 47 1.100000 0.510000 0.595000 600 58 1.000000 0.053000 0.053000 1.200000 0.048000 0.057000
1517164775669980362	500 48 0.900000 0.106000 0.096000 1700 46 1.100000 2.417000 2.842000 600 53 1.000000 0.053000 0.053000 1.200000 0.036000 0.043000
1517164776175870362	500 52 0.900000 0.063000 0.057000 1700 47 1.100000 1.212000 1.418000 600 58 1.000000 0.053000 0.053000 1.200000 0.043000 0.051000
1517164776681488195	500 47 0.900000 0.111000 0.101000 1700 46 1.100000 1.978000 2.320000 600 53 1.000000 0.053000 0.053000 1.200000 0.037000 0.044000
1517164777240276653	500 51 0.900000 0.094000 0.086000 1700 46 1.100000 1.599000 1.875000 600 57 1.000000 0.053000 0.053000 1.200000 0.038000 0.045000
1517164777747799070	500 48 0.900000 0.099000 0.090000 1700 45 1.100000 1.471000 1.721000 600 53 1.000000 0.053000 0.053000 1.200000 0.042000 0.050000
1517164778253701195	500 51 0.900000 0.116000 0.106000 1700 46 1.100000 2.351000 2.762000 600 57 1.000000 0.053000 0.053000 1.200000 0.035000 0.042000
1517164778759507570	500 49 0.900000 0.069000 0.063000 1700 45 1.100000 0.834000 0.973000 600 54 1.000000 0.053000 0.053000 1.200000 0.037000 0.044000
1517164779302254029	500 52 0.900000 0.109000 0.099000 1700 46 1.100000 2.500000 2.940000 600 58 1.000000 0.053000 0.053000 1.200000 0.047000 0.056000
1517164779833982862	500 52 0.900000 0.051000 0.046000 1700 45 1.100000 0.284000 0.330000 600 56 1.000000 0.053000 0.053000 1.200000 0.038000 0.045000
1517164780339873821	500 50 0.900000 0.109000 0.099000 1700 46 1.100000 2.581000 3.035000 600 56 1.000000 0.053000 0.053000 1.200000 0.039000 0.047000
1517164780845498946	500 45 0.900000 0.074000 0.067000 1700 44 1.100000 0.372000 0.433000 600 50 1.000000 0.053000 0.053000 1.200000 0.040000 0.048000
1517164781350924112	500 44 0.900000 0.022000 0.020000 1700 43 1.100000 0.246000 0.287000 600 48 1.000000 0.053000 0.053000 1.200000 0.023000 0.027000
