#Timestamp	CPU(0) Frequency(MHz)	CPU(0) Temperature(C)	A7 Voltage(V)	A7 Current(A)	A7 Power(W)	CPU(4) Frequency(MHz)	CPU(4) Temperature(C)	A15 Voltage(V)	A15 Current(A)	A15 Power(W)	GPU Frequency(MHz)	GPU Temperature(C)	GPU Voltage(V)	GPU Current(A)	GPU Power(W)	RAM Voltage(V)	RAM Current(A)	RAM Power(W)
1517347740260751339	200 39 0.900000 0.015000 0.013000 1000 38 0.900000 0.323000 0.313000 600 42 1.000000 0.051000 0.051000 1.200000 0.042000 0.050000
1517347740771945006	200 39 0.900000 0.017000 0.015000 1000 38 0.900000 0.520000 0.501000 600 43 1.000000 0.051000 0.051000 1.200000 0.036000 0.043000
1517347741285149423	200 39 0.900000 0.017000 0.015000 1000 38 0.900000 0.526000 0.507000 600 42 1.000000 0.051000 0.051000 1.200000 0.034000 0.041000
1517347741798614256	200 39 0.900000 0.017000 0.015000 1000 38 0.900000 0.525000 0.506000 600 42 1.000000 0.051000 0.051000 1.200000 0.032000 0.038000
1517347742365329590	200 41 0.900000 0.017000 0.015000 1000 38 0.900000 0.528000 0.509000 600 44 1.000000 0.051000 0.051000 1.200000 0.040000 0.048000
1517347742882577465	200 42 0.900000 0.057000 0.052000 1000 39 0.900000 1.365000 1.324000 600 47 1.000000 0.051000 0.051000 1.200000 0.041000 0.049000
1517347743445311090	200 42 0.900000 0.058000 0.053000 1000 39 0.900000 1.665000 1.615000 600 47 1.000000 0.051000 0.051000 1.200000 0.036000 0.043000
1517347744001216506	200 43 0.900000 0.059000 0.054000 1000 39 0.900000 1.612000 1.565000 600 48 1.000000 0.051000 0.051000 1.200000 0.036000 0.043000
1517347744517126090	200 43 0.900000 0.044000 0.040000 1000 39 0.900000 1.434000 1.388000 600 47 1.000000 0.051000 0.051000 1.200000 0.042000 0.050000
1517347745026930007	200 41 0.900000 0.047000 0.043000 1000 39 0.900000 1.032000 1.003000 600 45 1.000000 0.052000 0.052000 1.200000 0.033000 0.039000
1517347745536255382	200 40 0.900000 0.045000 0.041000 1000 39 0.900000 1.171000 1.138000 600 45 1.000000 0.052000 0.052000 1.200000 0.029000 0.035000
1517347746045007132	200 39 0.900000 0.024000 0.022000 1000 38 0.900000 0.401000 0.390000 600 42 1.000000 0.052000 0.052000 1.200000 0.035000 0.042000
1517347746566901840	200 39 0.900000 0.025000 0.022000 1000 38 0.900000 0.132000 0.128000 600 43 1.000000 0.051000 0.051000 1.200000 0.039000 0.047000
1517347747085309840	200 39 0.900000 0.044000 0.040000 1000 38 0.900000 1.175000 1.142000 600 43 1.000000 0.051000 0.051000 1.200000 0.030000 0.036000
1517347747653288840	200 41 0.900000 0.046000 0.042000 1000 38 0.900000 0.875000 0.850000 600 44 1.000000 0.051000 0.051000 1.200000 0.032000 0.038000
1517347748162431424	200 38 0.900000 0.024000 0.022000 1000 38 0.900000 0.926000 0.900000 600 42 1.000000 0.051000 0.051000 1.200000 0.032000 0.038000
1517347748675463757	200 39 0.900000 0.023000 0.021000 1000 38 0.900000 0.146000 0.142000 600 42 1.000000 0.051000 0.051000 1.200000 0.037000 0.044000
1517347749185427840	200 41 0.900000 0.037000 0.033000 1000 38 0.900000 0.828000 0.804000 600 45 1.000000 0.051000 0.051000 1.200000 0.034000 0.041000
1517347749694788424	200 41 0.900000 0.044000 0.040000 1000 38 0.900000 0.996000 0.968000 600 45 1.000000 0.051000 0.051000 1.200000 0.030000 0.036000
1517347750204202716	200 38 0.900000 0.045000 0.041000 1000 38 0.900000 0.917000 0.891000 600 42 1.000000 0.051000 0.051000 1.200000 0.032000 0.038000
1517347750713194091	200 38 0.900000 0.023000 0.021000 1000 37 0.900000 0.140000 0.136000 600 41 1.000000 0.051000 0.051000 1.200000 0.036000 0.043000
1517347751222556257	200 39 0.900000 0.034000 0.031000 1000 38 0.900000 0.527000 0.512000 600 43 1.000000 0.051000 0.051000 1.200000 0.043000 0.051000
1517347751731958966	200 39 0.900000 0.044000 0.040000 1000 38 0.900000 0.898000 0.872000 600 43 1.000000 0.051000 0.051000 1.200000 0.030000 0.036000
1517347752241169841	200 39 0.900000 0.046000 0.042000 1000 38 0.900000 1.076000 1.045000 600 43 1.000000 0.051000 0.051000 1.200000 0.033000 0.039000
1517347752750103008	200 38 0.900000 0.026000 0.023000 1000 37 0.900000 0.547000 0.531000 600 41 1.000000 0.051000 0.051000 1.200000 0.032000 0.038000
1517347753289514091	200 39 0.900000 0.023000 0.021000 1000 37 0.900000 0.142000 0.138000 600 42 1.000000 0.051000 0.051000 1.200000 0.036000 0.043000
1517347753849186174	200 40 0.900000 0.045000 0.041000 1000 38 0.900000 1.147000 1.113000 600 44 1.000000 0.051000 0.051000 1.200000 0.044000 0.053000
1517347754358936133	200 41 0.900000 0.044000 0.040000 1000 38 0.900000 0.877000 0.852000 600 45 1.000000 0.051000 0.051000 1.200000 0.034000 0.041000
1517347754867748966	200 38 0.900000 0.030000 0.027000 1000 37 0.900000 0.125000 0.121000 600 42 1.000000 0.051000 0.051000 1.200000 0.033000 0.039000
1517347755381224550	200 39 0.900000 0.023000 0.021000 1000 37 0.900000 0.131000 0.127000 600 42 1.000000 0.051000 0.051000 1.200000 0.036000 0.043000
1517347755891261216	200 39 0.900000 0.036000 0.033000 1000 37 0.900000 0.786000 0.763000 600 43 1.000000 0.051000 0.051000 1.200000 0.043000 0.051000
1517347756400580175	200 39 0.900000 0.045000 0.041000 1000 38 0.900000 1.201000 1.167000 600 43 1.000000 0.051000 0.051000 1.200000 0.039000 0.047000
1517347756909742758	200 38 0.900000 0.045000 0.041000 1000 37 0.900000 0.862000 0.837000 600 42 1.000000 0.051000 0.051000 1.200000 0.032000 0.038000
1517347757423109341	200 38 0.900000 0.023000 0.021000 1000 37 0.900000 0.128000 0.124000 600 41 1.000000 0.051000 0.051000 1.200000 0.036000 0.043000
1517347757961340841	200 39 0.900000 0.038000 0.034000 1000 37 0.900000 0.560000 0.544000 600 42 1.000000 0.051000 0.051000 1.200000 0.044000 0.053000
1517347758517181800	200 40 0.900000 0.042000 0.038000 1000 37 0.900000 0.885000 0.860000 600 45 1.000000 0.051000 0.051000 1.200000 0.034000 0.041000
1517347759026443925	200 38 0.900000 0.046000 0.042000 1000 37 0.900000 1.093000 1.062000 600 42 1.000000 0.051000 0.051000 1.200000 0.033000 0.039000
1517347759535107675	200 37 0.900000 0.023000 0.021000 1000 37 0.900000 0.143000 0.139000 600 41 1.000000 0.051000 0.051000 1.200000 0.035000 0.042000
1517347760044492550	200 39 0.900000 0.038000 0.034000 1000 37 0.900000 0.443000 0.431000 600 42 1.000000 0.051000 0.051000 1.200000 0.040000 0.048000
1517347760554005842	200 39 0.900000 0.043000 0.039000 1000 37 0.900000 0.854000 0.830000 600 43 1.000000 0.051000 0.051000 1.200000 0.034000 0.041000
1517347761113298467	200 41 0.900000 0.038000 0.034000 1000 38 0.900000 1.433000 1.391000 600 45 1.000000 0.051000 0.051000 1.200000 0.031000 0.037000
1517347761653295675	200 41 0.900000 0.055000 0.050000 1000 38 0.900000 1.574000 1.528000 600 46 1.000000 0.051000 0.051000 1.200000 0.042000 0.050000
1517347762191934675	200 42 0.900000 0.057000 0.052000 1000 39 0.900000 1.226000 1.186000 600 47 1.000000 0.051000 0.051000 1.200000 0.037000 0.044000
1517347762701983467	200 40 0.900000 0.058000 0.053000 1000 39 0.900000 1.598000 1.550000 600 47 1.000000 0.051000 0.051000 1.200000 0.037000 0.044000
1517347763214205217	200 42 0.900000 0.045000 0.041000 1000 39 0.900000 1.484000 1.440000 600 47 1.000000 0.051000 0.051000 1.200000 0.046000 0.055000
1517347763723873467	200 41 0.900000 0.057000 0.052000 1000 39 0.900000 1.557000 1.511000 600 45 1.000000 0.051000 0.051000 1.200000 0.037000 0.044000
1517347764233456926	200 41 0.900000 0.046000 0.042000 1000 39 0.900000 1.096000 1.065000 600 45 1.000000 0.051000 0.051000 1.200000 0.042000 0.050000
1517347764742874717	200 40 0.900000 0.040000 0.036000 1000 39 0.900000 0.844000 0.820000 600 45 1.000000 0.051000 0.051000 1.200000 0.030000 0.036000
1517347765251910634	200 39 0.900000 0.041000 0.037000 1000 38 0.900000 0.843000 0.820000 600 43 1.000000 0.051000 0.051000 1.200000 0.034000 0.041000
1517347765760626967	200 38 0.900000 0.023000 0.021000 1000 38 0.900000 0.124000 0.120000 600 42 1.000000 0.051000 0.051000 1.200000 0.035000 0.042000
1517347766269885342	200 39 0.900000 0.046000 0.042000 1000 38 0.900000 0.930000 0.903000 600 43 1.000000 0.051000 0.051000 1.200000 0.046000 0.055000
1517347766829198676	200 42 0.900000 0.055000 0.050000 1000 38 0.900000 1.571000 1.523000 600 46 1.000000 0.051000 0.051000 1.200000 0.034000 0.041000
1517347767344830926	200 42 0.900000 0.042000 0.038000 1000 38 0.900000 0.657000 0.638000 600 46 1.000000 0.051000 0.051000 1.200000 0.047000 0.056000
1517347767854450843	200 40 0.900000 0.045000 0.041000 1000 38 0.900000 1.101000 1.070000 600 44 1.000000 0.051000 0.051000 1.200000 0.032000 0.038000
1517347768364282843	200 40 0.900000 0.042000 0.038000 1000 38 0.900000 0.971000 0.943000 600 44 1.000000 0.051000 0.051000 1.200000 0.030000 0.036000
1517347768893848676	200 42 0.900000 0.051000 0.046000 1000 39 0.900000 1.610000 1.563000 600 47 1.000000 0.051000 0.051000 1.200000 0.041000 0.049000
1517347769417387218	200 42 0.900000 0.056000 0.051000 1000 39 0.900000 1.086000 1.051000 600 46 1.000000 0.051000 0.051000 1.200000 0.037000 0.044000
1517347769949546426	200 43 0.900000 0.058000 0.053000 1000 39 0.900000 1.564000 1.518000 600 48 1.000000 0.051000 0.051000 1.200000 0.036000 0.043000
1517347770497365468	200 43 0.900000 0.045000 0.041000 1000 39 0.900000 1.371000 1.329000 600 47 1.000000 0.051000 0.051000 1.200000 0.051000 0.061000
1517347771007248718	200 41 0.900000 0.058000 0.053000 1000 39 0.900000 1.590000 1.542000 600 46 1.000000 0.051000 0.051000 1.200000 0.036000 0.043000
1517347771516774968	200 43 0.900000 0.057000 0.052000 1000 40 0.900000 1.566000 1.520000 600 48 1.000000 0.051000 0.051000 1.200000 0.039000 0.047000
1517347772065291551	200 43 0.900000 0.044000 0.040000 1000 40 0.900000 1.102000 1.066000 600 48 1.000000 0.052000 0.052000 1.200000 0.039000 0.047000
1517347772625309302	200 44 0.900000 0.040000 0.036000 1000 40 0.900000 1.645000 1.597000 600 48 1.000000 0.051000 0.051000 1.200000 0.033000 0.039000
1517347773185259218	200 43 0.900000 0.059000 0.054000 1000 40 0.900000 1.571000 1.525000 600 48 1.000000 0.051000 0.051000 1.200000 0.048000 0.057000
1517347773741194260	200 43 0.900000 0.058000 0.053000 1000 40 0.900000 1.186000 1.148000 600 48 1.000000 0.051000 0.051000 1.200000 0.037000 0.044000
1517347774293265343	200 44 0.900000 0.060000 0.054000 1000 40 0.900000 1.588000 1.540000 600 48 1.000000 0.051000 0.051000 1.200000 0.038000 0.045000
1517347774849253635	200 44 0.900000 0.043000 0.039000 1000 40 0.900000 1.376000 1.334000 600 48 1.000000 0.051000 0.051000 1.200000 0.046000 0.055000
1517347775359549969	200 44 0.900000 0.059000 0.054000 1000 40 0.900000 1.610000 1.563000 600 48 1.000000 0.052000 0.052000 1.200000 0.037000 0.044000
1517347775898197844	200 44 0.900000 0.058000 0.053000 1000 40 0.900000 1.225000 1.185000 600 49 1.000000 0.051000 0.051000 1.200000 0.041000 0.049000
1517347776461295885	200 44 0.900000 0.053000 0.048000 1000 40 0.900000 1.601000 1.552000 600 48 1.000000 0.051000 0.051000 1.200000 0.040000 0.048000
1517347776971433927	200 43 0.900000 0.058000 0.053000 1000 40 0.900000 1.573000 1.525000 600 47 1.000000 0.052000 0.052000 1.200000 0.037000 0.044000
1517347777481600052	200 44 0.900000 0.046000 0.042000 1000 40 0.900000 1.248000 1.208000 600 48 1.000000 0.051000 0.051000 1.200000 0.048000 0.057000
1517347778044818386	200 44 0.900000 0.058000 0.053000 1000 40 0.900000 1.620000 1.571000 600 48 1.000000 0.052000 0.052000 1.200000 0.038000 0.045000
1517347778585929511	200 44 0.900000 0.056000 0.051000 1000 40 0.900000 1.488000 1.443000 600 49 1.000000 0.052000 0.052000 1.200000 0.039000 0.047000
1517347779153367844	200 44 0.900000 0.045000 0.041000 1000 40 0.900000 1.484000 1.439000 600 49 1.000000 0.052000 0.052000 1.200000 0.048000 0.057000
1517347779721342844	200 44 0.900000 0.058000 0.053000 1000 40 0.900000 1.546000 1.499000 600 48 1.000000 0.052000 0.052000 1.200000 0.037000 0.044000
1517347780285241511	200 44 0.900000 0.058000 0.053000 1000 40 0.900000 1.559000 1.512000 600 49 1.000000 0.052000 0.052000 1.200000 0.036000 0.043000
1517347780845253928	200 44 0.900000 0.046000 0.042000 1000 40 0.900000 1.157000 1.119000 600 48 1.000000 0.051000 0.051000 1.200000 0.046000 0.055000
1517347781409363261	200 44 0.900000 0.058000 0.053000 1000 40 0.900000 1.658000 1.609000 600 48 1.000000 0.052000 0.052000 1.200000 0.037000 0.044000
1517347781981300053	200 44 0.900000 0.060000 0.054000 1000 41 0.900000 1.592000 1.545000 600 48 1.000000 0.052000 0.052000 1.200000 0.038000 0.045000
1517347782549217636	200 44 0.900000 0.043000 0.039000 1000 41 0.900000 1.311000 1.271000 600 48 1.000000 0.052000 0.052000 1.200000 0.047000 0.056000
1517347783065653219	200 44 0.900000 0.058000 0.053000 1000 40 0.900000 1.629000 1.581000 600 48 1.000000 0.051000 0.051000 1.200000 0.038000 0.045000
1517347783595412178	200 45 0.900000 0.058000 0.053000 1000 41 0.900000 1.215000 1.176000 600 49 1.000000 0.051000 0.051000 1.200000 0.041000 0.049000
1517347784149386011	200 44 0.900000 0.050000 0.045000 1000 40 0.900000 1.596000 1.548000 600 49 1.000000 0.052000 0.052000 1.200000 0.048000 0.057000
1517347784659081678	200 42 0.900000 0.058000 0.053000 1000 41 0.900000 1.571000 1.523000 600 47 1.000000 0.052000 0.052000 1.200000 0.038000 0.045000
1517347785197479636	200 44 0.900000 0.045000 0.041000 1000 41 0.900000 1.047000 1.013000 600 49 1.000000 0.052000 0.052000 1.200000 0.046000 0.055000
1517347785757313553	200 44 0.900000 0.058000 0.053000 1000 40 0.900000 1.559000 1.513000 600 49 1.000000 0.052000 0.052000 1.200000 0.035000 0.042000
1517347786310419387	200 44 0.900000 0.059000 0.054000 1000 41 0.900000 1.558000 1.512000 600 49 1.000000 0.052000 0.052000 1.200000 0.035000 0.042000
1517347786865263678	200 44 0.900000 0.046000 0.042000 1000 41 0.900000 1.276000 1.235000 600 49 1.000000 0.052000 0.052000 1.200000 0.037000 0.044000
1517347787429319178	200 44 0.900000 0.059000 0.054000 1000 40 0.900000 1.614000 1.567000 600 48 1.000000 0.052000 0.052000 1.200000 0.046000 0.055000
1517347787985314970	200 44 0.900000 0.058000 0.053000 1000 41 0.900000 1.567000 1.519000 600 49 1.000000 0.052000 0.052000 1.200000 0.035000 0.042000
1517347788549357970	200 44 0.900000 0.045000 0.041000 1000 41 0.900000 1.166000 1.128000 600 48 1.000000 0.052000 0.052000 1.200000 0.045000 0.054000
1517347789093454929	200 44 0.900000 0.058000 0.053000 1000 41 0.900000 1.526000 1.480000 600 48 1.000000 0.052000 0.052000 1.200000 0.037000 0.044000
1517347789634473220	200 44 0.900000 0.059000 0.054000 1000 41 0.900000 1.541000 1.496000 600 49 1.000000 0.052000 0.052000 1.200000 0.035000 0.042000
1517347790193294720	200 44 0.900000 0.048000 0.044000 1000 41 0.900000 1.531000 1.485000 600 49 1.000000 0.052000 0.052000 1.200000 0.048000 0.057000
1517347790703512387	200 42 0.900000 0.057000 0.052000 1000 41 0.900000 1.534000 1.489000 600 47 1.000000 0.052000 0.052000 1.200000 0.039000 0.047000
1517347791273232637	200 44 0.900000 0.053000 0.048000 1000 41 0.900000 1.205000 1.166000 600 48 1.000000 0.051000 0.051000 1.200000 0.042000 0.050000
1517347791821428096	200 44 0.900000 0.055000 0.050000 1000 41 0.900000 1.582000 1.536000 600 48 1.000000 0.052000 0.052000 1.200000 0.034000 0.041000
1517347792331910596	200 43 0.900000 0.059000 0.054000 1000 41 0.900000 1.567000 1.521000 600 48 1.000000 0.051000 0.051000 1.200000 0.045000 0.054000
1517347792882581554	200 45 0.900000 0.058000 0.053000 1000 41 0.900000 1.229000 1.189000 600 49 1.000000 0.052000 0.052000 1.200000 0.035000 0.042000
1517347793433315012	200 44 0.900000 0.058000 0.053000 1000 41 0.900000 1.229000 1.189000 600 49 1.000000 0.052000 0.052000 1.200000 0.036000 0.043000
1517347793942917762	200 42 0.900000 0.037000 0.033000 1000 40 0.900000 0.991000 0.963000 600 47 1.000000 0.052000 0.052000 1.200000 0.034000 0.041000
1517347794452421179	200 41 0.900000 0.041000 0.037000 1000 40 0.900000 1.026000 0.997000 600 46 1.000000 0.052000 0.052000 1.200000 0.032000 0.038000
1517347794961348471	200 40 0.900000 0.040000 0.036000 1000 39 0.900000 0.460000 0.447000 600 43 1.000000 0.051000 0.051000 1.200000 0.032000 0.038000
1517347795470799596	200 41 0.900000 0.024000 0.022000 1000 39 0.900000 0.144000 0.140000 600 45 1.000000 0.051000 0.051000 1.200000 0.036000 0.043000
1517347796009301138	200 41 0.900000 0.046000 0.042000 1000 39 0.900000 1.151000 1.118000 600 45 1.000000 0.051000 0.051000 1.200000 0.042000 0.050000
1517347796554738846	200 42 0.900000 0.041000 0.037000 1000 39 0.900000 0.907000 0.882000 600 46 1.000000 0.051000 0.051000 1.200000 0.033000 0.039000
1517347797063847929	200 39 0.900000 0.040000 0.036000 1000 38 0.900000 0.869000 0.845000 600 43 1.000000 0.051000 0.051000 1.200000 0.032000 0.038000
1517347797573516805	200 39 0.900000 0.023000 0.021000 1000 38 0.900000 0.132000 0.128000 600 43 1.000000 0.051000 0.051000 1.200000 0.036000 0.043000
1517347798083228513	200 40 0.900000 0.048000 0.043000 1000 38 0.900000 0.981000 0.953000 600 44 1.000000 0.051000 0.051000 1.200000 0.043000 0.051000
1517347798592557055	200 40 0.900000 0.041000 0.037000 1000 38 0.900000 0.968000 0.940000 600 44 1.000000 0.051000 0.051000 1.200000 0.032000 0.038000
1517347799101774763	200 39 0.900000 0.041000 0.037000 1000 38 0.900000 0.848000 0.825000 600 42 1.000000 0.051000 0.051000 1.200000 0.031000 0.037000
1517347799610425055	200 38 0.900000 0.023000 0.021000 1000 38 0.900000 0.137000 0.133000 600 42 1.000000 0.051000 0.051000 1.200000 0.036000 0.043000
1517347800119940638	200 39 0.900000 0.032000 0.029000 1000 38 0.900000 0.568000 0.552000 600 43 1.000000 0.051000 0.051000 1.200000 0.044000 0.053000
1517347800681271388	200 40 0.900000 0.041000 0.037000 1000 38 0.900000 1.050000 1.020000 600 44 1.000000 0.051000 0.051000 1.200000 0.030000 0.036000
1517347801190531763	200 39 0.900000 0.041000 0.037000 1000 38 0.900000 1.038000 1.008000 600 43 1.000000 0.051000 0.051000 1.200000 0.032000 0.038000
1517347801699293847	200 38 0.900000 0.023000 0.021000 1000 38 0.900000 0.127000 0.123000 600 42 1.000000 0.051000 0.051000 1.200000 0.035000 0.042000
1517347802210240138	200 41 0.900000 0.034000 0.031000 1000 38 0.900000 0.556000 0.540000 600 45 1.000000 0.051000 0.051000 1.200000 0.039000 0.047000
1517347802719799263	200 39 0.900000 0.040000 0.036000 1000 38 0.900000 0.842000 0.819000 600 44 1.000000 0.051000 0.051000 1.200000 0.032000 0.038000
1517347803229141180	200 39 0.900000 0.043000 0.039000 1000 38 0.900000 1.048000 1.018000 600 44 1.000000 0.051000 0.051000 1.200000 0.032000 0.038000
1517347803737861097	200 38 0.900000 0.023000 0.021000 1000 37 0.900000 0.120000 0.117000 600 42 1.000000 0.051000 0.051000 1.200000 0.036000 0.043000
1517347804247033430	200 38 0.900000 0.032000 0.029000 1000 37 0.900000 0.408000 0.396000 600 42 1.000000 0.051000 0.051000 1.200000 0.039000 0.047000
1517347804756458389	200 39 0.900000 0.040000 0.036000 1000 37 0.900000 0.957000 0.930000 600 43 1.000000 0.051000 0.051000 1.200000 0.032000 0.038000
1517347805265708514	200 39 0.900000 0.040000 0.036000 1000 38 0.900000 0.892000 0.867000 600 43 1.000000 0.051000 0.051000 1.200000 0.032000 0.038000
1517347805775141722	200 38 0.900000 0.041000 0.037000 1000 37 0.900000 0.818000 0.795000 600 42 1.000000 0.051000 0.051000 1.200000 0.032000 0.038000
1517347806285159639	200 37 0.900000 0.023000 0.021000 1000 37 0.900000 0.142000 0.138000 600 41 1.000000 0.051000 0.051000 1.200000 0.037000 0.044000
1517347806794853097	200 41 0.900000 0.032000 0.029000 1000 37 0.900000 0.608000 0.590000 600 45 1.000000 0.051000 0.051000 1.200000 0.045000 0.054000
1517347807305217931	200 41 0.900000 0.057000 0.052000 1000 38 0.900000 1.623000 1.575000 600 44 1.000000 0.051000 0.051000 1.200000 0.035000 0.042000
1517347807865310889	200 42 0.900000 0.046000 0.042000 1000 39 0.900000 1.580000 1.534000 600 46 1.000000 0.051000 0.051000 1.200000 0.046000 0.055000
1517347808381916722	200 40 0.900000 0.058000 0.053000 1000 38 0.900000 1.372000 1.330000 600 44 1.000000 0.051000 0.051000 1.200000 0.037000 0.044000
1517347808953373889	200 40 0.900000 0.047000 0.043000 1000 38 0.900000 0.959000 0.932000 600 44 1.000000 0.051000 0.051000 1.200000 0.038000 0.045000
1517347809467992431	200 42 0.900000 0.040000 0.036000 1000 38 0.900000 1.042000 1.012000 600 46 1.000000 0.051000 0.051000 1.200000 0.031000 0.037000
1517347809976773973	200 38 0.900000 0.035000 0.032000 1000 38 0.900000 0.233000 0.226000 600 42 1.000000 0.051000 0.051000 1.200000 0.035000 0.042000
1517347810493365973	200 38 0.900000 0.023000 0.021000 1000 37 0.900000 0.125000 0.121000 600 42 1.000000 0.051000 0.051000 1.200000 0.036000 0.043000
1517347811003305056	200 39 0.900000 0.045000 0.041000 1000 38 0.900000 0.984000 0.956000 600 43 1.000000 0.051000 0.051000 1.200000 0.042000 0.050000
1517347811512663973	200 39 0.900000 0.040000 0.036000 1000 38 0.900000 0.950000 0.923000 600 43 1.000000 0.051000 0.051000 1.200000 0.035000 0.042000
1517347812021695390	200 38 0.900000 0.045000 0.041000 1000 37 0.900000 0.543000 0.528000 600 42 1.000000 0.051000 0.051000 1.200000 0.031000 0.037000
1517347812539013640	200 38 0.900000 0.023000 0.021000 1000 37 0.900000 0.139000 0.135000 600 42 1.000000 0.051000 0.051000 1.200000 0.037000 0.044000
1517347813101314765	200 40 0.900000 0.034000 0.031000 1000 37 0.900000 0.474000 0.461000 600 43 1.000000 0.051000 0.051000 1.200000 0.045000 0.054000
1517347813621172265	200 41 0.900000 0.041000 0.037000 1000 38 0.900000 0.876000 0.851000 600 45 1.000000 0.051000 0.051000 1.200000 0.034000 0.041000
1517347814130332307	200 38 0.900000 0.044000 0.040000 1000 37 0.900000 0.915000 0.889000 600 42 1.000000 0.051000 0.051000 1.200000 0.033000 0.039000
1517347814639066557	200 37 0.900000 0.023000 0.021000 1000 37 0.900000 0.138000 0.134000 600 41 1.000000 0.051000 0.051000 1.200000 0.036000 0.043000
1517347815148636390	200 39 0.900000 0.038000 0.034000 1000 37 0.900000 0.296000 0.288000 600 42 1.000000 0.051000 0.051000 1.200000 0.043000 0.051000
1517347815657996223	200 38 0.900000 0.041000 0.037000 1000 37 0.900000 0.992000 0.964000 600 43 1.000000 0.051000 0.051000 1.200000 0.030000 0.036000
1517347816167289390	200 38 0.900000 0.046000 0.042000 1000 37 0.900000 0.861000 0.836000 600 42 1.000000 0.051000 0.051000 1.200000 0.032000 0.038000
1517347816676190098	200 37 0.900000 0.023000 0.021000 1000 37 0.900000 0.149000 0.145000 600 41 1.000000 0.051000 0.051000 1.200000 0.036000 0.043000
1517347817241361099	200 39 0.900000 0.033000 0.030000 1000 37 0.900000 0.141000 0.137000 600 43 1.000000 0.051000 0.051000 1.200000 0.042000 0.050000
1517347817750721807	200 39 0.900000 0.043000 0.039000 1000 37 0.900000 1.041000 1.011000 600 43 1.000000 0.051000 0.051000 1.200000 0.031000 0.037000
1517347818260050640	200 39 0.900000 0.045000 0.041000 1000 37 0.900000 1.063000 1.033000 600 43 1.000000 0.051000 0.051000 1.200000 0.034000 0.041000
1517347818768966682	200 37 0.900000 0.027000 0.024000 1000 37 0.900000 0.148000 0.144000 600 41 1.000000 0.051000 0.051000 1.200000 0.036000 0.043000
1517347819287265890	200 38 0.900000 0.024000 0.022000 1000 37 0.900000 0.132000 0.128000 600 41 1.000000 0.051000 0.051000 1.200000 0.043000 0.051000
1517347819849352224	200 39 0.900000 0.045000 0.041000 1000 37 0.900000 0.898000 0.872000 600 43 1.000000 0.051000 0.051000 1.200000 0.033000 0.039000
1517347820358803099	200 41 0.900000 0.046000 0.042000 1000 37 0.900000 1.049000 1.019000 600 45 1.000000 0.051000 0.051000 1.200000 0.031000 0.037000
1517347820867348682	200 37 0.900000 0.024000 0.022000 1000 37 0.900000 0.148000 0.144000 600 41 1.000000 0.051000 0.051000 1.200000 0.035000 0.042000
1517347821388468974	200 38 0.900000 0.024000 0.022000 1000 37 0.900000 0.127000 0.123000 600 42 1.000000 0.051000 0.051000 1.200000 0.041000 0.049000
1517347821898127057	200 38 0.900000 0.045000 0.041000 1000 37 0.900000 0.949000 0.922000 600 42 1.000000 0.051000 0.051000 1.200000 0.030000 0.036000
1517347822407473224	200 38 0.900000 0.044000 0.040000 1000 37 0.900000 0.879000 0.855000 600 42 1.000000 0.051000 0.051000 1.200000 0.034000 0.041000
1517347822916580558	200 37 0.900000 0.040000 0.036000 1000 37 0.900000 0.989000 0.961000 600 41 1.000000 0.051000 0.051000 1.200000 0.034000 0.041000
1517347823434877974	200 38 0.900000 0.023000 0.021000 1000 37 0.900000 0.134000 0.130000 600 41 1.000000 0.051000 0.051000 1.200000 0.036000 0.043000
1517347824005346641	200 40 0.900000 0.045000 0.041000 1000 37 0.900000 0.458000 0.445000 600 42 1.000000 0.051000 0.051000 1.200000 0.046000 0.055000
1517347824514933266	200 40 0.900000 0.046000 0.042000 1000 37 0.900000 0.863000 0.838000 600 44 1.000000 0.051000 0.051000 1.200000 0.031000 0.037000
1517347825024263974	200 38 0.900000 0.043000 0.039000 1000 37 0.900000 0.846000 0.822000 600 41 1.000000 0.051000 0.051000 1.200000 0.032000 0.038000
1517347825532808183	200 37 0.900000 0.023000 0.021000 1000 36 0.900000 0.135000 0.131000 600 41 1.000000 0.051000 0.051000 1.200000 0.035000 0.042000
1517347826042399850	200 38 0.900000 0.028000 0.025000 1000 37 0.900000 0.298000 0.290000 600 42 1.000000 0.051000 0.051000 1.200000 0.042000 0.050000
1517347826593338600	200 39 0.900000 0.045000 0.041000 1000 37 0.900000 1.041000 1.011000 600 43 1.000000 0.051000 0.051000 1.200000 0.033000 0.039000
1517347827102754683	200 38 0.900000 0.041000 0.037000 1000 37 0.900000 0.840000 0.816000 600 42 1.000000 0.051000 0.051000 1.200000 0.032000 0.038000
1517347827611744100	200 37 0.900000 0.023000 0.021000 1000 37 0.900000 0.127000 0.123000 600 41 1.000000 0.051000 0.051000 1.200000 0.036000 0.043000
1517347828121038850	200 38 0.900000 0.031000 0.028000 1000 37 0.900000 0.278000 0.270000 600 42 1.000000 0.051000 0.051000 1.200000 0.041000 0.049000
1517347828630473850	200 38 0.900000 0.040000 0.036000 1000 37 0.900000 0.971000 0.943000 600 42 1.000000 0.051000 0.051000 1.200000 0.033000 0.039000
1517347829139972308	200 38 0.900000 0.045000 0.041000 1000 37 0.900000 0.856000 0.832000 600 42 1.000000 0.051000 0.051000 1.200000 0.031000 0.037000
1517347829648726433	200 37 0.900000 0.023000 0.021000 1000 37 0.900000 0.143000 0.139000 600 41 1.000000 0.051000 0.051000 1.200000 0.036000 0.043000
1517347830201296267	200 39 0.900000 0.036000 0.033000 1000 37 0.900000 0.270000 0.262000 600 43 1.000000 0.051000 0.051000 1.200000 0.041000 0.049000
1517347830710730267	200 39 0.900000 0.043000 0.039000 1000 37 0.900000 1.071000 1.041000 600 43 1.000000 0.051000 0.051000 1.200000 0.037000 0.044000
1517347831220064767	200 38 0.900000 0.048000 0.044000 1000 37 0.900000 0.851000 0.828000 600 42 1.000000 0.051000 0.051000 1.200000 0.033000 0.039000
1517347831728890642	200 37 0.900000 0.023000 0.021000 1000 37 0.900000 0.120000 0.117000 600 41 1.000000 0.051000 0.051000 1.200000 0.034000 0.041000
1517347832293329975	200 39 0.900000 0.025000 0.022000 1000 37 0.900000 0.341000 0.332000 600 42 1.000000 0.051000 0.051000 1.200000 0.038000 0.045000
1517347832802937809	200 39 0.900000 0.045000 0.041000 1000 37 0.900000 0.909000 0.884000 600 43 1.000000 0.051000 0.051000 1.200000 0.037000 0.044000
1517347833312361767	200 38 0.900000 0.041000 0.037000 1000 37 0.900000 0.853000 0.829000 600 42 1.000000 0.051000 0.051000 1.200000 0.033000 0.039000
1517347833821072726	200 37 0.900000 0.023000 0.021000 1000 37 0.900000 0.121000 0.117000 600 41 1.000000 0.051000 0.051000 1.200000 0.036000 0.043000
1517347834373219184	200 39 0.900000 0.031000 0.028000 1000 36 0.900000 0.332000 0.323000 600 43 1.000000 0.051000 0.051000 1.200000 0.039000 0.047000
1517347834902255267	200 40 0.900000 0.042000 0.038000 1000 37 0.900000 0.848000 0.824000 600 44 1.000000 0.051000 0.051000 1.200000 0.034000 0.041000
1517347835411744059	200 39 0.900000 0.043000 0.039000 1000 37 0.900000 0.851000 0.828000 600 43 1.000000 0.051000 0.051000 1.200000 0.035000 0.042000
1517347835920384642	200 37 0.900000 0.023000 0.021000 1000 37 0.900000 0.121000 0.117000 600 41 1.000000 0.051000 0.051000 1.200000 0.032000 0.038000
1517347836429766767	200 37 0.900000 0.031000 0.028000 1000 36 0.900000 0.248000 0.241000 600 41 1.000000 0.051000 0.051000 1.200000 0.038000 0.045000
1517347836939269518	200 38 0.900000 0.046000 0.042000 1000 37 0.900000 0.964000 0.937000 600 42 1.000000 0.051000 0.051000 1.200000 0.034000 0.041000
1517347837453435351	200 38 0.900000 0.045000 0.041000 1000 37 0.900000 0.866000 0.842000 600 42 1.000000 0.051000 0.051000 1.200000 0.032000 0.038000
1517347837962709976	200 37 0.900000 0.044000 0.040000 1000 37 0.900000 0.803000 0.781000 600 41 1.000000 0.051000 0.051000 1.200000 0.032000 0.038000
1517347838471926934	200 38 0.900000 0.023000 0.021000 1000 36 0.900000 0.126000 0.122000 600 41 1.000000 0.051000 0.051000 1.200000 0.038000 0.045000
1517347839017300143	200 39 0.900000 0.033000 0.030000 1000 37 0.900000 0.608000 0.590000 600 41 1.000000 0.051000 0.051000 1.200000 0.043000 0.051000
1517347839551488476	200 40 0.900000 0.043000 0.039000 1000 37 0.900000 0.943000 0.916000 600 44 1.000000 0.051000 0.051000 1.200000 0.034000 0.041000
1517347840060635185	200 37 0.900000 0.042000 0.038000 1000 37 0.900000 0.988000 0.960000 600 41 1.000000 0.051000 0.051000 1.200000 0.031000 0.037000
1517347840569552268	200 37 0.900000 0.023000 0.021000 1000 36 0.900000 0.135000 0.131000 600 40 1.000000 0.051000 0.051000 1.200000 0.037000 0.044000
1517347841079094101	200 38 0.900000 0.031000 0.028000 1000 37 0.900000 0.350000 0.340000 600 42 1.000000 0.051000 0.051000 1.200000 0.039000 0.047000
1517347841588529018	200 38 0.900000 0.040000 0.036000 1000 37 0.900000 0.853000 0.829000 600 42 1.000000 0.051000 0.051000 1.200000 0.033000 0.039000
1517347842097810935	200 38 0.900000 0.041000 0.037000 1000 37 0.900000 0.905000 0.880000 600 42 1.000000 0.051000 0.051000 1.200000 0.034000 0.041000
1517347842606705602	200 37 0.900000 0.023000 0.021000 1000 36 0.900000 0.124000 0.120000 600 41 1.000000 0.051000 0.051000 1.200000 0.033000 0.039000
1517347843116153393	200 39 0.900000 0.023000 0.021000 1000 36 0.900000 0.270000 0.263000 600 42 1.000000 0.051000 0.051000 1.200000 0.037000 0.044000
1517347843673288643	200 39 0.900000 0.048000 0.044000 1000 37 0.900000 0.980000 0.952000 600 42 1.000000 0.051000 0.051000 1.200000 0.035000 0.042000
1517347844202907185	200 40 0.900000 0.041000 0.037000 1000 37 0.900000 0.886000 0.862000 600 44 1.000000 0.051000 0.051000 1.200000 0.035000 0.042000
1517347844718825768	200 41 0.900000 0.031000 0.028000 1000 38 0.900000 1.168000 1.132000 600 45 1.000000 0.051000 0.051000 1.200000 0.046000 0.055000
1517347845228621727	200 40 0.900000 0.058000 0.053000 1000 38 0.900000 1.509000 1.465000 600 44 1.000000 0.051000 0.051000 1.200000 0.038000 0.045000
1517347845764887935	200 42 0.900000 0.047000 0.043000 1000 38 0.900000 1.614000 1.567000 600 46 1.000000 0.051000 0.051000 1.200000 0.050000 0.060000
1517347846329359352	200 42 0.900000 0.058000 0.053000 1000 38 0.900000 1.347000 1.303000 600 46 1.000000 0.051000 0.051000 1.200000 0.039000 0.047000
1517347846885361352	200 43 0.900000 0.058000 0.053000 1000 39 0.900000 1.638000 1.588000 600 47 1.000000 0.051000 0.051000 1.200000 0.038000 0.045000
1517347847429460227	200 42 0.900000 0.045000 0.041000 1000 39 0.900000 1.184000 1.146000 600 46 1.000000 0.052000 0.052000 1.200000 0.047000 0.056000
1517347847939890769	200 42 0.900000 0.058000 0.053000 1000 39 0.900000 1.612000 1.563000 600 46 1.000000 0.051000 0.051000 1.200000 0.040000 0.048000
1517347848505227644	200 43 0.900000 0.060000 0.054000 1000 39 0.900000 1.596000 1.549000 600 47 1.000000 0.051000 0.051000 1.200000 0.046000 0.055000
1517347849015190394	200 43 0.900000 0.047000 0.043000 1000 39 0.900000 1.281000 1.240000 600 47 1.000000 0.051000 0.051000 1.200000 0.037000 0.044000
1517347849558378394	200 43 0.900000 0.058000 0.053000 1000 39 0.900000 1.599000 1.552000 600 48 1.000000 0.051000 0.051000 1.200000 0.039000 0.047000
1517347850133579227	200 43 0.900000 0.053000 0.048000 1000 39 0.900000 1.221000 1.185000 600 47 1.000000 0.051000 0.051000 1.200000 0.048000 0.057000
1517347850697297644	200 43 0.900000 0.057000 0.052000 1000 39 0.900000 1.585000 1.539000 600 47 1.000000 0.051000 0.051000 1.200000 0.040000 0.048000
1517347851241330228	200 43 0.900000 0.057000 0.052000 1000 40 0.900000 1.685000 1.636000 600 48 1.000000 0.051000 0.051000 1.200000 0.036000 0.043000
1517347851776183728	200 44 0.900000 0.045000 0.041000 1000 40 0.900000 1.197000 1.158000 600 48 1.000000 0.051000 0.051000 1.200000 0.048000 0.058000
1517347852286051728	200 43 0.900000 0.057000 0.052000 1000 40 0.900000 1.596000 1.549000 600 46 1.000000 0.051000 0.051000 1.200000 0.037000 0.044000
1517347852815617061	200 43 0.900000 0.059000 0.054000 1000 40 0.900000 1.337000 1.296000 600 48 1.000000 0.052000 0.052000 1.200000 0.039000 0.047000
1517347853377319228	200 43 0.900000 0.047000 0.043000 1000 40 0.900000 1.568000 1.522000 600 48 1.000000 0.051000 0.051000 1.200000 0.039000 0.047000
1517347853925278103	200 44 0.900000 0.058000 0.053000 1000 40 0.900000 1.600000 1.553000 600 48 1.000000 0.052000 0.052000 1.200000 0.039000 0.047000
1517347854437409978	200 44 0.900000 0.050000 0.045000 1000 40 0.900000 1.119000 1.083000 600 48 1.000000 0.051000 0.051000 1.200000 0.050000 0.060000
1517347854947885728	200 41 0.900000 0.058000 0.053000 1000 40 0.900000 1.625000 1.577000 600 48 1.000000 0.052000 0.052000 1.200000 0.039000 0.047000
1517347855457455145	200 44 0.900000 0.044000 0.040000 1000 40 0.900000 1.262000 1.224000 600 49 1.000000 0.051000 0.051000 1.200000 0.040000 0.048000
1517347856017327936	200 44 0.900000 0.059000 0.054000 1000 40 0.900000 1.653000 1.603000 600 48 1.000000 0.051000 0.051000 1.200000 0.043000 0.051000
1517347856577197853	200 44 0.900000 0.058000 0.053000 1000 40 0.900000 1.582000 1.534000 600 49 1.000000 0.052000 0.052000 1.200000 0.037000 0.044000
1517347857137313895	200 44 0.900000 0.044000 0.040000 1000 40 0.900000 1.228000 1.188000 600 48 1.000000 0.052000 0.052000 1.200000 0.051000 0.061000
1517347857650082687	200 43 0.900000 0.057000 0.052000 1000 40 0.900000 1.609000 1.562000 600 48 1.000000 0.052000 0.052000 1.200000 0.037000 0.044000
1517347858192074103	200 44 0.900000 0.059000 0.054000 1000 40 0.900000 1.424000 1.381000 600 49 1.000000 0.051000 0.051000 1.200000 0.036000 0.043000
1517347858709408812	200 43 0.900000 0.047000 0.043000 1000 40 0.900000 1.602000 1.553000 600 47 1.000000 0.052000 0.052000 1.200000 0.044000 0.053000
1517347859252251729	200 44 0.900000 0.044000 0.040000 1000 40 0.900000 1.468000 1.425000 600 49 1.000000 0.052000 0.052000 1.200000 0.034000 0.041000
1517347859805309979	200 43 0.900000 0.045000 0.041000 1000 40 0.900000 1.154000 1.117000 600 48 1.000000 0.052000 0.052000 1.200000 0.052000 0.062000
1517347860315701062	200 44 0.900000 0.057000 0.052000 1000 40 0.900000 1.573000 1.527000 600 47 1.000000 0.051000 0.051000 1.200000 0.037000 0.044000
1517347860869355562	200 44 0.900000 0.057000 0.052000 1000 40 0.900000 1.329000 1.289000 600 49 1.000000 0.052000 0.052000 1.200000 0.039000 0.047000
1517347861433212479	200 44 0.900000 0.045000 0.041000 1000 40 0.900000 1.594000 1.546000 600 48 1.000000 0.051000 0.051000 1.200000 0.044000 0.053000
1517347861943486062	200 42 0.900000 0.060000 0.054000 1000 40 0.900000 1.530000 1.485000 600 47 1.000000 0.052000 0.052000 1.200000 0.038000 0.045000
1517347862479639812	200 44 0.900000 0.043000 0.039000 1000 40 0.900000 1.114000 1.078000 600 49 1.000000 0.051000 0.051000 1.200000 0.050000 0.060000
1517347863041320771	200 44 0.900000 0.058000 0.053000 1000 40 0.900000 1.632000 1.584000 600 48 1.000000 0.052000 0.052000 1.200000 0.038000 0.045000
1517347863577724271	200 44 0.900000 0.055000 0.050000 1000 40 0.900000 1.531000 1.486000 600 49 1.000000 0.052000 0.052000 1.200000 0.038000 0.045000
1517347864141301187	200 44 0.900000 0.050000 0.045000 1000 40 0.900000 1.329000 1.286000 600 49 1.000000 0.052000 0.052000 1.200000 0.049000 0.059000
1517347864697424271	200 44 0.900000 0.050000 0.045000 1000 40 0.900000 1.439000 1.395000 600 48 1.000000 0.052000 0.052000 1.200000 0.043000 0.051000
1517347865236568646	200 44 0.900000 0.058000 0.053000 1000 40 0.900000 1.554000 1.508000 600 49 1.000000 0.052000 0.052000 1.200000 0.037000 0.044000
1517347865788163104	200 44 0.900000 0.053000 0.048000 1000 40 0.900000 1.263000 1.222000 600 49 1.000000 0.051000 0.051000 1.200000 0.042000 0.050000
1517347866301883271	200 42 0.900000 0.047000 0.043000 1000 40 0.900000 1.573000 1.527000 600 46 1.000000 0.052000 0.052000 1.200000 0.040000 0.048000
1517347866811669854	200 41 0.900000 0.045000 0.041000 1000 40 0.900000 0.943000 0.916000 600 45 1.000000 0.051000 0.051000 1.200000 0.033000 0.039000
1517347867342835146	200 43 0.900000 0.041000 0.037000 1000 40 0.900000 1.176000 1.143000 600 47 1.000000 0.051000 0.051000 1.200000 0.031000 0.037000
1517347867851633021	200 39 0.900000 0.023000 0.021000 1000 39 0.900000 0.131000 0.127000 600 43 1.000000 0.052000 0.052000 1.200000 0.035000 0.042000
1517347868365051938	200 40 0.900000 0.024000 0.022000 1000 38 0.900000 0.137000 0.133000 600 43 1.000000 0.051000 0.051000 1.200000 0.041000 0.049000
1517347868925286521	200 42 0.900000 0.046000 0.042000 1000 39 0.900000 0.955000 0.928000 600 46 1.000000 0.051000 0.051000 1.200000 0.031000 0.037000
1517347869481321855	200 42 0.900000 0.058000 0.053000 1000 39 0.900000 1.428000 1.385000 600 47 1.000000 0.051000 0.051000 1.200000 0.042000 0.050000
1517347870007104855	200 43 0.900000 0.059000 0.054000 1000 39 0.900000 1.539000 1.492000 600 48 1.000000 0.051000 0.051000 1.200000 0.034000 0.041000
1517347870565432272	200 43 0.900000 0.045000 0.041000 1000 40 0.900000 1.314000 1.271000 600 48 1.000000 0.051000 0.051000 1.200000 0.040000 0.048000
1517347871121351313	200 43 0.900000 0.056000 0.051000 1000 40 0.900000 1.538000 1.493000 600 47 1.000000 0.052000 0.052000 1.200000 0.037000 0.044000
1517347871685382272	200 43 0.900000 0.056000 0.051000 1000 40 0.900000 1.538000 1.493000 600 48 1.000000 0.051000 0.051000 1.200000 0.044000 0.053000
1517347872249333022	200 43 0.900000 0.045000 0.041000 1000 40 0.900000 1.157000 1.119000 600 48 1.000000 0.051000 0.051000 1.200000 0.039000 0.047000
1517347872763608397	200 43 0.900000 0.057000 0.052000 1000 40 0.900000 1.577000 1.529000 600 47 1.000000 0.052000 0.052000 1.200000 0.038000 0.045000
1517347873305874689	200 44 0.900000 0.059000 0.054000 1000 40 0.900000 1.544000 1.497000 600 49 1.000000 0.052000 0.052000 1.200000 0.050000 0.060000
1517347873853287439	200 44 0.900000 0.045000 0.041000 1000 40 0.900000 1.467000 1.422000 600 48 1.000000 0.051000 0.051000 1.200000 0.036000 0.043000
1517347874363305105	200 44 0.900000 0.057000 0.052000 1000 40 0.900000 1.598000 1.550000 600 47 1.000000 0.052000 0.052000 1.200000 0.040000 0.048000
1517347874900003564	200 44 0.900000 0.048000 0.043000 1000 40 0.900000 1.163000 1.124000 600 49 1.000000 0.052000 0.052000 1.200000 0.042000 0.050000
1517347875461311355	200 44 0.900000 0.058000 0.053000 1000 40 0.900000 1.614000 1.565000 600 48 1.000000 0.052000 0.052000 1.200000 0.036000 0.043000
1517347876017364481	200 44 0.900000 0.058000 0.053000 1000 40 0.900000 1.559000 1.513000 600 49 1.000000 0.051000 0.051000 1.200000 0.037000 0.044000
1517347876561218772	200 44 0.900000 0.045000 0.041000 1000 40 0.900000 1.569000 1.521000 600 48 1.000000 0.051000 0.051000 1.200000 0.048000 0.057000
1517347877070956772	200 43 0.900000 0.058000 0.053000 1000 40 0.900000 1.566000 1.519000 600 47 1.000000 0.052000 0.052000 1.200000 0.036000 0.043000
1517347877600864814	200 43 0.900000 0.049000 0.044000 1000 40 0.900000 0.983000 0.955000 600 47 1.000000 0.052000 0.052000 1.200000 0.045000 0.054000
1517347878114487856	200 42 0.900000 0.059000 0.054000 1000 40 0.900000 1.582000 1.534000 600 48 1.000000 0.051000 0.051000 1.200000 0.037000 0.044000
1517347878662039856	200 44 0.900000 0.058000 0.053000 1000 40 0.900000 1.587000 1.539000 600 49 1.000000 0.052000 0.052000 1.200000 0.045000 0.054000
1517347879217305564	200 44 0.900000 0.043000 0.039000 1000 40 0.900000 1.156000 1.119000 600 48 1.000000 0.052000 0.052000 1.200000 0.038000 0.045000
1517347879773216148	200 44 0.900000 0.058000 0.053000 1000 40 0.900000 1.553000 1.507000 600 49 1.000000 0.052000 0.052000 1.200000 0.038000 0.045000
1517347880299272523	200 44 0.900000 0.052000 0.047000 1000 40 0.900000 1.192000 1.156000 600 49 1.000000 0.052000 0.052000 1.200000 0.041000 0.049000
1517347880809698939	200 42 0.900000 0.058000 0.053000 1000 40 0.900000 1.600000 1.553000 600 48 1.000000 0.052000 0.052000 1.200000 0.036000 0.043000
1517347881326924148	200 44 0.900000 0.045000 0.041000 1000 40 0.900000 1.592000 1.545000 600 48 1.000000 0.052000 0.052000 1.200000 0.045000 0.054000
1517347881897309981	200 44 0.900000 0.041000 0.037000 1000 41 0.900000 1.185000 1.147000 600 48 1.000000 0.052000 0.052000 1.200000 0.036000 0.043000
1517347882457419648	200 44 0.900000 0.058000 0.053000 1000 41 0.900000 1.575000 1.527000 600 49 1.000000 0.052000 0.052000 1.200000 0.038000 0.045000
1517347883021412440	200 44 0.900000 0.045000 0.041000 1000 41 0.900000 1.399000 1.354000 600 49 1.000000 0.052000 0.052000 1.200000 0.050000 0.060000
1517347883569500315	200 44 0.900000 0.057000 0.052000 1000 41 0.900000 1.619000 1.572000 600 48 1.000000 0.052000 0.052000 1.200000 0.038000 0.045000
1517347884081394815	200 45 0.900000 0.060000 0.054000 1000 41 0.900000 1.611000 1.564000 600 49 1.000000 0.051000 0.051000 1.200000 0.048000 0.057000
1517347884637304648	200 44 0.900000 0.046000 0.042000 1000 41 0.900000 1.216000 1.177000 600 49 1.000000 0.051000 0.051000 1.200000 0.035000 0.042000
1517347885147682065	200 43 0.900000 0.058000 0.053000 1000 41 0.900000 1.632000 1.584000 600 48 1.000000 0.051000 0.051000 1.200000 0.040000 0.048000
1517347885697398190	200 44 0.900000 0.048000 0.044000 1000 41 0.900000 1.391000 1.349000 600 49 1.000000 0.052000 0.052000 1.200000 0.046000 0.055000
1517347886265312398	200 44 0.900000 0.058000 0.053000 1000 40 0.900000 1.691000 1.641000 600 49 1.000000 0.052000 0.052000 1.200000 0.038000 0.045000
1517347886817315940	200 44 0.900000 0.058000 0.053000 1000 41 0.900000 1.587000 1.540000 600 49 1.000000 0.051000 0.051000 1.200000 0.042000 0.050000
1517347887328635774	200 44 0.900000 0.045000 0.041000 1000 41 0.900000 1.666000 1.612000 600 48 1.000000 0.052000 0.052000 1.200000 0.047000 0.056000
1517347887840360774	200 44 0.900000 0.058000 0.053000 1000 41 0.900000 1.666000 1.617000 600 47 1.000000 0.052000 0.052000 1.200000 0.037000 0.044000
1517347888359118899	200 44 0.900000 0.045000 0.041000 1000 41 0.900000 1.306000 1.264000 600 49 1.000000 0.051000 0.051000 1.200000 0.050000 0.060000
1517347888921400690	200 44 0.900000 0.058000 0.053000 1000 41 0.900000 1.648000 1.600000 600 48 1.000000 0.052000 0.052000 1.200000 0.038000 0.045000
1517347889485211274	200 44 0.900000 0.056000 0.051000 1000 41 0.900000 1.567000 1.519000 600 49 1.000000 0.052000 0.052000 1.200000 0.036000 0.043000
1517347889996187524	200 43 0.900000 0.046000 0.042000 1000 41 0.900000 1.089000 1.054000 600 48 1.000000 0.052000 0.052000 1.200000 0.048000 0.057000
1517347890506402357	200 44 0.900000 0.037000 0.033000 1000 41 0.900000 1.369000 1.329000 600 47 1.000000 0.052000 0.052000 1.200000 0.033000 0.039000
1517347891031562024	200 45 0.900000 0.059000 0.054000 1000 41 0.900000 1.376000 1.334000 600 49 1.000000 0.051000 0.051000 1.200000 0.039000 0.047000
1517347891589366191	200 44 0.900000 0.044000 0.040000 1000 41 0.900000 1.548000 1.501000 600 49 1.000000 0.052000 0.052000 1.200000 0.036000 0.043000
1517347892137321274	200 45 0.900000 0.059000 0.054000 1000 41 0.900000 1.610000 1.561000 600 49 1.000000 0.052000 0.052000 1.200000 0.035000 0.042000
1517347892646843441	200 45 0.900000 0.058000 0.053000 1000 41 0.900000 1.163000 1.125000 600 49 1.000000 0.052000 0.052000 1.200000 0.052000 0.062000
1517347893156840358	200 44 0.900000 0.052000 0.047000 1000 41 0.900000 1.548000 1.503000 600 47 1.000000 0.052000 0.052000 1.200000 0.035000 0.042000
1517347893676642316	200 45 0.900000 0.049000 0.044000 1000 41 0.900000 1.378000 1.338000 600 49 1.000000 0.051000 0.051000 1.200000 0.037000 0.044000
1517347894241206316	200 44 0.900000 0.058000 0.053000 1000 41 0.900000 1.578000 1.532000 600 48 1.000000 0.052000 0.052000 1.200000 0.044000 0.053000
1517347894789317108	200 44 0.900000 0.057000 0.052000 1000 41 0.900000 1.519000 1.474000 600 49 1.000000 0.052000 0.052000 1.200000 0.035000 0.042000
1517347895341282233	200 44 0.900000 0.046000 0.042000 1000 41 0.900000 1.120000 1.084000 600 48 1.000000 0.052000 0.052000 1.200000 0.050000 0.060000
1517347895861024566	200 44 0.900000 0.058000 0.053000 1000 41 0.900000 1.621000 1.573000 600 48 1.000000 0.052000 0.052000 1.200000 0.036000 0.043000
1517347896373018608	200 45 0.900000 0.059000 0.054000 1000 41 0.900000 1.664000 1.614000 600 49 1.000000 0.052000 0.052000 1.200000 0.037000 0.044000
1517347896918083525	200 44 0.900000 0.045000 0.041000 1000 41 0.900000 1.182000 1.144000 600 49 1.000000 0.051000 0.051000 1.200000 0.048000 0.057000
1517347897428777608	200 43 0.900000 0.059000 0.054000 1000 41 0.900000 1.559000 1.512000 600 48 1.000000 0.052000 0.052000 1.200000 0.034000 0.041000
1517347897993303192	200 44 0.900000 0.058000 0.053000 1000 41 0.900000 1.569000 1.521000 600 49 1.000000 0.052000 0.052000 1.200000 0.037000 0.044000
1517347898542403067	200 44 0.900000 0.047000 0.043000 1000 41 0.900000 1.300000 1.258000 600 49 1.000000 0.051000 0.051000 1.200000 0.050000 0.060000
1517347899052317192	200 44 0.900000 0.058000 0.053000 1000 41 0.900000 1.609000 1.560000 600 48 1.000000 0.052000 0.052000 1.200000 0.035000 0.042000
1517347899613312192	200 44 0.900000 0.046000 0.042000 1000 41 0.900000 1.414000 1.371000 600 49 1.000000 0.052000 0.052000 1.200000 0.037000 0.044000
1517347900161527525	200 44 0.900000 0.057000 0.052000 1000 41 0.900000 1.439000 1.395000 600 49 1.000000 0.052000 0.052000 1.200000 0.043000 0.052000
1517347900674614025	200 44 0.900000 0.060000 0.054000 1000 41 0.900000 1.626000 1.578000 600 48 1.000000 0.052000 0.052000 1.200000 0.035000 0.042000
1517347901235401525	200 45 0.900000 0.046000 0.042000 1000 41 0.900000 1.302000 1.262000 600 49 1.000000 0.051000 0.051000 1.200000 0.039000 0.047000
1517347901801363984	200 44 0.900000 0.058000 0.053000 1000 41 0.900000 1.542000 1.495000 600 49 1.000000 0.052000 0.052000 1.200000 0.038000 0.045000
1517347902311447109	200 44 0.900000 0.058000 0.053000 1000 41 0.900000 1.488000 1.443000 600 47 1.000000 0.052000 0.052000 1.200000 0.038000 0.045000
1517347902841330984	200 44 0.900000 0.045000 0.041000 1000 41 0.900000 1.148000 1.111000 600 48 1.000000 0.051000 0.051000 1.200000 0.046000 0.055000
1517347903370381734	200 44 0.900000 0.058000 0.053000 1000 41 0.900000 1.534000 1.489000 600 49 1.000000 0.051000 0.051000 1.200000 0.036000 0.043000
1517347903929298817	200 44 0.900000 0.057000 0.052000 1000 41 0.900000 1.683000 1.634000 600 49 1.000000 0.051000 0.051000 1.200000 0.035000 0.042000
1517347904489295192	200 44 0.900000 0.046000 0.042000 1000 41 0.900000 1.166000 1.128000 600 49 1.000000 0.052000 0.052000 1.200000 0.047000 0.056000
1517347904999452276	200 44 0.900000 0.045000 0.041000 1000 41 0.900000 1.581000 1.535000 600 48 1.000000 0.052000 0.052000 1.200000 0.045000 0.054000
1517347905550827776	200 45 0.900000 0.060000 0.054000 1000 41 0.900000 1.257000 1.216000 600 49 1.000000 0.052000 0.052000 1.200000 0.042000 0.050000
1517347906113376942	200 44 0.900000 0.048000 0.044000 1000 41 0.900000 1.134000 1.097000 600 49 1.000000 0.052000 0.052000 1.200000 0.046000 0.055000
1517347906623243443	200 43 0.900000 0.058000 0.053000 1000 41 0.900000 1.644000 1.594000 600 48 1.000000 0.051000 0.051000 1.200000 0.034000 0.041000
1517347907168464193	200 45 0.900000 0.049000 0.044000 1000 41 0.900000 1.653000 1.605000 600 49 1.000000 0.052000 0.052000 1.200000 0.035000 0.042000
1517347907717213943	200 44 0.900000 0.058000 0.053000 1000 41 0.900000 1.428000 1.385000 600 49 1.000000 0.052000 0.052000 1.200000 0.043000 0.051000
1517347908281348526	200 44 0.900000 0.059000 0.054000 1000 41 0.900000 1.608000 1.561000 600 49 1.000000 0.052000 0.052000 1.200000 0.035000 0.042000
1517347908791040693	200 44 0.900000 0.046000 0.042000 1000 41 0.900000 1.124000 1.088000 600 49 1.000000 0.052000 0.052000 1.200000 0.046000 0.055000
1517347909301088360	200 44 0.900000 0.058000 0.053000 1000 41 0.900000 1.593000 1.546000 600 47 1.000000 0.052000 0.052000 1.200000 0.036000 0.043000
1517347909811060943	200 45 0.900000 0.059000 0.054000 1000 41 0.900000 1.613000 1.566000 600 50 1.000000 0.052000 0.052000 1.200000 0.035000 0.042000
1517347910365381193	200 45 0.900000 0.046000 0.042000 1000 41 0.900000 1.380000 1.338000 600 49 1.000000 0.052000 0.052000 1.200000 0.038000 0.045000
1517347910925304193	200 45 0.900000 0.059000 0.054000 1000 41 0.900000 1.581000 1.533000 600 49 1.000000 0.052000 0.052000 1.200000 0.041000 0.049000
1517347911442093235	200 45 0.900000 0.046000 0.042000 1000 41 0.900000 1.082000 1.047000 600 49 1.000000 0.052000 0.052000 1.200000 0.038000 0.045000
1517347911952120985	200 44 0.900000 0.059000 0.054000 1000 41 0.900000 1.619000 1.572000 600 47 1.000000 0.052000 0.052000 1.200000 0.036000 0.043000
1517347912464678360	200 45 0.900000 0.045000 0.041000 1000 41 0.900000 1.628000 1.580000 600 50 1.000000 0.052000 0.052000 1.200000 0.052000 0.062000
1517347913013362735	200 45 0.900000 0.058000 0.053000 1000 41 0.900000 1.304000 1.262000 600 49 1.000000 0.052000 0.052000 1.200000 0.038000 0.045000
1517347913561290360	200 45 0.900000 0.059000 0.054000 1000 41 0.900000 1.602000 1.555000 600 49 1.000000 0.052000 0.052000 1.200000 0.039000 0.047000
1517347914090216068	200 45 0.900000 0.042000 0.038000 1000 41 0.900000 0.972000 0.940000 600 49 1.000000 0.052000 0.052000 1.200000 0.045000 0.054000
1517347914600793985	200 43 0.900000 0.059000 0.054000 1000 41 0.900000 1.613000 1.566000 600 47 1.000000 0.051000 0.051000 1.200000 0.036000 0.043000
1517347915110579902	200 45 0.900000 0.058000 0.053000 1000 41 0.900000 1.644000 1.596000 600 49 1.000000 0.052000 0.052000 1.200000 0.049000 0.059000
1517347915673412777	200 45 0.900000 0.055000 0.050000 1000 41 0.900000 1.268000 1.227000 600 49 1.000000 0.052000 0.052000 1.200000 0.036000 0.043000
1517347916233186319	200 45 0.900000 0.059000 0.054000 1000 41 0.900000 1.615000 1.568000 600 50 1.000000 0.052000 0.052000 1.200000 0.038000 0.045000
1517347916801253694	200 44 0.900000 0.046000 0.042000 1000 41 0.900000 1.243000 1.203000 600 49 1.000000 0.052000 0.052000 1.200000 0.042000 0.050000
1517347917333413235	200 44 0.900000 0.058000 0.053000 1000 41 0.900000 1.610000 1.563000 600 48 1.000000 0.052000 0.052000 1.200000 0.035000 0.042000
1517347917866481319	200 45 0.900000 0.058000 0.053000 1000 41 0.900000 1.611000 1.564000 600 50 1.000000 0.052000 0.052000 1.200000 0.048000 0.057000
1517347918417378402	200 45 0.900000 0.045000 0.041000 1000 41 0.900000 1.228000 1.188000 600 49 1.000000 0.051000 0.051000 1.200000 0.037000 0.044000
1517347918927314902	200 45 0.900000 0.058000 0.053000 1000 41 0.900000 1.603000 1.554000 600 48 1.000000 0.052000 0.052000 1.200000 0.039000 0.047000
1517347919484199402	200 45 0.900000 0.042000 0.038000 1000 41 0.900000 1.391000 1.349000 600 50 1.000000 0.052000 0.052000 1.200000 0.046000 0.055000
1517347920045303861	200 45 0.900000 0.058000 0.053000 1000 41 0.900000 1.607000 1.558000 600 49 1.000000 0.052000 0.052000 1.200000 0.036000 0.043000
1517347920609654569	200 45 0.900000 0.052000 0.047000 1000 41 0.900000 1.642000 1.594000 600 50 1.000000 0.052000 0.052000 1.200000 0.048000 0.057000
1517347921119412569	200 45 0.900000 0.043000 0.039000 1000 41 0.900000 1.566000 1.520000 600 49 1.000000 0.052000 0.052000 1.200000 0.042000 0.050000
1517347921629759944	200 43 0.900000 0.058000 0.053000 1000 41 0.900000 1.447000 1.403000 600 48 1.000000 0.052000 0.052000 1.200000 0.035000 0.042000
1517347922139741528	200 44 0.900000 0.045000 0.041000 1000 41 0.900000 1.399000 1.357000 600 49 1.000000 0.052000 0.052000 1.200000 0.042000 0.050000
1517347922697299319	200 44 0.900000 0.041000 0.037000 1000 41 0.900000 1.478000 1.435000 600 49 1.000000 0.051000 0.051000 1.200000 0.037000 0.044000
1517347923261282445	200 45 0.900000 0.058000 0.053000 1000 41 0.900000 1.577000 1.531000 600 49 1.000000 0.051000 0.051000 1.200000 0.036000 0.043000
1517347923813309861	200 45 0.900000 0.061000 0.055000 1000 41 0.900000 1.670000 1.621000 600 49 1.000000 0.052000 0.052000 1.200000 0.044000 0.053000
1517347924341498778	200 44 0.900000 0.046000 0.042000 1000 41 0.900000 1.175000 1.137000 600 48 1.000000 0.052000 0.052000 1.200000 0.037000 0.044000
1517347924880570736	200 45 0.900000 0.058000 0.053000 1000 41 0.900000 1.593000 1.546000 600 50 1.000000 0.051000 0.051000 1.200000 0.036000 0.043000
1517347925445114861	200 45 0.900000 0.053000 0.048000 1000 41 0.900000 1.538000 1.491000 600 49 1.000000 0.051000 0.051000 1.200000 0.043000 0.051000
1517347925955747403	200 43 0.900000 0.059000 0.054000 1000 41 0.900000 1.572000 1.524000 600 47 1.000000 0.052000 0.052000 1.200000 0.035000 0.042000
1517347926467534987	200 44 0.900000 0.047000 0.043000 1000 41 0.900000 1.185000 1.147000 600 49 1.000000 0.052000 0.052000 1.200000 0.046000 0.055000
1517347927011384112	200 45 0.900000 0.058000 0.053000 1000 41 0.900000 1.548000 1.501000 600 49 1.000000 0.052000 0.052000 1.200000 0.036000 0.043000
1517347927546122737	200 45 0.900000 0.058000 0.053000 1000 41 0.900000 1.584000 1.538000 600 50 1.000000 0.052000 0.052000 1.200000 0.036000 0.043000
1517347928107335695	200 45 0.900000 0.046000 0.042000 1000 41 0.900000 1.158000 1.119000 600 50 1.000000 0.052000 0.052000 1.200000 0.051000 0.061000
1517347928655485487	200 45 0.900000 0.058000 0.053000 1000 41 0.900000 1.573000 1.525000 600 49 1.000000 0.052000 0.052000 1.200000 0.037000 0.044000
1517347929174617529	200 45 0.900000 0.058000 0.053000 1000 41 0.900000 1.608000 1.559000 600 50 1.000000 0.052000 0.052000 1.200000 0.040000 0.048000
1517347929721295737	200 45 0.900000 0.045000 0.041000 1000 41 0.900000 1.135000 1.098000 600 49 1.000000 0.052000 0.052000 1.200000 0.048000 0.057000
1517347930233847695	200 42 0.900000 0.056000 0.051000 1000 41 0.900000 1.536000 1.491000 600 47 1.000000 0.052000 0.052000 1.200000 0.038000 0.045000
1517347930743709987	200 42 0.900000 0.045000 0.041000 1000 40 0.900000 0.686000 0.666000 600 46 1.000000 0.051000 0.051000 1.200000 0.041000 0.049000
1517347931258257862	200 41 0.900000 0.046000 0.042000 1000 40 0.900000 0.948000 0.921000 600 46 1.000000 0.052000 0.052000 1.200000 0.033000 0.039000
1517347931779863446	200 44 0.900000 0.035000 0.032000 1000 40 0.900000 0.857000 0.832000 600 48 1.000000 0.052000 0.052000 1.200000 0.049000 0.059000
1517347932289722946	200 43 0.900000 0.058000 0.053000 1000 40 0.900000 1.547000 1.500000 600 47 1.000000 0.051000 0.051000 1.200000 0.037000 0.044000
1517347932849297737	200 44 0.900000 0.052000 0.047000 1000 41 0.900000 1.291000 1.249000 600 49 1.000000 0.052000 0.052000 1.200000 0.041000 0.049000
1517347933367049487	200 42 0.900000 0.053000 0.048000 1000 40 0.900000 1.576000 1.528000 600 46 1.000000 0.052000 0.052000 1.200000 0.044000 0.053000
1517347933934474279	200 43 0.900000 0.046000 0.042000 1000 40 0.900000 0.927000 0.901000 600 47 1.000000 0.052000 0.052000 1.200000 0.032000 0.038000
1517347934447465821	200 43 0.900000 0.049000 0.044000 1000 40 0.900000 1.082000 1.050000 600 47 1.000000 0.052000 0.052000 1.200000 0.033000 0.039000
1517347934997368738	200 44 0.900000 0.059000 0.054000 1000 40 0.900000 1.221000 1.184000 600 48 1.000000 0.052000 0.052000 1.200000 0.043000 0.051000
1517347935515848946	200 43 0.900000 0.050000 0.045000 1000 40 0.900000 1.588000 1.541000 600 48 1.000000 0.052000 0.052000 1.200000 0.037000 0.044000
1517347936059863779	200 44 0.900000 0.049000 0.044000 1000 41 0.900000 1.486000 1.441000 600 49 1.000000 0.051000 0.051000 1.200000 0.037000 0.044000
1517347936621271154	200 44 0.900000 0.046000 0.042000 1000 41 0.900000 1.159000 1.121000 600 49 1.000000 0.052000 0.052000 1.200000 0.050000 0.060000
1517347937185167738	200 44 0.900000 0.058000 0.053000 1000 41 0.900000 1.599000 1.551000 600 48 1.000000 0.052000 0.052000 1.200000 0.036000 0.043000
1517347937753258988	200 44 0.900000 0.046000 0.042000 1000 41 0.900000 1.396000 1.354000 600 49 1.000000 0.052000 0.052000 1.200000 0.040000 0.048000
1517347938263147905	200 45 0.900000 0.045000 0.041000 1000 41 0.900000 1.112000 1.076000 600 49 1.000000 0.052000 0.052000 1.200000 0.042000 0.050000
1517347938773158946	200 44 0.900000 0.058000 0.053000 1000 41 0.900000 1.609000 1.560000 600 47 1.000000 0.052000 0.052000 1.200000 0.035000 0.042000
1517347939283752446	200 45 0.900000 0.043000 0.039000 1000 41 0.900000 1.224000 1.184000 600 50 1.000000 0.052000 0.052000 1.200000 0.045000 0.054000
1517347939845192280	200 44 0.900000 0.058000 0.053000 1000 41 0.900000 1.596000 1.548000 600 49 1.000000 0.052000 0.052000 1.200000 0.036000 0.043000
1517347940405282655	200 45 0.900000 0.058000 0.053000 1000 41 0.900000 1.561000 1.514000 600 49 1.000000 0.052000 0.052000 1.200000 0.034000 0.041000
1517347940965204322	200 44 0.900000 0.050000 0.045000 1000 41 0.900000 1.235000 1.195000 600 49 1.000000 0.052000 0.052000 1.200000 0.042000 0.050000
1517347941477935780	200 44 0.900000 0.059000 0.054000 1000 41 0.900000 1.600000 1.552000 600 48 1.000000 0.052000 0.052000 1.200000 0.035000 0.042000
1517347942029329030	200 45 0.900000 0.058000 0.053000 1000 41 0.900000 1.638000 1.588000 600 50 1.000000 0.052000 0.052000 1.200000 0.035000 0.042000
1517347942585362822	200 45 0.900000 0.046000 0.042000 1000 41 0.900000 1.246000 1.206000 600 49 1.000000 0.052000 0.052000 1.200000 0.046000 0.055000
1517347943095250905	200 45 0.900000 0.058000 0.053000 1000 41 0.900000 1.604000 1.555000 600 49 1.000000 0.052000 0.052000 1.200000 0.033000 0.039000
1517347943650279905	200 45 0.900000 0.046000 0.042000 1000 41 0.900000 1.372000 1.330000 600 50 1.000000 0.052000 0.052000 1.200000 0.041000 0.049000
1517347944205408280	200 45 0.900000 0.058000 0.053000 1000 41 0.900000 1.597000 1.549000 600 49 1.000000 0.052000 0.052000 1.200000 0.038000 0.045000
1517347944773211072	200 45 0.900000 0.060000 0.054000 1000 41 0.900000 1.638000 1.590000 600 49 1.000000 0.052000 0.052000 1.200000 0.036000 0.043000
1517347945286255905	200 44 0.900000 0.048000 0.043000 1000 41 0.900000 1.258000 1.217000 600 49 1.000000 0.052000 0.052000 1.200000 0.045000 0.054000
1517347945806494656	200 43 0.900000 0.058000 0.053000 1000 41 0.900000 1.582000 1.534000 600 48 1.000000 0.052000 0.052000 1.200000 0.035000 0.042000
1517347946365270406	200 45 0.900000 0.048000 0.044000 1000 41 0.900000 1.479000 1.434000 600 49 1.000000 0.052000 0.052000 1.200000 0.038000 0.045000
1517347946874870031	200 45 0.900000 0.059000 0.054000 1000 41 0.900000 1.667000 1.616000 600 49 1.000000 0.052000 0.052000 1.200000 0.042000 0.050000
1517347947437150781	200 45 0.900000 0.058000 0.053000 1000 41 0.900000 1.602000 1.553000 600 50 1.000000 0.052000 0.052000 1.200000 0.033000 0.039000
1517347948001352572	200 45 0.900000 0.046000 0.042000 1000 41 0.900000 1.231000 1.191000 600 49 1.000000 0.052000 0.052000 1.200000 0.049000 0.059000
1517347948515353989	200 44 0.900000 0.057000 0.052000 1000 41 0.900000 1.596000 1.549000 600 48 1.000000 0.052000 0.052000 1.200000 0.037000 0.044000
1517347949065250239	200 45 0.900000 0.060000 0.054000 1000 41 0.900000 1.472000 1.427000 600 50 1.000000 0.052000 0.052000 1.200000 0.037000 0.044000
1517347949633305989	200 45 0.900000 0.048000 0.044000 1000 41 0.900000 1.620000 1.571000 600 49 1.000000 0.051000 0.051000 1.200000 0.040000 0.048000
1517347950143309323	200 43 0.900000 0.059000 0.054000 1000 41 0.900000 1.585000 1.537000 600 48 1.000000 0.052000 0.052000 1.200000 0.035000 0.042000
1517347950677274739	200 45 0.900000 0.049000 0.044000 1000 41 0.900000 1.642000 1.592000 600 50 1.000000 0.052000 0.052000 1.200000 0.049000 0.059000
1517347951241417073	200 44 0.900000 0.046000 0.042000 1000 41 0.900000 1.109000 1.073000 600 49 1.000000 0.052000 0.052000 1.200000 0.034000 0.041000
1517347951813400906	200 45 0.900000 0.059000 0.054000 1000 41 0.900000 1.621000 1.573000 600 49 1.000000 0.052000 0.052000 1.200000 0.038000 0.045000
1517347952322988948	200 45 0.900000 0.046000 0.042000 1000 41 0.900000 1.229000 1.189000 600 49 1.000000 0.052000 0.052000 1.200000 0.043000 0.051000
1517347952835731156	200 43 0.900000 0.058000 0.053000 1000 41 0.900000 1.627000 1.579000 600 47 1.000000 0.052000 0.052000 1.200000 0.038000 0.045000
1517347953389249323	200 44 0.900000 0.059000 0.054000 1000 41 0.900000 1.617000 1.570000 600 49 1.000000 0.052000 0.052000 1.200000 0.047000 0.056000
1517347953903395990	200 45 0.900000 0.045000 0.041000 1000 41 0.900000 1.179000 1.141000 600 49 1.000000 0.051000 0.051000 1.200000 0.036000 0.043000
1517347954448212157	200 45 0.900000 0.058000 0.053000 1000 41 0.900000 1.550000 1.505000 600 50 1.000000 0.052000 0.052000 1.200000 0.037000 0.044000
1517347955001422740	200 45 0.900000 0.054000 0.049000 1000 41 0.900000 1.431000 1.388000 600 49 1.000000 0.052000 0.052000 1.200000 0.046000 0.055000
1517347955525595698	200 44 0.900000 0.056000 0.051000 1000 41 0.900000 1.608000 1.561000 600 48 1.000000 0.052000 0.052000 1.200000 0.038000 0.045000
1517347956047207073	200 45 0.900000 0.058000 0.053000 1000 41 0.900000 1.584000 1.536000 600 50 1.000000 0.052000 0.052000 1.200000 0.044000 0.053000
1517347956609375657	200 45 0.900000 0.058000 0.053000 1000 41 0.900000 1.166000 1.128000 600 49 1.000000 0.052000 0.052000 1.200000 0.038000 0.045000
1517347957119738824	200 44 0.900000 0.058000 0.053000 1000 41 0.900000 1.568000 1.522000 600 47 1.000000 0.052000 0.052000 1.200000 0.038000 0.045000
1517347957681312282	200 44 0.900000 0.046000 0.042000 1000 41 0.900000 1.604000 1.557000 600 49 1.000000 0.052000 0.052000 1.200000 0.049000 0.059000
1517347958221333157	200 45 0.900000 0.058000 0.053000 1000 41 0.900000 1.209000 1.170000 600 48 1.000000 0.052000 0.052000 1.200000 0.037000 0.044000
1517347958731795949	200 44 0.900000 0.058000 0.053000 1000 41 0.900000 1.558000 1.511000 600 49 1.000000 0.052000 0.052000 1.200000 0.038000 0.045000
1517347959281317657	200 45 0.900000 0.047000 0.043000 1000 41 0.900000 1.428000 1.385000 600 50 1.000000 0.052000 0.052000 1.200000 0.046000 0.055000
1517347959841233241	200 45 0.900000 0.057000 0.052000 1000 41 0.900000 1.443000 1.399000 600 49 1.000000 0.052000 0.052000 1.200000 0.037000 0.044000
1517347960368425824	200 45 0.900000 0.059000 0.054000 1000 41 0.900000 1.565000 1.518000 600 50 1.000000 0.052000 0.052000 1.200000 0.044000 0.053000
1517347960929207449	200 45 0.900000 0.046000 0.042000 1000 41 0.900000 1.229000 1.189000 600 50 1.000000 0.052000 0.052000 1.200000 0.044000 0.053000
1517347961481429699	200 45 0.900000 0.054000 0.049000 1000 41 0.900000 1.424000 1.381000 600 49 1.000000 0.052000 0.052000 1.200000 0.038000 0.045000
1517347962013360866	200 45 0.900000 0.058000 0.053000 1000 41 0.900000 1.510000 1.464000 600 50 1.000000 0.052000 0.052000 1.200000 0.036000 0.043000
1517347962561394491	200 45 0.900000 0.047000 0.043000 1000 41 0.900000 1.180000 1.142000 600 50 1.000000 0.052000 0.052000 1.200000 0.045000 0.054000
1517347963103952283	200 45 0.900000 0.059000 0.054000 1000 41 0.900000 1.631000 1.582000 600 49 1.000000 0.052000 0.052000 1.200000 0.038000 0.045000
1517347963630063241	200 45 0.900000 0.058000 0.053000 1000 41 0.900000 1.482000 1.437000 600 50 1.000000 0.052000 0.052000 1.200000 0.035000 0.042000
1517347964189309533	200 45 0.900000 0.046000 0.042000 1000 41 0.900000 1.157000 1.118000 600 50 1.000000 0.052000 0.052000 1.200000 0.045000 0.054000
1517347964741918158	200 45 0.900000 0.056000 0.051000 1000 41 0.900000 1.523000 1.477000 600 49 1.000000 0.052000 0.052000 1.200000 0.036000 0.043000
1517347965258245075	200 45 0.900000 0.059000 0.054000 1000 41 0.900000 1.607000 1.558000 600 50 1.000000 0.052000 0.052000 1.200000 0.035000 0.042000
1517347965811710991	200 45 0.900000 0.046000 0.042000 1000 41 0.900000 1.205000 1.166000 600 50 1.000000 0.052000 0.052000 1.200000 0.045000 0.054000
1517347966365500075	200 45 0.900000 0.058000 0.053000 1000 41 0.900000 1.608000 1.561000 600 49 1.000000 0.052000 0.052000 1.200000 0.035000 0.042000
1517347966917272866	200 45 0.900000 0.059000 0.054000 1000 41 0.900000 1.576000 1.530000 600 50 1.000000 0.052000 0.052000 1.200000 0.036000 0.043000
1517347967441311658	200 45 0.900000 0.044000 0.040000 1000 41 0.900000 1.364000 1.320000 600 49 1.000000 0.052000 0.052000 1.200000 0.040000 0.048000
1517347967952211950	200 44 0.900000 0.058000 0.053000 1000 41 0.900000 1.628000 1.580000 600 48 1.000000 0.052000 0.052000 1.200000 0.036000 0.043000
1517347968505499158	200 45 0.900000 0.059000 0.054000 1000 41 0.900000 1.215000 1.176000 600 49 1.000000 0.052000 0.052000 1.200000 0.045000 0.054000
1517347969015419283	200 45 0.900000 0.058000 0.053000 1000 41 0.900000 1.535000 1.488000 600 49 1.000000 0.052000 0.052000 1.200000 0.033000 0.039000
1517347969577444492	200 44 0.900000 0.060000 0.054000 1000 41 0.900000 1.399000 1.357000 600 49 1.000000 0.052000 0.052000 1.200000 0.034000 0.041000
1517347970113530117	200 44 0.900000 0.055000 0.050000 1000 41 0.900000 1.448000 1.404000 600 48 1.000000 0.052000 0.052000 1.200000 0.045000 0.054000
1517347970623094325	200 43 0.900000 0.045000 0.041000 1000 41 0.900000 0.966000 0.938000 600 47 1.000000 0.052000 0.052000 1.200000 0.036000 0.043000
1517347971132676700	200 42 0.900000 0.045000 0.041000 1000 40 0.900000 0.919000 0.892000 600 47 1.000000 0.052000 0.052000 1.200000 0.032000 0.038000
1517347971641827909	200 40 0.900000 0.035000 0.032000 1000 39 0.900000 0.773000 0.751000 600 44 1.000000 0.052000 0.052000 1.200000 0.032000 0.038000
1517347972156394075	200 41 0.900000 0.023000 0.021000 1000 39 0.900000 0.142000 0.138000 600 44 1.000000 0.052000 0.052000 1.200000 0.036000 0.043000
1517347972666242325	200 41 0.900000 0.050000 0.045000 1000 39 0.900000 1.052000 1.022000 600 45 1.000000 0.051000 0.051000 1.200000 0.037000 0.044000
1517347973176428200	200 43 0.900000 0.033000 0.030000 1000 40 0.900000 0.972000 0.944000 600 47 1.000000 0.051000 0.051000 1.200000 0.035000 0.042000
1517347973741232451	200 43 0.900000 0.058000 0.053000 1000 40 0.900000 1.147000 1.110000 600 48 1.000000 0.051000 0.051000 1.200000 0.043000 0.051000
1517347974309226034	200 43 0.900000 0.056000 0.051000 1000 40 0.900000 1.588000 1.540000 600 47 1.000000 0.051000 0.051000 1.200000 0.036000 0.043000
1517347974819172576	200 44 0.900000 0.038000 0.034000 1000 40 0.900000 1.522000 1.477000 600 48 1.000000 0.051000 0.051000 1.200000 0.034000 0.041000
1517347975377280617	200 44 0.900000 0.058000 0.053000 1000 40 0.900000 1.474000 1.429000 600 49 1.000000 0.052000 0.052000 1.200000 0.042000 0.050000
1517347975887159742	200 44 0.900000 0.059000 0.054000 1000 41 0.900000 1.586000 1.540000 600 47 1.000000 0.052000 0.052000 1.200000 0.037000 0.044000
1517347976415964326	200 45 0.900000 0.044000 0.040000 1000 41 0.900000 1.164000 1.126000 600 49 1.000000 0.052000 0.052000 1.200000 0.048000 0.057000
1517347976977303784	200 44 0.900000 0.058000 0.053000 1000 41 0.900000 1.546000 1.499000 600 48 1.000000 0.052000 0.052000 1.200000 0.034000 0.041000
1517347977537314368	200 44 0.900000 0.059000 0.054000 1000 41 0.900000 1.599000 1.552000 600 49 1.000000 0.052000 0.052000 1.200000 0.036000 0.043000
1517347978046904118	200 44 0.900000 0.049000 0.044000 1000 41 0.900000 1.370000 1.326000 600 49 1.000000 0.052000 0.052000 1.200000 0.047000 0.056000
1517347978556957659	200 44 0.900000 0.058000 0.053000 1000 41 0.900000 1.679000 1.630000 600 48 1.000000 0.051000 0.051000 1.200000 0.036000 0.043000
1517347979090165368	200 45 0.900000 0.042000 0.038000 1000 41 0.900000 1.104000 1.068000 600 49 1.000000 0.052000 0.052000 1.200000 0.047000 0.056000
1517347979637394451	200 45 0.900000 0.058000 0.053000 1000 41 0.900000 1.611000 1.562000 600 49 1.000000 0.051000 0.051000 1.200000 0.038000 0.045000
1517347980193214410	200 45 0.900000 0.059000 0.054000 1000 41 0.900000 1.619000 1.572000 600 49 1.000000 0.052000 0.052000 1.200000 0.037000 0.044000
1517347980703936910	200 45 0.900000 0.045000 0.041000 1000 41 0.900000 1.380000 1.338000 600 49 1.000000 0.051000 0.051000 1.200000 0.041000 0.049000
1517347981213836160	200 44 0.900000 0.059000 0.054000 1000 41 0.900000 1.665000 1.615000 600 47 1.000000 0.052000 0.052000 1.200000 0.037000 0.044000
1517347981763715035	200 45 0.900000 0.041000 0.037000 1000 41 0.900000 0.823000 0.796000 600 49 1.000000 0.052000 0.052000 1.200000 0.047000 0.056000
1517347982317297285	200 45 0.900000 0.058000 0.053000 1000 41 0.900000 1.673000 1.624000 600 49 1.000000 0.052000 0.052000 1.200000 0.038000 0.045000
1517347982877290493	200 45 0.900000 0.057000 0.052000 1000 41 0.900000 1.593000 1.545000 600 49 1.000000 0.052000 0.052000 1.200000 0.034000 0.041000
1517347983386985660	200 45 0.900000 0.045000 0.041000 1000 41 0.900000 1.358000 1.317000 600 50 1.000000 0.052000 0.052000 1.200000 0.041000 0.049000
1517347983897075535	200 43 0.900000 0.059000 0.054000 1000 41 0.900000 1.577000 1.531000 600 47 1.000000 0.052000 0.052000 1.200000 0.034000 0.041000
1517347984406912743	200 45 0.900000 0.044000 0.040000 1000 41 0.900000 1.132000 1.095000 600 49 1.000000 0.052000 0.052000 1.200000 0.046000 0.055000
1517347984969358910	200 45 0.900000 0.058000 0.053000 1000 41 0.900000 1.603000 1.556000 600 49 1.000000 0.051000 0.051000 1.200000 0.037000 0.044000
1517347985533209119	200 45 0.900000 0.057000 0.052000 1000 41 0.900000 1.596000 1.549000 600 50 1.000000 0.052000 0.052000 1.200000 0.033000 0.039000
1517347986109228452	200 44 0.900000 0.056000 0.051000 1000 41 0.900000 1.397000 1.355000 600 49 1.000000 0.052000 0.052000 1.200000 0.040000 0.048000
1517347986649485660	200 44 0.900000 0.056000 0.051000 1000 41 0.900000 1.600000 1.552000 600 48 1.000000 0.052000 0.052000 1.200000 0.039000 0.047000
1517347987170082994	200 45 0.900000 0.058000 0.053000 1000 41 0.900000 1.582000 1.536000 600 50 1.000000 0.051000 0.051000 1.200000 0.034000 0.041000
1517347987725196244	200 45 0.900000 0.058000 0.053000 1000 41 0.900000 1.184000 1.146000 600 49 1.000000 0.052000 0.052000 1.200000 0.048000 0.057000
1517347988235275452	200 43 0.900000 0.058000 0.053000 1000 41 0.900000 1.595000 1.547000 600 48 1.000000 0.052000 0.052000 1.200000 0.035000 0.042000
1517347988792881161	200 45 0.900000 0.043000 0.039000 1000 41 0.900000 1.387000 1.345000 600 50 1.000000 0.052000 0.052000 1.200000 0.041000 0.049000
1517347989353312536	200 45 0.900000 0.057000 0.052000 1000 41 0.900000 1.601000 1.552000 600 49 1.000000 0.052000 0.052000 1.200000 0.039000 0.047000
1517347989917336827	200 45 0.900000 0.059000 0.054000 1000 41 0.900000 1.531000 1.486000 600 50 1.000000 0.052000 0.052000 1.200000 0.046000 0.055000
1517347990466101286	200 44 0.900000 0.043000 0.039000 1000 41 0.900000 1.139000 1.102000 600 49 1.000000 0.052000 0.052000 1.200000 0.036000 0.043000
1517347990985479536	200 45 0.900000 0.058000 0.053000 1000 41 0.900000 1.622000 1.573000 600 49 1.000000 0.052000 0.052000 1.200000 0.037000 0.044000
1517347991501797453	200 45 0.900000 0.058000 0.053000 1000 41 0.900000 1.564000 1.518000 600 50 1.000000 0.052000 0.052000 1.200000 0.053000 0.064000
1517347992044657203	200 45 0.900000 0.048000 0.044000 1000 41 0.900000 1.208000 1.169000 600 49 1.000000 0.052000 0.052000 1.200000 0.035000 0.042000
1517347992556881911	200 44 0.900000 0.058000 0.053000 1000 41 0.900000 1.565000 1.519000 600 47 1.000000 0.052000 0.052000 1.200000 0.038000 0.045000
1517347993121308911	200 45 0.900000 0.058000 0.053000 1000 41 0.900000 1.464000 1.421000 600 49 1.000000 0.052000 0.052000 1.200000 0.049000 0.059000
1517347993685232411	200 45 0.900000 0.047000 0.043000 1000 41 0.900000 1.337000 1.294000 600 49 1.000000 0.052000 0.052000 1.200000 0.035000 0.042000
1517347994196632453	200 44 0.900000 0.059000 0.054000 1000 41 0.900000 1.451000 1.407000 600 48 1.000000 0.052000 0.052000 1.200000 0.035000 0.042000
1517347994761305161	200 45 0.900000 0.061000 0.055000 1000 41 0.900000 1.470000 1.427000 600 49 1.000000 0.052000 0.052000 1.200000 0.044000 0.053000
1517347995300096370	200 45 0.900000 0.045000 0.041000 1000 41 0.900000 1.286000 1.244000 600 49 1.000000 0.052000 0.052000 1.200000 0.046000 0.055000
1517347995813362120	200 44 0.900000 0.058000 0.053000 1000 41 0.900000 1.459000 1.415000 600 48 1.000000 0.052000 0.052000 1.200000 0.036000 0.043000
1517347996354946328	200 45 0.900000 0.060000 0.054000 1000 41 0.900000 1.507000 1.463000 600 49 1.000000 0.052000 0.052000 1.200000 0.044000 0.053000
1517347996864305495	200 45 0.900000 0.047000 0.043000 1000 41 0.900000 1.311000 1.271000 600 50 1.000000 0.052000 0.052000 1.200000 0.042000 0.050000
1517347997378313870	200 44 0.900000 0.058000 0.053000 1000 41 0.900000 1.259000 1.218000 600 48 1.000000 0.052000 0.052000 1.200000 0.035000 0.042000
1517347997917089203	200 45 0.900000 0.060000 0.054000 1000 41 0.900000 1.555000 1.508000 600 50 1.000000 0.051000 0.051000 1.200000 0.039000 0.047000
1517347998456521328	200 45 0.900000 0.046000 0.042000 1000 41 0.900000 1.460000 1.416000 600 49 1.000000 0.052000 0.052000 1.200000 0.046000 0.055000
1517347998966887204	200 43 0.900000 0.051000 0.046000 1000 41 0.900000 1.551000 1.504000 600 47 1.000000 0.052000 0.052000 1.200000 0.035000 0.042000
1517347999517303954	200 44 0.900000 0.058000 0.053000 1000 41 0.900000 1.331000 1.291000 600 49 1.000000 0.052000 0.052000 1.200000 0.044000 0.053000
1517348000027056245	200 45 0.900000 0.046000 0.042000 1000 41 0.900000 1.572000 1.524000 600 49 1.000000 0.052000 0.052000 1.200000 0.035000 0.042000
1517348000561296120	200 45 0.900000 0.058000 0.053000 1000 41 0.900000 1.612000 1.563000 600 50 1.000000 0.052000 0.052000 1.200000 0.037000 0.044000
1517348001109302829	200 44 0.900000 0.046000 0.042000 1000 41 0.900000 1.019000 0.986000 600 49 1.000000 0.052000 0.052000 1.200000 0.044000 0.053000
1517348001618853079	200 43 0.900000 0.058000 0.053000 1000 41 0.900000 1.596000 1.548000 600 48 1.000000 0.051000 0.051000 1.200000 0.036000 0.043000
1517348002174713121	200 44 0.900000 0.043000 0.039000 1000 41 0.900000 0.681000 0.661000 600 48 1.000000 0.052000 0.052000 1.200000 0.043000 0.051000
1517348002684202787	200 43 0.900000 0.045000 0.041000 1000 40 0.900000 0.999000 0.971000 600 47 1.000000 0.052000 0.052000 1.200000 0.031000 0.037000
1517348003193454121	200 40 0.900000 0.040000 0.036000 1000 40 0.900000 1.033000 1.004000 600 44 1.000000 0.051000 0.051000 1.200000 0.030000 0.036000
1517348003702336787	200 39 0.900000 0.023000 0.021000 1000 39 0.900000 0.137000 0.133000 600 43 1.000000 0.052000 0.052000 1.200000 0.034000 0.041000
1517348004211782746	200 41 0.900000 0.042000 0.038000 1000 39 0.900000 0.522000 0.507000 600 45 1.000000 0.051000 0.051000 1.200000 0.042000 0.050000
1517348004721078871	200 40 0.900000 0.047000 0.043000 1000 39 0.900000 1.050000 1.020000 600 45 1.000000 0.051000 0.051000 1.200000 0.038000 0.045000
1517348005230411913	200 40 0.900000 0.041000 0.037000 1000 39 0.900000 0.985000 0.957000 600 44 1.000000 0.051000 0.051000 1.200000 0.031000 0.037000
1517348005739078329	200 39 0.900000 0.023000 0.021000 1000 38 0.900000 0.587000 0.571000 600 43 1.000000 0.051000 0.051000 1.200000 0.033000 0.039000
1517348006305322621	200 41 0.900000 0.028000 0.025000 1000 39 0.900000 0.145000 0.141000 600 44 1.000000 0.051000 0.051000 1.200000 0.038000 0.045000
1517348006871941871	200 43 0.900000 0.044000 0.040000 1000 39 0.900000 1.199000 1.165000 600 47 1.000000 0.051000 0.051000 1.200000 0.040000 0.048000
1517348007421309496	200 43 0.900000 0.046000 0.042000 1000 39 0.900000 1.186000 1.148000 600 47 1.000000 0.052000 0.052000 1.200000 0.045000 0.054000
1517348007985230288	200 43 0.900000 0.059000 0.054000 1000 40 0.900000 1.600000 1.552000 600 47 1.000000 0.051000 0.051000 1.200000 0.036000 0.043000
1517348008495233871	200 44 0.900000 0.058000 0.053000 1000 40 0.900000 1.529000 1.483000 600 48 1.000000 0.051000 0.051000 1.200000 0.035000 0.042000
1517348009053323621	200 44 0.900000 0.044000 0.040000 1000 40 0.900000 1.125000 1.089000 600 48 1.000000 0.052000 0.052000 1.200000 0.041000 0.049000
1517348009563687246	200 42 0.900000 0.058000 0.053000 1000 40 0.900000 1.574000 1.528000 600 47 1.000000 0.052000 0.052000 1.200000 0.034000 0.041000
1517348010073701205	200 44 0.900000 0.061000 0.055000 1000 40 0.900000 1.390000 1.348000 600 48 1.000000 0.052000 0.052000 1.200000 0.042000 0.050000
1517348010627739913	200 44 0.900000 0.045000 0.041000 1000 40 0.900000 1.565000 1.519000 600 49 1.000000 0.052000 0.052000 1.200000 0.035000 0.042000
1517348011171418538	200 44 0.900000 0.058000 0.053000 1000 41 0.900000 1.606000 1.557000 600 49 1.000000 0.052000 0.052000 1.200000 0.034000 0.041000
1517348011733278455	200 44 0.900000 0.053000 0.048000 1000 40 0.900000 0.992000 0.960000 600 48 1.000000 0.052000 0.052000 1.200000 0.047000 0.056000
1517348012297343288	200 44 0.900000 0.058000 0.053000 1000 41 0.900000 1.630000 1.582000 600 48 1.000000 0.052000 0.052000 1.200000 0.036000 0.043000
1517348012857264997	200 44 0.900000 0.058000 0.053000 1000 41 0.900000 1.580000 1.534000 600 49 1.000000 0.052000 0.052000 1.200000 0.037000 0.044000
1517348013367188414	200 44 0.900000 0.059000 0.054000 1000 41 0.900000 1.172000 1.134000 600 48 1.000000 0.052000 0.052000 1.200000 0.046000 0.055000
1517348013877231872	200 44 0.900000 0.051000 0.046000 1000 41 0.900000 1.468000 1.423000 600 47 1.000000 0.052000 0.052000 1.200000 0.035000 0.042000
1517348014449328039	200 43 0.900000 0.038000 0.034000 1000 40 0.900000 0.720000 0.699000 600 47 1.000000 0.052000 0.052000 1.200000 0.047000 0.056000
1517348014958898039	200 43 0.900000 0.040000 0.036000 1000 40 0.900000 0.854000 0.830000 600 47 1.000000 0.052000 0.052000 1.200000 0.034000 0.041000
1517348015468235372	200 40 0.900000 0.046000 0.042000 1000 39 0.900000 1.081000 1.050000 600 44 1.000000 0.052000 0.052000 1.200000 0.034000 0.041000
1517348015976826664	200 39 0.900000 0.024000 0.022000 1000 39 0.900000 0.142000 0.138000 600 43 1.000000 0.051000 0.051000 1.200000 0.035000 0.042000
1517348016486207247	200 40 0.900000 0.034000 0.031000 1000 39 0.900000 0.501000 0.487000 600 44 1.000000 0.051000 0.051000 1.200000 0.045000 0.054000
1517348017041205664	200 42 0.900000 0.043000 0.039000 1000 39 0.900000 0.889000 0.864000 600 45 1.000000 0.051000 0.051000 1.200000 0.033000 0.039000
1517348017550592122	200 40 0.900000 0.045000 0.041000 1000 39 0.900000 0.966000 0.938000 600 43 1.000000 0.052000 0.052000 1.200000 0.034000 0.041000
1517348018059397664	200 39 0.900000 0.023000 0.021000 1000 38 0.900000 0.146000 0.142000 600 42 1.000000 0.051000 0.051000 1.200000 0.037000 0.044000
1517348018568801123	200 41 0.900000 0.037000 0.033000 1000 38 0.900000 0.390000 0.379000 600 45 1.000000 0.051000 0.051000 1.200000 0.041000 0.049000
1517348019078156998	200 40 0.900000 0.046000 0.042000 1000 39 0.900000 0.857000 0.833000 600 44 1.000000 0.051000 0.051000 1.200000 0.030000 0.036000
1517348019588176581	200 40 0.900000 0.046000 0.042000 1000 39 0.900000 0.858000 0.833000 600 46 1.000000 0.051000 0.051000 1.200000 0.029000 0.035000
1517348020098165873	200 38 0.900000 0.020000 0.018000 1000 38 0.900000 0.184000 0.179000 600 42 1.000000 0.051000 0.051000 1.200000 0.023000 0.027000
1517348020607916456	200 38 0.900000 0.012000 0.011000 1000 38 0.900000 0.110000 0.107000 600 41 1.000000 0.051000 0.051000 1.200000 0.023000 0.027000
