#Timestamp	CPU(0) Frequency(MHz)	CPU(0) Temperature(C)	A7 Voltage(V)	A7 Current(A)	A7 Power(W)	CPU(4) Frequency(MHz)	CPU(4) Temperature(C)	A15 Voltage(V)	A15 Current(A)	A15 Power(W)	GPU Frequency(MHz)	GPU Temperature(C)	GPU Voltage(V)	GPU Current(A)	GPU Power(W)	RAM Voltage(V)	RAM Current(A)	RAM Power(W)
1538161769687063860	900 28 1.000000 0.150000 0.158000 900 23 0.900000 1.205000 1.136000 600 31 1.000000 0.050000 0.050000 1.200000 0.041000 0.049000
1538161770239063777	900 29 1.000000 0.359000 0.375000 900 25 0.900000 1.770000 1.674000 600 33 1.000000 0.050000 0.050000 1.200000 0.034000 0.041000
1538161770803044318	900 30 1.000000 0.359000 0.375000 900 25 0.900000 1.769000 1.673000 600 34 1.000000 0.050000 0.050000 1.200000 0.033000 0.039000
1538161771363068527	900 31 1.000000 0.360000 0.376000 900 26 0.900000 1.765000 1.669000 600 34 1.000000 0.050000 0.050000 1.200000 0.034000 0.041000
1538161771922996443	900 32 1.000000 0.360000 0.376000 900 27 0.900000 1.774000 1.678000 600 35 1.000000 0.050000 0.050000 1.200000 0.034000 0.041000
1538161772487089235	900 32 1.000000 0.360000 0.376000 900 27 0.900000 1.774000 1.678000 600 35 1.000000 0.050000 0.050000 1.200000 0.033000 0.039000
1538161773035064402	900 32 1.000000 0.360000 0.376000 900 27 0.900000 1.775000 1.679000 600 36 1.000000 0.050000 0.050000 1.200000 0.033000 0.039000
1538161773599056902	900 33 1.000000 0.360000 0.376000 900 28 0.900000 1.775000 1.679000 600 36 1.000000 0.050000 0.050000 1.200000 0.033000 0.039000
1538161774159022194	900 33 1.000000 0.360000 0.376000 900 28 0.900000 1.776000 1.680000 600 36 1.000000 0.050000 0.050000 1.200000 0.033000 0.039000
1538161774719034527	900 33 1.000000 0.360000 0.376000 900 28 0.900000 1.775000 1.677000 600 36 1.000000 0.050000 0.050000 1.200000 0.033000 0.039000
1538161775275075569	900 33 1.000000 0.360000 0.376000 900 28 0.900000 1.777000 1.681000 600 37 1.000000 0.050000 0.050000 1.200000 0.034000 0.041000
1538161775839065361	900 33 1.000000 0.360000 0.376000 900 28 0.900000 1.776000 1.680000 600 37 1.000000 0.050000 0.050000 1.200000 0.033000 0.039000
1538161776395010277	900 33 1.000000 0.360000 0.376000 900 28 0.900000 1.772000 1.676000 600 37 1.000000 0.050000 0.050000 1.200000 0.033000 0.039000
1538161776959042861	900 34 1.000000 0.360000 0.376000 900 29 0.900000 1.774000 1.678000 600 37 1.000000 0.050000 0.050000 1.200000 0.033000 0.039000
1538161777522950277	900 34 1.000000 0.361000 0.377000 900 29 0.900000 1.771000 1.675000 600 37 1.000000 0.050000 0.050000 1.200000 0.033000 0.039000
1538161778087064278	900 34 1.000000 0.361000 0.377000 900 29 0.900000 1.771000 1.675000 600 37 1.000000 0.050000 0.050000 1.200000 0.033000 0.039000
1538161778655016069	900 34 1.000000 0.360000 0.376000 900 29 0.900000 1.774000 1.678000 600 37 1.000000 0.050000 0.050000 1.200000 0.032000 0.038000
1538161779219048569	900 34 1.000000 0.360000 0.376000 900 29 0.900000 1.765000 1.669000 600 37 1.000000 0.050000 0.050000 1.200000 0.033000 0.039000
1538161779783087694	900 34 1.000000 0.361000 0.377000 900 29 0.900000 1.766000 1.670000 600 37 1.000000 0.050000 0.050000 1.200000 0.033000 0.039000
1538161780347042986	900 34 1.000000 0.361000 0.377000 900 29 0.900000 1.768000 1.672000 600 38 1.000000 0.050000 0.050000 1.200000 0.033000 0.039000
1538161780910995236	900 34 1.000000 0.361000 0.377000 900 29 0.900000 1.773000 1.677000 600 38 1.000000 0.050000 0.050000 1.200000 0.033000 0.039000
1538161781467032361	900 34 1.000000 0.361000 0.377000 900 29 0.900000 1.777000 1.681000 600 38 1.000000 0.050000 0.050000 1.200000 0.033000 0.039000
1538161782031072153	900 34 1.000000 0.361000 0.377000 900 29 0.900000 1.784000 1.687000 600 38 1.000000 0.050000 0.050000 1.200000 0.033000 0.039000
1538161782595053403	900 34 1.000000 0.361000 0.377000 900 29 0.900000 1.784000 1.687000 600 38 1.000000 0.050000 0.050000 1.200000 0.033000 0.039000
1538161783167104903	900 34 1.000000 0.361000 0.377000 900 29 0.900000 1.786000 1.689000 600 38 1.000000 0.050000 0.050000 1.200000 0.033000 0.039000
1538161783731042570	900 34 1.000000 0.361000 0.377000 900 29 0.900000 1.780000 1.683000 600 38 1.000000 0.050000 0.050000 1.200000 0.032000 0.038000
1538161784295027112	900 34 1.000000 0.361000 0.377000 900 29 0.900000 1.778000 1.681000 600 38 1.000000 0.050000 0.050000 1.200000 0.033000 0.039000
1538161784843038112	900 35 1.000000 0.361000 0.377000 900 29 0.900000 1.787000 1.690000 600 38 1.000000 0.051000 0.051000 1.200000 0.033000 0.039000
1538161785403088195	900 34 1.000000 0.361000 0.377000 900 29 0.900000 1.785000 1.688000 600 38 1.000000 0.050000 0.050000 1.200000 0.033000 0.039000
1538161785963093987	900 34 1.000000 0.361000 0.377000 900 30 0.900000 1.785000 1.688000 600 38 1.000000 0.050000 0.050000 1.200000 0.033000 0.039000
1538161786526990154	900 35 1.000000 0.361000 0.377000 900 30 0.900000 1.781000 1.684000 600 38 1.000000 0.051000 0.051000 1.200000 0.033000 0.039000
1538161787090967945	900 35 1.000000 0.361000 0.377000 900 29 0.900000 1.782000 1.685000 600 38 1.000000 0.051000 0.051000 1.200000 0.033000 0.039000
1538161787643016279	900 35 1.000000 0.361000 0.377000 900 30 0.900000 1.783000 1.686000 600 38 1.000000 0.050000 0.050000 1.200000 0.033000 0.039000
1538161788215030362	900 35 1.000000 0.361000 0.377000 900 30 0.900000 1.786000 1.689000 600 38 1.000000 0.050000 0.050000 1.200000 0.033000 0.039000
1538161788775040612	900 35 1.000000 0.361000 0.377000 900 30 0.900000 1.781000 1.684000 600 38 1.000000 0.051000 0.051000 1.200000 0.033000 0.039000
1538161789334974071	900 35 1.000000 0.361000 0.377000 900 30 0.900000 1.784000 1.687000 600 38 1.000000 0.051000 0.051000 1.200000 0.033000 0.039000
1538161789887044487	900 35 1.000000 0.361000 0.377000 900 30 0.900000 1.787000 1.688000 600 38 1.000000 0.050000 0.050000 1.200000 0.033000 0.039000
1538161790451052946	900 35 1.000000 0.361000 0.377000 900 30 0.900000 1.787000 1.690000 600 38 1.000000 0.051000 0.051000 1.200000 0.034000 0.041000
1538161791019029987	900 35 1.000000 0.361000 0.377000 900 30 0.900000 1.782000 1.685000 600 38 1.000000 0.050000 0.050000 1.200000 0.033000 0.039000
1538161791574998612	900 35 1.000000 0.361000 0.377000 900 30 0.900000 1.775000 1.679000 600 38 1.000000 0.050000 0.050000 1.200000 0.033000 0.039000
1538161792139045279	900 35 1.000000 0.361000 0.377000 900 30 0.900000 1.784000 1.687000 600 38 1.000000 0.051000 0.051000 1.200000 0.033000 0.039000
1538161792699046654	900 35 1.000000 0.361000 0.377000 900 30 0.900000 1.780000 1.683000 600 38 1.000000 0.051000 0.051000 1.200000 0.034000 0.041000
1538161793259028613	900 35 1.000000 0.362000 0.379000 900 30 0.900000 1.780000 1.683000 600 38 1.000000 0.051000 0.051000 1.200000 0.033000 0.039000
1538161793818993613	900 35 1.000000 0.361000 0.377000 900 30 0.900000 1.775000 1.677000 600 38 1.000000 0.051000 0.051000 1.200000 0.032000 0.038000
1538161794371047321	900 35 1.000000 0.362000 0.379000 900 30 0.900000 1.784000 1.685000 600 38 1.000000 0.050000 0.050000 1.200000 0.032000 0.038000
1538161794927054946	900 35 1.000000 0.362000 0.379000 900 30 0.900000 1.784000 1.685000 600 38 1.000000 0.050000 0.050000 1.200000 0.032000 0.038000
1538161795491068488	900 35 1.000000 0.362000 0.379000 900 30 0.900000 1.784000 1.687000 600 38 1.000000 0.051000 0.051000 1.200000 0.033000 0.039000
1538161796055052113	900 35 1.000000 0.362000 0.379000 900 30 0.900000 1.783000 1.686000 600 38 1.000000 0.051000 0.051000 1.200000 0.032000 0.038000
1538161796618990613	900 35 1.000000 0.361000 0.377000 900 30 0.900000 1.782000 1.685000 600 38 1.000000 0.050000 0.050000 1.200000 0.033000 0.039000
1538161797179063780	900 35 1.000000 0.362000 0.379000 900 30 0.900000 1.782000 1.685000 600 38 1.000000 0.050000 0.050000 1.200000 0.033000 0.039000
1538161797747058988	900 35 1.000000 0.362000 0.379000 900 30 0.900000 1.778000 1.681000 600 38 1.000000 0.050000 0.050000 1.200000 0.032000 0.038000
1538161798295083072	900 35 1.000000 0.361000 0.377000 900 30 0.900000 1.785000 1.688000 600 38 1.000000 0.051000 0.051000 1.200000 0.032000 0.038000
1538161798851038322	900 35 1.000000 0.362000 0.379000 900 30 0.900000 1.785000 1.688000 600 38 1.000000 0.050000 0.050000 1.200000 0.032000 0.038000
1538161799411012780	900 35 1.000000 0.362000 0.379000 900 30 0.900000 1.784000 1.687000 600 38 1.000000 0.050000 0.050000 1.200000 0.032000 0.038000
1538161799975068613	900 35 1.000000 0.362000 0.379000 900 30 0.900000 1.784000 1.687000 600 38 1.000000 0.050000 0.050000 1.200000 0.032000 0.038000
1538161800539078905	900 35 1.000000 0.362000 0.379000 900 30 0.900000 1.779000 1.682000 600 38 1.000000 0.051000 0.051000 1.200000 0.032000 0.038000
1538161801099077655	900 35 1.000000 0.362000 0.379000 900 30 0.900000 1.782000 1.685000 600 38 1.000000 0.050000 0.050000 1.200000 0.032000 0.038000
1538161801663017989	900 35 1.000000 0.362000 0.379000 900 30 0.900000 1.781000 1.684000 600 38 1.000000 0.050000 0.050000 1.200000 0.033000 0.039000
1538161802223078489	900 35 1.000000 0.362000 0.379000 900 30 0.900000 1.779000 1.682000 600 38 1.000000 0.050000 0.050000 1.200000 0.032000 0.038000
1538161802791057614	900 35 1.000000 0.361000 0.377000 900 30 0.900000 1.773000 1.677000 600 38 1.000000 0.050000 0.050000 1.200000 0.032000 0.038000
1538161803355068531	900 35 1.000000 0.362000 0.379000 900 30 0.900000 1.785000 1.688000 600 38 1.000000 0.051000 0.051000 1.200000 0.032000 0.038000
1538161803919067697	900 35 1.000000 0.362000 0.379000 900 30 0.900000 1.809000 1.711000 600 39 1.000000 0.050000 0.050000 1.200000 0.032000 0.038000
1538161804483058364	900 35 1.000000 0.361000 0.377000 900 30 0.900000 1.810000 1.712000 600 39 1.000000 0.050000 0.050000 1.200000 0.032000 0.038000
1538161805047050781	900 35 1.000000 0.362000 0.379000 900 30 0.900000 1.809000 1.711000 600 38 1.000000 0.051000 0.051000 1.200000 0.032000 0.038000
1538161805618970697	900 35 1.000000 0.362000 0.379000 900 30 0.900000 1.804000 1.706000 600 39 1.000000 0.050000 0.050000 1.200000 0.032000 0.038000
1538161806187046323	900 35 1.000000 0.362000 0.379000 900 30 0.900000 1.806000 1.708000 600 39 1.000000 0.050000 0.050000 1.200000 0.032000 0.038000
1538161806747104406	900 35 1.000000 0.362000 0.379000 900 30 0.900000 1.801000 1.703000 600 39 1.000000 0.050000 0.050000 1.200000 0.031000 0.037000
1538161807315056948	900 35 1.000000 0.362000 0.379000 900 30 0.900000 1.809000 1.711000 600 39 1.000000 0.050000 0.050000 1.200000 0.032000 0.038000
1538161807879044198	900 35 1.000000 0.362000 0.379000 900 30 0.900000 1.811000 1.713000 600 39 1.000000 0.050000 0.050000 1.200000 0.032000 0.038000
1538161808439023323	900 35 1.000000 0.362000 0.379000 900 30 0.900000 1.812000 1.714000 600 39 1.000000 0.050000 0.050000 1.200000 0.032000 0.038000
1538161808995037990	900 35 1.000000 0.362000 0.379000 900 30 0.900000 1.812000 1.714000 600 39 1.000000 0.050000 0.050000 1.200000 0.032000 0.038000
1538161809559054823	900 35 1.000000 0.362000 0.379000 900 30 0.900000 1.811000 1.713000 600 39 1.000000 0.051000 0.051000 1.200000 0.032000 0.038000
1538161810107060781	900 35 1.000000 0.362000 0.379000 900 30 0.900000 1.805000 1.707000 600 39 1.000000 0.050000 0.050000 1.200000 0.032000 0.038000
1538161810667060406	900 35 1.000000 0.362000 0.379000 900 30 0.900000 1.805000 1.707000 600 39 1.000000 0.050000 0.050000 1.200000 0.032000 0.038000
1538161811231055323	900 35 1.000000 0.362000 0.379000 900 30 0.900000 1.802000 1.704000 600 39 1.000000 0.050000 0.050000 1.200000 0.032000 0.038000
1538161811783044490	900 35 1.000000 0.362000 0.379000 900 30 0.900000 1.812000 1.714000 600 39 1.000000 0.050000 0.050000 1.200000 0.032000 0.038000
1538161812351013865	900 35 1.000000 0.362000 0.379000 900 30 0.900000 1.810000 1.712000 600 39 1.000000 0.051000 0.051000 1.200000 0.032000 0.038000
1538161812919044532	900 35 1.000000 0.362000 0.379000 900 30 0.900000 1.810000 1.712000 600 39 1.000000 0.050000 0.050000 1.200000 0.032000 0.038000
1538161813495012365	900 35 1.000000 0.361000 0.377000 900 30 0.900000 1.812000 1.714000 600 39 1.000000 0.050000 0.050000 1.200000 0.032000 0.038000
1538161814051061157	900 35 1.000000 0.362000 0.379000 900 30 0.900000 1.810000 1.712000 600 39 1.000000 0.050000 0.050000 1.200000 0.032000 0.038000
1538161814619075532	900 35 1.000000 0.362000 0.379000 900 30 0.900000 1.810000 1.712000 600 39 1.000000 0.051000 0.051000 1.200000 0.032000 0.038000
1538161815171047032	900 35 1.000000 0.362000 0.379000 900 30 0.900000 1.799000 1.701000 600 39 1.000000 0.051000 0.051000 1.200000 0.033000 0.039000
1538161815727037074	900 35 1.000000 0.361000 0.377000 900 30 0.900000 1.809000 1.711000 600 39 1.000000 0.050000 0.050000 1.200000 0.034000 0.041000
1538161816287045615	900 35 1.000000 0.361000 0.377000 900 30 0.900000 1.810000 1.712000 600 39 1.000000 0.051000 0.051000 1.200000 0.035000 0.042000
1538161816847066074	900 35 1.000000 0.361000 0.377000 900 30 0.900000 1.811000 1.713000 600 39 1.000000 0.051000 0.051000 1.200000 0.034000 0.041000
1538161817411037741	900 35 1.000000 0.361000 0.377000 900 30 0.900000 1.809000 1.711000 600 39 1.000000 0.050000 0.050000 1.200000 0.034000 0.041000
1538161817975024616	900 35 1.000000 0.361000 0.377000 900 30 0.900000 1.808000 1.710000 600 39 1.000000 0.050000 0.050000 1.200000 0.034000 0.041000
1538161818519107241	900 35 1.000000 0.361000 0.377000 900 30 0.900000 1.803000 1.705000 600 39 1.000000 0.051000 0.051000 1.200000 0.034000 0.041000
1538161819083094407	900 35 1.000000 0.361000 0.377000 900 30 0.900000 1.805000 1.707000 600 39 1.000000 0.050000 0.050000 1.200000 0.035000 0.042000
1538161819651090616	900 35 1.000000 0.361000 0.377000 900 30 0.900000 1.799000 1.701000 600 39 1.000000 0.050000 0.050000 1.200000 0.034000 0.041000
1538161820215050741	900 35 1.000000 0.361000 0.377000 900 30 0.900000 1.804000 1.706000 600 39 1.000000 0.050000 0.050000 1.200000 0.034000 0.041000
1538161820767041408	900 35 1.000000 0.361000 0.377000 900 30 0.900000 1.803000 1.705000 600 39 1.000000 0.050000 0.050000 1.200000 0.034000 0.041000
1538161821319068033	900 35 1.000000 0.361000 0.377000 900 30 0.900000 1.805000 1.707000 600 39 1.000000 0.051000 0.051000 1.200000 0.034000 0.041000
1538161821879052949	900 35 1.000000 0.361000 0.377000 900 30 0.900000 1.805000 1.707000 600 39 1.000000 0.050000 0.050000 1.200000 0.034000 0.041000
1538161822423089824	900 35 1.000000 0.361000 0.377000 900 30 0.900000 1.807000 1.709000 600 39 1.000000 0.051000 0.051000 1.200000 0.034000 0.041000
1538161822975014616	900 35 1.000000 0.361000 0.377000 900 30 0.900000 1.799000 1.701000 600 39 1.000000 0.050000 0.050000 1.200000 0.034000 0.041000
1538161823539027075	900 35 1.000000 0.361000 0.377000 900 30 0.900000 1.808000 1.710000 600 39 1.000000 0.051000 0.051000 1.200000 0.034000 0.041000
1538161824103078408	900 35 1.000000 0.361000 0.377000 900 30 0.900000 1.809000 1.711000 600 39 1.000000 0.050000 0.050000 1.200000 0.034000 0.041000
1538161824659035241	900 35 1.000000 0.361000 0.377000 900 30 0.900000 1.808000 1.710000 600 39 1.000000 0.050000 0.050000 1.200000 0.034000 0.041000
1538161825215037366	900 35 1.000000 0.361000 0.377000 900 30 0.900000 1.809000 1.711000 600 39 1.000000 0.051000 0.051000 1.200000 0.034000 0.041000
1538161825771065992	900 35 1.000000 0.361000 0.377000 900 30 0.900000 1.808000 1.710000 600 39 1.000000 0.050000 0.050000 1.200000 0.034000 0.041000
1538161826331117492	900 35 1.000000 0.361000 0.377000 900 30 0.900000 1.806000 1.708000 600 39 1.000000 0.051000 0.051000 1.200000 0.033000 0.039000
1538161826879065242	900 35 1.000000 0.361000 0.377000 900 30 0.900000 1.804000 1.706000 600 39 1.000000 0.051000 0.051000 1.200000 0.033000 0.039000
1538161827443048700	900 35 1.000000 0.361000 0.377000 900 30 0.900000 1.782000 1.685000 600 39 1.000000 0.050000 0.050000 1.200000 0.034000 0.041000
1538161828007076658	900 35 1.000000 0.361000 0.377000 900 30 0.900000 1.773000 1.677000 600 39 1.000000 0.051000 0.051000 1.200000 0.034000 0.041000
1538161828583071950	900 35 1.000000 0.361000 0.377000 900 30 0.900000 1.775000 1.679000 600 39 1.000000 0.051000 0.051000 1.200000 0.033000 0.039000
1538161829147040992	900 35 1.000000 0.361000 0.377000 900 30 0.900000 1.772000 1.676000 600 39 1.000000 0.050000 0.050000 1.200000 0.034000 0.041000
1538161829715059575	900 35 1.000000 0.361000 0.377000 900 30 0.900000 1.781000 1.684000 600 39 1.000000 0.050000 0.050000 1.200000 0.034000 0.041000
1538161830271011700	900 35 1.000000 0.361000 0.377000 900 30 0.900000 1.779000 1.682000 600 39 1.000000 0.051000 0.051000 1.200000 0.034000 0.041000
1538161830831058117	900 35 1.000000 0.361000 0.377000 900 30 0.900000 1.774000 1.678000 600 39 1.000000 0.051000 0.051000 1.200000 0.035000 0.042000
1538161831391058201	900 35 1.000000 0.361000 0.377000 900 30 0.900000 1.774000 1.678000 600 39 1.000000 0.050000 0.050000 1.200000 0.035000 0.042000
1538161831947050951	900 35 1.000000 0.361000 0.377000 900 30 0.900000 1.777000 1.681000 600 39 1.000000 0.050000 0.050000 1.200000 0.035000 0.042000
1538161832507089117	900 35 1.000000 0.361000 0.377000 900 30 0.900000 1.770000 1.674000 600 39 1.000000 0.050000 0.050000 1.200000 0.034000 0.041000
1538161833071040492	900 35 1.000000 0.361000 0.377000 900 30 0.900000 1.774000 1.678000 600 39 1.000000 0.051000 0.051000 1.200000 0.034000 0.041000
1538161833638995034	900 35 1.000000 0.361000 0.377000 900 30 0.900000 1.772000 1.676000 600 39 1.000000 0.050000 0.050000 1.200000 0.034000 0.041000
1538161834203027743	900 35 1.000000 0.361000 0.377000 900 30 0.900000 1.780000 1.683000 600 39 1.000000 0.050000 0.050000 1.200000 0.035000 0.042000
1538161834775008118	900 35 1.000000 0.361000 0.377000 900 30 0.900000 1.781000 1.684000 600 39 1.000000 0.051000 0.051000 1.200000 0.034000 0.041000
1538161835331058784	900 35 1.000000 0.361000 0.377000 900 30 0.900000 1.778000 1.681000 600 39 1.000000 0.050000 0.050000 1.200000 0.034000 0.041000
1538161835891040326	900 35 1.000000 0.361000 0.377000 900 30 0.900000 1.770000 1.674000 600 39 1.000000 0.051000 0.051000 1.200000 0.034000 0.041000
1538161836454962076	900 35 1.000000 0.361000 0.377000 900 30 0.900000 1.775000 1.679000 600 39 1.000000 0.050000 0.050000 1.200000 0.034000 0.041000
1538161837015064493	900 35 1.000000 0.361000 0.377000 900 30 0.900000 1.775000 1.679000 600 39 1.000000 0.051000 0.051000 1.200000 0.034000 0.041000
1538161837575018410	900 35 1.000000 0.361000 0.377000 900 30 0.900000 1.775000 1.679000 600 39 1.000000 0.051000 0.051000 1.200000 0.034000 0.041000
1538161838134975910	900 35 1.000000 0.361000 0.377000 900 30 0.900000 1.773000 1.677000 600 39 1.000000 0.051000 0.051000 1.200000 0.034000 0.041000
1538161838691026451	900 35 1.000000 0.361000 0.377000 900 30 0.900000 1.786000 1.689000 600 39 1.000000 0.051000 0.051000 1.200000 0.033000 0.039000
1538161839255019702	900 35 1.000000 0.361000 0.377000 900 30 0.900000 1.787000 1.690000 600 39 1.000000 0.051000 0.051000 1.200000 0.031000 0.037000
1538161839815069952	900 35 1.000000 0.361000 0.377000 900 30 0.900000 1.786000 1.689000 600 39 1.000000 0.050000 0.050000 1.200000 0.031000 0.037000
1538161840379043202	900 35 1.000000 0.360000 0.376000 900 30 0.900000 1.782000 1.685000 600 39 1.000000 0.051000 0.051000 1.200000 0.031000 0.037000
1538161840939047827	900 35 1.000000 0.360000 0.376000 900 30 0.900000 1.778000 1.681000 600 39 1.000000 0.050000 0.050000 1.200000 0.031000 0.037000
1538161841491068410	900 35 1.000000 0.361000 0.377000 900 30 0.900000 1.779000 1.682000 600 39 1.000000 0.051000 0.051000 1.200000 0.031000 0.037000
1538161842038998202	900 35 1.000000 0.361000 0.377000 900 30 0.900000 1.777000 1.681000 600 39 1.000000 0.050000 0.050000 1.200000 0.031000 0.037000
1538161842603029994	900 35 1.000000 0.361000 0.377000 900 30 0.900000 1.778000 1.681000 600 39 1.000000 0.051000 0.051000 1.200000 0.031000 0.037000
1538161843167022077	900 35 1.000000 0.361000 0.377000 900 30 0.900000 1.786000 1.689000 600 39 1.000000 0.050000 0.050000 1.200000 0.030000 0.036000
1538161843734979577	900 35 1.000000 0.361000 0.377000 900 30 0.900000 1.787000 1.690000 600 39 1.000000 0.050000 0.050000 1.200000 0.030000 0.036000
1538161844286974869	900 35 1.000000 0.361000 0.377000 900 30 0.900000 1.787000 1.690000 600 39 1.000000 0.051000 0.051000 1.200000 0.030000 0.036000
1538161844855082077	900 35 1.000000 0.360000 0.376000 900 30 0.900000 1.787000 1.690000 600 39 1.000000 0.050000 0.050000 1.200000 0.030000 0.036000
1538161845403019494	900 35 1.000000 0.361000 0.377000 900 30 0.900000 1.785000 1.688000 600 39 1.000000 0.051000 0.051000 1.200000 0.030000 0.036000
1538161845966974994	900 35 1.000000 0.361000 0.377000 900 30 0.900000 1.785000 1.688000 600 39 1.000000 0.051000 0.051000 1.200000 0.031000 0.037000
1538161846531062577	900 35 1.000000 0.360000 0.376000 900 30 0.900000 1.782000 1.685000 600 39 1.000000 0.050000 0.050000 1.200000 0.031000 0.037000
1538161847090984994	900 35 1.000000 0.360000 0.376000 900 30 0.900000 1.781000 1.684000 600 39 1.000000 0.050000 0.050000 1.200000 0.030000 0.036000
1538161847651032578	900 35 1.000000 0.361000 0.377000 900 30 0.900000 1.787000 1.690000 600 39 1.000000 0.051000 0.051000 1.200000 0.030000 0.036000
1538161848219028411	900 35 1.000000 0.361000 0.377000 900 30 0.900000 1.787000 1.690000 600 39 1.000000 0.051000 0.051000 1.200000 0.030000 0.036000
1538161848783058119	900 35 1.000000 0.360000 0.376000 900 30 0.900000 1.786000 1.689000 600 39 1.000000 0.050000 0.050000 1.200000 0.030000 0.036000
1538161849343065661	900 35 1.000000 0.360000 0.376000 900 30 0.900000 1.787000 1.690000 600 39 1.000000 0.051000 0.051000 1.200000 0.030000 0.036000
1538161849907071536	900 35 1.000000 0.360000 0.376000 900 30 0.900000 1.787000 1.690000 600 39 1.000000 0.050000 0.050000 1.200000 0.030000 0.036000
1538161850459080078	900 35 1.000000 0.360000 0.376000 900 30 0.900000 1.781000 1.684000 600 39 1.000000 0.051000 0.051000 1.200000 0.030000 0.036000
1538161851023018453	900 35 1.000000 0.360000 0.376000 900 30 0.900000 1.784000 1.687000 600 39 1.000000 0.050000 0.050000 1.200000 0.030000 0.036000
1538161851578958536	900 35 1.000000 0.361000 0.377000 900 30 0.900000 1.784000 1.687000 600 39 1.000000 0.050000 0.050000 1.200000 0.030000 0.036000
1538161852142989620	900 35 1.000000 0.361000 0.377000 900 30 0.900000 1.787000 1.690000 600 39 1.000000 0.050000 0.050000 1.200000 0.030000 0.036000
1538161852711015578	900 35 1.000000 0.361000 0.377000 900 30 0.900000 1.786000 1.689000 600 39 1.000000 0.050000 0.050000 1.200000 0.030000 0.036000
1538161853270996495	900 35 1.000000 0.361000 0.377000 900 30 0.900000 1.785000 1.688000 600 39 1.000000 0.051000 0.051000 1.200000 0.030000 0.036000
1538161853839057537	900 35 1.000000 0.361000 0.377000 900 30 0.900000 1.786000 1.689000 600 39 1.000000 0.050000 0.050000 1.200000 0.030000 0.036000
1538161854394998537	900 35 1.000000 0.361000 0.377000 900 30 0.900000 1.785000 1.688000 600 39 1.000000 0.051000 0.051000 1.200000 0.030000 0.036000
1538161854947065037	900 35 1.000000 0.361000 0.377000 900 30 0.900000 1.785000 1.688000 600 39 1.000000 0.050000 0.050000 1.200000 0.030000 0.036000
1538161855502989120	900 35 1.000000 0.360000 0.376000 900 30 0.900000 1.783000 1.686000 600 39 1.000000 0.051000 0.051000 1.200000 0.031000 0.037000
1538161856067049037	900 35 1.000000 0.360000 0.376000 900 30 0.900000 1.778000 1.681000 600 39 1.000000 0.050000 0.050000 1.200000 0.030000 0.036000
1538161856631060162	900 35 1.000000 0.361000 0.377000 900 30 0.900000 1.786000 1.689000 600 39 1.000000 0.051000 0.051000 1.200000 0.030000 0.036000
1538161857190964412	900 35 1.000000 0.360000 0.376000 900 30 0.900000 1.787000 1.690000 600 39 1.000000 0.050000 0.050000 1.200000 0.030000 0.036000
1538161857746985995	900 35 1.000000 0.361000 0.377000 900 30 0.900000 1.785000 1.688000 600 39 1.000000 0.051000 0.051000 1.200000 0.030000 0.036000
1538161858303043620	900 35 1.000000 0.361000 0.377000 900 30 0.900000 1.785000 1.688000 600 39 1.000000 0.051000 0.051000 1.200000 0.030000 0.036000
1538161858867027996	900 35 1.000000 0.361000 0.377000 900 30 0.900000 1.785000 1.686000 600 39 1.000000 0.051000 0.051000 1.200000 0.030000 0.036000
1538161859423038329	900 35 1.000000 0.361000 0.377000 900 30 0.900000 1.773000 1.677000 600 39 1.000000 0.051000 0.051000 1.200000 0.030000 0.036000
1538161859987085162	900 36 1.000000 0.361000 0.377000 900 30 0.900000 1.781000 1.684000 600 39 1.000000 0.050000 0.050000 1.200000 0.030000 0.036000
1538161860551026162	900 35 1.000000 0.360000 0.376000 900 30 0.900000 1.784000 1.687000 600 39 1.000000 0.051000 0.051000 1.200000 0.031000 0.037000
1538161861111031204	900 35 1.000000 0.361000 0.377000 900 30 0.900000 1.777000 1.681000 600 39 1.000000 0.051000 0.051000 1.200000 0.030000 0.036000
1538161861671079913	900 35 1.000000 0.361000 0.377000 900 30 0.900000 1.785000 1.688000 600 39 1.000000 0.050000 0.050000 1.200000 0.031000 0.037000
1538161862243113663	900 35 1.000000 0.360000 0.376000 900 30 0.900000 1.782000 1.685000 600 39 1.000000 0.050000 0.050000 1.200000 0.032000 0.038000
1538161862799060413	900 35 1.000000 0.360000 0.376000 900 30 0.900000 1.790000 1.693000 600 39 1.000000 0.050000 0.050000 1.200000 0.031000 0.037000
1538161863359054954	900 35 1.000000 0.361000 0.377000 900 30 0.900000 1.785000 1.688000 600 39 1.000000 0.051000 0.051000 1.200000 0.031000 0.037000
1538161863911101663	900 35 1.000000 0.360000 0.376000 900 30 0.900000 1.785000 1.688000 600 39 1.000000 0.050000 0.050000 1.200000 0.032000 0.038000
1538161864471097871	900 35 1.000000 0.360000 0.376000 900 30 0.900000 1.778000 1.681000 600 39 1.000000 0.051000 0.051000 1.200000 0.031000 0.037000
1538161865043034163	900 35 1.000000 0.360000 0.376000 900 30 0.900000 1.790000 1.693000 600 39 1.000000 0.051000 0.051000 1.200000 0.031000 0.037000
1538161865619071580	900 35 1.000000 0.360000 0.376000 900 30 0.900000 1.786000 1.689000 600 39 1.000000 0.051000 0.051000 1.200000 0.031000 0.037000
1538161866183036246	900 35 1.000000 0.361000 0.377000 900 30 0.900000 1.787000 1.690000 600 39 1.000000 0.050000 0.050000 1.200000 0.031000 0.037000
1538161866743064871	900 35 1.000000 0.361000 0.377000 900 30 0.900000 1.782000 1.685000 600 39 1.000000 0.051000 0.051000 1.200000 0.031000 0.037000
1538161867299046163	900 35 1.000000 0.361000 0.377000 900 30 0.900000 1.787000 1.690000 600 39 1.000000 0.050000 0.050000 1.200000 0.031000 0.037000
1538161867859035955	900 35 1.000000 0.361000 0.377000 900 30 0.900000 1.784000 1.687000 600 39 1.000000 0.050000 0.050000 1.200000 0.032000 0.038000
1538161868423082372	900 35 1.000000 0.360000 0.376000 900 30 0.900000 1.784000 1.687000 600 39 1.000000 0.051000 0.051000 1.200000 0.031000 0.037000
1538161868991050205	900 35 1.000000 0.360000 0.376000 900 30 0.900000 1.783000 1.686000 600 39 1.000000 0.050000 0.050000 1.200000 0.031000 0.037000
1538161869567061122	900 35 1.000000 0.360000 0.376000 900 30 0.900000 1.792000 1.695000 600 39 1.000000 0.050000 0.050000 1.200000 0.031000 0.037000
1538161870127043247	900 35 1.000000 0.361000 0.377000 900 30 0.900000 1.791000 1.694000 600 39 1.000000 0.051000 0.051000 1.200000 0.031000 0.037000
1538161870687015622	900 35 1.000000 0.361000 0.377000 900 30 0.900000 1.791000 1.694000 600 39 1.000000 0.051000 0.051000 1.200000 0.031000 0.037000
1538161871243018664	900 35 1.000000 0.360000 0.376000 900 30 0.900000 1.787000 1.690000 600 39 1.000000 0.051000 0.051000 1.200000 0.031000 0.037000
1538161871811093622	900 35 1.000000 0.360000 0.376000 900 30 0.900000 1.790000 1.693000 600 39 1.000000 0.051000 0.051000 1.200000 0.031000 0.037000
1538161872371052080	900 35 1.000000 0.360000 0.376000 900 30 0.900000 1.786000 1.689000 600 39 1.000000 0.051000 0.051000 1.200000 0.031000 0.037000
1538161872931044456	900 35 1.000000 0.360000 0.376000 900 30 0.900000 1.797000 1.699000 600 39 1.000000 0.050000 0.050000 1.200000 0.031000 0.037000
1538161873495058747	900 35 1.000000 0.360000 0.376000 900 30 0.900000 1.792000 1.695000 600 39 1.000000 0.051000 0.051000 1.200000 0.032000 0.038000
1538161874046973539	900 35 1.000000 0.361000 0.377000 900 30 0.900000 1.797000 1.699000 600 39 1.000000 0.050000 0.050000 1.200000 0.032000 0.038000
1538161874607105247	900 35 1.000000 0.360000 0.376000 900 30 0.900000 1.798000 1.700000 600 39 1.000000 0.051000 0.051000 1.200000 0.032000 0.038000
1538161875171038914	900 35 1.000000 0.360000 0.376000 900 30 0.900000 1.797000 1.699000 600 39 1.000000 0.051000 0.051000 1.200000 0.032000 0.038000
1538161875734998248	900 35 1.000000 0.360000 0.376000 900 30 0.900000 1.797000 1.699000 600 39 1.000000 0.050000 0.050000 1.200000 0.032000 0.038000
1538161876294996456	900 35 1.000000 0.360000 0.376000 900 30 0.900000 1.796000 1.699000 600 39 1.000000 0.050000 0.050000 1.200000 0.032000 0.038000
1538161876855073206	900 35 1.000000 0.360000 0.376000 900 30 0.900000 1.791000 1.694000 600 39 1.000000 0.051000 0.051000 1.200000 0.032000 0.038000
1538161877415053123	900 35 1.000000 0.360000 0.376000 900 30 0.900000 1.791000 1.694000 600 39 1.000000 0.051000 0.051000 1.200000 0.032000 0.038000
1538161877975076998	900 35 1.000000 0.360000 0.376000 900 30 0.900000 1.793000 1.696000 600 39 1.000000 0.051000 0.051000 1.200000 0.031000 0.037000
1538161878534988498	900 35 1.000000 0.361000 0.377000 900 30 0.900000 1.798000 1.700000 600 39 1.000000 0.051000 0.051000 1.200000 0.032000 0.038000
1538161879099064790	900 35 1.000000 0.360000 0.376000 900 30 0.900000 1.797000 1.699000 600 39 1.000000 0.051000 0.051000 1.200000 0.032000 0.038000
1538161879659049290	900 35 1.000000 0.361000 0.377000 900 30 0.900000 1.798000 1.700000 600 39 1.000000 0.051000 0.051000 1.200000 0.031000 0.037000
1538161880211065373	900 35 1.000000 0.361000 0.377000 900 30 0.900000 1.797000 1.699000 600 39 1.000000 0.050000 0.050000 1.200000 0.032000 0.038000
1538161880771078123	900 35 1.000000 0.360000 0.376000 900 30 0.900000 1.788000 1.691000 600 39 1.000000 0.050000 0.050000 1.200000 0.032000 0.038000
1538161881335048623	900 35 1.000000 0.360000 0.376000 900 30 0.900000 1.790000 1.693000 600 39 1.000000 0.050000 0.050000 1.200000 0.032000 0.038000
1538161881895046123	900 35 1.000000 0.361000 0.377000 900 30 0.900000 1.791000 1.694000 600 39 1.000000 0.051000 0.051000 1.200000 0.032000 0.038000
1538161882459080873	900 35 1.000000 0.361000 0.377000 900 30 0.900000 1.795000 1.698000 600 39 1.000000 0.051000 0.051000 1.200000 0.032000 0.038000
1538161883023043748	900 35 1.000000 0.361000 0.377000 900 30 0.900000 1.800000 1.702000 600 39 1.000000 0.051000 0.051000 1.200000 0.031000 0.037000
1538161883587035915	900 35 1.000000 0.360000 0.376000 900 30 0.900000 1.796000 1.699000 600 39 1.000000 0.050000 0.050000 1.200000 0.031000 0.037000
1538161884151004790	900 35 1.000000 0.361000 0.377000 900 30 0.900000 1.791000 1.694000 600 39 1.000000 0.050000 0.050000 1.200000 0.032000 0.038000
1538161884715000999	900 35 1.000000 0.361000 0.377000 900 30 0.900000 1.788000 1.691000 600 39 1.000000 0.050000 0.050000 1.200000 0.032000 0.038000
1538161885263056332	900 35 1.000000 0.362000 0.379000 900 30 0.900000 1.789000 1.692000 600 39 1.000000 0.050000 0.050000 1.200000 0.032000 0.038000
1538161885819002957	900 35 1.000000 0.363000 0.380000 900 30 0.900000 1.785000 1.688000 600 39 1.000000 0.050000 0.050000 1.200000 0.032000 0.038000
1538161886379053082	900 35 1.000000 0.362000 0.379000 900 30 0.900000 1.783000 1.686000 600 39 1.000000 0.051000 0.051000 1.200000 0.032000 0.038000
1538161886943039082	900 35 1.000000 0.362000 0.379000 900 30 0.900000 1.783000 1.686000 600 39 1.000000 0.051000 0.051000 1.200000 0.032000 0.038000
1538161887499091457	900 35 1.000000 0.363000 0.380000 900 30 0.900000 1.791000 1.694000 600 39 1.000000 0.050000 0.050000 1.200000 0.032000 0.038000
1538161888063054999	900 35 1.000000 0.363000 0.380000 900 30 0.900000 1.790000 1.693000 600 39 1.000000 0.050000 0.050000 1.200000 0.032000 0.038000
1538161888627060207	900 35 1.000000 0.362000 0.379000 900 30 0.900000 1.790000 1.693000 600 39 1.000000 0.050000 0.050000 1.200000 0.032000 0.038000
1538161889191040499	900 35 1.000000 0.362000 0.379000 900 30 0.900000 1.788000 1.691000 600 39 1.000000 0.051000 0.051000 1.200000 0.032000 0.038000
1538161889759045874	900 35 1.000000 0.362000 0.379000 900 30 0.900000 1.789000 1.692000 600 39 1.000000 0.051000 0.051000 1.200000 0.032000 0.038000
1538161890319073416	900 35 1.000000 0.362000 0.379000 900 30 0.900000 1.785000 1.688000 600 39 1.000000 0.050000 0.050000 1.200000 0.031000 0.037000
1538161890883049291	900 36 1.000000 0.362000 0.379000 900 30 0.900000 1.783000 1.686000 600 39 1.000000 0.050000 0.050000 1.200000 0.032000 0.038000
1538161891439043458	900 35 1.000000 0.363000 0.380000 900 30 0.900000 1.787000 1.690000 600 39 1.000000 0.051000 0.051000 1.200000 0.032000 0.038000
1538161892003027916	900 35 1.000000 0.363000 0.380000 900 30 0.900000 1.788000 1.691000 600 39 1.000000 0.050000 0.050000 1.200000 0.032000 0.038000
1538161892567052041	900 35 1.000000 0.363000 0.380000 900 30 0.900000 1.788000 1.691000 600 39 1.000000 0.051000 0.051000 1.200000 0.031000 0.037000
1538161893127043750	900 35 1.000000 0.362000 0.379000 900 30 0.900000 1.790000 1.693000 600 39 1.000000 0.051000 0.051000 1.200000 0.032000 0.038000
1538161893691118208	900 35 1.000000 0.362000 0.379000 900 31 0.900000 1.789000 1.692000 600 39 1.000000 0.051000 0.051000 1.200000 0.032000 0.038000
1538161894247056375	900 36 1.000000 0.363000 0.380000 900 31 0.900000 1.788000 1.691000 600 39 1.000000 0.051000 0.051000 1.200000 0.032000 0.038000
1538161894803082625	900 35 1.000000 0.362000 0.379000 900 30 0.900000 1.787000 1.690000 600 39 1.000000 0.050000 0.050000 1.200000 0.032000 0.038000
1538161895367101125	900 35 1.000000 0.362000 0.379000 900 30 0.900000 1.792000 1.695000 600 39 1.000000 0.050000 0.050000 1.200000 0.031000 0.037000
1538161895931049708	900 36 1.000000 0.363000 0.380000 900 31 0.900000 1.804000 1.706000 600 39 1.000000 0.051000 0.051000 1.200000 0.032000 0.038000
1538161896503089250	900 36 1.000000 0.363000 0.380000 900 31 0.900000 1.804000 1.706000 600 39 1.000000 0.050000 0.050000 1.200000 0.031000 0.037000
1538161897071040000	900 36 1.000000 0.362000 0.379000 900 30 0.900000 1.804000 1.706000 600 39 1.000000 0.051000 0.051000 1.200000 0.032000 0.038000
1538161897635077375	900 35 1.000000 0.363000 0.380000 900 31 0.900000 1.804000 1.706000 600 39 1.000000 0.050000 0.050000 1.200000 0.032000 0.038000
1538161898195072167	900 36 1.000000 0.363000 0.380000 900 31 0.900000 1.805000 1.707000 600 39 1.000000 0.051000 0.051000 1.200000 0.032000 0.038000
1538161898751039292	900 36 1.000000 0.362000 0.379000 900 31 0.900000 1.805000 1.707000 600 39 1.000000 0.050000 0.050000 1.200000 0.032000 0.038000
1538161899319053542	900 36 1.000000 0.362000 0.379000 900 31 0.900000 1.804000 1.706000 600 39 1.000000 0.051000 0.051000 1.200000 0.032000 0.038000
1538161899883062084	900 36 1.000000 0.362000 0.379000 900 31 0.900000 1.801000 1.703000 600 39 1.000000 0.050000 0.050000 1.200000 0.031000 0.037000
1538161900439080792	900 36 1.000000 0.362000 0.379000 900 30 0.900000 1.801000 1.703000 600 39 1.000000 0.051000 0.051000 1.200000 0.032000 0.038000
1538161901003045459	900 35 1.000000 0.363000 0.380000 900 30 0.900000 1.800000 1.702000 600 39 1.000000 0.050000 0.050000 1.200000 0.031000 0.037000
1538161901567079084	900 36 1.000000 0.362000 0.379000 900 31 0.900000 1.797000 1.699000 600 39 1.000000 0.051000 0.051000 1.200000 0.031000 0.037000
1538161902127048376	900 36 1.000000 0.362000 0.379000 900 31 0.900000 1.795000 1.698000 600 39 1.000000 0.050000 0.050000 1.200000 0.031000 0.037000
1538161902691064876	900 36 1.000000 0.362000 0.379000 900 31 0.900000 1.800000 1.702000 600 39 1.000000 0.050000 0.050000 1.200000 0.032000 0.038000
1538161903259071584	900 36 1.000000 0.362000 0.379000 900 30 0.900000 1.802000 1.704000 600 39 1.000000 0.051000 0.051000 1.200000 0.032000 0.038000
1538161903822996876	900 36 1.000000 0.362000 0.379000 900 30 0.900000 1.802000 1.704000 600 39 1.000000 0.051000 0.051000 1.200000 0.032000 0.038000
1538161904383071418	900 36 1.000000 0.362000 0.379000 900 30 0.900000 1.804000 1.706000 600 39 1.000000 0.050000 0.050000 1.200000 0.031000 0.037000
1538161904951068001	900 36 1.000000 0.362000 0.379000 900 31 0.900000 1.804000 1.706000 600 39 1.000000 0.051000 0.051000 1.200000 0.031000 0.037000
1538161905515024168	900 35 1.000000 0.362000 0.379000 900 30 0.900000 1.805000 1.707000 600 39 1.000000 0.051000 0.051000 1.200000 0.031000 0.037000
1538161906071060751	900 36 1.000000 0.363000 0.380000 900 31 0.900000 1.799000 1.701000 600 39 1.000000 0.050000 0.050000 1.200000 0.031000 0.037000
1538161906631030585	900 36 1.000000 0.362000 0.379000 900 31 0.900000 1.797000 1.699000 600 39 1.000000 0.051000 0.051000 1.200000 0.031000 0.037000
1538161907195071126	900 36 1.000000 0.362000 0.379000 900 30 0.900000 1.788000 1.691000 600 39 1.000000 0.050000 0.050000 1.200000 0.031000 0.037000
1538161907759067418	900 35 1.000000 0.361000 0.377000 900 30 0.900000 1.787000 1.690000 600 39 1.000000 0.051000 0.051000 1.200000 0.031000 0.037000
1538161908319043626	900 36 1.000000 0.361000 0.377000 900 31 0.900000 1.790000 1.693000 600 39 1.000000 0.051000 0.051000 1.200000 0.032000 0.038000
1538161908886988168	900 35 1.000000 0.363000 0.380000 900 30 0.900000 1.799000 1.701000 600 39 1.000000 0.051000 0.051000 1.200000 0.032000 0.038000
1538161909455045210	900 36 1.000000 0.362000 0.379000 900 31 0.900000 1.792000 1.695000 600 39 1.000000 0.051000 0.051000 1.200000 0.032000 0.038000
1538161909998976168	900 36 1.000000 0.362000 0.379000 900 31 0.900000 1.787000 1.690000 600 39 1.000000 0.050000 0.050000 1.200000 0.032000 0.038000
1538161910567035335	900 36 1.000000 0.362000 0.379000 900 31 0.900000 1.794000 1.697000 600 39 1.000000 0.050000 0.050000 1.200000 0.032000 0.038000
1538161911127046168	900 35 1.000000 0.362000 0.379000 900 31 0.900000 1.788000 1.691000 600 39 1.000000 0.051000 0.051000 1.200000 0.032000 0.038000
1538161911687096168	900 36 1.000000 0.362000 0.379000 900 30 0.900000 1.792000 1.695000 600 39 1.000000 0.050000 0.050000 1.200000 0.032000 0.038000
1538161912243092460	900 36 1.000000 0.362000 0.379000 900 30 0.900000 1.794000 1.697000 600 39 1.000000 0.050000 0.050000 1.200000 0.032000 0.038000
1538161912807045460	900 36 1.000000 0.362000 0.379000 900 31 0.900000 1.791000 1.694000 600 39 1.000000 0.050000 0.050000 1.200000 0.032000 0.038000
1538161913375038794	900 36 1.000000 0.362000 0.379000 900 30 0.900000 1.800000 1.702000 600 39 1.000000 0.051000 0.051000 1.200000 0.032000 0.038000
1538161913926986002	900 35 1.000000 0.362000 0.379000 900 30 0.900000 1.795000 1.698000 600 39 1.000000 0.050000 0.050000 1.200000 0.032000 0.038000
1538161914487036544	900 36 1.000000 0.362000 0.379000 900 31 0.900000 1.797000 1.699000 600 39 1.000000 0.050000 0.050000 1.200000 0.032000 0.038000
1538161915051056586	900 36 1.000000 0.362000 0.379000 900 31 0.900000 1.792000 1.695000 600 39 1.000000 0.051000 0.051000 1.200000 0.032000 0.038000
1538161915610960419	900 36 1.000000 0.362000 0.379000 900 31 0.900000 1.791000 1.694000 600 39 1.000000 0.051000 0.051000 1.200000 0.032000 0.038000
1538161916171032586	900 35 1.000000 0.362000 0.379000 900 31 0.900000 1.790000 1.693000 600 39 1.000000 0.051000 0.051000 1.200000 0.032000 0.038000
1538161916739051919	900 36 1.000000 0.362000 0.379000 900 30 0.900000 1.792000 1.695000 600 39 1.000000 0.051000 0.051000 1.200000 0.032000 0.038000
1538161917294965627	900 36 1.000000 0.362000 0.379000 900 30 0.900000 1.799000 1.701000 600 39 1.000000 0.051000 0.051000 1.200000 0.032000 0.038000
1538161917859049003	900 36 1.000000 0.362000 0.379000 900 30 0.900000 1.802000 1.704000 600 39 1.000000 0.051000 0.051000 1.200000 0.032000 0.038000
1538161918419095669	900 36 1.000000 0.362000 0.379000 900 31 0.900000 1.813000 1.715000 600 39 1.000000 0.051000 0.051000 1.200000 0.032000 0.038000
1538161918983062336	900 36 1.000000 0.362000 0.379000 900 30 0.900000 1.810000 1.712000 600 39 1.000000 0.050000 0.050000 1.200000 0.032000 0.038000
1538161919543008586	900 36 1.000000 0.362000 0.379000 900 31 0.900000 1.804000 1.706000 600 39 1.000000 0.051000 0.051000 1.200000 0.033000 0.039000
1538161920111020669	900 36 1.000000 0.362000 0.379000 900 31 0.900000 1.804000 1.706000 600 39 1.000000 0.050000 0.050000 1.200000 0.033000 0.039000
1538161920671070461	900 36 1.000000 0.362000 0.379000 900 30 0.900000 1.803000 1.705000 600 39 1.000000 0.050000 0.050000 1.200000 0.033000 0.039000
1538161921239027211	900 36 1.000000 0.362000 0.379000 900 30 0.900000 1.806000 1.708000 600 39 1.000000 0.051000 0.051000 1.200000 0.032000 0.038000
1538161921802990545	900 36 1.000000 0.362000 0.379000 900 31 0.900000 1.814000 1.716000 600 39 1.000000 0.050000 0.050000 1.200000 0.032000 0.038000
1538161922363063253	900 36 1.000000 0.362000 0.379000 900 31 0.900000 1.813000 1.715000 600 39 1.000000 0.051000 0.051000 1.200000 0.032000 0.038000
1538161922915005378	900 36 1.000000 0.362000 0.379000 900 31 0.900000 1.813000 1.715000 600 39 1.000000 0.051000 0.051000 1.200000 0.032000 0.038000
1538161923475078212	900 36 1.000000 0.362000 0.379000 900 30 0.900000 1.814000 1.716000 600 39 1.000000 0.051000 0.051000 1.200000 0.032000 0.038000
1538161924039096003	900 36 1.000000 0.362000 0.379000 900 31 0.900000 1.811000 1.713000 600 39 1.000000 0.050000 0.050000 1.200000 0.033000 0.039000
1538161924599121420	900 36 1.000000 0.362000 0.379000 900 31 0.900000 1.808000 1.710000 600 39 1.000000 0.051000 0.051000 1.200000 0.033000 0.039000
1538161925159098545	900 36 1.000000 0.362000 0.379000 900 31 0.900000 1.809000 1.711000 600 39 1.000000 0.051000 0.051000 1.200000 0.033000 0.039000
1538161925723032253	900 36 1.000000 0.362000 0.379000 900 31 0.900000 1.808000 1.710000 600 39 1.000000 0.051000 0.051000 1.200000 0.032000 0.038000
1538161926287100004	900 36 1.000000 0.362000 0.379000 900 31 0.900000 1.814000 1.716000 600 39 1.000000 0.051000 0.051000 1.200000 0.032000 0.038000
1538161926851050754	900 36 1.000000 0.362000 0.379000 900 31 0.900000 1.813000 1.715000 600 39 1.000000 0.050000 0.050000 1.200000 0.032000 0.038000
1538161927399468295	900 36 1.000000 0.362000 0.379000 900 31 0.900000 1.812000 1.714000 600 39 1.000000 0.050000 0.050000 1.200000 0.032000 0.038000
1538161927959044712	900 36 1.000000 0.362000 0.379000 900 31 0.900000 1.814000 1.716000 600 39 1.000000 0.051000 0.051000 1.200000 0.032000 0.038000
1538161928535058337	900 36 1.000000 0.362000 0.379000 900 31 0.900000 1.814000 1.716000 600 39 1.000000 0.051000 0.051000 1.200000 0.032000 0.038000
1538161929094991629	900 36 1.000000 0.362000 0.379000 900 30 0.900000 1.814000 1.716000 600 39 1.000000 0.050000 0.050000 1.200000 0.033000 0.039000
1538161929659010629	900 36 1.000000 0.362000 0.379000 900 31 0.900000 1.821000 1.722000 600 39 1.000000 0.050000 0.050000 1.200000 0.032000 0.038000
1538161930215089046	900 36 1.000000 0.362000 0.379000 900 30 0.900000 1.808000 1.710000 600 39 1.000000 0.050000 0.050000 1.200000 0.032000 0.038000
1538161930767035546	900 36 1.000000 0.362000 0.379000 900 30 0.900000 1.808000 1.710000 600 39 1.000000 0.051000 0.051000 1.200000 0.032000 0.038000
1538161931319061837	900 36 1.000000 0.363000 0.380000 900 31 0.900000 1.809000 1.711000 600 39 1.000000 0.050000 0.050000 1.200000 0.029000 0.035000
1538161931883036879	900 36 1.000000 0.361000 0.377000 900 31 0.900000 1.808000 1.710000 600 39 1.000000 0.050000 0.050000 1.200000 0.030000 0.036000
1538161932439013213	900 36 1.000000 0.361000 0.377000 900 31 0.900000 1.808000 1.710000 600 39 1.000000 0.051000 0.051000 1.200000 0.030000 0.036000
1538161933007029504	900 36 1.000000 0.361000 0.377000 900 30 0.900000 1.808000 1.710000 600 39 1.000000 0.051000 0.051000 1.200000 0.030000 0.036000
1538161933575030004	900 36 1.000000 0.361000 0.377000 900 31 0.900000 1.809000 1.711000 600 39 1.000000 0.051000 0.051000 1.200000 0.030000 0.036000
1538161934138965546	900 36 1.000000 0.361000 0.377000 900 31 0.900000 1.807000 1.709000 600 39 1.000000 0.050000 0.050000 1.200000 0.030000 0.036000
1538161934699045130	900 36 1.000000 0.361000 0.377000 900 31 0.900000 1.805000 1.707000 600 39 1.000000 0.051000 0.051000 1.200000 0.030000 0.036000
1538161935267038463	900 36 1.000000 0.361000 0.377000 900 31 0.900000 1.809000 1.711000 600 39 1.000000 0.050000 0.050000 1.200000 0.029000 0.035000
1538161935831048796	900 36 1.000000 0.362000 0.379000 900 31 0.900000 1.808000 1.710000 600 39 1.000000 0.050000 0.050000 1.200000 0.030000 0.036000
1538161936391073921	900 36 1.000000 0.362000 0.379000 900 30 0.900000 1.808000 1.710000 600 39 1.000000 0.050000 0.050000 1.200000 0.030000 0.036000
1538161936943081838	900 36 1.000000 0.361000 0.377000 900 31 0.900000 1.808000 1.710000 600 39 1.000000 0.051000 0.051000 1.200000 0.030000 0.036000
1538161937507091797	900 36 1.000000 0.361000 0.377000 900 31 0.900000 1.807000 1.709000 600 39 1.000000 0.050000 0.050000 1.200000 0.030000 0.036000
1538161938067043713	900 36 1.000000 0.362000 0.379000 900 31 0.900000 1.807000 1.709000 600 39 1.000000 0.051000 0.051000 1.200000 0.030000 0.036000
1538161938631005172	900 36 1.000000 0.361000 0.377000 900 31 0.900000 1.804000 1.706000 600 39 1.000000 0.050000 0.050000 1.200000 0.030000 0.036000
1538161939187073547	900 36 1.000000 0.361000 0.377000 900 31 0.900000 1.799000 1.701000 600 39 1.000000 0.051000 0.051000 1.200000 0.030000 0.036000
1538161939747065255	900 36 1.000000 0.361000 0.377000 900 31 0.900000 1.808000 1.710000 600 39 1.000000 0.050000 0.050000 1.200000 0.029000 0.035000
1538161940307053214	900 36 1.000000 0.362000 0.379000 900 31 0.900000 1.808000 1.710000 600 39 1.000000 0.051000 0.051000 1.200000 0.029000 0.035000
1538161940871054464	900 36 1.000000 0.362000 0.379000 900 31 0.900000 1.807000 1.709000 600 39 1.000000 0.050000 0.050000 1.200000 0.029000 0.035000
1538161941431070589	900 36 1.000000 0.362000 0.379000 900 30 0.900000 1.790000 1.693000 600 39 1.000000 0.050000 0.050000 1.200000 0.029000 0.035000
1538161941991109630	900 36 1.000000 0.361000 0.377000 900 31 0.900000 1.796000 1.699000 600 39 1.000000 0.051000 0.051000 1.200000 0.030000 0.036000
1538161942551021880	900 36 1.000000 0.361000 0.377000 900 31 0.900000 1.790000 1.693000 600 39 1.000000 0.050000 0.050000 1.200000 0.030000 0.036000
1538161943119021089	900 36 1.000000 0.361000 0.377000 900 30 0.900000 1.789000 1.692000 600 39 1.000000 0.050000 0.050000 1.200000 0.030000 0.036000
1538161943675016297	900 36 1.000000 0.361000 0.377000 900 30 0.900000 1.795000 1.698000 600 39 1.000000 0.051000 0.051000 1.200000 0.030000 0.036000
1538161944239035006	900 36 1.000000 0.362000 0.379000 900 30 0.900000 1.786000 1.689000 600 39 1.000000 0.050000 0.050000 1.200000 0.029000 0.035000
1538161944799027756	900 36 1.000000 0.361000 0.377000 900 31 0.900000 1.784000 1.687000 600 39 1.000000 0.051000 0.051000 1.200000 0.030000 0.036000
1538161945359053756	900 36 1.000000 0.361000 0.377000 900 31 0.900000 1.788000 1.691000 600 39 1.000000 0.051000 0.051000 1.200000 0.029000 0.035000
1538161945923021006	900 36 1.000000 0.361000 0.377000 900 31 0.900000 1.791000 1.694000 600 39 1.000000 0.051000 0.051000 1.200000 0.030000 0.036000
1538161946487088464	900 36 1.000000 0.361000 0.377000 900 30 0.900000 1.792000 1.695000 600 39 1.000000 0.050000 0.050000 1.200000 0.030000 0.036000
1538161947051090381	900 36 1.000000 0.361000 0.377000 900 30 0.900000 1.791000 1.694000 600 39 1.000000 0.051000 0.051000 1.200000 0.030000 0.036000
1538161947611031214	900 36 1.000000 0.361000 0.377000 900 30 0.900000 1.791000 1.694000 600 39 1.000000 0.050000 0.050000 1.200000 0.030000 0.036000
1538161948167024923	900 36 1.000000 0.362000 0.379000 900 31 0.900000 1.795000 1.698000 600 39 1.000000 0.050000 0.050000 1.200000 0.029000 0.035000
1538161948731075715	900 36 1.000000 0.362000 0.379000 900 31 0.900000 1.794000 1.697000 600 39 1.000000 0.051000 0.051000 1.200000 0.029000 0.035000
1538161949291050423	900 36 1.000000 0.361000 0.377000 900 30 0.900000 1.791000 1.694000 600 39 1.000000 0.050000 0.050000 1.200000 0.029000 0.035000
1538161949859033256	900 36 1.000000 0.362000 0.379000 900 30 0.900000 1.791000 1.694000 600 39 1.000000 0.050000 0.050000 1.200000 0.029000 0.035000
1538161950411012090	900 36 1.000000 0.361000 0.377000 900 30 0.900000 1.795000 1.698000 600 39 1.000000 0.051000 0.051000 1.200000 0.030000 0.036000
1538161950971034215	900 36 1.000000 0.361000 0.377000 900 30 0.900000 1.793000 1.696000 600 39 1.000000 0.051000 0.051000 1.200000 0.030000 0.036000
1538161951526952007	900 36 1.000000 0.361000 0.377000 900 30 0.900000 1.792000 1.695000 600 39 1.000000 0.050000 0.050000 1.200000 0.030000 0.036000
1538161952087054090	900 36 1.000000 0.361000 0.377000 900 30 0.900000 1.790000 1.693000 600 39 1.000000 0.051000 0.051000 1.200000 0.030000 0.036000
1538161952651060632	900 36 1.000000 0.361000 0.377000 900 31 0.900000 1.791000 1.694000 600 39 1.000000 0.050000 0.050000 1.200000 0.030000 0.036000
1538161953215043715	900 36 1.000000 0.362000 0.379000 900 30 0.900000 1.810000 1.712000 600 39 1.000000 0.051000 0.051000 1.200000 0.030000 0.036000
1538161953775024590	900 36 1.000000 0.363000 0.380000 900 31 0.900000 1.809000 1.711000 600 39 1.000000 0.050000 0.050000 1.200000 0.033000 0.039000
1538161954339078007	900 36 1.000000 0.363000 0.380000 900 30 0.900000 1.809000 1.711000 600 39 1.000000 0.050000 0.050000 1.200000 0.033000 0.039000
1538161954907008424	900 36 1.000000 0.363000 0.380000 900 31 0.900000 1.811000 1.713000 600 39 1.000000 0.051000 0.051000 1.200000 0.033000 0.039000
1538161955474982924	900 36 1.000000 0.363000 0.380000 900 30 0.900000 1.810000 1.712000 600 39 1.000000 0.051000 0.051000 1.200000 0.034000 0.041000
1538161956039037299	900 36 1.000000 0.363000 0.380000 900 31 0.900000 1.798000 1.700000 600 39 1.000000 0.051000 0.051000 1.200000 0.033000 0.039000
1538161956603035465	900 36 1.000000 0.363000 0.380000 900 31 0.900000 1.801000 1.703000 600 39 1.000000 0.051000 0.051000 1.200000 0.034000 0.041000
1538161957167043632	900 36 1.000000 0.363000 0.380000 900 31 0.900000 1.811000 1.713000 600 39 1.000000 0.051000 0.051000 1.200000 0.034000 0.041000
1538161957723015882	900 36 1.000000 0.363000 0.380000 900 30 0.900000 1.809000 1.711000 600 39 1.000000 0.051000 0.051000 1.200000 0.033000 0.039000
1538161958282998466	900 36 1.000000 0.363000 0.380000 900 31 0.900000 1.808000 1.710000 600 39 1.000000 0.050000 0.050000 1.200000 0.033000 0.039000
1538161958847019674	900 36 1.000000 0.363000 0.380000 900 30 0.900000 1.803000 1.705000 600 39 1.000000 0.051000 0.051000 1.200000 0.033000 0.039000
1538161959407063632	900 36 1.000000 0.363000 0.380000 900 31 0.900000 1.800000 1.702000 600 39 1.000000 0.050000 0.050000 1.200000 0.034000 0.041000
1538161959967058758	900 36 1.000000 0.363000 0.380000 900 31 0.900000 1.803000 1.705000 600 39 1.000000 0.051000 0.051000 1.200000 0.033000 0.039000
1538161960534969174	900 35 1.000000 0.363000 0.380000 900 31 0.900000 1.806000 1.708000 600 39 1.000000 0.051000 0.051000 1.200000 0.034000 0.041000
1538161961095041591	900 36 1.000000 0.363000 0.380000 900 30 0.900000 1.810000 1.712000 600 39 1.000000 0.051000 0.051000 1.200000 0.034000 0.041000
1538161961655008508	900 36 1.000000 0.363000 0.380000 900 30 0.900000 1.811000 1.713000 600 39 1.000000 0.051000 0.051000 1.200000 0.033000 0.039000
1538161962215076924	900 36 1.000000 0.363000 0.380000 900 31 0.900000 1.811000 1.713000 600 39 1.000000 0.051000 0.051000 1.200000 0.033000 0.039000
1538161962775061466	900 36 1.000000 0.363000 0.380000 900 31 0.900000 1.811000 1.713000 600 39 1.000000 0.051000 0.051000 1.200000 0.034000 0.041000
1538161963335047800	900 36 1.000000 0.363000 0.380000 900 31 0.900000 1.810000 1.712000 600 39 1.000000 0.051000 0.051000 1.200000 0.034000 0.041000
1538161963899043175	900 36 1.000000 0.363000 0.380000 900 31 0.900000 1.809000 1.711000 600 39 1.000000 0.050000 0.050000 1.200000 0.034000 0.041000
1538161964467006591	900 36 1.000000 0.363000 0.380000 900 30 0.900000 1.790000 1.693000 600 39 1.000000 0.050000 0.050000 1.200000 0.034000 0.041000
1538161965027000466	900 35 1.000000 0.363000 0.380000 900 30 0.900000 1.790000 1.693000 600 39 1.000000 0.051000 0.051000 1.200000 0.034000 0.041000
1538161965595040842	900 36 1.000000 0.363000 0.380000 900 30 0.900000 1.790000 1.693000 600 39 1.000000 0.051000 0.051000 1.200000 0.033000 0.039000
1538161966155021342	900 36 1.000000 0.363000 0.380000 900 31 0.900000 1.789000 1.692000 600 39 1.000000 0.051000 0.051000 1.200000 0.034000 0.041000
1538161966723018675	900 36 1.000000 0.363000 0.380000 900 31 0.900000 1.791000 1.694000 600 39 1.000000 0.051000 0.051000 1.200000 0.034000 0.041000
1538161967286979092	900 36 1.000000 0.363000 0.380000 900 31 0.900000 1.790000 1.693000 600 39 1.000000 0.051000 0.051000 1.200000 0.034000 0.041000
1538161967843017134	900 36 1.000000 0.363000 0.380000 900 31 0.900000 1.788000 1.691000 600 39 1.000000 0.050000 0.050000 1.200000 0.034000 0.041000
1538161968398972884	900 36 1.000000 0.363000 0.380000 900 30 0.900000 1.783000 1.686000 600 39 1.000000 0.050000 0.050000 1.200000 0.034000 0.041000
1538161968966997550	900 36 1.000000 0.363000 0.380000 900 30 0.900000 1.786000 1.689000 600 39 1.000000 0.050000 0.050000 1.200000 0.034000 0.041000
1538161969530991967	900 36 1.000000 0.363000 0.380000 900 31 0.900000 1.782000 1.685000 600 39 1.000000 0.051000 0.051000 1.200000 0.034000 0.041000
1538161970095029675	900 36 1.000000 0.363000 0.380000 900 30 0.900000 1.790000 1.693000 600 39 1.000000 0.051000 0.051000 1.200000 0.034000 0.041000
1538161970662987926	900 36 1.000000 0.363000 0.380000 900 30 0.900000 1.790000 1.693000 600 39 1.000000 0.050000 0.050000 1.200000 0.034000 0.041000
1538161971226986342	900 36 1.000000 0.363000 0.380000 900 30 0.900000 1.790000 1.693000 600 39 1.000000 0.051000 0.051000 1.200000 0.033000 0.039000
1538161971783059467	900 36 1.000000 0.363000 0.380000 900 30 0.900000 1.789000 1.692000 600 39 1.000000 0.051000 0.051000 1.200000 0.033000 0.039000
1538161972335007509	900 36 1.000000 0.363000 0.380000 900 30 0.900000 1.790000 1.693000 600 39 1.000000 0.051000 0.051000 1.200000 0.033000 0.039000
1538161972899062676	900 36 1.000000 0.363000 0.380000 900 30 0.900000 1.788000 1.691000 600 39 1.000000 0.051000 0.051000 1.200000 0.034000 0.041000
1538161973463070218	900 36 1.000000 0.363000 0.380000 900 30 0.900000 1.786000 1.689000 600 39 1.000000 0.050000 0.050000 1.200000 0.033000 0.039000
1538161974019076759	900 35 1.000000 0.363000 0.380000 900 30 0.900000 1.790000 1.693000 600 39 1.000000 0.051000 0.051000 1.200000 0.033000 0.039000
1538161974567065634	900 35 1.000000 0.363000 0.380000 900 30 0.900000 1.791000 1.694000 600 39 1.000000 0.050000 0.050000 1.200000 0.034000 0.041000
1538161975122991676	900 36 1.000000 0.363000 0.380000 900 30 0.900000 1.791000 1.694000 600 39 1.000000 0.051000 0.051000 1.200000 0.034000 0.041000
1538161975687045426	900 36 1.000000 0.363000 0.380000 900 30 0.900000 1.788000 1.691000 600 39 1.000000 0.050000 0.050000 1.200000 0.034000 0.041000
1538161976250983301	900 35 1.000000 0.363000 0.380000 900 30 0.900000 1.788000 1.691000 600 39 1.000000 0.051000 0.051000 1.200000 0.033000 0.039000
1538161976802967093	900 36 1.000000 0.362000 0.379000 900 30 0.900000 1.788000 1.691000 600 39 1.000000 0.050000 0.050000 1.200000 0.032000 0.038000
1538161977371014385	900 36 1.000000 0.361000 0.377000 900 31 0.900000 1.788000 1.691000 600 39 1.000000 0.051000 0.051000 1.200000 0.032000 0.038000
1538161977939092801	900 36 1.000000 0.361000 0.377000 900 31 0.900000 1.784000 1.687000 600 39 1.000000 0.051000 0.051000 1.200000 0.031000 0.037000
1538161978495019135	900 36 1.000000 0.361000 0.377000 900 30 0.900000 1.787000 1.690000 600 39 1.000000 0.051000 0.051000 1.200000 0.032000 0.038000
1538161979063017843	900 36 1.000000 0.361000 0.377000 900 30 0.900000 1.787000 1.690000 600 39 1.000000 0.051000 0.051000 1.200000 0.031000 0.037000
1538161979626987385	900 36 1.000000 0.361000 0.377000 900 30 0.900000 1.787000 1.690000 600 39 1.000000 0.050000 0.050000 1.200000 0.031000 0.037000
1538161980183042427	900 36 1.000000 0.361000 0.377000 900 30 0.900000 1.789000 1.692000 600 39 1.000000 0.051000 0.051000 1.200000 0.031000 0.037000
1538161980743058760	900 36 1.000000 0.361000 0.377000 900 30 0.900000 1.788000 1.691000 600 39 1.000000 0.051000 0.051000 1.200000 0.031000 0.037000
1538161981303041760	900 36 1.000000 0.361000 0.377000 900 30 0.900000 1.787000 1.690000 600 39 1.000000 0.050000 0.050000 1.200000 0.031000 0.037000
1538161981859005510	900 36 1.000000 0.361000 0.377000 900 30 0.900000 1.788000 1.691000 600 39 1.000000 0.050000 0.050000 1.200000 0.031000 0.037000
1538161982415076927	900 36 1.000000 0.361000 0.377000 900 30 0.900000 1.786000 1.689000 600 39 1.000000 0.050000 0.050000 1.200000 0.031000 0.037000
1538161982978973260	900 36 1.000000 0.361000 0.377000 900 30 0.900000 1.786000 1.689000 600 39 1.000000 0.050000 0.050000 1.200000 0.032000 0.038000
1538161983543086135	900 36 1.000000 0.361000 0.377000 900 30 0.900000 1.781000 1.684000 600 39 1.000000 0.050000 0.050000 1.200000 0.031000 0.037000
1538161984103035427	900 35 1.000000 0.361000 0.377000 900 30 0.900000 1.779000 1.682000 600 39 1.000000 0.050000 0.050000 1.200000 0.031000 0.037000
1538161984659067094	900 36 1.000000 0.361000 0.377000 900 30 0.900000 1.781000 1.684000 600 39 1.000000 0.050000 0.050000 1.200000 0.031000 0.037000
1538161985210952511	900 36 1.000000 0.360000 0.376000 900 30 0.900000 1.781000 1.684000 600 39 1.000000 0.051000 0.051000 1.200000 0.031000 0.037000
1538161985767072386	900 36 1.000000 0.361000 0.377000 900 30 0.900000 1.784000 1.687000 600 39 1.000000 0.050000 0.050000 1.200000 0.031000 0.037000
1538161986318981802	900 35 1.000000 0.361000 0.377000 900 30 0.900000 1.780000 1.683000 600 39 1.000000 0.050000 0.050000 1.200000 0.031000 0.037000
1538161986887064261	900 35 1.000000 0.361000 0.377000 900 31 0.900000 1.788000 1.691000 600 39 1.000000 0.050000 0.050000 1.200000 0.032000 0.038000
1538161987447093428	900 36 1.000000 0.361000 0.377000 900 31 0.900000 1.812000 1.714000 600 39 1.000000 0.050000 0.050000 1.200000 0.031000 0.037000
1538161988010997303	900 36 1.000000 0.361000 0.377000 900 31 0.900000 1.812000 1.714000 600 39 1.000000 0.050000 0.050000 1.200000 0.031000 0.037000
1538161988559030261	900 36 1.000000 0.361000 0.377000 900 30 0.900000 1.806000 1.708000 600 39 1.000000 0.050000 0.050000 1.200000 0.031000 0.037000
1538161989119020969	900 36 1.000000 0.361000 0.377000 900 30 0.900000 1.805000 1.707000 600 39 1.000000 0.050000 0.050000 1.200000 0.031000 0.037000
1538161989683094928	900 36 1.000000 0.361000 0.377000 900 30 0.900000 1.804000 1.706000 600 39 1.000000 0.051000 0.051000 1.200000 0.031000 0.037000
1538161990239041928	900 36 1.000000 0.361000 0.377000 900 31 0.900000 1.801000 1.703000 600 39 1.000000 0.050000 0.050000 1.200000 0.031000 0.037000
1538161990799024261	900 36 1.000000 0.361000 0.377000 900 31 0.900000 1.810000 1.712000 600 39 1.000000 0.051000 0.051000 1.200000 0.031000 0.037000
1538161991375124886	900 36 1.000000 0.360000 0.376000 900 30 0.900000 1.806000 1.708000 600 39 1.000000 0.051000 0.051000 1.200000 0.031000 0.037000
1538161991939009845	900 36 1.000000 0.361000 0.377000 900 31 0.900000 1.804000 1.706000 600 39 1.000000 0.051000 0.051000 1.200000 0.031000 0.037000
1538161992503077178	900 36 1.000000 0.361000 0.377000 900 31 0.900000 1.812000 1.714000 600 39 1.000000 0.050000 0.050000 1.200000 0.031000 0.037000
1538161993055074428	900 36 1.000000 0.361000 0.377000 900 30 0.900000 1.808000 1.710000 600 39 1.000000 0.050000 0.050000 1.200000 0.031000 0.037000
1538161993611043970	900 36 1.000000 0.361000 0.377000 900 31 0.900000 1.807000 1.709000 600 39 1.000000 0.051000 0.051000 1.200000 0.031000 0.037000
1538161994174986678	900 36 1.000000 0.361000 0.377000 900 31 0.900000 1.809000 1.711000 600 39 1.000000 0.050000 0.050000 1.200000 0.031000 0.037000
1538161994735087428	900 36 1.000000 0.361000 0.377000 900 30 0.900000 1.805000 1.707000 600 39 1.000000 0.051000 0.051000 1.200000 0.031000 0.037000
1538161995295048595	900 36 1.000000 0.361000 0.377000 900 31 0.900000 1.809000 1.711000 600 39 1.000000 0.051000 0.051000 1.200000 0.031000 0.037000
1538161995855072679	900 36 1.000000 0.361000 0.377000 900 30 0.900000 1.807000 1.709000 600 39 1.000000 0.051000 0.051000 1.200000 0.031000 0.037000
1538161996415061887	900 36 1.000000 0.361000 0.377000 900 31 0.900000 1.805000 1.707000 600 39 1.000000 0.050000 0.050000 1.200000 0.031000 0.037000
1538161996983042095	900 36 1.000000 0.361000 0.377000 900 31 0.900000 1.804000 1.706000 600 39 1.000000 0.051000 0.051000 1.200000 0.031000 0.037000
1538161997543062595	900 36 1.000000 0.361000 0.377000 900 31 0.900000 1.811000 1.713000 600 39 1.000000 0.050000 0.050000 1.200000 0.031000 0.037000
1538161998103043845	900 36 1.000000 0.361000 0.377000 900 31 0.900000 1.812000 1.714000 600 39 1.000000 0.051000 0.051000 1.200000 0.031000 0.037000
1538161998663027387	900 36 1.000000 0.361000 0.377000 900 30 0.900000 1.797000 1.699000 600 39 1.000000 0.050000 0.050000 1.200000 0.031000 0.037000
1538161999211092012	900 36 1.000000 0.361000 0.377000 900 30 0.900000 1.793000 1.696000 600 39 1.000000 0.051000 0.051000 1.200000 0.032000 0.038000
1538161999775053012	900 36 1.000000 0.362000 0.379000 900 30 0.900000 1.794000 1.697000 600 39 1.000000 0.050000 0.050000 1.200000 0.033000 0.039000
1538162000343061304	900 36 1.000000 0.362000 0.379000 900 30 0.900000 1.794000 1.697000 600 39 1.000000 0.050000 0.050000 1.200000 0.033000 0.039000
1538162000907082929	900 36 1.000000 0.361000 0.377000 900 30 0.900000 1.794000 1.697000 600 39 1.000000 0.050000 0.050000 1.200000 0.033000 0.039000
1538162001467044554	900 36 1.000000 0.362000 0.379000 900 30 0.900000 1.800000 1.704000 600 39 1.000000 0.050000 0.050000 1.200000 0.033000 0.039000
1538162002031021596	900 36 1.000000 0.362000 0.379000 900 30 0.900000 1.800000 1.702000 600 39 1.000000 0.051000 0.051000 1.200000 0.032000 0.038000
1538162002595034054	900 36 1.000000 0.362000 0.379000 900 31 0.900000 1.800000 1.702000 600 39 1.000000 0.051000 0.051000 1.200000 0.033000 0.039000
1538162003159050638	900 36 1.000000 0.361000 0.377000 900 30 0.900000 1.795000 1.698000 600 39 1.000000 0.051000 0.051000 1.200000 0.033000 0.039000
1538162003719042429	900 36 1.000000 0.361000 0.377000 900 31 0.900000 1.790000 1.693000 600 39 1.000000 0.051000 0.051000 1.200000 0.033000 0.039000
1538162004283074721	900 35 1.000000 0.362000 0.379000 900 31 0.900000 1.792000 1.695000 600 39 1.000000 0.050000 0.050000 1.200000 0.032000 0.038000
1538162004843055846	900 35 1.000000 0.361000 0.377000 900 30 0.900000 1.791000 1.694000 600 39 1.000000 0.051000 0.051000 1.200000 0.032000 0.038000
1538162005395050971	900 36 1.000000 0.361000 0.377000 900 30 0.900000 1.797000 1.699000 600 39 1.000000 0.051000 0.051000 1.200000 0.033000 0.039000
1538162005947055930	900 36 1.000000 0.362000 0.379000 900 30 0.900000 1.800000 1.702000 600 39 1.000000 0.051000 0.051000 1.200000 0.033000 0.039000
1538162006511080971	900 36 1.000000 0.362000 0.379000 900 31 0.900000 1.799000 1.701000 600 39 1.000000 0.051000 0.051000 1.200000 0.033000 0.039000
1538162007071054847	900 36 1.000000 0.362000 0.379000 900 31 0.900000 1.799000 1.701000 600 39 1.000000 0.051000 0.051000 1.200000 0.033000 0.039000
1538162007635014638	900 35 1.000000 0.362000 0.379000 900 30 0.900000 1.799000 1.701000 600 39 1.000000 0.051000 0.051000 1.200000 0.033000 0.039000
1538162008191048222	900 36 1.000000 0.362000 0.379000 900 30 0.900000 1.799000 1.701000 600 39 1.000000 0.051000 0.051000 1.200000 0.033000 0.039000
1538162008759035763	900 36 1.000000 0.361000 0.377000 900 30 0.900000 1.793000 1.696000 600 39 1.000000 0.050000 0.050000 1.200000 0.033000 0.039000
1538162009266778847	900 35 1.000000 0.362000 0.379000 900 31 0.900000 1.799000 1.701000 600 37 1.000000 0.050000 0.050000 1.200000 0.034000 0.041000
1538162009774422597	900 31 1.000000 0.362000 0.379000 900 30 0.900000 0.774000 0.729000 600 34 1.000000 0.051000 0.051000 1.200000 0.033000 0.039000
1538162010281961389	900 30 1.000000 0.362000 0.379000 900 28 0.900000 0.101000 0.095000 600 32 1.000000 0.050000 0.050000 1.200000 0.033000 0.039000
1538162010789475305	900 29 1.000000 0.362000 0.379000 900 28 0.900000 0.093000 0.088000 600 31 1.000000 0.050000 0.050000 1.200000 0.033000 0.039000
1538162011296901180	900 29 1.000000 0.361000 0.377000 900 27 0.900000 0.092000 0.087000 600 31 1.000000 0.050000 0.050000 1.200000 0.033000 0.039000
1538162011804281805	900 28 1.000000 0.361000 0.377000 900 27 0.900000 0.094000 0.089000 600 30 1.000000 0.050000 0.050000 1.200000 0.033000 0.039000
1538162012311720722	900 28 1.000000 0.361000 0.378000 900 26 0.900000 0.094000 0.089000 600 29 1.000000 0.050000 0.050000 1.200000 0.032000 0.038000
1538162012819119472	900 28 1.000000 0.361000 0.378000 900 26 0.900000 0.093000 0.088000 600 29 1.000000 0.050000 0.050000 1.200000 0.033000 0.039000
1538162013326632472	900 27 1.000000 0.361000 0.378000 900 26 0.900000 0.090000 0.085000 600 29 1.000000 0.050000 0.050000 1.200000 0.033000 0.039000
1538162013834059847	900 27 1.000000 0.361000 0.378000 900 26 0.900000 0.091000 0.086000 600 29 1.000000 0.050000 0.050000 1.200000 0.033000 0.039000
1538162014341503764	900 27 1.000000 0.361000 0.378000 900 25 0.900000 0.092000 0.087000 600 28 1.000000 0.050000 0.050000 1.200000 0.033000 0.039000
1538162014848968556	900 27 1.000000 0.361000 0.378000 900 25 0.900000 0.096000 0.091000 600 28 1.000000 0.050000 0.050000 1.200000 0.033000 0.039000
1538162015356408222	900 26 1.000000 0.361000 0.378000 900 25 0.900000 0.107000 0.101000 600 28 1.000000 0.050000 0.050000 1.200000 0.033000 0.039000
1538162015863930306	900 26 1.000000 0.361000 0.378000 900 25 0.900000 0.100000 0.095000 600 28 1.000000 0.050000 0.050000 1.200000 0.033000 0.039000
1538162016371283889	900 26 1.000000 0.361000 0.378000 900 25 0.900000 0.090000 0.085000 600 28 1.000000 0.050000 0.050000 1.200000 0.033000 0.039000
1538162016878746514	900 26 1.000000 0.361000 0.378000 900 25 0.900000 0.093000 0.088000 600 28 1.000000 0.050000 0.050000 1.200000 0.033000 0.039000
1538162017386475764	900 26 1.000000 0.361000 0.378000 900 25 0.900000 0.092000 0.087000 600 28 1.000000 0.050000 0.050000 1.200000 0.033000 0.039000
1538162017894076098	900 26 1.000000 0.361000 0.378000 900 24 0.900000 0.092000 0.087000 600 27 1.000000 0.050000 0.050000 1.200000 0.033000 0.039000
1538162018401454640	900 26 1.000000 0.361000 0.378000 900 24 0.900000 0.089000 0.084000 600 27 1.000000 0.050000 0.050000 1.200000 0.032000 0.038000
1538162018908787140	900 26 1.000000 0.361000 0.378000 900 24 0.900000 0.090000 0.085000 600 27 1.000000 0.050000 0.050000 1.200000 0.033000 0.039000
1538162019416546806	900 26 1.000000 0.361000 0.377000 900 24 0.900000 0.092000 0.087000 600 27 1.000000 0.050000 0.050000 1.200000 0.032000 0.038000
1538162019924212723	900 26 1.000000 0.361000 0.378000 900 24 0.900000 0.091000 0.086000 600 27 1.000000 0.050000 0.050000 1.200000 0.033000 0.039000
1538162020431692140	900 25 1.000000 0.361000 0.378000 900 24 0.900000 0.091000 0.086000 600 27 1.000000 0.050000 0.050000 1.200000 0.033000 0.039000
1538162020939087306	900 25 1.000000 0.361000 0.378000 900 24 0.900000 0.089000 0.084000 600 27 1.000000 0.050000 0.050000 1.200000 0.033000 0.039000
1538162021446498057	900 25 1.000000 0.361000 0.378000 900 24 0.900000 0.104000 0.098000 600 27 1.000000 0.050000 0.050000 1.200000 0.033000 0.039000
1538162021953972807	900 25 1.000000 0.361000 0.378000 900 24 0.900000 0.100000 0.095000 600 27 1.000000 0.050000 0.050000 1.200000 0.033000 0.039000
1538162022461458723	900 24 1.000000 0.296000 0.310000 900 23 0.900000 0.088000 0.083000 600 27 1.000000 0.050000 0.050000 1.200000 0.030000 0.036000
1538162022968820557	900 24 1.000000 0.121000 0.128000 900 23 0.900000 0.086000 0.081000 600 27 1.000000 0.050000 0.050000 1.200000 0.025000 0.030000
1538162023476564598	900 24 1.000000 0.120000 0.127000 900 22 0.900000 0.086000 0.081000 600 26 1.000000 0.050000 0.050000 1.200000 0.025000 0.030000
1538162023984195390	900 23 1.000000 0.038000 0.040000 900 22 0.900000 0.103000 0.097000 600 26 1.000000 0.050000 0.050000 1.200000 0.023000 0.027000
