#Timestamp	CPU(0) Frequency(MHz)	CPU(0) Temperature(C)	A7 Voltage(V)	A7 Current(A)	A7 Power(W)	CPU(4) Frequency(MHz)	CPU(4) Temperature(C)	A15 Voltage(V)	A15 Current(A)	A15 Power(W)	GPU Frequency(MHz)	GPU Temperature(C)	GPU Voltage(V)	GPU Current(A)	GPU Power(W)	RAM Voltage(V)	RAM Current(A)	RAM Power(W)
1517182594528590277	900 40 1.000000 0.045000 0.047000 900 38 0.900000 0.350000 0.330000 600 43 1.000000 0.051000 0.051000 1.200000 0.038000 0.045000
1517182595038958236	900 39 1.000000 0.047000 0.050000 900 38 0.900000 0.481000 0.452000 600 43 1.000000 0.051000 0.051000 1.200000 0.036000 0.043000
1517182595547125194	900 40 1.000000 0.046000 0.049000 900 38 0.900000 0.477000 0.447000 600 42 1.000000 0.051000 0.051000 1.200000 0.035000 0.042000
1517182596057939444	900 39 1.000000 0.046000 0.049000 900 38 0.900000 0.491000 0.462000 600 43 1.000000 0.051000 0.051000 1.200000 0.036000 0.043000
1517182596566311611	900 41 1.000000 0.061000 0.064000 900 39 0.900000 0.527000 0.495000 600 44 1.000000 0.051000 0.051000 1.200000 0.044000 0.053000
1517182597128933653	900 43 1.000000 0.179000 0.189000 900 39 0.900000 1.192000 1.126000 600 46 1.000000 0.051000 0.051000 1.200000 0.042000 0.050000
1517182597652549778	900 43 1.000000 0.181000 0.191000 900 40 0.900000 1.157000 1.089000 600 47 1.000000 0.051000 0.051000 1.200000 0.045000 0.054000
1517182598161525570	900 43 1.000000 0.248000 0.260000 900 40 0.900000 1.422000 1.340000 600 46 1.000000 0.051000 0.051000 1.200000 0.041000 0.049000
1517182598716948361	900 44 1.000000 0.256000 0.268000 900 40 0.900000 1.428000 1.345000 600 47 1.000000 0.051000 0.051000 1.200000 0.040000 0.048000
1517182599247105236	900 44 1.000000 0.167000 0.176000 900 41 0.900000 1.086000 1.021000 600 48 1.000000 0.052000 0.052000 1.200000 0.045000 0.054000
1517182599756816986	900 42 1.000000 0.187000 0.198000 900 40 0.900000 1.273000 1.200000 600 46 1.000000 0.052000 0.052000 1.200000 0.038000 0.045000
1517182600324981111	900 43 1.000000 0.232000 0.244000 900 40 0.900000 1.230000 1.162000 600 47 1.000000 0.052000 0.052000 1.200000 0.043000 0.051000
1517182600844879570	900 44 1.000000 0.181000 0.191000 900 41 0.900000 1.187000 1.118000 600 48 1.000000 0.052000 0.052000 1.200000 0.042000 0.050000
1517182601352906737	900 41 1.000000 0.241000 0.253000 900 40 0.900000 1.444000 1.361000 600 45 1.000000 0.052000 0.052000 1.200000 0.041000 0.049000
1517182601882146528	900 43 1.000000 0.231000 0.243000 900 41 0.900000 0.919000 0.869000 600 47 1.000000 0.052000 0.052000 1.200000 0.047000 0.056000
1517182602432887153	900 44 1.000000 0.173000 0.182000 900 41 0.900000 1.328000 1.250000 600 48 1.000000 0.051000 0.051000 1.200000 0.038000 0.045000
1517182602942051070	900 44 1.000000 0.257000 0.270000 900 41 0.900000 1.414000 1.333000 600 46 1.000000 0.051000 0.051000 1.200000 0.040000 0.048000
1517182603476400904	900 45 1.000000 0.195000 0.206000 900 41 0.900000 1.248000 1.175000 600 48 1.000000 0.052000 0.052000 1.200000 0.043000 0.051000
1517182603984767445	900 44 1.000000 0.185000 0.195000 900 41 0.900000 1.084000 1.020000 600 48 1.000000 0.052000 0.052000 1.200000 0.045000 0.054000
1517182604529093237	900 44 1.000000 0.246000 0.258000 900 41 0.900000 1.381000 1.300000 600 47 1.000000 0.052000 0.052000 1.200000 0.041000 0.049000
1517182605060466112	900 45 1.000000 0.259000 0.272000 900 41 0.900000 1.441000 1.358000 600 48 1.000000 0.052000 0.052000 1.200000 0.038000 0.045000
1517182605568720987	900 45 1.000000 0.187000 0.197000 900 41 0.900000 1.095000 1.030000 600 48 1.000000 0.052000 0.052000 1.200000 0.044000 0.053000
1517182606116842112	900 44 1.000000 0.136000 0.144000 900 41 0.900000 1.355000 1.277000 600 48 1.000000 0.052000 0.052000 1.200000 0.038000 0.045000
1517182606626142196	900 45 1.000000 0.215000 0.227000 900 41 0.900000 1.344000 1.267000 600 48 1.000000 0.052000 0.052000 1.200000 0.037000 0.044000
1517182607134367279	900 45 1.000000 0.257000 0.270000 900 41 0.900000 1.146000 1.078000 600 48 1.000000 0.052000 0.052000 1.200000 0.044000 0.053000
1517182607642757946	900 45 1.000000 0.167000 0.176000 900 41 0.900000 1.216000 1.145000 600 48 1.000000 0.052000 0.052000 1.200000 0.043000 0.051000
1517182608151547112	900 44 1.000000 0.260000 0.273000 900 41 0.900000 1.436000 1.354000 600 47 1.000000 0.052000 0.052000 1.200000 0.039000 0.047000
1517182608704913779	900 45 1.000000 0.244000 0.257000 900 42 0.900000 1.385000 1.306000 600 49 1.000000 0.052000 0.052000 1.200000 0.040000 0.048000
1517182609219051904	900 45 1.000000 0.186000 0.196000 900 41 0.900000 1.041000 0.980000 600 49 1.000000 0.052000 0.052000 1.200000 0.048000 0.057000
1517182609727102363	900 42 1.000000 0.241000 0.253000 900 41 0.900000 1.461000 1.377000 600 46 1.000000 0.052000 0.052000 1.200000 0.038000 0.045000
1517182610236050196	900 44 1.000000 0.160000 0.169000 900 41 0.900000 0.361000 0.342000 600 49 1.000000 0.052000 0.052000 1.200000 0.050000 0.060000
1517182610744933863	900 45 1.000000 0.249000 0.262000 900 41 0.900000 1.386000 1.306000 600 48 1.000000 0.052000 0.052000 1.200000 0.039000 0.047000
1517182611253663404	900 44 1.000000 0.228000 0.240000 900 41 0.900000 1.437000 1.355000 600 47 1.000000 0.052000 0.052000 1.200000 0.040000 0.048000
1517182611789553071	900 45 1.000000 0.175000 0.184000 900 42 0.900000 1.074000 1.011000 600 49 1.000000 0.052000 0.052000 1.200000 0.048000 0.057000
1517182612332976571	900 45 1.000000 0.214000 0.225000 900 41 0.900000 1.275000 1.201000 600 48 1.000000 0.052000 0.052000 1.200000 0.042000 0.050000
1517182612878908405	900 44 1.000000 0.265000 0.278000 900 41 0.900000 1.475000 1.390000 600 48 1.000000 0.052000 0.052000 1.200000 0.039000 0.047000
1517182613387675321	900 43 1.000000 0.260000 0.273000 900 41 0.900000 1.346000 1.269000 600 47 1.000000 0.052000 0.052000 1.200000 0.043000 0.051000
1517182613927083821	900 45 1.000000 0.189000 0.199000 900 42 0.900000 1.015000 0.956000 600 49 1.000000 0.052000 0.052000 1.200000 0.049000 0.059000
1517182614484909197	900 45 1.000000 0.176000 0.186000 900 42 0.900000 1.249000 1.176000 600 48 1.000000 0.052000 0.052000 1.200000 0.038000 0.045000
1517182615001585113	900 44 1.000000 0.198000 0.209000 900 41 0.900000 1.179000 1.111000 600 48 1.000000 0.052000 0.052000 1.200000 0.037000 0.044000
1517182615548563697	900 45 1.000000 0.112000 0.119000 900 42 0.900000 1.207000 1.136000 600 49 1.000000 0.052000 0.052000 1.200000 0.044000 0.053000
1517182616056737655	900 45 1.000000 0.172000 0.181000 900 42 0.900000 1.440000 1.357000 600 49 1.000000 0.052000 0.052000 1.200000 0.040000 0.048000
1517182616601778572	900 44 1.000000 0.236000 0.248000 900 41 0.900000 1.237000 1.168000 600 48 1.000000 0.052000 0.052000 1.200000 0.039000 0.047000
1517182617110545988	900 43 1.000000 0.258000 0.270000 900 41 0.900000 1.467000 1.383000 600 47 1.000000 0.052000 0.052000 1.200000 0.039000 0.047000
1517182617656907572	900 45 1.000000 0.165000 0.174000 900 42 0.900000 1.087000 1.023000 600 49 1.000000 0.052000 0.052000 1.200000 0.046000 0.055000
1517182618165260322	900 45 1.000000 0.173000 0.182000 900 42 0.900000 1.061000 0.999000 600 49 1.000000 0.052000 0.052000 1.200000 0.046000 0.055000
1517182618680733322	900 44 1.000000 0.246000 0.258000 900 41 0.900000 1.451000 1.368000 600 48 1.000000 0.051000 0.051000 1.200000 0.041000 0.049000
1517182619232945322	900 45 1.000000 0.193000 0.204000 900 42 0.900000 1.263000 1.193000 600 49 1.000000 0.052000 0.052000 1.200000 0.041000 0.049000
1517182619756489280	900 45 1.000000 0.255000 0.268000 900 42 0.900000 1.376000 1.297000 600 49 1.000000 0.052000 0.052000 1.200000 0.040000 0.048000
1517182620265298947	900 44 1.000000 0.264000 0.277000 900 41 0.900000 1.035000 0.973000 600 49 1.000000 0.052000 0.052000 1.200000 0.046000 0.055000
1517182620775820822	900 44 1.000000 0.187000 0.197000 900 41 0.900000 1.380000 1.301000 600 49 1.000000 0.052000 0.052000 1.200000 0.039000 0.047000
1517182621296982281	900 44 1.000000 0.112000 0.119000 900 41 0.900000 0.575000 0.544000 600 48 1.000000 0.052000 0.052000 1.200000 0.047000 0.056000
1517182621819992614	900 43 1.000000 0.214000 0.225000 900 41 0.900000 1.436000 1.354000 600 47 1.000000 0.052000 0.052000 1.200000 0.040000 0.048000
1517182622376964614	900 45 1.000000 0.183000 0.193000 900 41 0.900000 1.431000 1.349000 600 48 1.000000 0.052000 0.052000 1.200000 0.044000 0.053000
1517182622892094406	900 45 1.000000 0.236000 0.248000 900 42 0.900000 1.073000 1.009000 600 49 1.000000 0.052000 0.052000 1.200000 0.049000 0.059000
1517182623448894906	900 44 1.000000 0.260000 0.273000 900 41 0.900000 1.440000 1.357000 600 48 1.000000 0.052000 0.052000 1.200000 0.039000 0.047000
1517182623963057656	900 44 1.000000 0.245000 0.257000 900 41 0.900000 1.370000 1.290000 600 48 1.000000 0.052000 0.052000 1.200000 0.039000 0.047000
1517182624520945989	900 45 1.000000 0.192000 0.202000 900 42 0.900000 1.305000 1.230000 600 49 1.000000 0.052000 0.052000 1.200000 0.043000 0.051000
1517182625031329114	900 44 1.000000 0.157000 0.166000 900 41 0.900000 0.956000 0.904000 600 48 1.000000 0.052000 0.052000 1.200000 0.045000 0.054000
1517182625540602031	900 43 1.000000 0.163000 0.172000 900 41 0.900000 1.356000 1.281000 600 48 1.000000 0.052000 0.052000 1.200000 0.038000 0.045000
1517182626050796115	900 44 1.000000 0.191000 0.202000 900 41 0.900000 1.178000 1.108000 600 48 1.000000 0.052000 0.052000 1.200000 0.040000 0.048000
1517182626596955740	900 45 1.000000 0.162000 0.171000 900 41 0.900000 1.228000 1.156000 600 48 1.000000 0.052000 0.052000 1.200000 0.039000 0.047000
1517182627107882781	900 44 1.000000 0.255000 0.268000 900 41 0.900000 1.440000 1.357000 600 48 1.000000 0.052000 0.052000 1.200000 0.045000 0.054000
1517182627618211281	900 44 1.000000 0.241000 0.253000 900 41 0.900000 1.371000 1.292000 600 49 1.000000 0.051000 0.051000 1.200000 0.044000 0.053000
1517182628128800573	900 44 1.000000 0.149000 0.158000 900 41 0.900000 0.690000 0.652000 600 48 1.000000 0.052000 0.052000 1.200000 0.038000 0.045000
1517182628638142740	900 44 1.000000 0.184000 0.195000 900 41 0.900000 1.393000 1.312000 600 48 1.000000 0.051000 0.051000 1.200000 0.048000 0.057000
1517182629188963323	900 45 1.000000 0.187000 0.197000 900 41 0.900000 1.343000 1.265000 600 48 1.000000 0.051000 0.051000 1.200000 0.041000 0.049000
1517182629702467657	900 45 1.000000 0.262000 0.275000 900 41 0.900000 0.983000 0.925000 600 49 1.000000 0.052000 0.052000 1.200000 0.039000 0.047000
1517182630218760115	900 44 1.000000 0.249000 0.261000 900 41 0.900000 1.442000 1.359000 600 48 1.000000 0.052000 0.052000 1.200000 0.041000 0.049000
1517182630756221740	900 45 1.000000 0.233000 0.244000 900 42 0.900000 1.047000 0.985000 600 49 1.000000 0.052000 0.052000 1.200000 0.049000 0.059000
1517182631267150365	900 45 1.000000 0.188000 0.198000 900 42 0.900000 1.267000 1.193000 600 49 1.000000 0.052000 0.052000 1.200000 0.040000 0.048000
1517182631775218615	900 44 1.000000 0.247000 0.259000 900 41 0.900000 1.410000 1.329000 600 47 1.000000 0.051000 0.051000 1.200000 0.040000 0.048000
1517182632283628824	900 44 1.000000 0.167000 0.176000 900 41 0.900000 0.880000 0.832000 600 48 1.000000 0.052000 0.052000 1.200000 0.046000 0.055000
1517182632828999282	900 44 1.000000 0.172000 0.181000 900 42 0.900000 1.357000 1.278000 600 48 1.000000 0.052000 0.052000 1.200000 0.041000 0.049000
1517182633383990532	900 45 1.000000 0.222000 0.234000 900 41 0.900000 1.414000 1.333000 600 48 1.000000 0.052000 0.052000 1.200000 0.039000 0.047000
1517182633892589907	900 43 1.000000 0.254000 0.266000 900 41 0.900000 1.378000 1.299000 600 49 1.000000 0.052000 0.052000 1.200000 0.042000 0.050000
1517182634447849199	900 45 1.000000 0.176000 0.186000 900 42 0.900000 1.054000 0.991000 600 49 1.000000 0.052000 0.052000 1.200000 0.048000 0.057000
1517182634970774782	900 44 1.000000 0.258000 0.270000 900 41 0.900000 1.414000 1.333000 600 48 1.000000 0.052000 0.052000 1.200000 0.038000 0.045000
1517182635480812866	900 44 1.000000 0.226000 0.238000 900 41 0.900000 1.300000 1.228000 600 49 1.000000 0.052000 0.052000 1.200000 0.042000 0.050000
1517182635998073491	900 45 1.000000 0.104000 0.110000 900 41 0.900000 0.974000 0.917000 600 49 1.000000 0.052000 0.052000 1.200000 0.041000 0.049000
1517182636544997282	900 45 1.000000 0.249000 0.261000 900 41 0.900000 1.323000 1.247000 600 48 1.000000 0.052000 0.052000 1.200000 0.041000 0.049000
1517182637054042491	900 44 1.000000 0.255000 0.268000 900 41 0.900000 1.456000 1.373000 600 47 1.000000 0.052000 0.052000 1.200000 0.041000 0.049000
1517182637571250449	900 45 1.000000 0.226000 0.237000 900 41 0.900000 1.120000 1.053000 600 49 1.000000 0.052000 0.052000 1.200000 0.045000 0.054000
1517182638098815699	900 44 1.000000 0.166000 0.175000 900 41 0.900000 1.198000 1.129000 600 48 1.000000 0.052000 0.052000 1.200000 0.041000 0.049000
1517182638607501158	900 44 1.000000 0.205000 0.216000 900 41 0.900000 1.313000 1.238000 600 47 1.000000 0.051000 0.051000 1.200000 0.039000 0.047000
1517182639117648449	900 44 1.000000 0.252000 0.264000 900 41 0.900000 1.035000 0.973000 600 48 1.000000 0.052000 0.052000 1.200000 0.049000 0.059000
1517182639676928075	900 44 1.000000 0.162000 0.171000 900 41 0.900000 1.397000 1.317000 600 48 1.000000 0.051000 0.051000 1.200000 0.038000 0.045000
1517182640186187408	900 44 1.000000 0.255000 0.268000 900 41 0.900000 1.381000 1.300000 600 47 1.000000 0.052000 0.052000 1.200000 0.040000 0.048000
1517182640732938450	900 45 1.000000 0.188000 0.198000 900 41 0.900000 1.294000 1.220000 600 49 1.000000 0.052000 0.052000 1.200000 0.045000 0.054000
1517182641251301325	900 45 1.000000 0.189000 0.199000 900 42 0.900000 1.077000 1.013000 600 49 1.000000 0.052000 0.052000 1.200000 0.045000 0.054000
1517182641808934908	900 44 1.000000 0.251000 0.264000 900 41 0.900000 1.429000 1.347000 600 49 1.000000 0.052000 0.052000 1.200000 0.040000 0.048000
1517182642317597450	900 45 1.000000 0.251000 0.263000 900 41 0.900000 1.385000 1.304000 600 48 1.000000 0.052000 0.052000 1.200000 0.040000 0.048000
1517182642877572408	900 45 1.000000 0.229000 0.241000 900 42 0.900000 1.273000 1.199000 600 49 1.000000 0.052000 0.052000 1.200000 0.046000 0.055000
1517182643387271992	900 45 1.000000 0.177000 0.186000 900 42 0.900000 1.070000 1.006000 600 48 1.000000 0.052000 0.052000 1.200000 0.045000 0.054000
1517182643899220492	900 44 1.000000 0.226000 0.238000 900 41 0.900000 1.429000 1.346000 600 49 1.000000 0.052000 0.052000 1.200000 0.041000 0.049000
1517182644408595617	900 43 1.000000 0.249000 0.261000 900 42 0.900000 1.433000 1.351000 600 48 1.000000 0.052000 0.052000 1.200000 0.039000 0.047000
1517182644922038658	900 45 1.000000 0.246000 0.258000 900 42 0.900000 1.132000 1.066000 600 49 1.000000 0.052000 0.052000 1.200000 0.047000 0.056000
1517182645430560117	900 44 1.000000 0.181000 0.191000 900 41 0.900000 1.025000 0.964000 600 48 1.000000 0.052000 0.052000 1.200000 0.047000 0.056000
1517182645938625159	900 42 1.000000 0.107000 0.113000 900 41 0.900000 1.348000 1.271000 600 46 1.000000 0.051000 0.051000 1.200000 0.036000 0.043000
1517182646455895575	900 44 1.000000 0.172000 0.182000 900 41 0.900000 0.989000 0.934000 600 48 1.000000 0.052000 0.052000 1.200000 0.046000 0.055000
1517182646992955367	900 44 1.000000 0.256000 0.269000 900 41 0.900000 1.157000 1.088000 600 48 1.000000 0.052000 0.052000 1.200000 0.041000 0.049000
1517182647502470784	900 43 1.000000 0.245000 0.257000 900 41 0.900000 1.408000 1.326000 600 48 1.000000 0.052000 0.052000 1.200000 0.040000 0.048000
1517182648022223367	900 45 1.000000 0.251000 0.264000 900 41 0.900000 1.379000 1.300000 600 49 1.000000 0.052000 0.052000 1.200000 0.042000 0.050000
1517182648560953576	900 45 1.000000 0.188000 0.198000 900 42 0.900000 1.068000 1.004000 600 48 1.000000 0.052000 0.052000 1.200000 0.045000 0.054000
1517182649108942784	900 45 1.000000 0.262000 0.275000 900 41 0.900000 1.323000 1.246000 600 48 1.000000 0.052000 0.052000 1.200000 0.042000 0.050000
1517182649617606659	900 45 1.000000 0.244000 0.256000 900 42 0.900000 1.443000 1.360000 600 48 1.000000 0.052000 0.052000 1.200000 0.039000 0.047000
1517182650180986867	900 45 1.000000 0.241000 0.253000 900 42 0.900000 1.382000 1.303000 600 48 1.000000 0.052000 0.052000 1.200000 0.042000 0.050000
1517182650718425367	900 45 1.000000 0.185000 0.195000 900 42 0.900000 1.016000 0.956000 600 49 1.000000 0.052000 0.052000 1.200000 0.046000 0.055000
1517182651229047284	900 45 1.000000 0.249000 0.261000 900 42 0.900000 1.448000 1.364000 600 48 1.000000 0.052000 0.052000 1.200000 0.038000 0.045000
1517182651780972243	900 45 1.000000 0.249000 0.261000 900 42 0.900000 1.419000 1.336000 600 49 1.000000 0.052000 0.052000 1.200000 0.038000 0.045000
1517182652319312034	900 45 1.000000 0.234000 0.246000 900 42 0.900000 1.114000 1.048000 600 49 1.000000 0.052000 0.052000 1.200000 0.047000 0.056000
1517182652827604784	900 45 1.000000 0.175000 0.183000 900 42 0.900000 1.285000 1.210000 600 49 1.000000 0.052000 0.052000 1.200000 0.040000 0.048000
1517182653339570659	900 45 1.000000 0.265000 0.278000 900 41 0.900000 1.442000 1.359000 600 49 1.000000 0.052000 0.052000 1.200000 0.039000 0.047000
1517182653862363868	900 44 1.000000 0.108000 0.115000 900 41 0.900000 0.601000 0.569000 600 48 1.000000 0.051000 0.051000 1.200000 0.050000 0.060000
1517182654380995201	900 44 1.000000 0.243000 0.255000 900 41 0.900000 1.451000 1.368000 600 47 1.000000 0.051000 0.051000 1.200000 0.038000 0.045000
1517182654940913201	900 44 1.000000 0.250000 0.262000 900 42 0.900000 1.406000 1.325000 600 48 1.000000 0.052000 0.052000 1.200000 0.039000 0.047000
1517182655496242826	900 45 1.000000 0.175000 0.184000 900 42 0.900000 1.082000 1.018000 600 49 1.000000 0.052000 0.052000 1.200000 0.047000 0.056000
1517182656008069493	900 45 1.000000 0.244000 0.256000 900 42 0.900000 1.204000 1.132000 600 49 1.000000 0.052000 0.052000 1.200000 0.041000 0.049000
1517182656516958327	900 43 1.000000 0.251000 0.263000 900 42 0.900000 1.434000 1.350000 600 48 1.000000 0.052000 0.052000 1.200000 0.040000 0.048000
1517182657080978327	900 45 1.000000 0.247000 0.259000 900 42 0.900000 1.394000 1.314000 600 49 1.000000 0.052000 0.052000 1.200000 0.041000 0.049000
1517182657608378743	900 45 1.000000 0.177000 0.187000 900 42 0.900000 1.038000 0.976000 600 49 1.000000 0.052000 0.052000 1.200000 0.045000 0.054000
1517182658116504285	900 42 1.000000 0.254000 0.267000 900 41 0.900000 1.447000 1.363000 600 46 1.000000 0.052000 0.052000 1.200000 0.041000 0.049000
1517182658661279202	900 44 1.000000 0.120000 0.127000 900 41 0.900000 1.194000 1.128000 600 48 1.000000 0.052000 0.052000 1.200000 0.038000 0.045000
1517182659172522369	900 43 1.000000 0.223000 0.234000 900 41 0.900000 1.031000 0.975000 600 46 1.000000 0.052000 0.052000 1.200000 0.041000 0.049000
1517182659685141660	900 45 1.000000 0.167000 0.177000 900 41 0.900000 1.448000 1.365000 600 48 1.000000 0.052000 0.052000 1.200000 0.041000 0.049000
1517182660193582869	900 44 1.000000 0.198000 0.208000 900 42 0.900000 1.072000 1.008000 600 48 1.000000 0.052000 0.052000 1.200000 0.049000 0.059000
1517182660711750952	900 44 1.000000 0.246000 0.258000 900 41 0.900000 1.258000 1.185000 600 48 1.000000 0.052000 0.052000 1.200000 0.039000 0.047000
1517182661276945244	900 45 1.000000 0.264000 0.277000 900 42 0.900000 1.374000 1.295000 600 49 1.000000 0.052000 0.052000 1.200000 0.038000 0.045000
1517182661799041869	900 45 1.000000 0.175000 0.184000 900 42 0.900000 1.322000 1.245000 600 49 1.000000 0.051000 0.051000 1.200000 0.045000 0.054000
1517182662307478286	900 45 1.000000 0.211000 0.222000 900 42 0.900000 0.966000 0.909000 600 48 1.000000 0.052000 0.052000 1.200000 0.044000 0.053000
1517182662815763786	900 43 1.000000 0.259000 0.272000 900 42 0.900000 1.456000 1.371000 600 47 1.000000 0.052000 0.052000 1.200000 0.041000 0.049000
1517182663326007661	900 44 1.000000 0.146000 0.154000 900 41 0.900000 1.160000 1.096000 600 48 1.000000 0.052000 0.052000 1.200000 0.041000 0.049000
1517182663840461036	900 44 1.000000 0.231000 0.243000 900 41 0.900000 1.200000 1.130000 600 47 1.000000 0.051000 0.051000 1.200000 0.039000 0.047000
1517182664392968077	900 44 1.000000 0.250000 0.262000 900 42 0.900000 1.451000 1.366000 600 48 1.000000 0.052000 0.052000 1.200000 0.041000 0.049000
1517182664941978911	900 45 1.000000 0.272000 0.286000 900 42 0.900000 1.345000 1.268000 600 49 1.000000 0.052000 0.052000 1.200000 0.042000 0.050000
1517182665450216619	900 45 1.000000 0.239000 0.251000 900 42 0.900000 1.022000 0.961000 600 49 1.000000 0.052000 0.052000 1.200000 0.042000 0.050000
1517182665959159411	900 44 1.000000 0.253000 0.265000 900 42 0.900000 1.449000 1.364000 600 47 1.000000 0.052000 0.052000 1.200000 0.041000 0.049000
1517182666494602244	900 45 1.000000 0.210000 0.221000 900 42 0.900000 1.370000 1.290000 600 49 1.000000 0.052000 0.052000 1.200000 0.046000 0.055000
1517182667048964703	900 45 1.000000 0.170000 0.179000 900 42 0.900000 1.386000 1.304000 600 48 1.000000 0.052000 0.052000 1.200000 0.046000 0.055000
1517182667558116953	900 45 1.000000 0.244000 0.256000 900 42 0.900000 1.399000 1.317000 600 49 1.000000 0.052000 0.052000 1.200000 0.042000 0.050000
1517182668067269203	900 43 1.000000 0.254000 0.266000 900 41 0.900000 1.451000 1.368000 600 47 1.000000 0.052000 0.052000 1.200000 0.042000 0.050000
1517182668577420911	900 45 1.000000 0.258000 0.271000 900 42 0.900000 1.136000 1.070000 600 49 1.000000 0.052000 0.052000 1.200000 0.045000 0.054000
1517182669148890745	900 44 1.000000 0.172000 0.181000 900 42 0.900000 1.056000 0.993000 600 49 1.000000 0.052000 0.052000 1.200000 0.042000 0.050000
1517182669657778620	900 45 1.000000 0.170000 0.179000 900 42 0.900000 1.452000 1.369000 600 48 1.000000 0.052000 0.052000 1.200000 0.041000 0.049000
1517182670166463245	900 43 1.000000 0.261000 0.274000 900 41 0.900000 1.356000 1.277000 600 47 1.000000 0.052000 0.052000 1.200000 0.040000 0.048000
1517182670713056828	900 44 1.000000 0.241000 0.253000 900 42 0.900000 1.373000 1.293000 600 48 1.000000 0.052000 0.052000 1.200000 0.047000 0.056000
1517182671237528078	900 45 1.000000 0.249000 0.261000 900 42 0.900000 1.062000 0.999000 600 49 1.000000 0.052000 0.052000 1.200000 0.044000 0.053000
1517182671800907787	900 45 1.000000 0.265000 0.278000 900 42 0.900000 1.342000 1.264000 600 48 1.000000 0.052000 0.052000 1.200000 0.042000 0.050000
1517182672308984620	900 42 1.000000 0.239000 0.251000 900 41 0.900000 1.420000 1.339000 600 46 1.000000 0.052000 0.052000 1.200000 0.038000 0.045000
1517182672819517120	900 44 1.000000 0.135000 0.143000 900 41 0.900000 0.940000 0.889000 600 48 1.000000 0.052000 0.052000 1.200000 0.049000 0.059000
1517182673369011662	900 44 1.000000 0.204000 0.215000 900 41 0.900000 1.185000 1.119000 600 48 1.000000 0.052000 0.052000 1.200000 0.039000 0.047000
1517182673879392870	900 45 1.000000 0.259000 0.272000 900 41 0.900000 1.422000 1.340000 600 49 1.000000 0.052000 0.052000 1.200000 0.042000 0.050000
1517182674440333079	900 45 1.000000 0.179000 0.189000 900 41 0.900000 1.087000 1.022000 600 49 1.000000 0.052000 0.052000 1.200000 0.045000 0.054000
1517182674989065620	900 45 1.000000 0.163000 0.172000 900 41 0.900000 1.391000 1.311000 600 49 1.000000 0.052000 0.052000 1.200000 0.037000 0.044000
1517182675497886204	900 43 1.000000 0.251000 0.263000 900 42 0.900000 1.419000 1.338000 600 48 1.000000 0.051000 0.051000 1.200000 0.042000 0.050000
1517182676058455621	900 44 1.000000 0.205000 0.216000 900 41 0.900000 0.936000 0.881000 600 48 1.000000 0.052000 0.052000 1.200000 0.047000 0.056000
1517182676616998912	900 44 1.000000 0.105000 0.111000 900 41 0.900000 1.206000 1.139000 600 48 1.000000 0.052000 0.052000 1.200000 0.036000 0.043000
1517182677125130579	900 45 1.000000 0.243000 0.255000 900 42 0.900000 1.402000 1.322000 600 49 1.000000 0.051000 0.051000 1.200000 0.042000 0.050000
1517182677633557662	900 45 1.000000 0.246000 0.258000 900 42 0.900000 1.024000 0.964000 600 48 1.000000 0.052000 0.052000 1.200000 0.049000 0.059000
1517182678142045454	900 45 1.000000 0.257000 0.270000 900 42 0.900000 1.468000 1.384000 600 48 1.000000 0.052000 0.052000 1.200000 0.041000 0.049000
1517182678650950871	900 45 1.000000 0.233000 0.245000 900 42 0.900000 1.405000 1.323000 600 47 1.000000 0.051000 0.051000 1.200000 0.039000 0.047000
1517182679192904163	900 45 1.000000 0.180000 0.190000 900 42 0.900000 1.160000 1.092000 600 49 1.000000 0.052000 0.052000 1.200000 0.046000 0.055000
1517182679728492871	900 45 1.000000 0.192000 0.202000 900 42 0.900000 1.090000 1.025000 600 49 1.000000 0.052000 0.052000 1.200000 0.044000 0.053000
1517182680240976246	900 45 1.000000 0.249000 0.261000 900 42 0.900000 1.364000 1.286000 600 48 1.000000 0.052000 0.052000 1.200000 0.042000 0.050000
1517182680792909246	900 45 1.000000 0.257000 0.270000 900 42 0.900000 1.353000 1.275000 600 49 1.000000 0.052000 0.052000 1.200000 0.042000 0.050000
1517182681331969621	900 45 1.000000 0.185000 0.195000 900 42 0.900000 1.072000 1.008000 600 49 1.000000 0.052000 0.052000 1.200000 0.048000 0.057000
1517182681846820580	900 45 1.000000 0.218000 0.229000 900 42 0.900000 1.443000 1.359000 600 49 1.000000 0.052000 0.052000 1.200000 0.039000 0.047000
1517182682356998288	900 45 1.000000 0.250000 0.263000 900 41 0.900000 1.352000 1.274000 600 49 1.000000 0.052000 0.052000 1.200000 0.040000 0.048000
1517182682878451288	900 45 1.000000 0.240000 0.252000 900 42 0.900000 1.066000 1.003000 600 49 1.000000 0.052000 0.052000 1.200000 0.048000 0.057000
1517182683395342330	900 45 1.000000 0.173000 0.182000 900 42 0.900000 1.272000 1.198000 600 49 1.000000 0.052000 0.052000 1.200000 0.041000 0.049000
1517182683903516788	900 43 1.000000 0.252000 0.264000 900 42 0.900000 1.461000 1.377000 600 48 1.000000 0.052000 0.052000 1.200000 0.040000 0.048000
1517182684412032455	900 45 1.000000 0.137000 0.145000 900 42 0.900000 0.761000 0.719000 600 48 1.000000 0.052000 0.052000 1.200000 0.048000 0.057000
1517182684949065205	900 44 1.000000 0.252000 0.264000 900 41 0.900000 1.435000 1.351000 600 48 1.000000 0.052000 0.052000 1.200000 0.041000 0.049000
1517182685483738038	900 45 1.000000 0.257000 0.269000 900 42 0.900000 1.367000 1.289000 600 49 1.000000 0.051000 0.051000 1.200000 0.042000 0.050000
1517182685995792330	900 45 1.000000 0.166000 0.175000 900 42 0.900000 1.248000 1.175000 600 49 1.000000 0.052000 0.052000 1.200000 0.045000 0.054000
1517182686508713455	900 45 1.000000 0.198000 0.209000 900 42 0.900000 1.081000 1.017000 600 49 1.000000 0.052000 0.052000 1.200000 0.042000 0.050000
1517182687017556955	900 44 1.000000 0.227000 0.239000 900 42 0.900000 1.323000 1.247000 600 48 1.000000 0.052000 0.052000 1.200000 0.038000 0.045000
1517182687531016830	900 44 1.000000 0.178000 0.188000 900 42 0.900000 1.064000 1.001000 600 48 1.000000 0.052000 0.052000 1.200000 0.045000 0.054000
1517182688045626039	900 43 1.000000 0.226000 0.238000 900 41 0.900000 1.257000 1.187000 600 47 1.000000 0.052000 0.052000 1.200000 0.041000 0.049000
1517182688554019414	900 45 1.000000 0.212000 0.224000 900 42 0.900000 1.038000 0.980000 600 48 1.000000 0.052000 0.052000 1.200000 0.047000 0.056000
1517182689112924164	900 45 1.000000 0.172000 0.181000 900 42 0.900000 1.143000 1.076000 600 48 1.000000 0.052000 0.052000 1.200000 0.042000 0.050000
1517182689623666289	900 43 1.000000 0.254000 0.266000 900 41 0.900000 1.432000 1.350000 600 47 1.000000 0.052000 0.052000 1.200000 0.039000 0.047000
1517182690168033456	900 45 1.000000 0.217000 0.229000 900 41 0.900000 0.979000 0.925000 600 48 1.000000 0.051000 0.051000 1.200000 0.048000 0.057000
1517182690676775706	900 45 1.000000 0.170000 0.178000 900 41 0.900000 1.282000 1.207000 600 49 1.000000 0.052000 0.052000 1.200000 0.044000 0.053000
1517182691184774414	900 42 1.000000 0.263000 0.276000 900 41 0.900000 1.446000 1.363000 600 46 1.000000 0.052000 0.052000 1.200000 0.039000 0.047000
1517182691703182372	900 45 1.000000 0.144000 0.152000 900 41 0.900000 0.802000 0.758000 600 48 1.000000 0.052000 0.052000 1.200000 0.049000 0.059000
1517182692240950956	900 44 1.000000 0.262000 0.275000 900 41 0.900000 1.406000 1.324000 600 48 1.000000 0.052000 0.052000 1.200000 0.039000 0.047000
1517182692749973373	900 43 1.000000 0.259000 0.272000 900 41 0.900000 1.383000 1.304000 600 47 1.000000 0.052000 0.052000 1.200000 0.042000 0.050000
1517182693259576831	900 45 1.000000 0.189000 0.199000 900 42 0.900000 1.355000 1.276000 600 49 1.000000 0.052000 0.052000 1.200000 0.046000 0.055000
1517182693768178498	900 44 1.000000 0.198000 0.209000 900 41 0.900000 0.638000 0.604000 600 48 1.000000 0.052000 0.052000 1.200000 0.044000 0.053000
1517182694278298664	900 44 1.000000 0.173000 0.183000 900 41 0.900000 1.375000 1.299000 600 48 1.000000 0.052000 0.052000 1.200000 0.035000 0.042000
1517182694820968123	900 44 1.000000 0.127000 0.135000 900 41 0.900000 1.009000 0.950000 600 48 1.000000 0.052000 0.052000 1.200000 0.045000 0.054000
1517182695329851539	900 44 1.000000 0.197000 0.207000 900 41 0.900000 1.177000 1.108000 600 48 1.000000 0.052000 0.052000 1.200000 0.043000 0.051000
1517182695838859331	900 43 1.000000 0.188000 0.198000 900 41 0.900000 1.243000 1.174000 600 47 1.000000 0.052000 0.052000 1.200000 0.038000 0.045000
1517182696364614456	900 45 1.000000 0.269000 0.282000 900 42 0.900000 1.395000 1.315000 600 49 1.000000 0.052000 0.052000 1.200000 0.044000 0.053000
1517182696924977540	900 45 1.000000 0.231000 0.243000 900 41 0.900000 1.053000 0.990000 600 48 1.000000 0.052000 0.052000 1.200000 0.047000 0.056000
1517182697434533998	900 43 1.000000 0.268000 0.281000 900 41 0.900000 0.935000 0.884000 600 47 1.000000 0.052000 0.052000 1.200000 0.042000 0.050000
1517182697972861623	900 45 1.000000 0.161000 0.170000 900 41 0.900000 1.405000 1.324000 600 48 1.000000 0.052000 0.052000 1.200000 0.037000 0.044000
1517182698544963540	900 45 1.000000 0.186000 0.196000 900 41 0.900000 1.284000 1.209000 600 48 1.000000 0.052000 0.052000 1.200000 0.046000 0.055000
1517182699097010540	900 44 1.000000 0.220000 0.231000 900 41 0.900000 1.041000 0.979000 600 48 1.000000 0.052000 0.052000 1.200000 0.047000 0.056000
1517182699607346082	900 44 1.000000 0.252000 0.264000 900 41 0.900000 1.344000 1.266000 600 49 1.000000 0.052000 0.052000 1.200000 0.039000 0.047000
1517182700145009207	900 44 1.000000 0.172000 0.181000 900 41 0.900000 1.211000 1.141000 600 49 1.000000 0.052000 0.052000 1.200000 0.039000 0.047000
1517182700655427998	900 44 1.000000 0.173000 0.182000 900 41 0.900000 1.047000 0.985000 600 49 1.000000 0.052000 0.052000 1.200000 0.044000 0.053000
1517182701212960165	900 44 1.000000 0.170000 0.180000 900 41 0.900000 1.304000 1.229000 600 48 1.000000 0.052000 0.052000 1.200000 0.036000 0.043000
1517182701721795415	900 43 1.000000 0.256000 0.268000 900 41 0.900000 1.389000 1.309000 600 48 1.000000 0.052000 0.052000 1.200000 0.040000 0.048000
1517182702258290374	900 45 1.000000 0.206000 0.217000 900 42 0.900000 1.400000 1.318000 600 49 1.000000 0.052000 0.052000 1.200000 0.046000 0.055000
1517182702800988707	900 45 1.000000 0.190000 0.200000 900 42 0.900000 1.119000 1.052000 600 48 1.000000 0.052000 0.052000 1.200000 0.048000 0.057000
1517182703310377332	900 44 1.000000 0.242000 0.254000 900 41 0.900000 1.360000 1.282000 600 47 1.000000 0.052000 0.052000 1.200000 0.037000 0.044000
1517182703868973874	900 44 1.000000 0.168000 0.178000 900 41 0.900000 1.365000 1.287000 600 49 1.000000 0.052000 0.052000 1.200000 0.038000 0.045000
1517182704420166541	900 45 1.000000 0.166000 0.175000 900 41 0.900000 1.067000 1.006000 600 49 1.000000 0.052000 0.052000 1.200000 0.045000 0.054000
1517182704928203166	900 42 1.000000 0.263000 0.276000 900 41 0.900000 1.473000 1.389000 600 46 1.000000 0.052000 0.052000 1.200000 0.040000 0.048000
1517182705455476416	900 45 1.000000 0.129000 0.136000 900 41 0.900000 0.656000 0.621000 600 48 1.000000 0.052000 0.052000 1.200000 0.043000 0.051000
1517182705963823416	900 45 1.000000 0.249000 0.261000 900 41 0.900000 1.424000 1.341000 600 48 1.000000 0.051000 0.051000 1.200000 0.042000 0.050000
1517182706472888457	900 43 1.000000 0.262000 0.275000 900 41 0.900000 1.269000 1.195000 600 47 1.000000 0.052000 0.052000 1.200000 0.047000 0.056000
1517182707032979458	900 45 1.000000 0.184000 0.194000 900 42 0.900000 1.077000 1.013000 600 48 1.000000 0.052000 0.052000 1.200000 0.042000 0.050000
1517182707543520708	900 44 1.000000 0.199000 0.210000 900 41 0.900000 1.344000 1.267000 600 47 1.000000 0.052000 0.052000 1.200000 0.038000 0.045000
1517182708088979083	900 45 1.000000 0.179000 0.189000 900 41 0.900000 0.902000 0.853000 600 48 1.000000 0.052000 0.052000 1.200000 0.048000 0.057000
1517182708628557208	900 45 1.000000 0.185000 0.195000 900 41 0.900000 1.336000 1.258000 600 49 1.000000 0.051000 0.051000 1.200000 0.039000 0.047000
1517182709141629416	900 45 1.000000 0.232000 0.244000 900 41 0.900000 1.422000 1.340000 600 48 1.000000 0.052000 0.052000 1.200000 0.042000 0.050000
1517182709650418041	900 44 1.000000 0.198000 0.209000 900 42 0.900000 1.325000 1.248000 600 49 1.000000 0.052000 0.052000 1.200000 0.048000 0.057000
1517182710159161458	900 44 1.000000 0.165000 0.175000 900 42 0.900000 0.927000 0.873000 600 48 1.000000 0.052000 0.052000 1.200000 0.042000 0.050000
1517182710683328541	900 45 1.000000 0.244000 0.256000 900 41 0.900000 1.468000 1.382000 600 48 1.000000 0.052000 0.052000 1.200000 0.040000 0.048000
1517182711192133958	900 43 1.000000 0.237000 0.249000 900 42 0.900000 1.481000 1.396000 600 48 1.000000 0.052000 0.052000 1.200000 0.045000 0.054000
1517182711756906375	900 45 1.000000 0.171000 0.180000 900 42 0.900000 1.055000 0.992000 600 49 1.000000 0.052000 0.052000 1.200000 0.046000 0.055000
1517182712286815375	900 45 1.000000 0.241000 0.253000 900 42 0.900000 1.456000 1.373000 600 49 1.000000 0.052000 0.052000 1.200000 0.040000 0.048000
1517182712804193583	900 44 1.000000 0.253000 0.265000 900 41 0.900000 1.461000 1.377000 600 47 1.000000 0.052000 0.052000 1.200000 0.040000 0.048000
1517182713312860667	900 45 1.000000 0.226000 0.237000 900 42 0.900000 1.059000 0.996000 600 49 1.000000 0.052000 0.052000 1.200000 0.046000 0.055000
1517182713821081208	900 45 1.000000 0.165000 0.174000 900 42 0.900000 1.312000 1.235000 600 49 1.000000 0.052000 0.052000 1.200000 0.042000 0.050000
1517182714341053542	900 44 1.000000 0.262000 0.275000 900 42 0.900000 1.474000 1.389000 600 48 1.000000 0.052000 0.052000 1.200000 0.040000 0.048000
1517182714907294708	900 45 1.000000 0.260000 0.273000 900 42 0.900000 1.381000 1.300000 600 49 1.000000 0.052000 0.052000 1.200000 0.046000 0.055000
1517182715417996250	900 45 1.000000 0.208000 0.219000 900 42 0.900000 1.063000 1.000000 600 49 1.000000 0.052000 0.052000 1.200000 0.043000 0.051000
1517182715976970292	900 45 1.000000 0.246000 0.258000 900 41 0.900000 1.188000 1.122000 600 48 1.000000 0.052000 0.052000 1.200000 0.039000 0.047000
1517182716485908459	900 45 1.000000 0.215000 0.226000 900 42 0.900000 1.433000 1.349000 600 48 1.000000 0.052000 0.052000 1.200000 0.043000 0.051000
1517182717048969167	900 45 1.000000 0.183000 0.193000 900 42 0.900000 1.034000 0.972000 600 49 1.000000 0.052000 0.052000 1.200000 0.045000 0.054000
1517182717579435542	900 45 1.000000 0.251000 0.264000 900 42 0.900000 1.411000 1.330000 600 49 1.000000 0.052000 0.052000 1.200000 0.041000 0.049000
1517182718121048542	900 44 1.000000 0.247000 0.259000 900 41 0.900000 1.361000 1.282000 600 48 1.000000 0.052000 0.052000 1.200000 0.041000 0.049000
1517182718638755126	900 45 1.000000 0.220000 0.231000 900 42 0.900000 1.209000 1.138000 600 49 1.000000 0.052000 0.052000 1.200000 0.047000 0.056000
1517182719164938042	900 45 1.000000 0.158000 0.167000 900 42 0.900000 1.072000 1.008000 600 48 1.000000 0.052000 0.052000 1.200000 0.046000 0.055000
1517182719725120167	900 45 1.000000 0.254000 0.267000 900 42 0.900000 1.476000 1.391000 600 49 1.000000 0.052000 0.052000 1.200000 0.042000 0.050000
1517182720237149084	900 45 1.000000 0.257000 0.270000 900 42 0.900000 1.449000 1.366000 600 48 1.000000 0.052000 0.052000 1.200000 0.041000 0.049000
1517182720783680501	900 45 1.000000 0.264000 0.277000 900 42 0.900000 1.116000 1.051000 600 49 1.000000 0.052000 0.052000 1.200000 0.046000 0.055000
1517182721292237709	900 45 1.000000 0.179000 0.189000 900 42 0.900000 1.088000 1.023000 600 49 1.000000 0.052000 0.052000 1.200000 0.042000 0.050000
1517182721852942001	900 45 1.000000 0.203000 0.214000 900 42 0.900000 1.321000 1.244000 600 49 1.000000 0.052000 0.052000 1.200000 0.042000 0.050000
1517182722367700001	900 44 1.000000 0.215000 0.226000 900 42 0.900000 1.383000 1.304000 600 47 1.000000 0.052000 0.052000 1.200000 0.042000 0.050000
1517182722913949626	900 45 1.000000 0.173000 0.183000 900 42 0.900000 1.090000 1.026000 600 49 1.000000 0.052000 0.052000 1.200000 0.047000 0.056000
1517182723424592293	900 44 1.000000 0.243000 0.255000 900 41 0.900000 0.926000 0.875000 600 48 1.000000 0.052000 0.052000 1.200000 0.043000 0.051000
1517182723933895835	900 43 1.000000 0.113000 0.120000 900 41 0.900000 1.320000 1.247000 600 47 1.000000 0.052000 0.052000 1.200000 0.038000 0.045000
1517182724484956210	900 45 1.000000 0.173000 0.182000 900 41 0.900000 1.008000 0.949000 600 48 1.000000 0.052000 0.052000 1.200000 0.049000 0.059000
1517182725020901543	900 45 1.000000 0.195000 0.205000 900 42 0.900000 1.085000 1.020000 600 48 1.000000 0.052000 0.052000 1.200000 0.042000 0.050000
1517182725548622168	900 45 1.000000 0.238000 0.249000 900 42 0.900000 1.431000 1.349000 600 49 1.000000 0.052000 0.052000 1.200000 0.042000 0.050000
1517182726062474376	900 45 1.000000 0.242000 0.254000 900 41 0.900000 1.392000 1.311000 600 48 1.000000 0.052000 0.052000 1.200000 0.041000 0.049000
1517182726582875002	900 45 1.000000 0.236000 0.248000 900 42 0.900000 1.282000 1.207000 600 49 1.000000 0.052000 0.052000 1.200000 0.046000 0.055000
1517182727091529543	900 45 1.000000 0.175000 0.184000 900 42 0.900000 1.054000 0.991000 600 48 1.000000 0.052000 0.052000 1.200000 0.042000 0.050000
1517182727644938835	900 45 1.000000 0.235000 0.247000 900 42 0.900000 1.405000 1.324000 600 48 1.000000 0.052000 0.052000 1.200000 0.040000 0.048000
1517182728153321377	900 44 1.000000 0.261000 0.274000 900 42 0.900000 1.417000 1.334000 600 48 1.000000 0.052000 0.052000 1.200000 0.041000 0.049000
1517182728697545877	900 45 1.000000 0.165000 0.174000 900 42 0.900000 1.084000 1.022000 600 49 1.000000 0.052000 0.052000 1.200000 0.048000 0.057000
1517182729205760460	900 45 1.000000 0.236000 0.248000 900 42 0.900000 1.281000 1.206000 600 49 1.000000 0.052000 0.052000 1.200000 0.043000 0.051000
1517182729724313460	900 45 1.000000 0.262000 0.275000 900 42 0.900000 1.430000 1.348000 600 48 1.000000 0.052000 0.052000 1.200000 0.039000 0.047000
1517182730290204460	900 45 1.000000 0.168000 0.177000 900 42 0.900000 1.375000 1.296000 600 49 1.000000 0.052000 0.052000 1.200000 0.046000 0.055000
1517182730806879127	900 45 1.000000 0.206000 0.217000 900 42 0.900000 1.062000 0.999000 600 49 1.000000 0.052000 0.052000 1.200000 0.048000 0.057000
1517182731360963002	900 45 1.000000 0.248000 0.260000 900 41 0.900000 1.302000 1.230000 600 48 1.000000 0.052000 0.052000 1.200000 0.039000 0.047000
1517182731869746377	900 44 1.000000 0.257000 0.270000 900 42 0.900000 1.431000 1.349000 600 49 1.000000 0.052000 0.052000 1.200000 0.039000 0.047000
1517182732420943752	900 45 1.000000 0.185000 0.195000 900 42 0.900000 1.052000 0.989000 600 49 1.000000 0.052000 0.052000 1.200000 0.045000 0.054000
1517182732968892211	900 45 1.000000 0.181000 0.191000 900 42 0.900000 1.090000 1.025000 600 49 1.000000 0.052000 0.052000 1.200000 0.049000 0.059000
1517182733483028794	900 44 1.000000 0.206000 0.217000 900 42 0.900000 1.266000 1.192000 600 48 1.000000 0.052000 0.052000 1.200000 0.040000 0.048000
1517182733993298419	900 45 1.000000 0.254000 0.267000 900 42 0.900000 1.402000 1.322000 600 48 1.000000 0.052000 0.052000 1.200000 0.039000 0.047000
1517182734504479086	900 44 1.000000 0.109000 0.116000 900 41 0.900000 1.046000 0.989000 600 48 1.000000 0.052000 0.052000 1.200000 0.038000 0.045000
1517182735072937336	900 45 1.000000 0.153000 0.162000 900 41 0.900000 1.201000 1.132000 600 49 1.000000 0.052000 0.052000 1.200000 0.040000 0.048000
1517182735632911336	900 44 1.000000 0.134000 0.142000 900 41 0.900000 1.098000 1.037000 600 48 1.000000 0.052000 0.052000 1.200000 0.047000 0.056000
1517182736141067503	900 42 1.000000 0.254000 0.266000 900 41 0.900000 1.221000 1.153000 600 46 1.000000 0.052000 0.052000 1.200000 0.037000 0.044000
1517182736684828836	900 44 1.000000 0.209000 0.220000 900 41 0.900000 1.261000 1.191000 600 48 1.000000 0.052000 0.052000 1.200000 0.040000 0.048000
1517182737225000586	900 44 1.000000 0.185000 0.195000 900 41 0.900000 1.094000 1.029000 600 48 1.000000 0.051000 0.051000 1.200000 0.046000 0.055000
1517182737733763711	900 45 1.000000 0.257000 0.270000 900 41 0.900000 1.409000 1.328000 600 47 1.000000 0.052000 0.052000 1.200000 0.038000 0.045000
1517182738296972878	900 45 1.000000 0.265000 0.278000 900 42 0.900000 1.405000 1.324000 600 49 1.000000 0.051000 0.051000 1.200000 0.039000 0.047000
1517182738834825920	900 45 1.000000 0.191000 0.202000 900 41 0.900000 1.086000 1.021000 600 49 1.000000 0.052000 0.052000 1.200000 0.045000 0.054000
1517182739343431836	900 44 1.000000 0.259000 0.272000 900 41 0.900000 1.277000 1.202000 600 48 1.000000 0.052000 0.052000 1.200000 0.037000 0.044000
1517182739904884086	900 45 1.000000 0.243000 0.255000 900 42 0.900000 1.410000 1.329000 600 49 1.000000 0.052000 0.052000 1.200000 0.038000 0.045000
1517182740424997545	900 45 1.000000 0.204000 0.215000 900 41 0.900000 1.206000 1.139000 600 48 1.000000 0.052000 0.052000 1.200000 0.046000 0.055000
1517182740996967878	900 44 1.000000 0.234000 0.247000 900 41 0.900000 1.123000 1.057000 600 49 1.000000 0.052000 0.052000 1.200000 0.041000 0.049000
1517182741506007170	900 45 1.000000 0.267000 0.280000 900 42 0.900000 1.399000 1.319000 600 48 1.000000 0.052000 0.052000 1.200000 0.037000 0.044000
1517182742052966337	900 45 1.000000 0.163000 0.172000 900 42 0.900000 0.988000 0.929000 600 49 1.000000 0.052000 0.052000 1.200000 0.041000 0.049000
1517182742594761462	900 45 1.000000 0.263000 0.276000 900 42 0.900000 1.454000 1.371000 600 49 1.000000 0.052000 0.052000 1.200000 0.048000 0.057000
1517182743105453337	900 44 1.000000 0.246000 0.258000 900 41 0.900000 1.432000 1.350000 600 48 1.000000 0.052000 0.052000 1.200000 0.038000 0.045000
1517182743616183629	900 45 1.000000 0.204000 0.214000 900 42 0.900000 1.097000 1.032000 600 49 1.000000 0.052000 0.052000 1.200000 0.040000 0.048000
1517182744144525004	900 45 1.000000 0.094000 0.099000 900 42 0.900000 1.350000 1.273000 600 49 1.000000 0.052000 0.052000 1.200000 0.045000 0.054000
1517182744662799129	900 45 1.000000 0.246000 0.258000 900 42 0.900000 1.358000 1.280000 600 48 1.000000 0.052000 0.052000 1.200000 0.039000 0.047000
1517182745205157170	900 45 1.000000 0.257000 0.270000 900 42 0.900000 1.293000 1.218000 600 49 1.000000 0.052000 0.052000 1.200000 0.048000 0.057000
1517182745713751920	900 45 1.000000 0.216000 0.228000 900 42 0.900000 1.126000 1.059000 600 49 1.000000 0.052000 0.052000 1.200000 0.043000 0.051000
1517182746276893379	900 45 1.000000 0.180000 0.190000 900 42 0.900000 1.458000 1.374000 600 49 1.000000 0.052000 0.052000 1.200000 0.041000 0.049000
1517182746795478254	900 44 1.000000 0.255000 0.267000 900 42 0.900000 1.430000 1.348000 600 48 1.000000 0.051000 0.051000 1.200000 0.040000 0.048000
1517182747338321296	900 45 1.000000 0.188000 0.198000 900 42 0.900000 1.138000 1.071000 600 49 1.000000 0.052000 0.052000 1.200000 0.045000 0.054000
1517182747900939754	900 45 1.000000 0.180000 0.190000 900 42 0.900000 1.046000 0.984000 600 48 1.000000 0.052000 0.052000 1.200000 0.041000 0.049000
1517182748413836712	900 45 1.000000 0.246000 0.258000 900 42 0.900000 1.439000 1.356000 600 49 1.000000 0.052000 0.052000 1.200000 0.039000 0.047000
1517182748980930629	900 45 1.000000 0.249000 0.261000 900 42 0.900000 1.416000 1.335000 600 48 1.000000 0.052000 0.052000 1.200000 0.040000 0.048000
1517182749489675629	900 43 1.000000 0.249000 0.261000 900 42 0.900000 1.232000 1.161000 600 49 1.000000 0.052000 0.052000 1.200000 0.045000 0.054000
1517182750021631254	900 45 1.000000 0.173000 0.182000 900 42 0.900000 0.964000 0.908000 600 49 1.000000 0.052000 0.052000 1.200000 0.042000 0.050000
1517182750532116421	900 45 1.000000 0.193000 0.203000 900 42 0.900000 1.369000 1.290000 600 49 1.000000 0.052000 0.052000 1.200000 0.038000 0.045000
1517182751041356504	900 44 1.000000 0.211000 0.223000 900 41 0.900000 1.228000 1.160000 600 48 1.000000 0.052000 0.052000 1.200000 0.039000 0.047000
1517182751576430255	900 45 1.000000 0.257000 0.270000 900 42 0.900000 1.121000 1.055000 600 49 1.000000 0.052000 0.052000 1.200000 0.049000 0.059000
1517182752086257380	900 44 1.000000 0.174000 0.183000 900 42 0.900000 1.062000 0.999000 600 48 1.000000 0.052000 0.052000 1.200000 0.045000 0.054000
1517182752605715046	900 44 1.000000 0.170000 0.180000 900 41 0.900000 1.317000 1.241000 600 47 1.000000 0.052000 0.052000 1.200000 0.038000 0.045000
1517182753148925380	900 44 1.000000 0.164000 0.173000 900 42 0.900000 1.223000 1.155000 600 48 1.000000 0.052000 0.052000 1.200000 0.045000 0.054000
1517182753667160463	900 45 1.000000 0.215000 0.226000 900 42 0.900000 1.022000 0.962000 600 49 1.000000 0.052000 0.052000 1.200000 0.044000 0.053000
1517182754227142046	900 45 1.000000 0.256000 0.269000 900 42 0.900000 1.428000 1.346000 600 49 1.000000 0.052000 0.052000 1.200000 0.041000 0.049000
1517182754737317588	900 44 1.000000 0.255000 0.267000 900 41 0.900000 1.372000 1.293000 600 48 1.000000 0.052000 0.052000 1.200000 0.041000 0.049000
1517182755299705630	900 45 1.000000 0.192000 0.202000 900 42 0.900000 1.184000 1.118000 600 49 1.000000 0.052000 0.052000 1.200000 0.047000 0.056000
1517182755860913005	900 44 1.000000 0.177000 0.187000 900 41 0.900000 1.054000 0.991000 600 48 1.000000 0.052000 0.052000 1.200000 0.040000 0.048000
1517182756416949422	900 44 1.000000 0.241000 0.253000 900 41 0.900000 1.246000 1.177000 600 48 1.000000 0.052000 0.052000 1.200000 0.040000 0.048000
1517182756925765547	900 45 1.000000 0.242000 0.254000 900 42 0.900000 1.328000 1.252000 600 48 1.000000 0.052000 0.052000 1.200000 0.047000 0.056000
1517182757504949880	900 45 1.000000 0.191000 0.202000 900 42 0.900000 1.020000 0.959000 600 49 1.000000 0.051000 0.051000 1.200000 0.045000 0.054000
1517182758014477547	900 45 1.000000 0.182000 0.192000 900 42 0.900000 1.085000 1.020000 600 49 1.000000 0.052000 0.052000 1.200000 0.044000 0.053000
1517182758545107422	900 44 1.000000 0.184000 0.194000 900 41 0.900000 1.414000 1.333000 600 48 1.000000 0.052000 0.052000 1.200000 0.039000 0.047000
1517182759093453380	900 45 1.000000 0.255000 0.269000 900 42 0.900000 1.325000 1.249000 600 49 1.000000 0.052000 0.052000 1.200000 0.040000 0.048000
1517182759601745964	900 45 1.000000 0.255000 0.269000 900 42 0.900000 1.265000 1.191000 600 49 1.000000 0.052000 0.052000 1.200000 0.046000 0.055000
1517182760109985297	900 45 1.000000 0.245000 0.257000 900 42 0.900000 1.037000 0.975000 600 48 1.000000 0.052000 0.052000 1.200000 0.042000 0.050000
1517182760619635297	900 45 1.000000 0.180000 0.190000 900 42 0.900000 1.492000 1.406000 600 49 1.000000 0.052000 0.052000 1.200000 0.046000 0.055000
1517182761127824297	900 45 1.000000 0.157000 0.166000 900 42 0.900000 1.041000 0.979000 600 49 1.000000 0.052000 0.052000 1.200000 0.043000 0.051000
1517182761636068714	900 45 1.000000 0.260000 0.273000 900 42 0.900000 1.421000 1.340000 600 49 1.000000 0.052000 0.052000 1.200000 0.039000 0.047000
1517182762144757131	900 44 1.000000 0.239000 0.251000 900 42 0.900000 1.428000 1.346000 600 48 1.000000 0.052000 0.052000 1.200000 0.043000 0.051000
1517182762700952381	900 45 1.000000 0.168000 0.177000 900 42 0.900000 1.059000 0.997000 600 49 1.000000 0.052000 0.052000 1.200000 0.049000 0.059000
1517182763233942881	900 45 1.000000 0.234000 0.246000 900 42 0.900000 1.324000 1.247000 600 49 1.000000 0.052000 0.052000 1.200000 0.038000 0.045000
1517182763744893298	900 45 1.000000 0.254000 0.266000 900 42 0.900000 1.442000 1.359000 600 48 1.000000 0.052000 0.052000 1.200000 0.040000 0.048000
1517182764255264631	900 44 1.000000 0.255000 0.268000 900 42 0.900000 1.343000 1.266000 600 48 1.000000 0.052000 0.052000 1.200000 0.046000 0.055000
1517182764765886256	900 44 1.000000 0.106000 0.112000 900 41 0.900000 0.889000 0.840000 600 48 1.000000 0.052000 0.052000 1.200000 0.039000 0.047000
1517182765328967923	900 45 1.000000 0.147000 0.156000 900 41 0.900000 1.218000 1.151000 600 48 1.000000 0.052000 0.052000 1.200000 0.036000 0.043000
1517182765839210923	900 44 1.000000 0.170000 0.179000 900 41 0.900000 1.013000 0.954000 600 48 1.000000 0.052000 0.052000 1.200000 0.047000 0.056000
1517182766355037423	900 44 1.000000 0.183000 0.193000 900 41 0.900000 1.218000 1.151000 600 47 1.000000 0.052000 0.052000 1.200000 0.037000 0.044000
1517182766900929048	900 44 1.000000 0.170000 0.179000 900 41 0.900000 1.425000 1.343000 600 48 1.000000 0.052000 0.052000 1.200000 0.045000 0.054000
1517182767409226923	900 44 1.000000 0.235000 0.247000 900 41 0.900000 0.608000 0.575000 600 48 1.000000 0.052000 0.052000 1.200000 0.046000 0.055000
1517182767917392590	900 43 1.000000 0.178000 0.188000 900 41 0.900000 1.365000 1.287000 600 48 1.000000 0.052000 0.052000 1.200000 0.039000 0.047000
1517182768427764965	900 44 1.000000 0.119000 0.126000 900 41 0.900000 0.393000 0.372000 600 48 1.000000 0.052000 0.052000 1.200000 0.049000 0.059000
1517182768939233257	900 43 1.000000 0.210000 0.221000 900 41 0.900000 1.343000 1.266000 600 48 1.000000 0.052000 0.052000 1.200000 0.038000 0.045000
1517182769447490132	900 45 1.000000 0.256000 0.268000 900 42 0.900000 1.414000 1.333000 600 49 1.000000 0.051000 0.051000 1.200000 0.041000 0.049000
1517182769955718715	900 45 1.000000 0.185000 0.195000 900 42 0.900000 1.049000 0.988000 600 49 1.000000 0.052000 0.052000 1.200000 0.047000 0.056000
1517182770464598673	900 43 1.000000 0.204000 0.215000 900 41 0.900000 1.353000 1.275000 600 47 1.000000 0.052000 0.052000 1.200000 0.037000 0.044000
1517182770972926257	900 45 1.000000 0.260000 0.273000 900 42 0.900000 1.405000 1.324000 600 49 1.000000 0.052000 0.052000 1.200000 0.039000 0.047000
1517182771511916049	900 45 1.000000 0.155000 0.164000 900 41 0.900000 1.140000 1.075000 600 49 1.000000 0.051000 0.051000 1.200000 0.049000 0.059000
1517182772020767840	900 44 1.000000 0.185000 0.195000 900 41 0.900000 1.242000 1.169000 600 48 1.000000 0.052000 0.052000 1.200000 0.039000 0.047000
1517182772572917674	900 45 1.000000 0.266000 0.279000 900 42 0.900000 1.386000 1.306000 600 49 1.000000 0.052000 0.052000 1.200000 0.038000 0.045000
1517182773097241299	900 45 1.000000 0.172000 0.181000 900 42 0.900000 1.434000 1.352000 600 49 1.000000 0.051000 0.051000 1.200000 0.045000 0.054000
1517182773605844174	900 44 1.000000 0.242000 0.254000 900 42 0.900000 1.112000 1.047000 600 48 1.000000 0.052000 0.052000 1.200000 0.043000 0.051000
1517182774115504424	900 43 1.000000 0.258000 0.270000 900 41 0.900000 1.451000 1.366000 600 47 1.000000 0.052000 0.052000 1.200000 0.039000 0.047000
1517182774643192757	900 45 1.000000 0.247000 0.259000 900 42 0.900000 1.380000 1.301000 600 49 1.000000 0.052000 0.052000 1.200000 0.038000 0.045000
1517182775183072966	900 45 1.000000 0.139000 0.147000 900 41 0.900000 1.208000 1.141000 600 49 1.000000 0.052000 0.052000 1.200000 0.042000 0.050000
1517182775691989216	900 44 1.000000 0.203000 0.214000 900 41 0.900000 1.160000 1.092000 600 48 1.000000 0.052000 0.052000 1.200000 0.039000 0.047000
1517182776241448716	900 45 1.000000 0.250000 0.262000 900 42 0.900000 1.398000 1.316000 600 49 1.000000 0.052000 0.052000 1.200000 0.038000 0.045000
1517182776800951549	900 45 1.000000 0.249000 0.261000 900 42 0.900000 1.463000 1.379000 600 49 1.000000 0.052000 0.052000 1.200000 0.043000 0.051000
1517182777344948299	900 45 1.000000 0.197000 0.208000 900 42 0.900000 1.223000 1.152000 600 48 1.000000 0.052000 0.052000 1.200000 0.047000 0.056000
1517182777867082424	900 45 1.000000 0.171000 0.180000 900 42 0.900000 1.060000 0.997000 600 49 1.000000 0.052000 0.052000 1.200000 0.045000 0.054000
1517182778375755424	900 45 1.000000 0.157000 0.166000 900 42 0.900000 1.354000 1.279000 600 48 1.000000 0.052000 0.052000 1.200000 0.036000 0.043000
1517182778924964091	900 45 1.000000 0.177000 0.186000 900 42 0.900000 1.471000 1.385000 600 49 1.000000 0.052000 0.052000 1.200000 0.042000 0.050000
1517182779474182175	900 45 1.000000 0.185000 0.195000 900 42 0.900000 1.163000 1.095000 600 49 1.000000 0.052000 0.052000 1.200000 0.048000 0.057000
1517182780030875550	900 45 1.000000 0.239000 0.252000 900 42 0.900000 1.263000 1.191000 600 48 1.000000 0.052000 0.052000 1.200000 0.046000 0.055000
1517182780574877425	900 45 1.000000 0.266000 0.279000 900 42 0.900000 1.383000 1.304000 600 49 1.000000 0.051000 0.051000 1.200000 0.038000 0.045000
1517182781083714383	900 43 1.000000 0.256000 0.268000 900 41 0.900000 1.416000 1.335000 600 47 1.000000 0.052000 0.052000 1.200000 0.040000 0.048000
1517182781632987883	900 45 1.000000 0.219000 0.230000 900 42 0.900000 1.030000 0.969000 600 48 1.000000 0.052000 0.052000 1.200000 0.039000 0.047000
1517182782153588508	900 45 1.000000 0.175000 0.184000 900 42 0.900000 1.205000 1.135000 600 49 1.000000 0.052000 0.052000 1.200000 0.047000 0.056000
1517182782662031133	900 43 1.000000 0.233000 0.245000 900 41 0.900000 1.431000 1.348000 600 47 1.000000 0.052000 0.052000 1.200000 0.042000 0.050000
1517182783220944758	900 45 1.000000 0.207000 0.218000 900 42 0.900000 1.108000 1.047000 600 48 1.000000 0.052000 0.052000 1.200000 0.039000 0.047000
1517182783752455883	900 45 1.000000 0.176000 0.186000 900 42 0.900000 1.132000 1.065000 600 49 1.000000 0.051000 0.051000 1.200000 0.047000 0.056000
1517182784260534008	900 45 1.000000 0.190000 0.200000 900 42 0.900000 1.433000 1.351000 600 49 1.000000 0.052000 0.052000 1.200000 0.039000 0.047000
1517182784768599133	900 44 1.000000 0.245000 0.257000 900 42 0.900000 1.371000 1.292000 600 49 1.000000 0.051000 0.051000 1.200000 0.044000 0.053000
1517182785280966467	900 44 1.000000 0.103000 0.109000 900 41 0.900000 0.600000 0.568000 600 48 1.000000 0.052000 0.052000 1.200000 0.041000 0.049000
1517182785799331550	900 43 1.000000 0.218000 0.230000 900 41 0.900000 1.344000 1.267000 600 47 1.000000 0.052000 0.052000 1.200000 0.038000 0.045000
1517182786312209175	900 45 1.000000 0.203000 0.213000 900 42 0.900000 1.232000 1.160000 600 49 1.000000 0.052000 0.052000 1.200000 0.047000 0.056000
1517182786820374259	900 45 1.000000 0.161000 0.170000 900 42 0.900000 1.062000 0.999000 600 49 1.000000 0.052000 0.052000 1.200000 0.041000 0.049000
1517182787333011259	900 44 1.000000 0.167000 0.176000 900 41 0.900000 1.395000 1.315000 600 47 1.000000 0.052000 0.052000 1.200000 0.038000 0.045000
1517182787896943634	900 45 1.000000 0.258000 0.270000 900 42 0.900000 1.436000 1.352000 600 48 1.000000 0.052000 0.052000 1.200000 0.045000 0.054000
1517182788420594176	900 45 1.000000 0.186000 0.196000 900 42 0.900000 1.061000 0.998000 600 49 1.000000 0.052000 0.052000 1.200000 0.043000 0.051000
1517182788929448509	900 44 1.000000 0.176000 0.186000 900 42 0.900000 1.393000 1.313000 600 48 1.000000 0.052000 0.052000 1.200000 0.039000 0.047000
1517182789437486467	900 44 1.000000 0.171000 0.180000 900 42 0.900000 1.396000 1.316000 600 48 1.000000 0.052000 0.052000 1.200000 0.038000 0.045000
1517182789947780092	900 44 1.000000 0.195000 0.206000 900 41 0.900000 0.493000 0.466000 600 48 1.000000 0.051000 0.051000 1.200000 0.050000 0.060000
1517182790456363967	900 42 1.000000 0.203000 0.214000 900 41 0.900000 1.378000 1.299000 600 46 1.000000 0.052000 0.052000 1.200000 0.038000 0.045000
1517182790972065718	900 45 1.000000 0.139000 0.147000 900 41 0.900000 0.512000 0.484000 600 48 1.000000 0.052000 0.052000 1.200000 0.045000 0.054000
1517182791488285593	900 44 1.000000 0.207000 0.217000 900 41 0.900000 1.365000 1.287000 600 48 1.000000 0.051000 0.051000 1.200000 0.039000 0.047000
1517182791996999593	900 43 1.000000 0.183000 0.193000 900 41 0.900000 1.416000 1.335000 600 48 1.000000 0.052000 0.052000 1.200000 0.046000 0.055000
1517182792549005009	900 45 1.000000 0.165000 0.174000 900 41 0.900000 1.051000 0.990000 600 48 1.000000 0.052000 0.052000 1.200000 0.043000 0.051000
1517182793104887134	900 44 1.000000 0.234000 0.246000 900 42 0.900000 1.420000 1.339000 600 48 1.000000 0.051000 0.051000 1.200000 0.040000 0.048000
1517182793640197135	900 45 1.000000 0.208000 0.219000 900 41 0.900000 1.236000 1.164000 600 48 1.000000 0.052000 0.052000 1.200000 0.038000 0.045000
1517182794149059801	900 44 1.000000 0.179000 0.189000 900 42 0.900000 1.440000 1.357000 600 48 1.000000 0.052000 0.052000 1.200000 0.035000 0.042000
1517182794712964885	900 45 1.000000 0.181000 0.191000 900 42 0.900000 1.060000 0.997000 600 48 1.000000 0.052000 0.052000 1.200000 0.041000 0.049000
1517182795220749218	900 41 1.000000 0.089000 0.094000 900 41 0.900000 0.806000 0.759000 600 45 1.000000 0.052000 0.052000 1.200000 0.043000 0.051000
1517182795728200676	900 40 1.000000 0.041000 0.043000 900 40 0.900000 0.100000 0.095000 600 44 1.000000 0.051000 0.051000 1.200000 0.023000 0.027000
