#Timestamp	CPU(0) Frequency(MHz)	CPU(0) Temperature(C)	A7 Voltage(V)	A7 Current(A)	A7 Power(W)	CPU(4) Frequency(MHz)	CPU(4) Temperature(C)	A15 Voltage(V)	A15 Current(A)	A15 Power(W)	GPU Frequency(MHz)	GPU Temperature(C)	GPU Voltage(V)	GPU Current(A)	GPU Power(W)	RAM Voltage(V)	RAM Current(A)	RAM Power(W)
1517921525541948532	300 33 1.000000 0.053000 0.054000 1400 32 1.000000 0.252000 0.270000 600 37 1.000000 0.052000 0.052000 1.200000 0.044000 0.053000
1517921526051647865	300 39 0.900000 0.042000 0.038000 1400 34 1.000000 2.048000 2.195000 600 43 1.000000 0.052000 0.052000 1.200000 0.041000 0.049000
1517921526561952573	300 38 0.900000 0.068000 0.062000 1400 34 1.000000 1.970000 2.113000 600 43 1.000000 0.052000 0.052000 1.200000 0.033000 0.039000
1517921527071779115	300 41 0.900000 0.061000 0.055000 1400 35 1.000000 1.984000 2.128000 600 46 1.000000 0.052000 0.052000 1.200000 0.042000 0.050000
1517921527583491532	300 42 0.900000 0.054000 0.049000 1400 35 1.000000 1.687000 1.806000 600 46 1.000000 0.052000 0.052000 1.200000 0.041000 0.049000
1517921528093632074	300 40 0.900000 0.079000 0.072000 1400 36 1.000000 2.043000 2.192000 600 45 1.000000 0.052000 0.052000 1.200000 0.051000 0.061000
1517921528603477865	300 43 0.900000 0.069000 0.062000 1400 36 1.000000 2.000000 2.144000 600 48 1.000000 0.052000 0.052000 1.200000 0.037000 0.044000
1517921529112917324	300 43 0.900000 0.056000 0.051000 1400 37 1.000000 1.881000 2.018000 600 48 1.000000 0.052000 0.052000 1.200000 0.044000 0.053000
1517921529622993699	300 40 0.900000 0.068000 0.062000 1400 37 1.000000 1.997000 2.142000 600 46 1.000000 0.052000 0.052000 1.200000 0.034000 0.041000
1517921530132941365	300 44 0.900000 0.056000 0.051000 1400 37 1.000000 1.775000 1.902000 600 49 1.000000 0.052000 0.052000 1.200000 0.047000 0.056000
1517921530642923157	300 44 0.900000 0.063000 0.057000 1400 37 1.000000 1.982000 2.126000 600 48 1.000000 0.052000 0.052000 1.200000 0.038000 0.045000
1517921531162253616	300 43 0.900000 0.072000 0.065000 1400 37 1.000000 1.999000 2.144000 600 46 1.000000 0.052000 0.052000 1.200000 0.035000 0.042000
1517921531673570991	300 44 0.900000 0.058000 0.052000 1400 38 1.000000 1.574000 1.687000 600 49 1.000000 0.052000 0.052000 1.200000 0.045000 0.054000
1517921532183246074	300 44 0.900000 0.069000 0.062000 1400 38 1.000000 1.984000 2.128000 600 49 1.000000 0.052000 0.052000 1.200000 0.039000 0.047000
1517921532693162449	300 44 0.900000 0.068000 0.062000 1400 38 1.000000 1.977000 2.121000 600 48 1.000000 0.052000 0.052000 1.200000 0.034000 0.041000
1517921533203058449	300 43 0.900000 0.063000 0.057000 1400 38 1.000000 1.622000 1.738000 600 48 1.000000 0.053000 0.053000 1.200000 0.035000 0.042000
1517921533712799741	300 44 0.900000 0.054000 0.049000 1400 38 1.000000 1.901000 2.037000 600 49 1.000000 0.053000 0.053000 1.200000 0.045000 0.054000
1517921534222607449	300 44 0.900000 0.069000 0.062000 1400 38 1.000000 1.986000 2.130000 600 49 1.000000 0.052000 0.052000 1.200000 0.033000 0.039000
1517921534732122074	300 44 0.900000 0.068000 0.062000 1400 38 1.000000 2.002000 2.148000 600 49 1.000000 0.053000 0.053000 1.200000 0.032000 0.038000
1517921535241754116	300 44 0.900000 0.057000 0.052000 1400 38 1.000000 1.633000 1.750000 600 49 1.000000 0.053000 0.053000 1.200000 0.045000 0.054000
1517921535751411824	300 45 0.900000 0.064000 0.058000 1400 38 1.000000 1.978000 2.122000 600 49 1.000000 0.053000 0.053000 1.200000 0.044000 0.053000
1517921536260780950	300 45 0.900000 0.067000 0.061000 1400 38 1.000000 1.956000 2.098000 600 50 1.000000 0.052000 0.052000 1.200000 0.033000 0.039000
1517921536770548241	300 45 0.900000 0.069000 0.062000 1400 38 1.000000 1.833000 1.963000 600 50 1.000000 0.053000 0.053000 1.200000 0.042000 0.050000
1517921537280370283	300 45 0.900000 0.069000 0.062000 1400 38 1.000000 1.991000 2.136000 600 50 1.000000 0.052000 0.052000 1.200000 0.043000 0.051000
1517921537789988991	300 45 0.900000 0.058000 0.052000 1400 38 1.000000 1.712000 1.835000 600 50 1.000000 0.052000 0.052000 1.200000 0.037000 0.044000
1517921538299741700	300 45 0.900000 0.068000 0.062000 1400 39 1.000000 1.941000 2.080000 600 50 1.000000 0.053000 0.053000 1.200000 0.057000 0.068000
1517921538809375075	300 45 0.900000 0.071000 0.064000 1400 38 1.000000 1.996000 2.141000 600 50 1.000000 0.053000 0.053000 1.200000 0.035000 0.042000
1517921539327289533	300 45 0.900000 0.070000 0.063000 1400 39 1.000000 2.019000 2.166000 600 50 1.000000 0.053000 0.053000 1.200000 0.034000 0.041000
1517921539838350242	300 45 0.900000 0.059000 0.053000 1400 39 1.000000 1.619000 1.733000 600 49 1.000000 0.053000 0.053000 1.200000 0.046000 0.055000
1517921540348046992	300 45 0.900000 0.069000 0.062000 1400 39 1.000000 1.980000 2.124000 600 50 1.000000 0.053000 0.053000 1.200000 0.035000 0.042000
1517921540858174742	300 42 0.900000 0.071000 0.064000 1400 38 1.000000 1.983000 2.127000 600 47 1.000000 0.053000 0.053000 1.200000 0.041000 0.049000
1517921541368091367	300 45 0.900000 0.067000 0.061000 1400 39 1.000000 1.862000 1.994000 600 50 1.000000 0.053000 0.053000 1.200000 0.037000 0.044000
1517921541877807575	300 45 0.900000 0.058000 0.053000 1400 39 1.000000 1.824000 1.955000 600 50 1.000000 0.053000 0.053000 1.200000 0.043000 0.052000
1517921542387438909	300 45 0.900000 0.067000 0.061000 1400 39 1.000000 2.017000 2.164000 600 51 1.000000 0.053000 0.053000 1.200000 0.034000 0.041000
1517921542897052617	300 45 0.900000 0.068000 0.062000 1400 39 1.000000 2.002000 2.148000 600 50 1.000000 0.053000 0.053000 1.200000 0.034000 0.041000
1517921543406651242	300 45 0.900000 0.056000 0.051000 1400 39 1.000000 1.662000 1.781000 600 50 1.000000 0.053000 0.053000 1.200000 0.036000 0.043000
1517921543916327825	300 45 0.900000 0.068000 0.062000 1400 39 1.000000 1.827000 1.960000 600 50 1.000000 0.053000 0.053000 1.200000 0.045000 0.054000
1517921544425786450	300 45 0.900000 0.070000 0.063000 1400 39 1.000000 1.976000 2.120000 600 51 1.000000 0.053000 0.053000 1.200000 0.032000 0.038000
1517921544935290576	300 45 0.900000 0.058000 0.052000 1400 39 1.000000 2.055000 2.205000 600 51 1.000000 0.053000 0.053000 1.200000 0.033000 0.039000
1517921545444903076	300 45 0.900000 0.069000 0.062000 1400 39 1.000000 1.984000 2.128000 600 49 1.000000 0.053000 0.053000 1.200000 0.035000 0.042000
1517921545955022784	300 45 0.900000 0.070000 0.063000 1400 39 1.000000 1.976000 2.120000 600 48 1.000000 0.053000 0.053000 1.200000 0.046000 0.055000
1517921546464850951	300 45 0.900000 0.056000 0.051000 1400 39 1.000000 1.642000 1.760000 600 50 1.000000 0.053000 0.053000 1.200000 0.042000 0.050000
1517921546974616326	300 45 0.900000 0.068000 0.062000 1400 39 1.000000 2.025000 2.172000 600 50 1.000000 0.053000 0.053000 1.200000 0.034000 0.041000
1517921547484683576	300 42 0.900000 0.068000 0.062000 1400 39 1.000000 1.997000 2.142000 600 47 1.000000 0.053000 0.053000 1.200000 0.037000 0.044000
1517921547994459909	300 45 0.900000 0.069000 0.062000 1400 39 1.000000 1.783000 1.911000 600 51 1.000000 0.053000 0.053000 1.200000 0.045000 0.054000
1517921548503617576	300 46 0.900000 0.065000 0.059000 1400 39 1.000000 1.780000 1.908000 600 51 1.000000 0.053000 0.053000 1.200000 0.034000 0.041000
1517921549013261659	300 45 0.900000 0.069000 0.062000 1400 39 1.000000 2.003000 2.149000 600 49 1.000000 0.053000 0.053000 1.200000 0.044000 0.053000
1517921549530641618	300 46 0.900000 0.069000 0.063000 1400 39 1.000000 2.044000 2.193000 600 51 1.000000 0.053000 0.053000 1.200000 0.045000 0.054000
1517921550041945576	300 45 0.900000 0.067000 0.061000 1400 39 1.000000 1.815000 1.945000 600 49 1.000000 0.053000 0.053000 1.200000 0.036000 0.043000
1517921550551471701	300 46 0.900000 0.069000 0.063000 1400 39 1.000000 1.981000 2.125000 600 50 1.000000 0.053000 0.053000 1.200000 0.033000 0.039000
1517921551060931368	300 46 0.900000 0.071000 0.064000 1400 39 1.000000 2.030000 2.178000 600 50 1.000000 0.053000 0.053000 1.200000 0.039000 0.047000
1517921551570692285	300 46 0.900000 0.058000 0.053000 1400 39 1.000000 1.695000 1.817000 600 51 1.000000 0.053000 0.053000 1.200000 0.046000 0.055000
1517921552080219993	300 46 0.900000 0.068000 0.062000 1400 39 1.000000 1.832000 1.963000 600 50 1.000000 0.053000 0.053000 1.200000 0.034000 0.041000
1517921552589804951	300 46 0.900000 0.068000 0.062000 1400 39 1.000000 1.977000 2.121000 600 51 1.000000 0.053000 0.053000 1.200000 0.034000 0.041000
1517921553099583493	300 46 0.900000 0.058000 0.053000 1400 39 1.000000 1.717000 1.838000 600 51 1.000000 0.053000 0.053000 1.200000 0.034000 0.041000
1517921553609015952	300 46 0.900000 0.068000 0.062000 1400 39 1.000000 1.941000 2.082000 600 51 1.000000 0.053000 0.053000 1.200000 0.034000 0.041000
1517921554118779702	300 45 0.900000 0.068000 0.062000 1400 39 1.000000 2.007000 2.153000 600 50 1.000000 0.053000 0.053000 1.200000 0.043000 0.051000
1517921554628749202	300 45 0.900000 0.058000 0.052000 1400 39 1.000000 1.659000 1.778000 600 50 1.000000 0.053000 0.053000 1.200000 0.041000 0.049000
1517921555138326868	300 45 0.900000 0.061000 0.055000 1400 39 1.000000 1.963000 2.106000 600 50 1.000000 0.053000 0.053000 1.200000 0.034000 0.041000
1517921555648181868	300 45 0.900000 0.069000 0.062000 1400 39 1.000000 1.998000 2.143000 600 48 1.000000 0.053000 0.053000 1.200000 0.034000 0.041000
1517921556157958119	300 46 0.900000 0.057000 0.052000 1400 39 1.000000 1.963000 2.106000 600 51 1.000000 0.053000 0.053000 1.200000 0.044000 0.053000
1517921556667505410	300 46 0.900000 0.072000 0.065000 1400 39 1.000000 1.625000 1.742000 600 51 1.000000 0.053000 0.053000 1.200000 0.036000 0.043000
1517921557177278410	300 46 0.900000 0.070000 0.063000 1400 39 1.000000 1.996000 2.141000 600 50 1.000000 0.053000 0.053000 1.200000 0.034000 0.041000
1517921557695147327	300 46 0.900000 0.065000 0.059000 1400 40 1.000000 1.983000 2.127000 600 51 1.000000 0.053000 0.053000 1.200000 0.041000 0.049000
1517921558206444994	300 44 0.900000 0.057000 0.052000 1400 39 1.000000 1.843000 1.975000 600 50 1.000000 0.053000 0.053000 1.200000 0.042000 0.050000
1517921558715315452	300 45 0.900000 0.070000 0.063000 1400 39 1.000000 1.943000 2.084000 600 49 1.000000 0.053000 0.053000 1.200000 0.033000 0.039000
1517921559229011952	300 46 0.900000 0.070000 0.063000 1400 40 1.000000 1.949000 2.091000 600 50 1.000000 0.053000 0.053000 1.200000 0.040000 0.048000
1517921559738521952	300 46 0.900000 0.058000 0.053000 1400 40 1.000000 1.890000 2.027000 600 50 1.000000 0.053000 0.053000 1.200000 0.043000 0.051000
1517921560248177911	300 46 0.900000 0.059000 0.053000 1400 40 1.000000 1.653000 1.772000 600 50 1.000000 0.053000 0.053000 1.200000 0.033000 0.039000
1517921560757869244	300 46 0.900000 0.069000 0.062000 1400 39 1.000000 1.922000 2.062000 600 51 1.000000 0.053000 0.053000 1.200000 0.033000 0.039000
1517921561267110577	300 46 0.900000 0.058000 0.052000 1400 40 1.000000 1.652000 1.772000 600 51 1.000000 0.053000 0.053000 1.200000 0.036000 0.043000
1517921561776736953	300 46 0.900000 0.069000 0.062000 1400 39 1.000000 1.994000 2.139000 600 51 1.000000 0.053000 0.053000 1.200000 0.041000 0.049000
1517921562286450411	300 46 0.900000 0.069000 0.062000 1400 40 1.000000 1.991000 2.136000 600 51 1.000000 0.053000 0.053000 1.200000 0.042000 0.050000
1517921562796031869	300 46 0.900000 0.065000 0.059000 1400 40 1.000000 1.717000 1.838000 600 51 1.000000 0.053000 0.053000 1.200000 0.045000 0.054000
1517921563306130661	300 45 0.900000 0.069000 0.062000 1400 40 1.000000 1.809000 1.939000 600 50 1.000000 0.053000 0.053000 1.200000 0.036000 0.043000
1517921563815801536	300 46 0.900000 0.070000 0.063000 1400 40 1.000000 1.990000 2.135000 600 49 1.000000 0.053000 0.053000 1.200000 0.035000 0.042000
1517921564325511620	300 46 0.900000 0.058000 0.053000 1400 40 1.000000 1.987000 2.132000 600 51 1.000000 0.053000 0.053000 1.200000 0.044000 0.053000
1517921564843384536	300 46 0.900000 0.068000 0.062000 1400 39 1.000000 1.760000 1.886000 600 51 1.000000 0.053000 0.053000 1.200000 0.037000 0.044000
1517921565354736411	300 44 0.900000 0.069000 0.062000 1400 39 1.000000 2.004000 2.150000 600 49 1.000000 0.053000 0.053000 1.200000 0.036000 0.043000
1517921565864504203	300 46 0.900000 0.070000 0.063000 1400 40 1.000000 2.022000 2.169000 600 51 1.000000 0.053000 0.053000 1.200000 0.038000 0.045000
1517921566374182953	300 46 0.900000 0.056000 0.051000 1400 40 1.000000 1.697000 1.819000 600 50 1.000000 0.053000 0.053000 1.200000 0.045000 0.054000
1517921566883888078	300 46 0.900000 0.066000 0.060000 1400 40 1.000000 1.738000 1.861000 600 51 1.000000 0.053000 0.053000 1.200000 0.034000 0.041000
1517921567393505412	300 46 0.900000 0.068000 0.062000 1400 40 1.000000 1.913000 2.052000 600 51 1.000000 0.053000 0.053000 1.200000 0.034000 0.041000
1517921567903305245	300 46 0.900000 0.069000 0.062000 1400 40 1.000000 1.653000 1.772000 600 51 1.000000 0.053000 0.053000 1.200000 0.044000 0.053000
1517921568412807245	300 46 0.900000 0.057000 0.052000 1400 40 1.000000 1.973000 2.117000 600 51 1.000000 0.053000 0.053000 1.200000 0.042000 0.050000
1517921568923086703	300 45 0.900000 0.057000 0.052000 1400 40 1.000000 1.593000 1.707000 600 50 1.000000 0.053000 0.053000 1.200000 0.039000 0.047000
1517921569432855995	300 45 0.900000 0.074000 0.067000 1400 40 1.000000 1.812000 1.944000 600 51 1.000000 0.053000 0.053000 1.200000 0.063000 0.076000
1517921569942856204	300 46 0.900000 0.069000 0.062000 1400 40 1.000000 1.980000 2.124000 600 51 1.000000 0.053000 0.053000 1.200000 0.035000 0.042000
1517921570452592620	300 45 0.900000 0.069000 0.062000 1400 40 1.000000 2.042000 2.191000 600 48 1.000000 0.053000 0.053000 1.200000 0.035000 0.042000
1517921570962195495	300 46 0.900000 0.060000 0.054000 1400 40 1.000000 1.773000 1.898000 600 51 1.000000 0.053000 0.053000 1.200000 0.045000 0.054000
1517921571469717412	300 46 0.900000 0.059000 0.053000 1400 40 1.000000 2.004000 2.150000 600 51 1.000000 0.053000 0.053000 1.200000 0.044000 0.053000
1517921571979429412	300 46 0.900000 0.073000 0.066000 1400 40 1.000000 2.044000 2.193000 600 51 1.000000 0.053000 0.053000 1.200000 0.036000 0.043000
1517921572489148912	300 46 0.900000 0.070000 0.063000 1400 40 1.000000 1.980000 2.124000 600 50 1.000000 0.053000 0.053000 1.200000 0.033000 0.039000
1517921572998840787	300 46 0.900000 0.067000 0.061000 1400 40 1.000000 1.642000 1.760000 600 51 1.000000 0.053000 0.053000 1.200000 0.042000 0.050000
1517921573508561829	300 46 0.900000 0.060000 0.054000 1400 40 1.000000 1.878000 2.013000 600 51 1.000000 0.053000 0.053000 1.200000 0.045000 0.054000
1517921574018277496	300 46 0.900000 0.062000 0.056000 1400 40 1.000000 2.018000 2.165000 600 50 1.000000 0.053000 0.053000 1.200000 0.033000 0.039000
1517921574527922121	300 46 0.900000 0.069000 0.062000 1400 40 1.000000 2.085000 2.237000 600 51 1.000000 0.053000 0.053000 1.200000 0.033000 0.039000
1517921575037296121	300 46 0.900000 0.058000 0.053000 1400 40 1.000000 1.846000 1.978000 600 52 1.000000 0.053000 0.053000 1.200000 0.040000 0.048000
1517921575546922579	300 46 0.900000 0.069000 0.062000 1400 40 1.000000 1.876000 2.011000 600 50 1.000000 0.053000 0.053000 1.200000 0.044000 0.053000
1517921576057057621	300 46 0.900000 0.058000 0.053000 1400 40 1.000000 1.877000 2.012000 600 49 1.000000 0.053000 0.053000 1.200000 0.035000 0.042000
1517921576564625538	300 46 0.900000 0.057000 0.052000 1400 40 1.000000 1.673000 1.793000 600 51 1.000000 0.053000 0.053000 1.200000 0.045000 0.054000
1517921577074445954	300 46 0.900000 0.074000 0.067000 1400 40 1.000000 1.962000 2.105000 600 51 1.000000 0.053000 0.053000 1.200000 0.041000 0.049000
1517921577584244829	300 45 0.900000 0.068000 0.062000 1400 40 1.000000 1.974000 2.118000 600 48 1.000000 0.053000 0.053000 1.200000 0.035000 0.042000
1517921578093766704	300 46 0.900000 0.058000 0.053000 1400 40 1.000000 1.698000 1.820000 600 52 1.000000 0.053000 0.053000 1.200000 0.040000 0.048000
1517921578603400580	300 46 0.900000 0.063000 0.057000 1400 40 1.000000 1.999000 2.148000 600 51 1.000000 0.053000 0.053000 1.200000 0.042000 0.050000
1517921579113059871	300 44 0.900000 0.068000 0.062000 1400 40 1.000000 1.939000 2.080000 600 49 1.000000 0.053000 0.053000 1.200000 0.034000 0.041000
1517921579622704163	300 46 0.900000 0.081000 0.073000 1400 40 1.000000 1.734000 1.860000 600 52 1.000000 0.053000 0.053000 1.200000 0.052000 0.062000
1517921580132412621	300 46 0.900000 0.058000 0.053000 1400 40 1.000000 1.813000 1.943000 600 51 1.000000 0.053000 0.053000 1.200000 0.044000 0.053000
1517921580642356121	300 45 0.900000 0.069000 0.062000 1400 40 1.000000 1.989000 2.134000 600 49 1.000000 0.053000 0.053000 1.200000 0.032000 0.038000
1517921581152008122	300 46 0.900000 0.068000 0.062000 1400 40 1.000000 1.941000 2.082000 600 52 1.000000 0.053000 0.053000 1.200000 0.033000 0.039000
1517921581659636372	300 46 0.900000 0.064000 0.058000 1400 40 1.000000 1.732000 1.854000 600 52 1.000000 0.053000 0.053000 1.200000 0.044000 0.053000
1517921582169317788	300 45 0.900000 0.077000 0.070000 1400 40 1.000000 1.959000 2.102000 600 50 1.000000 0.053000 0.053000 1.200000 0.034000 0.041000
1517921582687111538	300 47 0.900000 0.070000 0.063000 1400 40 1.000000 1.985000 2.129000 600 52 1.000000 0.053000 0.053000 1.200000 0.033000 0.039000
1517921583198116205	300 46 0.900000 0.058000 0.053000 1400 40 1.000000 1.589000 1.703000 600 51 1.000000 0.053000 0.053000 1.200000 0.039000 0.047000
1517921583707973122	300 46 0.900000 0.069000 0.062000 1400 40 1.000000 1.986000 2.130000 600 50 1.000000 0.053000 0.053000 1.200000 0.035000 0.042000
1517921584217833872	300 45 0.900000 0.059000 0.053000 1400 40 1.000000 1.796000 1.925000 600 50 1.000000 0.053000 0.053000 1.200000 0.038000 0.045000
1517921584727468330	300 45 0.900000 0.063000 0.057000 1400 40 1.000000 1.942000 2.083000 600 51 1.000000 0.053000 0.053000 1.200000 0.044000 0.053000
1517921585237199122	300 46 0.900000 0.069000 0.062000 1400 40 1.000000 1.983000 2.127000 600 51 1.000000 0.053000 0.053000 1.200000 0.034000 0.041000
1517921585747002039	300 46 0.900000 0.071000 0.064000 1400 40 1.000000 2.016000 2.161000 600 51 1.000000 0.053000 0.053000 1.200000 0.034000 0.041000
1517921586256581914	300 46 0.900000 0.058000 0.052000 1400 40 1.000000 1.692000 1.813000 600 51 1.000000 0.053000 0.053000 1.200000 0.043000 0.051000
1517921586764321414	300 46 0.900000 0.069000 0.062000 1400 40 1.000000 1.912000 2.051000 600 51 1.000000 0.053000 0.053000 1.200000 0.035000 0.042000
1517921587274065664	300 46 0.900000 0.069000 0.062000 1400 40 1.000000 2.048000 2.197000 600 52 1.000000 0.053000 0.053000 1.200000 0.053000 0.064000
1517921587783726581	300 46 0.900000 0.061000 0.055000 1400 40 1.000000 1.785000 1.913000 600 52 1.000000 0.053000 0.053000 1.200000 0.037000 0.044000
1517921588293461039	300 46 0.900000 0.070000 0.063000 1400 40 1.000000 1.973000 2.117000 600 51 1.000000 0.053000 0.053000 1.200000 0.036000 0.043000
1517921588811329789	300 46 0.900000 0.069000 0.062000 1400 40 1.000000 1.985000 2.129000 600 52 1.000000 0.053000 0.053000 1.200000 0.039000 0.047000
1517921589322620456	300 46 0.900000 0.060000 0.054000 1400 40 1.000000 1.728000 1.852000 600 52 1.000000 0.053000 0.053000 1.200000 0.046000 0.055000
1517921589832321831	300 46 0.900000 0.079000 0.072000 1400 40 1.000000 1.885000 2.020000 600 52 1.000000 0.053000 0.053000 1.200000 0.048000 0.057000
1517921590341910748	300 46 0.900000 0.069000 0.062000 1400 40 1.000000 1.986000 2.130000 600 52 1.000000 0.053000 0.053000 1.200000 0.036000 0.043000
1517921590851493414	300 46 0.900000 0.067000 0.061000 1400 40 1.000000 2.115000 2.269000 600 52 1.000000 0.053000 0.053000 1.200000 0.046000 0.055000
1517921591361176331	300 46 0.900000 0.069000 0.062000 1400 40 1.000000 1.974000 2.118000 600 52 1.000000 0.053000 0.053000 1.200000 0.037000 0.044000
1517921591870979873	300 47 0.900000 0.070000 0.063000 1400 40 1.000000 1.990000 2.135000 600 52 1.000000 0.053000 0.053000 1.200000 0.045000 0.054000
1517921592380470498	300 46 0.900000 0.068000 0.062000 1400 40 1.000000 1.788000 1.916000 600 52 1.000000 0.053000 0.053000 1.200000 0.038000 0.045000
1517921592889794998	300 46 0.900000 0.069000 0.062000 1400 40 1.000000 1.975000 2.119000 600 51 1.000000 0.053000 0.053000 1.200000 0.034000 0.041000
1517921593399839331	300 45 0.900000 0.069000 0.062000 1400 40 1.000000 1.988000 2.133000 600 50 1.000000 0.053000 0.053000 1.200000 0.042000 0.050000
1517921593909510665	300 46 0.900000 0.070000 0.064000 1400 40 1.000000 1.735000 1.859000 600 51 1.000000 0.053000 0.053000 1.200000 0.043000 0.051000
1517921594427508415	300 47 0.900000 0.069000 0.062000 1400 40 1.000000 1.736000 1.860000 600 51 1.000000 0.053000 0.053000 1.200000 0.034000 0.041000
1517921594938679415	300 46 0.900000 0.069000 0.062000 1400 40 1.000000 1.989000 2.134000 600 50 1.000000 0.053000 0.053000 1.200000 0.036000 0.043000
1517921595448593415	300 46 0.900000 0.059000 0.053000 1400 40 1.000000 2.076000 2.227000 600 52 1.000000 0.053000 0.053000 1.200000 0.044000 0.053000
1517921595958398207	300 46 0.900000 0.057000 0.052000 1400 40 1.000000 1.779000 1.907000 600 51 1.000000 0.053000 0.053000 1.200000 0.046000 0.055000
1517921596468100665	300 46 0.900000 0.061000 0.055000 1400 40 1.000000 1.652000 1.770000 600 52 1.000000 0.053000 0.053000 1.200000 0.038000 0.045000
1517921596977788957	300 46 0.900000 0.069000 0.062000 1400 40 1.000000 1.976000 2.118000 600 51 1.000000 0.053000 0.053000 1.200000 0.037000 0.044000
1517921597487268290	300 46 0.900000 0.076000 0.069000 1400 40 1.000000 2.045000 2.198000 600 52 1.000000 0.053000 0.053000 1.200000 0.043000 0.051000
1517921597997034082	300 46 0.900000 0.069000 0.062000 1400 40 1.000000 2.019000 2.166000 600 51 1.000000 0.053000 0.053000 1.200000 0.045000 0.054000
1517921598506723749	300 46 0.900000 0.059000 0.053000 1400 40 1.000000 1.590000 1.704000 600 51 1.000000 0.053000 0.053000 1.200000 0.041000 0.049000
1517921599016504374	300 46 0.900000 0.059000 0.053000 1400 40 1.000000 1.768000 1.895000 600 50 1.000000 0.053000 0.053000 1.200000 0.035000 0.042000
1517921599526364665	300 46 0.900000 0.069000 0.062000 1400 40 1.000000 2.041000 2.189000 600 51 1.000000 0.053000 0.053000 1.200000 0.044000 0.053000
1517921600035696957	300 47 0.900000 0.064000 0.058000 1400 40 1.000000 1.616000 1.732000 600 51 1.000000 0.053000 0.053000 1.200000 0.036000 0.043000
1517921600545096999	300 46 0.900000 0.081000 0.073000 1400 40 1.000000 1.988000 2.133000 600 51 1.000000 0.053000 0.053000 1.200000 0.045000 0.054000
1517921601054822916	300 46 0.900000 0.058000 0.053000 1400 40 1.000000 1.974000 2.118000 600 51 1.000000 0.053000 0.053000 1.200000 0.044000 0.053000
1517921601564659249	300 46 0.900000 0.063000 0.057000 1400 40 1.000000 1.653000 1.772000 600 51 1.000000 0.053000 0.053000 1.200000 0.041000 0.049000
1517921602074335999	300 46 0.900000 0.070000 0.063000 1400 40 1.000000 1.896000 2.034000 600 51 1.000000 0.053000 0.053000 1.200000 0.036000 0.043000
1517921602584289249	300 46 0.900000 0.076000 0.069000 1400 40 1.000000 2.074000 2.225000 600 52 1.000000 0.053000 0.053000 1.200000 0.044000 0.053000
1517921603093918624	300 46 0.900000 0.058000 0.053000 1400 40 1.000000 2.009000 2.155000 600 52 1.000000 0.053000 0.053000 1.200000 0.048000 0.057000
1517921603603307999	300 46 0.900000 0.068000 0.062000 1400 40 1.000000 1.602000 1.717000 600 51 1.000000 0.053000 0.053000 1.200000 0.034000 0.041000
1517921604113032291	300 46 0.900000 0.069000 0.062000 1400 40 1.000000 1.986000 2.130000 600 52 1.000000 0.053000 0.053000 1.200000 0.035000 0.042000
1517921604622740749	300 46 0.900000 0.068000 0.062000 1400 40 1.000000 2.034000 2.182000 600 52 1.000000 0.053000 0.053000 1.200000 0.045000 0.054000
1517921605132715166	300 45 0.900000 0.058000 0.053000 1400 40 1.000000 1.653000 1.772000 600 50 1.000000 0.053000 0.053000 1.200000 0.037000 0.044000
1517921605642941666	300 44 0.900000 0.069000 0.062000 1400 40 1.000000 1.997000 2.142000 600 50 1.000000 0.053000 0.053000 1.200000 0.033000 0.039000
1517921606152527750	300 46 0.900000 0.069000 0.062000 1400 40 1.000000 1.657000 1.777000 600 51 1.000000 0.053000 0.053000 1.200000 0.037000 0.044000
1517921606662419500	300 46 0.900000 0.066000 0.060000 1400 40 1.000000 1.923000 2.063000 600 51 1.000000 0.053000 0.053000 1.200000 0.036000 0.043000
1517921607172711916	300 43 0.900000 0.061000 0.055000 1400 40 1.000000 1.852000 1.987000 600 48 1.000000 0.053000 0.053000 1.200000 0.036000 0.043000
1517921607682564291	300 47 0.900000 0.058000 0.053000 1400 40 1.000000 1.628000 1.745000 600 52 1.000000 0.053000 0.053000 1.200000 0.049000 0.059000
1517921608192244208	300 46 0.900000 0.069000 0.062000 1400 40 1.000000 2.008000 2.154000 600 51 1.000000 0.053000 0.053000 1.200000 0.036000 0.043000
1517921608702057041	300 45 0.900000 0.069000 0.062000 1400 40 1.000000 1.983000 2.127000 600 50 1.000000 0.053000 0.053000 1.200000 0.037000 0.044000
1517921609215562083	300 46 0.900000 0.058000 0.053000 1400 40 1.000000 1.656000 1.775000 600 52 1.000000 0.053000 0.053000 1.200000 0.043000 0.051000
1517921609726425042	300 46 0.900000 0.061000 0.055000 1400 40 1.000000 1.974000 2.118000 600 52 1.000000 0.053000 0.053000 1.200000 0.040000 0.048000
1517921610236001875	300 45 0.900000 0.069000 0.062000 1400 40 1.000000 2.000000 2.146000 600 50 1.000000 0.053000 0.053000 1.200000 0.033000 0.039000
1517921610745674167	300 47 0.900000 0.073000 0.066000 1400 40 1.000000 1.791000 1.919000 600 52 1.000000 0.053000 0.053000 1.200000 0.043000 0.051000
1517921611255246875	300 47 0.900000 0.058000 0.053000 1400 40 1.000000 1.954000 2.096000 600 52 1.000000 0.053000 0.053000 1.200000 0.046000 0.055000
1517921611765174375	300 45 0.900000 0.061000 0.055000 1400 40 1.000000 1.881000 2.018000 600 50 1.000000 0.053000 0.053000 1.200000 0.032000 0.038000
1517921612274834875	300 46 0.900000 0.068000 0.062000 1400 40 1.000000 1.944000 2.083000 600 52 1.000000 0.053000 0.053000 1.200000 0.034000 0.041000
1517921612784320709	300 46 0.900000 0.066000 0.060000 1400 40 1.000000 1.665000 1.784000 600 51 1.000000 0.053000 0.053000 1.200000 0.050000 0.060000
1517921613293941417	300 45 0.900000 0.069000 0.062000 1400 40 1.000000 1.985000 2.129000 600 50 1.000000 0.053000 0.053000 1.200000 0.034000 0.041000
1517921613803715334	300 46 0.900000 0.070000 0.063000 1400 40 1.000000 2.123000 2.277000 600 52 1.000000 0.053000 0.053000 1.200000 0.033000 0.039000
1517921614313459667	300 46 0.900000 0.069000 0.062000 1400 40 1.000000 1.936000 2.077000 600 51 1.000000 0.053000 0.053000 1.200000 0.036000 0.043000
1517921614823264042	300 44 0.900000 0.069000 0.062000 1400 40 1.000000 2.003000 2.149000 600 50 1.000000 0.053000 0.053000 1.200000 0.037000 0.044000
1517921615332681626	300 47 0.900000 0.058000 0.053000 1400 40 1.000000 1.846000 1.977000 600 52 1.000000 0.053000 0.053000 1.200000 0.045000 0.054000
1517921615842490626	300 46 0.900000 0.069000 0.062000 1400 40 1.000000 1.985000 2.129000 600 51 1.000000 0.053000 0.053000 1.200000 0.039000 0.047000
1517921616352304917	300 45 0.900000 0.069000 0.062000 1400 40 1.000000 1.981000 2.125000 600 49 1.000000 0.053000 0.053000 1.200000 0.036000 0.043000
1517921616862191376	300 46 0.900000 0.068000 0.062000 1400 40 1.000000 1.882000 2.017000 600 51 1.000000 0.053000 0.053000 1.200000 0.039000 0.047000
1517921617371824251	300 46 0.900000 0.056000 0.051000 1400 40 1.000000 1.901000 2.039000 600 51 1.000000 0.053000 0.053000 1.200000 0.044000 0.053000
1517921617881647584	300 45 0.900000 0.075000 0.068000 1400 40 1.000000 1.983000 2.127000 600 50 1.000000 0.053000 0.053000 1.200000 0.042000 0.050000
1517921618391498293	300 45 0.900000 0.068000 0.062000 1400 40 1.000000 2.047000 2.196000 600 51 1.000000 0.053000 0.053000 1.200000 0.034000 0.041000
1517921618901084543	300 46 0.900000 0.058000 0.053000 1400 40 1.000000 1.723000 1.845000 600 51 1.000000 0.053000 0.053000 1.200000 0.044000 0.053000
1517921619411070168	300 46 0.900000 0.069000 0.062000 1400 40 1.000000 1.988000 2.133000 600 51 1.000000 0.053000 0.053000 1.200000 0.035000 0.042000
1517921619920776126	300 46 0.900000 0.071000 0.064000 1400 40 1.000000 1.995000 2.140000 600 51 1.000000 0.053000 0.053000 1.200000 0.032000 0.038000
1517921620434668001	300 46 0.900000 0.058000 0.053000 1400 40 1.000000 1.739000 1.865000 600 51 1.000000 0.053000 0.053000 1.200000 0.037000 0.044000
1517921620946563335	300 46 0.900000 0.065000 0.059000 1400 40 1.000000 1.600000 1.715000 600 51 1.000000 0.053000 0.053000 1.200000 0.045000 0.054000
1517921621456075876	300 46 0.900000 0.068000 0.062000 1400 40 1.000000 2.008000 2.154000 600 52 1.000000 0.053000 0.053000 1.200000 0.040000 0.048000
1517921621966441335	300 46 0.900000 0.057000 0.052000 1400 40 1.000000 1.850000 1.981000 600 51 1.000000 0.053000 0.053000 1.200000 0.038000 0.045000
1517921622476156668	300 46 0.900000 0.057000 0.052000 1400 40 1.000000 1.687000 1.808000 600 51 1.000000 0.053000 0.053000 1.200000 0.045000 0.054000
1517921622986146502	300 46 0.900000 0.068000 0.062000 1400 40 1.000000 1.963000 2.106000 600 50 1.000000 0.053000 0.053000 1.200000 0.044000 0.053000
1517921623495511543	300 46 0.900000 0.069000 0.062000 1400 40 1.000000 2.062000 2.212000 600 51 1.000000 0.053000 0.053000 1.200000 0.035000 0.042000
1517921624005270460	300 44 0.900000 0.070000 0.063000 1400 40 1.000000 2.065000 2.215000 600 50 1.000000 0.053000 0.053000 1.200000 0.035000 0.042000
1517921624523028085	300 47 0.900000 0.064000 0.058000 1400 40 1.000000 1.656000 1.775000 600 52 1.000000 0.053000 0.053000 1.200000 0.040000 0.048000
1517921625034596127	300 46 0.900000 0.057000 0.052000 1400 40 1.000000 1.657000 1.776000 600 51 1.000000 0.053000 0.053000 1.200000 0.045000 0.054000
1517921625544145918	300 46 0.900000 0.069000 0.063000 1400 40 1.000000 1.975000 2.119000 600 52 1.000000 0.053000 0.053000 1.200000 0.037000 0.044000
1517921626053963794	300 46 0.900000 0.065000 0.059000 1400 40 1.000000 1.956000 2.098000 600 52 1.000000 0.053000 0.053000 1.200000 0.033000 0.039000
1517921626563747210	300 46 0.900000 0.059000 0.053000 1400 40 1.000000 1.683000 1.804000 600 51 1.000000 0.053000 0.053000 1.200000 0.036000 0.043000
1517921627073410127	300 46 0.900000 0.068000 0.062000 1400 40 1.000000 1.655000 1.772000 600 51 1.000000 0.053000 0.053000 1.200000 0.044000 0.053000
1517921627583432169	300 45 0.900000 0.069000 0.062000 1400 40 1.000000 1.886000 2.023000 600 50 1.000000 0.053000 0.053000 1.200000 0.035000 0.042000
1517921628092976419	300 47 0.900000 0.073000 0.066000 1400 40 1.000000 2.009000 2.155000 600 52 1.000000 0.053000 0.053000 1.200000 0.045000 0.054000
1517921628602552711	300 47 0.900000 0.058000 0.053000 1400 40 1.000000 1.831000 1.962000 600 52 1.000000 0.053000 0.053000 1.200000 0.040000 0.048000
1517921629112478877	300 46 0.900000 0.068000 0.062000 1400 40 1.000000 1.986000 2.130000 600 51 1.000000 0.053000 0.053000 1.200000 0.035000 0.042000
1517921629622387544	300 46 0.900000 0.059000 0.053000 1400 40 1.000000 1.980000 2.124000 600 51 1.000000 0.053000 0.053000 1.200000 0.037000 0.044000
1517921630132028044	300 45 0.900000 0.059000 0.053000 1400 40 1.000000 1.830000 1.961000 600 51 1.000000 0.053000 0.053000 1.200000 0.035000 0.042000
1517921630641066836	300 46 0.900000 0.069000 0.062000 1400 40 1.000000 2.015000 2.162000 600 51 1.000000 0.053000 0.053000 1.200000 0.035000 0.042000
1517921631150962669	300 46 0.900000 0.084000 0.076000 1400 40 1.000000 2.222000 2.384000 600 51 1.000000 0.053000 0.053000 1.200000 0.049000 0.059000
1517921631660929128	300 46 0.900000 0.058000 0.053000 1400 40 1.000000 1.657000 1.776000 600 51 1.000000 0.053000 0.053000 1.200000 0.035000 0.042000
1517921632170711794	300 46 0.900000 0.070000 0.063000 1400 40 1.000000 1.982000 2.126000 600 51 1.000000 0.053000 0.053000 1.200000 0.035000 0.042000
1517921632680380419	300 46 0.900000 0.057000 0.052000 1400 40 1.000000 1.968000 2.111000 600 52 1.000000 0.053000 0.053000 1.200000 0.046000 0.055000
1517921633189946086	300 46 0.900000 0.061000 0.055000 1400 40 1.000000 1.694000 1.817000 600 52 1.000000 0.053000 0.053000 1.200000 0.036000 0.043000
1517921633699843586	300 46 0.900000 0.069000 0.062000 1400 40 1.000000 1.992000 2.137000 600 52 1.000000 0.053000 0.053000 1.200000 0.037000 0.044000
1517921634209380503	300 47 0.900000 0.070000 0.063000 1400 40 1.000000 1.964000 2.107000 600 52 1.000000 0.053000 0.053000 1.200000 0.040000 0.048000
1517921634727718628	300 46 0.900000 0.058000 0.053000 1400 40 1.000000 1.669000 1.789000 600 52 1.000000 0.053000 0.053000 1.200000 0.043000 0.051000
1517921635238866420	300 47 0.900000 0.068000 0.062000 1400 40 1.000000 1.785000 1.913000 600 51 1.000000 0.053000 0.053000 1.200000 0.036000 0.043000
1517921635748442961	300 47 0.900000 0.069000 0.063000 1400 40 1.000000 1.996000 2.141000 600 52 1.000000 0.053000 0.053000 1.200000 0.034000 0.041000
1517921636258344170	300 47 0.900000 0.068000 0.062000 1400 40 1.000000 2.122000 2.276000 600 52 1.000000 0.053000 0.053000 1.200000 0.046000 0.055000
1517921636767819003	300 47 0.900000 0.058000 0.053000 1400 40 1.000000 1.628000 1.743000 600 52 1.000000 0.053000 0.053000 1.200000 0.033000 0.039000
1517921637277538253	300 47 0.900000 0.069000 0.063000 1400 40 1.000000 1.997000 2.142000 600 52 1.000000 0.053000 0.053000 1.200000 0.035000 0.042000
1517921637786919545	300 47 0.900000 0.059000 0.053000 1400 40 1.000000 1.767000 1.894000 600 52 1.000000 0.053000 0.053000 1.200000 0.034000 0.041000
1517921638296448628	300 47 0.900000 0.068000 0.062000 1400 40 1.000000 1.981000 2.125000 600 52 1.000000 0.053000 0.053000 1.200000 0.035000 0.042000
1517921638806020795	300 47 0.900000 0.065000 0.059000 1400 40 1.000000 2.029000 2.177000 600 52 1.000000 0.053000 0.053000 1.200000 0.049000 0.059000
1517921639315592878	300 47 0.900000 0.061000 0.055000 1400 40 1.000000 1.869000 2.001000 600 52 1.000000 0.053000 0.053000 1.200000 0.038000 0.045000
1517921639825527837	300 47 0.900000 0.068000 0.062000 1400 40 1.000000 1.931000 2.071000 600 52 1.000000 0.053000 0.053000 1.200000 0.034000 0.041000
1517921640335101504	300 47 0.900000 0.070000 0.063000 1400 40 1.000000 1.965000 2.108000 600 52 1.000000 0.053000 0.053000 1.200000 0.039000 0.047000
1517921640844762212	300 47 0.900000 0.057000 0.052000 1400 40 1.000000 1.805000 1.936000 600 52 1.000000 0.053000 0.053000 1.200000 0.047000 0.056000
1517921641354432754	300 47 0.900000 0.078000 0.071000 1400 41 1.000000 1.841000 1.973000 600 52 1.000000 0.053000 0.053000 1.200000 0.047000 0.056000
1517921641864243670	300 47 0.900000 0.068000 0.062000 1400 41 1.000000 2.000000 2.146000 600 52 1.000000 0.053000 0.053000 1.200000 0.037000 0.044000
1517921642373954337	300 47 0.900000 0.061000 0.055000 1400 41 1.000000 2.108000 2.261000 600 52 1.000000 0.053000 0.053000 1.200000 0.046000 0.055000
1517921642883712171	300 47 0.900000 0.056000 0.051000 1400 40 1.000000 1.588000 1.702000 600 52 1.000000 0.053000 0.053000 1.200000 0.034000 0.041000
1517921643392841921	300 47 0.900000 0.074000 0.067000 1400 41 1.000000 2.087000 2.239000 600 52 1.000000 0.053000 0.053000 1.200000 0.033000 0.039000
1517921643902617629	300 47 0.900000 0.070000 0.063000 1400 41 1.000000 1.996000 2.137000 600 52 1.000000 0.053000 0.053000 1.200000 0.043000 0.051000
1517921644412602629	300 47 0.900000 0.069000 0.062000 1400 41 1.000000 2.015000 2.162000 600 51 1.000000 0.053000 0.053000 1.200000 0.040000 0.048000
1517921644922570671	300 45 0.900000 0.058000 0.053000 1400 41 1.000000 1.842000 1.972000 600 50 1.000000 0.053000 0.053000 1.200000 0.042000 0.050000
1517921645432470546	300 47 0.900000 0.059000 0.053000 1400 41 1.000000 1.827000 1.958000 600 52 1.000000 0.053000 0.053000 1.200000 0.048000 0.058000
1517921645942246213	300 47 0.900000 0.070000 0.063000 1400 41 1.000000 1.987000 2.132000 600 52 1.000000 0.053000 0.053000 1.200000 0.035000 0.042000
1517921646451981254	300 46 0.900000 0.069000 0.062000 1400 40 1.000000 2.076000 2.227000 600 52 1.000000 0.053000 0.053000 1.200000 0.035000 0.042000
1517921646961646004	300 47 0.900000 0.058000 0.053000 1400 41 1.000000 1.760000 1.886000 600 52 1.000000 0.053000 0.053000 1.200000 0.046000 0.055000
1517921647471367463	300 47 0.900000 0.058000 0.053000 1400 41 1.000000 1.962000 2.105000 600 52 1.000000 0.053000 0.053000 1.200000 0.045000 0.054000
1517921647980992588	300 47 0.900000 0.070000 0.063000 1400 41 1.000000 2.000000 2.146000 600 52 1.000000 0.053000 0.053000 1.200000 0.034000 0.041000
1517921648490284463	300 44 0.900000 0.070000 0.063000 1400 40 1.000000 1.950000 2.092000 600 49 1.000000 0.053000 0.053000 1.200000 0.037000 0.044000
1517921648999872921	300 47 0.900000 0.070000 0.063000 1400 41 1.000000 1.868000 2.002000 600 52 1.000000 0.053000 0.053000 1.200000 0.043000 0.051000
1517921649509703505	300 47 0.900000 0.058000 0.053000 1400 41 1.000000 1.758000 1.884000 600 52 1.000000 0.053000 0.053000 1.200000 0.045000 0.054000
1517921650019501880	300 47 0.900000 0.059000 0.053000 1400 41 1.000000 1.967000 2.110000 600 51 1.000000 0.053000 0.053000 1.200000 0.037000 0.044000
1517921650529602213	300 44 0.900000 0.067000 0.061000 1400 41 1.000000 1.985000 2.129000 600 52 1.000000 0.053000 0.053000 1.200000 0.035000 0.042000
1517921651039281588	300 47 0.900000 0.057000 0.052000 1400 41 1.000000 1.806000 1.937000 600 53 1.000000 0.053000 0.053000 1.200000 0.035000 0.042000
1517921651548838380	300 47 0.900000 0.061000 0.055000 1400 41 1.000000 1.697000 1.819000 600 51 1.000000 0.053000 0.053000 1.200000 0.059000 0.071000
1517921652058699463	300 47 0.900000 0.070000 0.063000 1400 41 1.000000 1.977000 2.121000 600 52 1.000000 0.053000 0.053000 1.200000 0.035000 0.042000
1517921652568430755	300 47 0.900000 0.058000 0.053000 1400 41 1.000000 1.530000 1.640000 600 52 1.000000 0.053000 0.053000 1.200000 0.043000 0.051000
1517921653078092422	300 47 0.900000 0.060000 0.054000 1400 41 1.000000 1.895000 2.031000 600 52 1.000000 0.053000 0.053000 1.200000 0.044000 0.053000
1517921653585565588	300 47 0.900000 0.068000 0.062000 1400 41 1.000000 1.961000 2.104000 600 52 1.000000 0.053000 0.053000 1.200000 0.035000 0.042000
1517921654094926005	300 48 0.900000 0.077000 0.070000 1400 41 1.000000 2.112000 2.266000 600 53 1.000000 0.053000 0.053000 1.200000 0.039000 0.047000
1517921654604480797	300 46 0.900000 0.059000 0.053000 1400 41 1.000000 1.591000 1.705000 600 51 1.000000 0.053000 0.053000 1.200000 0.046000 0.055000
1517921655114407630	300 47 0.900000 0.070000 0.064000 1400 41 1.000000 1.987000 2.132000 600 52 1.000000 0.053000 0.053000 1.200000 0.034000 0.041000
1517921655624248339	300 47 0.900000 0.070000 0.063000 1400 41 1.000000 2.004000 2.150000 600 52 1.000000 0.053000 0.053000 1.200000 0.034000 0.041000
1517921656134259339	300 46 0.900000 0.068000 0.062000 1400 41 1.000000 1.717000 1.840000 600 52 1.000000 0.053000 0.053000 1.200000 0.043000 0.051000
1517921656644310589	300 46 0.900000 0.056000 0.051000 1400 41 1.000000 1.999000 2.144000 600 51 1.000000 0.053000 0.053000 1.200000 0.038000 0.045000
1517921657154113589	300 47 0.900000 0.070000 0.063000 1400 41 1.000000 1.978000 2.122000 600 51 1.000000 0.053000 0.053000 1.200000 0.033000 0.039000
1517921657663809214	300 46 0.900000 0.059000 0.053000 1400 41 1.000000 1.833000 1.963000 600 52 1.000000 0.053000 0.053000 1.200000 0.037000 0.044000
1517921658173603506	300 46 0.900000 0.070000 0.063000 1400 41 1.000000 1.788000 1.916000 600 51 1.000000 0.053000 0.053000 1.200000 0.045000 0.054000
1517921658681624881	300 47 0.900000 0.070000 0.063000 1400 41 1.000000 1.990000 2.135000 600 51 1.000000 0.053000 0.053000 1.200000 0.034000 0.041000
1517921659191823006	300 47 0.900000 0.065000 0.059000 1400 41 1.000000 2.136000 2.291000 600 52 1.000000 0.053000 0.053000 1.200000 0.033000 0.039000
1517921659701635214	300 47 0.900000 0.070000 0.063000 1400 41 1.000000 1.607000 1.722000 600 52 1.000000 0.053000 0.053000 1.200000 0.035000 0.042000
1517921660211757339	300 47 0.900000 0.070000 0.064000 1400 41 1.000000 2.011000 2.157000 600 50 1.000000 0.053000 0.053000 1.200000 0.036000 0.043000
1517921660721529131	300 47 0.900000 0.058000 0.053000 1400 41 1.000000 1.818000 1.947000 600 52 1.000000 0.053000 0.053000 1.200000 0.044000 0.053000
1517921661231134006	300 47 0.900000 0.070000 0.063000 1400 41 1.000000 2.026000 2.173000 600 52 1.000000 0.053000 0.053000 1.200000 0.038000 0.045000
1517921661739912714	300 45 0.900000 0.069000 0.063000 1400 41 1.000000 2.014000 2.161000 600 52 1.000000 0.053000 0.053000 1.200000 0.034000 0.041000
1517921662249788965	300 47 0.900000 0.071000 0.064000 1400 41 1.000000 1.868000 2.002000 600 53 1.000000 0.053000 0.053000 1.200000 0.043000 0.051000
1517921662759432673	300 47 0.900000 0.057000 0.052000 1400 41 1.000000 1.919000 2.059000 600 52 1.000000 0.053000 0.053000 1.200000 0.041000 0.049000
1517921663269430298	300 47 0.900000 0.069000 0.062000 1400 41 1.000000 1.997000 2.142000 600 50 1.000000 0.053000 0.053000 1.200000 0.032000 0.038000
1517921663777064798	300 47 0.900000 0.058000 0.053000 1400 41 1.000000 1.817000 1.949000 600 53 1.000000 0.053000 0.053000 1.200000 0.034000 0.041000
1517921664286801965	300 47 0.900000 0.079000 0.072000 1400 41 1.000000 1.583000 1.696000 600 52 1.000000 0.053000 0.053000 1.200000 0.044000 0.053000
1517921664797346840	300 47 0.900000 0.069000 0.063000 1400 41 1.000000 2.003000 2.149000 600 49 1.000000 0.053000 0.053000 1.200000 0.033000 0.039000
1517921665315504257	300 47 0.900000 0.065000 0.059000 1400 41 1.000000 2.006000 2.152000 600 53 1.000000 0.053000 0.053000 1.200000 0.034000 0.041000
1517921665826503548	300 47 0.900000 0.058000 0.053000 1400 41 1.000000 1.769000 1.894000 600 53 1.000000 0.053000 0.053000 1.200000 0.043000 0.051000
1517921666336542757	300 46 0.900000 0.069000 0.063000 1400 41 1.000000 1.988000 2.133000 600 51 1.000000 0.053000 0.053000 1.200000 0.035000 0.042000
1517921666846451757	300 48 0.900000 0.069000 0.062000 1400 41 1.000000 1.998000 2.143000 600 53 1.000000 0.053000 0.053000 1.200000 0.034000 0.041000
1517921667356208965	300 47 0.900000 0.059000 0.053000 1400 41 1.000000 1.836000 1.966000 600 53 1.000000 0.053000 0.053000 1.200000 0.040000 0.048000
1517921667866352757	300 46 0.900000 0.069000 0.063000 1400 41 1.000000 1.977000 2.121000 600 51 1.000000 0.053000 0.053000 1.200000 0.035000 0.042000
1517921668376501632	300 48 0.900000 0.063000 0.057000 1400 41 1.000000 1.708000 1.830000 600 53 1.000000 0.053000 0.053000 1.200000 0.036000 0.043000
1517921668886186507	300 48 0.900000 0.058000 0.053000 1400 41 1.000000 1.822000 1.953000 600 53 1.000000 0.053000 0.053000 1.200000 0.035000 0.042000
1517921669395907882	300 47 0.900000 0.083000 0.075000 1400 41 1.000000 2.045000 2.194000 600 51 1.000000 0.053000 0.053000 1.200000 0.037000 0.044000
1517921669905989090	300 47 0.900000 0.058000 0.053000 1400 41 1.000000 2.136000 2.291000 600 52 1.000000 0.053000 0.053000 1.200000 0.044000 0.053000
1517921670415679674	300 47 0.900000 0.071000 0.064000 1400 41 1.000000 1.878000 2.013000 600 52 1.000000 0.053000 0.053000 1.200000 0.034000 0.041000
1517921670925445132	300 47 0.900000 0.070000 0.063000 1400 41 1.000000 2.010000 2.156000 600 52 1.000000 0.053000 0.053000 1.200000 0.037000 0.044000
1517921671443477382	300 48 0.900000 0.071000 0.064000 1400 41 1.000000 1.939000 2.080000 600 53 1.000000 0.053000 0.053000 1.200000 0.041000 0.049000
1517921671952767716	300 47 0.900000 0.058000 0.053000 1400 41 1.000000 1.673000 1.795000 600 52 1.000000 0.053000 0.053000 1.200000 0.046000 0.055000
1517921672466619799	300 47 0.900000 0.076000 0.069000 1400 41 1.000000 1.731000 1.855000 600 52 1.000000 0.053000 0.053000 1.200000 0.056000 0.067000
1517921672976263799	300 46 0.900000 0.070000 0.063000 1400 41 1.000000 2.002000 2.148000 600 51 1.000000 0.053000 0.053000 1.200000 0.038000 0.045000
1517921673485978966	300 48 0.900000 0.070000 0.063000 1400 41 1.000000 2.071000 2.222000 600 53 1.000000 0.053000 0.053000 1.200000 0.041000 0.049000
1517921673995808299	300 48 0.900000 0.069000 0.063000 1400 41 1.000000 2.056000 2.206000 600 52 1.000000 0.053000 0.053000 1.200000 0.044000 0.053000
1517921674505326299	300 48 0.900000 0.067000 0.061000 1400 41 1.000000 1.594000 1.708000 600 53 1.000000 0.053000 0.053000 1.200000 0.044000 0.053000
1517921675023547466	300 47 0.900000 0.059000 0.053000 1400 41 1.000000 1.611000 1.726000 600 52 1.000000 0.053000 0.053000 1.200000 0.034000 0.041000
1517921675534649008	300 47 0.900000 0.070000 0.063000 1400 41 1.000000 2.013000 2.159000 600 50 1.000000 0.053000 0.053000 1.200000 0.035000 0.042000
1517921676044409341	300 48 0.900000 0.058000 0.052000 1400 41 1.000000 1.696000 1.818000 600 53 1.000000 0.053000 0.053000 1.200000 0.039000 0.047000
1517921676554281466	300 47 0.900000 0.071000 0.064000 1400 41 1.000000 1.665000 1.784000 600 52 1.000000 0.053000 0.053000 1.200000 0.037000 0.044000
1517921677063968508	300 46 0.900000 0.070000 0.063000 1400 41 1.000000 1.982000 2.126000 600 52 1.000000 0.053000 0.053000 1.200000 0.038000 0.045000
1517921677574009216	300 47 0.900000 0.067000 0.061000 1400 41 1.000000 1.982000 2.126000 600 51 1.000000 0.053000 0.053000 1.200000 0.042000 0.050000
1517921678083499800	300 48 0.900000 0.058000 0.053000 1400 41 1.000000 2.040000 2.193000 600 52 1.000000 0.053000 0.053000 1.200000 0.046000 0.055000
1517921678593148883	300 48 0.900000 0.057000 0.052000 1400 41 1.000000 1.764000 1.891000 600 53 1.000000 0.053000 0.053000 1.200000 0.038000 0.045000
1517921679102806217	300 48 0.900000 0.070000 0.063000 1400 41 1.000000 1.748000 1.873000 600 52 1.000000 0.053000 0.053000 1.200000 0.036000 0.043000
1517921679612820675	300 48 0.900000 0.076000 0.069000 1400 41 1.000000 2.081000 2.232000 600 52 1.000000 0.053000 0.053000 1.200000 0.040000 0.048000
1517921680122492633	300 47 0.900000 0.070000 0.063000 1400 41 1.000000 1.997000 2.142000 600 52 1.000000 0.053000 0.053000 1.200000 0.045000 0.054000
1517921680632182550	300 48 0.900000 0.058000 0.053000 1400 41 1.000000 2.181000 2.340000 600 53 1.000000 0.053000 0.053000 1.200000 0.047000 0.056000
1517921681141873967	300 48 0.900000 0.058000 0.052000 1400 41 1.000000 1.807000 1.935000 600 53 1.000000 0.053000 0.053000 1.200000 0.035000 0.042000
1517921681661145842	300 46 0.900000 0.070000 0.063000 1400 41 1.000000 2.023000 2.170000 600 52 1.000000 0.053000 0.053000 1.200000 0.036000 0.043000
1517921682177307342	300 47 0.900000 0.069000 0.062000 1400 41 1.000000 1.841000 1.971000 600 53 1.000000 0.053000 0.053000 1.200000 0.045000 0.054000
1517921682695352800	300 47 0.900000 0.081000 0.073000 1400 41 1.000000 2.060000 2.210000 600 53 1.000000 0.053000 0.053000 1.200000 0.060000 0.072000
1517921683215042842	300 46 0.900000 0.071000 0.064000 1400 41 1.000000 2.013000 2.159000 600 50 1.000000 0.053000 0.053000 1.200000 0.034000 0.041000
1517921683726109425	300 48 0.900000 0.070000 0.063000 1400 41 1.000000 1.903000 2.045000 600 53 1.000000 0.053000 0.053000 1.200000 0.034000 0.041000
1517921684243859800	300 48 0.900000 0.069000 0.062000 1400 41 1.000000 1.987000 2.132000 600 53 1.000000 0.053000 0.053000 1.200000 0.034000 0.041000
1517921684763492092	300 47 0.900000 0.071000 0.064000 1400 41 1.000000 1.970000 2.113000 600 52 1.000000 0.053000 0.053000 1.200000 0.036000 0.043000
1517921685274621926	300 47 0.900000 0.060000 0.054000 1400 41 1.000000 1.750000 1.876000 600 53 1.000000 0.053000 0.053000 1.200000 0.045000 0.054000
1517921685784199634	300 48 0.900000 0.058000 0.053000 1400 41 1.000000 1.959000 2.102000 600 53 1.000000 0.053000 0.053000 1.200000 0.039000 0.047000
1517921686294112426	300 48 0.900000 0.069000 0.062000 1400 41 1.000000 1.991000 2.136000 600 53 1.000000 0.053000 0.053000 1.200000 0.035000 0.042000
1517921686803769884	300 48 0.900000 0.070000 0.063000 1400 41 1.000000 1.751000 1.878000 600 53 1.000000 0.053000 0.053000 1.200000 0.037000 0.044000
1517921687313709426	300 47 0.900000 0.059000 0.053000 1400 41 1.000000 1.672000 1.792000 600 53 1.000000 0.053000 0.053000 1.200000 0.047000 0.056000
1517921687823594384	300 46 0.900000 0.059000 0.053000 1400 41 1.000000 1.988000 2.133000 600 51 1.000000 0.053000 0.053000 1.200000 0.035000 0.042000
1517921688333390968	300 45 0.900000 0.069000 0.062000 1400 41 1.000000 2.005000 2.151000 600 51 1.000000 0.053000 0.053000 1.200000 0.035000 0.042000
1517921688851593801	300 47 0.900000 0.059000 0.053000 1400 41 1.000000 1.717000 1.840000 600 52 1.000000 0.053000 0.053000 1.200000 0.047000 0.056000
1517921689362718426	300 47 0.900000 0.069000 0.062000 1400 41 1.000000 1.999000 2.144000 600 53 1.000000 0.053000 0.053000 1.200000 0.039000 0.047000
1517921689872770718	300 44 0.900000 0.073000 0.066000 1400 41 1.000000 1.899000 2.037000 600 50 1.000000 0.053000 0.053000 1.200000 0.042000 0.050000
1517921690382580968	300 48 0.900000 0.060000 0.054000 1400 41 1.000000 1.785000 1.915000 600 53 1.000000 0.053000 0.053000 1.200000 0.036000 0.043000
1517921690892188593	300 48 0.900000 0.059000 0.053000 1400 41 1.000000 1.705000 1.827000 600 53 1.000000 0.053000 0.053000 1.200000 0.044000 0.053000
1517921691402144135	300 47 0.900000 0.069000 0.062000 1400 41 1.000000 1.971000 2.114000 600 51 1.000000 0.053000 0.053000 1.200000 0.033000 0.039000
1517921691912000676	300 48 0.900000 0.068000 0.062000 1400 41 1.000000 2.015000 2.162000 600 53 1.000000 0.053000 0.053000 1.200000 0.034000 0.041000
1517921692421677635	300 48 0.900000 0.058000 0.053000 1400 41 1.000000 1.634000 1.751000 600 53 1.000000 0.053000 0.053000 1.200000 0.044000 0.053000
1517921692931709218	300 47 0.900000 0.076000 0.069000 1400 41 1.000000 2.012000 2.158000 600 53 1.000000 0.053000 0.053000 1.200000 0.045000 0.054000
1517921693441543593	300 46 0.900000 0.066000 0.060000 1400 41 1.000000 1.725000 1.849000 600 52 1.000000 0.053000 0.053000 1.200000 0.045000 0.054000
1517921693951144260	300 48 0.900000 0.059000 0.053000 1400 41 1.000000 2.017000 2.164000 600 52 1.000000 0.053000 0.053000 1.200000 0.042000 0.050000
1517921694460712927	300 47 0.900000 0.068000 0.062000 1400 41 1.000000 2.019000 2.166000 600 53 1.000000 0.053000 0.053000 1.200000 0.035000 0.042000
1517921694970333052	300 48 0.900000 0.078000 0.071000 1400 41 1.000000 1.885000 2.022000 600 53 1.000000 0.053000 0.053000 1.200000 0.043000 0.051000
1517921695479966760	300 48 0.900000 0.069000 0.063000 1400 41 1.000000 1.705000 1.827000 600 53 1.000000 0.053000 0.053000 1.200000 0.048000 0.057000
1517921695989533469	300 48 0.900000 0.070000 0.063000 1400 41 1.000000 1.895000 2.033000 600 52 1.000000 0.053000 0.053000 1.200000 0.034000 0.041000
1517921696498931760	300 48 0.900000 0.070000 0.063000 1400 41 1.000000 1.967000 2.110000 600 53 1.000000 0.053000 0.053000 1.200000 0.033000 0.039000
1517921697008451677	300 48 0.900000 0.058000 0.053000 1400 41 1.000000 1.694000 1.815000 600 53 1.000000 0.053000 0.053000 1.200000 0.044000 0.053000
1517921697518364677	300 47 0.900000 0.070000 0.063000 1400 41 1.000000 1.928000 2.068000 600 52 1.000000 0.053000 0.053000 1.200000 0.042000 0.050000
1517921698028209385	300 46 0.900000 0.069000 0.062000 1400 41 1.000000 2.063000 2.213000 600 50 1.000000 0.053000 0.053000 1.200000 0.036000 0.043000
1517921698538778011	300 48 0.900000 0.070000 0.063000 1400 41 1.000000 2.084000 2.236000 600 53 1.000000 0.053000 0.053000 1.200000 0.034000 0.041000
1517921699048338886	300 48 0.900000 0.058000 0.053000 1400 41 1.000000 1.632000 1.749000 600 53 1.000000 0.053000 0.053000 1.200000 0.045000 0.054000
1517921699558042052	300 48 0.900000 0.056000 0.051000 1400 41 1.000000 1.773000 1.900000 600 53 1.000000 0.053000 0.053000 1.200000 0.043000 0.051000
1517921700067848386	300 45 0.900000 0.071000 0.064000 1400 41 1.000000 1.881000 2.018000 600 50 1.000000 0.053000 0.053000 1.200000 0.037000 0.044000
1517921700577682427	300 48 0.900000 0.060000 0.054000 1400 41 1.000000 1.624000 1.740000 600 53 1.000000 0.053000 0.053000 1.200000 0.048000 0.057000
1517921701087250261	300 48 0.900000 0.060000 0.054000 1400 41 1.000000 1.873000 2.007000 600 53 1.000000 0.053000 0.053000 1.200000 0.044000 0.053000
1517921701597023178	300 47 0.900000 0.071000 0.064000 1400 41 1.000000 2.004000 2.150000 600 52 1.000000 0.053000 0.053000 1.200000 0.034000 0.041000
1517921702106907761	300 48 0.900000 0.064000 0.058000 1400 41 1.000000 2.073000 2.224000 600 52 1.000000 0.053000 0.053000 1.200000 0.035000 0.042000
1517921702616625303	300 48 0.900000 0.058000 0.053000 1400 41 1.000000 2.003000 2.147000 600 53 1.000000 0.053000 0.053000 1.200000 0.037000 0.044000
1517921703125782678	300 48 0.900000 0.060000 0.054000 1400 41 1.000000 1.838000 1.970000 600 53 1.000000 0.053000 0.053000 1.200000 0.059000 0.071000
1517921703635471136	300 48 0.900000 0.071000 0.064000 1400 41 1.000000 1.831000 1.962000 600 53 1.000000 0.053000 0.053000 1.200000 0.043000 0.051000
1517921704145008720	300 48 0.900000 0.070000 0.064000 1400 41 1.000000 2.048000 2.195000 600 52 1.000000 0.053000 0.053000 1.200000 0.035000 0.042000
1517921704654876928	300 48 0.900000 0.070000 0.063000 1400 41 1.000000 2.006000 2.152000 600 53 1.000000 0.053000 0.053000 1.200000 0.032000 0.038000
1517921705164352095	300 48 0.900000 0.064000 0.058000 1400 41 1.000000 1.994000 2.137000 600 53 1.000000 0.053000 0.053000 1.200000 0.045000 0.054000
1517921705674099261	300 48 0.900000 0.058000 0.053000 1400 41 1.000000 1.490000 1.597000 600 53 1.000000 0.053000 0.053000 1.200000 0.046000 0.055000
1517921706184032053	300 48 0.900000 0.070000 0.063000 1400 41 1.000000 2.032000 2.180000 600 52 1.000000 0.053000 0.053000 1.200000 0.036000 0.043000
1517921706693878428	300 47 0.900000 0.071000 0.064000 1400 41 1.000000 1.968000 2.111000 600 52 1.000000 0.053000 0.053000 1.200000 0.033000 0.039000
1517921707203758178	300 48 0.900000 0.071000 0.064000 1400 41 1.000000 1.834000 1.967000 600 53 1.000000 0.053000 0.053000 1.200000 0.036000 0.043000
1517921707713578303	300 48 0.900000 0.069000 0.062000 1400 41 1.000000 2.008000 2.154000 600 53 1.000000 0.053000 0.053000 1.200000 0.035000 0.042000
1517921708223065470	300 48 0.900000 0.060000 0.054000 1400 42 1.000000 2.014000 2.161000 600 53 1.000000 0.053000 0.053000 1.200000 0.035000 0.042000
1517921708732766345	300 47 0.900000 0.064000 0.058000 1400 41 1.000000 1.830000 1.959000 600 52 1.000000 0.053000 0.053000 1.200000 0.045000 0.054000
1517921709242604887	300 47 0.900000 0.068000 0.062000 1400 41 1.000000 1.988000 2.133000 600 52 1.000000 0.053000 0.053000 1.200000 0.034000 0.041000
1517921709752455304	300 44 0.900000 0.071000 0.064000 1400 41 1.000000 2.001000 2.147000 600 52 1.000000 0.053000 0.053000 1.200000 0.040000 0.048000
1517921710262172179	300 48 0.900000 0.058000 0.053000 1400 41 1.000000 2.072000 2.223000 600 53 1.000000 0.053000 0.053000 1.200000 0.042000 0.050000
1517921710771775012	300 48 0.900000 0.060000 0.054000 1400 41 1.000000 1.738000 1.863000 600 53 1.000000 0.053000 0.053000 1.200000 0.039000 0.047000
1517921711281546720	300 48 0.900000 0.070000 0.063000 1400 41 1.000000 1.991000 2.136000 600 52 1.000000 0.053000 0.053000 1.200000 0.036000 0.043000
1517921711791329804	300 47 0.900000 0.069000 0.062000 1400 41 1.000000 1.978000 2.122000 600 52 1.000000 0.053000 0.053000 1.200000 0.045000 0.054000
1517921712300851554	300 48 0.900000 0.059000 0.053000 1400 41 1.000000 1.657000 1.776000 600 53 1.000000 0.053000 0.053000 1.200000 0.041000 0.049000
1517921712810724179	300 48 0.900000 0.058000 0.053000 1400 41 1.000000 1.669000 1.787000 600 53 1.000000 0.053000 0.053000 1.200000 0.035000 0.042000
1517921713320517096	300 47 0.900000 0.078000 0.071000 1400 42 1.000000 2.021000 2.168000 600 53 1.000000 0.053000 0.053000 1.200000 0.038000 0.045000
1517921713830514179	300 48 0.900000 0.069000 0.062000 1400 42 1.000000 2.019000 2.166000 600 52 1.000000 0.053000 0.053000 1.200000 0.053000 0.064000
1517921714340213012	300 48 0.900000 0.069000 0.063000 1400 42 1.000000 1.648000 1.766000 600 53 1.000000 0.053000 0.053000 1.200000 0.036000 0.043000
1517921714849687346	300 44 0.900000 0.071000 0.064000 1400 41 1.000000 1.918000 2.056000 600 52 1.000000 0.053000 0.053000 1.200000 0.035000 0.042000
1517921715359134804	300 48 0.900000 0.057000 0.052000 1400 42 1.000000 1.969000 2.110000 600 53 1.000000 0.053000 0.053000 1.200000 0.040000 0.048000
1517921715868814388	300 48 0.900000 0.079000 0.072000 1400 42 1.000000 1.659000 1.776000 600 53 1.000000 0.053000 0.053000 1.200000 0.045000 0.054000
1517921716378815596	300 47 0.900000 0.070000 0.064000 1400 41 1.000000 1.893000 2.031000 600 52 1.000000 0.053000 0.053000 1.200000 0.036000 0.043000
1517921716888528429	300 48 0.900000 0.058000 0.053000 1400 42 1.000000 1.992000 2.137000 600 52 1.000000 0.053000 0.053000 1.200000 0.045000 0.054000
1517921717397677971	300 42 0.900000 0.056000 0.051000 1400 40 1.000000 0.757000 0.812000 600 46 1.000000 0.053000 0.053000 1.200000 0.036000 0.043000
1517921717906319513	300 40 0.900000 0.015000 0.013000 1400 39 1.000000 0.170000 0.182000 600 44 1.000000 0.053000 0.053000 1.200000 0.024000 0.028000
