#Timestamp	CPU(0) Frequency(MHz)	CPU(0) Temperature(C)	A7 Voltage(V)	A7 Current(A)	A7 Power(W)	CPU(4) Frequency(MHz)	CPU(4) Temperature(C)	A15 Voltage(V)	A15 Current(A)	A15 Power(W)	GPU Frequency(MHz)	GPU Temperature(C)	GPU Voltage(V)	GPU Current(A)	GPU Power(W)	RAM Voltage(V)	RAM Current(A)	RAM Power(W)
1518244151117001075	1300 56 1.200000 0.085000 0.104000 1300 54 1.000000 0.530000 0.554000 600 58 1.000000 0.055000 0.055000 1.200000 0.042000 0.050000
1518244151625201283	1300 55 1.200000 0.086000 0.105000 1300 53 1.000000 0.793000 0.825000 600 58 1.000000 0.055000 0.055000 1.200000 0.034000 0.041000
1518244152133889158	1300 55 1.200000 0.087000 0.106000 1300 53 1.000000 0.798000 0.830000 600 58 1.000000 0.055000 0.055000 1.200000 0.035000 0.042000
1518244152689339492	1300 62 1.200000 0.086000 0.105000 1300 55 1.000000 0.817000 0.850000 600 65 1.000000 0.055000 0.055000 1.200000 0.042000 0.050000
1518244153253318367	1300 64 1.200000 0.633000 0.762000 1300 57 1.000000 2.963000 3.117000 600 68 1.000000 0.055000 0.055000 1.200000 0.034000 0.041000
1518244153813271867	1300 66 1.200000 0.634000 0.763000 1300 58 1.000000 2.978000 3.132000 600 70 1.000000 0.056000 0.056000 1.200000 0.035000 0.042000
1518244154373270034	1300 67 1.200000 0.636000 0.766000 1300 59 1.000000 2.989000 3.144000 600 71 1.000000 0.056000 0.056000 1.200000 0.035000 0.042000
1518244154921243950	1300 68 1.200000 0.637000 0.767000 1300 60 1.000000 3.001000 3.157000 600 72 1.000000 0.057000 0.057000 1.200000 0.035000 0.042000
1518244155477295034	1300 68 1.200000 0.637000 0.767000 1300 60 1.000000 3.006000 3.162000 600 72 1.000000 0.057000 0.057000 1.200000 0.035000 0.042000
1518244156037295409	1300 69 1.200000 0.638000 0.768000 1300 61 1.000000 3.013000 3.169000 600 73 1.000000 0.057000 0.057000 1.200000 0.035000 0.042000
1518244156593262159	1300 69 1.200000 0.639000 0.769000 1300 61 1.000000 3.017000 3.173000 600 73 1.000000 0.057000 0.057000 1.200000 0.035000 0.042000
1518244157149221826	1300 69 1.200000 0.639000 0.769000 1300 61 1.000000 3.009000 3.165000 600 74 1.000000 0.057000 0.057000 1.200000 0.035000 0.042000
1518244157701269034	1300 70 1.200000 0.639000 0.769000 1300 62 1.000000 3.015000 3.171000 600 74 1.000000 0.057000 0.057000 1.200000 0.035000 0.042000
1518244158245263409	1300 70 1.200000 0.639000 0.769000 1300 62 1.000000 3.018000 3.174000 600 74 1.000000 0.057000 0.057000 1.200000 0.035000 0.042000
1518244158809251159	1300 70 1.200000 0.640000 0.771000 1300 62 1.000000 3.013000 3.169000 600 75 1.000000 0.057000 0.057000 1.200000 0.035000 0.042000
1518244159361264118	1300 70 1.200000 0.640000 0.771000 1300 62 1.000000 3.022000 3.179000 600 75 1.000000 0.057000 0.057000 1.200000 0.036000 0.043000
1518244159925301701	1300 70 1.200000 0.640000 0.771000 1300 62 1.000000 3.017000 3.173000 600 75 1.000000 0.057000 0.057000 1.200000 0.035000 0.042000
1518244160481244493	1300 71 1.200000 0.640000 0.771000 1300 63 1.000000 3.021000 3.178000 600 75 1.000000 0.057000 0.057000 1.200000 0.035000 0.042000
1518244161033213951	1300 71 1.200000 0.640000 0.771000 1300 63 1.000000 3.026000 3.183000 600 75 1.000000 0.057000 0.057000 1.200000 0.035000 0.042000
1518244161601252659	1300 71 1.200000 0.641000 0.772000 1300 63 1.000000 3.027000 3.184000 600 75 1.000000 0.057000 0.057000 1.200000 0.035000 0.042000
1518244162153244576	1300 71 1.200000 0.641000 0.772000 1300 63 1.000000 3.027000 3.184000 600 75 1.000000 0.057000 0.057000 1.200000 0.035000 0.042000
1518244162701244535	1300 71 1.200000 0.641000 0.772000 1300 63 1.000000 3.029000 3.186000 600 75 1.000000 0.058000 0.058000 1.200000 0.035000 0.042000
1518244163257235035	1300 71 1.200000 0.641000 0.772000 1300 63 1.000000 3.028000 3.185000 600 75 1.000000 0.058000 0.058000 1.200000 0.035000 0.042000
1518244163809222868	1300 71 1.200000 0.641000 0.772000 1300 63 1.000000 3.015000 3.171000 600 75 1.000000 0.058000 0.058000 1.200000 0.035000 0.042000
1518244164361238285	1300 71 1.200000 0.641000 0.772000 1300 63 1.000000 3.020000 3.177000 600 76 1.000000 0.058000 0.058000 1.200000 0.035000 0.042000
1518244164901216035	1300 71 1.200000 0.641000 0.772000 1300 63 1.000000 3.023000 3.180000 600 76 1.000000 0.058000 0.058000 1.200000 0.035000 0.042000
1518244165449219327	1300 71 1.200000 0.641000 0.772000 1300 63 1.000000 3.022000 3.179000 600 76 1.000000 0.058000 0.058000 1.200000 0.035000 0.042000
1518244166005269535	1300 71 1.200000 0.641000 0.772000 1300 63 1.000000 3.022000 3.179000 600 76 1.000000 0.057000 0.057000 1.200000 0.035000 0.042000
1518244166553200327	1300 72 1.200000 0.641000 0.772000 1300 63 1.000000 3.022000 3.179000 600 76 1.000000 0.057000 0.057000 1.200000 0.035000 0.042000
1518244167113244868	1300 72 1.200000 0.642000 0.773000 1300 63 1.000000 3.030000 3.187000 600 76 1.000000 0.058000 0.058000 1.200000 0.035000 0.042000
1518244167657208827	1300 71 1.200000 0.642000 0.773000 1300 63 1.000000 3.030000 3.187000 600 76 1.000000 0.058000 0.058000 1.200000 0.035000 0.042000
1518244168201273244	1300 72 1.200000 0.642000 0.773000 1300 63 1.000000 3.030000 3.187000 600 76 1.000000 0.058000 0.058000 1.200000 0.035000 0.042000
1518244168773252077	1300 72 1.200000 0.641000 0.772000 1300 63 1.000000 3.044000 3.202000 600 76 1.000000 0.058000 0.058000 1.200000 0.037000 0.044000
1518244169329199035	1300 72 1.200000 0.642000 0.773000 1300 63 1.000000 3.033000 3.190000 600 76 1.000000 0.058000 0.058000 1.200000 0.036000 0.043000
1518244169893252410	1300 72 1.200000 0.642000 0.773000 1300 63 1.000000 3.034000 3.191000 600 76 1.000000 0.058000 0.058000 1.200000 0.036000 0.043000
1518244170457237577	1300 72 1.200000 0.642000 0.773000 1300 63 1.000000 3.026000 3.183000 600 76 1.000000 0.057000 0.057000 1.200000 0.036000 0.043000
1518244171017244369	1300 72 1.200000 0.642000 0.773000 1300 64 1.000000 3.021000 3.178000 600 76 1.000000 0.058000 0.058000 1.200000 0.036000 0.043000
1518244171561229327	1300 72 1.200000 0.642000 0.773000 1300 64 1.000000 3.021000 3.178000 600 76 1.000000 0.058000 0.058000 1.200000 0.036000 0.043000
1518244172117257536	1300 72 1.200000 0.642000 0.773000 1300 63 1.000000 3.025000 3.182000 600 76 1.000000 0.058000 0.058000 1.200000 0.037000 0.044000
1518244172685221494	1300 72 1.200000 0.642000 0.773000 1300 64 1.000000 3.036000 3.193000 600 76 1.000000 0.058000 0.058000 1.200000 0.036000 0.043000
1518244173237240453	1300 72 1.200000 0.642000 0.773000 1300 64 1.000000 3.035000 3.192000 600 76 1.000000 0.058000 0.058000 1.200000 0.036000 0.043000
1518244173785222411	1300 72 1.200000 0.642000 0.773000 1300 64 1.000000 3.034000 3.191000 600 76 1.000000 0.058000 0.058000 1.200000 0.036000 0.043000
1518244174353196869	1300 72 1.200000 0.642000 0.773000 1300 64 1.000000 3.034000 3.191000 600 76 1.000000 0.058000 0.058000 1.200000 0.037000 0.044000
1518244174909196869	1300 72 1.200000 0.642000 0.773000 1300 64 1.000000 3.035000 3.192000 600 76 1.000000 0.058000 0.058000 1.200000 0.037000 0.044000
1518244175453570411	1300 72 1.200000 0.642000 0.773000 1300 64 1.000000 3.034000 3.191000 600 76 1.000000 0.058000 0.058000 1.200000 0.036000 0.043000
1518244176005197870	1300 72 1.200000 0.642000 0.773000 1300 64 1.000000 3.030000 3.187000 600 76 1.000000 0.058000 0.058000 1.200000 0.037000 0.044000
1518244176561270286	1300 72 1.200000 0.642000 0.773000 1300 64 1.000000 3.024000 3.181000 600 76 1.000000 0.058000 0.058000 1.200000 0.037000 0.044000
1518244177109222828	1300 72 1.200000 0.641000 0.772000 1300 64 1.000000 3.016000 3.172000 600 76 1.000000 0.058000 0.058000 1.200000 0.037000 0.044000
1518244177681198161	1300 72 1.200000 0.642000 0.773000 1300 64 1.000000 3.023000 3.180000 600 76 1.000000 0.058000 0.058000 1.200000 0.036000 0.043000
1518244178241206703	1300 72 1.200000 0.642000 0.773000 1300 64 1.000000 3.022000 3.179000 600 76 1.000000 0.058000 0.058000 1.200000 0.036000 0.043000
1518244178793236745	1300 72 1.200000 0.642000 0.773000 1300 64 1.000000 3.021000 3.178000 600 76 1.000000 0.058000 0.058000 1.200000 0.036000 0.043000
1518244179353179287	1300 72 1.200000 0.641000 0.772000 1300 64 1.000000 3.022000 3.179000 600 76 1.000000 0.058000 0.058000 1.200000 0.037000 0.044000
1518244179901217078	1300 72 1.200000 0.642000 0.773000 1300 64 1.000000 3.022000 3.179000 600 76 1.000000 0.058000 0.058000 1.200000 0.037000 0.044000
1518244180461236287	1300 72 1.200000 0.642000 0.773000 1300 64 1.000000 3.021000 3.178000 600 76 1.000000 0.058000 0.058000 1.200000 0.037000 0.044000
1518244181013224245	1300 72 1.200000 0.641000 0.772000 1300 64 1.000000 3.014000 3.170000 600 76 1.000000 0.058000 0.058000 1.200000 0.036000 0.043000
1518244181573197162	1300 72 1.200000 0.642000 0.773000 1300 64 1.000000 3.012000 3.168000 600 76 1.000000 0.058000 0.058000 1.200000 0.037000 0.044000
1518244182125202704	1300 72 1.200000 0.642000 0.773000 1300 64 1.000000 3.016000 3.172000 600 76 1.000000 0.058000 0.058000 1.200000 0.037000 0.044000
1518244182673225954	1300 72 1.200000 0.641000 0.772000 1300 64 1.000000 3.016000 3.172000 600 76 1.000000 0.058000 0.058000 1.200000 0.036000 0.043000
1518244183233187829	1300 72 1.200000 0.641000 0.772000 1300 64 1.000000 3.014000 3.170000 600 76 1.000000 0.058000 0.058000 1.200000 0.036000 0.043000
1518244183777228537	1300 72 1.200000 0.642000 0.773000 1300 64 1.000000 3.007000 3.163000 600 76 1.000000 0.058000 0.058000 1.200000 0.036000 0.043000
1518244184333188620	1300 72 1.200000 0.642000 0.773000 1300 64 1.000000 3.020000 3.177000 600 76 1.000000 0.058000 0.058000 1.200000 0.036000 0.043000
1518244184885174496	1300 72 1.200000 0.641000 0.772000 1300 64 1.000000 3.032000 3.189000 600 76 1.000000 0.058000 0.058000 1.200000 0.035000 0.042000
1518244185441222496	1300 72 1.200000 0.642000 0.773000 1300 64 1.000000 3.029000 3.186000 600 76 1.000000 0.058000 0.058000 1.200000 0.035000 0.042000
1518244185993242412	1300 72 1.200000 0.641000 0.772000 1300 64 1.000000 3.034000 3.191000 600 76 1.000000 0.058000 0.058000 1.200000 0.034000 0.041000
1518244186537239746	1300 72 1.200000 0.641000 0.772000 1300 64 1.000000 3.032000 3.189000 600 76 1.000000 0.058000 0.058000 1.200000 0.035000 0.042000
1518244187089235704	1300 72 1.200000 0.641000 0.772000 1300 64 1.000000 3.035000 3.192000 600 76 1.000000 0.058000 0.058000 1.200000 0.034000 0.041000
1518244187645242746	1300 72 1.200000 0.641000 0.772000 1300 64 1.000000 3.033000 3.190000 600 76 1.000000 0.058000 0.058000 1.200000 0.034000 0.041000
1518244188197218413	1300 72 1.200000 0.641000 0.772000 1300 64 1.000000 3.038000 3.195000 600 76 1.000000 0.058000 0.058000 1.200000 0.034000 0.041000
1518244188765187371	1300 72 1.200000 0.642000 0.773000 1300 64 1.000000 3.040000 3.198000 600 77 1.000000 0.058000 0.058000 1.200000 0.034000 0.041000
1518244189313237788	1300 72 1.200000 0.641000 0.772000 1300 64 1.000000 3.041000 3.199000 600 77 1.000000 0.058000 0.058000 1.200000 0.034000 0.041000
1518244189849269288	1300 72 1.200000 0.641000 0.772000 1300 64 1.000000 3.037000 3.194000 600 77 1.000000 0.058000 0.058000 1.200000 0.034000 0.041000
1518244190397181996	1300 72 1.200000 0.642000 0.773000 1300 64 1.000000 3.030000 3.187000 600 77 1.000000 0.058000 0.058000 1.200000 0.034000 0.041000
1518244190937251538	1300 72 1.200000 0.642000 0.773000 1300 64 1.000000 3.025000 3.182000 600 76 1.000000 0.058000 0.058000 1.200000 0.034000 0.041000
1518244191493242621	1300 72 1.200000 0.641000 0.772000 1300 64 1.000000 3.034000 3.191000 600 76 1.000000 0.058000 0.058000 1.200000 0.034000 0.041000
1518244192065204746	1300 72 1.200000 0.641000 0.772000 1300 64 1.000000 3.040000 3.198000 600 76 1.000000 0.058000 0.058000 1.200000 0.034000 0.041000
1518244192625219205	1300 72 1.200000 0.641000 0.772000 1300 64 1.000000 3.017000 3.173000 600 76 1.000000 0.058000 0.058000 1.200000 0.034000 0.041000
1518244193173243455	1300 72 1.200000 0.642000 0.773000 1300 64 1.000000 3.017000 3.173000 600 77 1.000000 0.058000 0.058000 1.200000 0.035000 0.042000
1518244193745209038	1300 72 1.200000 0.642000 0.773000 1300 64 1.000000 3.023000 3.180000 600 77 1.000000 0.058000 0.058000 1.200000 0.034000 0.041000
1518244194289232538	1300 72 1.200000 0.642000 0.773000 1300 64 1.000000 3.030000 3.187000 600 76 1.000000 0.058000 0.058000 1.200000 0.034000 0.041000
1518244194841255372	1300 72 1.200000 0.642000 0.773000 1300 64 1.000000 3.028000 3.185000 600 77 1.000000 0.058000 0.058000 1.200000 0.034000 0.041000
1518244195393274997	1300 72 1.200000 0.642000 0.773000 1300 64 1.000000 3.029000 3.186000 600 76 1.000000 0.058000 0.058000 1.200000 0.034000 0.041000
1518244195945258122	1300 72 1.200000 0.642000 0.773000 1300 64 1.000000 3.030000 3.187000 600 77 1.000000 0.058000 0.058000 1.200000 0.034000 0.041000
1518244196489224622	1300 72 1.200000 0.641000 0.772000 1300 64 1.000000 3.029000 3.186000 600 76 1.000000 0.058000 0.058000 1.200000 0.034000 0.041000
1518244197049230039	1300 72 1.200000 0.642000 0.773000 1300 64 1.000000 3.027000 3.184000 600 76 1.000000 0.058000 0.058000 1.200000 0.034000 0.041000
1518244197609246997	1300 72 1.200000 0.641000 0.772000 1300 64 1.000000 3.017000 3.173000 600 77 1.000000 0.058000 0.058000 1.200000 0.034000 0.041000
1518244198173223247	1300 72 1.200000 0.642000 0.773000 1300 64 1.000000 3.019000 3.175000 600 77 1.000000 0.058000 0.058000 1.200000 0.035000 0.042000
1518244198733206497	1300 72 1.200000 0.642000 0.773000 1300 64 1.000000 3.022000 3.179000 600 77 1.000000 0.058000 0.058000 1.200000 0.035000 0.042000
1518244199285259164	1300 72 1.200000 0.641000 0.772000 1300 64 1.000000 3.026000 3.183000 600 76 1.000000 0.058000 0.058000 1.200000 0.035000 0.042000
1518244199849252247	1300 72 1.200000 0.642000 0.773000 1300 64 1.000000 3.024000 3.181000 600 76 1.000000 0.058000 0.058000 1.200000 0.034000 0.041000
1518244200401255581	1300 72 1.200000 0.642000 0.773000 1300 64 1.000000 3.036000 3.193000 600 77 1.000000 0.058000 0.058000 1.200000 0.034000 0.041000
1518244200965257622	1300 72 1.200000 0.641000 0.772000 1300 64 1.000000 3.031000 3.188000 600 77 1.000000 0.058000 0.058000 1.200000 0.035000 0.042000
1518244201537219289	1300 72 1.200000 0.641000 0.772000 1300 64 1.000000 3.032000 3.189000 600 77 1.000000 0.058000 0.058000 1.200000 0.036000 0.043000
1518244202093237581	1300 72 1.200000 0.641000 0.772000 1300 64 1.000000 3.024000 3.181000 600 77 1.000000 0.058000 0.058000 1.200000 0.036000 0.043000
1518244202649226914	1300 72 1.200000 0.641000 0.772000 1300 64 1.000000 3.026000 3.183000 600 77 1.000000 0.058000 0.058000 1.200000 0.036000 0.043000
1518244203205230498	1300 72 1.200000 0.640000 0.771000 1300 64 1.000000 3.024000 3.181000 600 77 1.000000 0.058000 0.058000 1.200000 0.036000 0.043000
1518244203761230956	1300 72 1.200000 0.641000 0.772000 1300 64 1.000000 3.031000 3.188000 600 77 1.000000 0.058000 0.058000 1.200000 0.036000 0.043000
1518244204317194790	1300 72 1.200000 0.641000 0.772000 1300 64 1.000000 3.035000 3.192000 600 77 1.000000 0.058000 0.058000 1.200000 0.035000 0.042000
1518244204873231331	1300 72 1.200000 0.641000 0.772000 1300 64 1.000000 3.034000 3.191000 600 77 1.000000 0.058000 0.058000 1.200000 0.036000 0.043000
1518244205433226956	1300 72 1.200000 0.641000 0.772000 1300 64 1.000000 3.034000 3.191000 600 77 1.000000 0.058000 0.058000 1.200000 0.036000 0.043000
1518244205993207206	1300 72 1.200000 0.641000 0.772000 1300 64 1.000000 3.033000 3.190000 600 77 1.000000 0.058000 0.058000 1.200000 0.035000 0.042000
1518244206545237165	1300 72 1.200000 0.641000 0.772000 1300 64 1.000000 3.034000 3.191000 600 77 1.000000 0.058000 0.058000 1.200000 0.036000 0.043000
1518244207101171873	1300 72 1.200000 0.641000 0.772000 1300 64 1.000000 3.034000 3.191000 600 77 1.000000 0.058000 0.058000 1.200000 0.036000 0.043000
1518244207669282290	1300 72 1.200000 0.641000 0.772000 1300 64 1.000000 3.026000 3.183000 600 77 1.000000 0.058000 0.058000 1.200000 0.036000 0.043000
1518244208221284248	1300 72 1.200000 0.641000 0.772000 1300 64 1.000000 3.033000 3.190000 600 77 1.000000 0.058000 0.058000 1.200000 0.037000 0.044000
1518244208777282498	1300 72 1.200000 0.641000 0.772000 1300 64 1.000000 3.033000 3.190000 600 77 1.000000 0.058000 0.058000 1.200000 0.037000 0.044000
1518244209337258415	1300 72 1.200000 0.641000 0.772000 1300 64 1.000000 3.045000 3.203000 600 77 1.000000 0.058000 0.058000 1.200000 0.037000 0.044000
1518244209897200665	1300 72 1.200000 0.641000 0.772000 1300 64 1.000000 3.046000 3.204000 600 77 1.000000 0.058000 0.058000 1.200000 0.036000 0.043000
1518244210457212499	1300 72 1.200000 0.641000 0.772000 1300 64 1.000000 3.047000 3.205000 600 77 1.000000 0.058000 0.058000 1.200000 0.037000 0.044000
1518244211005179124	1300 72 1.200000 0.641000 0.772000 1300 64 1.000000 3.048000 3.206000 600 77 1.000000 0.058000 0.058000 1.200000 0.037000 0.044000
1518244211565193457	1300 72 1.200000 0.641000 0.772000 1300 64 1.000000 3.046000 3.204000 600 77 1.000000 0.058000 0.058000 1.200000 0.037000 0.044000
1518244212105201582	1300 72 1.200000 0.641000 0.772000 1300 64 1.000000 3.047000 3.205000 600 77 1.000000 0.058000 0.058000 1.200000 0.036000 0.043000
1518244212665238666	1300 72 1.200000 0.641000 0.772000 1300 64 1.000000 3.046000 3.204000 600 77 1.000000 0.058000 0.058000 1.200000 0.036000 0.043000
1518244213217242749	1300 72 1.200000 0.641000 0.772000 1300 64 1.000000 3.046000 3.204000 600 77 1.000000 0.058000 0.058000 1.200000 0.037000 0.044000
1518244213777247666	1300 72 1.200000 0.641000 0.772000 1300 64 1.000000 3.038000 3.195000 600 77 1.000000 0.058000 0.058000 1.200000 0.035000 0.042000
1518244214337241916	1300 72 1.200000 0.641000 0.772000 1300 64 1.000000 3.044000 3.202000 600 77 1.000000 0.058000 0.058000 1.200000 0.036000 0.043000
1518244214897253374	1300 72 1.200000 0.641000 0.772000 1300 64 1.000000 3.038000 3.195000 600 77 1.000000 0.058000 0.058000 1.200000 0.036000 0.043000
1518244215445251624	1300 72 1.200000 0.641000 0.772000 1300 64 1.000000 3.030000 3.187000 600 77 1.000000 0.058000 0.058000 1.200000 0.036000 0.043000
1518244215993239583	1300 72 1.200000 0.641000 0.772000 1300 64 1.000000 3.047000 3.205000 600 77 1.000000 0.058000 0.058000 1.200000 0.036000 0.043000
1518244216541265083	1300 72 1.200000 0.641000 0.772000 1300 64 1.000000 3.050000 3.208000 600 77 1.000000 0.058000 0.058000 1.200000 0.036000 0.043000
1518244217093278958	1300 73 1.200000 0.639000 0.769000 1300 64 1.000000 3.058000 3.217000 600 77 1.000000 0.058000 0.058000 1.200000 0.035000 0.042000
1518244217653207999	1300 72 1.200000 0.640000 0.771000 1300 64 1.000000 3.055000 3.213000 600 77 1.000000 0.058000 0.058000 1.200000 0.035000 0.042000
1518244218213242833	1300 72 1.200000 0.640000 0.771000 1300 64 1.000000 3.054000 3.212000 600 77 1.000000 0.058000 0.058000 1.200000 0.035000 0.042000
1518244218760448291	1300 73 1.200000 0.640000 0.771000 1300 64 1.000000 3.065000 3.224000 600 77 1.000000 0.058000 0.058000 1.200000 0.035000 0.042000
1518244219313228083	1300 73 1.200000 0.640000 0.771000 1300 64 1.000000 3.061000 3.220000 600 77 1.000000 0.058000 0.058000 1.200000 0.035000 0.042000
1518244219873204125	1300 72 1.200000 0.640000 0.771000 1300 64 1.000000 3.065000 3.224000 600 77 1.000000 0.058000 0.058000 1.200000 0.035000 0.042000
1518244220421235541	1300 72 1.200000 0.639000 0.769000 1300 64 1.000000 3.065000 3.224000 600 77 1.000000 0.058000 0.058000 1.200000 0.035000 0.042000
1518244220977240333	1300 73 1.200000 0.640000 0.771000 1300 64 1.000000 3.062000 3.221000 600 77 1.000000 0.058000 0.058000 1.200000 0.035000 0.042000
1518244221541217167	1300 73 1.200000 0.640000 0.771000 1300 64 1.000000 3.057000 3.215000 600 77 1.000000 0.058000 0.058000 1.200000 0.035000 0.042000
1518244222101203083	1300 72 1.200000 0.639000 0.769000 1300 64 1.000000 3.064000 3.223000 600 77 1.000000 0.058000 0.058000 1.200000 0.034000 0.041000
1518244222657228458	1300 73 1.200000 0.640000 0.771000 1300 64 1.000000 3.064000 3.223000 600 77 1.000000 0.058000 0.058000 1.200000 0.035000 0.042000
1518244223213228542	1300 73 1.200000 0.640000 0.771000 1300 64 1.000000 3.055000 3.213000 600 77 1.000000 0.058000 0.058000 1.200000 0.035000 0.042000
1518244223781240792	1300 73 1.200000 0.640000 0.771000 1300 64 1.000000 3.058000 3.220000 600 77 1.000000 0.058000 0.058000 1.200000 0.035000 0.042000
1518244224341240459	1300 72 1.200000 0.640000 0.771000 1300 64 1.000000 3.032000 3.192000 600 77 1.000000 0.058000 0.058000 1.200000 0.035000 0.042000
1518244224893268334	1300 73 1.200000 0.640000 0.771000 1300 64 1.000000 3.038000 3.195000 600 77 1.000000 0.058000 0.058000 1.200000 0.035000 0.042000
1518244225449239167	1300 72 1.200000 0.640000 0.771000 1300 64 1.000000 3.040000 3.201000 600 77 1.000000 0.058000 0.058000 1.200000 0.035000 0.042000
1518244226009242125	1300 72 1.200000 0.640000 0.771000 1300 64 1.000000 3.035000 3.192000 600 77 1.000000 0.058000 0.058000 1.200000 0.035000 0.042000
1518244226557222292	1300 72 1.200000 0.640000 0.771000 1300 64 1.000000 3.037000 3.194000 600 77 1.000000 0.058000 0.058000 1.200000 0.035000 0.042000
1518244227105229042	1300 72 1.200000 0.639000 0.769000 1300 64 1.000000 3.032000 3.189000 600 77 1.000000 0.058000 0.058000 1.200000 0.035000 0.042000
1518244227661195376	1300 72 1.200000 0.639000 0.769000 1300 64 1.000000 3.030000 3.187000 600 77 1.000000 0.058000 0.058000 1.200000 0.035000 0.042000
1518244228217207709	1300 72 1.200000 0.640000 0.771000 1300 64 1.000000 3.030000 3.187000 600 77 1.000000 0.058000 0.058000 1.200000 0.035000 0.042000
1518244228761222334	1300 72 1.200000 0.639000 0.769000 1300 64 1.000000 3.034000 3.191000 600 77 1.000000 0.058000 0.058000 1.200000 0.035000 0.042000
1518244229321241209	1300 72 1.200000 0.639000 0.769000 1300 64 1.000000 3.029000 3.186000 600 77 1.000000 0.058000 0.058000 1.200000 0.035000 0.042000
1518244229869175876	1300 72 1.200000 0.640000 0.771000 1300 64 1.000000 3.029000 3.186000 600 77 1.000000 0.058000 0.058000 1.200000 0.035000 0.042000
1518244230417239126	1300 73 1.200000 0.640000 0.771000 1300 64 1.000000 3.028000 3.185000 600 77 1.000000 0.058000 0.058000 1.200000 0.035000 0.042000
1518244230973216959	1300 72 1.200000 0.640000 0.771000 1300 64 1.000000 3.038000 3.195000 600 77 1.000000 0.058000 0.058000 1.200000 0.035000 0.042000
1518244231529230834	1300 72 1.200000 0.640000 0.771000 1300 64 1.000000 3.044000 3.202000 600 77 1.000000 0.058000 0.058000 1.200000 0.035000 0.042000
1518244232073281543	1300 73 1.200000 0.640000 0.771000 1300 64 1.000000 3.052000 3.210000 600 77 1.000000 0.058000 0.058000 1.200000 0.035000 0.042000
1518244232621223668	1300 73 1.200000 0.640000 0.771000 1300 64 1.000000 3.060000 3.219000 600 77 1.000000 0.058000 0.058000 1.200000 0.035000 0.042000
1518244233177244293	1300 73 1.200000 0.640000 0.771000 1300 64 1.000000 3.060000 3.219000 600 77 1.000000 0.058000 0.058000 1.200000 0.036000 0.043000
1518244233745191710	1300 73 1.200000 0.640000 0.771000 1300 64 1.000000 3.058000 3.217000 600 77 1.000000 0.058000 0.058000 1.200000 0.035000 0.042000
1518244234305238793	1300 73 1.200000 0.640000 0.771000 1300 64 1.000000 3.052000 3.210000 600 77 1.000000 0.058000 0.058000 1.200000 0.035000 0.042000
1518244234865230335	1300 73 1.200000 0.640000 0.771000 1300 64 1.000000 3.052000 3.210000 600 77 1.000000 0.058000 0.058000 1.200000 0.036000 0.043000
1518244235433213085	1300 73 1.200000 0.640000 0.771000 1300 64 1.000000 3.055000 3.213000 600 77 1.000000 0.058000 0.058000 1.200000 0.036000 0.043000
1518244235993248918	1300 73 1.200000 0.640000 0.771000 1300 64 1.000000 3.060000 3.219000 600 77 1.000000 0.058000 0.058000 1.200000 0.035000 0.042000
1518244236549244418	1300 73 1.200000 0.640000 0.771000 1300 64 1.000000 3.061000 3.220000 600 77 1.000000 0.058000 0.058000 1.200000 0.035000 0.042000
1518244237117245585	1300 73 1.200000 0.640000 0.771000 1300 64 1.000000 3.060000 3.219000 600 77 1.000000 0.058000 0.058000 1.200000 0.036000 0.043000
1518244237673226127	1300 73 1.200000 0.640000 0.771000 1300 64 1.000000 3.060000 3.219000 600 77 1.000000 0.058000 0.058000 1.200000 0.036000 0.043000
1518244238237254960	1300 73 1.200000 0.640000 0.771000 1300 64 1.000000 3.058000 3.217000 600 77 1.000000 0.058000 0.058000 1.200000 0.035000 0.042000
1518244238785211877	1300 73 1.200000 0.640000 0.771000 1300 64 1.000000 3.050000 3.208000 600 77 1.000000 0.058000 0.058000 1.200000 0.035000 0.042000
1518244239349254127	1300 73 1.200000 0.640000 0.771000 1300 64 1.000000 3.045000 3.203000 600 77 1.000000 0.058000 0.058000 1.200000 0.036000 0.043000
1518244239909227585	1300 73 1.200000 0.640000 0.771000 1300 64 1.000000 3.027000 3.184000 600 77 1.000000 0.058000 0.058000 1.200000 0.036000 0.043000
1518244240457245294	1300 73 1.200000 0.640000 0.771000 1300 64 1.000000 3.015000 3.171000 600 77 1.000000 0.058000 0.058000 1.200000 0.034000 0.041000
1518244241017262211	1300 72 1.200000 0.640000 0.771000 1300 64 1.000000 3.016000 3.172000 600 77 1.000000 0.058000 0.058000 1.200000 0.035000 0.042000
1518244241569247086	1300 72 1.200000 0.640000 0.771000 1300 64 1.000000 3.017000 3.173000 600 77 1.000000 0.058000 0.058000 1.200000 0.035000 0.042000
1518244242129230669	1300 72 1.200000 0.640000 0.771000 1300 64 1.000000 3.017000 3.173000 600 77 1.000000 0.058000 0.058000 1.200000 0.036000 0.043000
1518244242673239877	1300 72 1.200000 0.640000 0.771000 1300 64 1.000000 3.015000 3.171000 600 77 1.000000 0.058000 0.058000 1.200000 0.035000 0.042000
1518244243229221128	1300 73 1.200000 0.640000 0.771000 1300 64 1.000000 3.015000 3.171000 600 77 1.000000 0.058000 0.058000 1.200000 0.036000 0.043000
1518244243785231753	1300 73 1.200000 0.640000 0.771000 1300 64 1.000000 3.016000 3.172000 600 77 1.000000 0.058000 0.058000 1.200000 0.036000 0.043000
1518244244349197086	1300 72 1.200000 0.640000 0.771000 1300 64 1.000000 3.015000 3.171000 600 77 1.000000 0.058000 0.058000 1.200000 0.036000 0.043000
1518244244901222878	1300 72 1.200000 0.640000 0.771000 1300 64 1.000000 3.007000 3.163000 600 77 1.000000 0.058000 0.058000 1.200000 0.035000 0.042000
1518244245453225211	1300 72 1.200000 0.639000 0.769000 1300 64 1.000000 3.007000 3.163000 600 77 1.000000 0.058000 0.058000 1.200000 0.036000 0.043000
1518244246001253336	1300 72 1.200000 0.640000 0.771000 1300 64 1.000000 3.017000 3.173000 600 77 1.000000 0.058000 0.058000 1.200000 0.036000 0.043000
1518244246557215503	1300 72 1.200000 0.640000 0.771000 1300 64 1.000000 3.016000 3.172000 600 77 1.000000 0.058000 0.058000 1.200000 0.036000 0.043000
1518244247117196878	1300 72 1.200000 0.640000 0.771000 1300 64 1.000000 3.015000 3.171000 600 77 1.000000 0.058000 0.058000 1.200000 0.035000 0.042000
1518244247685250336	1300 72 1.200000 0.640000 0.771000 1300 64 1.000000 3.015000 3.171000 600 77 1.000000 0.058000 0.058000 1.200000 0.035000 0.042000
1518244248237267211	1300 72 1.200000 0.640000 0.771000 1300 64 1.000000 3.027000 3.184000 600 77 1.000000 0.058000 0.058000 1.200000 0.036000 0.043000
1518244248785227087	1300 72 1.200000 0.641000 0.772000 1300 64 1.000000 3.028000 3.185000 600 77 1.000000 0.058000 0.058000 1.200000 0.036000 0.043000
1518244249349228295	1300 73 1.200000 0.641000 0.772000 1300 64 1.000000 3.021000 3.178000 600 77 1.000000 0.058000 0.058000 1.200000 0.036000 0.043000
1518244249901231420	1300 73 1.200000 0.641000 0.772000 1300 64 1.000000 3.031000 3.188000 600 77 1.000000 0.058000 0.058000 1.200000 0.035000 0.042000
1518244250465264962	1300 73 1.200000 0.641000 0.772000 1300 64 1.000000 3.026000 3.183000 600 77 1.000000 0.058000 0.058000 1.200000 0.035000 0.042000
1518244251017252878	1300 72 1.200000 0.641000 0.772000 1300 64 1.000000 3.024000 3.181000 600 77 1.000000 0.058000 0.058000 1.200000 0.036000 0.043000
1518244251557275254	1300 73 1.200000 0.641000 0.772000 1300 64 1.000000 3.025000 3.182000 600 77 1.000000 0.058000 0.058000 1.200000 0.036000 0.043000
1518244252117261004	1300 73 1.200000 0.642000 0.773000 1300 64 1.000000 3.027000 3.184000 600 77 1.000000 0.058000 0.058000 1.200000 0.035000 0.042000
1518244252669221920	1300 73 1.200000 0.641000 0.772000 1300 64 1.000000 3.026000 3.183000 600 77 1.000000 0.058000 0.058000 1.200000 0.035000 0.042000
1518244253233186295	1300 73 1.200000 0.641000 0.772000 1300 64 1.000000 3.033000 3.190000 600 77 1.000000 0.058000 0.058000 1.200000 0.035000 0.042000
1518244253785244962	1300 73 1.200000 0.641000 0.772000 1300 64 1.000000 3.035000 3.192000 600 77 1.000000 0.058000 0.058000 1.200000 0.036000 0.043000
1518244254341203921	1300 73 1.200000 0.641000 0.772000 1300 64 1.000000 3.033000 3.190000 600 77 1.000000 0.058000 0.058000 1.200000 0.035000 0.042000
1518244254893239379	1300 72 1.200000 0.641000 0.772000 1300 64 1.000000 3.026000 3.183000 600 77 1.000000 0.058000 0.058000 1.200000 0.035000 0.042000
1518244255445293212	1300 73 1.200000 0.641000 0.772000 1300 64 1.000000 3.026000 3.183000 600 77 1.000000 0.058000 0.058000 1.200000 0.035000 0.042000
1518244255997264004	1300 73 1.200000 0.641000 0.772000 1300 64 1.000000 3.027000 3.184000 600 77 1.000000 0.058000 0.058000 1.200000 0.035000 0.042000
1518244256553232171	1300 72 1.200000 0.641000 0.772000 1300 64 1.000000 3.018000 3.174000 600 77 1.000000 0.058000 0.058000 1.200000 0.035000 0.042000
1518244257117249504	1300 73 1.200000 0.641000 0.772000 1300 64 1.000000 3.015000 3.171000 600 77 1.000000 0.058000 0.058000 1.200000 0.035000 0.042000
1518244257677270671	1300 73 1.200000 0.641000 0.772000 1300 64 1.000000 3.008000 3.164000 600 77 1.000000 0.058000 0.058000 1.200000 0.035000 0.042000
1518244258233232796	1300 73 1.200000 0.641000 0.772000 1300 64 1.000000 3.008000 3.164000 600 77 1.000000 0.058000 0.058000 1.200000 0.036000 0.043000
1518244258793224504	1300 73 1.200000 0.641000 0.772000 1300 64 1.000000 3.003000 3.159000 600 77 1.000000 0.058000 0.058000 1.200000 0.036000 0.043000
1518244259345266963	1300 73 1.200000 0.641000 0.772000 1300 64 1.000000 3.004000 3.160000 600 77 1.000000 0.058000 0.058000 1.200000 0.035000 0.042000
1518244259909243880	1300 73 1.200000 0.641000 0.772000 1300 64 1.000000 3.009000 3.165000 600 77 1.000000 0.058000 0.058000 1.200000 0.035000 0.042000
1518244260469232880	1300 73 1.200000 0.641000 0.772000 1300 64 1.000000 3.004000 3.160000 600 77 1.000000 0.058000 0.058000 1.200000 0.036000 0.043000
1518244261029185088	1300 73 1.200000 0.641000 0.772000 1300 64 1.000000 3.007000 3.163000 600 77 1.000000 0.058000 0.058000 1.200000 0.035000 0.042000
1518244261585193005	1300 73 1.200000 0.641000 0.772000 1300 64 1.000000 3.017000 3.173000 600 77 1.000000 0.058000 0.058000 1.200000 0.035000 0.042000
1518244262137278463	1300 73 1.200000 0.641000 0.772000 1300 64 1.000000 3.017000 3.173000 600 77 1.000000 0.058000 0.058000 1.200000 0.035000 0.042000
1518244262705239005	1300 73 1.200000 0.642000 0.773000 1300 64 1.000000 3.017000 3.173000 600 77 1.000000 0.058000 0.058000 1.200000 0.035000 0.042000
1518244263269236547	1300 73 1.200000 0.641000 0.772000 1300 64 1.000000 3.018000 3.174000 600 77 1.000000 0.058000 0.058000 1.200000 0.035000 0.042000
1518244263817271755	1300 73 1.200000 0.641000 0.772000 1300 64 1.000000 3.025000 3.182000 600 77 1.000000 0.058000 0.058000 1.200000 0.035000 0.042000
1518244264357244547	1300 73 1.200000 0.641000 0.772000 1300 64 1.000000 3.036000 3.193000 600 77 1.000000 0.058000 0.058000 1.200000 0.035000 0.042000
1518244264913253130	1300 73 1.200000 0.641000 0.772000 1300 64 1.000000 3.043000 3.201000 600 77 1.000000 0.058000 0.058000 1.200000 0.035000 0.042000
1518244265465245088	1300 73 1.200000 0.641000 0.772000 1300 64 1.000000 3.028000 3.185000 600 77 1.000000 0.058000 0.058000 1.200000 0.035000 0.042000
1518244266005228047	1300 73 1.200000 0.641000 0.772000 1300 64 1.000000 3.038000 3.195000 600 77 1.000000 0.058000 0.058000 1.200000 0.036000 0.043000
1518244266565228714	1300 73 1.200000 0.641000 0.772000 1300 64 1.000000 3.036000 3.193000 600 77 1.000000 0.058000 0.058000 1.200000 0.036000 0.043000
1518244267113234880	1300 73 1.200000 0.642000 0.773000 1300 64 1.000000 3.043000 3.201000 600 77 1.000000 0.058000 0.058000 1.200000 0.035000 0.042000
1518244267665262672	1300 73 1.200000 0.642000 0.773000 1300 64 1.000000 3.042000 3.200000 600 77 1.000000 0.058000 0.058000 1.200000 0.036000 0.043000
1518244268213209255	1300 73 1.200000 0.642000 0.773000 1300 64 1.000000 3.043000 3.201000 600 77 1.000000 0.058000 0.058000 1.200000 0.035000 0.042000
1518244268757245922	1300 73 1.200000 0.642000 0.773000 1300 64 1.000000 3.044000 3.202000 600 77 1.000000 0.058000 0.058000 1.200000 0.035000 0.042000
1518244269297275839	1300 73 1.200000 0.642000 0.773000 1300 64 1.000000 3.046000 3.204000 600 77 1.000000 0.058000 0.058000 1.200000 0.035000 0.042000
1518244269849243631	1300 73 1.200000 0.642000 0.773000 1300 64 1.000000 3.043000 3.201000 600 77 1.000000 0.058000 0.058000 1.200000 0.035000 0.042000
1518244270409209339	1300 73 1.200000 0.641000 0.772000 1300 64 1.000000 3.043000 3.201000 600 77 1.000000 0.058000 0.058000 1.200000 0.035000 0.042000
1518244270957269172	1300 73 1.200000 0.641000 0.772000 1300 64 1.000000 3.047000 3.208000 600 77 1.000000 0.058000 0.058000 1.200000 0.035000 0.042000
1518244271505254589	1300 73 1.200000 0.641000 0.772000 1300 64 1.000000 3.035000 3.192000 600 77 1.000000 0.058000 0.058000 1.200000 0.035000 0.042000
1518244272061223006	1300 73 1.200000 0.642000 0.773000 1300 64 1.000000 3.051000 3.209000 600 77 1.000000 0.058000 0.058000 1.200000 0.035000 0.042000
1518244272625234131	1300 73 1.200000 0.642000 0.773000 1300 64 1.000000 3.051000 3.209000 600 77 1.000000 0.058000 0.058000 1.200000 0.036000 0.043000
1518244273177224798	1300 73 1.200000 0.642000 0.773000 1300 64 1.000000 3.061000 3.220000 600 77 1.000000 0.058000 0.058000 1.200000 0.035000 0.042000
1518244273737247214	1300 73 1.200000 0.642000 0.773000 1300 64 1.000000 3.060000 3.219000 600 77 1.000000 0.058000 0.058000 1.200000 0.035000 0.042000
1518244274285268048	1300 73 1.200000 0.642000 0.773000 1300 64 1.000000 3.058000 3.217000 600 77 1.000000 0.058000 0.058000 1.200000 0.035000 0.042000
1518244274833241506	1300 73 1.200000 0.642000 0.773000 1300 64 1.000000 3.060000 3.219000 600 77 1.000000 0.058000 0.058000 1.200000 0.035000 0.042000
1518244275393234881	1300 73 1.200000 0.642000 0.773000 1300 64 1.000000 3.061000 3.220000 600 77 1.000000 0.058000 0.058000 1.200000 0.035000 0.042000
1518244275949194173	1300 73 1.200000 0.641000 0.772000 1300 64 1.000000 3.060000 3.222000 600 77 1.000000 0.058000 0.058000 1.200000 0.035000 0.042000
1518244276509220965	1300 73 1.200000 0.641000 0.772000 1300 64 1.000000 3.060000 3.219000 600 77 1.000000 0.058000 0.058000 1.200000 0.035000 0.042000
1518244277057278423	1300 73 1.200000 0.642000 0.773000 1300 65 1.000000 3.058000 3.217000 600 77 1.000000 0.058000 0.058000 1.200000 0.036000 0.043000
1518244277613221257	1300 73 1.200000 0.641000 0.772000 1300 65 1.000000 3.060000 3.219000 600 77 1.000000 0.058000 0.058000 1.200000 0.036000 0.043000
1518244278161220298	1300 73 1.200000 0.642000 0.773000 1300 65 1.000000 3.054000 3.212000 600 77 1.000000 0.058000 0.058000 1.200000 0.035000 0.042000
1518244278721250507	1300 73 1.200000 0.642000 0.773000 1300 64 1.000000 3.061000 3.220000 600 77 1.000000 0.058000 0.058000 1.200000 0.035000 0.042000
1518244279277290423	1300 73 1.200000 0.642000 0.773000 1300 64 1.000000 3.071000 3.230000 600 77 1.000000 0.058000 0.058000 1.200000 0.035000 0.042000
1518244279829272924	1300 73 1.200000 0.642000 0.773000 1300 64 1.000000 3.075000 3.234000 600 77 1.000000 0.058000 0.058000 1.200000 0.035000 0.042000
1518244280385292257	1300 73 1.200000 0.642000 0.773000 1300 65 1.000000 3.072000 3.231000 600 77 1.000000 0.058000 0.058000 1.200000 0.035000 0.042000
1518244280941275049	1300 73 1.200000 0.642000 0.773000 1300 65 1.000000 3.061000 3.220000 600 77 1.000000 0.058000 0.058000 1.200000 0.035000 0.042000
1518244281501211299	1300 73 1.200000 0.642000 0.773000 1300 65 1.000000 3.075000 3.234000 600 77 1.000000 0.058000 0.058000 1.200000 0.035000 0.042000
1518244282041299715	1300 73 1.200000 0.642000 0.773000 1300 65 1.000000 3.063000 3.222000 600 77 1.000000 0.058000 0.058000 1.200000 0.034000 0.041000
1518244282597235716	1300 73 1.200000 0.641000 0.772000 1300 65 1.000000 3.071000 3.230000 600 77 1.000000 0.058000 0.058000 1.200000 0.034000 0.041000
1518244283145251424	1300 73 1.200000 0.641000 0.772000 1300 65 1.000000 3.062000 3.221000 600 77 1.000000 0.058000 0.058000 1.200000 0.035000 0.042000
1518244283705251966	1300 73 1.200000 0.641000 0.772000 1300 65 1.000000 3.067000 3.226000 600 77 1.000000 0.058000 0.058000 1.200000 0.034000 0.041000
1518244284249281007	1300 73 1.200000 0.642000 0.773000 1300 65 1.000000 3.076000 3.239000 600 77 1.000000 0.058000 0.058000 1.200000 0.034000 0.041000
1518244284809238424	1300 73 1.200000 0.642000 0.773000 1300 65 1.000000 3.070000 3.232000 600 77 1.000000 0.058000 0.058000 1.200000 0.035000 0.042000
1518244285349247924	1300 73 1.200000 0.642000 0.773000 1300 65 1.000000 3.064000 3.223000 600 77 1.000000 0.058000 0.058000 1.200000 0.034000 0.041000
1518244285901268424	1300 73 1.200000 0.642000 0.773000 1300 65 1.000000 3.070000 3.229000 600 77 1.000000 0.058000 0.058000 1.200000 0.035000 0.042000
1518244286457266883	1300 73 1.200000 0.641000 0.772000 1300 65 1.000000 3.069000 3.228000 600 77 1.000000 0.058000 0.058000 1.200000 0.035000 0.042000
1518244287009269508	1300 73 1.200000 0.642000 0.773000 1300 65 1.000000 3.062000 3.221000 600 77 1.000000 0.058000 0.058000 1.200000 0.034000 0.041000
1518244287561258424	1300 73 1.200000 0.642000 0.773000 1300 65 1.000000 3.053000 3.211000 600 77 1.000000 0.058000 0.058000 1.200000 0.035000 0.042000
1518244288129234508	1300 73 1.200000 0.641000 0.772000 1300 65 1.000000 3.036000 3.193000 600 77 1.000000 0.058000 0.058000 1.200000 0.034000 0.041000
1518244288689282175	1300 73 1.200000 0.641000 0.772000 1300 65 1.000000 3.010000 3.166000 600 77 1.000000 0.058000 0.058000 1.200000 0.035000 0.042000
1518244289245278925	1300 73 1.200000 0.641000 0.772000 1300 65 1.000000 3.014000 3.170000 600 77 1.000000 0.058000 0.058000 1.200000 0.035000 0.042000
1518244289805210675	1300 73 1.200000 0.642000 0.773000 1300 65 1.000000 3.021000 3.178000 600 77 1.000000 0.058000 0.058000 1.200000 0.034000 0.041000
1518244290357256425	1300 73 1.200000 0.642000 0.773000 1300 65 1.000000 3.021000 3.178000 600 77 1.000000 0.058000 0.058000 1.200000 0.034000 0.041000
1518244290909226092	1300 73 1.200000 0.642000 0.773000 1300 64 1.000000 3.011000 3.167000 600 77 1.000000 0.058000 0.058000 1.200000 0.034000 0.041000
1518244291465279508	1300 73 1.200000 0.641000 0.772000 1300 64 1.000000 3.006000 3.162000 600 77 1.000000 0.058000 0.058000 1.200000 0.034000 0.041000
1518244292025245633	1300 73 1.200000 0.641000 0.772000 1300 65 1.000000 3.014000 3.170000 600 77 1.000000 0.058000 0.058000 1.200000 0.035000 0.042000
1518244292581247758	1300 73 1.200000 0.642000 0.773000 1300 64 1.000000 3.015000 3.171000 600 77 1.000000 0.058000 0.058000 1.200000 0.035000 0.042000
1518244293137227175	1300 73 1.200000 0.641000 0.772000 1300 64 1.000000 3.012000 3.168000 600 77 1.000000 0.058000 0.058000 1.200000 0.035000 0.042000
1518244293697237259	1300 73 1.200000 0.642000 0.773000 1300 64 1.000000 3.010000 3.166000 600 77 1.000000 0.058000 0.058000 1.200000 0.034000 0.041000
1518244294253270300	1300 73 1.200000 0.642000 0.773000 1300 64 1.000000 3.007000 3.163000 600 77 1.000000 0.058000 0.058000 1.200000 0.035000 0.042000
1518244294801270925	1300 73 1.200000 0.641000 0.772000 1300 65 1.000000 3.040000 3.198000 600 77 1.000000 0.058000 0.058000 1.200000 0.034000 0.041000
1518244295349273050	1300 73 1.200000 0.641000 0.772000 1300 64 1.000000 3.058000 3.217000 600 77 1.000000 0.058000 0.058000 1.200000 0.034000 0.041000
1518244295897270884	1300 73 1.200000 0.642000 0.773000 1300 65 1.000000 3.057000 3.215000 600 77 1.000000 0.058000 0.058000 1.200000 0.034000 0.041000
1518244296449224926	1300 73 1.200000 0.641000 0.772000 1300 65 1.000000 3.055000 3.213000 600 77 1.000000 0.058000 0.058000 1.200000 0.036000 0.043000
1518244297009240509	1300 73 1.200000 0.642000 0.773000 1300 65 1.000000 3.054000 3.212000 600 77 1.000000 0.058000 0.058000 1.200000 0.037000 0.044000
1518244297573232759	1300 73 1.200000 0.642000 0.773000 1300 65 1.000000 3.046000 3.204000 600 77 1.000000 0.058000 0.058000 1.200000 0.037000 0.044000
1518244298133256426	1300 73 1.200000 0.642000 0.773000 1300 65 1.000000 3.041000 3.199000 600 77 1.000000 0.058000 0.058000 1.200000 0.037000 0.044000
1518244298681266176	1300 73 1.200000 0.642000 0.773000 1300 65 1.000000 3.045000 3.203000 600 77 1.000000 0.058000 0.058000 1.200000 0.037000 0.044000
1518244299245252593	1300 73 1.200000 0.642000 0.773000 1300 65 1.000000 3.053000 3.211000 600 77 1.000000 0.058000 0.058000 1.200000 0.037000 0.044000
1518244299801261801	1300 73 1.200000 0.642000 0.773000 1300 65 1.000000 3.051000 3.209000 600 77 1.000000 0.058000 0.058000 1.200000 0.037000 0.044000
1518244300357238593	1300 73 1.200000 0.642000 0.773000 1300 65 1.000000 3.055000 3.213000 600 77 1.000000 0.058000 0.058000 1.200000 0.037000 0.044000
1518244300897260843	1300 73 1.200000 0.643000 0.774000 1300 65 1.000000 3.054000 3.212000 600 77 1.000000 0.058000 0.058000 1.200000 0.037000 0.044000
1518244301445196718	1300 73 1.200000 0.642000 0.773000 1300 65 1.000000 3.056000 3.214000 600 77 1.000000 0.058000 0.058000 1.200000 0.037000 0.044000
1518244301993243968	1300 73 1.200000 0.642000 0.773000 1300 65 1.000000 3.055000 3.213000 600 77 1.000000 0.058000 0.058000 1.200000 0.037000 0.044000
1518244302537191176	1300 73 1.200000 0.643000 0.774000 1300 65 1.000000 3.052000 3.210000 600 77 1.000000 0.058000 0.058000 1.200000 0.037000 0.044000
1518244303097206593	1300 73 1.200000 0.642000 0.773000 1300 65 1.000000 3.041000 3.199000 600 77 1.000000 0.058000 0.058000 1.200000 0.037000 0.044000
1518244303649214093	1300 73 1.200000 0.642000 0.773000 1300 64 1.000000 3.035000 3.192000 600 77 1.000000 0.058000 0.058000 1.200000 0.037000 0.044000
1518244304217225093	1300 73 1.200000 0.643000 0.774000 1300 65 1.000000 3.038000 3.195000 600 77 1.000000 0.058000 0.058000 1.200000 0.037000 0.044000
1518244304781205052	1300 73 1.200000 0.642000 0.773000 1300 65 1.000000 3.036000 3.193000 600 77 1.000000 0.058000 0.058000 1.200000 0.037000 0.044000
1518244305333221802	1300 73 1.200000 0.642000 0.773000 1300 65 1.000000 3.035000 3.192000 600 77 1.000000 0.058000 0.058000 1.200000 0.037000 0.044000
1518244305893210677	1300 73 1.200000 0.643000 0.774000 1300 65 1.000000 3.041000 3.199000 600 77 1.000000 0.058000 0.058000 1.200000 0.036000 0.043000
1518244306445223468	1300 73 1.200000 0.643000 0.774000 1300 65 1.000000 3.041000 3.199000 600 77 1.000000 0.058000 0.058000 1.200000 0.037000 0.044000
1518244306993268010	1300 73 1.200000 0.642000 0.773000 1300 65 1.000000 3.040000 3.198000 600 77 1.000000 0.058000 0.058000 1.200000 0.037000 0.044000
1518244307553226260	1300 73 1.200000 0.643000 0.774000 1300 65 1.000000 3.041000 3.199000 600 77 1.000000 0.058000 0.058000 1.200000 0.036000 0.043000
1518244308113213677	1300 73 1.200000 0.642000 0.773000 1300 65 1.000000 3.042000 3.200000 600 77 1.000000 0.058000 0.058000 1.200000 0.036000 0.043000
1518244308669172260	1300 73 1.200000 0.642000 0.773000 1300 65 1.000000 3.041000 3.199000 600 77 1.000000 0.058000 0.058000 1.200000 0.037000 0.044000
1518244309233244344	1300 73 1.200000 0.642000 0.773000 1300 65 1.000000 3.040000 3.198000 600 77 1.000000 0.058000 0.058000 1.200000 0.037000 0.044000
1518244309789261219	1300 73 1.200000 0.642000 0.773000 1300 65 1.000000 3.040000 3.198000 600 77 1.000000 0.058000 0.058000 1.200000 0.037000 0.044000
1518244310345249094	1300 73 1.200000 0.642000 0.773000 1300 65 1.000000 3.030000 3.187000 600 77 1.000000 0.058000 0.058000 1.200000 0.037000 0.044000
1518244310897235136	1300 73 1.200000 0.642000 0.773000 1300 65 1.000000 3.038000 3.195000 600 77 1.000000 0.058000 0.058000 1.200000 0.037000 0.044000
1518244311457253052	1300 73 1.200000 0.643000 0.774000 1300 65 1.000000 3.023000 3.180000 600 77 1.000000 0.058000 0.058000 1.200000 0.037000 0.044000
1518244312001283927	1300 73 1.200000 0.642000 0.773000 1300 65 1.000000 3.024000 3.181000 600 77 1.000000 0.058000 0.058000 1.200000 0.037000 0.044000
1518244312545265719	1300 73 1.200000 0.644000 0.776000 1300 65 1.000000 3.024000 3.181000 600 77 1.000000 0.058000 0.058000 1.200000 0.034000 0.041000
1518244313093240636	1300 73 1.200000 0.645000 0.777000 1300 65 1.000000 3.024000 3.181000 600 77 1.000000 0.058000 0.058000 1.200000 0.033000 0.039000
1518244313641214553	1300 73 1.200000 0.645000 0.777000 1300 64 1.000000 3.024000 3.181000 600 77 1.000000 0.058000 0.058000 1.200000 0.033000 0.039000
1518244314209245094	1300 73 1.200000 0.645000 0.777000 1300 65 1.000000 3.015000 3.171000 600 77 1.000000 0.058000 0.058000 1.200000 0.033000 0.039000
1518244314765274886	1300 73 1.200000 0.645000 0.777000 1300 65 1.000000 3.016000 3.172000 600 77 1.000000 0.058000 0.058000 1.200000 0.033000 0.039000
1518244315321235719	1300 73 1.200000 0.644000 0.776000 1300 64 1.000000 3.016000 3.172000 600 77 1.000000 0.058000 0.058000 1.200000 0.032000 0.038000
1518244315873188845	1300 73 1.200000 0.645000 0.777000 1300 65 1.000000 3.012000 3.168000 600 77 1.000000 0.058000 0.058000 1.200000 0.033000 0.039000
1518244316429193928	1300 73 1.200000 0.645000 0.777000 1300 64 1.000000 3.021000 3.178000 600 77 1.000000 0.058000 0.058000 1.200000 0.033000 0.039000
1518244316977225178	1300 73 1.200000 0.645000 0.777000 1300 65 1.000000 3.021000 3.178000 600 77 1.000000 0.058000 0.058000 1.200000 0.033000 0.039000
1518244317525227345	1300 73 1.200000 0.645000 0.777000 1300 64 1.000000 3.022000 3.179000 600 77 1.000000 0.058000 0.058000 1.200000 0.033000 0.039000
1518244318085241970	1300 73 1.200000 0.645000 0.777000 1300 65 1.000000 3.020000 3.177000 600 77 1.000000 0.058000 0.058000 1.200000 0.033000 0.039000
1518244318591720095	1300 72 1.200000 0.645000 0.777000 1300 64 1.000000 2.653000 2.785000 600 76 1.000000 0.058000 0.058000 1.200000 0.033000 0.039000
1518244319098057053	1300 71 1.200000 0.644000 0.776000 1300 64 1.000000 2.364000 2.477000 600 70 1.000000 0.058000 0.058000 1.200000 0.033000 0.039000
1518244319604303803	1300 64 1.200000 0.644000 0.776000 1300 62 1.000000 0.822000 0.859000 600 66 1.000000 0.058000 0.058000 1.200000 0.033000 0.039000
1518244320110386428	1300 61 1.200000 0.642000 0.773000 1300 60 1.000000 0.223000 0.234000 600 63 1.000000 0.058000 0.058000 1.200000 0.033000 0.039000
1518244320616482845	1300 60 1.200000 0.641000 0.772000 1300 59 1.000000 0.212000 0.222000 600 62 1.000000 0.057000 0.057000 1.200000 0.033000 0.039000
1518244321122456303	1300 59 1.200000 0.640000 0.771000 1300 59 1.000000 0.216000 0.226000 600 60 1.000000 0.057000 0.057000 1.200000 0.032000 0.038000
1518244321628518304	1300 59 1.200000 0.639000 0.769000 1300 58 1.000000 0.215000 0.225000 600 60 1.000000 0.057000 0.057000 1.200000 0.032000 0.038000
1518244322134457304	1300 58 1.200000 0.638000 0.769000 1300 57 1.000000 0.223000 0.234000 600 59 1.000000 0.057000 0.057000 1.200000 0.032000 0.038000
1518244322640388762	1300 57 1.200000 0.637000 0.767000 1300 57 1.000000 0.203000 0.213000 600 58 1.000000 0.056000 0.056000 1.200000 0.032000 0.038000
1518244323146371595	1300 57 1.200000 0.636000 0.766000 1300 56 1.000000 0.226000 0.237000 600 58 1.000000 0.056000 0.056000 1.200000 0.032000 0.038000
1518244323652376554	1300 56 1.200000 0.636000 0.766000 1300 56 1.000000 0.197000 0.206000 600 57 1.000000 0.055000 0.055000 1.200000 0.032000 0.038000
1518244324158370095	1300 56 1.200000 0.636000 0.766000 1300 55 1.000000 0.227000 0.238000 600 57 1.000000 0.055000 0.055000 1.200000 0.032000 0.038000
1518244324664322971	1300 55 1.200000 0.636000 0.766000 1300 55 1.000000 0.196000 0.205000 600 57 1.000000 0.055000 0.055000 1.200000 0.032000 0.038000
1518244325170317262	1300 55 1.200000 0.635000 0.765000 1300 55 1.000000 0.212000 0.222000 600 56 1.000000 0.055000 0.055000 1.200000 0.032000 0.038000
1518244325676242554	1300 55 1.200000 0.634000 0.763000 1300 55 1.000000 0.192000 0.201000 600 56 1.000000 0.055000 0.055000 1.200000 0.032000 0.038000
1518244326182214221	1300 55 1.200000 0.635000 0.765000 1300 54 1.000000 0.193000 0.202000 600 56 1.000000 0.055000 0.055000 1.200000 0.032000 0.038000
1518244326688145929	1300 54 1.200000 0.634000 0.763000 1300 54 1.000000 0.189000 0.198000 600 55 1.000000 0.055000 0.055000 1.200000 0.032000 0.038000
1518244327194042179	1300 54 1.200000 0.634000 0.763000 1300 54 1.000000 0.192000 0.201000 600 55 1.000000 0.055000 0.055000 1.200000 0.032000 0.038000
1518244327700095429	1300 54 1.200000 0.634000 0.763000 1300 54 1.000000 0.215000 0.225000 600 55 1.000000 0.055000 0.055000 1.200000 0.032000 0.038000
1518244328205926763	1300 52 1.200000 0.604000 0.728000 1300 52 1.000000 0.190000 0.199000 600 55 1.000000 0.055000 0.055000 1.200000 0.032000 0.038000
1518244328712278388	1300 51 1.200000 0.162000 0.197000 1300 51 1.000000 0.280000 0.294000 600 54 1.000000 0.055000 0.055000 1.200000 0.027000 0.032000
1518244329218431221	1300 51 1.200000 0.076000 0.093000 1300 50 1.000000 0.178000 0.186000 600 54 1.000000 0.055000 0.055000 1.200000 0.024000 0.028000
