#Timestamp	CPU(0) Frequency(MHz)	CPU(0) Temperature(C)	A7 Voltage(V)	A7 Current(A)	A7 Power(W)	CPU(4) Frequency(MHz)	CPU(4) Temperature(C)	A15 Voltage(V)	A15 Current(A)	A15 Power(W)	GPU Frequency(MHz)	GPU Temperature(C)	GPU Voltage(V)	GPU Current(A)	GPU Power(W)	RAM Voltage(V)	RAM Current(A)	RAM Power(W)
1517308172372740914	200 55 0.900000 0.017000 0.015000 2000 43 1.200000 1.885000 2.431000 600 48 1.000000 0.053000 0.053000 1.200000 0.055000 0.066000
1517308172881063581	200 57 0.900000 0.013000 0.011000 2000 44 1.300000 1.803000 2.388000 600 49 1.000000 0.053000 0.053000 1.200000 0.037000 0.044000
1517308173389243998	200 58 0.900000 0.014000 0.012000 2000 45 1.300000 1.842000 2.440000 600 50 1.000000 0.053000 0.053000 1.200000 0.036000 0.043000
1517308173897713123	200 59 0.900000 0.014000 0.012000 2000 46 1.300000 1.804000 2.390000 600 51 1.000000 0.053000 0.053000 1.200000 0.037000 0.044000
1517308174406002914	200 60 0.900000 0.014000 0.012000 2000 47 1.300000 1.808000 2.395000 600 51 1.000000 0.053000 0.053000 1.200000 0.036000 0.043000
1517308174913957873	200 60 0.900000 0.015000 0.013000 2000 47 1.300000 1.814000 2.403000 600 52 1.000000 0.054000 0.054000 1.200000 0.036000 0.043000
1517308175422346290	200 61 0.900000 0.015000 0.013000 2000 48 1.300000 1.814000 2.403000 600 52 1.000000 0.054000 0.054000 1.200000 0.036000 0.043000
1517308175930543290	200 61 0.900000 0.015000 0.013000 2000 48 1.300000 1.810000 2.398000 600 52 1.000000 0.054000 0.054000 1.200000 0.036000 0.043000
1517308176438731081	200 62 0.900000 0.015000 0.013000 2000 48 1.300000 1.824000 2.416000 600 53 1.000000 0.054000 0.054000 1.200000 0.037000 0.044000
1517308176946896373	200 62 0.900000 0.015000 0.013000 2000 49 1.300000 1.826000 2.419000 600 53 1.000000 0.054000 0.054000 1.200000 0.041000 0.049000
1517308177455345040	200 62 0.900000 0.019000 0.017000 2000 49 1.300000 2.165000 2.872000 600 54 1.000000 0.054000 0.054000 1.200000 0.042000 0.050000
1517308177963647957	200 62 0.900000 0.015000 0.013000 2000 49 1.300000 1.824000 2.416000 600 54 1.000000 0.054000 0.054000 1.200000 0.036000 0.043000
1517308178471866623	200 62 0.900000 0.015000 0.013000 2000 49 1.300000 1.864000 2.469000 600 54 1.000000 0.054000 0.054000 1.200000 0.036000 0.043000
1517308178980141998	200 63 0.900000 0.015000 0.013000 2000 49 1.300000 1.833000 2.428000 600 54 1.000000 0.054000 0.054000 1.200000 0.037000 0.044000
1517308179488401290	200 63 0.900000 0.015000 0.013000 2000 50 1.300000 1.828000 2.422000 600 54 1.000000 0.054000 0.054000 1.200000 0.036000 0.043000
1517308179996604915	200 63 0.900000 0.015000 0.013000 2000 50 1.300000 1.855000 2.457000 600 54 1.000000 0.054000 0.054000 1.200000 0.038000 0.045000
1517308180505056040	200 63 0.900000 0.015000 0.013000 2000 50 1.300000 1.841000 2.439000 600 54 1.000000 0.054000 0.054000 1.200000 0.037000 0.044000
1517308181013447207	200 63 0.900000 0.015000 0.013000 2000 50 1.300000 1.869000 2.476000 600 54 1.000000 0.054000 0.054000 1.200000 0.037000 0.044000
1517308181521719249	200 63 0.900000 0.015000 0.013000 2000 50 1.300000 1.838000 2.435000 600 54 1.000000 0.055000 0.055000 1.200000 0.037000 0.044000
1517308182029825082	200 63 0.900000 0.016000 0.014000 2000 50 1.300000 2.019000 2.677000 600 54 1.000000 0.054000 0.054000 1.200000 0.041000 0.049000
1517308182538165165	200 64 0.900000 0.016000 0.014000 2000 50 1.300000 1.855000 2.457000 600 55 1.000000 0.055000 0.055000 1.200000 0.037000 0.044000
1517308183046341957	200 63 0.900000 0.015000 0.013000 2000 50 1.300000 1.847000 2.447000 600 55 1.000000 0.054000 0.054000 1.200000 0.037000 0.044000
1517308183554584957	200 63 0.900000 0.015000 0.013000 2000 50 1.300000 1.871000 2.479000 600 54 1.000000 0.054000 0.054000 1.200000 0.037000 0.044000
1517308184062657957	200 63 0.900000 0.015000 0.013000 2000 50 1.300000 1.838000 2.435000 600 54 1.000000 0.054000 0.054000 1.200000 0.037000 0.044000
1517308184570899457	200 63 0.900000 0.015000 0.013000 2000 50 1.300000 1.860000 2.464000 600 54 1.000000 0.055000 0.055000 1.200000 0.036000 0.043000
1517308185079161624	200 63 0.900000 0.015000 0.013000 2000 50 1.300000 1.847000 2.447000 600 54 1.000000 0.054000 0.054000 1.200000 0.035000 0.042000
1517308185587516582	200 63 0.900000 0.015000 0.013000 2000 50 1.300000 1.840000 2.438000 600 54 1.000000 0.054000 0.054000 1.200000 0.037000 0.044000
1517308186095864707	200 63 0.900000 0.015000 0.013000 2000 50 1.300000 1.870000 2.477000 600 54 1.000000 0.055000 0.055000 1.200000 0.037000 0.044000
1517308186613800749	200 63 0.900000 0.015000 0.013000 2000 50 1.300000 1.832000 2.427000 600 54 1.000000 0.054000 0.054000 1.200000 0.038000 0.045000
1517308187124217458	200 63 0.900000 0.023000 0.021000 2000 50 1.300000 1.884000 2.496000 600 54 1.000000 0.054000 0.054000 1.200000 0.040000 0.048000
1517308187632408874	200 63 0.900000 0.016000 0.014000 2000 50 1.300000 1.830000 2.424000 600 56 1.000000 0.054000 0.054000 1.200000 0.037000 0.044000
1517308188140750083	200 63 0.900000 0.018000 0.016000 2000 50 1.300000 2.039000 2.703000 600 55 1.000000 0.054000 0.054000 1.200000 0.038000 0.045000
1517308188649160208	200 63 0.900000 0.015000 0.013000 2000 50 1.300000 1.849000 2.449000 600 54 1.000000 0.054000 0.054000 1.200000 0.037000 0.044000
1517308189157259791	200 63 0.900000 0.015000 0.013000 2000 50 1.300000 1.850000 2.451000 600 54 1.000000 0.054000 0.054000 1.200000 0.037000 0.044000
1517308189665618083	200 63 0.900000 0.016000 0.014000 2000 50 1.300000 1.857000 2.460000 600 54 1.000000 0.054000 0.054000 1.200000 0.037000 0.044000
1517308190173996791	200 63 0.900000 0.015000 0.013000 2000 50 1.300000 1.834000 2.430000 600 54 1.000000 0.054000 0.054000 1.200000 0.037000 0.044000
1517308190682249583	200 63 0.900000 0.015000 0.013000 2000 50 1.300000 1.874000 2.483000 600 54 1.000000 0.054000 0.054000 1.200000 0.036000 0.043000
1517308191190176583	200 63 0.900000 0.015000 0.013000 2000 50 1.300000 1.842000 2.440000 600 54 1.000000 0.054000 0.054000 1.200000 0.035000 0.042000
1517308191698509375	200 63 0.900000 0.015000 0.013000 2000 50 1.300000 1.822000 2.414000 600 54 1.000000 0.054000 0.054000 1.200000 0.036000 0.043000
1517308192206780167	200 63 0.900000 0.015000 0.013000 2000 50 1.300000 1.987000 2.634000 600 54 1.000000 0.055000 0.055000 1.200000 0.038000 0.045000
1517308192714830667	200 63 0.900000 0.015000 0.013000 2000 50 1.300000 1.833000 2.428000 600 57 1.000000 0.055000 0.055000 1.200000 0.037000 0.044000
1517308193223206750	200 63 0.900000 0.016000 0.014000 2000 50 1.300000 2.357000 3.127000 600 54 1.000000 0.055000 0.055000 1.200000 0.043000 0.051000
1517308193731333458	200 63 0.900000 0.015000 0.013000 2000 50 1.300000 1.837000 2.434000 600 54 1.000000 0.055000 0.055000 1.200000 0.036000 0.043000
1517308194239632000	200 63 0.900000 0.015000 0.013000 2000 50 1.300000 1.848000 2.448000 600 54 1.000000 0.055000 0.055000 1.200000 0.037000 0.044000
1517308194747726125	200 63 0.900000 0.015000 0.013000 2000 50 1.300000 1.860000 2.464000 600 54 1.000000 0.054000 0.054000 1.200000 0.036000 0.043000
1517308195256111250	200 63 0.900000 0.015000 0.013000 2000 50 1.300000 1.837000 2.434000 600 54 1.000000 0.055000 0.055000 1.200000 0.037000 0.044000
1517308195764418750	200 63 0.900000 0.015000 0.013000 2000 50 1.300000 1.871000 2.479000 600 54 1.000000 0.055000 0.055000 1.200000 0.037000 0.044000
1517308196272516375	200 63 0.900000 0.015000 0.013000 2000 50 1.300000 1.835000 2.431000 600 54 1.000000 0.054000 0.054000 1.200000 0.036000 0.043000
1517308196780911750	200 63 0.900000 0.015000 0.013000 2000 50 1.300000 1.847000 2.447000 600 54 1.000000 0.054000 0.054000 1.200000 0.036000 0.043000
1517308197289237542	200 63 0.900000 0.016000 0.014000 2000 50 1.300000 2.009000 2.663000 600 54 1.000000 0.054000 0.054000 1.200000 0.039000 0.047000
1517308197800230167	200 62 0.900000 0.015000 0.013000 2000 49 1.300000 1.827000 2.420000 600 57 1.000000 0.054000 0.054000 1.200000 0.036000 0.043000
1517308198309191459	200 63 0.900000 0.015000 0.013000 2000 50 1.300000 1.833000 2.428000 600 54 1.000000 0.054000 0.054000 1.200000 0.036000 0.043000
1517308198817488084	200 63 0.900000 0.015000 0.013000 2000 50 1.300000 1.819000 2.410000 600 54 1.000000 0.054000 0.054000 1.200000 0.036000 0.043000
1517308199325984667	200 63 0.900000 0.015000 0.013000 2000 50 1.300000 1.825000 2.418000 600 54 1.000000 0.054000 0.054000 1.200000 0.036000 0.043000
1517308199834498917	200 63 0.900000 0.015000 0.013000 2000 49 1.300000 1.870000 2.477000 600 53 1.000000 0.054000 0.054000 1.200000 0.037000 0.044000
1517308200342798334	200 62 0.900000 0.015000 0.013000 2000 50 1.300000 1.841000 2.439000 600 54 1.000000 0.054000 0.054000 1.200000 0.036000 0.043000
1517308200850900376	200 62 0.900000 0.016000 0.014000 2000 49 1.300000 1.846000 2.445000 600 54 1.000000 0.054000 0.054000 1.200000 0.037000 0.044000
1517308201359217126	200 62 0.900000 0.015000 0.013000 2000 49 1.300000 1.853000 2.455000 600 54 1.000000 0.054000 0.054000 1.200000 0.036000 0.043000
1517308201879110001	200 62 0.900000 0.015000 0.013000 2000 49 1.300000 1.834000 2.430000 600 54 1.000000 0.054000 0.054000 1.200000 0.036000 0.043000
1517308202387721376	200 63 0.900000 0.017000 0.015000 2000 49 1.300000 2.035000 2.698000 600 54 1.000000 0.054000 0.054000 1.200000 0.040000 0.048000
1517308202897894209	200 61 0.900000 0.015000 0.013000 2000 49 1.300000 1.835000 2.431000 600 55 1.000000 0.054000 0.054000 1.200000 0.036000 0.043000
1517308203406625835	200 63 0.900000 0.019000 0.017000 2000 49 1.300000 2.142000 2.840000 600 54 1.000000 0.054000 0.054000 1.200000 0.039000 0.047000
1517308203914723751	200 62 0.900000 0.015000 0.013000 2000 50 1.300000 1.836000 2.432000 600 54 1.000000 0.054000 0.054000 1.200000 0.036000 0.043000
1517308204422811668	200 62 0.900000 0.015000 0.013000 2000 49 1.300000 1.825000 2.418000 600 54 1.000000 0.054000 0.054000 1.200000 0.036000 0.043000
1517308204931267501	200 62 0.900000 0.015000 0.013000 2000 49 1.300000 1.822000 2.414000 600 53 1.000000 0.054000 0.054000 1.200000 0.036000 0.043000
1517308205439430210	200 62 0.900000 0.015000 0.013000 2000 49 1.300000 1.826000 2.419000 600 53 1.000000 0.054000 0.054000 1.200000 0.037000 0.044000
1517308205947740710	200 62 0.900000 0.015000 0.013000 2000 49 1.300000 1.816000 2.406000 600 53 1.000000 0.054000 0.054000 1.200000 0.035000 0.042000
1517308206456034752	200 62 0.900000 0.017000 0.015000 2000 49 1.300000 1.874000 2.483000 600 53 1.000000 0.054000 0.054000 1.200000 0.039000 0.047000
1517308206963933502	200 62 0.900000 0.017000 0.015000 2000 49 1.300000 1.848000 2.448000 600 54 1.000000 0.054000 0.054000 1.200000 0.037000 0.044000
1517308207472092335	200 62 0.900000 0.015000 0.013000 2000 49 1.300000 2.024000 2.681000 600 53 1.000000 0.054000 0.054000 1.200000 0.040000 0.048000
1517308207980264210	200 62 0.900000 0.015000 0.013000 2000 49 1.300000 1.816000 2.406000 600 53 1.000000 0.054000 0.054000 1.200000 0.037000 0.044000
1517308208488732543	200 63 0.900000 0.017000 0.015000 2000 49 1.300000 2.344000 3.110000 600 54 1.000000 0.054000 0.054000 1.200000 0.044000 0.053000
1517308208997051960	200 62 0.900000 0.018000 0.016000 2000 49 1.300000 1.843000 2.441000 600 53 1.000000 0.054000 0.054000 1.200000 0.036000 0.043000
1517308209505171460	200 62 0.900000 0.015000 0.013000 2000 49 1.300000 1.825000 2.418000 600 53 1.000000 0.054000 0.054000 1.200000 0.036000 0.043000
1517308210013350377	200 62 0.900000 0.015000 0.013000 2000 49 1.300000 1.813000 2.402000 600 53 1.000000 0.054000 0.054000 1.200000 0.036000 0.043000
1517308210521575335	200 62 0.900000 0.015000 0.013000 2000 49 1.300000 1.815000 2.404000 600 53 1.000000 0.054000 0.054000 1.200000 0.036000 0.043000
1517308211029866710	200 62 0.900000 0.015000 0.013000 2000 49 1.300000 1.818000 2.408000 600 53 1.000000 0.054000 0.054000 1.200000 0.036000 0.043000
1517308211538129002	200 62 0.900000 0.015000 0.013000 2000 49 1.300000 1.819000 2.410000 600 53 1.000000 0.054000 0.054000 1.200000 0.036000 0.043000
1517308212046121461	200 62 0.900000 0.015000 0.013000 2000 49 1.300000 1.814000 2.403000 600 54 1.000000 0.054000 0.054000 1.200000 0.037000 0.044000
1517308212554333794	200 62 0.900000 0.015000 0.013000 2000 49 1.300000 1.816000 2.406000 600 53 1.000000 0.054000 0.054000 1.200000 0.036000 0.043000
1517308213062557294	200 62 0.900000 0.015000 0.013000 2000 49 1.300000 1.818000 2.408000 600 53 1.000000 0.054000 0.054000 1.200000 0.035000 0.042000
1517308213571626336	200 56 0.900000 0.019000 0.017000 2000 48 1.300000 1.784000 2.363000 600 55 1.000000 0.054000 0.054000 1.200000 0.136000 0.165000
1517308214079730752	200 58 0.900000 0.017000 0.015000 2000 48 1.300000 1.593000 2.107000 600 53 1.000000 0.054000 0.054000 1.200000 0.155000 0.188000
1517308214587534628	200 58 0.900000 0.015000 0.013000 2000 48 1.300000 1.530000 2.024000 600 53 1.000000 0.054000 0.054000 1.200000 0.051000 0.061000
1517308215095480753	200 58 0.900000 0.015000 0.013000 2000 48 1.300000 1.511000 1.999000 600 52 1.000000 0.054000 0.054000 1.200000 0.050000 0.060000
1517308215603193878	200 58 0.900000 0.015000 0.013000 2000 48 1.300000 1.504000 1.989000 600 52 1.000000 0.054000 0.054000 1.200000 0.051000 0.061000
1517308216110614003	200 57 0.900000 0.014000 0.012000 2000 47 1.300000 1.508000 1.995000 600 52 1.000000 0.054000 0.054000 1.200000 0.050000 0.060000
1517308216618061419	200 57 0.900000 0.015000 0.013000 2000 47 1.300000 1.522000 2.013000 600 52 1.000000 0.054000 0.054000 1.200000 0.052000 0.062000
1517308217125758253	200 57 0.900000 0.014000 0.012000 2000 47 1.300000 1.544000 2.042000 600 52 1.000000 0.053000 0.053000 1.200000 0.051000 0.061000
1517308217633508628	200 57 0.900000 0.015000 0.013000 2000 47 1.300000 1.670000 2.212000 600 52 1.000000 0.054000 0.054000 1.200000 0.056000 0.067000
1517308218141453920	200 57 0.900000 0.014000 0.012000 2000 47 1.300000 1.530000 2.024000 600 51 1.000000 0.054000 0.054000 1.200000 0.051000 0.061000
1517308218649605461	200 57 0.900000 0.018000 0.016000 2000 47 1.300000 1.533000 2.028000 600 53 1.000000 0.054000 0.054000 1.200000 0.051000 0.061000
1517308219157327795	200 57 0.900000 0.014000 0.012000 2000 47 1.300000 1.518000 2.008000 600 52 1.000000 0.054000 0.054000 1.200000 0.052000 0.062000
1517308219665244461	200 57 0.900000 0.015000 0.013000 2000 47 1.300000 1.552000 2.053000 600 51 1.000000 0.053000 0.053000 1.200000 0.050000 0.060000
1517308220172909712	200 57 0.900000 0.014000 0.012000 2000 47 1.300000 1.511000 1.999000 600 51 1.000000 0.054000 0.054000 1.200000 0.052000 0.062000
1517308220680936462	200 57 0.900000 0.015000 0.013000 2000 47 1.300000 1.534000 2.029000 600 51 1.000000 0.054000 0.054000 1.200000 0.051000 0.061000
1517308221188995128	200 57 0.900000 0.014000 0.012000 2000 47 1.300000 1.518000 2.008000 600 51 1.000000 0.054000 0.054000 1.200000 0.052000 0.062000
1517308221696660753	200 57 0.900000 0.015000 0.013000 2000 47 1.300000 1.514000 2.003000 600 51 1.000000 0.054000 0.054000 1.200000 0.052000 0.062000
1517308222204410628	200 57 0.900000 0.014000 0.012000 2000 47 1.300000 1.537000 2.033000 600 51 1.000000 0.053000 0.053000 1.200000 0.051000 0.061000
1517308222712299045	200 57 0.900000 0.014000 0.012000 2000 46 1.300000 1.646000 2.180000 600 51 1.000000 0.053000 0.053000 1.200000 0.055000 0.066000
1517308223220183879	200 56 0.900000 0.014000 0.012000 2000 47 1.300000 1.542000 2.040000 600 51 1.000000 0.053000 0.053000 1.200000 0.051000 0.061000
1517308223728067795	200 57 0.900000 0.014000 0.012000 2000 47 1.300000 1.502000 1.987000 600 53 1.000000 0.053000 0.053000 1.200000 0.052000 0.062000
1517308224235862295	200 57 0.900000 0.014000 0.012000 2000 47 1.300000 1.627000 2.152000 600 51 1.000000 0.053000 0.053000 1.200000 0.054000 0.065000
1517308224743560670	200 56 0.900000 0.014000 0.012000 2000 47 1.300000 1.528000 2.021000 600 51 1.000000 0.054000 0.054000 1.200000 0.051000 0.061000
1517308225251452587	200 56 0.900000 0.014000 0.012000 2000 46 1.300000 1.512000 2.000000 600 51 1.000000 0.054000 0.054000 1.200000 0.052000 0.062000
1517308225759152921	200 56 0.900000 0.015000 0.013000 2000 46 1.300000 1.532000 2.026000 600 51 1.000000 0.053000 0.053000 1.200000 0.051000 0.061000
1517308226266739754	200 56 0.900000 0.014000 0.012000 2000 46 1.300000 1.493000 1.975000 600 51 1.000000 0.054000 0.054000 1.200000 0.051000 0.061000
1517308226774618337	200 56 0.900000 0.014000 0.012000 2000 46 1.300000 1.493000 1.975000 600 51 1.000000 0.053000 0.053000 1.200000 0.050000 0.060000
1517308227282572796	200 56 0.900000 0.014000 0.012000 2000 46 1.300000 1.551000 2.051000 600 51 1.000000 0.053000 0.053000 1.200000 0.051000 0.061000
1517308227790086546	200 56 0.900000 0.015000 0.013000 2000 46 1.300000 1.637000 2.165000 600 51 1.000000 0.053000 0.053000 1.200000 0.054000 0.065000
1517308228297752421	200 56 0.900000 0.014000 0.012000 2000 46 1.300000 1.515000 2.004000 600 50 1.000000 0.053000 0.053000 1.200000 0.050000 0.060000
1517308228806019254	200 56 0.900000 0.014000 0.012000 2000 46 1.300000 1.508000 1.995000 600 54 1.000000 0.053000 0.053000 1.200000 0.052000 0.062000
1517308229313639754	200 56 0.900000 0.015000 0.013000 2000 46 1.300000 1.947000 2.579000 600 51 1.000000 0.053000 0.053000 1.200000 0.059000 0.071000
1517308229821477171	200 56 0.900000 0.014000 0.012000 2000 46 1.300000 1.501000 1.985000 600 51 1.000000 0.053000 0.053000 1.200000 0.051000 0.061000
1517308230329269796	200 56 0.900000 0.014000 0.012000 2000 46 1.300000 1.537000 2.033000 600 50 1.000000 0.053000 0.053000 1.200000 0.051000 0.061000
1517308230837074213	200 56 0.900000 0.014000 0.012000 2000 46 1.300000 1.504000 1.989000 600 50 1.000000 0.053000 0.053000 1.200000 0.051000 0.061000
1517308231344826213	200 56 0.900000 0.014000 0.012000 2000 46 1.300000 1.519000 2.009000 600 50 1.000000 0.053000 0.053000 1.200000 0.052000 0.062000
1517308231861065588	200 56 0.900000 0.014000 0.012000 2000 46 1.300000 1.521000 2.012000 600 50 1.000000 0.053000 0.053000 1.200000 0.051000 0.061000
1517308232370483546	200 56 0.900000 0.015000 0.013000 2000 46 1.300000 1.562000 2.066000 600 51 1.000000 0.053000 0.053000 1.200000 0.052000 0.062000
1517308232878201213	200 56 0.900000 0.014000 0.012000 2000 46 1.300000 1.487000 1.967000 600 50 1.000000 0.053000 0.053000 1.200000 0.050000 0.060000
1517308233385956088	200 56 0.900000 0.014000 0.012000 2000 46 1.300000 1.487000 1.967000 600 50 1.000000 0.053000 0.053000 1.200000 0.050000 0.060000
1517308233907909547	200 56 0.900000 0.014000 0.012000 2000 46 1.300000 1.489000 1.969000 600 53 1.000000 0.054000 0.054000 1.200000 0.051000 0.061000
1517308234418965380	200 56 0.900000 0.014000 0.012000 2000 46 1.300000 1.500000 1.984000 600 51 1.000000 0.053000 0.053000 1.200000 0.050000 0.060000
1517308234926848172	200 56 0.900000 0.014000 0.012000 2000 46 1.300000 1.529000 2.022000 600 50 1.000000 0.053000 0.053000 1.200000 0.051000 0.061000
1517308235434596213	200 56 0.900000 0.014000 0.012000 2000 46 1.300000 1.494000 1.976000 600 50 1.000000 0.053000 0.053000 1.200000 0.051000 0.061000
1517308235942206088	200 56 0.900000 0.014000 0.012000 2000 46 1.300000 1.534000 2.029000 600 50 1.000000 0.053000 0.053000 1.200000 0.052000 0.062000
1517308236449713297	200 56 0.900000 0.014000 0.012000 2000 46 1.300000 1.500000 1.984000 600 50 1.000000 0.053000 0.053000 1.200000 0.051000 0.061000
1517308236957361089	200 56 0.900000 0.014000 0.012000 2000 46 1.300000 1.524000 2.016000 600 50 1.000000 0.053000 0.053000 1.200000 0.052000 0.062000
1517308237465153839	200 56 0.900000 0.015000 0.013000 2000 46 1.300000 1.607000 2.129000 600 50 1.000000 0.053000 0.053000 1.200000 0.053000 0.064000
1517308237972819964	200 56 0.900000 0.015000 0.013000 2000 46 1.300000 1.511000 1.999000 600 50 1.000000 0.053000 0.053000 1.200000 0.051000 0.061000
1517308238480671339	200 56 0.900000 0.014000 0.012000 2000 46 1.300000 1.495000 1.977000 600 50 1.000000 0.053000 0.053000 1.200000 0.051000 0.061000
1517308238991385005	200 55 0.900000 0.014000 0.012000 2000 45 1.300000 1.494000 1.976000 600 51 1.000000 0.053000 0.053000 1.200000 0.051000 0.061000
1517308239500372297	200 56 0.900000 0.017000 0.015000 2000 46 1.300000 1.694000 2.244000 600 51 1.000000 0.053000 0.053000 1.200000 0.055000 0.066000
1517308240008024714	200 56 0.900000 0.014000 0.012000 2000 46 1.300000 1.484000 1.963000 600 50 1.000000 0.053000 0.053000 1.200000 0.050000 0.060000
1517308240515727131	200 56 0.900000 0.014000 0.012000 2000 46 1.300000 1.488000 1.968000 600 50 1.000000 0.053000 0.053000 1.200000 0.050000 0.060000
1517308241023399547	200 56 0.900000 0.014000 0.012000 2000 46 1.300000 1.490000 1.971000 600 50 1.000000 0.053000 0.053000 1.200000 0.050000 0.060000
1517308241531129922	200 55 0.900000 0.013000 0.011000 2000 46 1.300000 1.486000 1.965000 600 50 1.000000 0.053000 0.053000 1.200000 0.051000 0.061000
1517308242038651756	200 55 0.900000 0.014000 0.012000 2000 45 1.300000 1.525000 2.017000 600 50 1.000000 0.053000 0.053000 1.200000 0.051000 0.061000
1517308242546427964	200 55 0.900000 0.014000 0.012000 2000 45 1.300000 1.613000 2.133000 600 50 1.000000 0.054000 0.054000 1.200000 0.055000 0.066000
1517308243054100923	200 55 0.900000 0.014000 0.012000 2000 45 1.300000 1.512000 2.000000 600 50 1.000000 0.053000 0.053000 1.200000 0.051000 0.061000
1517308243561662173	200 55 0.900000 0.013000 0.011000 2000 45 1.300000 1.520000 2.010000 600 50 1.000000 0.053000 0.053000 1.200000 0.052000 0.062000
1517308244069415839	200 55 0.900000 0.013000 0.011000 2000 45 1.300000 1.487000 1.967000 600 50 1.000000 0.053000 0.053000 1.200000 0.051000 0.061000
1517308244576949423	200 56 0.900000 0.015000 0.013000 2000 45 1.300000 1.979000 2.624000 600 50 1.000000 0.054000 0.054000 1.200000 0.061000 0.073000
1517308245084762673	200 55 0.900000 0.014000 0.012000 2000 45 1.300000 1.485000 1.964000 600 50 1.000000 0.053000 0.053000 1.200000 0.050000 0.060000
1517308245592522090	200 55 0.900000 0.014000 0.012000 2000 45 1.300000 1.490000 1.971000 600 50 1.000000 0.053000 0.053000 1.200000 0.050000 0.060000
1517308246100247131	200 55 0.900000 0.014000 0.012000 2000 45 1.300000 1.487000 1.967000 600 50 1.000000 0.053000 0.053000 1.200000 0.050000 0.060000
1517308246608077798	200 55 0.900000 0.014000 0.012000 2000 45 1.300000 1.481000 1.959000 600 50 1.000000 0.053000 0.053000 1.200000 0.051000 0.061000
1517308247115629881	200 55 0.900000 0.014000 0.012000 2000 45 1.300000 1.482000 1.960000 600 50 1.000000 0.053000 0.053000 1.200000 0.050000 0.060000
1517308247623262173	200 55 0.900000 0.014000 0.012000 2000 45 1.300000 1.508000 1.995000 600 50 1.000000 0.053000 0.053000 1.200000 0.052000 0.062000
1517308248130808340	200 55 0.900000 0.013000 0.011000 2000 45 1.300000 1.489000 1.969000 600 50 1.000000 0.053000 0.053000 1.200000 0.051000 0.061000
1517308248638568507	200 55 0.900000 0.014000 0.012000 2000 45 1.300000 1.491000 1.972000 600 50 1.000000 0.053000 0.053000 1.200000 0.051000 0.061000
1517308249146252132	200 55 0.900000 0.014000 0.012000 2000 45 1.300000 1.526000 2.017000 600 50 1.000000 0.053000 0.053000 1.200000 0.051000 0.061000
1517308249653951840	200 56 0.900000 0.017000 0.015000 2000 45 1.300000 1.988000 2.634000 600 50 1.000000 0.053000 0.053000 1.200000 0.061000 0.073000
1517308250161588965	200 55 0.900000 0.014000 0.012000 2000 45 1.300000 1.489000 1.969000 600 50 1.000000 0.053000 0.053000 1.200000 0.050000 0.060000
1517308250669350549	200 55 0.900000 0.014000 0.012000 2000 45 1.300000 1.490000 1.971000 600 50 1.000000 0.053000 0.053000 1.200000 0.050000 0.060000
1517308251176912007	200 55 0.900000 0.014000 0.012000 2000 45 1.300000 1.483000 1.962000 600 50 1.000000 0.053000 0.053000 1.200000 0.050000 0.060000
1517308251684821132	200 55 0.900000 0.014000 0.012000 2000 45 1.300000 1.480000 1.958000 600 49 1.000000 0.053000 0.053000 1.200000 0.050000 0.060000
1517308252192756965	200 55 0.900000 0.014000 0.012000 2000 45 1.300000 1.482000 1.960000 600 50 1.000000 0.053000 0.053000 1.200000 0.050000 0.060000
1517308252700725965	200 55 0.900000 0.014000 0.012000 2000 45 1.300000 1.497000 1.980000 600 50 1.000000 0.053000 0.053000 1.200000 0.052000 0.062000
1517308253208444799	200 55 0.900000 0.014000 0.012000 2000 45 1.300000 1.483000 1.962000 600 49 1.000000 0.053000 0.053000 1.200000 0.050000 0.060000
1517308253715928091	200 55 0.900000 0.013000 0.011000 2000 45 1.300000 1.512000 2.000000 600 49 1.000000 0.053000 0.053000 1.200000 0.050000 0.060000
1517308254223659632	200 55 0.900000 0.013000 0.011000 2000 45 1.300000 1.510000 1.997000 600 49 1.000000 0.053000 0.053000 1.200000 0.050000 0.060000
1517308254731611632	200 55 0.900000 0.017000 0.015000 2000 45 1.300000 1.725000 2.285000 600 50 1.000000 0.053000 0.053000 1.200000 0.054000 0.065000
1517308255239416507	200 55 0.900000 0.014000 0.012000 2000 45 1.300000 1.785000 2.365000 600 50 1.000000 0.053000 0.053000 1.200000 0.057000 0.068000
1517308255747382091	200 55 0.900000 0.014000 0.012000 2000 45 1.300000 1.487000 1.967000 600 50 1.000000 0.053000 0.053000 1.200000 0.052000 0.062000
1517308256254939424	200 55 0.900000 0.014000 0.012000 2000 45 1.300000 1.521000 2.012000 600 49 1.000000 0.053000 0.053000 1.200000 0.051000 0.061000
1517308256762537174	200 55 0.900000 0.013000 0.011000 2000 45 1.300000 1.502000 1.987000 600 49 1.000000 0.053000 0.053000 1.200000 0.052000 0.062000
1517308257270253424	200 55 0.900000 0.014000 0.012000 2000 45 1.300000 1.513000 2.001000 600 49 1.000000 0.053000 0.053000 1.200000 0.051000 0.061000
1517308257777746716	200 55 0.900000 0.014000 0.012000 2000 45 1.300000 1.684000 2.227000 600 49 1.000000 0.053000 0.053000 1.200000 0.053000 0.064000
1517308258285751633	200 55 0.900000 0.014000 0.012000 2000 45 1.300000 1.497000 1.980000 600 49 1.000000 0.053000 0.053000 1.200000 0.052000 0.062000
1517308258793688549	200 55 0.900000 0.014000 0.012000 2000 45 1.300000 1.539000 2.036000 600 49 1.000000 0.053000 0.053000 1.200000 0.051000 0.061000
1517308259301400758	200 55 0.900000 0.014000 0.012000 2000 45 1.300000 1.486000 1.965000 600 49 1.000000 0.053000 0.053000 1.200000 0.051000 0.061000
1517308259809308300	200 55 0.900000 0.015000 0.013000 2000 45 1.300000 1.532000 2.026000 600 51 1.000000 0.053000 0.053000 1.200000 0.051000 0.061000
1517308260317072383	200 55 0.900000 0.013000 0.011000 2000 45 1.300000 1.508000 1.995000 600 50 1.000000 0.053000 0.053000 1.200000 0.051000 0.061000
1517308260824857591	200 55 0.900000 0.014000 0.012000 2000 45 1.300000 1.505000 1.991000 600 49 1.000000 0.053000 0.053000 1.200000 0.052000 0.062000
1517308261332487800	200 55 0.900000 0.013000 0.011000 2000 45 1.300000 1.489000 1.969000 600 49 1.000000 0.053000 0.053000 1.200000 0.051000 0.061000
1517308261840307008	200 55 0.900000 0.013000 0.011000 2000 45 1.300000 1.498000 1.981000 600 49 1.000000 0.053000 0.053000 1.200000 0.052000 0.062000
1517308262347785925	200 55 0.900000 0.014000 0.012000 2000 45 1.300000 1.531000 2.025000 600 49 1.000000 0.053000 0.053000 1.200000 0.051000 0.061000
1517308262855478383	200 55 0.900000 0.014000 0.012000 2000 45 1.300000 1.630000 2.159000 600 49 1.000000 0.053000 0.053000 1.200000 0.054000 0.065000
1517308263362995675	200 55 0.900000 0.014000 0.012000 2000 45 1.300000 1.521000 2.012000 600 49 1.000000 0.053000 0.053000 1.200000 0.051000 0.061000
1517308263870670508	200 55 0.900000 0.014000 0.012000 2000 45 1.300000 1.496000 1.979000 600 49 1.000000 0.053000 0.053000 1.200000 0.051000 0.061000
1517308264378427800	200 55 0.900000 0.014000 0.012000 2000 45 1.300000 1.516000 2.005000 600 49 1.000000 0.053000 0.053000 1.200000 0.052000 0.062000
1517308264886230967	200 55 0.900000 0.014000 0.012000 2000 45 1.300000 1.514000 2.003000 600 51 1.000000 0.053000 0.053000 1.200000 0.051000 0.061000
1517308265393943259	200 55 0.900000 0.015000 0.013000 2000 45 1.300000 1.565000 2.070000 600 49 1.000000 0.053000 0.053000 1.200000 0.053000 0.064000
1517308265901647884	200 55 0.900000 0.014000 0.012000 2000 45 1.300000 1.524000 2.016000 600 49 1.000000 0.053000 0.053000 1.200000 0.051000 0.061000
1517308266409562134	200 55 0.900000 0.014000 0.012000 2000 45 1.300000 1.488000 1.968000 600 49 1.000000 0.053000 0.053000 1.200000 0.051000 0.061000
1517308266917361342	200 55 0.900000 0.014000 0.012000 2000 45 1.300000 1.486000 1.965000 600 49 1.000000 0.053000 0.053000 1.200000 0.052000 0.062000
1517308267427115134	200 55 0.900000 0.013000 0.011000 2000 45 1.300000 1.480000 1.958000 600 49 1.000000 0.053000 0.053000 1.200000 0.050000 0.060000
1517308267935276092	200 55 0.900000 0.014000 0.012000 2000 45 1.300000 1.485000 1.964000 600 49 1.000000 0.053000 0.053000 1.200000 0.051000 0.061000
1517308268443013551	200 55 0.900000 0.014000 0.012000 2000 45 1.300000 1.482000 1.960000 600 49 1.000000 0.053000 0.053000 1.200000 0.050000 0.060000
1517308268950716801	200 55 0.900000 0.013000 0.011000 2000 45 1.300000 1.491000 1.972000 600 49 1.000000 0.053000 0.053000 1.200000 0.051000 0.061000
1517308269458325759	200 54 0.900000 0.014000 0.012000 2000 45 1.300000 1.524000 2.016000 600 49 1.000000 0.053000 0.053000 1.200000 0.052000 0.062000
1517308269969437967	200 55 0.900000 0.014000 0.012000 2000 44 1.300000 1.497000 1.980000 600 52 1.000000 0.053000 0.053000 1.200000 0.051000 0.061000
1517308270480488343	200 55 0.900000 0.017000 0.015000 2000 45 1.300000 1.890000 2.506000 600 49 1.000000 0.053000 0.053000 1.200000 0.059000 0.071000
1517308270988228051	200 55 0.900000 0.014000 0.012000 2000 45 1.300000 1.515000 2.004000 600 49 1.000000 0.053000 0.053000 1.200000 0.051000 0.061000
1517308271496066718	200 54 0.900000 0.013000 0.011000 2000 45 1.300000 1.516000 2.005000 600 49 1.000000 0.053000 0.053000 1.200000 0.051000 0.061000
1517308272003761301	200 54 0.900000 0.014000 0.012000 2000 44 1.300000 1.497000 1.980000 600 49 1.000000 0.053000 0.053000 1.200000 0.051000 0.061000
1517308272513045926	200 54 0.900000 0.013000 0.011000 2000 44 1.300000 1.519000 2.009000 600 52 1.000000 0.053000 0.053000 1.200000 0.052000 0.062000
1517308273020655801	200 55 0.900000 0.013000 0.011000 2000 44 1.300000 1.487000 1.967000 600 49 1.000000 0.053000 0.053000 1.200000 0.051000 0.061000
1517308273528373093	200 55 0.900000 0.013000 0.011000 2000 44 1.300000 1.483000 1.962000 600 49 1.000000 0.053000 0.053000 1.200000 0.050000 0.060000
1517308274035999385	200 54 0.900000 0.013000 0.011000 2000 44 1.300000 1.482000 1.959000 600 49 1.000000 0.053000 0.053000 1.200000 0.050000 0.060000
1517308274543861843	200 54 0.900000 0.013000 0.011000 2000 44 1.300000 1.477000 1.954000 600 49 1.000000 0.053000 0.053000 1.200000 0.050000 0.060000
1517308275054244843	200 54 0.900000 0.014000 0.012000 2000 44 1.300000 1.476000 1.952000 600 51 1.000000 0.053000 0.053000 1.200000 0.050000 0.060000
1517308275563362218	200 55 0.900000 0.017000 0.015000 2000 44 1.300000 2.002000 2.654000 600 49 1.000000 0.053000 0.053000 1.200000 0.061000 0.073000
1517308276071133510	200 54 0.900000 0.013000 0.011000 2000 44 1.300000 1.510000 1.997000 600 49 1.000000 0.053000 0.053000 1.200000 0.051000 0.061000
1517308276578951510	200 54 0.900000 0.014000 0.012000 2000 44 1.300000 1.520000 2.010000 600 49 1.000000 0.053000 0.053000 1.200000 0.052000 0.062000
1517308277086712885	200 54 0.900000 0.013000 0.011000 2000 44 1.300000 1.487000 1.967000 600 49 1.000000 0.053000 0.053000 1.200000 0.051000 0.061000
1517308277594449927	200 55 0.900000 0.014000 0.012000 2000 44 1.300000 1.527000 2.020000 600 50 1.000000 0.053000 0.053000 1.200000 0.051000 0.061000
1517308278101985260	200 54 0.900000 0.015000 0.013000 2000 44 1.300000 1.493000 1.975000 600 49 1.000000 0.053000 0.053000 1.200000 0.051000 0.061000
1517308278609787802	200 54 0.900000 0.014000 0.012000 2000 44 1.300000 1.486000 1.965000 600 49 1.000000 0.053000 0.053000 1.200000 0.051000 0.061000
1517308279117628219	200 54 0.900000 0.014000 0.012000 2000 44 1.300000 1.481000 1.959000 600 49 1.000000 0.053000 0.053000 1.200000 0.050000 0.060000
1517308279625188427	200 54 0.900000 0.013000 0.011000 2000 44 1.300000 1.476000 1.952000 600 49 1.000000 0.053000 0.053000 1.200000 0.050000 0.060000
1517308280134790760	200 54 0.900000 0.013000 0.011000 2000 44 1.300000 1.478000 1.955000 600 49 1.000000 0.053000 0.053000 1.200000 0.050000 0.060000
1517308280643226469	200 55 0.900000 0.015000 0.013000 2000 45 1.300000 1.667000 2.205000 600 49 1.000000 0.053000 0.053000 1.200000 0.055000 0.066000
1517308281151093010	200 54 0.900000 0.013000 0.011000 2000 44 1.300000 1.481000 1.959000 600 49 1.000000 0.053000 0.053000 1.200000 0.050000 0.060000
1517308281658571594	200 54 0.900000 0.013000 0.011000 2000 44 1.300000 1.476000 1.952000 600 49 1.000000 0.053000 0.053000 1.200000 0.050000 0.060000
1517308282166368552	200 54 0.900000 0.013000 0.011000 2000 44 1.300000 1.476000 1.952000 600 49 1.000000 0.053000 0.053000 1.200000 0.050000 0.060000
1517308282674297302	200 54 0.900000 0.013000 0.011000 2000 44 1.300000 1.518000 2.008000 600 49 1.000000 0.053000 0.053000 1.200000 0.051000 0.061000
1517308283182157261	200 54 0.900000 0.015000 0.013000 2000 44 1.300000 1.492000 1.973000 600 49 1.000000 0.053000 0.053000 1.200000 0.051000 0.061000
1517308283689635427	200 54 0.900000 0.014000 0.012000 2000 44 1.300000 1.528000 2.021000 600 49 1.000000 0.053000 0.053000 1.200000 0.051000 0.061000
1517308284197399178	200 54 0.900000 0.013000 0.011000 2000 44 1.300000 1.485000 1.964000 600 49 1.000000 0.053000 0.053000 1.200000 0.052000 0.062000
1517308284705204094	200 54 0.900000 0.014000 0.012000 2000 44 1.300000 1.479000 1.956000 600 49 1.000000 0.053000 0.053000 1.200000 0.051000 0.061000
1517308285213073636	200 54 0.900000 0.013000 0.011000 2000 44 1.300000 1.482000 1.960000 600 49 1.000000 0.053000 0.053000 1.200000 0.050000 0.060000
1517308285720856678	200 55 0.900000 0.018000 0.016000 2000 44 1.300000 1.975000 2.618000 600 49 1.000000 0.053000 0.053000 1.200000 0.060000 0.072000
1517308286228764803	200 54 0.900000 0.013000 0.011000 2000 44 1.300000 1.479000 1.956000 600 49 1.000000 0.053000 0.053000 1.200000 0.050000 0.060000
1517308286736476428	200 54 0.900000 0.013000 0.011000 2000 44 1.300000 1.476000 1.952000 600 49 1.000000 0.053000 0.053000 1.200000 0.050000 0.060000
1517308287244113428	200 54 0.900000 0.013000 0.011000 2000 44 1.300000 1.479000 1.956000 600 49 1.000000 0.053000 0.053000 1.200000 0.050000 0.060000
1517308287751965845	200 54 0.900000 0.015000 0.013000 2000 44 1.300000 1.633000 2.163000 600 49 1.000000 0.053000 0.053000 1.200000 0.055000 0.066000
1517308288259494345	200 54 0.900000 0.013000 0.011000 2000 44 1.300000 1.481000 1.959000 600 49 1.000000 0.053000 0.053000 1.200000 0.051000 0.061000
1517308288767234303	200 54 0.900000 0.014000 0.012000 2000 44 1.300000 1.476000 1.952000 600 49 1.000000 0.053000 0.053000 1.200000 0.050000 0.060000
1517308289274913511	200 54 0.900000 0.013000 0.011000 2000 44 1.300000 1.502000 1.987000 600 49 1.000000 0.053000 0.053000 1.200000 0.051000 0.061000
1517308289782862095	200 54 0.900000 0.014000 0.012000 2000 44 1.300000 1.518000 2.008000 600 49 1.000000 0.053000 0.053000 1.200000 0.051000 0.061000
1517308290290511720	200 54 0.900000 0.013000 0.011000 2000 44 1.300000 1.482000 1.960000 600 49 1.000000 0.053000 0.053000 1.200000 0.052000 0.062000
1517308290798200845	200 54 0.900000 0.014000 0.012000 2000 44 1.300000 1.525000 2.017000 600 49 1.000000 0.053000 0.053000 1.200000 0.060000 0.072000
1517308291306063595	200 54 0.900000 0.013000 0.011000 2000 44 1.300000 1.496000 1.979000 600 49 1.000000 0.053000 0.053000 1.200000 0.050000 0.060000
1517308291813854470	200 54 0.900000 0.014000 0.012000 2000 44 1.300000 1.512000 2.000000 600 49 1.000000 0.053000 0.053000 1.200000 0.051000 0.061000
1517308292321627137	200 54 0.900000 0.013000 0.011000 2000 44 1.300000 1.510000 1.997000 600 49 1.000000 0.053000 0.053000 1.200000 0.050000 0.060000
1517308292829571262	200 54 0.900000 0.013000 0.011000 2000 44 1.300000 1.499000 1.983000 600 49 1.000000 0.053000 0.053000 1.200000 0.055000 0.066000
1517308293337490637	200 54 0.900000 0.013000 0.011000 2000 44 1.300000 1.522000 2.013000 600 49 1.000000 0.053000 0.053000 1.200000 0.050000 0.060000
1517308293845333387	200 54 0.900000 0.013000 0.011000 2000 44 1.300000 1.481000 1.959000 600 49 1.000000 0.053000 0.053000 1.200000 0.050000 0.060000
1517308294353334595	200 54 0.900000 0.013000 0.011000 2000 44 1.300000 1.525000 2.017000 600 48 1.000000 0.053000 0.053000 1.200000 0.050000 0.060000
1517308294861098679	200 54 0.900000 0.013000 0.011000 2000 44 1.300000 1.508000 1.995000 600 48 1.000000 0.053000 0.053000 1.200000 0.051000 0.061000
1517308295368826596	200 54 0.900000 0.013000 0.011000 2000 44 1.300000 1.503000 1.988000 600 48 1.000000 0.053000 0.053000 1.200000 0.052000 0.062000
1517308295877916554	200 55 0.900000 0.014000 0.012000 2000 44 1.300000 1.510000 1.997000 600 50 1.000000 0.053000 0.053000 1.200000 0.050000 0.060000
1517308296385915762	200 54 0.900000 0.015000 0.013000 2000 44 1.300000 1.730000 2.292000 600 49 1.000000 0.053000 0.053000 1.200000 0.058000 0.070000
1517308296893783971	200 54 0.900000 0.014000 0.012000 2000 44 1.300000 1.525000 2.017000 600 49 1.000000 0.053000 0.053000 1.200000 0.051000 0.061000
1517308297401509054	200 54 0.900000 0.013000 0.011000 2000 44 1.300000 1.499000 1.983000 600 49 1.000000 0.053000 0.053000 1.200000 0.051000 0.061000
1517308297909395429	200 54 0.900000 0.014000 0.012000 2000 44 1.300000 1.505000 1.991000 600 49 1.000000 0.053000 0.053000 1.200000 0.052000 0.062000
1517308298417216804	200 54 0.900000 0.013000 0.011000 2000 44 1.300000 1.508000 1.995000 600 49 1.000000 0.053000 0.053000 1.200000 0.051000 0.061000
1517308298924900679	200 54 0.900000 0.014000 0.012000 2000 44 1.300000 1.491000 1.972000 600 48 1.000000 0.053000 0.053000 1.200000 0.052000 0.062000
1517308299432626513	200 54 0.900000 0.013000 0.011000 2000 44 1.300000 1.530000 2.024000 600 48 1.000000 0.053000 0.053000 1.200000 0.051000 0.061000
1517308299940412263	200 54 0.900000 0.013000 0.011000 2000 44 1.300000 1.483000 1.962000 600 48 1.000000 0.053000 0.053000 1.200000 0.051000 0.061000
1517308300448038179	200 54 0.900000 0.013000 0.011000 2000 44 1.300000 1.515000 2.004000 600 48 1.000000 0.053000 0.053000 1.200000 0.052000 0.062000
1517308300955762721	200 54 0.900000 0.017000 0.015000 2000 44 1.300000 1.497000 1.980000 600 50 1.000000 0.053000 0.053000 1.200000 0.050000 0.060000
1517308301463454846	200 54 0.900000 0.014000 0.012000 2000 44 1.300000 1.488000 1.968000 600 49 1.000000 0.053000 0.053000 1.200000 0.052000 0.062000
1517308301971138555	200 54 0.900000 0.014000 0.012000 2000 44 1.300000 1.482000 1.960000 600 49 1.000000 0.053000 0.053000 1.200000 0.051000 0.061000
1517308302478964430	200 54 0.900000 0.013000 0.011000 2000 44 1.300000 1.477000 1.954000 600 48 1.000000 0.053000 0.053000 1.200000 0.050000 0.060000
1517308302986698305	200 54 0.900000 0.014000 0.012000 2000 44 1.300000 1.530000 2.024000 600 49 1.000000 0.053000 0.053000 1.200000 0.051000 0.061000
1517308303494566638	200 54 0.900000 0.013000 0.011000 2000 44 1.300000 1.485000 1.964000 600 48 1.000000 0.053000 0.053000 1.200000 0.051000 0.061000
1517308304002123555	200 54 0.900000 0.014000 0.012000 2000 44 1.300000 1.517000 2.006000 600 48 1.000000 0.053000 0.053000 1.200000 0.052000 0.062000
1517308304509989138	200 54 0.900000 0.013000 0.011000 2000 44 1.300000 1.503000 1.988000 600 48 1.000000 0.053000 0.053000 1.200000 0.051000 0.061000
1517308305017646513	200 54 0.900000 0.014000 0.012000 2000 44 1.300000 1.505000 1.991000 600 48 1.000000 0.053000 0.053000 1.200000 0.051000 0.061000
1517308305525382513	200 54 0.900000 0.014000 0.012000 2000 44 1.300000 1.508000 1.995000 600 48 1.000000 0.053000 0.053000 1.200000 0.051000 0.061000
1517308306032874597	200 54 0.900000 0.013000 0.011000 2000 44 1.300000 1.488000 1.968000 600 51 1.000000 0.053000 0.053000 1.200000 0.051000 0.061000
1517308306540743014	200 54 0.900000 0.013000 0.011000 2000 44 1.300000 1.542000 2.040000 600 49 1.000000 0.053000 0.053000 1.200000 0.054000 0.065000
1517308307048310722	200 54 0.900000 0.013000 0.011000 2000 44 1.300000 1.485000 1.964000 600 49 1.000000 0.053000 0.053000 1.200000 0.051000 0.061000
1517308307556158472	200 54 0.900000 0.013000 0.011000 2000 44 1.300000 1.476000 1.952000 600 48 1.000000 0.053000 0.053000 1.200000 0.052000 0.062000
1517308308063761180	200 54 0.900000 0.013000 0.011000 2000 44 1.300000 1.636000 2.167000 600 49 1.000000 0.053000 0.053000 1.200000 0.053000 0.064000
1517308308571699680	200 54 0.900000 0.013000 0.011000 2000 44 1.300000 1.484000 1.963000 600 48 1.000000 0.053000 0.053000 1.200000 0.051000 0.061000
1517308309079501805	200 54 0.900000 0.013000 0.011000 2000 44 1.300000 1.481000 1.959000 600 48 1.000000 0.053000 0.053000 1.200000 0.050000 0.060000
1517308309587124306	200 54 0.900000 0.013000 0.011000 2000 44 1.300000 1.490000 1.971000 600 48 1.000000 0.053000 0.053000 1.200000 0.050000 0.060000
1517308310094693139	200 54 0.900000 0.013000 0.011000 2000 44 1.300000 1.523000 2.014000 600 48 1.000000 0.053000 0.053000 1.200000 0.051000 0.061000
1517308310602472556	200 54 0.900000 0.013000 0.011000 2000 44 1.300000 1.485000 1.964000 600 48 1.000000 0.053000 0.053000 1.200000 0.051000 0.061000
1517308311126222556	200 54 0.900000 0.014000 0.012000 2000 44 1.300000 1.522000 2.013000 600 51 1.000000 0.053000 0.053000 1.200000 0.051000 0.061000
1517308311634590264	200 54 0.900000 0.017000 0.015000 2000 44 1.300000 1.838000 2.435000 600 49 1.000000 0.053000 0.053000 1.200000 0.059000 0.071000
1517308312142406639	200 54 0.900000 0.014000 0.012000 2000 44 1.300000 1.499000 1.983000 600 48 1.000000 0.053000 0.053000 1.200000 0.051000 0.061000
1517308312650289431	200 54 0.900000 0.013000 0.011000 2000 44 1.300000 1.514000 2.003000 600 48 1.000000 0.053000 0.053000 1.200000 0.052000 0.062000
1517308313157893139	200 54 0.900000 0.013000 0.011000 2000 44 1.300000 1.657000 2.192000 600 49 1.000000 0.053000 0.053000 1.200000 0.054000 0.065000
1517308313665622431	200 54 0.900000 0.013000 0.011000 2000 44 1.300000 1.483000 1.962000 600 48 1.000000 0.053000 0.053000 1.200000 0.051000 0.061000
1517308314173414056	200 54 0.900000 0.014000 0.012000 2000 44 1.300000 1.475000 1.951000 600 48 1.000000 0.053000 0.053000 1.200000 0.050000 0.060000
1517308314681016056	200 54 0.900000 0.013000 0.011000 2000 44 1.300000 1.472000 1.947000 600 48 1.000000 0.053000 0.053000 1.200000 0.050000 0.060000
1517308315188707015	200 54 0.900000 0.013000 0.011000 2000 44 1.300000 1.474000 1.950000 600 48 1.000000 0.053000 0.053000 1.200000 0.050000 0.060000
1517308315696386265	200 54 0.900000 0.013000 0.011000 2000 44 1.300000 1.477000 1.954000 600 48 1.000000 0.053000 0.053000 1.200000 0.050000 0.060000
1517308316206961973	200 53 0.900000 0.013000 0.011000 2000 44 1.300000 1.476000 1.952000 600 50 1.000000 0.053000 0.053000 1.200000 0.050000 0.060000
1517308316715336515	200 54 0.900000 0.017000 0.015000 2000 44 1.300000 1.998000 2.649000 600 49 1.000000 0.053000 0.053000 1.200000 0.061000 0.073000
1517308317223219390	200 54 0.900000 0.013000 0.011000 2000 44 1.300000 1.504000 1.989000 600 48 1.000000 0.053000 0.053000 1.200000 0.051000 0.061000
1517308317730983723	200 54 0.900000 0.014000 0.012000 2000 44 1.300000 1.509000 1.996000 600 48 1.000000 0.053000 0.053000 1.200000 0.052000 0.062000
1517308318238797723	200 54 0.900000 0.014000 0.012000 2000 44 1.300000 1.653000 2.190000 600 48 1.000000 0.053000 0.053000 1.200000 0.055000 0.066000
1517308318746722265	200 54 0.900000 0.013000 0.011000 2000 44 1.300000 1.528000 2.021000 600 48 1.000000 0.053000 0.053000 1.200000 0.051000 0.061000
1517308319254294557	200 54 0.900000 0.013000 0.011000 2000 44 1.300000 1.476000 1.952000 600 48 1.000000 0.053000 0.053000 1.200000 0.052000 0.062000
1517308319762074432	200 54 0.900000 0.013000 0.011000 2000 44 1.300000 1.474000 1.950000 600 48 1.000000 0.053000 0.053000 1.200000 0.051000 0.061000
1517308320269812432	200 54 0.900000 0.013000 0.011000 2000 44 1.300000 1.478000 1.955000 600 48 1.000000 0.053000 0.053000 1.200000 0.050000 0.060000
1517308320777523640	200 54 0.900000 0.014000 0.012000 2000 44 1.300000 1.480000 1.958000 600 48 1.000000 0.053000 0.053000 1.200000 0.050000 0.060000
1517308321285339265	200 54 0.900000 0.013000 0.011000 2000 44 1.300000 1.476000 1.952000 600 48 1.000000 0.053000 0.053000 1.200000 0.050000 0.060000
1517308321793011140	200 54 0.900000 0.017000 0.015000 2000 44 1.300000 1.593000 2.107000 600 49 1.000000 0.053000 0.053000 1.200000 0.055000 0.066000
1517308322300788557	200 54 0.900000 0.013000 0.011000 2000 44 1.300000 1.477000 1.954000 600 48 1.000000 0.053000 0.053000 1.200000 0.050000 0.060000
1517308322808398432	200 54 0.900000 0.013000 0.011000 2000 44 1.300000 1.482000 1.960000 600 48 1.000000 0.053000 0.053000 1.200000 0.050000 0.060000
1517308323316244099	200 54 0.900000 0.013000 0.011000 2000 44 1.300000 1.671000 2.214000 600 48 1.000000 0.053000 0.053000 1.200000 0.055000 0.066000
1517308323824103682	200 54 0.900000 0.014000 0.012000 2000 44 1.300000 1.499000 1.983000 600 48 1.000000 0.053000 0.053000 1.200000 0.051000 0.061000
1517308324332039807	200 54 0.900000 0.013000 0.011000 2000 44 1.300000 1.494000 1.976000 600 48 1.000000 0.053000 0.053000 1.200000 0.051000 0.061000
1517308324839611016	200 54 0.900000 0.014000 0.012000 2000 44 1.300000 1.478000 1.955000 600 48 1.000000 0.053000 0.053000 1.200000 0.051000 0.061000
1517308325347364724	200 54 0.900000 0.013000 0.011000 2000 44 1.300000 1.480000 1.958000 600 48 1.000000 0.053000 0.053000 1.200000 0.052000 0.062000
1517308325855089974	200 54 0.900000 0.013000 0.011000 2000 43 1.300000 1.477000 1.954000 600 48 1.000000 0.053000 0.053000 1.200000 0.050000 0.060000
1517308326362730224	200 54 0.900000 0.013000 0.011000 2000 44 1.300000 1.473000 1.948000 600 48 1.000000 0.053000 0.053000 1.200000 0.050000 0.060000
1517308326870503308	200 54 0.900000 0.015000 0.013000 2000 44 1.300000 1.921000 2.545000 600 49 1.000000 0.053000 0.053000 1.200000 0.060000 0.072000
1517308327378074058	200 54 0.900000 0.013000 0.011000 2000 44 1.300000 1.482000 1.960000 600 48 1.000000 0.053000 0.053000 1.200000 0.050000 0.060000
1517308327885845016	200 54 0.900000 0.014000 0.012000 2000 44 1.300000 1.480000 1.958000 600 48 1.000000 0.053000 0.053000 1.200000 0.050000 0.060000
1517308328393521141	200 54 0.900000 0.014000 0.012000 2000 44 1.300000 1.686000 2.233000 600 48 1.000000 0.053000 0.053000 1.200000 0.051000 0.061000
1517308328901268474	200 54 0.900000 0.013000 0.011000 2000 44 1.300000 1.480000 1.958000 600 48 1.000000 0.053000 0.053000 1.200000 0.050000 0.060000
1517308329408880558	200 54 0.900000 0.013000 0.011000 2000 44 1.300000 1.528000 2.021000 600 48 1.000000 0.053000 0.053000 1.200000 0.050000 0.060000
1517308329916514641	200 54 0.900000 0.013000 0.011000 2000 44 1.300000 1.477000 1.954000 600 48 1.000000 0.053000 0.053000 1.200000 0.051000 0.061000
1517308330424049975	200 53 0.900000 0.013000 0.011000 2000 44 1.300000 1.513000 2.001000 600 48 1.000000 0.053000 0.053000 1.200000 0.051000 0.061000
1517308330931679808	200 53 0.900000 0.014000 0.012000 2000 44 1.300000 1.494000 1.976000 600 48 1.000000 0.053000 0.053000 1.200000 0.051000 0.061000
1517308331439422600	200 53 0.900000 0.013000 0.011000 2000 44 1.300000 1.496000 1.979000 600 48 1.000000 0.053000 0.053000 1.200000 0.050000 0.060000
1517308331947068058	200 54 0.900000 0.017000 0.015000 2000 44 1.300000 1.513000 2.001000 600 49 1.000000 0.053000 0.053000 1.200000 0.060000 0.072000
1517308332454901475	200 54 0.900000 0.013000 0.011000 2000 44 1.300000 1.495000 1.977000 600 48 1.000000 0.053000 0.053000 1.200000 0.051000 0.061000
1517308332962663433	200 54 0.900000 0.014000 0.012000 2000 44 1.300000 1.528000 2.021000 600 48 1.000000 0.053000 0.053000 1.200000 0.050000 0.060000
1517308333470275600	200 54 0.900000 0.014000 0.012000 2000 44 1.300000 1.654000 2.191000 600 48 1.000000 0.053000 0.053000 1.200000 0.050000 0.060000
1517308333978016058	200 54 0.900000 0.014000 0.012000 2000 44 1.300000 1.512000 2.000000 600 48 1.000000 0.053000 0.053000 1.200000 0.050000 0.060000
1517308334485681100	200 54 0.900000 0.013000 0.011000 2000 44 1.300000 1.502000 1.987000 600 48 1.000000 0.053000 0.053000 1.200000 0.051000 0.061000
1517308334993606309	200 53 0.900000 0.013000 0.011000 2000 44 1.300000 1.500000 1.984000 600 48 1.000000 0.053000 0.053000 1.200000 0.052000 0.062000
1517308335501349017	200 54 0.900000 0.013000 0.011000 2000 44 1.300000 1.511000 1.999000 600 48 1.000000 0.053000 0.053000 1.200000 0.051000 0.061000
1517308336009129100	200 53 0.900000 0.013000 0.011000 2000 44 1.300000 1.475000 1.951000 600 48 1.000000 0.053000 0.053000 1.200000 0.051000 0.061000
1517308336516760475	200 53 0.900000 0.013000 0.011000 2000 43 1.300000 1.480000 1.958000 600 48 1.000000 0.053000 0.053000 1.200000 0.052000 0.062000
1517308337024348100	200 54 0.900000 0.014000 0.012000 2000 44 1.300000 1.494000 1.976000 600 49 1.000000 0.053000 0.053000 1.200000 0.051000 0.061000
1517308337531946392	200 54 0.900000 0.013000 0.011000 2000 44 1.300000 1.708000 2.263000 600 48 1.000000 0.053000 0.053000 1.200000 0.058000 0.070000
1517308338041461517	200 54 0.900000 0.014000 0.012000 2000 44 1.300000 1.500000 1.984000 600 48 1.000000 0.053000 0.053000 1.200000 0.051000 0.061000
1517308338549527226	200 54 0.900000 0.014000 0.012000 2000 44 1.300000 1.651000 2.187000 600 48 1.000000 0.053000 0.053000 1.200000 0.054000 0.065000
1517308339057350976	200 54 0.900000 0.014000 0.012000 2000 44 1.300000 1.528000 2.021000 600 48 1.000000 0.053000 0.053000 1.200000 0.052000 0.062000
1517308339564808726	200 54 0.900000 0.013000 0.011000 2000 44 1.300000 1.489000 1.969000 600 48 1.000000 0.053000 0.053000 1.200000 0.050000 0.060000
1517308340072454767	200 54 0.900000 0.013000 0.011000 2000 44 1.300000 1.513000 2.001000 600 48 1.000000 0.053000 0.053000 1.200000 0.051000 0.061000
1517308340580310351	200 53 0.900000 0.013000 0.011000 2000 44 1.300000 1.503000 1.988000 600 48 1.000000 0.053000 0.053000 1.200000 0.051000 0.061000
1517308341087874434	200 54 0.900000 0.013000 0.011000 2000 44 1.300000 1.498000 1.981000 600 48 1.000000 0.053000 0.053000 1.200000 0.051000 0.061000
1517308341595568684	200 53 0.900000 0.013000 0.011000 2000 43 1.300000 1.514000 2.003000 600 48 1.000000 0.053000 0.053000 1.200000 0.051000 0.061000
1517308342103293434	200 54 0.900000 0.014000 0.012000 2000 44 1.300000 1.479000 1.956000 600 50 1.000000 0.053000 0.053000 1.200000 0.050000 0.060000
1517308342610823851	200 54 0.900000 0.013000 0.011000 2000 44 1.300000 1.478000 1.955000 600 48 1.000000 0.053000 0.053000 1.200000 0.052000 0.062000
1517308343118821851	200 54 0.900000 0.013000 0.011000 2000 43 1.300000 1.476000 1.952000 600 50 1.000000 0.053000 0.053000 1.200000 0.051000 0.061000
1517308343626553060	200 54 0.900000 0.014000 0.012000 2000 44 1.300000 1.664000 2.204000 600 48 1.000000 0.053000 0.053000 1.200000 0.054000 0.065000
1517308344134452976	200 54 0.900000 0.013000 0.011000 2000 44 1.300000 1.501000 1.985000 600 48 1.000000 0.053000 0.053000 1.200000 0.051000 0.061000
1517308344642104101	200 54 0.900000 0.013000 0.011000 2000 43 1.300000 1.501000 1.985000 600 48 1.000000 0.053000 0.053000 1.200000 0.051000 0.061000
1517308345149880726	200 53 0.900000 0.013000 0.011000 2000 43 1.300000 1.511000 1.999000 600 48 1.000000 0.053000 0.053000 1.200000 0.052000 0.062000
1517308345657593351	200 53 0.900000 0.013000 0.011000 2000 43 1.300000 1.482000 1.960000 600 48 1.000000 0.053000 0.053000 1.200000 0.051000 0.061000
1517308346165154685	200 53 0.900000 0.014000 0.012000 2000 43 1.300000 1.527000 2.020000 600 48 1.000000 0.053000 0.053000 1.200000 0.052000 0.062000
1517308346672805685	200 53 0.900000 0.013000 0.011000 2000 43 1.300000 1.488000 1.968000 600 48 1.000000 0.053000 0.053000 1.200000 0.051000 0.061000
1517308347180929810	200 54 0.900000 0.013000 0.011000 2000 44 1.300000 1.511000 1.999000 600 52 1.000000 0.053000 0.053000 1.200000 0.051000 0.061000
1517308347688687602	200 54 0.900000 0.015000 0.013000 2000 44 1.300000 1.481000 1.959000 600 48 1.000000 0.053000 0.053000 1.200000 0.054000 0.065000
1517308348196319935	200 54 0.900000 0.013000 0.011000 2000 44 1.300000 1.477000 1.954000 600 49 1.000000 0.053000 0.053000 1.200000 0.050000 0.060000
1517308348703794019	200 54 0.900000 0.013000 0.011000 2000 44 1.300000 1.482000 1.960000 600 48 1.000000 0.053000 0.053000 1.200000 0.050000 0.060000
1517308349211681060	200 54 0.900000 0.013000 0.011000 2000 44 1.300000 1.478000 1.955000 600 48 1.000000 0.053000 0.053000 1.200000 0.050000 0.060000
1517308349719319060	200 54 0.900000 0.013000 0.011000 2000 44 1.300000 1.474000 1.950000 600 48 1.000000 0.053000 0.053000 1.200000 0.051000 0.061000
1517308350227214019	200 53 0.900000 0.014000 0.012000 2000 44 1.300000 1.483000 1.962000 600 48 1.000000 0.053000 0.053000 1.200000 0.051000 0.061000
1517308350734691894	200 53 0.900000 0.013000 0.011000 2000 43 1.300000 1.508000 1.995000 600 48 1.000000 0.053000 0.053000 1.200000 0.051000 0.061000
1517308351242556310	200 53 0.900000 0.014000 0.012000 2000 43 1.300000 1.505000 1.991000 600 48 1.000000 0.053000 0.053000 1.200000 0.052000 0.062000
1517308351750332644	200 53 0.900000 0.013000 0.011000 2000 43 1.300000 1.494000 1.976000 600 48 1.000000 0.053000 0.053000 1.200000 0.051000 0.061000
1517308352261413977	200 53 0.900000 0.013000 0.011000 2000 43 1.300000 1.514000 2.003000 600 51 1.000000 0.053000 0.053000 1.200000 0.051000 0.061000
1517308352769417852	200 54 0.900000 0.017000 0.015000 2000 44 1.300000 1.779000 2.358000 600 48 1.000000 0.053000 0.053000 1.200000 0.060000 0.072000
1517308353277375936	200 54 0.900000 0.013000 0.011000 2000 44 1.300000 1.482000 1.960000 600 49 1.000000 0.053000 0.053000 1.200000 0.051000 0.061000
1517308353785160602	200 54 0.900000 0.013000 0.011000 2000 44 1.300000 1.482000 1.960000 600 48 1.000000 0.053000 0.053000 1.200000 0.051000 0.061000
1517308354292778686	200 53 0.900000 0.013000 0.011000 2000 44 1.300000 1.475000 1.951000 600 48 1.000000 0.053000 0.053000 1.200000 0.051000 0.061000
1517308354800459686	200 53 0.900000 0.013000 0.011000 2000 44 1.300000 1.473000 1.948000 600 48 1.000000 0.053000 0.053000 1.200000 0.050000 0.060000
1517308355308184061	200 53 0.900000 0.013000 0.011000 2000 43 1.300000 1.478000 1.955000 600 48 1.000000 0.053000 0.053000 1.200000 0.050000 0.060000
1517308355815910811	200 53 0.900000 0.013000 0.011000 2000 43 1.300000 1.484000 1.963000 600 48 1.000000 0.053000 0.053000 1.200000 0.050000 0.060000
1517308356323545061	200 53 0.900000 0.013000 0.011000 2000 43 1.300000 1.476000 1.952000 600 48 1.000000 0.053000 0.053000 1.200000 0.050000 0.060000
1517308356831358728	200 53 0.900000 0.013000 0.011000 2000 43 1.300000 1.472000 1.947000 600 48 1.000000 0.053000 0.053000 1.200000 0.050000 0.060000
1517308357341762978	200 53 0.900000 0.013000 0.011000 2000 43 1.300000 1.508000 1.995000 600 48 1.000000 0.053000 0.053000 1.200000 0.051000 0.061000
1517308357850659645	200 54 0.900000 0.017000 0.015000 2000 44 1.300000 1.991000 2.640000 600 48 1.000000 0.053000 0.053000 1.200000 0.060000 0.072000
1517308358358430311	200 54 0.900000 0.013000 0.011000 2000 44 1.300000 1.509000 1.996000 600 48 1.000000 0.053000 0.053000 1.200000 0.051000 0.061000
1517308358865988728	200 54 0.900000 0.014000 0.012000 2000 44 1.300000 1.513000 2.001000 600 48 1.000000 0.053000 0.053000 1.200000 0.051000 0.061000
1517308359373489103	200 53 0.900000 0.013000 0.011000 2000 43 1.300000 1.475000 1.951000 600 48 1.000000 0.053000 0.053000 1.200000 0.051000 0.061000
1517308359881247562	200 53 0.900000 0.013000 0.011000 2000 43 1.300000 1.474000 1.950000 600 48 1.000000 0.053000 0.053000 1.200000 0.050000 0.060000
1517308360389000020	200 53 0.900000 0.013000 0.011000 2000 43 1.300000 1.479000 1.956000 600 48 1.000000 0.053000 0.053000 1.200000 0.050000 0.060000
1517308360896608687	200 53 0.900000 0.014000 0.012000 2000 43 1.300000 1.479000 1.956000 600 48 1.000000 0.053000 0.053000 1.200000 0.050000 0.060000
1517308361404380228	200 53 0.900000 0.013000 0.011000 2000 43 1.300000 1.476000 1.952000 600 48 1.000000 0.053000 0.053000 1.200000 0.050000 0.060000
1517308361912002937	200 53 0.900000 0.013000 0.011000 2000 43 1.300000 1.471000 1.946000 600 48 1.000000 0.053000 0.053000 1.200000 0.050000 0.060000
1517308362419686687	200 53 0.900000 0.013000 0.011000 2000 43 1.300000 1.474000 1.950000 600 48 1.000000 0.053000 0.053000 1.200000 0.050000 0.060000
1517308362927367520	200 54 0.900000 0.015000 0.013000 2000 44 1.300000 1.542000 2.040000 600 49 1.000000 0.053000 0.053000 1.200000 0.055000 0.066000
1517308363435201187	200 54 0.900000 0.014000 0.012000 2000 44 1.300000 1.628000 2.157000 600 49 1.000000 0.053000 0.053000 1.200000 0.055000 0.066000
1517308363942948354	200 53 0.900000 0.013000 0.011000 2000 44 1.300000 1.482000 1.960000 600 48 1.000000 0.053000 0.053000 1.200000 0.052000 0.062000
1517308364450787937	200 53 0.900000 0.013000 0.011000 2000 43 1.300000 1.514000 2.003000 600 48 1.000000 0.053000 0.053000 1.200000 0.051000 0.061000
1517308364958415562	200 53 0.900000 0.014000 0.012000 2000 44 1.300000 1.476000 1.952000 600 48 1.000000 0.053000 0.053000 1.200000 0.051000 0.061000
1517308365466262646	200 53 0.900000 0.013000 0.011000 2000 43 1.300000 1.483000 1.962000 600 48 1.000000 0.053000 0.053000 1.200000 0.052000 0.062000
1517308365973756021	200 53 0.900000 0.014000 0.012000 2000 43 1.300000 1.511000 1.999000 600 48 1.000000 0.053000 0.053000 1.200000 0.050000 0.060000
1517308366481346229	200 53 0.900000 0.013000 0.011000 2000 43 1.300000 1.483000 1.962000 600 48 1.000000 0.053000 0.053000 1.200000 0.050000 0.060000
1517308366988997437	200 53 0.900000 0.014000 0.012000 2000 43 1.300000 1.522000 2.013000 600 48 1.000000 0.053000 0.053000 1.200000 0.051000 0.061000
1517308367496659604	200 53 0.900000 0.013000 0.011000 2000 43 1.300000 1.482000 1.960000 600 48 1.000000 0.053000 0.053000 1.200000 0.050000 0.060000
1517308368004316604	200 54 0.900000 0.017000 0.015000 2000 43 1.300000 1.627000 2.155000 600 49 1.000000 0.053000 0.053000 1.200000 0.059000 0.071000
1517308368511902771	200 54 0.900000 0.013000 0.011000 2000 44 1.300000 1.497000 1.980000 600 49 1.000000 0.053000 0.053000 1.200000 0.055000 0.066000
1517308369019653646	200 54 0.900000 0.013000 0.011000 2000 43 1.300000 1.502000 1.987000 600 48 1.000000 0.053000 0.053000 1.200000 0.051000 0.061000
1517308369527327771	200 53 0.900000 0.013000 0.011000 2000 43 1.300000 1.510000 1.997000 600 48 1.000000 0.053000 0.053000 1.200000 0.050000 0.060000
1517308370034864438	200 53 0.900000 0.013000 0.011000 2000 44 1.300000 1.491000 1.972000 600 48 1.000000 0.053000 0.053000 1.200000 0.050000 0.060000
1517308370542780813	200 53 0.900000 0.013000 0.011000 2000 43 1.300000 1.520000 2.010000 600 48 1.000000 0.053000 0.053000 1.200000 0.051000 0.061000
1517308371050586021	200 53 0.900000 0.014000 0.012000 2000 43 1.300000 1.477000 1.954000 600 48 1.000000 0.053000 0.053000 1.200000 0.051000 0.061000
1517308371558441105	200 53 0.900000 0.013000 0.011000 2000 43 1.300000 1.512000 2.000000 600 48 1.000000 0.053000 0.053000 1.200000 0.052000 0.062000
1517308372066139396	200 53 0.900000 0.013000 0.011000 2000 43 1.300000 1.495000 1.977000 600 48 1.000000 0.053000 0.053000 1.200000 0.050000 0.060000
1517308372574013646	200 53 0.900000 0.013000 0.011000 2000 43 1.300000 1.505000 1.991000 600 48 1.000000 0.053000 0.053000 1.200000 0.050000 0.060000
1517308373081708230	200 54 0.900000 0.014000 0.012000 2000 43 1.300000 1.510000 1.997000 600 49 1.000000 0.053000 0.053000 1.200000 0.058000 0.070000
1517308373589232271	200 54 0.900000 0.013000 0.011000 2000 44 1.300000 1.485000 1.964000 600 48 1.000000 0.053000 0.053000 1.200000 0.054000 0.065000
1517308374096776855	200 53 0.900000 0.014000 0.012000 2000 43 1.300000 1.527000 2.020000 600 48 1.000000 0.053000 0.053000 1.200000 0.050000 0.060000
1517308374604513063	200 53 0.900000 0.013000 0.011000 2000 43 1.300000 1.487000 1.967000 600 48 1.000000 0.053000 0.053000 1.200000 0.050000 0.060000
1517308375112111188	200 53 0.900000 0.013000 0.011000 2000 43 1.300000 1.515000 2.004000 600 48 1.000000 0.053000 0.053000 1.200000 0.050000 0.060000
1517308375619820897	200 53 0.900000 0.013000 0.011000 2000 43 1.300000 1.497000 1.980000 600 48 1.000000 0.053000 0.053000 1.200000 0.051000 0.061000
1517308376127698147	200 53 0.900000 0.013000 0.011000 2000 43 1.300000 1.474000 1.950000 600 48 1.000000 0.053000 0.053000 1.200000 0.051000 0.061000
1517308376635267355	200 53 0.900000 0.013000 0.011000 2000 43 1.300000 1.477000 1.954000 600 48 1.000000 0.053000 0.053000 1.200000 0.051000 0.061000
1517308377143337814	200 53 0.900000 0.013000 0.011000 2000 43 1.300000 1.485000 1.964000 600 48 1.000000 0.053000 0.053000 1.200000 0.050000 0.060000
1517308377650783647	200 53 0.900000 0.013000 0.011000 2000 43 1.300000 1.526000 2.018000 600 48 1.000000 0.053000 0.053000 1.200000 0.052000 0.062000
1517308378158441022	200 54 0.900000 0.013000 0.011000 2000 43 1.300000 1.479000 1.956000 600 49 1.000000 0.053000 0.053000 1.200000 0.050000 0.060000
1517308378666194772	200 54 0.900000 0.015000 0.013000 2000 43 1.300000 1.659000 2.198000 600 48 1.000000 0.053000 0.053000 1.200000 0.058000 0.070000
1517308379173974480	200 53 0.900000 0.013000 0.011000 2000 43 1.300000 1.502000 1.987000 600 48 1.000000 0.053000 0.053000 1.200000 0.051000 0.061000
1517308379681594939	200 53 0.900000 0.013000 0.011000 2000 43 1.300000 1.505000 1.991000 600 48 1.000000 0.053000 0.053000 1.200000 0.051000 0.061000
1517308380189556314	200 53 0.900000 0.013000 0.011000 2000 43 1.300000 1.511000 1.999000 600 48 1.000000 0.053000 0.053000 1.200000 0.051000 0.061000
1517308380697387647	200 53 0.900000 0.013000 0.011000 2000 43 1.300000 1.480000 1.958000 600 48 1.000000 0.053000 0.053000 1.200000 0.050000 0.060000
1517308381205192231	200 53 0.900000 0.013000 0.011000 2000 43 1.300000 1.524000 2.016000 600 48 1.000000 0.053000 0.053000 1.200000 0.051000 0.061000
1517308381713023939	200 53 0.900000 0.013000 0.011000 2000 43 1.300000 1.493000 1.975000 600 48 1.000000 0.053000 0.053000 1.200000 0.051000 0.061000
1517308382220713898	200 53 0.900000 0.013000 0.011000 2000 43 1.300000 1.475000 1.951000 600 48 1.000000 0.053000 0.053000 1.200000 0.051000 0.061000
1517308382728500023	200 53 0.900000 0.013000 0.011000 2000 43 1.300000 1.471000 1.946000 600 48 1.000000 0.053000 0.053000 1.200000 0.051000 0.061000
1517308383235906939	200 54 0.900000 0.013000 0.011000 2000 43 1.300000 1.493000 1.975000 600 50 1.000000 0.053000 0.053000 1.200000 0.050000 0.060000
1517308383743564398	200 54 0.900000 0.017000 0.015000 2000 43 1.300000 1.633000 2.163000 600 48 1.000000 0.053000 0.053000 1.200000 0.053000 0.064000
1517308384251210773	200 53 0.900000 0.014000 0.012000 2000 43 1.300000 1.486000 1.965000 600 48 1.000000 0.053000 0.053000 1.200000 0.051000 0.061000
1517308384758712939	200 53 0.900000 0.013000 0.011000 2000 43 1.300000 1.525000 2.017000 600 48 1.000000 0.053000 0.053000 1.200000 0.051000 0.061000
1517308385266522231	200 53 0.900000 0.014000 0.012000 2000 43 1.300000 1.482000 1.960000 600 48 1.000000 0.053000 0.053000 1.200000 0.051000 0.061000
1517308385774275190	200 53 0.900000 0.013000 0.011000 2000 43 1.300000 1.510000 1.997000 600 48 1.000000 0.053000 0.053000 1.200000 0.051000 0.061000
1517308386281924356	200 53 0.900000 0.013000 0.011000 2000 43 1.300000 1.503000 1.988000 600 48 1.000000 0.053000 0.053000 1.200000 0.052000 0.062000
1517308386789633523	200 53 0.900000 0.013000 0.011000 2000 43 1.300000 1.499000 1.983000 600 48 1.000000 0.053000 0.053000 1.200000 0.051000 0.061000
1517308387297243315	200 53 0.900000 0.013000 0.011000 2000 43 1.300000 1.511000 1.999000 600 48 1.000000 0.053000 0.053000 1.200000 0.051000 0.061000
1517308387805081940	200 53 0.900000 0.013000 0.011000 2000 43 1.300000 1.472000 1.947000 600 48 1.000000 0.053000 0.053000 1.200000 0.051000 0.061000
1517308388315636107	200 53 0.900000 0.013000 0.011000 2000 43 1.300000 1.474000 1.950000 600 51 1.000000 0.053000 0.053000 1.200000 0.051000 0.061000
1517308388823276065	200 54 0.900000 0.014000 0.012000 2000 44 1.300000 1.665000 2.206000 600 48 1.000000 0.053000 0.053000 1.200000 0.057000 0.068000
1517308389330993398	200 53 0.900000 0.013000 0.011000 2000 43 1.300000 1.476000 1.952000 600 48 1.000000 0.053000 0.053000 1.200000 0.050000 0.060000
1517308389838660065	200 53 0.900000 0.014000 0.012000 2000 43 1.300000 1.472000 1.947000 600 48 1.000000 0.053000 0.053000 1.200000 0.050000 0.060000
1517308390346502857	200 53 0.900000 0.013000 0.011000 2000 43 1.300000 1.474000 1.950000 600 48 1.000000 0.053000 0.053000 1.200000 0.050000 0.060000
1517308390854235440	200 53 0.900000 0.013000 0.011000 2000 43 1.300000 1.520000 2.010000 600 48 1.000000 0.053000 0.053000 1.200000 0.051000 0.061000
1517308391362100815	200 53 0.900000 0.013000 0.011000 2000 43 1.300000 1.495000 1.977000 600 48 1.000000 0.053000 0.053000 1.200000 0.052000 0.062000
1517308391869856774	200 53 0.900000 0.013000 0.011000 2000 43 1.300000 1.505000 1.991000 600 48 1.000000 0.053000 0.053000 1.200000 0.051000 0.061000
1517308392377711565	200 53 0.900000 0.013000 0.011000 2000 43 1.300000 1.503000 1.988000 600 48 1.000000 0.053000 0.053000 1.200000 0.051000 0.061000
1517308392885589857	200 53 0.900000 0.014000 0.012000 2000 43 1.300000 1.486000 1.965000 600 48 1.000000 0.053000 0.053000 1.200000 0.051000 0.061000
1517308393394484732	200 53 0.900000 0.013000 0.011000 2000 43 1.300000 1.478000 1.955000 600 49 1.000000 0.053000 0.053000 1.200000 0.051000 0.061000
1517308393903199316	200 54 0.900000 0.021000 0.019000 2000 44 1.300000 1.961000 2.600000 600 48 1.000000 0.053000 0.053000 1.200000 0.066000 0.079000
1517308394410819441	200 53 0.900000 0.013000 0.011000 2000 43 1.300000 1.476000 1.952000 600 48 1.000000 0.053000 0.053000 1.200000 0.051000 0.061000
1517308394918568441	200 53 0.900000 0.013000 0.011000 2000 43 1.300000 1.470000 1.944000 600 48 1.000000 0.053000 0.053000 1.200000 0.051000 0.061000
1517308395426177691	200 53 0.900000 0.013000 0.011000 2000 43 1.300000 1.475000 1.951000 600 48 1.000000 0.053000 0.053000 1.200000 0.050000 0.060000
1517308395934030732	200 53 0.900000 0.013000 0.011000 2000 43 1.300000 1.478000 1.955000 600 48 1.000000 0.053000 0.053000 1.200000 0.050000 0.060000
1517308396441890649	200 53 0.900000 0.013000 0.011000 2000 43 1.300000 1.474000 1.950000 600 48 1.000000 0.053000 0.053000 1.200000 0.050000 0.060000
1517308396949702358	200 53 0.900000 0.014000 0.012000 2000 43 1.300000 1.470000 1.944000 600 48 1.000000 0.053000 0.053000 1.200000 0.050000 0.060000
1517308397457652691	200 53 0.900000 0.013000 0.011000 2000 43 1.300000 1.490000 1.971000 600 48 1.000000 0.053000 0.053000 1.200000 0.051000 0.061000
1517308397965421274	200 53 0.900000 0.013000 0.011000 2000 43 1.300000 1.498000 1.981000 600 47 1.000000 0.053000 0.053000 1.200000 0.051000 0.061000
1517308398473156149	200 53 0.900000 0.013000 0.011000 2000 43 1.300000 1.514000 2.003000 600 48 1.000000 0.053000 0.053000 1.200000 0.051000 0.061000
1517308398980889858	200 54 0.900000 0.016000 0.014000 2000 43 1.300000 1.991000 2.640000 600 49 1.000000 0.053000 0.053000 1.200000 0.059000 0.071000
1517308399488774358	200 53 0.900000 0.013000 0.011000 2000 43 1.300000 1.476000 1.952000 600 48 1.000000 0.053000 0.053000 1.200000 0.051000 0.061000
1517308399996456108	200 53 0.900000 0.013000 0.011000 2000 43 1.300000 1.474000 1.950000 600 48 1.000000 0.053000 0.053000 1.200000 0.051000 0.061000
1517308400504441191	200 53 0.900000 0.013000 0.011000 2000 43 1.300000 1.482000 1.960000 600 48 1.000000 0.053000 0.053000 1.200000 0.051000 0.061000
1517308401012345233	200 53 0.900000 0.013000 0.011000 2000 43 1.300000 1.478000 1.955000 600 48 1.000000 0.053000 0.053000 1.200000 0.050000 0.060000
1517308401520247066	200 53 0.900000 0.013000 0.011000 2000 43 1.300000 1.470000 1.944000 600 48 1.000000 0.053000 0.053000 1.200000 0.050000 0.060000
1517308402027982233	200 53 0.900000 0.013000 0.011000 2000 43 1.300000 1.468000 1.942000 600 48 1.000000 0.053000 0.053000 1.200000 0.050000 0.060000
1517308402535502817	200 53 0.900000 0.013000 0.011000 2000 43 1.300000 1.475000 1.951000 600 48 1.000000 0.053000 0.053000 1.200000 0.050000 0.060000
1517308403043153567	200 53 0.900000 0.013000 0.011000 2000 43 1.300000 1.477000 1.954000 600 48 1.000000 0.053000 0.053000 1.200000 0.050000 0.060000
1517308403550844483	200 53 0.900000 0.013000 0.011000 2000 43 1.300000 1.487000 1.967000 600 48 1.000000 0.053000 0.053000 1.200000 0.050000 0.060000
1517308404058525358	200 54 0.900000 0.013000 0.011000 2000 43 1.300000 1.670000 2.212000 600 49 1.000000 0.053000 0.053000 1.200000 0.054000 0.065000
1517308404566306817	200 53 0.900000 0.019000 0.017000 2000 43 1.300000 1.925000 2.552000 600 48 1.000000 0.053000 0.053000 1.200000 0.052000 0.062000
1517308405073954275	200 53 0.900000 0.013000 0.011000 2000 43 1.300000 1.491000 1.972000 600 48 1.000000 0.053000 0.053000 1.200000 0.051000 0.061000
1517308405581412942	200 53 0.900000 0.013000 0.011000 2000 43 1.300000 1.519000 2.009000 600 48 1.000000 0.053000 0.053000 1.200000 0.051000 0.061000
1517308406089104192	200 53 0.900000 0.013000 0.011000 2000 43 1.300000 1.478000 1.955000 600 48 1.000000 0.053000 0.053000 1.200000 0.051000 0.061000
1517308406596724900	200 53 0.900000 0.013000 0.011000 2000 43 1.300000 1.516000 2.005000 600 48 1.000000 0.053000 0.053000 1.200000 0.050000 0.060000
1517308407104450650	200 53 0.900000 0.013000 0.011000 2000 43 1.300000 1.485000 1.964000 600 48 1.000000 0.053000 0.053000 1.200000 0.050000 0.060000
1517308407612157984	200 53 0.900000 0.013000 0.011000 2000 43 1.300000 1.509000 1.996000 600 48 1.000000 0.053000 0.053000 1.200000 0.050000 0.060000
1517308408119867692	200 53 0.900000 0.013000 0.011000 2000 43 1.300000 1.501000 1.985000 600 48 1.000000 0.053000 0.053000 1.200000 0.050000 0.060000
1517308408627403484	200 53 0.900000 0.013000 0.011000 2000 43 1.300000 1.488000 1.968000 600 48 1.000000 0.053000 0.053000 1.200000 0.050000 0.060000
1517308409137200401	200 53 0.900000 0.014000 0.012000 2000 43 1.300000 1.661000 2.200000 600 50 1.000000 0.053000 0.053000 1.200000 0.051000 0.061000
1517308409645369609	200 53 0.900000 0.018000 0.016000 2000 43 1.300000 1.710000 2.265000 600 48 1.000000 0.053000 0.053000 1.200000 0.051000 0.061000
1517308410153146234	200 53 0.900000 0.013000 0.011000 2000 43 1.300000 1.511000 1.999000 600 48 1.000000 0.053000 0.053000 1.200000 0.050000 0.060000
1517308410660872609	200 53 0.900000 0.013000 0.011000 2000 43 1.300000 1.476000 1.952000 600 48 1.000000 0.053000 0.053000 1.200000 0.050000 0.060000
1517308411168479276	200 53 0.900000 0.013000 0.011000 2000 43 1.300000 1.486000 1.965000 600 48 1.000000 0.053000 0.053000 1.200000 0.051000 0.061000
1517308411676229276	200 53 0.900000 0.013000 0.011000 2000 43 1.300000 1.514000 2.003000 600 48 1.000000 0.053000 0.053000 1.200000 0.051000 0.061000
1517308412183787776	200 53 0.900000 0.013000 0.011000 2000 43 1.300000 1.479000 1.956000 600 48 1.000000 0.053000 0.053000 1.200000 0.051000 0.061000
1517308412691398359	200 53 0.900000 0.013000 0.011000 2000 43 1.300000 1.523000 2.014000 600 48 1.000000 0.053000 0.053000 1.200000 0.050000 0.060000
1517308413199246651	200 53 0.900000 0.013000 0.011000 2000 43 1.300000 1.485000 1.964000 600 48 1.000000 0.053000 0.053000 1.200000 0.050000 0.060000
1517308413706979610	200 53 0.900000 0.013000 0.011000 2000 43 1.300000 1.502000 1.987000 600 48 1.000000 0.053000 0.053000 1.200000 0.050000 0.060000
1517308414216485610	200 53 0.900000 0.013000 0.011000 2000 43 1.300000 1.659000 2.198000 600 48 1.000000 0.053000 0.053000 1.200000 0.050000 0.060000
1517308414724215276	200 53 0.900000 0.019000 0.017000 2000 43 1.300000 1.926000 2.553000 600 48 1.000000 0.053000 0.053000 1.200000 0.055000 0.066000
1517308415232096943	200 53 0.900000 0.013000 0.011000 2000 43 1.300000 1.524000 2.016000 600 48 1.000000 0.053000 0.053000 1.200000 0.050000 0.060000
1517308415739718943	200 53 0.900000 0.013000 0.011000 2000 43 1.300000 1.486000 1.965000 600 48 1.000000 0.053000 0.053000 1.200000 0.051000 0.061000
1517308416247459860	200 53 0.900000 0.013000 0.011000 2000 43 1.300000 1.473000 1.948000 600 48 1.000000 0.053000 0.053000 1.200000 0.051000 0.061000
1517308416755262735	200 53 0.900000 0.013000 0.011000 2000 43 1.300000 1.475000 1.951000 600 48 1.000000 0.053000 0.053000 1.200000 0.051000 0.061000
1517308417262899568	200 53 0.900000 0.013000 0.011000 2000 43 1.300000 1.478000 1.955000 600 48 1.000000 0.053000 0.053000 1.200000 0.051000 0.061000
1517308417770884568	200 53 0.900000 0.013000 0.011000 2000 43 1.300000 1.517000 2.006000 600 48 1.000000 0.053000 0.053000 1.200000 0.050000 0.060000
1517308418278769943	200 53 0.900000 0.013000 0.011000 2000 43 1.300000 1.474000 1.950000 600 47 1.000000 0.053000 0.053000 1.200000 0.051000 0.061000
1517308418786369777	200 53 0.900000 0.013000 0.011000 2000 43 1.300000 1.513000 2.001000 600 49 1.000000 0.053000 0.053000 1.200000 0.051000 0.061000
1517308419294479194	200 53 0.900000 0.014000 0.012000 2000 43 1.300000 1.668000 2.210000 600 48 1.000000 0.053000 0.053000 1.200000 0.054000 0.065000
1517308419802092944	200 54 0.900000 0.020000 0.018000 2000 43 1.300000 1.618000 2.140000 600 48 1.000000 0.053000 0.053000 1.200000 0.051000 0.061000
1517308420309601402	200 53 0.900000 0.013000 0.011000 2000 43 1.300000 1.508000 1.995000 600 48 1.000000 0.053000 0.053000 1.200000 0.052000 0.062000
1517308420817322360	200 53 0.900000 0.013000 0.011000 2000 43 1.300000 1.484000 1.963000 600 48 1.000000 0.053000 0.053000 1.200000 0.051000 0.061000
1517308421324970027	200 53 0.900000 0.013000 0.011000 2000 43 1.300000 1.521000 2.012000 600 48 1.000000 0.053000 0.053000 1.200000 0.051000 0.061000
1517308421832519611	200 53 0.900000 0.013000 0.011000 2000 43 1.300000 1.483000 1.962000 600 48 1.000000 0.053000 0.053000 1.200000 0.051000 0.061000
1517308422340312444	200 53 0.900000 0.013000 0.011000 2000 43 1.300000 1.478000 1.955000 600 47 1.000000 0.053000 0.053000 1.200000 0.051000 0.061000
1517308422847905319	200 53 0.900000 0.014000 0.012000 2000 43 1.300000 1.470000 1.944000 600 48 1.000000 0.053000 0.053000 1.200000 0.051000 0.061000
1517308423355565986	200 53 0.900000 0.013000 0.011000 2000 43 1.300000 1.470000 1.944000 600 47 1.000000 0.053000 0.053000 1.200000 0.050000 0.060000
1517308423863866819	200 53 0.900000 0.013000 0.011000 2000 43 1.300000 1.475000 1.951000 600 51 1.000000 0.053000 0.053000 1.200000 0.050000 0.060000
1517308424371505361	200 53 0.900000 0.014000 0.012000 2000 43 1.300000 1.660000 2.199000 600 48 1.000000 0.053000 0.053000 1.200000 0.054000 0.065000
1517308424879317736	200 54 0.900000 0.014000 0.012000 2000 43 1.300000 1.521000 2.012000 600 49 1.000000 0.053000 0.053000 1.200000 0.051000 0.061000
1517308425386996361	200 53 0.900000 0.015000 0.013000 2000 43 1.300000 1.590000 2.106000 600 48 1.000000 0.053000 0.053000 1.200000 0.058000 0.070000
1517308425894788903	200 53 0.900000 0.014000 0.012000 2000 43 1.300000 1.512000 2.000000 600 48 1.000000 0.053000 0.053000 1.200000 0.050000 0.060000
1517308426402385903	200 53 0.900000 0.013000 0.011000 2000 43 1.300000 1.499000 1.983000 600 48 1.000000 0.053000 0.053000 1.200000 0.052000 0.062000
1517308426910119528	200 53 0.900000 0.013000 0.011000 2000 43 1.300000 1.499000 1.983000 600 47 1.000000 0.053000 0.053000 1.200000 0.051000 0.061000
1517308427417762653	200 53 0.900000 0.013000 0.011000 2000 43 1.300000 1.508000 1.995000 600 48 1.000000 0.053000 0.053000 1.200000 0.051000 0.061000
1517308427925675528	200 53 0.900000 0.014000 0.012000 2000 43 1.300000 1.474000 1.950000 600 47 1.000000 0.053000 0.053000 1.200000 0.051000 0.061000
1517308428433288070	200 53 0.900000 0.013000 0.011000 2000 43 1.300000 1.476000 1.952000 600 47 1.000000 0.053000 0.053000 1.200000 0.051000 0.061000
1517308428940436695	200 56 0.900000 0.014000 0.012000 2000 43 1.300000 1.554000 2.055000 600 49 1.000000 0.053000 0.053000 1.200000 0.052000 0.062000
1517308429447596528	200 56 0.900000 0.013000 0.011000 2000 44 1.300000 1.723000 2.282000 600 48 1.000000 0.053000 0.053000 1.200000 0.028000 0.033000
1517308429955191320	200 56 0.900000 0.013000 0.011000 2000 44 1.300000 1.705000 2.259000 600 51 1.000000 0.053000 0.053000 1.200000 0.028000 0.033000
1517308430463120028	200 56 0.900000 0.013000 0.011000 2000 44 1.300000 1.714000 2.271000 600 49 1.000000 0.053000 0.053000 1.200000 0.029000 0.035000
1517308430970349362	200 56 0.900000 0.013000 0.011000 2000 44 1.300000 1.713000 2.269000 600 49 1.000000 0.053000 0.053000 1.200000 0.028000 0.033000
1517308431477532153	200 56 0.900000 0.013000 0.011000 2000 44 1.300000 1.730000 2.292000 600 49 1.000000 0.053000 0.053000 1.200000 0.028000 0.033000
1517308431984677695	200 56 0.900000 0.014000 0.012000 2000 44 1.300000 1.750000 2.315000 600 49 1.000000 0.053000 0.053000 1.200000 0.028000 0.033000
1517308432492124945	200 57 0.900000 0.013000 0.011000 2000 44 1.300000 1.721000 2.280000 600 49 1.000000 0.053000 0.053000 1.200000 0.029000 0.035000
1517308432999391154	200 57 0.900000 0.014000 0.012000 2000 44 1.300000 1.801000 2.386000 600 49 1.000000 0.053000 0.053000 1.200000 0.035000 0.042000
1517308433506419070	200 57 0.900000 0.013000 0.011000 2000 44 1.300000 1.733000 2.292000 600 49 1.000000 0.053000 0.053000 1.200000 0.029000 0.035000
1517308434013439445	200 57 0.900000 0.013000 0.011000 2000 45 1.300000 1.724000 2.284000 600 50 1.000000 0.053000 0.053000 1.200000 0.028000 0.033000
1517308434521202237	200 57 0.900000 0.015000 0.013000 2000 45 1.300000 1.781000 2.359000 600 49 1.000000 0.053000 0.053000 1.200000 0.035000 0.042000
1517308435030233362	200 57 0.900000 0.014000 0.012000 2000 44 1.300000 1.733000 2.296000 600 49 1.000000 0.054000 0.054000 1.200000 0.029000 0.035000
1517308435538534612	200 57 0.900000 0.022000 0.020000 2000 45 1.300000 1.889000 2.502000 600 50 1.000000 0.053000 0.053000 1.200000 0.037000 0.044000
1517308436046087571	200 57 0.900000 0.014000 0.012000 2000 45 1.300000 1.775000 2.351000 600 49 1.000000 0.053000 0.053000 1.200000 0.035000 0.042000
1517308436553314862	200 57 0.900000 0.013000 0.011000 2000 45 1.300000 1.733000 2.296000 600 49 1.000000 0.053000 0.053000 1.200000 0.028000 0.033000
1517308437060326321	200 57 0.900000 0.013000 0.011000 2000 45 1.300000 1.712000 2.268000 600 49 1.000000 0.053000 0.053000 1.200000 0.028000 0.033000
1517308437567713487	200 57 0.900000 0.014000 0.012000 2000 45 1.300000 1.736000 2.300000 600 49 1.000000 0.053000 0.053000 1.200000 0.035000 0.042000
1517308438075059863	200 57 0.900000 0.014000 0.012000 2000 45 1.300000 1.753000 2.322000 600 49 1.000000 0.053000 0.053000 1.200000 0.032000 0.038000
1517308438582134446	200 57 0.900000 0.013000 0.011000 2000 45 1.300000 1.753000 2.322000 600 49 1.000000 0.053000 0.053000 1.200000 0.029000 0.035000
1517308439089126571	200 57 0.900000 0.014000 0.012000 2000 45 1.300000 1.844000 2.443000 600 50 1.000000 0.053000 0.053000 1.200000 0.030000 0.036000
1517308439596506279	200 57 0.900000 0.014000 0.012000 2000 45 1.300000 1.750000 2.318000 600 49 1.000000 0.053000 0.053000 1.200000 0.035000 0.042000
1517308440103777238	200 57 0.900000 0.014000 0.012000 2000 45 1.300000 1.736000 2.300000 600 49 1.000000 0.053000 0.053000 1.200000 0.033000 0.039000
1517308440610799071	200 57 0.900000 0.013000 0.011000 2000 45 1.300000 2.110000 2.797000 600 50 1.000000 0.053000 0.053000 1.200000 0.037000 0.044000
1517308441118076905	200 57 0.900000 0.013000 0.011000 2000 45 1.300000 1.721000 2.280000 600 49 1.000000 0.053000 0.053000 1.200000 0.027000 0.032000
1517308441625357196	200 57 0.900000 0.014000 0.012000 2000 45 1.300000 1.727000 2.288000 600 49 1.000000 0.053000 0.053000 1.200000 0.027000 0.032000
1517308442132495905	200 57 0.900000 0.013000 0.011000 2000 45 1.300000 1.765000 2.338000 600 49 1.000000 0.053000 0.053000 1.200000 0.028000 0.033000
1517308442639898696	200 57 0.900000 0.014000 0.012000 2000 45 1.300000 1.788000 2.369000 600 49 1.000000 0.053000 0.053000 1.200000 0.033000 0.039000
1517308443147071321	200 57 0.900000 0.014000 0.012000 2000 45 1.300000 1.789000 2.370000 600 49 1.000000 0.053000 0.053000 1.200000 0.029000 0.035000
1517308443654086072	200 57 0.900000 0.013000 0.011000 2000 45 1.300000 1.728000 2.289000 600 49 1.000000 0.053000 0.053000 1.200000 0.027000 0.032000
1517308444161576113	200 58 0.900000 0.013000 0.011000 2000 45 1.300000 1.763000 2.335000 600 50 1.000000 0.053000 0.053000 1.200000 0.029000 0.035000
1517308444669025822	200 57 0.900000 0.014000 0.012000 2000 45 1.300000 2.037000 2.703000 600 49 1.000000 0.053000 0.053000 1.200000 0.034000 0.041000
1517308445176435697	200 57 0.900000 0.014000 0.012000 2000 45 1.300000 1.790000 2.371000 600 49 1.000000 0.053000 0.053000 1.200000 0.037000 0.044000
1517308445684433572	200 47 0.900000 0.016000 0.014000 2000 44 1.300000 1.758000 2.329000 600 51 1.000000 0.053000 0.053000 1.200000 0.035000 0.042000
1517308446191694030	200 43 0.900000 0.013000 0.011000 2000 42 1.300000 0.962000 1.270000 600 47 1.000000 0.053000 0.053000 1.200000 0.025000 0.030000
