#Timestamp	CPU(0) Frequency(MHz)	CPU(0) Temperature(C)	A7 Voltage(V)	A7 Current(A)	A7 Power(W)	CPU(4) Frequency(MHz)	CPU(4) Temperature(C)	A15 Voltage(V)	A15 Current(A)	A15 Power(W)	GPU Frequency(MHz)	GPU Temperature(C)	GPU Voltage(V)	GPU Current(A)	GPU Power(W)	RAM Voltage(V)	RAM Current(A)	RAM Power(W)
1517410854676353572	300 30 0.900000 0.015000 0.013000 1800 27 1.200000 1.298000 1.567000 600 33 1.000000 0.051000 0.051000 1.200000 0.031000 0.037000
1517410855183350072	300 31 0.900000 0.014000 0.012000 1800 27 1.200000 1.302000 1.572000 600 34 1.000000 0.051000 0.051000 1.200000 0.031000 0.037000
1517410855690416155	300 31 0.900000 0.014000 0.012000 1800 28 1.200000 1.332000 1.609000 600 35 1.000000 0.051000 0.051000 1.200000 0.032000 0.038000
1517410856197195530	300 32 0.900000 0.014000 0.012000 1800 29 1.200000 1.316000 1.589000 600 36 1.000000 0.051000 0.051000 1.200000 0.033000 0.039000
1517410856704148613	300 32 0.900000 0.014000 0.012000 1800 29 1.200000 1.347000 1.627000 600 36 1.000000 0.051000 0.051000 1.200000 0.031000 0.037000
1517410857211110280	300 33 0.900000 0.014000 0.012000 1800 29 1.200000 1.311000 1.583000 600 37 1.000000 0.051000 0.051000 1.200000 0.033000 0.039000
1517410857717951780	300 33 0.900000 0.014000 0.012000 1800 30 1.200000 1.343000 1.622000 600 37 1.000000 0.051000 0.051000 1.200000 0.032000 0.038000
1517410858224931447	300 33 0.900000 0.014000 0.012000 1800 30 1.200000 1.320000 1.594000 600 37 1.000000 0.051000 0.051000 1.200000 0.032000 0.038000
1517410858731770364	300 33 0.900000 0.014000 0.012000 1800 30 1.200000 1.347000 1.627000 600 38 1.000000 0.051000 0.051000 1.200000 0.031000 0.037000
1517410859238578614	300 34 0.900000 0.014000 0.012000 1800 30 1.200000 1.326000 1.601000 600 38 1.000000 0.051000 0.051000 1.200000 0.031000 0.037000
1517410859745524030	300 34 0.900000 0.014000 0.012000 1800 31 1.200000 1.336000 1.613000 600 38 1.000000 0.052000 0.052000 1.200000 0.031000 0.037000
1517410860252406531	300 34 0.900000 0.014000 0.012000 1800 31 1.200000 1.332000 1.609000 600 38 1.000000 0.051000 0.051000 1.200000 0.031000 0.037000
1517410860759388031	300 34 0.900000 0.014000 0.012000 1800 31 1.200000 1.321000 1.595000 600 38 1.000000 0.052000 0.052000 1.200000 0.031000 0.037000
1517410861266439906	300 34 0.900000 0.014000 0.012000 1800 31 1.200000 1.319000 1.593000 600 38 1.000000 0.052000 0.052000 1.200000 0.031000 0.037000
1517410861773380531	300 34 0.900000 0.014000 0.012000 1800 31 1.200000 1.328000 1.604000 600 38 1.000000 0.052000 0.052000 1.200000 0.033000 0.039000
1517410862280376447	300 35 0.900000 0.015000 0.013000 1800 31 1.200000 1.345000 1.624000 600 39 1.000000 0.052000 0.052000 1.200000 0.032000 0.038000
1517410862787540906	300 35 0.900000 0.014000 0.012000 1800 31 1.200000 1.317000 1.590000 600 39 1.000000 0.051000 0.051000 1.200000 0.033000 0.039000
1517410863294511573	300 35 0.900000 0.015000 0.013000 1800 31 1.200000 1.353000 1.634000 600 39 1.000000 0.052000 0.052000 1.200000 0.033000 0.039000
1517410863801439281	300 35 0.900000 0.014000 0.012000 1800 32 1.200000 1.323000 1.598000 600 39 1.000000 0.052000 0.052000 1.200000 0.031000 0.037000
1517410864308434864	300 35 0.900000 0.015000 0.013000 1800 32 1.200000 1.350000 1.630000 600 39 1.000000 0.052000 0.052000 1.200000 0.031000 0.037000
1517410864815447739	300 35 0.900000 0.014000 0.012000 1800 32 1.200000 1.326000 1.601000 600 39 1.000000 0.051000 0.051000 1.200000 0.031000 0.037000
1517410865322454448	300 35 0.900000 0.014000 0.012000 1800 32 1.200000 1.342000 1.621000 600 39 1.000000 0.052000 0.052000 1.200000 0.032000 0.038000
1517410865829308031	300 35 0.900000 0.014000 0.012000 1800 32 1.200000 1.335000 1.612000 600 39 1.000000 0.051000 0.051000 1.200000 0.031000 0.037000
1517410866336246573	300 35 0.900000 0.015000 0.013000 1800 32 1.200000 1.322000 1.596000 600 39 1.000000 0.052000 0.052000 1.200000 0.033000 0.039000
1517410866843213698	300 35 0.900000 0.014000 0.012000 1800 32 1.200000 1.319000 1.593000 600 39 1.000000 0.052000 0.052000 1.200000 0.032000 0.038000
1517410867350047865	300 35 0.900000 0.015000 0.013000 1800 32 1.200000 1.316000 1.589000 600 39 1.000000 0.052000 0.052000 1.200000 0.032000 0.038000
1517410867857022823	300 35 0.900000 0.014000 0.012000 1800 32 1.200000 1.319000 1.593000 600 39 1.000000 0.052000 0.052000 1.200000 0.032000 0.038000
1517410868364059698	300 35 0.900000 0.014000 0.012000 1800 32 1.200000 1.327000 1.603000 600 39 1.000000 0.051000 0.051000 1.200000 0.033000 0.039000
1517410868871207282	300 35 0.900000 0.014000 0.012000 1800 32 1.200000 1.357000 1.639000 600 39 1.000000 0.052000 0.052000 1.200000 0.033000 0.039000
1517410869378209907	300 35 0.900000 0.015000 0.013000 1800 32 1.200000 1.322000 1.596000 600 39 1.000000 0.051000 0.051000 1.200000 0.032000 0.038000
1517410869885061157	300 35 0.900000 0.015000 0.013000 1800 32 1.200000 1.352000 1.633000 600 39 1.000000 0.052000 0.052000 1.200000 0.031000 0.037000
1517410870391909365	300 35 0.900000 0.014000 0.012000 1800 32 1.200000 1.323000 1.598000 600 39 1.000000 0.052000 0.052000 1.200000 0.032000 0.038000
1517410870898940657	300 35 0.900000 0.014000 0.012000 1800 32 1.200000 1.354000 1.635000 600 40 1.000000 0.052000 0.052000 1.200000 0.033000 0.039000
1517410871405845824	300 35 0.900000 0.014000 0.012000 1800 32 1.200000 1.334000 1.611000 600 40 1.000000 0.052000 0.052000 1.200000 0.032000 0.038000
1517410871912724699	300 36 0.900000 0.014000 0.012000 1800 33 1.200000 1.322000 1.596000 600 40 1.000000 0.052000 0.052000 1.200000 0.033000 0.039000
1517410872419524865	300 36 0.900000 0.014000 0.012000 1800 32 1.200000 1.317000 1.590000 600 40 1.000000 0.052000 0.052000 1.200000 0.033000 0.039000
1517410872926501324	300 36 0.900000 0.015000 0.013000 1800 32 1.200000 1.320000 1.594000 600 40 1.000000 0.052000 0.052000 1.200000 0.031000 0.037000
1517410873433520407	300 36 0.900000 0.014000 0.012000 1800 32 1.200000 1.323000 1.598000 600 40 1.000000 0.052000 0.052000 1.200000 0.032000 0.038000
1517410873940449157	300 36 0.900000 0.016000 0.014000 1800 32 1.200000 1.341000 1.619000 600 40 1.000000 0.052000 0.052000 1.200000 0.031000 0.037000
1517410874447363574	300 36 0.900000 0.014000 0.012000 1800 33 1.200000 1.319000 1.593000 600 40 1.000000 0.052000 0.052000 1.200000 0.033000 0.039000
1517410874954356532	300 36 0.900000 0.015000 0.013000 1800 33 1.200000 1.326000 1.601000 600 40 1.000000 0.052000 0.052000 1.200000 0.031000 0.037000
1517410875461311782	300 36 0.900000 0.014000 0.012000 1800 33 1.200000 1.354000 1.635000 600 40 1.000000 0.052000 0.052000 1.200000 0.034000 0.041000
1517410875968190866	300 36 0.900000 0.015000 0.013000 1800 33 1.200000 1.325000 1.600000 600 40 1.000000 0.052000 0.052000 1.200000 0.032000 0.038000
1517410876475291407	300 36 0.900000 0.015000 0.013000 1800 33 1.200000 1.358000 1.640000 600 40 1.000000 0.052000 0.052000 1.200000 0.033000 0.039000
1517410876982219491	300 36 0.900000 0.015000 0.013000 1800 33 1.200000 1.329000 1.605000 600 40 1.000000 0.052000 0.052000 1.200000 0.031000 0.037000
1517410877488715616	300 36 0.900000 0.014000 0.012000 1800 33 1.200000 1.325000 1.600000 600 40 1.000000 0.052000 0.052000 1.200000 0.032000 0.038000
1517410877995080866	300 36 0.900000 0.014000 0.012000 1800 33 1.200000 1.329000 1.605000 600 40 1.000000 0.052000 0.052000 1.200000 0.031000 0.037000
1517410878501297783	300 36 0.900000 0.014000 0.012000 1800 33 1.200000 1.332000 1.609000 600 40 1.000000 0.052000 0.052000 1.200000 0.032000 0.038000
1517410879007592783	300 36 0.900000 0.015000 0.013000 1800 33 1.200000 1.334000 1.611000 600 40 1.000000 0.052000 0.052000 1.200000 0.033000 0.039000
1517410879513932658	300 36 0.900000 0.015000 0.013000 1800 33 1.200000 1.328000 1.604000 600 40 1.000000 0.052000 0.052000 1.200000 0.032000 0.038000
1517410880020243533	300 36 0.900000 0.014000 0.012000 1800 33 1.200000 1.328000 1.604000 600 40 1.000000 0.052000 0.052000 1.200000 0.033000 0.039000
1517410880526432950	300 36 0.900000 0.014000 0.012000 1800 33 1.200000 1.330000 1.606000 600 40 1.000000 0.052000 0.052000 1.200000 0.032000 0.038000
1517410881032747533	300 36 0.900000 0.015000 0.013000 1800 33 1.200000 1.342000 1.621000 600 40 1.000000 0.052000 0.052000 1.200000 0.032000 0.038000
1517410881539130241	300 36 0.900000 0.014000 0.012000 1800 33 1.200000 1.357000 1.639000 600 40 1.000000 0.052000 0.052000 1.200000 0.032000 0.038000
1517410882045408075	300 36 0.900000 0.015000 0.013000 1800 33 1.200000 1.334000 1.611000 600 40 1.000000 0.052000 0.052000 1.200000 0.033000 0.039000
1517410882551620992	300 36 0.900000 0.014000 0.012000 1800 33 1.200000 1.328000 1.604000 600 40 1.000000 0.052000 0.052000 1.200000 0.032000 0.038000
1517410883057933908	300 36 0.900000 0.015000 0.013000 1800 33 1.200000 1.333000 1.610000 600 40 1.000000 0.052000 0.052000 1.200000 0.033000 0.039000
1517410883564092158	300 36 0.900000 0.015000 0.013000 1800 33 1.200000 1.333000 1.610000 600 40 1.000000 0.052000 0.052000 1.200000 0.032000 0.038000
1517410884070339700	300 36 0.900000 0.015000 0.013000 1800 33 1.200000 1.331000 1.607000 600 40 1.000000 0.052000 0.052000 1.200000 0.033000 0.039000
1517410884576491283	300 36 0.900000 0.014000 0.012000 1800 33 1.200000 1.327000 1.603000 600 40 1.000000 0.052000 0.052000 1.200000 0.032000 0.038000
1517410885082584158	300 36 0.900000 0.015000 0.013000 1800 33 1.200000 1.328000 1.604000 600 40 1.000000 0.052000 0.052000 1.200000 0.032000 0.038000
1517410885588985992	300 36 0.900000 0.015000 0.013000 1800 33 1.200000 1.331000 1.607000 600 40 1.000000 0.052000 0.052000 1.200000 0.031000 0.037000
1517410886095212700	300 36 0.900000 0.015000 0.013000 1800 33 1.200000 1.334000 1.611000 600 41 1.000000 0.052000 0.052000 1.200000 0.032000 0.038000
1517410886601515409	300 36 0.900000 0.015000 0.013000 1800 33 1.200000 1.360000 1.642000 600 41 1.000000 0.051000 0.051000 1.200000 0.032000 0.038000
1517410887107885242	300 36 0.900000 0.014000 0.012000 1800 33 1.200000 1.334000 1.611000 600 41 1.000000 0.052000 0.052000 1.200000 0.032000 0.038000
1517410887614139367	300 36 0.900000 0.014000 0.012000 1800 33 1.200000 1.328000 1.604000 600 40 1.000000 0.052000 0.052000 1.200000 0.031000 0.037000
1517410888120298201	300 36 0.900000 0.015000 0.013000 1800 33 1.200000 1.332000 1.609000 600 40 1.000000 0.052000 0.052000 1.200000 0.033000 0.039000
1517410888626481992	300 36 0.900000 0.015000 0.013000 1800 33 1.200000 1.362000 1.645000 600 41 1.000000 0.052000 0.052000 1.200000 0.032000 0.038000
1517410889132814534	300 36 0.900000 0.015000 0.013000 1800 33 1.200000 1.337000 1.615000 600 41 1.000000 0.052000 0.052000 1.200000 0.033000 0.039000
1517410889639009409	300 36 0.900000 0.015000 0.013000 1800 33 1.200000 1.359000 1.641000 600 41 1.000000 0.052000 0.052000 1.200000 0.031000 0.037000
1517410890145284159	300 36 0.900000 0.014000 0.012000 1800 33 1.200000 1.334000 1.611000 600 40 1.000000 0.052000 0.052000 1.200000 0.032000 0.038000
1517410890651616617	300 36 0.900000 0.015000 0.013000 1800 33 1.200000 1.363000 1.646000 600 40 1.000000 0.052000 0.052000 1.200000 0.032000 0.038000
1517410891157877909	300 36 0.900000 0.015000 0.013000 1800 33 1.200000 1.334000 1.611000 600 41 1.000000 0.052000 0.052000 1.200000 0.032000 0.038000
1517410891664173743	300 36 0.900000 0.015000 0.013000 1800 33 1.200000 1.361000 1.644000 600 41 1.000000 0.052000 0.052000 1.200000 0.031000 0.037000
1517410892170681618	300 36 0.900000 0.015000 0.013000 1800 33 1.200000 1.329000 1.605000 600 41 1.000000 0.052000 0.052000 1.200000 0.031000 0.037000
1517410892676880993	300 37 0.900000 0.015000 0.013000 1800 33 1.200000 1.363000 1.646000 600 41 1.000000 0.052000 0.052000 1.200000 0.032000 0.038000
1517410893183127993	300 36 0.900000 0.015000 0.013000 1800 33 1.200000 1.338000 1.616000 600 41 1.000000 0.052000 0.052000 1.200000 0.032000 0.038000
1517410893689353993	300 36 0.900000 0.015000 0.013000 1800 33 1.200000 1.366000 1.650000 600 41 1.000000 0.052000 0.052000 1.200000 0.031000 0.037000
1517410894195491326	300 37 0.900000 0.015000 0.013000 1800 33 1.200000 1.331000 1.607000 600 41 1.000000 0.052000 0.052000 1.200000 0.032000 0.038000
1517410894701830951	300 37 0.900000 0.015000 0.013000 1800 33 1.200000 1.360000 1.641000 600 41 1.000000 0.052000 0.052000 1.200000 0.032000 0.038000
1517410895208095993	300 37 0.900000 0.015000 0.013000 1800 34 1.200000 1.333000 1.610000 600 41 1.000000 0.052000 0.052000 1.200000 0.032000 0.038000
1517410895714479451	300 37 0.900000 0.015000 0.013000 1800 33 1.200000 1.366000 1.650000 600 41 1.000000 0.051000 0.051000 1.200000 0.031000 0.037000
1517410896220807785	300 37 0.900000 0.015000 0.013000 1800 34 1.200000 1.335000 1.612000 600 41 1.000000 0.052000 0.052000 1.200000 0.032000 0.038000
1517410896727136035	300 37 0.900000 0.014000 0.012000 1800 33 1.200000 1.362000 1.645000 600 41 1.000000 0.052000 0.052000 1.200000 0.033000 0.039000
1517410897233530743	300 37 0.900000 0.014000 0.012000 1800 34 1.200000 1.334000 1.611000 600 41 1.000000 0.052000 0.052000 1.200000 0.032000 0.038000
1517410897739798452	300 37 0.900000 0.015000 0.013000 1800 34 1.200000 1.364000 1.647000 600 41 1.000000 0.052000 0.052000 1.200000 0.032000 0.038000
1517410898251714493	300 37 0.900000 0.015000 0.013000 1800 34 1.200000 1.336000 1.613000 600 41 1.000000 0.052000 0.052000 1.200000 0.032000 0.038000
1517410898759161743	300 37 0.900000 0.015000 0.013000 1800 33 1.200000 1.335000 1.611000 600 41 1.000000 0.052000 0.052000 1.200000 0.032000 0.038000
1517410899315597619	300 40 0.900000 0.018000 0.016000 1800 34 1.200000 1.208000 1.458000 600 43 1.000000 0.052000 0.052000 1.200000 0.150000 0.182000
1517410899875707452	300 46 0.900000 0.086000 0.078000 1800 37 1.200000 3.425000 4.171000 600 52 1.000000 0.052000 0.052000 1.200000 0.084000 0.101000
1517410900427634785	300 48 0.900000 0.086000 0.078000 1800 38 1.200000 3.466000 4.221000 600 55 1.000000 0.052000 0.052000 1.200000 0.084000 0.101000
1517410900983678244	300 50 0.900000 0.087000 0.079000 1800 39 1.200000 3.476000 4.233000 600 56 1.000000 0.052000 0.052000 1.200000 0.084000 0.101000
1517410901543678202	300 51 0.900000 0.087000 0.079000 1800 40 1.200000 3.479000 4.237000 600 58 1.000000 0.053000 0.053000 1.200000 0.084000 0.101000
1517410902099626036	300 51 0.900000 0.087000 0.079000 1800 41 1.200000 3.488000 4.248000 600 58 1.000000 0.053000 0.053000 1.200000 0.085000 0.102000
1517410902643669911	300 52 0.900000 0.087000 0.079000 1800 42 1.200000 3.494000 4.255000 600 59 1.000000 0.053000 0.053000 1.200000 0.085000 0.102000
1517410903203693161	300 53 0.900000 0.088000 0.080000 1800 42 1.200000 3.493000 4.254000 600 60 1.000000 0.053000 0.053000 1.200000 0.086000 0.104000
1517410903763695202	300 53 0.900000 0.088000 0.080000 1800 42 1.200000 3.499000 4.261000 600 60 1.000000 0.053000 0.053000 1.200000 0.085000 0.102000
1517410904315667744	300 54 0.900000 0.087000 0.079000 1800 43 1.200000 3.512000 4.284000 600 61 1.000000 0.053000 0.053000 1.200000 0.084000 0.101000
1517410904883672494	300 54 0.900000 0.088000 0.080000 1800 43 1.200000 3.512000 4.277000 600 61 1.000000 0.053000 0.053000 1.200000 0.084000 0.101000
1517410905435624911	300 54 0.900000 0.088000 0.080000 1800 44 1.200000 3.514000 4.280000 600 62 1.000000 0.053000 0.053000 1.200000 0.084000 0.101000
1517410905991606661	300 55 0.900000 0.088000 0.080000 1800 44 1.200000 3.512000 4.277000 600 62 1.000000 0.053000 0.053000 1.200000 0.084000 0.101000
1517410906547598078	300 55 0.900000 0.088000 0.080000 1800 44 1.200000 3.515000 4.288000 600 62 1.000000 0.053000 0.053000 1.200000 0.084000 0.101000
1517410907095620786	300 55 0.900000 0.088000 0.080000 1800 44 1.200000 3.512000 4.284000 600 62 1.000000 0.053000 0.053000 1.200000 0.085000 0.102000
1517410907639639828	300 55 0.900000 0.088000 0.080000 1800 45 1.200000 3.509000 4.280000 600 63 1.000000 0.053000 0.053000 1.200000 0.085000 0.102000
1517410908195669828	300 56 0.900000 0.088000 0.080000 1800 45 1.200000 3.517000 4.290000 600 63 1.000000 0.054000 0.054000 1.200000 0.085000 0.102000
1517410908747602453	300 56 0.900000 0.088000 0.080000 1800 45 1.200000 3.525000 4.300000 600 63 1.000000 0.053000 0.053000 1.200000 0.085000 0.102000
1517410909303695661	300 56 0.900000 0.088000 0.080000 1800 45 1.200000 3.522000 4.296000 600 63 1.000000 0.054000 0.054000 1.200000 0.085000 0.102000
1517410909863681203	300 56 0.900000 0.088000 0.080000 1800 45 1.200000 3.526000 4.294000 600 63 1.000000 0.053000 0.053000 1.200000 0.085000 0.102000
1517410910415699287	300 56 0.900000 0.088000 0.080000 1800 45 1.200000 3.527000 4.302000 600 63 1.000000 0.054000 0.054000 1.200000 0.085000 0.102000
1517410910967677037	300 56 0.900000 0.088000 0.080000 1800 46 1.200000 3.530000 4.306000 600 64 1.000000 0.054000 0.054000 1.200000 0.084000 0.101000
1517410911531656245	300 57 0.900000 0.088000 0.080000 1800 46 1.200000 3.531000 4.307000 600 64 1.000000 0.054000 0.054000 1.200000 0.084000 0.101000
1517410912087686120	300 57 0.900000 0.089000 0.081000 1800 46 1.200000 3.531000 4.307000 600 64 1.000000 0.054000 0.054000 1.200000 0.084000 0.101000
1517410912655724495	300 57 0.900000 0.089000 0.081000 1800 46 1.200000 3.528000 4.304000 600 64 1.000000 0.054000 0.054000 1.200000 0.085000 0.102000
1517410913219591120	300 57 0.900000 0.088000 0.080000 1800 46 1.200000 3.521000 4.295000 600 64 1.000000 0.054000 0.054000 1.200000 0.086000 0.104000
1517410913771687329	300 57 0.900000 0.089000 0.081000 1800 46 1.200000 3.520000 4.294000 600 64 1.000000 0.054000 0.054000 1.200000 0.086000 0.104000
1517410914331668495	300 57 0.900000 0.088000 0.080000 1800 46 1.200000 3.537000 4.315000 600 65 1.000000 0.054000 0.054000 1.200000 0.084000 0.101000
1517410914891679579	300 57 0.900000 0.089000 0.081000 1800 46 1.200000 3.538000 4.316000 600 65 1.000000 0.054000 0.054000 1.200000 0.085000 0.102000
1517410915443762287	300 57 0.900000 0.089000 0.081000 1800 46 1.200000 3.539000 4.317000 600 65 1.000000 0.054000 0.054000 1.200000 0.086000 0.104000
1517410916011613079	300 57 0.900000 0.088000 0.080000 1800 47 1.200000 3.538000 4.316000 600 65 1.000000 0.054000 0.054000 1.200000 0.085000 0.102000
1517410916563672912	300 58 0.900000 0.088000 0.080000 1800 47 1.200000 3.538000 4.316000 600 65 1.000000 0.054000 0.054000 1.200000 0.085000 0.102000
1517410917119695412	300 58 0.900000 0.089000 0.081000 1800 47 1.200000 3.537000 4.315000 600 65 1.000000 0.053000 0.053000 1.200000 0.085000 0.102000
1517410917667595204	300 58 0.900000 0.089000 0.081000 1800 47 1.200000 3.536000 4.313000 600 65 1.000000 0.054000 0.054000 1.200000 0.085000 0.102000
1517410918223622121	300 58 0.900000 0.089000 0.081000 1800 47 1.200000 3.535000 4.312000 600 65 1.000000 0.054000 0.054000 1.200000 0.085000 0.102000
1517410918779651121	300 58 0.900000 0.089000 0.081000 1800 47 1.200000 3.537000 4.315000 600 65 1.000000 0.054000 0.054000 1.200000 0.085000 0.102000
1517410919335648996	300 58 0.900000 0.089000 0.081000 1800 47 1.200000 3.535000 4.312000 600 65 1.000000 0.054000 0.054000 1.200000 0.085000 0.102000
1517410919891710788	300 58 0.900000 0.089000 0.081000 1800 47 1.200000 3.543000 4.322000 600 66 1.000000 0.054000 0.054000 1.200000 0.084000 0.101000
1517410920443683538	300 58 0.900000 0.089000 0.081000 1800 47 1.200000 3.544000 4.323000 600 66 1.000000 0.054000 0.054000 1.200000 0.085000 0.102000
1517410920991700538	300 58 0.900000 0.089000 0.081000 1800 47 1.200000 3.545000 4.324000 600 66 1.000000 0.054000 0.054000 1.200000 0.085000 0.102000
1517410921551755204	300 58 0.900000 0.089000 0.081000 1800 47 1.200000 3.545000 4.324000 600 66 1.000000 0.054000 0.054000 1.200000 0.085000 0.102000
1517410922111597455	300 58 0.900000 0.089000 0.081000 1800 47 1.200000 3.547000 4.327000 600 66 1.000000 0.054000 0.054000 1.200000 0.085000 0.102000
1517410922663681080	300 58 0.900000 0.089000 0.081000 1800 48 1.200000 3.543000 4.322000 600 66 1.000000 0.054000 0.054000 1.200000 0.085000 0.102000
1517410923207668871	300 59 0.900000 0.089000 0.081000 1800 48 1.200000 3.545000 4.324000 600 66 1.000000 0.054000 0.054000 1.200000 0.085000 0.102000
1517410923763654788	300 59 0.900000 0.089000 0.081000 1800 48 1.200000 3.544000 4.323000 600 66 1.000000 0.054000 0.054000 1.200000 0.086000 0.104000
1517410924319712080	300 59 0.900000 0.089000 0.081000 1800 48 1.200000 3.541000 4.320000 600 66 1.000000 0.054000 0.054000 1.200000 0.086000 0.104000
1517410924871609830	300 59 0.900000 0.089000 0.081000 1800 48 1.200000 3.548000 4.328000 600 66 1.000000 0.054000 0.054000 1.200000 0.085000 0.102000
1517410925419681747	300 59 0.900000 0.089000 0.081000 1800 48 1.200000 3.545000 4.324000 600 66 1.000000 0.054000 0.054000 1.200000 0.084000 0.101000
1517410925971740830	300 59 0.900000 0.089000 0.081000 1800 48 1.200000 3.543000 4.322000 600 66 1.000000 0.054000 0.054000 1.200000 0.084000 0.101000
1517410926527647330	300 59 0.900000 0.090000 0.082000 1800 48 1.200000 3.539000 4.317000 600 66 1.000000 0.054000 0.054000 1.200000 0.084000 0.101000
1517410927083666122	300 59 0.900000 0.089000 0.081000 1800 48 1.200000 3.547000 4.327000 600 67 1.000000 0.054000 0.054000 1.200000 0.085000 0.102000
1517410927635696872	300 59 0.900000 0.089000 0.081000 1800 48 1.200000 3.542000 4.321000 600 67 1.000000 0.054000 0.054000 1.200000 0.085000 0.102000
1517410928183667664	300 59 0.900000 0.089000 0.081000 1800 48 1.200000 3.538000 4.316000 600 66 1.000000 0.054000 0.054000 1.200000 0.085000 0.102000
1517410928739724205	300 59 0.900000 0.089000 0.081000 1800 48 1.200000 3.542000 4.321000 600 67 1.000000 0.054000 0.054000 1.200000 0.085000 0.102000
1517410929291623080	300 59 0.900000 0.089000 0.081000 1800 48 1.200000 3.547000 4.327000 600 67 1.000000 0.054000 0.054000 1.200000 0.085000 0.102000
1517410929847688497	300 59 0.900000 0.089000 0.081000 1800 48 1.200000 3.549000 4.329000 600 67 1.000000 0.054000 0.054000 1.200000 0.085000 0.102000
1517410930399711331	300 59 0.900000 0.089000 0.081000 1800 48 1.200000 3.546000 4.326000 600 67 1.000000 0.054000 0.054000 1.200000 0.086000 0.104000
1517410930955642706	300 59 0.900000 0.089000 0.081000 1800 48 1.200000 3.552000 4.333000 600 67 1.000000 0.055000 0.055000 1.200000 0.084000 0.101000
1517410931503712914	300 59 0.900000 0.089000 0.081000 1800 48 1.200000 3.546000 4.326000 600 67 1.000000 0.055000 0.055000 1.200000 0.084000 0.101000
1517410932059601456	300 59 0.900000 0.089000 0.081000 1800 48 1.200000 3.541000 4.320000 600 67 1.000000 0.054000 0.054000 1.200000 0.084000 0.101000
1517410932611688706	300 59 0.900000 0.089000 0.081000 1800 48 1.200000 3.552000 4.333000 600 67 1.000000 0.055000 0.055000 1.200000 0.084000 0.101000
1517410933167735914	300 59 0.900000 0.089000 0.081000 1800 49 1.200000 3.555000 4.337000 600 67 1.000000 0.055000 0.055000 1.200000 0.084000 0.101000
1517410933723669164	300 60 0.900000 0.089000 0.081000 1800 49 1.200000 3.545000 4.324000 600 67 1.000000 0.054000 0.054000 1.200000 0.085000 0.102000
1517410934283691331	300 60 0.900000 0.089000 0.081000 1800 48 1.200000 3.548000 4.328000 600 67 1.000000 0.054000 0.054000 1.200000 0.085000 0.102000
1517410934843751956	300 60 0.900000 0.089000 0.081000 1800 49 1.200000 3.549000 4.329000 600 67 1.000000 0.055000 0.055000 1.200000 0.085000 0.102000
1517410935407717123	300 60 0.900000 0.089000 0.081000 1800 49 1.200000 3.542000 4.321000 600 67 1.000000 0.054000 0.054000 1.200000 0.086000 0.104000
1517410935963672123	300 60 0.900000 0.090000 0.082000 1800 49 1.200000 3.555000 4.337000 600 67 1.000000 0.055000 0.055000 1.200000 0.084000 0.101000
1517410936511668415	300 60 0.900000 0.089000 0.081000 1800 49 1.200000 3.555000 4.337000 600 67 1.000000 0.055000 0.055000 1.200000 0.084000 0.101000
1517410937067747665	300 60 0.900000 0.089000 0.081000 1800 49 1.200000 3.556000 4.338000 600 67 1.000000 0.054000 0.054000 1.200000 0.084000 0.101000
1517410937615686248	300 60 0.900000 0.089000 0.081000 1800 49 1.200000 3.548000 4.328000 600 67 1.000000 0.055000 0.055000 1.200000 0.084000 0.101000
1517410938167681956	300 60 0.900000 0.090000 0.082000 1800 49 1.200000 3.544000 4.323000 600 67 1.000000 0.055000 0.055000 1.200000 0.084000 0.101000
1517410938715676123	300 60 0.900000 0.090000 0.082000 1800 49 1.200000 3.542000 4.321000 600 67 1.000000 0.054000 0.054000 1.200000 0.084000 0.101000
1517410939267687915	300 60 0.900000 0.090000 0.082000 1800 49 1.200000 3.549000 4.329000 600 67 1.000000 0.054000 0.054000 1.200000 0.084000 0.101000
1517410939827663748	300 60 0.900000 0.089000 0.081000 1800 49 1.200000 3.551000 4.332000 600 67 1.000000 0.054000 0.054000 1.200000 0.085000 0.102000
1517410940375666457	300 60 0.900000 0.090000 0.082000 1800 49 1.200000 3.546000 4.326000 600 67 1.000000 0.054000 0.054000 1.200000 0.085000 0.102000
1517410940927686957	300 60 0.900000 0.089000 0.081000 1800 49 1.200000 3.549000 4.329000 600 68 1.000000 0.055000 0.055000 1.200000 0.085000 0.102000
1517410941475685415	300 60 0.900000 0.090000 0.082000 1800 49 1.200000 3.555000 4.337000 600 68 1.000000 0.055000 0.055000 1.200000 0.085000 0.102000
1517410942023713457	300 60 0.900000 0.090000 0.082000 1800 49 1.200000 3.560000 4.343000 600 67 1.000000 0.054000 0.054000 1.200000 0.084000 0.101000
1517410942567634249	300 60 0.900000 0.089000 0.081000 1800 49 1.200000 3.560000 4.343000 600 68 1.000000 0.055000 0.055000 1.200000 0.084000 0.101000
1517410943111764457	300 60 0.900000 0.090000 0.082000 1800 49 1.200000 3.560000 4.343000 600 68 1.000000 0.054000 0.054000 1.200000 0.084000 0.101000
1517410943675693207	300 60 0.900000 0.090000 0.082000 1800 49 1.200000 3.560000 4.343000 600 68 1.000000 0.055000 0.055000 1.200000 0.085000 0.102000
1517410944231682291	300 60 0.900000 0.089000 0.081000 1800 49 1.200000 3.560000 4.343000 600 68 1.000000 0.055000 0.055000 1.200000 0.084000 0.101000
1517410944779700957	300 60 0.900000 0.090000 0.082000 1800 49 1.200000 3.555000 4.337000 600 68 1.000000 0.055000 0.055000 1.200000 0.084000 0.101000
1517410945339717749	300 60 0.900000 0.089000 0.081000 1800 49 1.200000 3.554000 4.335000 600 68 1.000000 0.054000 0.054000 1.200000 0.084000 0.101000
1517410945899723707	300 60 0.900000 0.090000 0.082000 1800 49 1.200000 3.549000 4.329000 600 68 1.000000 0.054000 0.054000 1.200000 0.085000 0.102000
1517410946406501499	300 60 0.900000 0.089000 0.081000 1800 49 1.200000 3.550000 4.331000 600 68 1.000000 0.054000 0.054000 1.200000 0.085000 0.102000
1517410946975605041	300 60 0.900000 0.089000 0.081000 1800 49 1.200000 3.547000 4.327000 600 68 1.000000 0.054000 0.054000 1.200000 0.085000 0.102000
1517410947531676166	300 60 0.900000 0.090000 0.082000 1800 49 1.200000 3.555000 4.337000 600 68 1.000000 0.055000 0.055000 1.200000 0.085000 0.102000
1517410948091691833	300 60 0.900000 0.090000 0.082000 1800 49 1.200000 3.549000 4.329000 600 68 1.000000 0.055000 0.055000 1.200000 0.085000 0.102000
1517410948651605041	300 60 0.900000 0.090000 0.082000 1800 49 1.200000 3.560000 4.343000 600 68 1.000000 0.055000 0.055000 1.200000 0.084000 0.101000
1517410949203607041	300 60 0.900000 0.090000 0.082000 1800 49 1.200000 3.562000 4.345000 600 68 1.000000 0.054000 0.054000 1.200000 0.084000 0.101000
1517410949759671583	300 60 0.900000 0.090000 0.082000 1800 49 1.200000 3.559000 4.341000 600 68 1.000000 0.055000 0.055000 1.200000 0.085000 0.102000
1517410950311691458	300 60 0.900000 0.090000 0.082000 1800 50 1.200000 3.560000 4.343000 600 68 1.000000 0.055000 0.055000 1.200000 0.085000 0.102000
1517410950871691208	300 61 0.900000 0.089000 0.081000 1800 49 1.200000 3.558000 4.340000 600 68 1.000000 0.055000 0.055000 1.200000 0.084000 0.101000
1517410951427671833	300 61 0.900000 0.089000 0.081000 1800 50 1.200000 3.553000 4.334000 600 68 1.000000 0.055000 0.055000 1.200000 0.085000 0.102000
1517410951975713041	300 61 0.900000 0.090000 0.082000 1800 50 1.200000 3.555000 4.337000 600 68 1.000000 0.055000 0.055000 1.200000 0.086000 0.104000
1517410952535624875	300 60 0.900000 0.090000 0.082000 1800 50 1.200000 3.556000 4.338000 600 68 1.000000 0.055000 0.055000 1.200000 0.085000 0.102000
1517410953083641417	300 61 0.900000 0.090000 0.082000 1800 50 1.200000 3.554000 4.335000 600 68 1.000000 0.055000 0.055000 1.200000 0.085000 0.102000
1517410953643681792	300 61 0.900000 0.089000 0.081000 1800 50 1.200000 3.563000 4.346000 600 68 1.000000 0.055000 0.055000 1.200000 0.085000 0.102000
1517410954183742917	300 61 0.900000 0.089000 0.081000 1800 50 1.200000 3.561000 4.344000 600 68 1.000000 0.055000 0.055000 1.200000 0.085000 0.102000
1517410954731691042	300 61 0.900000 0.089000 0.081000 1800 50 1.200000 3.563000 4.346000 600 68 1.000000 0.055000 0.055000 1.200000 0.086000 0.104000
1517410955303679000	300 61 0.900000 0.089000 0.081000 1800 50 1.200000 3.562000 4.345000 600 68 1.000000 0.055000 0.055000 1.200000 0.085000 0.102000
1517410955810698625	300 51 0.900000 0.068000 0.062000 1800 47 1.200000 1.199000 1.448000 600 57 1.000000 0.055000 0.055000 1.200000 0.073000 0.088000
1517410956317566584	300 49 0.900000 0.017000 0.015000 1800 46 1.200000 1.342000 1.621000 600 54 1.000000 0.054000 0.054000 1.200000 0.029000 0.035000
1517410956824484542	300 47 0.900000 0.017000 0.015000 1800 44 1.200000 1.337000 1.615000 600 53 1.000000 0.054000 0.054000 1.200000 0.027000 0.032000
1517410957331132334	300 46 0.900000 0.017000 0.015000 1800 44 1.200000 1.324000 1.599000 600 52 1.000000 0.054000 0.054000 1.200000 0.029000 0.035000
1517410957837986417	300 46 0.900000 0.016000 0.014000 1800 43 1.200000 1.373000 1.658000 600 51 1.000000 0.054000 0.054000 1.200000 0.027000 0.032000
1517410958344765584	300 46 0.900000 0.017000 0.015000 1800 42 1.200000 1.349000 1.629000 600 50 1.000000 0.053000 0.053000 1.200000 0.035000 0.042000
1517410958851354751	300 45 0.900000 0.017000 0.015000 1800 42 1.200000 1.367000 1.651000 600 49 1.000000 0.053000 0.053000 1.200000 0.033000 0.039000
1517410959358095209	300 44 0.900000 0.016000 0.014000 1800 41 1.200000 1.327000 1.603000 600 49 1.000000 0.053000 0.053000 1.200000 0.029000 0.035000
1517410959864768417	300 44 0.900000 0.016000 0.014000 1800 41 1.200000 1.319000 1.593000 600 48 1.000000 0.053000 0.053000 1.200000 0.028000 0.033000
1517410960371402084	300 44 0.900000 0.016000 0.014000 1800 41 1.200000 1.321000 1.595000 600 48 1.000000 0.053000 0.053000 1.200000 0.029000 0.035000
1517410960878437834	300 44 0.900000 0.016000 0.014000 1800 40 1.200000 1.419000 1.714000 600 48 1.000000 0.053000 0.053000 1.200000 0.031000 0.037000
1517410961385225376	300 43 0.900000 0.017000 0.015000 1800 40 1.200000 1.359000 1.641000 600 47 1.000000 0.053000 0.053000 1.200000 0.035000 0.042000
1517410961892025751	300 43 0.900000 0.016000 0.014000 1800 40 1.200000 1.318000 1.592000 600 47 1.000000 0.053000 0.053000 1.200000 0.027000 0.032000
1517410962398748043	300 42 0.900000 0.016000 0.014000 1800 40 1.200000 1.317000 1.590000 600 47 1.000000 0.053000 0.053000 1.200000 0.027000 0.032000
1517410962905479834	300 42 0.900000 0.016000 0.014000 1800 39 1.200000 1.344000 1.623000 600 47 1.000000 0.053000 0.053000 1.200000 0.028000 0.033000
1517410963412184793	300 42 0.900000 0.016000 0.014000 1800 39 1.200000 1.324000 1.599000 600 46 1.000000 0.053000 0.053000 1.200000 0.028000 0.033000
1517410963919253710	300 42 0.900000 0.016000 0.014000 1800 39 1.200000 1.389000 1.677000 600 46 1.000000 0.053000 0.053000 1.200000 0.029000 0.035000
1517410964426141543	300 42 0.900000 0.017000 0.015000 1800 39 1.200000 1.320000 1.594000 600 46 1.000000 0.053000 0.053000 1.200000 0.029000 0.035000
1517410964932906418	300 42 0.900000 0.016000 0.014000 1800 39 1.200000 1.330000 1.606000 600 46 1.000000 0.053000 0.053000 1.200000 0.030000 0.036000
1517410965440064876	300 42 0.900000 0.016000 0.014000 1800 39 1.200000 1.343000 1.622000 600 46 1.000000 0.053000 0.053000 1.200000 0.031000 0.037000
1517410965946824376	300 42 0.900000 0.016000 0.014000 1800 39 1.200000 1.380000 1.667000 600 46 1.000000 0.053000 0.053000 1.200000 0.031000 0.037000
1517410966453702335	300 41 0.900000 0.016000 0.014000 1800 38 1.200000 1.371000 1.656000 600 45 1.000000 0.053000 0.053000 1.200000 0.035000 0.042000
1517410966960371168	300 41 0.900000 0.015000 0.013000 1800 38 1.200000 1.337000 1.615000 600 45 1.000000 0.053000 0.053000 1.200000 0.031000 0.037000
1517410967467083877	300 41 0.900000 0.016000 0.014000 1800 38 1.200000 1.322000 1.596000 600 45 1.000000 0.053000 0.053000 1.200000 0.027000 0.032000
1517410967973851252	300 41 0.900000 0.015000 0.013000 1800 38 1.200000 1.333000 1.610000 600 45 1.000000 0.053000 0.053000 1.200000 0.027000 0.032000
1517410968480150627	300 41 0.900000 0.016000 0.014000 1800 38 1.200000 1.347000 1.627000 600 45 1.000000 0.053000 0.053000 1.200000 0.028000 0.033000
1517410968986485877	300 41 0.900000 0.015000 0.013000 1800 38 1.200000 1.371000 1.656000 600 45 1.000000 0.053000 0.053000 1.200000 0.031000 0.037000
1517410969492718794	300 41 0.900000 0.015000 0.013000 1800 38 1.200000 1.314000 1.587000 600 45 1.000000 0.053000 0.053000 1.200000 0.029000 0.035000
1517410969999311919	300 41 0.900000 0.016000 0.014000 1800 38 1.200000 1.369000 1.653000 600 45 1.000000 0.053000 0.053000 1.200000 0.030000 0.036000
1517410970505521502	300 41 0.900000 0.015000 0.013000 1800 38 1.200000 1.340000 1.618000 600 45 1.000000 0.053000 0.053000 1.200000 0.028000 0.033000
1517410971012049544	300 41 0.900000 0.016000 0.014000 1800 38 1.200000 1.394000 1.683000 600 45 1.000000 0.052000 0.052000 1.200000 0.033000 0.039000
1517410971518496210	300 41 0.900000 0.016000 0.014000 1800 38 1.200000 1.352000 1.633000 600 45 1.000000 0.052000 0.052000 1.200000 0.033000 0.039000
1517410972024564711	300 40 0.900000 0.017000 0.015000 1800 37 1.200000 1.441000 1.740000 600 44 1.000000 0.053000 0.053000 1.200000 0.032000 0.038000
1517410972530823586	300 40 0.900000 0.015000 0.013000 1800 37 1.200000 1.317000 1.590000 600 44 1.000000 0.053000 0.053000 1.200000 0.027000 0.032000
1517410973036801502	300 40 0.900000 0.015000 0.013000 1800 37 1.200000 1.334000 1.611000 600 44 1.000000 0.053000 0.053000 1.200000 0.027000 0.032000
1517410973543057252	300 40 0.900000 0.015000 0.013000 1800 37 1.200000 1.336000 1.613000 600 44 1.000000 0.052000 0.052000 1.200000 0.031000 0.037000
1517410974049436419	300 40 0.900000 0.016000 0.014000 1800 37 1.200000 1.371000 1.656000 600 44 1.000000 0.053000 0.053000 1.200000 0.031000 0.037000
1517410974556228044	300 39 0.900000 0.016000 0.014000 1800 37 1.200000 1.306000 1.577000 600 43 1.000000 0.053000 0.053000 1.200000 0.041000 0.049000
1517410975062865586	300 37 0.900000 0.025000 0.022000 1800 36 1.200000 0.340000 0.409000 600 41 1.000000 0.053000 0.053000 1.200000 0.028000 0.033000
1517410975569113461	300 36 0.900000 0.015000 0.013000 1800 35 1.200000 0.263000 0.316000 600 40 1.000000 0.052000 0.052000 1.200000 0.022000 0.026000
