#Timestamp	CPU(0) Frequency(MHz)	CPU(0) Temperature(C)	A7 Voltage(V)	A7 Current(A)	A7 Power(W)	CPU(4) Frequency(MHz)	CPU(4) Temperature(C)	A15 Voltage(V)	A15 Current(A)	A15 Power(W)	GPU Frequency(MHz)	GPU Temperature(C)	GPU Voltage(V)	GPU Current(A)	GPU Power(W)	RAM Voltage(V)	RAM Current(A)	RAM Power(W)
1518539715947625559	700 46 0.900000 0.252000 0.246000 1300 39 1.000000 0.886000 0.934000 600 50 1.000000 0.052000 0.052000 1.200000 0.040000 0.048000
1518539716507573017	700 48 0.900000 0.263000 0.255000 1300 41 1.000000 2.940000 3.092000 600 54 1.000000 0.053000 0.053000 1.200000 0.030000 0.036000
1518539717067552934	700 50 0.900000 0.263000 0.256000 1300 42 1.000000 2.945000 3.098000 600 55 1.000000 0.053000 0.053000 1.200000 0.031000 0.037000
1518539717619540892	700 51 0.900000 0.264000 0.257000 1300 43 1.000000 2.950000 3.103000 600 57 1.000000 0.053000 0.053000 1.200000 0.031000 0.037000
1518539718183528393	700 52 0.900000 0.264000 0.257000 1300 44 1.000000 2.956000 3.109000 600 58 1.000000 0.053000 0.053000 1.200000 0.031000 0.037000
1518539718735514351	700 53 0.900000 0.265000 0.258000 1300 44 1.000000 2.955000 3.108000 600 58 1.000000 0.053000 0.053000 1.200000 0.030000 0.036000
1518539719275529768	700 53 0.900000 0.264000 0.257000 1300 45 1.000000 2.958000 3.111000 600 59 1.000000 0.053000 0.053000 1.200000 0.031000 0.037000
1518539719831547184	700 54 0.900000 0.265000 0.258000 1300 45 1.000000 2.966000 3.120000 600 60 1.000000 0.053000 0.053000 1.200000 0.031000 0.037000
1518539720391474934	700 54 0.900000 0.265000 0.258000 1300 46 1.000000 2.971000 3.125000 600 60 1.000000 0.054000 0.054000 1.200000 0.030000 0.036000
1518539720951528768	700 54 0.900000 0.265000 0.258000 1300 46 1.000000 2.964000 3.118000 600 60 1.000000 0.053000 0.053000 1.200000 0.030000 0.036000
1518539721503805226	700 55 0.900000 0.265000 0.257000 1300 46 1.000000 2.970000 3.124000 600 61 1.000000 0.054000 0.054000 1.200000 0.030000 0.036000
1518539722051583851	700 55 0.900000 0.265000 0.258000 1300 47 1.000000 2.913000 3.064000 600 61 1.000000 0.054000 0.054000 1.200000 0.035000 0.042000
1518539722603573935	700 55 0.900000 0.265000 0.258000 1300 47 1.000000 2.974000 3.128000 600 61 1.000000 0.054000 0.054000 1.200000 0.031000 0.037000
1518539723155522226	700 55 0.900000 0.266000 0.259000 1300 47 1.000000 2.969000 3.123000 600 61 1.000000 0.054000 0.054000 1.200000 0.031000 0.037000
1518539723715555727	700 55 0.900000 0.266000 0.259000 1300 47 1.000000 2.975000 3.129000 600 61 1.000000 0.054000 0.054000 1.200000 0.031000 0.037000
1518539724279533852	700 56 0.900000 0.265000 0.258000 1300 47 1.000000 2.947000 3.100000 600 62 1.000000 0.054000 0.054000 1.200000 0.031000 0.037000
1518539724839531602	700 56 0.900000 0.265000 0.257000 1300 48 1.000000 2.936000 3.088000 600 62 1.000000 0.054000 0.054000 1.200000 0.030000 0.036000
1518539725391545727	700 56 0.900000 0.266000 0.258000 1300 48 1.000000 2.950000 3.103000 600 62 1.000000 0.054000 0.054000 1.200000 0.030000 0.036000
1518539725939494060	700 56 0.900000 0.266000 0.258000 1300 48 1.000000 2.945000 3.098000 600 62 1.000000 0.054000 0.054000 1.200000 0.030000 0.036000
1518539726499512602	700 56 0.900000 0.266000 0.259000 1300 48 1.000000 2.939000 3.091000 600 62 1.000000 0.054000 0.054000 1.200000 0.030000 0.036000
1518539727055495810	700 56 0.900000 0.266000 0.258000 1300 48 1.000000 2.947000 3.100000 600 62 1.000000 0.054000 0.054000 1.200000 0.030000 0.036000
1518539727619520269	700 56 0.900000 0.266000 0.259000 1300 48 1.000000 2.944000 3.097000 600 62 1.000000 0.054000 0.054000 1.200000 0.030000 0.036000
1518539728171554019	700 56 0.900000 0.266000 0.258000 1300 48 1.000000 2.938000 3.090000 600 62 1.000000 0.054000 0.054000 1.200000 0.030000 0.036000
1518539728735499602	700 56 0.900000 0.266000 0.258000 1300 48 1.000000 2.946000 3.099000 600 62 1.000000 0.054000 0.054000 1.200000 0.030000 0.036000
1518539729295465436	700 56 0.900000 0.266000 0.259000 1300 48 1.000000 2.944000 3.097000 600 62 1.000000 0.054000 0.054000 1.200000 0.030000 0.036000
1518539729847479186	700 57 0.900000 0.266000 0.258000 1300 48 1.000000 2.938000 3.090000 600 63 1.000000 0.054000 0.054000 1.200000 0.031000 0.037000
1518539730407487269	700 57 0.900000 0.266000 0.259000 1300 48 1.000000 2.955000 3.108000 600 63 1.000000 0.054000 0.054000 1.200000 0.030000 0.036000
1518539730971513019	700 57 0.900000 0.266000 0.259000 1300 48 1.000000 2.954000 3.107000 600 63 1.000000 0.054000 0.054000 1.200000 0.030000 0.036000
1518539731527533102	700 57 0.900000 0.266000 0.259000 1300 49 1.000000 2.949000 3.102000 600 63 1.000000 0.054000 0.054000 1.200000 0.030000 0.036000
1518539732083553853	700 57 0.900000 0.266000 0.259000 1300 48 1.000000 2.900000 3.050000 600 63 1.000000 0.054000 0.054000 1.200000 0.034000 0.041000
1518539732639531436	700 57 0.900000 0.266000 0.259000 1300 49 1.000000 2.944000 3.097000 600 63 1.000000 0.054000 0.054000 1.200000 0.030000 0.036000
1518539733191525144	700 57 0.900000 0.266000 0.259000 1300 49 1.000000 2.944000 3.097000 600 63 1.000000 0.054000 0.054000 1.200000 0.030000 0.036000
1518539733743505228	700 57 0.900000 0.266000 0.259000 1300 49 1.000000 2.948000 3.101000 600 63 1.000000 0.055000 0.055000 1.200000 0.030000 0.036000
1518539734299551978	700 57 0.900000 0.266000 0.259000 1300 49 1.000000 2.946000 3.099000 600 63 1.000000 0.054000 0.054000 1.200000 0.030000 0.036000
1518539734863487103	700 57 0.900000 0.266000 0.258000 1300 49 1.000000 2.944000 3.097000 600 63 1.000000 0.054000 0.054000 1.200000 0.030000 0.036000
1518539735411555936	700 57 0.900000 0.266000 0.258000 1300 49 1.000000 2.951000 3.104000 600 63 1.000000 0.054000 0.054000 1.200000 0.030000 0.036000
1518539735971498728	700 57 0.900000 0.266000 0.259000 1300 49 1.000000 2.952000 3.105000 600 63 1.000000 0.055000 0.055000 1.200000 0.030000 0.036000
1518539736527479561	700 57 0.900000 0.266000 0.259000 1300 49 1.000000 2.952000 3.105000 600 63 1.000000 0.055000 0.055000 1.200000 0.030000 0.036000
1518539737083471936	700 57 0.900000 0.266000 0.258000 1300 49 1.000000 2.953000 3.106000 600 63 1.000000 0.054000 0.054000 1.200000 0.030000 0.036000
1518539737627515103	700 57 0.900000 0.266000 0.258000 1300 49 1.000000 2.948000 3.101000 600 63 1.000000 0.054000 0.054000 1.200000 0.030000 0.036000
1518539738187444020	700 57 0.900000 0.266000 0.258000 1300 49 1.000000 2.951000 3.104000 600 63 1.000000 0.054000 0.054000 1.200000 0.030000 0.036000
1518539738735434187	700 57 0.900000 0.266000 0.258000 1300 49 1.000000 2.949000 3.102000 600 63 1.000000 0.055000 0.055000 1.200000 0.030000 0.036000
1518539739295519478	700 57 0.900000 0.266000 0.258000 1300 49 1.000000 2.946000 3.099000 600 63 1.000000 0.054000 0.054000 1.200000 0.030000 0.036000
1518539739847479687	700 57 0.900000 0.266000 0.258000 1300 49 1.000000 2.949000 3.102000 600 63 1.000000 0.054000 0.054000 1.200000 0.030000 0.036000
1518539740399481979	700 57 0.900000 0.266000 0.259000 1300 49 1.000000 2.955000 3.108000 600 63 1.000000 0.054000 0.054000 1.200000 0.030000 0.036000
1518539740959463645	700 57 0.900000 0.266000 0.258000 1300 49 1.000000 2.970000 3.124000 600 63 1.000000 0.055000 0.055000 1.200000 0.030000 0.036000
1518539741507452229	700 57 0.900000 0.266000 0.259000 1300 49 1.000000 2.969000 3.123000 600 63 1.000000 0.055000 0.055000 1.200000 0.030000 0.036000
1518539742055567979	700 57 0.900000 0.265000 0.257000 1300 49 1.000000 2.914000 3.065000 600 63 1.000000 0.054000 0.054000 1.200000 0.034000 0.041000
1518539742611542354	700 57 0.900000 0.266000 0.258000 1300 49 1.000000 2.967000 3.121000 600 63 1.000000 0.054000 0.054000 1.200000 0.031000 0.037000
1518539743163492146	700 57 0.900000 0.266000 0.258000 1300 49 1.000000 2.969000 3.123000 600 63 1.000000 0.055000 0.055000 1.200000 0.030000 0.036000
1518539743711549312	700 57 0.900000 0.266000 0.259000 1300 49 1.000000 2.969000 3.123000 600 63 1.000000 0.055000 0.055000 1.200000 0.031000 0.037000
1518539744271514271	700 57 0.900000 0.266000 0.258000 1300 49 1.000000 2.967000 3.121000 600 63 1.000000 0.055000 0.055000 1.200000 0.031000 0.037000
1518539744823547729	700 57 0.900000 0.266000 0.259000 1300 49 1.000000 2.966000 3.120000 600 63 1.000000 0.055000 0.055000 1.200000 0.031000 0.037000
1518539745383512396	700 57 0.900000 0.266000 0.258000 1300 49 1.000000 2.958000 3.111000 600 63 1.000000 0.055000 0.055000 1.200000 0.031000 0.037000
1518539745939528479	700 57 0.900000 0.266000 0.259000 1300 49 1.000000 2.961000 3.114000 600 63 1.000000 0.055000 0.055000 1.200000 0.032000 0.038000
1518539746495574479	700 57 0.900000 0.266000 0.259000 1300 49 1.000000 2.963000 3.117000 600 64 1.000000 0.055000 0.055000 1.200000 0.033000 0.039000
1518539747043538646	700 57 0.900000 0.266000 0.259000 1300 49 1.000000 2.966000 3.120000 600 64 1.000000 0.055000 0.055000 1.200000 0.033000 0.039000
1518539747603531104	700 57 0.900000 0.266000 0.259000 1300 49 1.000000 2.967000 3.121000 600 64 1.000000 0.055000 0.055000 1.200000 0.033000 0.039000
1518539748167523271	700 57 0.900000 0.265000 0.258000 1300 49 1.000000 2.962000 3.116000 600 64 1.000000 0.054000 0.054000 1.200000 0.033000 0.039000
1518539748727529021	700 58 0.900000 0.266000 0.259000 1300 49 1.000000 2.960000 3.113000 600 64 1.000000 0.055000 0.055000 1.200000 0.032000 0.038000
1518539749287552396	700 57 0.900000 0.266000 0.259000 1300 49 1.000000 2.959000 3.112000 600 64 1.000000 0.054000 0.054000 1.200000 0.033000 0.039000
1518539749851565771	700 58 0.900000 0.266000 0.258000 1300 49 1.000000 2.960000 3.113000 600 64 1.000000 0.054000 0.054000 1.200000 0.033000 0.039000
1518539750411535896	700 58 0.900000 0.266000 0.259000 1300 49 1.000000 2.963000 3.117000 600 64 1.000000 0.055000 0.055000 1.200000 0.033000 0.039000
1518539750951539605	700 57 0.900000 0.266000 0.259000 1300 49 1.000000 2.960000 3.113000 600 64 1.000000 0.054000 0.054000 1.200000 0.033000 0.039000
1518539751511476605	700 58 0.900000 0.266000 0.259000 1300 49 1.000000 2.960000 3.113000 600 64 1.000000 0.055000 0.055000 1.200000 0.033000 0.039000
1518539752075567855	700 58 0.900000 0.265000 0.258000 1300 49 1.000000 2.959000 3.112000 600 64 1.000000 0.054000 0.054000 1.200000 0.036000 0.043000
1518539752631532938	700 57 0.900000 0.266000 0.259000 1300 49 1.000000 2.961000 3.114000 600 64 1.000000 0.054000 0.054000 1.200000 0.034000 0.041000
1518539753175464897	700 58 0.900000 0.266000 0.259000 1300 49 1.000000 2.958000 3.111000 600 64 1.000000 0.055000 0.055000 1.200000 0.033000 0.039000
1518539753727517188	700 58 0.900000 0.266000 0.258000 1300 49 1.000000 2.954000 3.107000 600 64 1.000000 0.055000 0.055000 1.200000 0.033000 0.039000
1518539754287503855	700 58 0.900000 0.266000 0.259000 1300 49 1.000000 2.952000 3.105000 600 64 1.000000 0.055000 0.055000 1.200000 0.033000 0.039000
1518539754847498230	700 58 0.900000 0.266000 0.258000 1300 49 1.000000 2.962000 3.116000 600 64 1.000000 0.054000 0.054000 1.200000 0.033000 0.039000
1518539755411548105	700 58 0.900000 0.266000 0.258000 1300 49 1.000000 2.957000 3.110000 600 64 1.000000 0.054000 0.054000 1.200000 0.032000 0.038000
1518539755963543647	700 58 0.900000 0.266000 0.259000 1300 49 1.000000 2.987000 3.142000 600 64 1.000000 0.054000 0.054000 1.200000 0.033000 0.039000
1518539756515466147	700 58 0.900000 0.266000 0.259000 1300 50 1.000000 2.995000 3.150000 600 64 1.000000 0.055000 0.055000 1.200000 0.032000 0.038000
1518539757063546856	700 58 0.900000 0.266000 0.258000 1300 49 1.000000 2.997000 3.152000 600 64 1.000000 0.054000 0.054000 1.200000 0.032000 0.038000
1518539757623498022	700 58 0.900000 0.266000 0.258000 1300 49 1.000000 2.990000 3.145000 600 64 1.000000 0.055000 0.055000 1.200000 0.032000 0.038000
1518539758171498856	700 58 0.900000 0.266000 0.259000 1300 49 1.000000 2.995000 3.150000 600 64 1.000000 0.054000 0.054000 1.200000 0.033000 0.039000
1518539758723490731	700 58 0.900000 0.267000 0.260000 1300 49 1.000000 2.997000 3.152000 600 64 1.000000 0.055000 0.055000 1.200000 0.032000 0.038000
1518539759283492439	700 58 0.900000 0.266000 0.258000 1300 49 1.000000 2.998000 3.153000 600 64 1.000000 0.054000 0.054000 1.200000 0.032000 0.038000
1518539759843509564	700 58 0.900000 0.266000 0.259000 1300 50 1.000000 2.992000 3.147000 600 64 1.000000 0.055000 0.055000 1.200000 0.033000 0.039000
1518539760399497856	700 58 0.900000 0.266000 0.259000 1300 50 1.000000 2.987000 3.142000 600 64 1.000000 0.055000 0.055000 1.200000 0.033000 0.039000
1518539760955517439	700 58 0.900000 0.266000 0.259000 1300 50 1.000000 2.989000 3.144000 600 64 1.000000 0.055000 0.055000 1.200000 0.033000 0.039000
1518539761515500023	700 58 0.900000 0.266000 0.259000 1300 49 1.000000 2.984000 3.139000 600 64 1.000000 0.055000 0.055000 1.200000 0.032000 0.038000
1518539762075575023	700 58 0.900000 0.266000 0.259000 1300 50 1.000000 2.981000 3.136000 600 64 1.000000 0.055000 0.055000 1.200000 0.035000 0.042000
1518539762627544440	700 58 0.900000 0.266000 0.259000 1300 50 1.000000 2.997000 3.152000 600 64 1.000000 0.054000 0.054000 1.200000 0.033000 0.039000
1518539763179511190	700 58 0.900000 0.266000 0.258000 1300 50 1.000000 2.996000 3.151000 600 64 1.000000 0.055000 0.055000 1.200000 0.033000 0.039000
1518539763731508065	700 58 0.900000 0.266000 0.258000 1300 50 1.000000 2.984000 3.139000 600 64 1.000000 0.055000 0.055000 1.200000 0.032000 0.038000
1518539764291508231	700 58 0.900000 0.266000 0.258000 1300 50 1.000000 2.981000 3.136000 600 64 1.000000 0.055000 0.055000 1.200000 0.032000 0.038000
1518539764851499523	700 58 0.900000 0.267000 0.260000 1300 49 1.000000 2.984000 3.139000 600 64 1.000000 0.055000 0.055000 1.200000 0.033000 0.039000
1518539765407539773	700 58 0.900000 0.266000 0.259000 1300 50 1.000000 2.992000 3.147000 600 64 1.000000 0.055000 0.055000 1.200000 0.032000 0.038000
1518539765967526232	700 58 0.900000 0.266000 0.258000 1300 50 1.000000 2.981000 3.136000 600 64 1.000000 0.055000 0.055000 1.200000 0.033000 0.039000
1518539766527506732	700 58 0.900000 0.266000 0.259000 1300 50 1.000000 2.992000 3.147000 600 64 1.000000 0.055000 0.055000 1.200000 0.033000 0.039000
1518539767087534940	700 58 0.900000 0.266000 0.259000 1300 50 1.000000 2.995000 3.150000 600 64 1.000000 0.055000 0.055000 1.200000 0.032000 0.038000
1518539767647464440	700 58 0.900000 0.266000 0.259000 1300 50 1.000000 2.996000 3.151000 600 64 1.000000 0.055000 0.055000 1.200000 0.032000 0.038000
1518539768195567190	700 58 0.900000 0.266000 0.259000 1300 50 1.000000 2.993000 3.148000 600 64 1.000000 0.055000 0.055000 1.200000 0.032000 0.038000
1518539768755491899	700 58 0.900000 0.266000 0.258000 1300 50 1.000000 2.992000 3.147000 600 64 1.000000 0.055000 0.055000 1.200000 0.033000 0.039000
1518539769315515940	700 58 0.900000 0.266000 0.259000 1300 50 1.000000 2.993000 3.148000 600 64 1.000000 0.055000 0.055000 1.200000 0.032000 0.038000
1518539769871512024	700 58 0.900000 0.266000 0.259000 1300 50 1.000000 2.987000 3.142000 600 64 1.000000 0.055000 0.055000 1.200000 0.032000 0.038000
1518539770419540649	700 58 0.900000 0.266000 0.259000 1300 50 1.000000 2.987000 3.142000 600 64 1.000000 0.055000 0.055000 1.200000 0.033000 0.039000
1518539770975535566	700 58 0.900000 0.266000 0.259000 1300 50 1.000000 2.993000 3.148000 600 64 1.000000 0.055000 0.055000 1.200000 0.032000 0.038000
1518539771539511066	700 58 0.900000 0.266000 0.258000 1300 50 1.000000 2.983000 3.138000 600 64 1.000000 0.055000 0.055000 1.200000 0.033000 0.039000
1518539772099567982	700 58 0.900000 0.266000 0.258000 1300 50 1.000000 2.936000 3.088000 600 64 1.000000 0.055000 0.055000 1.200000 0.036000 0.043000
1518539772659560816	700 58 0.900000 0.266000 0.258000 1300 50 1.000000 2.978000 3.132000 600 64 1.000000 0.055000 0.055000 1.200000 0.032000 0.038000
1518539773211487399	700 58 0.900000 0.266000 0.258000 1300 50 1.000000 2.978000 3.132000 600 64 1.000000 0.055000 0.055000 1.200000 0.032000 0.038000
1518539773771531608	700 58 0.900000 0.266000 0.259000 1300 50 1.000000 2.978000 3.132000 600 64 1.000000 0.055000 0.055000 1.200000 0.032000 0.038000
1518539774323484358	700 58 0.900000 0.266000 0.259000 1300 50 1.000000 2.979000 3.133000 600 64 1.000000 0.055000 0.055000 1.200000 0.032000 0.038000
1518539774875516524	700 58 0.900000 0.266000 0.259000 1300 50 1.000000 2.979000 3.133000 600 64 1.000000 0.055000 0.055000 1.200000 0.032000 0.038000
1518539775431493774	700 58 0.900000 0.266000 0.259000 1300 50 1.000000 2.965000 3.119000 600 64 1.000000 0.054000 0.054000 1.200000 0.031000 0.037000
1518539775975521816	700 58 0.900000 0.266000 0.259000 1300 50 1.000000 2.977000 3.131000 600 64 1.000000 0.055000 0.055000 1.200000 0.030000 0.036000
1518539776531522524	700 58 0.900000 0.266000 0.259000 1300 50 1.000000 2.971000 3.125000 600 64 1.000000 0.054000 0.054000 1.200000 0.030000 0.036000
1518539777083721983	700 58 0.900000 0.266000 0.258000 1300 50 1.000000 2.980000 3.134000 600 64 1.000000 0.055000 0.055000 1.200000 0.031000 0.037000
1518539777635482108	700 58 0.900000 0.266000 0.258000 1300 50 1.000000 2.980000 3.134000 600 64 1.000000 0.055000 0.055000 1.200000 0.031000 0.037000
1518539778199520900	700 58 0.900000 0.267000 0.260000 1300 50 1.000000 2.980000 3.134000 600 64 1.000000 0.055000 0.055000 1.200000 0.030000 0.036000
1518539778759493233	700 58 0.900000 0.266000 0.258000 1300 50 1.000000 2.980000 3.134000 600 64 1.000000 0.055000 0.055000 1.200000 0.030000 0.036000
1518539779307536650	700 58 0.900000 0.266000 0.258000 1300 50 1.000000 2.985000 3.140000 600 64 1.000000 0.055000 0.055000 1.200000 0.030000 0.036000
1518539779855543025	700 58 0.900000 0.266000 0.259000 1300 50 1.000000 2.989000 3.144000 600 64 1.000000 0.055000 0.055000 1.200000 0.031000 0.037000
1518539780399554942	700 58 0.900000 0.266000 0.259000 1300 50 1.000000 2.984000 3.139000 600 64 1.000000 0.055000 0.055000 1.200000 0.030000 0.036000
1518539780951518275	700 58 0.900000 0.266000 0.259000 1300 50 1.000000 2.984000 3.139000 600 64 1.000000 0.055000 0.055000 1.200000 0.031000 0.037000
1518539781503517358	700 58 0.900000 0.266000 0.259000 1300 50 1.000000 2.984000 3.139000 600 64 1.000000 0.055000 0.055000 1.200000 0.031000 0.037000
1518539782059582650	700 58 0.900000 0.266000 0.258000 1300 50 1.000000 2.972000 3.126000 600 64 1.000000 0.054000 0.054000 1.200000 0.030000 0.036000
1518539782611537859	700 58 0.900000 0.266000 0.259000 1300 50 1.000000 2.982000 3.137000 600 64 1.000000 0.055000 0.055000 1.200000 0.036000 0.043000
1518539783163519359	700 58 0.900000 0.266000 0.258000 1300 50 1.000000 2.986000 3.141000 600 64 1.000000 0.055000 0.055000 1.200000 0.030000 0.036000
1518539783723538525	700 58 0.900000 0.266000 0.259000 1300 50 1.000000 2.987000 3.142000 600 64 1.000000 0.054000 0.054000 1.200000 0.030000 0.036000
1518539784271500734	700 58 0.900000 0.266000 0.259000 1300 50 1.000000 2.985000 3.140000 600 64 1.000000 0.054000 0.054000 1.200000 0.031000 0.037000
1518539784819501525	700 58 0.900000 0.266000 0.258000 1300 50 1.000000 2.985000 3.140000 600 64 1.000000 0.055000 0.055000 1.200000 0.031000 0.037000
1518539785371465567	700 58 0.900000 0.266000 0.258000 1300 50 1.000000 2.985000 3.140000 600 64 1.000000 0.055000 0.055000 1.200000 0.031000 0.037000
1518539785923522734	700 58 0.900000 0.266000 0.259000 1300 50 1.000000 2.986000 3.141000 600 64 1.000000 0.055000 0.055000 1.200000 0.030000 0.036000
1518539786475468442	700 58 0.900000 0.266000 0.258000 1300 50 1.000000 2.986000 3.141000 600 64 1.000000 0.054000 0.054000 1.200000 0.031000 0.037000
1518539787027475109	700 58 0.900000 0.266000 0.258000 1300 50 1.000000 2.984000 3.139000 600 64 1.000000 0.055000 0.055000 1.200000 0.031000 0.037000
1518539787575471734	700 58 0.900000 0.266000 0.258000 1300 50 1.000000 2.976000 3.130000 600 64 1.000000 0.055000 0.055000 1.200000 0.031000 0.037000
1518539788135487943	700 58 0.900000 0.266000 0.258000 1300 50 1.000000 2.970000 3.124000 600 64 1.000000 0.054000 0.054000 1.200000 0.031000 0.037000
1518539788695521943	700 58 0.900000 0.266000 0.258000 1300 50 1.000000 2.973000 3.127000 600 64 1.000000 0.054000 0.054000 1.200000 0.031000 0.037000
1518539789247493401	700 58 0.900000 0.266000 0.258000 1300 50 1.000000 2.964000 3.118000 600 64 1.000000 0.055000 0.055000 1.200000 0.030000 0.036000
1518539789811516359	700 58 0.900000 0.267000 0.260000 1300 50 1.000000 2.963000 3.117000 600 64 1.000000 0.055000 0.055000 1.200000 0.031000 0.037000
1518539790371503109	700 58 0.900000 0.267000 0.260000 1300 50 1.000000 2.964000 3.118000 600 64 1.000000 0.054000 0.054000 1.200000 0.031000 0.037000
1518539790927502026	700 58 0.900000 0.266000 0.258000 1300 50 1.000000 2.971000 3.125000 600 64 1.000000 0.055000 0.055000 1.200000 0.030000 0.036000
1518539791479498693	700 58 0.900000 0.267000 0.259000 1300 50 1.000000 2.972000 3.126000 600 64 1.000000 0.055000 0.055000 1.200000 0.031000 0.037000
1518539791990566860	700 58 0.900000 0.266000 0.259000 1300 50 1.000000 2.972000 3.126000 600 64 1.000000 0.055000 0.055000 1.200000 0.031000 0.037000
1518539792555573026	700 58 0.900000 0.266000 0.259000 1300 50 1.000000 2.905000 3.056000 600 64 1.000000 0.054000 0.054000 1.200000 0.035000 0.042000
1518539793111535735	700 58 0.900000 0.266000 0.259000 1300 50 1.000000 2.968000 3.122000 600 64 1.000000 0.055000 0.055000 1.200000 0.032000 0.038000
1518539793667503693	700 58 0.900000 0.266000 0.259000 1300 50 1.000000 2.971000 3.125000 600 64 1.000000 0.055000 0.055000 1.200000 0.031000 0.037000
1518539794219504693	700 58 0.900000 0.266000 0.259000 1300 50 1.000000 2.971000 3.125000 600 64 1.000000 0.055000 0.055000 1.200000 0.031000 0.037000
1518539794775487943	700 58 0.900000 0.266000 0.259000 1300 50 1.000000 2.980000 3.134000 600 64 1.000000 0.055000 0.055000 1.200000 0.031000 0.037000
1518539795339549402	700 58 0.900000 0.266000 0.258000 1300 50 1.000000 2.977000 3.131000 600 64 1.000000 0.055000 0.055000 1.200000 0.030000 0.036000
1518539795891520902	700 58 0.900000 0.266000 0.259000 1300 50 1.000000 2.975000 3.129000 600 64 1.000000 0.055000 0.055000 1.200000 0.031000 0.037000
1518539796459494944	700 58 0.900000 0.266000 0.259000 1300 50 1.000000 2.973000 3.127000 600 64 1.000000 0.055000 0.055000 1.200000 0.031000 0.037000
1518539797015524319	700 58 0.900000 0.266000 0.258000 1300 50 1.000000 2.970000 3.124000 600 64 1.000000 0.055000 0.055000 1.200000 0.031000 0.037000
1518539797567539235	700 58 0.900000 0.266000 0.258000 1300 50 1.000000 2.975000 3.129000 600 64 1.000000 0.055000 0.055000 1.200000 0.031000 0.037000
1518539798127497194	700 58 0.900000 0.266000 0.258000 1300 50 1.000000 2.967000 3.121000 600 64 1.000000 0.055000 0.055000 1.200000 0.031000 0.037000
1518539798691547485	700 58 0.900000 0.266000 0.258000 1300 50 1.000000 2.974000 3.128000 600 64 1.000000 0.055000 0.055000 1.200000 0.031000 0.037000
1518539799243520694	700 58 0.900000 0.266000 0.259000 1300 50 1.000000 2.982000 3.137000 600 64 1.000000 0.055000 0.055000 1.200000 0.030000 0.036000
1518539799803544444	700 58 0.900000 0.266000 0.259000 1300 50 1.000000 2.983000 3.138000 600 64 1.000000 0.055000 0.055000 1.200000 0.030000 0.036000
1518539800359514819	700 58 0.900000 0.266000 0.259000 1300 50 1.000000 2.982000 3.137000 600 65 1.000000 0.055000 0.055000 1.200000 0.030000 0.036000
1518539800919501236	700 58 0.900000 0.266000 0.259000 1300 50 1.000000 2.973000 3.127000 600 64 1.000000 0.055000 0.055000 1.200000 0.030000 0.036000
1518539801487516819	700 58 0.900000 0.266000 0.259000 1300 50 1.000000 2.977000 3.131000 600 65 1.000000 0.055000 0.055000 1.200000 0.031000 0.037000
1518539802031553111	700 58 0.900000 0.266000 0.259000 1300 50 1.000000 2.966000 3.120000 600 64 1.000000 0.055000 0.055000 1.200000 0.031000 0.037000
1518539802591574861	700 58 0.900000 0.265000 0.258000 1300 50 1.000000 2.940000 3.092000 600 64 1.000000 0.054000 0.054000 1.200000 0.034000 0.041000
1518539803151574569	700 58 0.900000 0.266000 0.258000 1300 50 1.000000 2.978000 3.132000 600 65 1.000000 0.055000 0.055000 1.200000 0.031000 0.037000
1518539803703538153	700 58 0.900000 0.266000 0.258000 1300 50 1.000000 2.993000 3.148000 600 65 1.000000 0.054000 0.054000 1.200000 0.031000 0.037000
1518539804263514444	700 58 0.900000 0.266000 0.259000 1300 50 1.000000 3.001000 3.157000 600 65 1.000000 0.055000 0.055000 1.200000 0.031000 0.037000
1518539804823497695	700 58 0.900000 0.266000 0.259000 1300 50 1.000000 3.000000 3.156000 600 65 1.000000 0.055000 0.055000 1.200000 0.031000 0.037000
1518539805379491445	700 58 0.900000 0.266000 0.258000 1300 50 1.000000 3.000000 3.159000 600 65 1.000000 0.055000 0.055000 1.200000 0.032000 0.038000
1518539805939467278	700 58 0.900000 0.267000 0.260000 1300 50 1.000000 3.000000 3.156000 600 65 1.000000 0.055000 0.055000 1.200000 0.032000 0.038000
1518539806491534945	700 58 0.900000 0.267000 0.259000 1300 50 1.000000 2.995000 3.153000 600 65 1.000000 0.055000 0.055000 1.200000 0.032000 0.038000
1518539807051534736	700 58 0.900000 0.267000 0.260000 1300 50 1.000000 2.995000 3.153000 600 65 1.000000 0.055000 0.055000 1.200000 0.031000 0.037000
1518539807603536112	700 58 0.900000 0.267000 0.259000 1300 50 1.000000 2.989000 3.147000 600 65 1.000000 0.055000 0.055000 1.200000 0.032000 0.038000
1518539808163577487	700 59 0.900000 0.267000 0.259000 1300 50 1.000000 2.987000 3.142000 600 65 1.000000 0.055000 0.055000 1.200000 0.032000 0.038000
1518539808723552778	700 59 0.900000 0.267000 0.259000 1300 50 1.000000 2.992000 3.150000 600 65 1.000000 0.055000 0.055000 1.200000 0.032000 0.038000
1518539809283520195	700 59 0.900000 0.267000 0.259000 1300 50 1.000000 3.001000 3.157000 600 65 1.000000 0.055000 0.055000 1.200000 0.031000 0.037000
1518539809843509362	700 59 0.900000 0.267000 0.259000 1300 50 1.000000 3.001000 3.157000 600 65 1.000000 0.055000 0.055000 1.200000 0.032000 0.038000
1518539810387549695	700 59 0.900000 0.267000 0.259000 1300 50 1.000000 3.001000 3.157000 600 65 1.000000 0.055000 0.055000 1.200000 0.031000 0.037000
1518539810951533570	700 59 0.900000 0.267000 0.260000 1300 50 1.000000 3.003000 3.159000 600 65 1.000000 0.055000 0.055000 1.200000 0.031000 0.037000
1518539811511515404	700 58 0.900000 0.267000 0.259000 1300 50 1.000000 2.974000 3.128000 600 65 1.000000 0.055000 0.055000 1.200000 0.031000 0.037000
1518539812071521529	700 58 0.900000 0.267000 0.260000 1300 50 1.000000 2.972000 3.126000 600 65 1.000000 0.055000 0.055000 1.200000 0.031000 0.037000
1518539812631588695	700 58 0.900000 0.266000 0.258000 1300 50 1.000000 2.910000 3.061000 600 64 1.000000 0.055000 0.055000 1.200000 0.036000 0.043000
1518539813183535571	700 58 0.900000 0.267000 0.260000 1300 50 1.000000 2.959000 3.112000 600 64 1.000000 0.055000 0.055000 1.200000 0.032000 0.038000
1518539813747540862	700 58 0.900000 0.267000 0.259000 1300 50 1.000000 2.958000 3.111000 600 64 1.000000 0.055000 0.055000 1.200000 0.032000 0.038000
1518539814307531862	700 58 0.900000 0.267000 0.260000 1300 50 1.000000 2.970000 3.124000 600 64 1.000000 0.055000 0.055000 1.200000 0.032000 0.038000
1518539814859560946	700 58 0.900000 0.267000 0.259000 1300 50 1.000000 2.973000 3.130000 600 65 1.000000 0.055000 0.055000 1.200000 0.031000 0.037000
1518539815423519946	700 58 0.900000 0.267000 0.259000 1300 50 1.000000 2.973000 3.127000 600 65 1.000000 0.055000 0.055000 1.200000 0.032000 0.038000
1518539815979550113	700 58 0.900000 0.267000 0.259000 1300 50 1.000000 2.972000 3.126000 600 65 1.000000 0.055000 0.055000 1.200000 0.031000 0.037000
1518539816539483988	700 58 0.900000 0.267000 0.259000 1300 50 1.000000 2.971000 3.125000 600 64 1.000000 0.055000 0.055000 1.200000 0.032000 0.038000
1518539817099518779	700 58 0.900000 0.267000 0.259000 1300 50 1.000000 2.973000 3.127000 600 64 1.000000 0.055000 0.055000 1.200000 0.032000 0.038000
1518539817643525279	700 58 0.900000 0.267000 0.260000 1300 50 1.000000 2.970000 3.124000 600 65 1.000000 0.055000 0.055000 1.200000 0.031000 0.037000
1518539818203530779	700 58 0.900000 0.267000 0.259000 1300 50 1.000000 2.967000 3.121000 600 65 1.000000 0.055000 0.055000 1.200000 0.031000 0.037000
1518539818755588946	700 58 0.900000 0.267000 0.259000 1300 50 1.000000 2.964000 3.118000 600 65 1.000000 0.055000 0.055000 1.200000 0.032000 0.038000
1518539819295539446	700 58 0.900000 0.267000 0.259000 1300 50 1.000000 2.996000 3.151000 600 65 1.000000 0.055000 0.055000 1.200000 0.032000 0.038000
1518539819855499488	700 58 0.900000 0.267000 0.259000 1300 50 1.000000 2.988000 3.143000 600 65 1.000000 0.055000 0.055000 1.200000 0.031000 0.037000
1518539820403547655	700 58 0.900000 0.267000 0.259000 1300 50 1.000000 2.989000 3.144000 600 65 1.000000 0.055000 0.055000 1.200000 0.031000 0.037000
1518539820959523988	700 58 0.900000 0.267000 0.259000 1300 50 1.000000 2.988000 3.143000 600 65 1.000000 0.055000 0.055000 1.200000 0.032000 0.038000
1518539821507519988	700 58 0.900000 0.267000 0.259000 1300 50 1.000000 2.987000 3.142000 600 65 1.000000 0.055000 0.055000 1.200000 0.031000 0.037000
1518539822067537613	700 58 0.900000 0.267000 0.259000 1300 50 1.000000 2.989000 3.144000 600 65 1.000000 0.055000 0.055000 1.200000 0.032000 0.038000
1518539822627592988	700 58 0.900000 0.266000 0.258000 1300 50 1.000000 2.946000 3.099000 600 65 1.000000 0.055000 0.055000 1.200000 0.032000 0.038000
1518539823179601030	700 58 0.900000 0.267000 0.259000 1300 50 1.000000 2.987000 3.142000 600 65 1.000000 0.054000 0.054000 1.200000 0.032000 0.038000
1518539823743520613	700 58 0.900000 0.267000 0.259000 1300 50 1.000000 2.987000 3.142000 600 65 1.000000 0.055000 0.055000 1.200000 0.032000 0.038000
1518539824299511989	700 58 0.900000 0.267000 0.259000 1300 50 1.000000 2.986000 3.141000 600 65 1.000000 0.055000 0.055000 1.200000 0.032000 0.038000
1518539824847562114	700 58 0.900000 0.267000 0.259000 1300 50 1.000000 2.981000 3.136000 600 65 1.000000 0.055000 0.055000 1.200000 0.032000 0.038000
1518539825407543655	700 58 0.900000 0.267000 0.259000 1300 50 1.000000 2.981000 3.138000 600 65 1.000000 0.055000 0.055000 1.200000 0.032000 0.038000
1518539825971544072	700 58 0.900000 0.267000 0.259000 1300 50 1.000000 2.976000 3.130000 600 64 1.000000 0.055000 0.055000 1.200000 0.031000 0.037000
1518539826527520072	700 58 0.900000 0.267000 0.259000 1300 50 1.000000 2.978000 3.132000 600 65 1.000000 0.055000 0.055000 1.200000 0.032000 0.038000
1518539827087557906	700 58 0.900000 0.267000 0.259000 1300 50 1.000000 2.983000 3.138000 600 65 1.000000 0.055000 0.055000 1.200000 0.032000 0.038000
1518539827651529656	700 58 0.900000 0.267000 0.259000 1300 50 1.000000 2.959000 3.115000 600 64 1.000000 0.054000 0.054000 1.200000 0.032000 0.038000
1518539828207519031	700 58 0.900000 0.267000 0.259000 1300 50 1.000000 2.964000 3.118000 600 64 1.000000 0.055000 0.055000 1.200000 0.032000 0.038000
1518539828771491406	700 58 0.900000 0.267000 0.260000 1300 50 1.000000 2.978000 3.132000 600 65 1.000000 0.055000 0.055000 1.200000 0.032000 0.038000
1518539829335469322	700 58 0.900000 0.267000 0.259000 1300 50 1.000000 2.979000 3.136000 600 64 1.000000 0.055000 0.055000 1.200000 0.032000 0.038000
1518539829887519781	700 58 0.900000 0.267000 0.260000 1300 50 1.000000 2.975000 3.132000 600 65 1.000000 0.055000 0.055000 1.200000 0.032000 0.038000
1518539830439507989	700 58 0.900000 0.267000 0.259000 1300 50 1.000000 2.975000 3.132000 600 64 1.000000 0.055000 0.055000 1.200000 0.031000 0.037000
1518539830991501656	700 58 0.900000 0.267000 0.259000 1300 50 1.000000 2.975000 3.132000 600 65 1.000000 0.055000 0.055000 1.200000 0.031000 0.037000
1518539831547517198	700 58 0.900000 0.267000 0.259000 1300 50 1.000000 2.972000 3.126000 600 64 1.000000 0.055000 0.055000 1.200000 0.032000 0.038000
1518539832107513364	700 58 0.900000 0.267000 0.259000 1300 50 1.000000 2.977000 3.131000 600 65 1.000000 0.055000 0.055000 1.200000 0.031000 0.037000
1518539832667594823	700 58 0.900000 0.266000 0.258000 1300 50 1.000000 2.972000 3.126000 600 64 1.000000 0.055000 0.055000 1.200000 0.031000 0.037000
1518539833231496865	700 58 0.900000 0.267000 0.260000 1300 50 1.000000 2.966000 3.120000 600 64 1.000000 0.055000 0.055000 1.200000 0.032000 0.038000
1518539833783490823	700 58 0.900000 0.267000 0.260000 1300 50 1.000000 2.967000 3.121000 600 65 1.000000 0.055000 0.055000 1.200000 0.032000 0.038000
1518539834339558156	700 58 0.900000 0.268000 0.260000 1300 50 1.000000 2.980000 3.134000 600 64 1.000000 0.055000 0.055000 1.200000 0.031000 0.037000
1518539834887521615	700 58 0.900000 0.267000 0.259000 1300 50 1.000000 2.980000 3.134000 600 64 1.000000 0.055000 0.055000 1.200000 0.032000 0.038000
1518539835439493365	700 58 0.900000 0.267000 0.259000 1300 50 1.000000 2.987000 3.142000 600 64 1.000000 0.055000 0.055000 1.200000 0.032000 0.038000
1518539835991504907	700 58 0.900000 0.267000 0.260000 1300 50 1.000000 2.958000 3.111000 600 64 1.000000 0.055000 0.055000 1.200000 0.032000 0.038000
1518539836543492573	700 58 0.900000 0.267000 0.260000 1300 50 1.000000 2.950000 3.103000 600 64 1.000000 0.055000 0.055000 1.200000 0.031000 0.037000
1518539837103551532	700 58 0.900000 0.267000 0.260000 1300 50 1.000000 2.949000 3.102000 600 64 1.000000 0.055000 0.055000 1.200000 0.032000 0.038000
1518539837667519448	700 58 0.900000 0.267000 0.260000 1300 50 1.000000 2.946000 3.099000 600 64 1.000000 0.055000 0.055000 1.200000 0.032000 0.038000
1518539838227531615	700 58 0.900000 0.267000 0.259000 1300 50 1.000000 2.943000 3.096000 600 64 1.000000 0.055000 0.055000 1.200000 0.032000 0.038000
1518539838779465365	700 58 0.900000 0.267000 0.259000 1300 50 1.000000 2.950000 3.103000 600 64 1.000000 0.055000 0.055000 1.200000 0.032000 0.038000
1518539839339510490	700 58 0.900000 0.267000 0.260000 1300 50 1.000000 2.946000 3.099000 600 64 1.000000 0.055000 0.055000 1.200000 0.033000 0.039000
1518539839903506115	700 58 0.900000 0.267000 0.259000 1300 50 1.000000 2.960000 3.113000 600 64 1.000000 0.055000 0.055000 1.200000 0.032000 0.038000
1518539840459505907	700 58 0.900000 0.267000 0.259000 1300 50 1.000000 2.961000 3.117000 600 64 1.000000 0.055000 0.055000 1.200000 0.032000 0.038000
1518539841019530032	700 58 0.900000 0.267000 0.259000 1300 50 1.000000 2.959000 3.112000 600 64 1.000000 0.055000 0.055000 1.200000 0.032000 0.038000
1518539841559504366	700 58 0.900000 0.267000 0.260000 1300 50 1.000000 2.958000 3.111000 600 64 1.000000 0.055000 0.055000 1.200000 0.032000 0.038000
1518539842111514991	700 58 0.900000 0.267000 0.260000 1300 50 1.000000 2.948000 3.101000 600 64 1.000000 0.055000 0.055000 1.200000 0.032000 0.038000
1518539842671628032	700 58 0.900000 0.267000 0.259000 1300 50 1.000000 2.954000 3.107000 600 64 1.000000 0.055000 0.055000 1.200000 0.034000 0.041000
1518539843227551699	700 58 0.900000 0.267000 0.259000 1300 50 1.000000 2.957000 3.110000 600 64 1.000000 0.054000 0.054000 1.200000 0.032000 0.038000
1518539843783521033	700 58 0.900000 0.267000 0.259000 1300 50 1.000000 2.982000 3.137000 600 64 1.000000 0.055000 0.055000 1.200000 0.032000 0.038000
1518539844335526658	700 58 0.900000 0.267000 0.259000 1300 50 1.000000 2.982000 3.140000 600 64 1.000000 0.055000 0.055000 1.200000 0.032000 0.038000
1518539844887552908	700 58 0.900000 0.267000 0.259000 1300 50 1.000000 2.992000 3.150000 600 64 1.000000 0.055000 0.055000 1.200000 0.032000 0.038000
1518539845423540324	700 58 0.900000 0.267000 0.259000 1300 50 1.000000 2.990000 3.145000 600 64 1.000000 0.055000 0.055000 1.200000 0.032000 0.038000
1518539845975517658	700 58 0.900000 0.267000 0.259000 1300 50 1.000000 2.991000 3.149000 600 64 1.000000 0.055000 0.055000 1.200000 0.032000 0.038000
1518539846535497408	700 58 0.900000 0.267000 0.259000 1300 50 1.000000 2.992000 3.150000 600 64 1.000000 0.055000 0.055000 1.200000 0.032000 0.038000
1518539847087525991	700 58 0.900000 0.267000 0.259000 1300 50 1.000000 2.992000 3.150000 600 64 1.000000 0.054000 0.054000 1.200000 0.032000 0.038000
1518539847647532033	700 58 0.900000 0.267000 0.259000 1300 50 1.000000 2.989000 3.144000 600 64 1.000000 0.055000 0.055000 1.200000 0.032000 0.038000
1518539848203522450	700 58 0.900000 0.267000 0.259000 1300 50 1.000000 2.989000 3.147000 600 64 1.000000 0.055000 0.055000 1.200000 0.032000 0.038000
1518539848767528033	700 58 0.900000 0.267000 0.259000 1300 50 1.000000 2.983000 3.141000 600 64 1.000000 0.055000 0.055000 1.200000 0.031000 0.037000
1518539849315572575	700 58 0.900000 0.267000 0.259000 1300 50 1.000000 2.977000 3.131000 600 64 1.000000 0.055000 0.055000 1.200000 0.032000 0.038000
1518539849871537825	700 58 0.900000 0.267000 0.260000 1300 50 1.000000 2.978000 3.132000 600 64 1.000000 0.055000 0.055000 1.200000 0.032000 0.038000
1518539850419489867	700 58 0.900000 0.267000 0.260000 1300 50 1.000000 2.983000 3.138000 600 64 1.000000 0.055000 0.055000 1.200000 0.032000 0.038000
1518539850971505700	700 58 0.900000 0.267000 0.259000 1300 50 1.000000 2.990000 3.145000 600 64 1.000000 0.055000 0.055000 1.200000 0.032000 0.038000
1518539851535564867	700 58 0.900000 0.268000 0.260000 1300 50 1.000000 2.975000 3.129000 600 64 1.000000 0.055000 0.055000 1.200000 0.032000 0.038000
1518539852091521117	700 58 0.900000 0.267000 0.259000 1300 50 1.000000 2.975000 3.129000 600 64 1.000000 0.055000 0.055000 1.200000 0.031000 0.037000
1518539852639594867	700 58 0.900000 0.267000 0.259000 1300 50 1.000000 2.952000 3.108000 600 64 1.000000 0.055000 0.055000 1.200000 0.035000 0.042000
1518539853195548742	700 58 0.900000 0.267000 0.260000 1300 50 1.000000 2.976000 3.130000 600 64 1.000000 0.055000 0.055000 1.200000 0.032000 0.038000
1518539853755527784	700 58 0.900000 0.267000 0.259000 1300 50 1.000000 2.975000 3.129000 600 64 1.000000 0.055000 0.055000 1.200000 0.032000 0.038000
1518539854315535950	700 58 0.900000 0.267000 0.259000 1300 50 1.000000 2.973000 3.127000 600 64 1.000000 0.054000 0.054000 1.200000 0.032000 0.038000
1518539854875526659	700 58 0.900000 0.267000 0.259000 1300 50 1.000000 2.966000 3.120000 600 64 1.000000 0.055000 0.055000 1.200000 0.032000 0.038000
1518539855435462742	700 58 0.900000 0.267000 0.260000 1300 50 1.000000 2.967000 3.121000 600 64 1.000000 0.055000 0.055000 1.200000 0.031000 0.037000
1518539855995519784	700 58 0.900000 0.267000 0.260000 1300 50 1.000000 2.975000 3.129000 600 64 1.000000 0.055000 0.055000 1.200000 0.032000 0.038000
1518539856543475659	700 58 0.900000 0.267000 0.260000 1300 50 1.000000 2.973000 3.127000 600 64 1.000000 0.055000 0.055000 1.200000 0.032000 0.038000
1518539857087476076	700 58 0.900000 0.267000 0.259000 1300 50 1.000000 2.974000 3.128000 600 64 1.000000 0.055000 0.055000 1.200000 0.031000 0.037000
1518539857643490451	700 58 0.900000 0.267000 0.259000 1300 50 1.000000 2.974000 3.128000 600 64 1.000000 0.054000 0.054000 1.200000 0.032000 0.038000
1518539858195499868	700 58 0.900000 0.267000 0.260000 1300 50 1.000000 2.975000 3.129000 600 64 1.000000 0.055000 0.055000 1.200000 0.031000 0.037000
1518539858747578201	700 58 0.900000 0.267000 0.260000 1300 50 1.000000 2.965000 3.119000 600 64 1.000000 0.055000 0.055000 1.200000 0.032000 0.038000
1518539859299517618	700 58 0.900000 0.267000 0.260000 1300 50 1.000000 2.977000 3.131000 600 64 1.000000 0.055000 0.055000 1.200000 0.032000 0.038000
1518539859851523659	700 58 0.900000 0.267000 0.260000 1300 50 1.000000 2.966000 3.120000 600 64 1.000000 0.055000 0.055000 1.200000 0.033000 0.039000
1518539860399556159	700 58 0.900000 0.267000 0.259000 1300 50 1.000000 2.977000 3.131000 600 64 1.000000 0.055000 0.055000 1.200000 0.032000 0.038000
1518539860943528868	700 58 0.900000 0.267000 0.259000 1300 50 1.000000 2.980000 3.134000 600 64 1.000000 0.055000 0.055000 1.200000 0.032000 0.038000
1518539861507515993	700 58 0.900000 0.267000 0.259000 1300 50 1.000000 2.980000 3.134000 600 64 1.000000 0.055000 0.055000 1.200000 0.032000 0.038000
1518539862059522785	700 58 0.900000 0.267000 0.260000 1300 50 1.000000 2.970000 3.124000 600 64 1.000000 0.055000 0.055000 1.200000 0.032000 0.038000
1518539862623589451	700 58 0.900000 0.267000 0.260000 1300 50 1.000000 2.970000 3.124000 600 64 1.000000 0.055000 0.055000 1.200000 0.031000 0.037000
1518539863183542035	700 58 0.900000 0.267000 0.259000 1300 50 1.000000 2.967000 3.121000 600 64 1.000000 0.055000 0.055000 1.200000 0.032000 0.038000
1518539863739512285	700 58 0.900000 0.267000 0.259000 1300 50 1.000000 2.967000 3.121000 600 64 1.000000 0.055000 0.055000 1.200000 0.032000 0.038000
1518539864299525910	700 58 0.900000 0.267000 0.260000 1300 50 1.000000 2.980000 3.134000 600 64 1.000000 0.055000 0.055000 1.200000 0.032000 0.038000
1518539864859529952	700 58 0.900000 0.268000 0.261000 1300 50 1.000000 2.970000 3.124000 600 64 1.000000 0.055000 0.055000 1.200000 0.032000 0.038000
1518539865407511035	700 58 0.900000 0.266000 0.258000 1300 50 1.000000 2.972000 3.126000 600 64 1.000000 0.055000 0.055000 1.200000 0.031000 0.037000
1518539865955507285	700 58 0.900000 0.266000 0.258000 1300 50 1.000000 2.969000 3.123000 600 64 1.000000 0.055000 0.055000 1.200000 0.031000 0.037000
1518539866503516035	700 58 0.900000 0.266000 0.259000 1300 50 1.000000 2.977000 3.131000 600 64 1.000000 0.055000 0.055000 1.200000 0.031000 0.037000
1518539867055520244	700 58 0.900000 0.266000 0.258000 1300 50 1.000000 2.976000 3.133000 600 64 1.000000 0.055000 0.055000 1.200000 0.030000 0.036000
1518539867619529619	700 58 0.900000 0.266000 0.259000 1300 50 1.000000 2.967000 3.121000 600 64 1.000000 0.055000 0.055000 1.200000 0.030000 0.036000
1518539868179483535	700 58 0.900000 0.266000 0.259000 1300 50 1.000000 2.962000 3.116000 600 64 1.000000 0.055000 0.055000 1.200000 0.031000 0.037000
1518539868731653744	700 58 0.900000 0.266000 0.258000 1300 50 1.000000 2.970000 3.124000 600 64 1.000000 0.055000 0.055000 1.200000 0.031000 0.037000
1518539869283503827	700 58 0.900000 0.266000 0.258000 1300 50 1.000000 2.967000 3.124000 600 64 1.000000 0.055000 0.055000 1.200000 0.031000 0.037000
1518539869843558619	700 58 0.900000 0.266000 0.258000 1300 50 1.000000 2.959000 3.112000 600 64 1.000000 0.055000 0.055000 1.200000 0.030000 0.036000
1518539870395534661	700 58 0.900000 0.266000 0.259000 1300 50 1.000000 2.960000 3.113000 600 64 1.000000 0.055000 0.055000 1.200000 0.031000 0.037000
1518539870955553661	700 58 0.900000 0.266000 0.259000 1300 50 1.000000 2.958000 3.111000 600 64 1.000000 0.055000 0.055000 1.200000 0.031000 0.037000
1518539871507500327	700 58 0.900000 0.266000 0.259000 1300 50 1.000000 2.961000 3.114000 600 64 1.000000 0.055000 0.055000 1.200000 0.031000 0.037000
1518539872055483494	700 58 0.900000 0.266000 0.259000 1300 50 1.000000 2.964000 3.118000 600 64 1.000000 0.055000 0.055000 1.200000 0.031000 0.037000
1518539872623550953	700 58 0.900000 0.266000 0.259000 1300 50 1.000000 2.971000 3.125000 600 64 1.000000 0.055000 0.055000 1.200000 0.030000 0.036000
1518539873187551744	700 58 0.900000 0.266000 0.258000 1300 50 1.000000 2.971000 3.125000 600 64 1.000000 0.054000 0.054000 1.200000 0.031000 0.037000
1518539873743510078	700 58 0.900000 0.266000 0.258000 1300 50 1.000000 2.967000 3.121000 600 64 1.000000 0.055000 0.055000 1.200000 0.031000 0.037000
1518539874299530494	700 58 0.900000 0.266000 0.259000 1300 50 1.000000 2.967000 3.121000 600 64 1.000000 0.055000 0.055000 1.200000 0.031000 0.037000
1518539874855508370	700 58 0.900000 0.266000 0.259000 1300 50 1.000000 2.969000 3.123000 600 64 1.000000 0.055000 0.055000 1.200000 0.031000 0.037000
1518539875407499995	700 58 0.900000 0.266000 0.259000 1300 50 1.000000 2.976000 3.130000 600 64 1.000000 0.055000 0.055000 1.200000 0.031000 0.037000
1518539875955517995	700 58 0.900000 0.266000 0.259000 1300 50 1.000000 2.976000 3.130000 600 64 1.000000 0.055000 0.055000 1.200000 0.031000 0.037000
1518539876519524370	700 58 0.900000 0.266000 0.259000 1300 50 1.000000 2.972000 3.126000 600 64 1.000000 0.055000 0.055000 1.200000 0.030000 0.036000
1518539877055537453	700 58 0.900000 0.266000 0.258000 1300 50 1.000000 2.976000 3.130000 600 64 1.000000 0.055000 0.055000 1.200000 0.031000 0.037000
1518539877607535037	700 58 0.900000 0.266000 0.258000 1300 50 1.000000 2.980000 3.134000 600 64 1.000000 0.055000 0.055000 1.200000 0.030000 0.036000
1518539878159519870	700 58 0.900000 0.266000 0.258000 1300 50 1.000000 2.980000 3.134000 600 64 1.000000 0.055000 0.055000 1.200000 0.031000 0.037000
1518539878715506995	700 58 0.900000 0.266000 0.258000 1300 50 1.000000 2.977000 3.131000 600 64 1.000000 0.055000 0.055000 1.200000 0.030000 0.036000
1518539879267469828	700 58 0.900000 0.266000 0.258000 1300 50 1.000000 2.978000 3.132000 600 64 1.000000 0.055000 0.055000 1.200000 0.031000 0.037000
1518539879827498078	700 58 0.900000 0.266000 0.259000 1300 50 1.000000 2.978000 3.132000 600 64 1.000000 0.055000 0.055000 1.200000 0.030000 0.036000
1518539880391503412	700 58 0.900000 0.266000 0.259000 1300 50 1.000000 2.972000 3.126000 600 64 1.000000 0.055000 0.055000 1.200000 0.030000 0.036000
1518539880943530120	700 58 0.900000 0.266000 0.259000 1300 50 1.000000 2.967000 3.121000 600 64 1.000000 0.055000 0.055000 1.200000 0.031000 0.037000
1518539881491543662	700 58 0.900000 0.267000 0.260000 1300 50 1.000000 2.963000 3.117000 600 64 1.000000 0.055000 0.055000 1.200000 0.031000 0.037000
1518539882039493912	700 58 0.900000 0.266000 0.258000 1300 50 1.000000 2.965000 3.119000 600 64 1.000000 0.055000 0.055000 1.200000 0.030000 0.036000
1518539882595554329	700 58 0.900000 0.266000 0.258000 1300 50 1.000000 2.961000 3.114000 600 64 1.000000 0.055000 0.055000 1.200000 0.031000 0.037000
1518539883147564121	700 58 0.900000 0.266000 0.259000 1300 50 1.000000 2.983000 3.138000 600 64 1.000000 0.055000 0.055000 1.200000 0.031000 0.037000
1518539883707477996	700 58 0.900000 0.267000 0.260000 1300 50 1.000000 2.984000 3.139000 600 64 1.000000 0.055000 0.055000 1.200000 0.030000 0.036000
1518539884267539829	700 58 0.900000 0.266000 0.259000 1300 50 1.000000 2.985000 3.140000 600 64 1.000000 0.055000 0.055000 1.200000 0.030000 0.036000
1518539884827552371	700 58 0.900000 0.267000 0.260000 1300 50 1.000000 2.984000 3.139000 600 64 1.000000 0.055000 0.055000 1.200000 0.030000 0.036000
1518539885383528704	700 58 0.900000 0.266000 0.259000 1300 50 1.000000 2.986000 3.141000 600 64 1.000000 0.055000 0.055000 1.200000 0.030000 0.036000
1518539885943512454	700 58 0.900000 0.266000 0.259000 1300 50 1.000000 2.984000 3.139000 600 64 1.000000 0.055000 0.055000 1.200000 0.031000 0.037000
1518539886507553913	700 58 0.900000 0.266000 0.259000 1300 50 1.000000 2.977000 3.131000 600 64 1.000000 0.055000 0.055000 1.200000 0.031000 0.037000
1518539887047537829	700 58 0.900000 0.266000 0.259000 1300 50 1.000000 2.971000 3.125000 600 64 1.000000 0.055000 0.055000 1.200000 0.031000 0.037000
1518539887603519079	700 58 0.900000 0.266000 0.259000 1300 50 1.000000 2.978000 3.132000 600 64 1.000000 0.054000 0.054000 1.200000 0.031000 0.037000
1518539888155520538	700 58 0.900000 0.266000 0.258000 1300 50 1.000000 2.984000 3.139000 600 64 1.000000 0.055000 0.055000 1.200000 0.031000 0.037000
1518539888711477746	700 58 0.900000 0.266000 0.258000 1300 50 1.000000 2.985000 3.140000 600 64 1.000000 0.054000 0.054000 1.200000 0.030000 0.036000
1518539889267564496	700 58 0.900000 0.266000 0.258000 1300 50 1.000000 2.986000 3.141000 600 64 1.000000 0.055000 0.055000 1.200000 0.030000 0.036000
1518539889831544871	700 58 0.900000 0.266000 0.259000 1300 50 1.000000 2.984000 3.139000 600 64 1.000000 0.054000 0.054000 1.200000 0.031000 0.037000
1518539890379545705	700 58 0.900000 0.266000 0.258000 1300 50 1.000000 2.984000 3.139000 600 64 1.000000 0.055000 0.055000 1.200000 0.030000 0.036000
1518539890939557246	700 58 0.900000 0.266000 0.259000 1300 50 1.000000 2.991000 3.146000 600 64 1.000000 0.055000 0.055000 1.200000 0.031000 0.037000
1518539891491503122	700 58 0.900000 0.266000 0.258000 1300 50 1.000000 2.984000 3.139000 600 64 1.000000 0.055000 0.055000 1.200000 0.031000 0.037000
1518539892039533622	700 58 0.900000 0.266000 0.258000 1300 50 1.000000 2.985000 3.140000 600 64 1.000000 0.055000 0.055000 1.200000 0.030000 0.036000
1518539892583549663	700 58 0.900000 0.266000 0.258000 1300 50 1.000000 2.977000 3.131000 600 65 1.000000 0.055000 0.055000 1.200000 0.031000 0.037000
1518539893143627205	700 58 0.900000 0.266000 0.258000 1300 50 1.000000 2.923000 3.074000 600 64 1.000000 0.055000 0.055000 1.200000 0.036000 0.043000
1518539893707559955	700 58 0.900000 0.266000 0.259000 1300 50 1.000000 2.984000 3.139000 600 64 1.000000 0.055000 0.055000 1.200000 0.031000 0.037000
1518539894259474789	700 58 0.900000 0.267000 0.260000 1300 50 1.000000 2.982000 3.137000 600 64 1.000000 0.055000 0.055000 1.200000 0.033000 0.039000
1518539894819499164	700 58 0.900000 0.267000 0.259000 1300 50 1.000000 2.981000 3.136000 600 64 1.000000 0.055000 0.055000 1.200000 0.033000 0.039000
1518539895371531914	700 58 0.900000 0.267000 0.259000 1300 50 1.000000 2.985000 3.140000 600 64 1.000000 0.055000 0.055000 1.200000 0.033000 0.039000
1518539895927513247	700 58 0.900000 0.267000 0.259000 1300 50 1.000000 2.981000 3.136000 600 65 1.000000 0.055000 0.055000 1.200000 0.033000 0.039000
1518539896495540080	700 58 0.900000 0.267000 0.259000 1300 50 1.000000 2.975000 3.129000 600 65 1.000000 0.055000 0.055000 1.200000 0.033000 0.039000
1518539897047578497	700 58 0.900000 0.267000 0.260000 1300 50 1.000000 2.971000 3.128000 600 64 1.000000 0.055000 0.055000 1.200000 0.033000 0.039000
1518539897611512372	700 58 0.900000 0.267000 0.260000 1300 50 1.000000 2.981000 3.136000 600 64 1.000000 0.055000 0.055000 1.200000 0.033000 0.039000
1518539898167519414	700 58 0.900000 0.267000 0.259000 1300 50 1.000000 2.986000 3.144000 600 65 1.000000 0.055000 0.055000 1.200000 0.033000 0.039000
1518539898723524414	700 58 0.900000 0.267000 0.260000 1300 50 1.000000 2.978000 3.135000 600 65 1.000000 0.055000 0.055000 1.200000 0.033000 0.039000
1518539899271493497	700 58 0.900000 0.267000 0.260000 1300 50 1.000000 2.972000 3.129000 600 65 1.000000 0.055000 0.055000 1.200000 0.033000 0.039000
1518539899823527206	700 58 0.900000 0.267000 0.260000 1300 50 1.000000 2.964000 3.118000 600 64 1.000000 0.055000 0.055000 1.200000 0.033000 0.039000
1518539900379506248	700 58 0.900000 0.267000 0.259000 1300 50 1.000000 2.970000 3.124000 600 64 1.000000 0.055000 0.055000 1.200000 0.033000 0.039000
1518539900939517706	700 58 0.900000 0.267000 0.259000 1300 50 1.000000 2.962000 3.116000 600 64 1.000000 0.055000 0.055000 1.200000 0.032000 0.038000
1518539901503478331	700 58 0.900000 0.267000 0.260000 1300 50 1.000000 2.964000 3.118000 600 64 1.000000 0.055000 0.055000 1.200000 0.033000 0.039000
1518539902063509914	700 58 0.900000 0.267000 0.259000 1300 50 1.000000 2.967000 3.121000 600 64 1.000000 0.055000 0.055000 1.200000 0.033000 0.039000
1518539902627498581	700 58 0.900000 0.267000 0.260000 1300 50 1.000000 2.969000 3.126000 600 64 1.000000 0.055000 0.055000 1.200000 0.033000 0.039000
1518539903187590831	700 58 0.900000 0.266000 0.258000 1300 50 1.000000 2.971000 3.128000 600 64 1.000000 0.055000 0.055000 1.200000 0.033000 0.039000
1518539903739507706	700 58 0.900000 0.267000 0.259000 1300 50 1.000000 2.972000 3.129000 600 64 1.000000 0.055000 0.055000 1.200000 0.032000 0.038000
1518539904291539790	700 58 0.900000 0.267000 0.260000 1300 50 1.000000 2.969000 3.126000 600 64 1.000000 0.055000 0.055000 1.200000 0.033000 0.039000
1518539904835559623	700 58 0.900000 0.267000 0.260000 1300 50 1.000000 2.968000 3.122000 600 64 1.000000 0.055000 0.055000 1.200000 0.034000 0.041000
1518539905391573457	700 58 0.900000 0.267000 0.260000 1300 50 1.000000 2.962000 3.116000 600 64 1.000000 0.055000 0.055000 1.200000 0.034000 0.041000
1518539905947510040	700 58 0.900000 0.267000 0.259000 1300 50 1.000000 2.964000 3.121000 600 64 1.000000 0.055000 0.055000 1.200000 0.033000 0.039000
1518539906507562623	700 58 0.900000 0.267000 0.260000 1300 50 1.000000 2.961000 3.114000 600 64 1.000000 0.054000 0.054000 1.200000 0.033000 0.039000
1518539907067527457	700 58 0.900000 0.267000 0.259000 1300 50 1.000000 2.948000 3.104000 600 64 1.000000 0.055000 0.055000 1.200000 0.033000 0.039000
1518539907619542790	700 58 0.900000 0.267000 0.259000 1300 50 1.000000 2.988000 3.146000 600 64 1.000000 0.055000 0.055000 1.200000 0.034000 0.041000
1518539908179529832	700 58 0.900000 0.267000 0.260000 1300 50 1.000000 2.974000 3.128000 600 64 1.000000 0.055000 0.055000 1.200000 0.033000 0.039000
1518539908731530165	700 58 0.900000 0.267000 0.260000 1300 50 1.000000 2.986000 3.141000 600 65 1.000000 0.055000 0.055000 1.200000 0.034000 0.041000
1518539909283555374	700 58 0.900000 0.267000 0.259000 1300 50 1.000000 2.987000 3.142000 600 65 1.000000 0.055000 0.055000 1.200000 0.033000 0.039000
1518539909843485832	700 58 0.900000 0.267000 0.260000 1300 50 1.000000 2.989000 3.144000 600 64 1.000000 0.055000 0.055000 1.200000 0.033000 0.039000
1518539910399510082	700 58 0.900000 0.267000 0.260000 1300 50 1.000000 2.987000 3.142000 600 64 1.000000 0.055000 0.055000 1.200000 0.032000 0.038000
1518539910955529582	700 58 0.900000 0.267000 0.260000 1300 50 1.000000 2.982000 3.137000 600 64 1.000000 0.055000 0.055000 1.200000 0.034000 0.041000
1518539911515521499	700 58 0.900000 0.267000 0.260000 1300 50 1.000000 2.981000 3.136000 600 65 1.000000 0.055000 0.055000 1.200000 0.033000 0.039000
1518539912067544874	700 58 0.900000 0.267000 0.260000 1300 50 1.000000 2.984000 3.139000 600 65 1.000000 0.055000 0.055000 1.200000 0.034000 0.041000
1518539912623534791	700 58 0.900000 0.267000 0.259000 1300 50 1.000000 2.986000 3.141000 600 65 1.000000 0.055000 0.055000 1.200000 0.033000 0.039000
1518539913183560332	700 58 0.900000 0.267000 0.259000 1300 50 1.000000 2.978000 3.132000 600 64 1.000000 0.055000 0.055000 1.200000 0.034000 0.041000
1518539913718779208	700 58 0.900000 0.267000 0.260000 1300 50 1.000000 2.975000 3.129000 600 65 1.000000 0.055000 0.055000 1.200000 0.034000 0.041000
1518539914225285708	700 58 0.900000 0.267000 0.259000 1300 50 1.000000 2.725000 2.863000 600 63 1.000000 0.055000 0.055000 1.200000 0.033000 0.039000
1518539914731349708	700 57 0.900000 0.267000 0.260000 1300 50 1.000000 2.353000 2.470000 600 57 1.000000 0.055000 0.055000 1.200000 0.034000 0.041000
1518539915237188416	700 49 0.900000 0.267000 0.259000 1300 47 1.000000 0.796000 0.832000 600 53 1.000000 0.054000 0.054000 1.200000 0.033000 0.039000
1518539915743125624	700 47 0.900000 0.266000 0.258000 1300 46 1.000000 0.192000 0.201000 600 51 1.000000 0.054000 0.054000 1.200000 0.034000 0.041000
1518539916248910666	700 46 0.900000 0.266000 0.258000 1300 45 1.000000 0.184000 0.193000 600 49 1.000000 0.054000 0.054000 1.200000 0.033000 0.039000
1518539916754656416	700 45 0.900000 0.265000 0.258000 1300 44 1.000000 0.185000 0.194000 600 48 1.000000 0.054000 0.054000 1.200000 0.033000 0.039000
1518539917260295875	700 44 0.900000 0.265000 0.257000 1300 43 1.000000 0.177000 0.185000 600 47 1.000000 0.053000 0.053000 1.200000 0.032000 0.038000
1518539917766106500	700 43 0.900000 0.265000 0.257000 1300 42 1.000000 0.169000 0.177000 600 47 1.000000 0.053000 0.053000 1.200000 0.032000 0.038000
1518539918271717166	700 43 0.900000 0.265000 0.258000 1300 42 1.000000 0.163000 0.171000 600 46 1.000000 0.053000 0.053000 1.200000 0.032000 0.038000
1518539918777399500	700 43 0.900000 0.264000 0.256000 1300 42 1.000000 0.162000 0.170000 600 45 1.000000 0.053000 0.053000 1.200000 0.033000 0.039000
1518539919283188292	700 42 0.900000 0.264000 0.256000 1300 41 1.000000 0.163000 0.171000 600 45 1.000000 0.053000 0.053000 1.200000 0.032000 0.038000
1518539919788936750	700 42 0.900000 0.264000 0.257000 1300 41 1.000000 0.163000 0.171000 600 45 1.000000 0.053000 0.053000 1.200000 0.032000 0.038000
1518539920294764917	700 41 0.900000 0.264000 0.256000 1300 41 1.000000 0.169000 0.177000 600 44 1.000000 0.053000 0.053000 1.200000 0.032000 0.038000
1518539920800474167	700 41 0.900000 0.264000 0.256000 1300 40 1.000000 0.177000 0.185000 600 44 1.000000 0.053000 0.053000 1.200000 0.033000 0.039000
1518539921306168875	700 41 0.900000 0.264000 0.256000 1300 40 1.000000 0.173000 0.181000 600 44 1.000000 0.053000 0.053000 1.200000 0.033000 0.039000
1518539921811831042	700 41 0.900000 0.264000 0.256000 1300 40 1.000000 0.172000 0.180000 600 44 1.000000 0.053000 0.053000 1.200000 0.033000 0.039000
1518539922317472542	700 40 0.900000 0.264000 0.256000 1300 39 1.000000 0.181000 0.190000 600 43 1.000000 0.053000 0.053000 1.200000 0.033000 0.039000
1518539922823260167	700 40 0.900000 0.264000 0.256000 1300 39 1.000000 0.160000 0.168000 600 43 1.000000 0.053000 0.053000 1.200000 0.032000 0.038000
1518539923329342084	700 40 0.900000 0.218000 0.214000 1300 39 1.000000 0.265000 0.277000 600 43 1.000000 0.053000 0.053000 1.200000 0.035000 0.042000
1518539923835384917	700 39 0.900000 0.168000 0.165000 1300 39 1.000000 0.155000 0.162000 600 43 1.000000 0.053000 0.053000 1.200000 0.028000 0.033000
1518539924341124667	700 39 0.900000 0.031000 0.030000 1300 38 1.000000 0.154000 0.161000 600 42 1.000000 0.053000 0.053000 1.200000 0.023000 0.027000
