#Timestamp	CPU(0) Frequency(MHz)	CPU(0) Temperature(C)	A7 Voltage(V)	A7 Current(A)	A7 Power(W)	CPU(4) Frequency(MHz)	CPU(4) Temperature(C)	A15 Voltage(V)	A15 Current(A)	A15 Power(W)	GPU Frequency(MHz)	GPU Temperature(C)	GPU Voltage(V)	GPU Current(A)	GPU Power(W)	RAM Voltage(V)	RAM Current(A)	RAM Power(W)
1538189245830267677	1100 60 1.100000 0.167000 0.191000 1800 47 1.200000 2.170000 2.636000 600 65 1.000000 0.053000 0.053000 1.200000 0.032000 0.038000
1538189246394152344	1100 64 1.100000 0.483000 0.540000 1800 49 1.200000 4.912000 6.027000 600 70 1.000000 0.053000 0.053000 1.200000 0.033000 0.039000
1538189246946186635	1100 66 1.100000 0.485000 0.543000 1800 50 1.200000 4.978000 6.108000 600 73 1.000000 0.053000 0.053000 1.200000 0.033000 0.039000
1538189247506166594	1100 67 1.100000 0.486000 0.544000 1800 52 1.200000 4.996000 6.130000 600 75 1.000000 0.054000 0.054000 1.200000 0.034000 0.041000
1538189248066183469	1100 68 1.100000 0.487000 0.545000 1800 53 1.200000 5.010000 6.147000 600 76 1.000000 0.054000 0.054000 1.200000 0.034000 0.041000
1538189248626188719	1100 69 1.100000 0.487000 0.545000 1800 53 1.200000 5.018000 6.157000 600 77 1.000000 0.054000 0.054000 1.200000 0.034000 0.041000
1538189249186201511	1100 70 1.100000 0.487000 0.545000 1800 54 1.200000 5.028000 6.169000 600 77 1.000000 0.055000 0.055000 1.200000 0.033000 0.039000
1538189249746184719	1100 70 1.100000 0.488000 0.546000 1800 55 1.200000 5.036000 6.179000 600 78 1.000000 0.054000 0.054000 1.200000 0.033000 0.039000
1538189250306204344	1100 71 1.100000 0.489000 0.547000 1800 55 1.200000 5.041000 6.185000 600 79 1.000000 0.055000 0.055000 1.200000 0.034000 0.041000
1538189250870170594	1100 71 1.100000 0.489000 0.547000 1800 55 1.200000 5.036000 6.179000 600 79 1.000000 0.055000 0.055000 1.200000 0.034000 0.041000
1538189251430206053	1100 71 1.100000 0.489000 0.547000 1800 55 1.200000 5.056000 6.203000 600 79 1.000000 0.055000 0.055000 1.200000 0.034000 0.041000
1538189251986180386	1100 72 1.100000 0.489000 0.547000 1800 56 1.200000 5.058000 6.211000 600 80 1.000000 0.055000 0.055000 1.200000 0.034000 0.041000
1538189252546189261	1100 72 1.100000 0.489000 0.547000 1800 56 1.200000 5.060000 6.208000 600 80 1.000000 0.055000 0.055000 1.200000 0.034000 0.041000
1538189253106181469	1100 72 1.100000 0.489000 0.547000 1800 56 1.200000 5.060000 6.213000 600 80 1.000000 0.055000 0.055000 1.200000 0.034000 0.041000
1538189253662163220	1100 72 1.100000 0.490000 0.548000 1800 56 1.200000 5.066000 6.221000 600 80 1.000000 0.055000 0.055000 1.200000 0.034000 0.041000
1538189254222180511	1100 73 1.100000 0.490000 0.548000 1800 56 1.200000 5.065000 6.219000 600 81 1.000000 0.055000 0.055000 1.200000 0.033000 0.039000
1538189254782204345	1100 73 1.100000 0.490000 0.548000 1800 57 1.200000 5.064000 6.218000 600 81 1.000000 0.055000 0.055000 1.200000 0.033000 0.039000
1538189255342184095	1100 73 1.100000 0.490000 0.548000 1800 57 1.200000 5.065000 6.219000 600 81 1.000000 0.055000 0.055000 1.200000 0.034000 0.041000
1538189255902183053	1100 73 1.100000 0.490000 0.548000 1800 57 1.200000 5.055000 6.207000 600 81 1.000000 0.055000 0.055000 1.200000 0.033000 0.039000
1538189256466129012	1100 73 1.100000 0.490000 0.548000 1800 57 1.200000 5.075000 6.232000 600 81 1.000000 0.055000 0.055000 1.200000 0.033000 0.039000
1538189257022165762	1100 73 1.100000 0.490000 0.548000 1800 57 1.200000 5.062000 6.216000 600 81 1.000000 0.055000 0.055000 1.200000 0.033000 0.039000
1538189257578191178	1100 73 1.100000 0.490000 0.548000 1800 57 1.200000 5.079000 6.237000 600 81 1.000000 0.055000 0.055000 1.200000 0.033000 0.039000
1538189258138177428	1100 73 1.100000 0.490000 0.548000 1800 57 1.200000 5.079000 6.237000 600 81 1.000000 0.055000 0.055000 1.200000 0.034000 0.041000
1538189258690215345	1100 73 1.100000 0.490000 0.548000 1800 57 1.200000 5.082000 6.240000 600 81 1.000000 0.055000 0.055000 1.200000 0.033000 0.039000
1538189259246182054	1100 73 1.100000 0.490000 0.548000 1800 57 1.200000 5.081000 6.239000 600 81 1.000000 0.055000 0.055000 1.200000 0.033000 0.039000
1538189259802120304	1100 73 1.100000 0.490000 0.548000 1800 57 1.200000 5.081000 6.239000 600 81 1.000000 0.055000 0.055000 1.200000 0.034000 0.041000
1538189260362177970	1100 74 1.100000 0.490000 0.548000 1800 57 1.200000 5.075000 6.232000 600 81 1.000000 0.055000 0.055000 1.200000 0.033000 0.039000
1538189260910188220	1100 73 1.100000 0.490000 0.548000 1800 57 1.200000 5.080000 6.238000 600 81 1.000000 0.055000 0.055000 1.200000 0.034000 0.041000
1538189261458153220	1100 73 1.100000 0.490000 0.548000 1800 57 1.200000 5.076000 6.233000 600 81 1.000000 0.055000 0.055000 1.200000 0.033000 0.039000
1538189262018163096	1100 74 1.100000 0.490000 0.548000 1800 57 1.200000 5.077000 6.234000 600 82 1.000000 0.055000 0.055000 1.200000 0.033000 0.039000
1538189262578180554	1100 74 1.100000 0.491000 0.549000 1800 58 1.200000 5.067000 6.222000 600 82 1.000000 0.055000 0.055000 1.200000 0.033000 0.039000
1538189263130169471	1100 74 1.100000 0.491000 0.549000 1800 57 1.200000 5.107000 6.271000 600 82 1.000000 0.055000 0.055000 1.200000 0.033000 0.039000
1538189263682124471	1100 74 1.100000 0.491000 0.549000 1800 58 1.200000 5.094000 6.255000 600 82 1.000000 0.055000 0.055000 1.200000 0.033000 0.039000
1538189264242176346	1100 74 1.100000 0.490000 0.548000 1800 58 1.200000 5.090000 6.250000 600 82 1.000000 0.055000 0.055000 1.200000 0.033000 0.039000
1538189264798183054	1100 74 1.100000 0.492000 0.551000 1800 58 1.200000 5.090000 6.250000 600 82 1.000000 0.055000 0.055000 1.200000 0.032000 0.038000
1538189265362129304	1100 74 1.100000 0.493000 0.552000 1800 58 1.200000 5.105000 6.268000 600 82 1.000000 0.055000 0.055000 1.200000 0.033000 0.039000
1538189265918188554	1100 74 1.100000 0.492000 0.551000 1800 58 1.200000 5.106000 6.270000 600 82 1.000000 0.055000 0.055000 1.200000 0.033000 0.039000
1538189266486161471	1100 74 1.100000 0.493000 0.552000 1800 58 1.200000 5.105000 6.268000 600 82 1.000000 0.055000 0.055000 1.200000 0.032000 0.038000
1538189267046158471	1100 74 1.100000 0.493000 0.551000 1800 58 1.200000 5.095000 6.256000 600 82 1.000000 0.055000 0.055000 1.200000 0.032000 0.038000
1538189267606169221	1100 74 1.100000 0.492000 0.551000 1800 58 1.200000 5.104000 6.267000 600 82 1.000000 0.056000 0.056000 1.200000 0.032000 0.038000
1538189268162206805	1100 74 1.100000 0.493000 0.552000 1800 58 1.200000 5.109000 6.273000 600 82 1.000000 0.056000 0.056000 1.200000 0.032000 0.038000
1538189268706179846	1100 74 1.100000 0.493000 0.552000 1800 58 1.200000 5.082000 6.240000 600 82 1.000000 0.055000 0.055000 1.200000 0.032000 0.038000
1538189269266171638	1100 74 1.100000 0.492000 0.550000 1800 58 1.200000 5.088000 6.248000 600 82 1.000000 0.055000 0.055000 1.200000 0.032000 0.038000
1538189269830154555	1100 74 1.100000 0.492000 0.551000 1800 58 1.200000 5.092000 6.252000 600 82 1.000000 0.055000 0.055000 1.200000 0.032000 0.038000
1538189270382177888	1100 74 1.100000 0.493000 0.551000 1800 58 1.200000 5.088000 6.248000 600 82 1.000000 0.056000 0.056000 1.200000 0.032000 0.038000
1538189270942149138	1100 74 1.100000 0.492000 0.550000 1800 58 1.200000 5.081000 6.239000 600 82 1.000000 0.055000 0.055000 1.200000 0.033000 0.039000
1538189271510137763	1100 74 1.100000 0.493000 0.551000 1800 58 1.200000 5.095000 6.256000 600 82 1.000000 0.056000 0.056000 1.200000 0.032000 0.038000
1538189272066175013	1100 74 1.100000 0.493000 0.552000 1800 58 1.200000 5.094000 6.255000 600 82 1.000000 0.055000 0.055000 1.200000 0.032000 0.038000
1538189272618190013	1100 74 1.100000 0.493000 0.552000 1800 58 1.200000 5.078000 6.235000 600 82 1.000000 0.055000 0.055000 1.200000 0.032000 0.038000
1538189273174191889	1100 74 1.100000 0.493000 0.552000 1800 58 1.200000 5.071000 6.227000 600 82 1.000000 0.055000 0.055000 1.200000 0.032000 0.038000
1538189273734121180	1100 74 1.100000 0.493000 0.552000 1800 58 1.200000 5.083000 6.241000 600 82 1.000000 0.055000 0.055000 1.200000 0.033000 0.039000
1538189274298182430	1100 74 1.100000 0.493000 0.552000 1800 58 1.200000 5.086000 6.245000 600 82 1.000000 0.055000 0.055000 1.200000 0.032000 0.038000
1538189274858198139	1100 74 1.100000 0.492000 0.551000 1800 58 1.200000 5.067000 6.222000 600 82 1.000000 0.055000 0.055000 1.200000 0.033000 0.039000
1538189275418387847	1100 74 1.100000 0.492000 0.551000 1800 58 1.200000 5.062000 6.216000 600 82 1.000000 0.055000 0.055000 1.200000 0.032000 0.038000
1538189275978176639	1100 74 1.100000 0.492000 0.550000 1800 58 1.200000 5.079000 6.237000 600 82 1.000000 0.055000 0.055000 1.200000 0.032000 0.038000
1538189276538189722	1100 74 1.100000 0.493000 0.552000 1800 58 1.200000 5.080000 6.238000 600 82 1.000000 0.055000 0.055000 1.200000 0.032000 0.038000
1538189277098151847	1100 74 1.100000 0.493000 0.552000 1800 58 1.200000 5.079000 6.237000 600 82 1.000000 0.055000 0.055000 1.200000 0.032000 0.038000
1538189277650167222	1100 74 1.100000 0.493000 0.552000 1800 58 1.200000 5.074000 6.230000 600 82 1.000000 0.055000 0.055000 1.200000 0.032000 0.038000
1538189278210173347	1100 74 1.100000 0.493000 0.552000 1800 58 1.200000 5.067000 6.222000 600 82 1.000000 0.055000 0.055000 1.200000 0.032000 0.038000
1538189278762128764	1100 74 1.100000 0.492000 0.551000 1800 58 1.200000 5.071000 6.227000 600 82 1.000000 0.055000 0.055000 1.200000 0.033000 0.039000
1538189279310157181	1100 74 1.100000 0.493000 0.551000 1800 58 1.200000 5.067000 6.222000 600 82 1.000000 0.055000 0.055000 1.200000 0.032000 0.038000
1538189279874171848	1100 74 1.100000 0.493000 0.552000 1800 58 1.200000 5.060000 6.213000 600 82 1.000000 0.055000 0.055000 1.200000 0.032000 0.038000
1538189280426190306	1100 74 1.100000 0.493000 0.552000 1800 58 1.200000 5.059000 6.212000 600 82 1.000000 0.055000 0.055000 1.200000 0.032000 0.038000
1538189280990193514	1100 74 1.100000 0.493000 0.552000 1800 58 1.200000 5.079000 6.237000 600 82 1.000000 0.056000 0.056000 1.200000 0.032000 0.038000
1538189281542150598	1100 74 1.100000 0.492000 0.551000 1800 58 1.200000 5.081000 6.239000 600 82 1.000000 0.055000 0.055000 1.200000 0.033000 0.039000
1538189282094136848	1100 74 1.100000 0.493000 0.552000 1800 58 1.200000 5.079000 6.237000 600 82 1.000000 0.055000 0.055000 1.200000 0.033000 0.039000
1538189282654186265	1100 74 1.100000 0.493000 0.552000 1800 58 1.200000 5.082000 6.240000 600 82 1.000000 0.055000 0.055000 1.200000 0.033000 0.039000
1538189283214175223	1100 74 1.100000 0.493000 0.551000 1800 58 1.200000 5.083000 6.241000 600 82 1.000000 0.056000 0.056000 1.200000 0.033000 0.039000
1538189283766170306	1100 74 1.100000 0.493000 0.551000 1800 58 1.200000 5.069000 6.224000 600 82 1.000000 0.055000 0.055000 1.200000 0.033000 0.039000
1538189284322191807	1100 74 1.100000 0.492000 0.551000 1800 58 1.200000 5.063000 6.217000 600 82 1.000000 0.055000 0.055000 1.200000 0.033000 0.039000
1538189284874191223	1100 74 1.100000 0.492000 0.550000 1800 58 1.200000 5.071000 6.227000 600 82 1.000000 0.055000 0.055000 1.200000 0.033000 0.039000
1538189285430191307	1100 74 1.100000 0.493000 0.551000 1800 58 1.200000 5.068000 6.223000 600 82 1.000000 0.056000 0.056000 1.200000 0.034000 0.041000
1538189285990198473	1100 74 1.100000 0.493000 0.552000 1800 58 1.200000 5.143000 6.315000 600 82 1.000000 0.056000 0.056000 1.200000 0.034000 0.041000
1538189286550203848	1100 74 1.100000 0.493000 0.552000 1800 58 1.200000 5.142000 6.314000 600 82 1.000000 0.055000 0.055000 1.200000 0.033000 0.039000
1538189287110145015	1100 74 1.100000 0.493000 0.552000 1800 58 1.200000 5.148000 6.321000 600 82 1.000000 0.056000 0.056000 1.200000 0.033000 0.039000
1538189287666155099	1100 74 1.100000 0.493000 0.552000 1800 58 1.200000 5.147000 6.320000 600 82 1.000000 0.055000 0.055000 1.200000 0.033000 0.039000
1538189288226169640	1100 75 1.100000 0.493000 0.552000 1800 58 1.200000 5.149000 6.322000 600 83 1.000000 0.055000 0.055000 1.200000 0.033000 0.039000
1538189288778190974	1100 75 1.100000 0.493000 0.552000 1800 58 1.200000 5.144000 6.316000 600 83 1.000000 0.056000 0.056000 1.200000 0.034000 0.041000
1538189289338192682	1100 74 1.100000 0.493000 0.552000 1800 58 1.200000 5.139000 6.310000 600 83 1.000000 0.056000 0.056000 1.200000 0.034000 0.041000
1538189289886145099	1100 75 1.100000 0.493000 0.552000 1800 58 1.200000 5.145000 6.318000 600 83 1.000000 0.055000 0.055000 1.200000 0.034000 0.041000
1538189290446140474	1100 75 1.100000 0.493000 0.552000 1800 58 1.200000 5.141000 6.313000 600 83 1.000000 0.056000 0.056000 1.200000 0.033000 0.039000
1538189291002209849	1100 75 1.100000 0.493000 0.552000 1800 58 1.200000 5.146000 6.319000 600 83 1.000000 0.056000 0.056000 1.200000 0.033000 0.039000
1538189291558168266	1100 75 1.100000 0.493000 0.552000 1800 58 1.200000 5.136000 6.307000 600 83 1.000000 0.056000 0.056000 1.200000 0.033000 0.039000
1538189292118142932	1100 75 1.100000 0.493000 0.552000 1800 58 1.200000 5.138000 6.309000 600 83 1.000000 0.056000 0.056000 1.200000 0.033000 0.039000
1538189292670210016	1100 75 1.100000 0.493000 0.552000 1800 58 1.200000 5.136000 6.307000 600 83 1.000000 0.056000 0.056000 1.200000 0.033000 0.039000
1538189293234138308	1100 75 1.100000 0.493000 0.552000 1800 58 1.200000 5.136000 6.307000 600 83 1.000000 0.056000 0.056000 1.200000 0.034000 0.041000
1538189293786178058	1100 75 1.100000 0.493000 0.552000 1800 58 1.200000 5.140000 6.311000 600 83 1.000000 0.055000 0.055000 1.200000 0.034000 0.041000
1538189294346189516	1100 75 1.100000 0.493000 0.551000 1800 58 1.200000 5.138000 6.309000 600 83 1.000000 0.056000 0.056000 1.200000 0.034000 0.041000
1538189294906194933	1100 75 1.100000 0.493000 0.551000 1800 58 1.200000 5.138000 6.309000 600 83 1.000000 0.056000 0.056000 1.200000 0.034000 0.041000
1538189295466157725	1100 75 1.100000 0.493000 0.552000 1800 58 1.200000 5.136000 6.307000 600 83 1.000000 0.056000 0.056000 1.200000 0.033000 0.039000
1538189296026156391	1100 75 1.100000 0.493000 0.552000 1800 58 1.200000 5.137000 6.308000 600 83 1.000000 0.056000 0.056000 1.200000 0.033000 0.039000
1538189296582177558	1100 75 1.100000 0.493000 0.552000 1800 58 1.200000 5.127000 6.295000 600 83 1.000000 0.055000 0.055000 1.200000 0.033000 0.039000
1538189297134191350	1100 75 1.100000 0.493000 0.552000 1800 58 1.200000 5.128000 6.297000 600 83 1.000000 0.056000 0.056000 1.200000 0.033000 0.039000
1538189297694131600	1100 75 1.100000 0.493000 0.552000 1800 58 1.200000 5.113000 6.278000 600 83 1.000000 0.056000 0.056000 1.200000 0.034000 0.041000
1538189298250170517	1100 75 1.100000 0.493000 0.552000 1800 58 1.200000 5.107000 6.271000 600 83 1.000000 0.056000 0.056000 1.200000 0.034000 0.041000
1538189298806179517	1100 75 1.100000 0.493000 0.552000 1800 58 1.200000 5.110000 6.275000 600 83 1.000000 0.056000 0.056000 1.200000 0.033000 0.039000
1538189299366203267	1100 75 1.100000 0.493000 0.552000 1800 58 1.200000 5.112000 6.277000 600 83 1.000000 0.055000 0.055000 1.200000 0.033000 0.039000
1538189299918146433	1100 75 1.100000 0.493000 0.552000 1800 58 1.200000 5.108000 6.272000 600 83 1.000000 0.056000 0.056000 1.200000 0.033000 0.039000
1538189300466149683	1100 75 1.100000 0.493000 0.552000 1800 58 1.200000 5.119000 6.286000 600 83 1.000000 0.055000 0.055000 1.200000 0.033000 0.039000
1538189301026180225	1100 74 1.100000 0.493000 0.552000 1800 58 1.200000 5.119000 6.286000 600 83 1.000000 0.055000 0.055000 1.200000 0.033000 0.039000
1538189301574205475	1100 75 1.100000 0.493000 0.552000 1800 58 1.200000 5.107000 6.271000 600 83 1.000000 0.056000 0.056000 1.200000 0.032000 0.038000
1538189302134169309	1100 75 1.100000 0.492000 0.551000 1800 58 1.200000 5.101000 6.264000 600 83 1.000000 0.056000 0.056000 1.200000 0.033000 0.039000
1538189302698160059	1100 75 1.100000 0.491000 0.549000 1800 58 1.200000 5.105000 6.268000 600 83 1.000000 0.055000 0.055000 1.200000 0.031000 0.037000
1538189303254183725	1100 75 1.100000 0.491000 0.549000 1800 58 1.200000 5.137000 6.308000 600 83 1.000000 0.056000 0.056000 1.200000 0.031000 0.037000
1538189303814187309	1100 75 1.100000 0.491000 0.549000 1800 58 1.200000 5.127000 6.295000 600 83 1.000000 0.056000 0.056000 1.200000 0.032000 0.038000
1538189304374176767	1100 75 1.100000 0.491000 0.549000 1800 58 1.200000 5.119000 6.286000 600 83 1.000000 0.056000 0.056000 1.200000 0.032000 0.038000
1538189304918154184	1100 75 1.100000 0.491000 0.549000 1800 58 1.200000 5.134000 6.304000 600 83 1.000000 0.056000 0.056000 1.200000 0.032000 0.038000
1538189305478200184	1100 75 1.100000 0.491000 0.549000 1800 58 1.200000 5.138000 6.309000 600 83 1.000000 0.056000 0.056000 1.200000 0.032000 0.038000
1538189306038155684	1100 75 1.100000 0.491000 0.549000 1800 58 1.200000 5.137000 6.308000 600 83 1.000000 0.055000 0.055000 1.200000 0.031000 0.037000
1538189306586200851	1100 75 1.100000 0.491000 0.549000 1800 59 1.200000 5.137000 6.308000 600 83 1.000000 0.055000 0.055000 1.200000 0.031000 0.037000
1538189307146192351	1100 75 1.100000 0.491000 0.549000 1800 58 1.200000 5.137000 6.308000 600 83 1.000000 0.056000 0.056000 1.200000 0.031000 0.037000
1538189307690165684	1100 75 1.100000 0.491000 0.549000 1800 58 1.200000 5.140000 6.311000 600 83 1.000000 0.056000 0.056000 1.200000 0.031000 0.037000
1538189308246208559	1100 75 1.100000 0.491000 0.549000 1800 58 1.200000 5.131000 6.300000 600 83 1.000000 0.056000 0.056000 1.200000 0.031000 0.037000
1538189308798194893	1100 75 1.100000 0.491000 0.549000 1800 58 1.200000 5.131000 6.300000 600 83 1.000000 0.055000 0.055000 1.200000 0.031000 0.037000
1538189309358148935	1100 75 1.100000 0.491000 0.549000 1800 59 1.200000 5.153000 6.327000 600 83 1.000000 0.056000 0.056000 1.200000 0.031000 0.037000
1538189309906166685	1100 75 1.100000 0.491000 0.549000 1800 58 1.200000 5.155000 6.330000 600 83 1.000000 0.056000 0.056000 1.200000 0.031000 0.037000
1538189310470137018	1100 75 1.100000 0.491000 0.549000 1800 59 1.200000 5.162000 6.338000 600 83 1.000000 0.056000 0.056000 1.200000 0.032000 0.038000
1538189311030181976	1100 75 1.100000 0.491000 0.549000 1800 59 1.200000 5.165000 6.342000 600 83 1.000000 0.056000 0.056000 1.200000 0.032000 0.038000
1538189311582185560	1100 75 1.100000 0.491000 0.549000 1800 59 1.200000 5.167000 6.345000 600 83 1.000000 0.056000 0.056000 1.200000 0.031000 0.037000
1538189312146177393	1100 75 1.100000 0.491000 0.549000 1800 58 1.200000 5.168000 6.346000 600 83 1.000000 0.056000 0.056000 1.200000 0.031000 0.037000
1538189312710171310	1100 75 1.100000 0.491000 0.549000 1800 59 1.200000 5.165000 6.342000 600 83 1.000000 0.056000 0.056000 1.200000 0.031000 0.037000
1538189313266197393	1100 75 1.100000 0.491000 0.549000 1800 59 1.200000 5.163000 6.340000 600 83 1.000000 0.056000 0.056000 1.200000 0.031000 0.037000
1538189313806200060	1100 75 1.100000 0.491000 0.549000 1800 59 1.200000 5.157000 6.332000 600 83 1.000000 0.056000 0.056000 1.200000 0.032000 0.038000
1538189314366181852	1100 75 1.100000 0.491000 0.549000 1800 59 1.200000 5.155000 6.330000 600 83 1.000000 0.056000 0.056000 1.200000 0.032000 0.038000
1538189314922179935	1100 75 1.100000 0.491000 0.549000 1800 59 1.200000 5.104000 6.267000 600 83 1.000000 0.056000 0.056000 1.200000 0.031000 0.037000
1538189315470152977	1100 75 1.100000 0.491000 0.549000 1800 58 1.200000 5.104000 6.267000 600 83 1.000000 0.056000 0.056000 1.200000 0.031000 0.037000
1538189316034126352	1100 75 1.100000 0.491000 0.549000 1800 58 1.200000 5.107000 6.271000 600 83 1.000000 0.056000 0.056000 1.200000 0.031000 0.037000
1538189316582182560	1100 75 1.100000 0.491000 0.549000 1800 58 1.200000 5.113000 6.278000 600 83 1.000000 0.056000 0.056000 1.200000 0.031000 0.037000
1538189317142129352	1100 75 1.100000 0.491000 0.549000 1800 58 1.200000 5.113000 6.278000 600 83 1.000000 0.056000 0.056000 1.200000 0.031000 0.037000
1538189317702190019	1100 75 1.100000 0.491000 0.548000 1800 58 1.200000 5.110000 6.275000 600 83 1.000000 0.056000 0.056000 1.200000 0.031000 0.037000
1538189318262163602	1100 75 1.100000 0.490000 0.548000 1800 58 1.200000 5.112000 6.277000 600 83 1.000000 0.056000 0.056000 1.200000 0.032000 0.038000
1538189318822161019	1100 75 1.100000 0.491000 0.549000 1800 59 1.200000 5.112000 6.277000 600 83 1.000000 0.056000 0.056000 1.200000 0.031000 0.037000
1538189319374162394	1100 75 1.100000 0.491000 0.549000 1800 58 1.200000 5.105000 6.268000 600 83 1.000000 0.056000 0.056000 1.200000 0.031000 0.037000
1538189319934177644	1100 75 1.100000 0.491000 0.549000 1800 58 1.200000 5.105000 6.268000 600 83 1.000000 0.055000 0.055000 1.200000 0.032000 0.038000
1538189320486244853	1100 75 1.100000 0.490000 0.548000 1800 58 1.200000 5.092000 6.252000 600 83 1.000000 0.056000 0.056000 1.200000 0.032000 0.038000
1538189321046188436	1100 75 1.100000 0.492000 0.551000 1800 58 1.200000 5.098000 6.260000 600 83 1.000000 0.055000 0.055000 1.200000 0.031000 0.037000
1538189321610173603	1100 75 1.100000 0.495000 0.554000 1800 59 1.200000 5.098000 6.260000 600 83 1.000000 0.056000 0.056000 1.200000 0.033000 0.039000
1538189322158176728	1100 75 1.100000 0.495000 0.554000 1800 58 1.200000 5.102000 6.265000 600 83 1.000000 0.055000 0.055000 1.200000 0.033000 0.039000
1538189322706182603	1100 75 1.100000 0.495000 0.554000 1800 59 1.200000 5.102000 6.265000 600 83 1.000000 0.056000 0.056000 1.200000 0.034000 0.041000
1538189323266177603	1100 75 1.100000 0.495000 0.554000 1800 58 1.200000 5.100000 6.262000 600 83 1.000000 0.056000 0.056000 1.200000 0.033000 0.039000
1538189323826171311	1100 75 1.100000 0.495000 0.554000 1800 58 1.200000 5.098000 6.260000 600 83 1.000000 0.056000 0.056000 1.200000 0.033000 0.039000
1538189324382184395	1100 75 1.100000 0.494000 0.553000 1800 58 1.200000 5.097000 6.259000 600 83 1.000000 0.055000 0.055000 1.200000 0.033000 0.039000
1538189324930137353	1100 75 1.100000 0.495000 0.554000 1800 58 1.200000 5.097000 6.259000 600 83 1.000000 0.055000 0.055000 1.200000 0.033000 0.039000
1538189325494162561	1100 75 1.100000 0.495000 0.554000 1800 58 1.200000 5.090000 6.250000 600 83 1.000000 0.056000 0.056000 1.200000 0.034000 0.041000
1538189326042198895	1100 75 1.100000 0.494000 0.553000 1800 58 1.200000 5.083000 6.241000 600 83 1.000000 0.055000 0.055000 1.200000 0.034000 0.041000
1538189326606178353	1100 75 1.100000 0.495000 0.554000 1800 58 1.200000 5.082000 6.240000 600 83 1.000000 0.056000 0.056000 1.200000 0.033000 0.039000
1538189327162214937	1100 75 1.100000 0.495000 0.554000 1800 58 1.200000 5.104000 6.267000 600 83 1.000000 0.056000 0.056000 1.200000 0.033000 0.039000
1538189327714125270	1100 75 1.100000 0.495000 0.554000 1800 58 1.200000 5.104000 6.267000 600 83 1.000000 0.055000 0.055000 1.200000 0.033000 0.039000
1538189328274154103	1100 75 1.100000 0.495000 0.554000 1800 58 1.200000 5.102000 6.265000 600 83 1.000000 0.056000 0.056000 1.200000 0.034000 0.041000
1538189328834192020	1100 75 1.100000 0.495000 0.554000 1800 58 1.200000 5.102000 6.265000 600 83 1.000000 0.056000 0.056000 1.200000 0.033000 0.039000
1538189329394197437	1100 75 1.100000 0.495000 0.554000 1800 58 1.200000 5.102000 6.265000 600 83 1.000000 0.056000 0.056000 1.200000 0.033000 0.039000
1538189329958201270	1100 75 1.100000 0.495000 0.554000 1800 58 1.200000 5.104000 6.267000 600 83 1.000000 0.056000 0.056000 1.200000 0.033000 0.039000
1538189330514183145	1100 75 1.100000 0.495000 0.554000 1800 59 1.200000 5.102000 6.265000 600 83 1.000000 0.056000 0.056000 1.200000 0.033000 0.039000
1538189331074169812	1100 75 1.100000 0.494000 0.553000 1800 58 1.200000 5.094000 6.255000 600 83 1.000000 0.055000 0.055000 1.200000 0.033000 0.039000
1538189331622158354	1100 75 1.100000 0.495000 0.554000 1800 58 1.200000 5.105000 6.268000 600 83 1.000000 0.056000 0.056000 1.200000 0.033000 0.039000
1538189332182178937	1100 75 1.100000 0.494000 0.553000 1800 58 1.200000 5.126000 6.294000 600 83 1.000000 0.056000 0.056000 1.200000 0.033000 0.039000
1538189332742183979	1100 75 1.100000 0.495000 0.553000 1800 59 1.200000 5.130000 6.299000 600 83 1.000000 0.056000 0.056000 1.200000 0.033000 0.039000
1538189333302142312	1100 75 1.100000 0.494000 0.552000 1800 58 1.200000 5.122000 6.289000 600 83 1.000000 0.056000 0.056000 1.200000 0.033000 0.039000
1538189333862201979	1100 75 1.100000 0.494000 0.552000 1800 59 1.200000 5.115000 6.281000 600 83 1.000000 0.056000 0.056000 1.200000 0.034000 0.041000
1538189334414143063	1100 75 1.100000 0.494000 0.552000 1800 58 1.200000 5.129000 6.298000 600 83 1.000000 0.056000 0.056000 1.200000 0.034000 0.041000
1538189334966168063	1100 75 1.100000 0.495000 0.553000 1800 58 1.200000 5.129000 6.298000 600 83 1.000000 0.056000 0.056000 1.200000 0.033000 0.039000
1538189335510195021	1100 75 1.100000 0.494000 0.553000 1800 59 1.200000 5.122000 6.289000 600 83 1.000000 0.055000 0.055000 1.200000 0.033000 0.039000
1538189336066174104	1100 75 1.100000 0.494000 0.553000 1800 58 1.200000 5.123000 6.291000 600 83 1.000000 0.056000 0.056000 1.200000 0.033000 0.039000
1538189336622170979	1100 75 1.100000 0.495000 0.553000 1800 59 1.200000 5.122000 6.289000 600 83 1.000000 0.055000 0.055000 1.200000 0.034000 0.041000
1538189337170212438	1100 75 1.100000 0.495000 0.554000 1800 59 1.200000 5.135000 6.305000 600 83 1.000000 0.056000 0.056000 1.200000 0.033000 0.039000
1538189337718139063	1100 75 1.100000 0.495000 0.554000 1800 59 1.200000 5.091000 6.251000 600 83 1.000000 0.056000 0.056000 1.200000 0.033000 0.039000
1538189338274153396	1100 75 1.100000 0.495000 0.554000 1800 58 1.200000 5.079000 6.237000 600 83 1.000000 0.056000 0.056000 1.200000 0.033000 0.039000
1538189338834227938	1100 75 1.100000 0.495000 0.554000 1800 58 1.200000 5.067000 6.222000 600 83 1.000000 0.056000 0.056000 1.200000 0.033000 0.039000
1538189339386189605	1100 75 1.100000 0.494000 0.552000 1800 58 1.200000 5.067000 6.222000 600 83 1.000000 0.055000 0.055000 1.200000 0.033000 0.039000
1538189339946138688	1100 75 1.100000 0.493000 0.551000 1800 58 1.200000 5.068000 6.218000 600 83 1.000000 0.056000 0.056000 1.200000 0.033000 0.039000
1538189340506180147	1100 75 1.100000 0.492000 0.551000 1800 58 1.200000 5.078000 6.230000 600 83 1.000000 0.055000 0.055000 1.200000 0.032000 0.038000
1538189341058163188	1100 75 1.100000 0.492000 0.551000 1800 58 1.200000 5.081000 6.239000 600 83 1.000000 0.055000 0.055000 1.200000 0.033000 0.039000
1538189341610162188	1100 75 1.100000 0.492000 0.551000 1800 58 1.200000 5.083000 6.241000 600 83 1.000000 0.055000 0.055000 1.200000 0.032000 0.038000
1538189342170208188	1100 75 1.100000 0.492000 0.551000 1800 58 1.200000 5.071000 6.227000 600 82 1.000000 0.055000 0.055000 1.200000 0.033000 0.039000
1538189342714177564	1100 74 1.100000 0.492000 0.550000 1800 58 1.200000 5.086000 6.245000 600 82 1.000000 0.056000 0.056000 1.200000 0.032000 0.038000
1538189343266159772	1100 75 1.100000 0.492000 0.550000 1800 58 1.200000 5.122000 6.289000 600 82 1.000000 0.055000 0.055000 1.200000 0.033000 0.039000
1538189343818176772	1100 75 1.100000 0.492000 0.551000 1800 58 1.200000 5.131000 6.300000 600 82 1.000000 0.055000 0.055000 1.200000 0.032000 0.038000
1538189344378128147	1100 75 1.100000 0.492000 0.551000 1800 59 1.200000 5.127000 6.295000 600 82 1.000000 0.055000 0.055000 1.200000 0.032000 0.038000
1538189344918195314	1100 75 1.100000 0.491000 0.549000 1800 58 1.200000 5.125000 6.293000 600 82 1.000000 0.056000 0.056000 1.200000 0.032000 0.038000
1538189345474171022	1100 75 1.100000 0.492000 0.551000 1800 59 1.200000 5.123000 6.291000 600 82 1.000000 0.055000 0.055000 1.200000 0.032000 0.038000
1538189346030165856	1100 75 1.100000 0.492000 0.551000 1800 58 1.200000 5.127000 6.295000 600 82 1.000000 0.056000 0.056000 1.200000 0.033000 0.039000
1538189346582172856	1100 75 1.100000 0.492000 0.551000 1800 59 1.200000 5.120000 6.287000 600 83 1.000000 0.055000 0.055000 1.200000 0.032000 0.038000
1538189347138179439	1100 75 1.100000 0.492000 0.551000 1800 59 1.200000 5.109000 6.268000 600 82 1.000000 0.056000 0.056000 1.200000 0.032000 0.038000
1538189347698145147	1100 75 1.100000 0.492000 0.551000 1800 59 1.200000 5.122000 6.289000 600 83 1.000000 0.055000 0.055000 1.200000 0.033000 0.039000
1538189348250112606	1100 75 1.100000 0.492000 0.551000 1800 59 1.200000 5.132000 6.302000 600 82 1.000000 0.055000 0.055000 1.200000 0.032000 0.038000
1538189348802189189	1100 75 1.100000 0.492000 0.551000 1800 59 1.200000 5.142000 6.314000 600 83 1.000000 0.056000 0.056000 1.200000 0.032000 0.038000
1538189349354163189	1100 75 1.100000 0.492000 0.551000 1800 58 1.200000 5.103000 6.266000 600 83 1.000000 0.056000 0.056000 1.200000 0.032000 0.038000
1538189349902147439	1100 75 1.100000 0.492000 0.551000 1800 59 1.200000 5.104000 6.267000 600 83 1.000000 0.056000 0.056000 1.200000 0.032000 0.038000
1538189350454195064	1100 75 1.100000 0.492000 0.551000 1800 58 1.200000 5.103000 6.266000 600 83 1.000000 0.056000 0.056000 1.200000 0.032000 0.038000
1538189351010162273	1100 75 1.100000 0.492000 0.551000 1800 59 1.200000 5.094000 6.255000 600 83 1.000000 0.056000 0.056000 1.200000 0.032000 0.038000
1538189351570187815	1100 75 1.100000 0.492000 0.551000 1800 58 1.200000 5.096000 6.257000 600 83 1.000000 0.056000 0.056000 1.200000 0.032000 0.038000
1538189352122159940	1100 75 1.100000 0.492000 0.551000 1800 58 1.200000 5.100000 6.262000 600 83 1.000000 0.055000 0.055000 1.200000 0.032000 0.038000
1538189352670172565	1100 75 1.100000 0.492000 0.551000 1800 58 1.200000 5.097000 6.259000 600 83 1.000000 0.055000 0.055000 1.200000 0.033000 0.039000
1538189353230176398	1100 75 1.100000 0.492000 0.551000 1800 58 1.200000 5.092000 6.252000 600 83 1.000000 0.055000 0.055000 1.200000 0.032000 0.038000
1538189353782192898	1100 75 1.100000 0.492000 0.551000 1800 58 1.200000 5.099000 6.261000 600 83 1.000000 0.055000 0.055000 1.200000 0.033000 0.039000
1538189354342132982	1100 75 1.100000 0.492000 0.551000 1800 58 1.200000 5.116000 6.282000 600 83 1.000000 0.056000 0.056000 1.200000 0.032000 0.038000
1538189354902164065	1100 75 1.100000 0.492000 0.551000 1800 58 1.200000 5.116000 6.282000 600 83 1.000000 0.055000 0.055000 1.200000 0.032000 0.038000
1538189355462156815	1100 75 1.100000 0.492000 0.551000 1800 59 1.200000 5.104000 6.267000 600 83 1.000000 0.056000 0.056000 1.200000 0.032000 0.038000
1538189356018167107	1100 75 1.100000 0.492000 0.551000 1800 58 1.200000 5.105000 6.268000 600 83 1.000000 0.056000 0.056000 1.200000 0.032000 0.038000
1538189356570164190	1100 75 1.100000 0.492000 0.551000 1800 58 1.200000 5.103000 6.266000 600 83 1.000000 0.056000 0.056000 1.200000 0.032000 0.038000
1538189357134168149	1100 75 1.100000 0.492000 0.551000 1800 58 1.200000 5.099000 6.261000 600 83 1.000000 0.056000 0.056000 1.200000 0.033000 0.039000
1538189357686195024	1100 75 1.100000 0.492000 0.551000 1800 59 1.200000 5.096000 6.257000 600 83 1.000000 0.055000 0.055000 1.200000 0.033000 0.039000
1538189358238127690	1100 75 1.100000 0.492000 0.551000 1800 58 1.200000 5.101000 6.264000 600 83 1.000000 0.056000 0.056000 1.200000 0.033000 0.039000
1538189358798153274	1100 75 1.100000 0.492000 0.550000 1800 59 1.200000 5.100000 6.262000 600 83 1.000000 0.055000 0.055000 1.200000 0.033000 0.039000
1538189359358177357	1100 75 1.100000 0.492000 0.551000 1800 58 1.200000 5.101000 6.264000 600 82 1.000000 0.056000 0.056000 1.200000 0.032000 0.038000
1538189359910170232	1100 75 1.100000 0.492000 0.551000 1800 58 1.200000 5.097000 6.259000 600 82 1.000000 0.056000 0.056000 1.200000 0.032000 0.038000
1538189360462174191	1100 75 1.100000 0.492000 0.551000 1800 58 1.200000 5.094000 6.255000 600 83 1.000000 0.056000 0.056000 1.200000 0.032000 0.038000
1538189361018165399	1100 75 1.100000 0.492000 0.551000 1800 58 1.200000 5.138000 6.309000 600 83 1.000000 0.056000 0.056000 1.200000 0.032000 0.038000
1538189361582161691	1100 75 1.100000 0.492000 0.551000 1800 59 1.200000 5.137000 6.308000 600 83 1.000000 0.056000 0.056000 1.200000 0.032000 0.038000
1538189362142162732	1100 75 1.100000 0.492000 0.551000 1800 58 1.200000 5.137000 6.308000 600 83 1.000000 0.056000 0.056000 1.200000 0.032000 0.038000
1538189362682199941	1100 75 1.100000 0.492000 0.551000 1800 58 1.200000 5.139000 6.310000 600 83 1.000000 0.056000 0.056000 1.200000 0.032000 0.038000
1538189363238127691	1100 75 1.100000 0.492000 0.551000 1800 58 1.200000 5.129000 6.298000 600 83 1.000000 0.056000 0.056000 1.200000 0.033000 0.039000
1538189363798154108	1100 75 1.100000 0.491000 0.549000 1800 58 1.200000 5.132000 6.302000 600 83 1.000000 0.055000 0.055000 1.200000 0.032000 0.038000
1538189364346161774	1100 75 1.100000 0.492000 0.551000 1800 59 1.200000 5.137000 6.308000 600 83 1.000000 0.056000 0.056000 1.200000 0.032000 0.038000
1538189364894156774	1100 75 1.100000 0.492000 0.551000 1800 58 1.200000 5.138000 6.309000 600 83 1.000000 0.055000 0.055000 1.200000 0.032000 0.038000
1538189365458204691	1100 75 1.100000 0.492000 0.551000 1800 58 1.200000 5.138000 6.309000 600 83 1.000000 0.056000 0.056000 1.200000 0.032000 0.038000
1538189366006166900	1100 75 1.100000 0.492000 0.551000 1800 58 1.200000 5.153000 6.327000 600 83 1.000000 0.056000 0.056000 1.200000 0.032000 0.038000
1538189366554154400	1100 75 1.100000 0.492000 0.551000 1800 59 1.200000 5.134000 6.304000 600 83 1.000000 0.056000 0.056000 1.200000 0.032000 0.038000
1538189367114180108	1100 75 1.100000 0.492000 0.551000 1800 58 1.200000 5.120000 6.287000 600 83 1.000000 0.055000 0.055000 1.200000 0.032000 0.038000
1538189367670170358	1100 75 1.100000 0.492000 0.551000 1800 59 1.200000 5.112000 6.277000 600 83 1.000000 0.056000 0.056000 1.200000 0.032000 0.038000
1538189368230164275	1100 75 1.100000 0.492000 0.551000 1800 59 1.200000 5.121000 6.288000 600 83 1.000000 0.055000 0.055000 1.200000 0.032000 0.038000
1538189368790171483	1100 75 1.100000 0.492000 0.551000 1800 59 1.200000 5.119000 6.286000 600 83 1.000000 0.056000 0.056000 1.200000 0.032000 0.038000
1538189369350164942	1100 75 1.100000 0.492000 0.551000 1800 59 1.200000 5.119000 6.286000 600 83 1.000000 0.056000 0.056000 1.200000 0.032000 0.038000
1538189369910147358	1100 75 1.100000 0.492000 0.551000 1800 58 1.200000 5.120000 6.287000 600 83 1.000000 0.055000 0.055000 1.200000 0.032000 0.038000
1538189370470116858	1100 75 1.100000 0.492000 0.551000 1800 59 1.200000 5.124000 6.292000 600 83 1.000000 0.055000 0.055000 1.200000 0.032000 0.038000
1538189371030116192	1100 75 1.100000 0.492000 0.551000 1800 59 1.200000 5.116000 6.282000 600 83 1.000000 0.055000 0.055000 1.200000 0.032000 0.038000
1538189371590180775	1100 75 1.100000 0.492000 0.551000 1800 59 1.200000 5.115000 6.281000 600 83 1.000000 0.055000 0.055000 1.200000 0.032000 0.038000
1538189372150136692	1100 75 1.100000 0.491000 0.548000 1800 58 1.200000 5.125000 6.293000 600 83 1.000000 0.055000 0.055000 1.200000 0.032000 0.038000
1538189372710170442	1100 75 1.100000 0.491000 0.549000 1800 58 1.200000 5.077000 6.234000 600 83 1.000000 0.056000 0.056000 1.200000 0.032000 0.038000
1538189373258155484	1100 75 1.100000 0.492000 0.551000 1800 58 1.200000 5.074000 6.230000 600 83 1.000000 0.056000 0.056000 1.200000 0.032000 0.038000
1538189373822132526	1100 75 1.100000 0.491000 0.549000 1800 59 1.200000 5.084000 6.243000 600 83 1.000000 0.055000 0.055000 1.200000 0.032000 0.038000
1538189374382179359	1100 75 1.100000 0.492000 0.551000 1800 58 1.200000 5.093000 6.254000 600 83 1.000000 0.055000 0.055000 1.200000 0.032000 0.038000
1538189374942196109	1100 75 1.100000 0.491000 0.549000 1800 58 1.200000 5.090000 6.250000 600 83 1.000000 0.055000 0.055000 1.200000 0.032000 0.038000
1538189375498140901	1100 75 1.100000 0.491000 0.549000 1800 58 1.200000 5.079000 6.237000 600 83 1.000000 0.056000 0.056000 1.200000 0.032000 0.038000
1538189376050171192	1100 75 1.100000 0.491000 0.549000 1800 58 1.200000 5.088000 6.242000 600 83 1.000000 0.056000 0.056000 1.200000 0.032000 0.038000
1538189376606187568	1100 75 1.100000 0.491000 0.549000 1800 58 1.200000 5.078000 6.230000 600 83 1.000000 0.055000 0.055000 1.200000 0.032000 0.038000
1538189377162165109	1100 75 1.100000 0.491000 0.549000 1800 58 1.200000 5.082000 6.240000 600 83 1.000000 0.056000 0.056000 1.200000 0.031000 0.037000
1538189377710153776	1100 75 1.100000 0.491000 0.549000 1800 58 1.200000 5.075000 6.232000 600 82 1.000000 0.056000 0.056000 1.200000 0.030000 0.036000
1538189378274166901	1100 74 1.100000 0.492000 0.551000 1800 58 1.200000 5.073000 6.229000 600 83 1.000000 0.056000 0.056000 1.200000 0.028000 0.033000
1538189378838113651	1100 74 1.100000 0.491000 0.549000 1800 58 1.200000 5.079000 6.237000 600 83 1.000000 0.056000 0.056000 1.200000 0.028000 0.033000
1538189379382170860	1100 74 1.100000 0.492000 0.551000 1800 58 1.200000 5.090000 6.250000 600 82 1.000000 0.056000 0.056000 1.200000 0.028000 0.033000
1538189379930166443	1100 75 1.100000 0.492000 0.551000 1800 58 1.200000 5.091000 6.251000 600 83 1.000000 0.055000 0.055000 1.200000 0.028000 0.033000
1538189380482136401	1100 75 1.100000 0.492000 0.551000 1800 58 1.200000 5.091000 6.251000 600 83 1.000000 0.056000 0.056000 1.200000 0.028000 0.033000
1538189381030168151	1100 74 1.100000 0.491000 0.549000 1800 58 1.200000 5.087000 6.246000 600 82 1.000000 0.056000 0.056000 1.200000 0.028000 0.033000
1538189381574154401	1100 74 1.100000 0.491000 0.549000 1800 58 1.200000 5.086000 6.245000 600 82 1.000000 0.056000 0.056000 1.200000 0.028000 0.033000
1538189382126131818	1100 74 1.100000 0.491000 0.549000 1800 58 1.200000 5.085000 6.244000 600 82 1.000000 0.055000 0.055000 1.200000 0.028000 0.033000
1538189382630953193	1100 74 1.100000 0.491000 0.549000 1800 58 1.200000 5.087000 6.246000 600 82 1.000000 0.056000 0.056000 1.200000 0.028000 0.033000
1538189383135740027	1100 71 1.100000 0.491000 0.549000 1800 57 1.200000 3.996000 4.883000 600 69 1.000000 0.056000 0.056000 1.200000 0.028000 0.033000
1538189383640259235	1100 57 1.100000 0.491000 0.549000 1800 54 1.200000 1.520000 1.836000 600 60 1.000000 0.056000 0.056000 1.200000 0.028000 0.033000
1538189384144693902	1100 53 1.100000 0.488000 0.546000 1800 51 1.200000 0.322000 0.387000 600 56 1.000000 0.055000 0.055000 1.200000 0.028000 0.033000
1538189384649306860	1100 50 1.100000 0.486000 0.544000 1800 48 1.200000 0.299000 0.359000 600 52 1.000000 0.054000 0.054000 1.200000 0.027000 0.032000
1538189385153862860	1100 48 1.100000 0.485000 0.543000 1800 46 1.200000 0.291000 0.350000 600 50 1.000000 0.053000 0.053000 1.200000 0.027000 0.032000
1538189385658413902	1100 46 1.100000 0.484000 0.542000 1800 45 1.200000 0.315000 0.378000 600 48 1.000000 0.053000 0.053000 1.200000 0.028000 0.033000
1538189386162817027	1100 45 1.100000 0.483000 0.541000 1800 44 1.200000 0.315000 0.378000 600 47 1.000000 0.053000 0.053000 1.200000 0.028000 0.033000
1538189386667299819	1100 44 1.100000 0.482000 0.540000 1800 43 1.200000 0.280000 0.336000 600 46 1.000000 0.053000 0.053000 1.200000 0.027000 0.032000
1538189387171773902	1100 43 1.100000 0.481000 0.539000 1800 42 1.200000 0.306000 0.368000 600 45 1.000000 0.052000 0.052000 1.200000 0.028000 0.033000
1538189387676207444	1100 42 1.100000 0.481000 0.539000 1800 41 1.200000 0.287000 0.345000 600 44 1.000000 0.053000 0.053000 1.200000 0.027000 0.032000
1538189388180558152	1100 41 1.100000 0.481000 0.539000 1800 40 1.200000 0.280000 0.336000 600 43 1.000000 0.052000 0.052000 1.200000 0.028000 0.033000
1538189388685135236	1100 41 1.100000 0.480000 0.538000 1800 39 1.200000 0.274000 0.329000 600 42 1.000000 0.052000 0.052000 1.200000 0.027000 0.032000
1538189389189666236	1100 40 1.100000 0.480000 0.538000 1800 39 1.200000 0.266000 0.319000 600 41 1.000000 0.052000 0.052000 1.200000 0.027000 0.032000
1538189389694051777	1100 39 1.100000 0.479000 0.536000 1800 38 1.200000 0.264000 0.317000 600 41 1.000000 0.052000 0.052000 1.200000 0.028000 0.033000
1538189390198423694	1100 39 1.100000 0.480000 0.538000 1800 38 1.200000 0.262000 0.315000 600 40 1.000000 0.052000 0.052000 1.200000 0.028000 0.033000
1538189390702867653	1100 39 1.100000 0.479000 0.536000 1800 37 1.200000 0.265000 0.318000 600 40 1.000000 0.051000 0.051000 1.200000 0.028000 0.033000
1538189391207307778	1100 38 1.100000 0.479000 0.536000 1800 37 1.200000 0.260000 0.312000 600 40 1.000000 0.051000 0.051000 1.200000 0.028000 0.033000
1538189391711712778	1100 38 1.100000 0.479000 0.536000 1800 36 1.200000 0.269000 0.323000 600 39 1.000000 0.051000 0.051000 1.200000 0.028000 0.033000
1538189392216159778	1100 37 1.100000 0.479000 0.536000 1800 36 1.200000 0.264000 0.317000 600 39 1.000000 0.051000 0.051000 1.200000 0.028000 0.033000
1538189392720551986	1100 37 1.100000 0.479000 0.536000 1800 36 1.200000 0.289000 0.347000 600 38 1.000000 0.051000 0.051000 1.200000 0.028000 0.033000
1538189393225068611	1100 37 1.100000 0.479000 0.536000 1800 35 1.200000 0.268000 0.322000 600 38 1.000000 0.051000 0.051000 1.200000 0.028000 0.033000
1538189393729536653	1100 36 1.100000 0.479000 0.536000 1800 35 1.200000 0.259000 0.311000 600 38 1.000000 0.051000 0.051000 1.200000 0.028000 0.033000
1538189394234006695	1100 36 1.100000 0.478000 0.535000 1800 35 1.200000 0.256000 0.307000 600 38 1.000000 0.051000 0.051000 1.200000 0.028000 0.033000
1538189394738386653	1100 36 1.100000 0.478000 0.535000 1800 34 1.200000 0.257000 0.309000 600 37 1.000000 0.051000 0.051000 1.200000 0.028000 0.033000
1538189395242945361	1100 36 1.100000 0.478000 0.535000 1800 34 1.200000 0.255000 0.306000 600 37 1.000000 0.051000 0.051000 1.200000 0.028000 0.033000
1538189395747334028	1100 35 1.100000 0.478000 0.535000 1800 34 1.200000 0.254000 0.305000 600 37 1.000000 0.051000 0.051000 1.200000 0.028000 0.033000
1538189396251684112	1100 34 1.100000 0.239000 0.269000 1800 33 1.200000 0.243000 0.292000 600 36 1.000000 0.051000 0.051000 1.200000 0.025000 0.030000
1538189396756385362	1100 33 1.100000 0.052000 0.059000 1800 32 1.200000 0.242000 0.291000 600 36 1.000000 0.051000 0.051000 1.200000 0.024000 0.028000
1538189397261103695	1100 33 1.100000 0.052000 0.059000 1800 32 1.200000 0.243000 0.292000 600 36 1.000000 0.051000 0.051000 1.200000 0.022000 0.026000
