#Timestamp	CPU(0) Frequency(MHz)	CPU(0) Temperature(C)	A7 Voltage(V)	A7 Current(A)	A7 Power(W)	CPU(4) Frequency(MHz)	CPU(4) Temperature(C)	A15 Voltage(V)	A15 Current(A)	A15 Power(W)	GPU Frequency(MHz)	GPU Temperature(C)	GPU Voltage(V)	GPU Current(A)	GPU Power(W)	RAM Voltage(V)	RAM Current(A)	RAM Power(W)
1518117424786530426	1000 47 1.100000 0.056000 0.062000 1000 46 0.900000 0.475000 0.459000 600 51 1.000000 0.054000 0.054000 1.200000 0.038000 0.045000
1518117425294760301	1000 47 1.100000 0.057000 0.062000 1000 46 0.900000 0.560000 0.540000 600 51 1.000000 0.054000 0.054000 1.200000 0.038000 0.045000
1518117425802960843	1000 47 1.100000 0.056000 0.061000 1000 46 0.900000 0.559000 0.539000 600 51 1.000000 0.054000 0.054000 1.200000 0.038000 0.045000
1518117426312593801	1000 47 1.100000 0.056000 0.061000 1000 46 0.900000 0.563000 0.543000 600 50 1.000000 0.053000 0.053000 1.200000 0.033000 0.039000
1518117426873815510	1000 52 1.000000 0.259000 0.282000 1000 47 0.900000 1.358000 1.317000 600 55 1.000000 0.054000 0.054000 1.200000 0.033000 0.039000
1518117427429716802	1000 53 1.000000 0.424000 0.459000 1000 48 0.900000 2.093000 2.034000 600 57 1.000000 0.054000 0.054000 1.200000 0.032000 0.038000
1518117427989761885	1000 54 1.000000 0.425000 0.460000 1000 49 0.900000 2.091000 2.032000 600 58 1.000000 0.054000 0.054000 1.200000 0.032000 0.038000
1518117428541734385	1000 55 1.000000 0.425000 0.460000 1000 50 0.900000 2.096000 2.037000 600 59 1.000000 0.054000 0.054000 1.200000 0.033000 0.039000
1518117429105792093	1000 55 1.000000 0.425000 0.460000 1000 50 0.900000 2.093000 2.034000 600 59 1.000000 0.055000 0.055000 1.200000 0.032000 0.038000
1518117429665721302	1000 56 1.000000 0.426000 0.461000 1000 50 0.900000 2.093000 2.034000 600 60 1.000000 0.054000 0.054000 1.200000 0.033000 0.039000
1518117430229699469	1000 56 1.000000 0.426000 0.461000 1000 51 0.900000 2.110000 2.050000 600 60 1.000000 0.055000 0.055000 1.200000 0.033000 0.039000
1518117430781664010	1000 56 1.000000 0.426000 0.461000 1000 51 0.900000 2.109000 2.049000 600 60 1.000000 0.055000 0.055000 1.200000 0.033000 0.039000
1518117431341751260	1000 56 1.000000 0.427000 0.462000 1000 51 0.900000 2.108000 2.048000 600 60 1.000000 0.055000 0.055000 1.200000 0.033000 0.039000
1518117431905666885	1000 57 1.000000 0.427000 0.462000 1000 51 0.900000 2.109000 2.049000 600 61 1.000000 0.055000 0.055000 1.200000 0.032000 0.038000
1518117432461658760	1000 57 1.000000 0.426000 0.461000 1000 52 0.900000 2.109000 2.049000 600 61 1.000000 0.055000 0.055000 1.200000 0.033000 0.039000
1518117433021712427	1000 57 1.000000 0.427000 0.462000 1000 52 0.900000 2.105000 2.046000 600 61 1.000000 0.055000 0.055000 1.200000 0.033000 0.039000
1518117433569739677	1000 57 1.000000 0.427000 0.462000 1000 52 0.900000 2.104000 2.045000 600 61 1.000000 0.055000 0.055000 1.200000 0.033000 0.039000
1518117434125735802	1000 57 1.000000 0.427000 0.462000 1000 52 0.900000 2.104000 2.045000 600 61 1.000000 0.055000 0.055000 1.200000 0.033000 0.039000
1518117434673747552	1000 57 1.000000 0.427000 0.462000 1000 52 0.900000 2.102000 2.043000 600 61 1.000000 0.055000 0.055000 1.200000 0.033000 0.039000
1518117435225749136	1000 57 1.000000 0.427000 0.462000 1000 52 0.900000 2.099000 2.040000 600 61 1.000000 0.055000 0.055000 1.200000 0.033000 0.039000
1518117435789686469	1000 57 1.000000 0.427000 0.462000 1000 52 0.900000 2.111000 2.051000 600 61 1.000000 0.055000 0.055000 1.200000 0.033000 0.039000
1518117436353696636	1000 57 1.000000 0.427000 0.463000 1000 52 0.900000 2.110000 2.050000 600 61 1.000000 0.055000 0.055000 1.200000 0.033000 0.039000
1518117436913692803	1000 57 1.000000 0.427000 0.462000 1000 52 0.900000 2.111000 2.051000 600 61 1.000000 0.055000 0.055000 1.200000 0.033000 0.039000
1518117437473724469	1000 57 1.000000 0.427000 0.462000 1000 52 0.900000 2.107000 2.048000 600 61 1.000000 0.055000 0.055000 1.200000 0.033000 0.039000
1518117438033705011	1000 57 1.000000 0.427000 0.462000 1000 52 0.900000 2.101000 2.042000 600 62 1.000000 0.055000 0.055000 1.200000 0.033000 0.039000
1518117438609740720	1000 57 1.000000 0.427000 0.462000 1000 52 0.900000 2.096000 2.037000 600 62 1.000000 0.055000 0.055000 1.200000 0.033000 0.039000
1518117439169724761	1000 57 1.000000 0.427000 0.462000 1000 52 0.900000 2.094000 2.035000 600 62 1.000000 0.055000 0.055000 1.200000 0.033000 0.039000
1518117439713734136	1000 57 1.000000 0.427000 0.462000 1000 52 0.900000 2.103000 2.044000 600 62 1.000000 0.055000 0.055000 1.200000 0.033000 0.039000
1518117440281701136	1000 57 1.000000 0.427000 0.462000 1000 52 0.900000 2.102000 2.043000 600 62 1.000000 0.055000 0.055000 1.200000 0.033000 0.039000
1518117440841699761	1000 57 1.000000 0.427000 0.462000 1000 52 0.900000 2.101000 2.042000 600 62 1.000000 0.055000 0.055000 1.200000 0.033000 0.039000
1518117441405690762	1000 58 1.000000 0.427000 0.462000 1000 52 0.900000 2.102000 2.043000 600 62 1.000000 0.055000 0.055000 1.200000 0.033000 0.039000
1518117441965688678	1000 58 1.000000 0.427000 0.462000 1000 52 0.900000 2.102000 2.043000 600 62 1.000000 0.055000 0.055000 1.200000 0.033000 0.039000
1518117442529650345	1000 57 1.000000 0.427000 0.462000 1000 52 0.900000 2.102000 2.043000 600 62 1.000000 0.055000 0.055000 1.200000 0.033000 0.039000
1518117443089740095	1000 58 1.000000 0.426000 0.461000 1000 53 0.900000 2.093000 2.034000 600 62 1.000000 0.055000 0.055000 1.200000 0.034000 0.041000
1518117443653740512	1000 58 1.000000 0.427000 0.462000 1000 52 0.900000 2.097000 2.038000 600 62 1.000000 0.055000 0.055000 1.200000 0.033000 0.039000
1518117444221709637	1000 58 1.000000 0.427000 0.462000 1000 52 0.900000 2.102000 2.043000 600 62 1.000000 0.055000 0.055000 1.200000 0.032000 0.038000
1518117444789684179	1000 58 1.000000 0.427000 0.462000 1000 52 0.900000 2.102000 2.043000 600 62 1.000000 0.055000 0.055000 1.200000 0.033000 0.039000
1518117445361676054	1000 58 1.000000 0.427000 0.462000 1000 52 0.900000 2.102000 2.043000 600 62 1.000000 0.055000 0.055000 1.200000 0.033000 0.039000
1518117445921687720	1000 58 1.000000 0.427000 0.462000 1000 53 0.900000 2.102000 2.043000 600 62 1.000000 0.055000 0.055000 1.200000 0.033000 0.039000
1518117446485727804	1000 58 1.000000 0.427000 0.463000 1000 53 0.900000 2.103000 2.044000 600 62 1.000000 0.055000 0.055000 1.200000 0.033000 0.039000
1518117447041709679	1000 58 1.000000 0.427000 0.462000 1000 53 0.900000 2.102000 2.043000 600 62 1.000000 0.055000 0.055000 1.200000 0.033000 0.039000
1518117447605720096	1000 58 1.000000 0.427000 0.462000 1000 53 0.900000 2.114000 2.054000 600 62 1.000000 0.055000 0.055000 1.200000 0.033000 0.039000
1518117448169656971	1000 58 1.000000 0.427000 0.462000 1000 53 0.900000 2.108000 2.048000 600 62 1.000000 0.055000 0.055000 1.200000 0.031000 0.037000
1518117448737721179	1000 58 1.000000 0.427000 0.462000 1000 52 0.900000 2.100000 2.041000 600 62 1.000000 0.055000 0.055000 1.200000 0.030000 0.036000
1518117449305697304	1000 58 1.000000 0.427000 0.462000 1000 52 0.900000 2.103000 2.044000 600 62 1.000000 0.055000 0.055000 1.200000 0.031000 0.037000
1518117449853715096	1000 58 1.000000 0.428000 0.463000 1000 53 0.900000 2.101000 2.042000 600 62 1.000000 0.055000 0.055000 1.200000 0.031000 0.037000
1518117450417706013	1000 58 1.000000 0.427000 0.462000 1000 53 0.900000 2.102000 2.043000 600 62 1.000000 0.055000 0.055000 1.200000 0.031000 0.037000
1518117450969749388	1000 58 1.000000 0.427000 0.462000 1000 52 0.900000 2.102000 2.043000 600 62 1.000000 0.055000 0.055000 1.200000 0.031000 0.037000
1518117451521699721	1000 58 1.000000 0.427000 0.462000 1000 53 0.900000 2.092000 2.033000 600 62 1.000000 0.055000 0.055000 1.200000 0.031000 0.037000
1518117452073760471	1000 58 1.000000 0.427000 0.462000 1000 52 0.900000 2.092000 2.033000 600 62 1.000000 0.055000 0.055000 1.200000 0.031000 0.037000
1518117452625737971	1000 58 1.000000 0.427000 0.462000 1000 52 0.900000 2.098000 2.039000 600 62 1.000000 0.055000 0.055000 1.200000 0.031000 0.037000
1518117453173755263	1000 58 1.000000 0.425000 0.460000 1000 53 0.900000 2.094000 2.035000 600 62 1.000000 0.055000 0.055000 1.200000 0.032000 0.038000
1518117453745664346	1000 58 1.000000 0.428000 0.463000 1000 53 0.900000 2.102000 2.043000 600 62 1.000000 0.055000 0.055000 1.200000 0.031000 0.037000
1518117454305743221	1000 58 1.000000 0.428000 0.463000 1000 53 0.900000 2.095000 2.036000 600 62 1.000000 0.055000 0.055000 1.200000 0.031000 0.037000
1518117454857749305	1000 58 1.000000 0.428000 0.463000 1000 52 0.900000 2.099000 2.040000 600 62 1.000000 0.055000 0.055000 1.200000 0.031000 0.037000
1518117455413703805	1000 58 1.000000 0.427000 0.462000 1000 53 0.900000 2.092000 2.033000 600 62 1.000000 0.055000 0.055000 1.200000 0.031000 0.037000
1518117455977674263	1000 58 1.000000 0.427000 0.462000 1000 53 0.900000 2.101000 2.042000 600 62 1.000000 0.055000 0.055000 1.200000 0.031000 0.037000
1518117456545735388	1000 58 1.000000 0.427000 0.462000 1000 53 0.900000 2.099000 2.040000 600 62 1.000000 0.055000 0.055000 1.200000 0.031000 0.037000
1518117457105729430	1000 58 1.000000 0.427000 0.462000 1000 53 0.900000 2.103000 2.044000 600 62 1.000000 0.055000 0.055000 1.200000 0.031000 0.037000
1518117457661782013	1000 58 1.000000 0.428000 0.463000 1000 53 0.900000 2.099000 2.040000 600 62 1.000000 0.055000 0.055000 1.200000 0.031000 0.037000
1518117458225695472	1000 58 1.000000 0.427000 0.462000 1000 53 0.900000 2.097000 2.038000 600 62 1.000000 0.055000 0.055000 1.200000 0.031000 0.037000
1518117458785660597	1000 58 1.000000 0.427000 0.462000 1000 52 0.900000 2.098000 2.039000 600 62 1.000000 0.055000 0.055000 1.200000 0.031000 0.037000
1518117459349713722	1000 58 1.000000 0.427000 0.462000 1000 53 0.900000 2.095000 2.036000 600 62 1.000000 0.055000 0.055000 1.200000 0.031000 0.037000
1518117459905767222	1000 58 1.000000 0.428000 0.463000 1000 53 0.900000 2.092000 2.033000 600 62 1.000000 0.055000 0.055000 1.200000 0.031000 0.037000
1518117460465686139	1000 58 1.000000 0.428000 0.463000 1000 52 0.900000 2.092000 2.033000 600 62 1.000000 0.055000 0.055000 1.200000 0.030000 0.036000
1518117461025673681	1000 58 1.000000 0.427000 0.462000 1000 53 0.900000 2.093000 2.034000 600 62 1.000000 0.055000 0.055000 1.200000 0.031000 0.037000
1518117461573733347	1000 58 1.000000 0.428000 0.463000 1000 53 0.900000 2.092000 2.033000 600 62 1.000000 0.055000 0.055000 1.200000 0.031000 0.037000
1518117462121747181	1000 58 1.000000 0.427000 0.462000 1000 53 0.900000 2.092000 2.033000 600 62 1.000000 0.055000 0.055000 1.200000 0.031000 0.037000
1518117462673735681	1000 58 1.000000 0.427000 0.462000 1000 53 0.900000 2.097000 2.038000 600 62 1.000000 0.055000 0.055000 1.200000 0.031000 0.037000
1518117463229695472	1000 58 1.000000 0.428000 0.463000 1000 53 0.900000 2.097000 2.038000 600 62 1.000000 0.055000 0.055000 1.200000 0.031000 0.037000
1518117463785739056	1000 58 1.000000 0.428000 0.463000 1000 53 0.900000 2.099000 2.040000 600 62 1.000000 0.055000 0.055000 1.200000 0.030000 0.036000
1518117464349709056	1000 58 1.000000 0.427000 0.462000 1000 53 0.900000 2.097000 2.038000 600 62 1.000000 0.055000 0.055000 1.200000 0.031000 0.037000
1518117464913710139	1000 58 1.000000 0.427000 0.462000 1000 53 0.900000 2.091000 2.032000 600 62 1.000000 0.055000 0.055000 1.200000 0.031000 0.037000
1518117465477717014	1000 58 1.000000 0.427000 0.462000 1000 53 0.900000 2.085000 2.026000 600 62 1.000000 0.055000 0.055000 1.200000 0.030000 0.036000
1518117466037692681	1000 58 1.000000 0.427000 0.462000 1000 53 0.900000 2.086000 2.027000 600 62 1.000000 0.055000 0.055000 1.200000 0.031000 0.037000
1518117466597709640	1000 58 1.000000 0.427000 0.462000 1000 53 0.900000 2.090000 2.031000 600 62 1.000000 0.055000 0.055000 1.200000 0.031000 0.037000
1518117467141713973	1000 58 1.000000 0.427000 0.462000 1000 53 0.900000 2.092000 2.033000 600 62 1.000000 0.055000 0.055000 1.200000 0.031000 0.037000
1518117467697745140	1000 58 1.000000 0.427000 0.462000 1000 52 0.900000 2.098000 2.039000 600 62 1.000000 0.055000 0.055000 1.200000 0.031000 0.037000
1518117468261708473	1000 58 1.000000 0.427000 0.462000 1000 53 0.900000 2.099000 2.040000 600 62 1.000000 0.055000 0.055000 1.200000 0.031000 0.037000
1518117468825720556	1000 58 1.000000 0.428000 0.463000 1000 53 0.900000 2.097000 2.038000 600 62 1.000000 0.055000 0.055000 1.200000 0.034000 0.041000
1518117469381722307	1000 58 1.000000 0.428000 0.463000 1000 53 0.900000 2.096000 2.037000 600 62 1.000000 0.055000 0.055000 1.200000 0.034000 0.041000
1518117469945681682	1000 58 1.000000 0.428000 0.463000 1000 53 0.900000 2.091000 2.032000 600 62 1.000000 0.055000 0.055000 1.200000 0.034000 0.041000
1518117470497715098	1000 58 1.000000 0.428000 0.463000 1000 53 0.900000 2.090000 2.031000 600 62 1.000000 0.055000 0.055000 1.200000 0.034000 0.041000
1518117471065700140	1000 58 1.000000 0.428000 0.463000 1000 53 0.900000 2.088000 2.029000 600 62 1.000000 0.055000 0.055000 1.200000 0.034000 0.041000
1518117471629703223	1000 58 1.000000 0.428000 0.463000 1000 53 0.900000 2.095000 2.036000 600 62 1.000000 0.055000 0.055000 1.200000 0.034000 0.041000
1518117472193675057	1000 58 1.000000 0.428000 0.463000 1000 53 0.900000 2.097000 2.038000 600 62 1.000000 0.055000 0.055000 1.200000 0.034000 0.041000
1518117472749684974	1000 58 1.000000 0.428000 0.463000 1000 53 0.900000 2.097000 2.036000 600 62 1.000000 0.055000 0.055000 1.200000 0.034000 0.041000
1518117473301710557	1000 58 1.000000 0.428000 0.463000 1000 53 0.900000 2.097000 2.038000 600 62 1.000000 0.055000 0.055000 1.200000 0.034000 0.041000
1518117473853681140	1000 58 1.000000 0.428000 0.463000 1000 53 0.900000 2.098000 2.039000 600 62 1.000000 0.055000 0.055000 1.200000 0.035000 0.042000
1518117474421708057	1000 58 1.000000 0.428000 0.463000 1000 53 0.900000 2.098000 2.039000 600 62 1.000000 0.055000 0.055000 1.200000 0.035000 0.042000
1518117474981730766	1000 58 1.000000 0.428000 0.463000 1000 53 0.900000 2.097000 2.038000 600 62 1.000000 0.055000 0.055000 1.200000 0.034000 0.041000
1518117475545730224	1000 58 1.000000 0.427000 0.462000 1000 53 0.900000 2.085000 2.026000 600 62 1.000000 0.055000 0.055000 1.200000 0.034000 0.041000
1518117476109699599	1000 58 1.000000 0.428000 0.463000 1000 53 0.900000 2.084000 2.025000 600 62 1.000000 0.055000 0.055000 1.200000 0.034000 0.041000
1518117476669677932	1000 58 1.000000 0.428000 0.463000 1000 53 0.900000 2.097000 2.038000 600 62 1.000000 0.055000 0.055000 1.200000 0.033000 0.039000
1518117477229713849	1000 58 1.000000 0.428000 0.463000 1000 53 0.900000 2.097000 2.038000 600 62 1.000000 0.055000 0.055000 1.200000 0.034000 0.041000
1518117477801665974	1000 58 1.000000 0.428000 0.463000 1000 53 0.900000 2.097000 2.038000 600 62 1.000000 0.055000 0.055000 1.200000 0.033000 0.039000
1518117478361677849	1000 58 1.000000 0.428000 0.463000 1000 53 0.900000 2.088000 2.029000 600 62 1.000000 0.055000 0.055000 1.200000 0.035000 0.042000
1518117478921658349	1000 58 1.000000 0.428000 0.463000 1000 53 0.900000 2.099000 2.040000 600 62 1.000000 0.055000 0.055000 1.200000 0.034000 0.041000
1518117479481758558	1000 58 1.000000 0.428000 0.463000 1000 53 0.900000 2.099000 2.040000 600 62 1.000000 0.055000 0.055000 1.200000 0.034000 0.041000
1518117480041704933	1000 58 1.000000 0.428000 0.463000 1000 53 0.900000 2.093000 2.034000 600 62 1.000000 0.055000 0.055000 1.200000 0.034000 0.041000
1518117480601679641	1000 58 1.000000 0.428000 0.463000 1000 53 0.900000 2.093000 2.034000 600 62 1.000000 0.055000 0.055000 1.200000 0.034000 0.041000
1518117481161705058	1000 58 1.000000 0.427000 0.462000 1000 53 0.900000 2.099000 2.040000 600 62 1.000000 0.055000 0.055000 1.200000 0.034000 0.041000
1518117481713758475	1000 58 1.000000 0.428000 0.463000 1000 53 0.900000 2.099000 2.040000 600 62 1.000000 0.055000 0.055000 1.200000 0.034000 0.041000
1518117482285640225	1000 58 1.000000 0.428000 0.463000 1000 53 0.900000 2.098000 2.039000 600 62 1.000000 0.055000 0.055000 1.200000 0.034000 0.041000
1518117482845657683	1000 58 1.000000 0.427000 0.462000 1000 53 0.900000 2.099000 2.040000 600 62 1.000000 0.055000 0.055000 1.200000 0.035000 0.042000
1518117483405677225	1000 58 1.000000 0.428000 0.463000 1000 53 0.900000 2.095000 2.036000 600 62 1.000000 0.055000 0.055000 1.200000 0.034000 0.041000
1518117483973698725	1000 58 1.000000 0.428000 0.463000 1000 53 0.900000 2.090000 2.031000 600 62 1.000000 0.055000 0.055000 1.200000 0.034000 0.041000
1518117484521671767	1000 58 1.000000 0.428000 0.463000 1000 53 0.900000 2.094000 2.035000 600 62 1.000000 0.055000 0.055000 1.200000 0.034000 0.041000
1518117485081681183	1000 58 1.000000 0.428000 0.463000 1000 53 0.900000 2.094000 2.035000 600 62 1.000000 0.055000 0.055000 1.200000 0.034000 0.041000
1518117485641702392	1000 58 1.000000 0.428000 0.463000 1000 53 0.900000 2.094000 2.035000 600 62 1.000000 0.055000 0.055000 1.200000 0.034000 0.041000
1518117486205676975	1000 58 1.000000 0.427000 0.462000 1000 53 0.900000 2.091000 2.032000 600 62 1.000000 0.055000 0.055000 1.200000 0.034000 0.041000
1518117486757720475	1000 58 1.000000 0.427000 0.462000 1000 53 0.900000 2.091000 2.032000 600 62 1.000000 0.055000 0.055000 1.200000 0.034000 0.041000
1518117487317758517	1000 58 1.000000 0.428000 0.463000 1000 53 0.900000 2.086000 2.027000 600 62 1.000000 0.055000 0.055000 1.200000 0.034000 0.041000
1518117487869701767	1000 58 1.000000 0.428000 0.463000 1000 53 0.900000 2.091000 2.032000 600 62 1.000000 0.055000 0.055000 1.200000 0.034000 0.041000
1518117488433666017	1000 58 1.000000 0.428000 0.463000 1000 53 0.900000 2.091000 2.032000 600 62 1.000000 0.055000 0.055000 1.200000 0.035000 0.042000
1518117489001728434	1000 58 1.000000 0.428000 0.463000 1000 53 0.900000 2.093000 2.034000 600 62 1.000000 0.055000 0.055000 1.200000 0.034000 0.041000
1518117489569707684	1000 58 1.000000 0.427000 0.462000 1000 53 0.900000 2.096000 2.037000 600 62 1.000000 0.055000 0.055000 1.200000 0.035000 0.042000
1518117490133721809	1000 58 1.000000 0.427000 0.462000 1000 53 0.900000 2.108000 2.048000 600 62 1.000000 0.055000 0.055000 1.200000 0.035000 0.042000
1518117490709675559	1000 58 1.000000 0.427000 0.462000 1000 53 0.900000 2.101000 2.042000 600 62 1.000000 0.055000 0.055000 1.200000 0.034000 0.041000
1518117491273644476	1000 58 1.000000 0.427000 0.462000 1000 53 0.900000 2.104000 2.045000 600 62 1.000000 0.055000 0.055000 1.200000 0.034000 0.041000
1518117491837680809	1000 58 1.000000 0.427000 0.462000 1000 53 0.900000 2.100000 2.041000 600 62 1.000000 0.055000 0.055000 1.200000 0.034000 0.041000
1518117492393709434	1000 58 1.000000 0.427000 0.462000 1000 53 0.900000 2.102000 2.043000 600 62 1.000000 0.055000 0.055000 1.200000 0.034000 0.041000
1518117492953700893	1000 58 1.000000 0.427000 0.462000 1000 53 0.900000 2.101000 2.042000 600 62 1.000000 0.055000 0.055000 1.200000 0.034000 0.041000
1518117493517749143	1000 58 1.000000 0.427000 0.462000 1000 53 0.900000 2.096000 2.037000 600 62 1.000000 0.055000 0.055000 1.200000 0.034000 0.041000
1518117494081710601	1000 58 1.000000 0.427000 0.462000 1000 53 0.900000 2.108000 2.048000 600 62 1.000000 0.055000 0.055000 1.200000 0.034000 0.041000
1518117494641680185	1000 58 1.000000 0.427000 0.462000 1000 53 0.900000 2.108000 2.048000 600 62 1.000000 0.055000 0.055000 1.200000 0.035000 0.042000
1518117495201673018	1000 58 1.000000 0.427000 0.462000 1000 53 0.900000 2.107000 2.048000 600 62 1.000000 0.055000 0.055000 1.200000 0.035000 0.042000
1518117495765680435	1000 58 1.000000 0.427000 0.462000 1000 53 0.900000 2.096000 2.037000 600 62 1.000000 0.055000 0.055000 1.200000 0.035000 0.042000
1518117496325704810	1000 58 1.000000 0.427000 0.462000 1000 53 0.900000 2.102000 2.043000 600 62 1.000000 0.055000 0.055000 1.200000 0.034000 0.041000
1518117496893677018	1000 58 1.000000 0.427000 0.462000 1000 53 0.900000 2.100000 2.041000 600 62 1.000000 0.055000 0.055000 1.200000 0.035000 0.042000
1518117497453702935	1000 58 1.000000 0.427000 0.462000 1000 53 0.900000 2.098000 2.039000 600 62 1.000000 0.055000 0.055000 1.200000 0.034000 0.041000
1518117498001723143	1000 58 1.000000 0.427000 0.462000 1000 53 0.900000 2.101000 2.042000 600 62 1.000000 0.055000 0.055000 1.200000 0.035000 0.042000
1518117498577710477	1000 58 1.000000 0.427000 0.462000 1000 53 0.900000 2.108000 2.048000 600 62 1.000000 0.055000 0.055000 1.200000 0.034000 0.041000
1518117499129655268	1000 58 1.000000 0.427000 0.462000 1000 53 0.900000 2.108000 2.048000 600 62 1.000000 0.055000 0.055000 1.200000 0.034000 0.041000
1518117499697717602	1000 58 1.000000 0.427000 0.462000 1000 53 0.900000 2.110000 2.050000 600 62 1.000000 0.055000 0.055000 1.200000 0.035000 0.042000
1518117500257690769	1000 58 1.000000 0.427000 0.462000 1000 53 0.900000 2.107000 2.048000 600 62 1.000000 0.055000 0.055000 1.200000 0.034000 0.041000
1518117500809758560	1000 58 1.000000 0.427000 0.462000 1000 53 0.900000 2.108000 2.048000 600 62 1.000000 0.055000 0.055000 1.200000 0.034000 0.041000
1518117501369756310	1000 58 1.000000 0.427000 0.462000 1000 53 0.900000 2.109000 2.049000 600 62 1.000000 0.055000 0.055000 1.200000 0.034000 0.041000
1518117501925827644	1000 58 1.000000 0.427000 0.462000 1000 53 0.900000 2.107000 2.045000 600 62 1.000000 0.055000 0.055000 1.200000 0.035000 0.042000
1518117502489665686	1000 58 1.000000 0.427000 0.462000 1000 53 0.900000 2.102000 2.041000 600 62 1.000000 0.055000 0.055000 1.200000 0.034000 0.041000
1518117503045739852	1000 58 1.000000 0.427000 0.462000 1000 53 0.900000 2.112000 2.052000 600 62 1.000000 0.055000 0.055000 1.200000 0.034000 0.041000
1518117503597708811	1000 58 1.000000 0.427000 0.462000 1000 53 0.900000 2.111000 2.051000 600 62 1.000000 0.055000 0.055000 1.200000 0.035000 0.042000
1518117504161700602	1000 58 1.000000 0.427000 0.462000 1000 53 0.900000 2.111000 2.051000 600 62 1.000000 0.055000 0.055000 1.200000 0.034000 0.041000
1518117504709735686	1000 58 1.000000 0.427000 0.462000 1000 53 0.900000 2.110000 2.050000 600 62 1.000000 0.055000 0.055000 1.200000 0.034000 0.041000
1518117505277747811	1000 58 1.000000 0.427000 0.462000 1000 53 0.900000 2.110000 2.050000 600 62 1.000000 0.055000 0.055000 1.200000 0.035000 0.042000
1518117505825769769	1000 58 1.000000 0.427000 0.462000 1000 53 0.900000 2.111000 2.051000 600 62 1.000000 0.055000 0.055000 1.200000 0.035000 0.042000
1518117506377773269	1000 58 1.000000 0.427000 0.462000 1000 53 0.900000 2.104000 2.045000 600 62 1.000000 0.055000 0.055000 1.200000 0.035000 0.042000
1518117506937752019	1000 58 1.000000 0.427000 0.462000 1000 53 0.900000 2.099000 2.040000 600 62 1.000000 0.055000 0.055000 1.200000 0.035000 0.042000
1518117507505714269	1000 58 1.000000 0.427000 0.462000 1000 53 0.900000 2.107000 2.048000 600 62 1.000000 0.055000 0.055000 1.200000 0.034000 0.041000
1518117508057739186	1000 58 1.000000 0.427000 0.462000 1000 53 0.900000 2.111000 2.051000 600 62 1.000000 0.055000 0.055000 1.200000 0.035000 0.042000
1518117508613731020	1000 58 1.000000 0.427000 0.462000 1000 53 0.900000 2.111000 2.051000 600 62 1.000000 0.055000 0.055000 1.200000 0.035000 0.042000
1518117509161749561	1000 58 1.000000 0.427000 0.462000 1000 53 0.900000 2.109000 2.049000 600 62 1.000000 0.055000 0.055000 1.200000 0.034000 0.041000
1518117509725679978	1000 58 1.000000 0.427000 0.462000 1000 53 0.900000 2.111000 2.051000 600 62 1.000000 0.055000 0.055000 1.200000 0.034000 0.041000
1518117510277738186	1000 58 1.000000 0.427000 0.462000 1000 53 0.900000 2.112000 2.052000 600 62 1.000000 0.055000 0.055000 1.200000 0.035000 0.042000
1518117510829708895	1000 58 1.000000 0.427000 0.462000 1000 53 0.900000 2.094000 2.035000 600 62 1.000000 0.055000 0.055000 1.200000 0.034000 0.041000
1518117511381728062	1000 58 1.000000 0.427000 0.462000 1000 53 0.900000 2.096000 2.037000 600 62 1.000000 0.055000 0.055000 1.200000 0.035000 0.042000
1518117511941720895	1000 58 1.000000 0.427000 0.462000 1000 53 0.900000 2.089000 2.030000 600 62 1.000000 0.055000 0.055000 1.200000 0.036000 0.043000
1518117512497709978	1000 58 1.000000 0.427000 0.462000 1000 53 0.900000 2.091000 2.032000 600 62 1.000000 0.055000 0.055000 1.200000 0.036000 0.043000
1518117513057737937	1000 58 1.000000 0.426000 0.461000 1000 53 0.900000 2.084000 2.025000 600 62 1.000000 0.055000 0.055000 1.200000 0.035000 0.042000
1518117513621713729	1000 58 1.000000 0.427000 0.462000 1000 53 0.900000 2.094000 2.035000 600 62 1.000000 0.055000 0.055000 1.200000 0.035000 0.042000
1518117514185693062	1000 58 1.000000 0.427000 0.462000 1000 53 0.900000 2.096000 2.037000 600 62 1.000000 0.055000 0.055000 1.200000 0.035000 0.042000
1518117514737705687	1000 58 1.000000 0.427000 0.462000 1000 53 0.900000 2.096000 2.037000 600 62 1.000000 0.055000 0.055000 1.200000 0.035000 0.042000
1518117515289711437	1000 58 1.000000 0.427000 0.462000 1000 53 0.900000 2.095000 2.036000 600 62 1.000000 0.055000 0.055000 1.200000 0.035000 0.042000
1518117515857685145	1000 58 1.000000 0.427000 0.462000 1000 53 0.900000 2.096000 2.037000 600 62 1.000000 0.055000 0.055000 1.200000 0.035000 0.042000
1518117516417678354	1000 58 1.000000 0.427000 0.462000 1000 53 0.900000 2.096000 2.037000 600 62 1.000000 0.055000 0.055000 1.200000 0.035000 0.042000
1518117516981716854	1000 58 1.000000 0.427000 0.462000 1000 53 0.900000 2.095000 2.036000 600 62 1.000000 0.055000 0.055000 1.200000 0.035000 0.042000
1518117517533713521	1000 58 1.000000 0.427000 0.462000 1000 53 0.900000 2.088000 2.029000 600 62 1.000000 0.055000 0.055000 1.200000 0.035000 0.042000
1518117518097703437	1000 58 1.000000 0.427000 0.462000 1000 53 0.900000 2.087000 2.028000 600 62 1.000000 0.055000 0.055000 1.200000 0.035000 0.042000
1518117518653663146	1000 58 1.000000 0.427000 0.462000 1000 53 0.900000 2.090000 2.031000 600 62 1.000000 0.055000 0.055000 1.200000 0.035000 0.042000
1518117519209704729	1000 58 1.000000 0.427000 0.462000 1000 53 0.900000 2.097000 2.038000 600 62 1.000000 0.055000 0.055000 1.200000 0.035000 0.042000
1518117519773740563	1000 58 1.000000 0.427000 0.462000 1000 53 0.900000 2.101000 2.042000 600 62 1.000000 0.055000 0.055000 1.200000 0.035000 0.042000
1518117520325783563	1000 58 1.000000 0.426000 0.461000 1000 53 0.900000 2.103000 2.044000 600 62 1.000000 0.055000 0.055000 1.200000 0.035000 0.042000
1518117520881699188	1000 58 1.000000 0.426000 0.461000 1000 53 0.900000 2.109000 2.049000 600 62 1.000000 0.055000 0.055000 1.200000 0.035000 0.042000
1518117521441695729	1000 58 1.000000 0.427000 0.462000 1000 53 0.900000 2.101000 2.042000 600 62 1.000000 0.055000 0.055000 1.200000 0.035000 0.042000
1518117521997713771	1000 58 1.000000 0.427000 0.462000 1000 53 0.900000 2.108000 2.048000 600 62 1.000000 0.055000 0.055000 1.200000 0.035000 0.042000
1518117522561668688	1000 58 1.000000 0.426000 0.461000 1000 53 0.900000 2.104000 2.045000 600 62 1.000000 0.055000 0.055000 1.200000 0.036000 0.043000
1518117523109730480	1000 58 1.000000 0.427000 0.462000 1000 53 0.900000 2.105000 2.046000 600 62 1.000000 0.055000 0.055000 1.200000 0.035000 0.042000
1518117523665705605	1000 58 1.000000 0.427000 0.462000 1000 53 0.900000 2.100000 2.041000 600 62 1.000000 0.055000 0.055000 1.200000 0.035000 0.042000
1518117524217719438	1000 58 1.000000 0.427000 0.462000 1000 53 0.900000 2.103000 2.044000 600 62 1.000000 0.055000 0.055000 1.200000 0.034000 0.041000
1518117524781658063	1000 58 1.000000 0.427000 0.462000 1000 53 0.900000 2.105000 2.046000 600 62 1.000000 0.055000 0.055000 1.200000 0.035000 0.042000
1518117525329743980	1000 58 1.000000 0.427000 0.462000 1000 53 0.900000 2.105000 2.046000 600 62 1.000000 0.055000 0.055000 1.200000 0.035000 0.042000
1518117525889700772	1000 58 1.000000 0.427000 0.462000 1000 53 0.900000 2.110000 2.050000 600 62 1.000000 0.055000 0.055000 1.200000 0.035000 0.042000
1518117526453753480	1000 58 1.000000 0.427000 0.462000 1000 53 0.900000 2.105000 2.046000 600 62 1.000000 0.055000 0.055000 1.200000 0.035000 0.042000
1518117527021705563	1000 58 1.000000 0.427000 0.462000 1000 53 0.900000 2.105000 2.046000 600 62 1.000000 0.055000 0.055000 1.200000 0.035000 0.042000
1518117527569698563	1000 58 1.000000 0.427000 0.462000 1000 53 0.900000 2.113000 2.053000 600 62 1.000000 0.055000 0.055000 1.200000 0.035000 0.042000
1518117528133713605	1000 58 1.000000 0.427000 0.462000 1000 53 0.900000 2.112000 2.052000 600 62 1.000000 0.055000 0.055000 1.200000 0.035000 0.042000
1518117528689759605	1000 58 1.000000 0.427000 0.462000 1000 53 0.900000 2.109000 2.049000 600 62 1.000000 0.055000 0.055000 1.200000 0.035000 0.042000
1518117529265697147	1000 58 1.000000 0.427000 0.462000 1000 53 0.900000 2.103000 2.044000 600 62 1.000000 0.055000 0.055000 1.200000 0.034000 0.041000
1518117529829724980	1000 58 1.000000 0.427000 0.462000 1000 53 0.900000 2.101000 2.042000 600 62 1.000000 0.055000 0.055000 1.200000 0.034000 0.041000
1518117530385715772	1000 58 1.000000 0.427000 0.462000 1000 53 0.900000 2.105000 2.046000 600 62 1.000000 0.055000 0.055000 1.200000 0.035000 0.042000
1518117530938076481	1000 58 1.000000 0.427000 0.462000 1000 53 0.900000 2.097000 2.038000 600 62 1.000000 0.055000 0.055000 1.200000 0.035000 0.042000
1518117531493791772	1000 58 1.000000 0.425000 0.460000 1000 53 0.900000 2.005000 1.948000 600 62 1.000000 0.055000 0.055000 1.200000 0.044000 0.053000
1518117532049736439	1000 58 1.000000 0.427000 0.462000 1000 53 0.900000 2.101000 2.042000 600 62 1.000000 0.055000 0.055000 1.200000 0.036000 0.043000
1518117532609722481	1000 58 1.000000 0.427000 0.462000 1000 53 0.900000 2.102000 2.043000 600 62 1.000000 0.055000 0.055000 1.200000 0.035000 0.042000
1518117533165742189	1000 58 1.000000 0.427000 0.462000 1000 53 0.900000 2.102000 2.043000 600 62 1.000000 0.055000 0.055000 1.200000 0.034000 0.041000
1518117533725671648	1000 58 1.000000 0.427000 0.462000 1000 53 0.900000 2.103000 2.044000 600 62 1.000000 0.055000 0.055000 1.200000 0.035000 0.042000
1518117534285722731	1000 58 1.000000 0.427000 0.462000 1000 53 0.900000 2.097000 2.038000 600 62 1.000000 0.055000 0.055000 1.200000 0.035000 0.042000
1518117534849734398	1000 58 1.000000 0.427000 0.462000 1000 53 0.900000 2.101000 2.042000 600 62 1.000000 0.055000 0.055000 1.200000 0.034000 0.041000
1518117535417724064	1000 58 1.000000 0.427000 0.462000 1000 53 0.900000 2.096000 2.037000 600 62 1.000000 0.055000 0.055000 1.200000 0.035000 0.042000
1518117535977703523	1000 58 1.000000 0.427000 0.462000 1000 53 0.900000 2.097000 2.038000 600 62 1.000000 0.055000 0.055000 1.200000 0.035000 0.042000
1518117536533726231	1000 58 1.000000 0.427000 0.462000 1000 53 0.900000 2.100000 2.041000 600 62 1.000000 0.055000 0.055000 1.200000 0.035000 0.042000
1518117537097715481	1000 58 1.000000 0.427000 0.462000 1000 53 0.900000 2.102000 2.043000 600 62 1.000000 0.055000 0.055000 1.200000 0.035000 0.042000
1518117537669717815	1000 58 1.000000 0.427000 0.462000 1000 53 0.900000 2.103000 2.044000 600 62 1.000000 0.055000 0.055000 1.200000 0.035000 0.042000
1518117538237687231	1000 58 1.000000 0.427000 0.462000 1000 53 0.900000 2.102000 2.043000 600 62 1.000000 0.055000 0.055000 1.200000 0.034000 0.041000
1518117538809715023	1000 58 1.000000 0.427000 0.462000 1000 53 0.900000 2.103000 2.044000 600 62 1.000000 0.055000 0.055000 1.200000 0.035000 0.042000
1518117539373695107	1000 58 1.000000 0.427000 0.462000 1000 53 0.900000 2.095000 2.036000 600 62 1.000000 0.055000 0.055000 1.200000 0.035000 0.042000
1518117539937699357	1000 58 1.000000 0.427000 0.462000 1000 53 0.900000 2.089000 2.030000 600 62 1.000000 0.055000 0.055000 1.200000 0.034000 0.041000
1518117540489710857	1000 58 1.000000 0.427000 0.462000 1000 53 0.900000 2.102000 2.043000 600 62 1.000000 0.055000 0.055000 1.200000 0.035000 0.042000
1518117541061704190	1000 58 1.000000 0.427000 0.462000 1000 53 0.900000 2.114000 2.054000 600 62 1.000000 0.055000 0.055000 1.200000 0.035000 0.042000
1518117541629666149	1000 58 1.000000 0.428000 0.463000 1000 53 0.900000 2.113000 2.053000 600 62 1.000000 0.055000 0.055000 1.200000 0.035000 0.042000
1518117542189800982	1000 58 1.000000 0.427000 0.462000 1000 53 0.900000 2.113000 2.053000 600 62 1.000000 0.055000 0.055000 1.200000 0.036000 0.043000
1518117542733745149	1000 58 1.000000 0.427000 0.462000 1000 53 0.900000 2.114000 2.054000 600 62 1.000000 0.055000 0.055000 1.200000 0.035000 0.042000
1518117543289777774	1000 58 1.000000 0.427000 0.462000 1000 53 0.900000 2.114000 2.054000 600 62 1.000000 0.055000 0.055000 1.200000 0.035000 0.042000
1518117543857743482	1000 58 1.000000 0.427000 0.462000 1000 53 0.900000 2.113000 2.053000 600 62 1.000000 0.055000 0.055000 1.200000 0.036000 0.043000
1518117544417710982	1000 58 1.000000 0.427000 0.462000 1000 53 0.900000 2.110000 2.050000 600 62 1.000000 0.055000 0.055000 1.200000 0.035000 0.042000
1518117544981712941	1000 58 1.000000 0.427000 0.462000 1000 53 0.900000 2.111000 2.051000 600 62 1.000000 0.055000 0.055000 1.200000 0.035000 0.042000
1518117545549667566	1000 58 1.000000 0.427000 0.462000 1000 53 0.900000 2.115000 2.055000 600 62 1.000000 0.055000 0.055000 1.200000 0.036000 0.043000
1518117546097695191	1000 58 1.000000 0.427000 0.462000 1000 53 0.900000 2.114000 2.054000 600 62 1.000000 0.055000 0.055000 1.200000 0.035000 0.042000
1518117546637745899	1000 58 1.000000 0.427000 0.462000 1000 53 0.900000 2.114000 2.054000 600 63 1.000000 0.055000 0.055000 1.200000 0.035000 0.042000
1518117547205678358	1000 58 1.000000 0.427000 0.462000 1000 53 0.900000 2.116000 2.056000 600 62 1.000000 0.055000 0.055000 1.200000 0.035000 0.042000
1518117547761727274	1000 58 1.000000 0.427000 0.462000 1000 53 0.900000 2.114000 2.054000 600 62 1.000000 0.055000 0.055000 1.200000 0.035000 0.042000
1518117548317718733	1000 58 1.000000 0.427000 0.462000 1000 53 0.900000 2.113000 2.053000 600 62 1.000000 0.055000 0.055000 1.200000 0.035000 0.042000
1518117548889765483	1000 58 1.000000 0.427000 0.462000 1000 53 0.900000 2.114000 2.054000 600 62 1.000000 0.055000 0.055000 1.200000 0.036000 0.043000
1518117549441733316	1000 58 1.000000 0.427000 0.462000 1000 53 0.900000 2.108000 2.048000 600 62 1.000000 0.055000 0.055000 1.200000 0.035000 0.042000
1518117549985769233	1000 58 1.000000 0.427000 0.462000 1000 53 0.900000 2.107000 2.048000 600 62 1.000000 0.055000 0.055000 1.200000 0.035000 0.042000
1518117550545746400	1000 58 1.000000 0.427000 0.462000 1000 53 0.900000 2.110000 2.050000 600 62 1.000000 0.055000 0.055000 1.200000 0.035000 0.042000
1518117551109735150	1000 58 1.000000 0.427000 0.462000 1000 53 0.900000 2.111000 2.051000 600 62 1.000000 0.055000 0.055000 1.200000 0.035000 0.042000
1518117551681717525	1000 58 1.000000 0.428000 0.463000 1000 53 0.900000 2.116000 2.056000 600 62 1.000000 0.055000 0.055000 1.200000 0.034000 0.041000
1518117552237744816	1000 58 1.000000 0.428000 0.463000 1000 53 0.900000 2.115000 2.055000 600 62 1.000000 0.055000 0.055000 1.200000 0.034000 0.041000
1518117552789752483	1000 58 1.000000 0.428000 0.463000 1000 53 0.900000 2.114000 2.054000 600 62 1.000000 0.055000 0.055000 1.200000 0.033000 0.039000
1518117553349726733	1000 58 1.000000 0.428000 0.463000 1000 53 0.900000 2.116000 2.056000 600 62 1.000000 0.055000 0.055000 1.200000 0.033000 0.039000
1518117553905743275	1000 58 1.000000 0.428000 0.463000 1000 53 0.900000 2.107000 2.048000 600 62 1.000000 0.055000 0.055000 1.200000 0.034000 0.041000
1518117554473718108	1000 58 1.000000 0.427000 0.462000 1000 53 0.900000 2.109000 2.049000 600 62 1.000000 0.055000 0.055000 1.200000 0.033000 0.039000
1518117555037683025	1000 58 1.000000 0.428000 0.463000 1000 53 0.900000 2.111000 2.051000 600 62 1.000000 0.055000 0.055000 1.200000 0.033000 0.039000
1518117555605736900	1000 58 1.000000 0.428000 0.463000 1000 53 0.900000 2.107000 2.048000 600 62 1.000000 0.055000 0.055000 1.200000 0.033000 0.039000
1518117556173715900	1000 58 1.000000 0.427000 0.462000 1000 53 0.900000 2.102000 2.043000 600 62 1.000000 0.055000 0.055000 1.200000 0.034000 0.041000
1518117556721760400	1000 58 1.000000 0.427000 0.462000 1000 53 0.900000 2.102000 2.043000 600 62 1.000000 0.055000 0.055000 1.200000 0.034000 0.041000
1518117557281737734	1000 58 1.000000 0.428000 0.463000 1000 53 0.900000 2.105000 2.046000 600 62 1.000000 0.055000 0.055000 1.200000 0.034000 0.041000
1518117557845723192	1000 58 1.000000 0.428000 0.464000 1000 53 0.900000 2.105000 2.046000 600 62 1.000000 0.055000 0.055000 1.200000 0.034000 0.041000
1518117558397792776	1000 58 1.000000 0.427000 0.462000 1000 53 0.900000 2.107000 2.048000 600 62 1.000000 0.055000 0.055000 1.200000 0.034000 0.041000
1518117558941725651	1000 58 1.000000 0.428000 0.463000 1000 53 0.900000 2.107000 2.048000 600 62 1.000000 0.055000 0.055000 1.200000 0.034000 0.041000
1518117559505740317	1000 58 1.000000 0.427000 0.462000 1000 53 0.900000 2.107000 2.048000 600 62 1.000000 0.055000 0.055000 1.200000 0.034000 0.041000
1518117560057765276	1000 58 1.000000 0.428000 0.463000 1000 53 0.900000 2.115000 2.055000 600 62 1.000000 0.055000 0.055000 1.200000 0.034000 0.041000
1518117560605695526	1000 58 1.000000 0.428000 0.463000 1000 53 0.900000 2.109000 2.049000 600 62 1.000000 0.055000 0.055000 1.200000 0.033000 0.039000
1518117561169716109	1000 58 1.000000 0.428000 0.463000 1000 53 0.900000 2.106000 2.047000 600 62 1.000000 0.055000 0.055000 1.200000 0.033000 0.039000
1518117561725705234	1000 58 1.000000 0.427000 0.462000 1000 53 0.900000 2.105000 2.046000 600 62 1.000000 0.055000 0.055000 1.200000 0.034000 0.041000
1518117562285743276	1000 58 1.000000 0.428000 0.463000 1000 53 0.900000 2.108000 2.048000 600 62 1.000000 0.055000 0.055000 1.200000 0.033000 0.039000
1518117562841722984	1000 58 1.000000 0.428000 0.463000 1000 53 0.900000 2.116000 2.056000 600 62 1.000000 0.055000 0.055000 1.200000 0.034000 0.041000
1518117563400768693	1000 58 1.000000 0.427000 0.462000 1000 53 0.900000 2.118000 2.058000 600 62 1.000000 0.055000 0.055000 1.200000 0.034000 0.041000
1518117563949794735	1000 58 1.000000 0.428000 0.463000 1000 53 0.900000 2.112000 2.052000 600 62 1.000000 0.055000 0.055000 1.200000 0.034000 0.041000
1518117564509762610	1000 58 1.000000 0.428000 0.463000 1000 53 0.900000 2.111000 2.051000 600 62 1.000000 0.055000 0.055000 1.200000 0.034000 0.041000
1518117565077751776	1000 58 1.000000 0.428000 0.463000 1000 53 0.900000 2.120000 2.060000 600 62 1.000000 0.055000 0.055000 1.200000 0.033000 0.039000
1518117565649759985	1000 58 1.000000 0.427000 0.462000 1000 53 0.900000 2.114000 2.054000 600 62 1.000000 0.055000 0.055000 1.200000 0.033000 0.039000
1518117566209759776	1000 58 1.000000 0.428000 0.463000 1000 53 0.900000 2.114000 2.054000 600 62 1.000000 0.055000 0.055000 1.200000 0.033000 0.039000
1518117566769781443	1000 58 1.000000 0.428000 0.463000 1000 53 0.900000 2.113000 2.053000 600 62 1.000000 0.055000 0.055000 1.200000 0.034000 0.041000
1518117567337668818	1000 58 1.000000 0.428000 0.464000 1000 53 0.900000 2.114000 2.054000 600 62 1.000000 0.055000 0.055000 1.200000 0.033000 0.039000
1518117567897715818	1000 58 1.000000 0.428000 0.463000 1000 53 0.900000 2.109000 2.049000 600 62 1.000000 0.055000 0.055000 1.200000 0.034000 0.041000
1518117568461692985	1000 58 1.000000 0.428000 0.463000 1000 53 0.900000 2.117000 2.057000 600 62 1.000000 0.055000 0.055000 1.200000 0.034000 0.041000
1518117569013711277	1000 58 1.000000 0.428000 0.463000 1000 53 0.900000 2.119000 2.059000 600 62 1.000000 0.055000 0.055000 1.200000 0.034000 0.041000
1518117569569748694	1000 58 1.000000 0.428000 0.463000 1000 53 0.900000 2.121000 2.061000 600 62 1.000000 0.055000 0.055000 1.200000 0.033000 0.039000
1518117570121727819	1000 58 1.000000 0.428000 0.463000 1000 53 0.900000 2.120000 2.060000 600 62 1.000000 0.055000 0.055000 1.200000 0.033000 0.039000
1518117570673718860	1000 58 1.000000 0.428000 0.463000 1000 53 0.900000 2.120000 2.060000 600 62 1.000000 0.055000 0.055000 1.200000 0.033000 0.039000
1518117571233736652	1000 58 1.000000 0.427000 0.462000 1000 53 0.900000 2.106000 2.047000 600 62 1.000000 0.055000 0.055000 1.200000 0.034000 0.041000
1518117571793682069	1000 58 1.000000 0.428000 0.463000 1000 53 0.900000 2.101000 2.042000 600 62 1.000000 0.055000 0.055000 1.200000 0.034000 0.041000
1518117572357699777	1000 58 1.000000 0.429000 0.464000 1000 53 0.900000 2.090000 2.031000 600 62 1.000000 0.055000 0.055000 1.200000 0.033000 0.039000
1518117572913728861	1000 58 1.000000 0.431000 0.466000 1000 53 0.900000 2.091000 2.032000 600 62 1.000000 0.055000 0.055000 1.200000 0.033000 0.039000
1518117573489680361	1000 58 1.000000 0.431000 0.466000 1000 53 0.900000 2.091000 2.032000 600 62 1.000000 0.055000 0.055000 1.200000 0.033000 0.039000
1518117574049731902	1000 58 1.000000 0.431000 0.466000 1000 53 0.900000 2.098000 2.039000 600 62 1.000000 0.055000 0.055000 1.200000 0.032000 0.038000
1518117574617725277	1000 58 1.000000 0.431000 0.466000 1000 53 0.900000 2.097000 2.038000 600 62 1.000000 0.055000 0.055000 1.200000 0.032000 0.038000
1518117575185651569	1000 58 1.000000 0.431000 0.466000 1000 53 0.900000 2.098000 2.039000 600 62 1.000000 0.055000 0.055000 1.200000 0.032000 0.038000
1518117575741727403	1000 58 1.000000 0.431000 0.466000 1000 53 0.900000 2.097000 2.038000 600 62 1.000000 0.055000 0.055000 1.200000 0.032000 0.038000
1518117576293729111	1000 58 1.000000 0.431000 0.466000 1000 53 0.900000 2.091000 2.032000 600 62 1.000000 0.055000 0.055000 1.200000 0.032000 0.038000
1518117576849688069	1000 58 1.000000 0.431000 0.466000 1000 53 0.900000 2.088000 2.029000 600 62 1.000000 0.055000 0.055000 1.200000 0.032000 0.038000
1518117577413688986	1000 58 1.000000 0.431000 0.466000 1000 53 0.900000 2.092000 2.033000 600 62 1.000000 0.055000 0.055000 1.200000 0.033000 0.039000
1518117577969696445	1000 58 1.000000 0.430000 0.465000 1000 53 0.900000 2.099000 2.040000 600 62 1.000000 0.055000 0.055000 1.200000 0.032000 0.038000
1518117578525704820	1000 58 1.000000 0.431000 0.466000 1000 53 0.900000 2.098000 2.039000 600 62 1.000000 0.055000 0.055000 1.200000 0.032000 0.038000
1518117579089697320	1000 58 1.000000 0.431000 0.466000 1000 53 0.900000 2.097000 2.038000 600 62 1.000000 0.055000 0.055000 1.200000 0.032000 0.038000
1518117579649745153	1000 58 1.000000 0.431000 0.466000 1000 53 0.900000 2.098000 2.039000 600 62 1.000000 0.055000 0.055000 1.200000 0.032000 0.038000
1518117580205718195	1000 58 1.000000 0.431000 0.466000 1000 53 0.900000 2.099000 2.040000 600 62 1.000000 0.055000 0.055000 1.200000 0.032000 0.038000
1518117580777726153	1000 58 1.000000 0.431000 0.466000 1000 53 0.900000 2.097000 2.038000 600 62 1.000000 0.055000 0.055000 1.200000 0.032000 0.038000
1518117581333689403	1000 58 1.000000 0.431000 0.466000 1000 53 0.900000 2.091000 2.032000 600 62 1.000000 0.055000 0.055000 1.200000 0.033000 0.039000
1518117581893681487	1000 58 1.000000 0.431000 0.466000 1000 53 0.900000 2.108000 2.048000 600 62 1.000000 0.055000 0.055000 1.200000 0.032000 0.038000
1518117582461677820	1000 58 1.000000 0.431000 0.466000 1000 53 0.900000 2.098000 2.039000 600 62 1.000000 0.055000 0.055000 1.200000 0.032000 0.038000
1518117583025738820	1000 58 1.000000 0.431000 0.466000 1000 53 0.900000 2.105000 2.046000 600 62 1.000000 0.055000 0.055000 1.200000 0.032000 0.038000
1518117583581759612	1000 58 1.000000 0.431000 0.466000 1000 53 0.900000 2.104000 2.045000 600 62 1.000000 0.055000 0.055000 1.200000 0.032000 0.038000
1518117584133741695	1000 58 1.000000 0.431000 0.466000 1000 53 0.900000 2.105000 2.046000 600 62 1.000000 0.055000 0.055000 1.200000 0.033000 0.039000
1518117584689720362	1000 58 1.000000 0.431000 0.466000 1000 53 0.900000 2.106000 2.047000 600 62 1.000000 0.055000 0.055000 1.200000 0.032000 0.038000
1518117585253703945	1000 58 1.000000 0.431000 0.466000 1000 53 0.900000 2.105000 2.046000 600 62 1.000000 0.055000 0.055000 1.200000 0.032000 0.038000
1518117585817739820	1000 58 1.000000 0.431000 0.466000 1000 53 0.900000 2.104000 2.045000 600 62 1.000000 0.055000 0.055000 1.200000 0.033000 0.039000
1518117586373645946	1000 58 1.000000 0.431000 0.466000 1000 53 0.900000 2.102000 2.043000 600 62 1.000000 0.055000 0.055000 1.200000 0.033000 0.039000
1518117586925715362	1000 58 1.000000 0.431000 0.466000 1000 53 0.900000 2.098000 2.039000 600 62 1.000000 0.055000 0.055000 1.200000 0.033000 0.039000
1518117587485743404	1000 58 1.000000 0.431000 0.466000 1000 53 0.900000 2.105000 2.046000 600 62 1.000000 0.055000 0.055000 1.200000 0.032000 0.038000
1518117588049704821	1000 58 1.000000 0.431000 0.466000 1000 53 0.900000 2.104000 2.045000 600 62 1.000000 0.055000 0.055000 1.200000 0.033000 0.039000
1518117588613743154	1000 58 1.000000 0.431000 0.466000 1000 53 0.900000 2.102000 2.043000 600 62 1.000000 0.055000 0.055000 1.200000 0.033000 0.039000
1518117589173774779	1000 58 1.000000 0.431000 0.466000 1000 53 0.900000 2.102000 2.043000 600 62 1.000000 0.055000 0.055000 1.200000 0.033000 0.039000
1518117589737722904	1000 58 1.000000 0.431000 0.466000 1000 53 0.900000 2.095000 2.036000 600 62 1.000000 0.055000 0.055000 1.200000 0.032000 0.038000
1518117590289718363	1000 58 1.000000 0.431000 0.466000 1000 53 0.900000 2.095000 2.036000 600 62 1.000000 0.055000 0.055000 1.200000 0.033000 0.039000
1518117590845691571	1000 58 1.000000 0.431000 0.466000 1000 53 0.900000 2.099000 2.040000 600 62 1.000000 0.055000 0.055000 1.200000 0.033000 0.039000
1518117591405752571	1000 58 1.000000 0.431000 0.466000 1000 53 0.900000 2.093000 2.032000 600 62 1.000000 0.055000 0.055000 1.200000 0.032000 0.038000
1518117591973722488	1000 58 1.000000 0.431000 0.466000 1000 53 0.900000 2.100000 2.041000 600 62 1.000000 0.055000 0.055000 1.200000 0.032000 0.038000
1518117592537722321	1000 58 1.000000 0.430000 0.465000 1000 53 0.900000 2.101000 2.042000 600 62 1.000000 0.055000 0.055000 1.200000 0.032000 0.038000
1518117593097677155	1000 58 1.000000 0.429000 0.464000 1000 53 0.900000 2.095000 2.034000 600 62 1.000000 0.055000 0.055000 1.200000 0.032000 0.038000
1518117593653699030	1000 58 1.000000 0.428000 0.463000 1000 53 0.900000 2.103000 2.044000 600 62 1.000000 0.055000 0.055000 1.200000 0.033000 0.039000
1518117594209717446	1000 58 1.000000 0.428000 0.463000 1000 53 0.900000 2.093000 2.034000 600 62 1.000000 0.055000 0.055000 1.200000 0.033000 0.039000
1518117594762108030	1000 58 1.000000 0.428000 0.463000 1000 53 0.900000 2.099000 2.040000 600 62 1.000000 0.055000 0.055000 1.200000 0.033000 0.039000
1518117595329707197	1000 58 1.000000 0.428000 0.463000 1000 53 0.900000 2.104000 2.045000 600 62 1.000000 0.055000 0.055000 1.200000 0.033000 0.039000
1518117595881679363	1000 58 1.000000 0.428000 0.463000 1000 53 0.900000 2.098000 2.039000 600 62 1.000000 0.055000 0.055000 1.200000 0.033000 0.039000
1518117596445679197	1000 58 1.000000 0.428000 0.463000 1000 53 0.900000 2.104000 2.045000 600 62 1.000000 0.055000 0.055000 1.200000 0.033000 0.039000
1518117597013719738	1000 58 1.000000 0.428000 0.463000 1000 53 0.900000 2.100000 2.041000 600 62 1.000000 0.055000 0.055000 1.200000 0.033000 0.039000
1518117597577670447	1000 58 1.000000 0.428000 0.463000 1000 53 0.900000 2.095000 2.036000 600 62 1.000000 0.055000 0.055000 1.200000 0.033000 0.039000
1518117598145690197	1000 58 1.000000 0.428000 0.463000 1000 53 0.900000 2.095000 2.036000 600 62 1.000000 0.055000 0.055000 1.200000 0.033000 0.039000
1518117598697718322	1000 58 1.000000 0.428000 0.463000 1000 53 0.900000 2.102000 2.043000 600 62 1.000000 0.055000 0.055000 1.200000 0.034000 0.041000
1518117599261736947	1000 58 1.000000 0.428000 0.463000 1000 53 0.900000 2.101000 2.042000 600 62 1.000000 0.055000 0.055000 1.200000 0.033000 0.039000
1518117599833642197	1000 58 1.000000 0.428000 0.463000 1000 53 0.900000 2.105000 2.046000 600 62 1.000000 0.055000 0.055000 1.200000 0.033000 0.039000
1518117600381683489	1000 58 1.000000 0.428000 0.463000 1000 53 0.900000 2.101000 2.042000 600 62 1.000000 0.055000 0.055000 1.200000 0.033000 0.039000
1518117600945674364	1000 58 1.000000 0.428000 0.463000 1000 53 0.900000 2.107000 2.048000 600 62 1.000000 0.055000 0.055000 1.200000 0.033000 0.039000
1518117601497720531	1000 58 1.000000 0.428000 0.463000 1000 53 0.900000 2.109000 2.049000 600 62 1.000000 0.055000 0.055000 1.200000 0.033000 0.039000
1518117602061708489	1000 58 1.000000 0.428000 0.463000 1000 53 0.900000 2.107000 2.048000 600 62 1.000000 0.055000 0.055000 1.200000 0.033000 0.039000
1518117602621733531	1000 58 1.000000 0.428000 0.463000 1000 53 0.900000 2.095000 2.036000 600 62 1.000000 0.055000 0.055000 1.200000 0.033000 0.039000
1518117603177675073	1000 58 1.000000 0.428000 0.463000 1000 53 0.900000 2.098000 2.039000 600 62 1.000000 0.055000 0.055000 1.200000 0.033000 0.039000
1518117603737735573	1000 58 1.000000 0.428000 0.463000 1000 53 0.900000 2.092000 2.033000 600 62 1.000000 0.055000 0.055000 1.200000 0.033000 0.039000
1518117604289722864	1000 58 1.000000 0.428000 0.463000 1000 53 0.900000 2.100000 2.041000 600 62 1.000000 0.055000 0.055000 1.200000 0.033000 0.039000
1518117604841741073	1000 58 1.000000 0.428000 0.463000 1000 53 0.900000 2.096000 2.037000 600 62 1.000000 0.055000 0.055000 1.200000 0.033000 0.039000
1518117605401708364	1000 58 1.000000 0.428000 0.463000 1000 53 0.900000 2.098000 2.039000 600 62 1.000000 0.055000 0.055000 1.200000 0.034000 0.041000
1518117605969715365	1000 58 1.000000 0.428000 0.463000 1000 53 0.900000 2.105000 2.046000 600 62 1.000000 0.055000 0.055000 1.200000 0.033000 0.039000
1518117606533716865	1000 58 1.000000 0.428000 0.463000 1000 53 0.900000 2.105000 2.046000 600 62 1.000000 0.055000 0.055000 1.200000 0.033000 0.039000
1518117607097702448	1000 58 1.000000 0.428000 0.463000 1000 53 0.900000 2.104000 2.045000 600 62 1.000000 0.055000 0.055000 1.200000 0.033000 0.039000
1518117607645758740	1000 58 1.000000 0.428000 0.463000 1000 53 0.900000 2.098000 2.039000 600 62 1.000000 0.055000 0.055000 1.200000 0.033000 0.039000
1518117608201658740	1000 58 1.000000 0.428000 0.463000 1000 53 0.900000 2.094000 2.035000 600 62 1.000000 0.055000 0.055000 1.200000 0.033000 0.039000
1518117608781760032	1000 58 1.000000 0.428000 0.463000 1000 53 0.900000 2.099000 2.040000 600 62 1.000000 0.055000 0.055000 1.200000 0.033000 0.039000
1518117609337697615	1000 58 1.000000 0.428000 0.463000 1000 53 0.900000 2.099000 2.040000 600 62 1.000000 0.055000 0.055000 1.200000 0.033000 0.039000
1518117609897673615	1000 58 1.000000 0.428000 0.463000 1000 53 0.900000 2.105000 2.046000 600 62 1.000000 0.055000 0.055000 1.200000 0.033000 0.039000
1518117610457709865	1000 58 1.000000 0.428000 0.463000 1000 53 0.900000 2.105000 2.046000 600 62 1.000000 0.055000 0.055000 1.200000 0.033000 0.039000
1518117611009681198	1000 58 1.000000 0.428000 0.463000 1000 53 0.900000 2.105000 2.046000 600 62 1.000000 0.055000 0.055000 1.200000 0.033000 0.039000
1518117611561657115	1000 58 1.000000 0.428000 0.463000 1000 53 0.900000 2.105000 2.046000 600 62 1.000000 0.055000 0.055000 1.200000 0.033000 0.039000
1518117612125704990	1000 58 1.000000 0.428000 0.463000 1000 53 0.900000 2.100000 2.041000 600 62 1.000000 0.055000 0.055000 1.200000 0.034000 0.041000
1518117612677757490	1000 58 1.000000 0.428000 0.463000 1000 53 0.900000 2.104000 2.045000 600 62 1.000000 0.055000 0.055000 1.200000 0.034000 0.041000
1518117613245667615	1000 58 1.000000 0.428000 0.463000 1000 53 0.900000 2.103000 2.044000 600 62 1.000000 0.055000 0.055000 1.200000 0.034000 0.041000
1518117613789756240	1000 58 1.000000 0.428000 0.463000 1000 53 0.900000 2.104000 2.045000 600 62 1.000000 0.055000 0.055000 1.200000 0.035000 0.042000
1518117614341771282	1000 58 1.000000 0.429000 0.464000 1000 53 0.900000 2.103000 2.044000 600 62 1.000000 0.055000 0.055000 1.200000 0.034000 0.041000
1518117614901729449	1000 58 1.000000 0.430000 0.465000 1000 53 0.900000 2.094000 2.035000 600 62 1.000000 0.055000 0.055000 1.200000 0.035000 0.042000
1518117615453729449	1000 58 1.000000 0.430000 0.465000 1000 53 0.900000 2.110000 2.050000 600 62 1.000000 0.055000 0.055000 1.200000 0.035000 0.042000
1518117616005674949	1000 58 1.000000 0.430000 0.465000 1000 53 0.900000 2.109000 2.049000 600 62 1.000000 0.055000 0.055000 1.200000 0.034000 0.041000
1518117616569691907	1000 58 1.000000 0.430000 0.465000 1000 53 0.900000 2.110000 2.050000 600 62 1.000000 0.055000 0.055000 1.200000 0.034000 0.041000
1518117617121731491	1000 58 1.000000 0.430000 0.465000 1000 53 0.900000 2.109000 2.049000 600 62 1.000000 0.055000 0.055000 1.200000 0.034000 0.041000
1518117617677689074	1000 58 1.000000 0.430000 0.465000 1000 53 0.900000 2.110000 2.050000 600 62 1.000000 0.055000 0.055000 1.200000 0.034000 0.041000
1518117618229709991	1000 58 1.000000 0.429000 0.464000 1000 53 0.900000 2.110000 2.050000 600 62 1.000000 0.055000 0.055000 1.200000 0.034000 0.041000
1518117618797702158	1000 58 1.000000 0.430000 0.465000 1000 53 0.900000 2.109000 2.049000 600 62 1.000000 0.055000 0.055000 1.200000 0.035000 0.042000
1518117619357698199	1000 58 1.000000 0.430000 0.465000 1000 53 0.900000 2.105000 2.046000 600 62 1.000000 0.055000 0.055000 1.200000 0.035000 0.042000
1518117619913731825	1000 58 1.000000 0.429000 0.464000 1000 53 0.900000 2.100000 2.041000 600 62 1.000000 0.055000 0.055000 1.200000 0.034000 0.041000
1518117620465755908	1000 58 1.000000 0.430000 0.465000 1000 53 0.900000 2.110000 2.050000 600 62 1.000000 0.055000 0.055000 1.200000 0.034000 0.041000
1518117621021720366	1000 58 1.000000 0.430000 0.465000 1000 53 0.900000 2.108000 2.046000 600 62 1.000000 0.055000 0.055000 1.200000 0.035000 0.042000
1518117621593651116	1000 58 1.000000 0.430000 0.465000 1000 53 0.900000 2.110000 2.050000 600 62 1.000000 0.055000 0.055000 1.200000 0.034000 0.041000
1518117622145729991	1000 58 1.000000 0.430000 0.465000 1000 53 0.900000 2.119000 2.059000 600 62 1.000000 0.055000 0.055000 1.200000 0.035000 0.042000
1518117622697735242	1000 58 1.000000 0.429000 0.464000 1000 53 0.900000 2.123000 2.063000 600 62 1.000000 0.055000 0.055000 1.200000 0.034000 0.041000
1518117623249718450	1000 58 1.000000 0.430000 0.465000 1000 53 0.900000 2.110000 2.050000 600 62 1.000000 0.055000 0.055000 1.200000 0.034000 0.041000
1518117623801712908	1000 58 1.000000 0.430000 0.465000 1000 53 0.900000 2.105000 2.046000 600 62 1.000000 0.055000 0.055000 1.200000 0.035000 0.042000
1518117624365678658	1000 58 1.000000 0.429000 0.464000 1000 53 0.900000 2.107000 2.048000 600 62 1.000000 0.055000 0.055000 1.200000 0.035000 0.042000
1518117624913762075	1000 58 1.000000 0.429000 0.464000 1000 53 0.900000 2.111000 2.051000 600 62 1.000000 0.055000 0.055000 1.200000 0.035000 0.042000
1518117625473684200	1000 58 1.000000 0.430000 0.465000 1000 53 0.900000 2.108000 2.048000 600 62 1.000000 0.055000 0.055000 1.200000 0.034000 0.041000
1518117626017686200	1000 58 1.000000 0.430000 0.465000 1000 53 0.900000 2.106000 2.047000 600 62 1.000000 0.055000 0.055000 1.200000 0.035000 0.042000
1518117626581683284	1000 58 1.000000 0.430000 0.465000 1000 53 0.900000 2.103000 2.044000 600 62 1.000000 0.055000 0.055000 1.200000 0.035000 0.042000
1518117627145768534	1000 58 1.000000 0.430000 0.465000 1000 53 0.900000 2.102000 2.043000 600 62 1.000000 0.055000 0.055000 1.200000 0.034000 0.041000
1518117627697778659	1000 58 1.000000 0.430000 0.465000 1000 53 0.900000 2.101000 2.042000 600 62 1.000000 0.055000 0.055000 1.200000 0.035000 0.042000
1518117628249707325	1000 58 1.000000 0.429000 0.464000 1000 53 0.900000 2.099000 2.040000 600 62 1.000000 0.055000 0.055000 1.200000 0.034000 0.041000
1518117628805716659	1000 58 1.000000 0.430000 0.465000 1000 53 0.900000 2.104000 2.045000 600 62 1.000000 0.055000 0.055000 1.200000 0.035000 0.042000
1518117629373714117	1000 58 1.000000 0.429000 0.464000 1000 53 0.900000 2.106000 2.047000 600 62 1.000000 0.055000 0.055000 1.200000 0.035000 0.042000
1518117629929739867	1000 58 1.000000 0.429000 0.464000 1000 53 0.900000 2.098000 2.039000 600 62 1.000000 0.055000 0.055000 1.200000 0.035000 0.042000
1518117630493691076	1000 58 1.000000 0.429000 0.464000 1000 53 0.900000 2.111000 2.051000 600 62 1.000000 0.055000 0.055000 1.200000 0.035000 0.042000
1518117631049713159	1000 58 1.000000 0.429000 0.464000 1000 53 0.900000 2.108000 2.048000 600 62 1.000000 0.055000 0.055000 1.200000 0.034000 0.041000
1518117631605714784	1000 58 1.000000 0.429000 0.464000 1000 53 0.900000 2.105000 2.046000 600 62 1.000000 0.055000 0.055000 1.200000 0.034000 0.041000
1518117632169691993	1000 58 1.000000 0.430000 0.465000 1000 53 0.900000 2.098000 2.039000 600 62 1.000000 0.055000 0.055000 1.200000 0.034000 0.041000
1518117632737728534	1000 58 1.000000 0.430000 0.465000 1000 53 0.900000 2.104000 2.045000 600 62 1.000000 0.055000 0.055000 1.200000 0.035000 0.042000
1518117633297720451	1000 58 1.000000 0.429000 0.464000 1000 53 0.900000 2.109000 2.049000 600 62 1.000000 0.055000 0.055000 1.200000 0.035000 0.042000
1518117633853714160	1000 58 1.000000 0.429000 0.464000 1000 53 0.900000 2.101000 2.042000 600 62 1.000000 0.055000 0.055000 1.200000 0.035000 0.042000
1518117634413751285	1000 58 1.000000 0.429000 0.464000 1000 53 0.900000 2.104000 2.045000 600 62 1.000000 0.055000 0.055000 1.200000 0.034000 0.041000
1518117634985743201	1000 58 1.000000 0.429000 0.464000 1000 53 0.900000 2.111000 2.049000 600 62 1.000000 0.055000 0.055000 1.200000 0.033000 0.039000
1518117635549705743	1000 58 1.000000 0.428000 0.463000 1000 53 0.900000 2.112000 2.052000 600 62 1.000000 0.055000 0.055000 1.200000 0.034000 0.041000
1518117636113720160	1000 58 1.000000 0.429000 0.464000 1000 53 0.900000 2.106000 2.047000 600 62 1.000000 0.055000 0.055000 1.200000 0.034000 0.041000
1518117636657731493	1000 58 1.000000 0.428000 0.463000 1000 53 0.900000 2.107000 2.048000 600 62 1.000000 0.055000 0.055000 1.200000 0.034000 0.041000
1518117637221675493	1000 58 1.000000 0.428000 0.463000 1000 53 0.900000 2.101000 2.042000 600 62 1.000000 0.055000 0.055000 1.200000 0.034000 0.041000
1518117637777700118	1000 58 1.000000 0.428000 0.463000 1000 53 0.900000 2.106000 2.047000 600 62 1.000000 0.055000 0.055000 1.200000 0.034000 0.041000
1518117638329758410	1000 58 1.000000 0.428000 0.463000 1000 53 0.900000 2.110000 2.050000 600 62 1.000000 0.055000 0.055000 1.200000 0.034000 0.041000
1518117638889674410	1000 58 1.000000 0.428000 0.463000 1000 53 0.900000 2.097000 2.038000 600 62 1.000000 0.055000 0.055000 1.200000 0.034000 0.041000
1518117639465684035	1000 58 1.000000 0.428000 0.463000 1000 53 0.900000 2.112000 2.052000 600 62 1.000000 0.055000 0.055000 1.200000 0.034000 0.041000
1518117640029729452	1000 58 1.000000 0.429000 0.464000 1000 53 0.900000 2.111000 2.051000 600 62 1.000000 0.055000 0.055000 1.200000 0.034000 0.041000
1518117640581711785	1000 58 1.000000 0.429000 0.464000 1000 53 0.900000 2.111000 2.051000 600 62 1.000000 0.055000 0.055000 1.200000 0.034000 0.041000
1518117641145722577	1000 58 1.000000 0.428000 0.463000 1000 53 0.900000 2.111000 2.051000 600 62 1.000000 0.055000 0.055000 1.200000 0.033000 0.039000
1518117641697713827	1000 58 1.000000 0.429000 0.464000 1000 53 0.900000 2.111000 2.051000 600 62 1.000000 0.055000 0.055000 1.200000 0.034000 0.041000
1518117642265760286	1000 58 1.000000 0.428000 0.463000 1000 53 0.900000 2.108000 2.048000 600 62 1.000000 0.055000 0.055000 1.200000 0.034000 0.041000
1518117642773643327	1000 58 1.000000 0.428000 0.463000 1000 53 0.900000 1.899000 1.843000 600 61 1.000000 0.055000 0.055000 1.200000 0.034000 0.041000
1518117643281255702	1000 54 1.000000 0.428000 0.463000 1000 52 0.900000 1.656000 1.606000 600 60 1.000000 0.055000 0.055000 1.200000 0.034000 0.041000
1518117643788678161	1000 52 1.000000 0.428000 0.463000 1000 51 0.900000 0.706000 0.681000 600 55 1.000000 0.055000 0.055000 1.200000 0.034000 0.041000
1518117644295919244	1000 51 1.000000 0.428000 0.463000 1000 50 0.900000 0.149000 0.145000 600 53 1.000000 0.055000 0.055000 1.200000 0.034000 0.041000
1518117644803207702	1000 50 1.000000 0.427000 0.463000 1000 49 0.900000 0.153000 0.149000 600 52 1.000000 0.055000 0.055000 1.200000 0.034000 0.041000
1518117645310732328	1000 49 1.000000 0.427000 0.463000 1000 49 0.900000 0.137000 0.133000 600 52 1.000000 0.054000 0.054000 1.200000 0.033000 0.039000
1518117645818111328	1000 49 1.000000 0.427000 0.463000 1000 48 0.900000 0.133000 0.129000 600 51 1.000000 0.054000 0.054000 1.200000 0.034000 0.041000
1518117646325458286	1000 48 1.000000 0.427000 0.463000 1000 48 0.900000 0.130000 0.126000 600 51 1.000000 0.054000 0.054000 1.200000 0.034000 0.041000
1518117646832898119	1000 48 1.000000 0.427000 0.463000 1000 48 0.900000 0.130000 0.126000 600 50 1.000000 0.054000 0.054000 1.200000 0.034000 0.041000
1518117647340221078	1000 48 1.000000 0.426000 0.461000 1000 47 0.900000 0.132000 0.128000 600 50 1.000000 0.054000 0.054000 1.200000 0.034000 0.041000
1518117647847653870	1000 48 1.000000 0.426000 0.462000 1000 47 0.900000 0.130000 0.126000 600 50 1.000000 0.054000 0.054000 1.200000 0.033000 0.039000
1518117648355017745	1000 47 1.000000 0.426000 0.462000 1000 47 0.900000 0.139000 0.135000 600 49 1.000000 0.054000 0.054000 1.200000 0.033000 0.039000
1518117648862594953	1000 47 1.000000 0.425000 0.461000 1000 47 0.900000 0.146000 0.142000 600 49 1.000000 0.054000 0.054000 1.200000 0.034000 0.041000
1518117649369949161	1000 47 1.000000 0.425000 0.461000 1000 46 0.900000 0.140000 0.136000 600 49 1.000000 0.053000 0.053000 1.200000 0.034000 0.041000
1518117649877208745	1000 47 1.000000 0.425000 0.461000 1000 46 0.900000 0.140000 0.136000 600 49 1.000000 0.053000 0.053000 1.200000 0.034000 0.041000
1518117650384527995	1000 47 1.000000 0.426000 0.462000 1000 46 0.900000 0.143000 0.139000 600 49 1.000000 0.054000 0.054000 1.200000 0.033000 0.039000
1518117650891829203	1000 46 1.000000 0.425000 0.461000 1000 46 0.900000 0.127000 0.123000 600 49 1.000000 0.054000 0.054000 1.200000 0.034000 0.041000
1518117651399335787	1000 46 1.000000 0.425000 0.461000 1000 46 0.900000 0.127000 0.123000 600 48 1.000000 0.054000 0.054000 1.200000 0.033000 0.039000
1518117651906668287	1000 46 1.000000 0.425000 0.461000 1000 46 0.900000 0.129000 0.125000 600 48 1.000000 0.054000 0.054000 1.200000 0.033000 0.039000
1518117652414152287	1000 46 1.000000 0.425000 0.461000 1000 46 0.900000 0.127000 0.123000 600 48 1.000000 0.053000 0.053000 1.200000 0.034000 0.041000
1518117652921532912	1000 46 1.000000 0.425000 0.461000 1000 45 0.900000 0.127000 0.123000 600 48 1.000000 0.053000 0.053000 1.200000 0.034000 0.041000
1518117653428798662	1000 46 1.000000 0.425000 0.461000 1000 45 0.900000 0.127000 0.123000 600 48 1.000000 0.053000 0.053000 1.200000 0.034000 0.041000
1518117653936114079	1000 45 1.000000 0.333000 0.361000 1000 45 0.900000 0.123000 0.119000 600 48 1.000000 0.053000 0.053000 1.200000 0.031000 0.037000
1518117654443433454	1000 45 1.000000 0.239000 0.259000 1000 45 0.900000 0.121000 0.117000 600 48 1.000000 0.053000 0.053000 1.200000 0.030000 0.036000
1518117654950864037	1000 44 1.000000 0.164000 0.179000 1000 44 0.900000 0.128000 0.124000 600 48 1.000000 0.053000 0.053000 1.200000 0.028000 0.033000
1518117655458553870	1000 44 1.000000 0.145000 0.159000 1000 44 0.900000 0.202000 0.196000 600 47 1.000000 0.053000 0.053000 1.200000 0.028000 0.033000
1518117655966039329	1000 43 1.100000 0.049000 0.053000 1000 43 0.900000 0.133000 0.129000 600 47 1.000000 0.053000 0.053000 1.200000 0.024000 0.028000
