#Timestamp	CPU(0) Frequency(MHz)	CPU(0) Temperature(C)	A7 Voltage(V)	A7 Current(A)	A7 Power(W)	CPU(4) Frequency(MHz)	CPU(4) Temperature(C)	A15 Voltage(V)	A15 Current(A)	A15 Power(W)	GPU Frequency(MHz)	GPU Temperature(C)	GPU Voltage(V)	GPU Current(A)	GPU Power(W)	RAM Voltage(V)	RAM Current(A)	RAM Power(W)
1517810684582845360	200 39 0.900000 0.041000 0.037000 1100 35 0.900000 1.566000 1.559000 600 43 1.000000 0.052000 0.052000 1.200000 0.048000 0.057000
1517810685094761902	200 40 0.900000 0.059000 0.053000 1100 35 0.900000 1.767000 1.759000 600 45 1.000000 0.052000 0.052000 1.200000 0.033000 0.039000
1517810685627875735	200 40 0.900000 0.061000 0.055000 1100 36 0.900000 1.807000 1.797000 600 45 1.000000 0.052000 0.052000 1.200000 0.046000 0.055000
1517810686161261985	200 41 0.900000 0.044000 0.040000 1100 36 0.900000 1.785000 1.777000 600 45 1.000000 0.053000 0.053000 1.200000 0.031000 0.037000
1517810686716194860	200 41 0.900000 0.053000 0.048000 1100 36 0.900000 1.594000 1.587000 600 45 1.000000 0.052000 0.052000 1.200000 0.032000 0.038000
1517810687252925652	200 41 0.900000 0.060000 0.054000 1100 36 0.900000 1.397000 1.387000 600 46 1.000000 0.052000 0.052000 1.200000 0.047000 0.056000
1517810687788645860	200 41 0.900000 0.059000 0.053000 1100 36 0.900000 1.788000 1.780000 600 46 1.000000 0.052000 0.052000 1.200000 0.033000 0.039000
1517810688316523277	200 41 0.900000 0.060000 0.054000 1100 36 0.900000 1.775000 1.767000 600 46 1.000000 0.052000 0.052000 1.200000 0.034000 0.041000
1517810688854415569	200 42 0.900000 0.044000 0.040000 1100 36 0.900000 1.389000 1.382000 600 46 1.000000 0.053000 0.053000 1.200000 0.046000 0.055000
1517810689387245944	200 41 0.900000 0.060000 0.054000 1100 36 0.900000 1.759000 1.751000 600 46 1.000000 0.052000 0.052000 1.200000 0.034000 0.041000
1517810689897810444	200 41 0.900000 0.059000 0.053000 1100 37 0.900000 1.811000 1.803000 600 46 1.000000 0.053000 0.053000 1.200000 0.035000 0.042000
1517810690428898152	200 41 0.900000 0.046000 0.042000 1100 37 0.900000 1.356000 1.349000 600 46 1.000000 0.052000 0.052000 1.200000 0.048000 0.057000
1517810690969301736	200 41 0.900000 0.055000 0.050000 1100 37 0.900000 1.707000 1.701000 600 46 1.000000 0.052000 0.052000 1.200000 0.034000 0.041000
1517810691479524069	200 42 0.900000 0.058000 0.052000 1100 37 0.900000 1.742000 1.736000 600 47 1.000000 0.052000 0.052000 1.200000 0.033000 0.039000
1517810691999464153	200 42 0.900000 0.052000 0.047000 1100 37 0.900000 1.315000 1.308000 600 47 1.000000 0.052000 0.052000 1.200000 0.051000 0.061000
1517810692532809236	200 42 0.900000 0.044000 0.040000 1100 37 0.900000 1.773000 1.765000 600 46 1.000000 0.052000 0.052000 1.200000 0.034000 0.041000
1517810693043148319	200 41 0.900000 0.060000 0.054000 1100 37 0.900000 1.800000 1.792000 600 46 1.000000 0.053000 0.053000 1.200000 0.034000 0.041000
1517810693579766194	200 42 0.900000 0.059000 0.053000 1100 37 0.900000 1.274000 1.267000 600 46 1.000000 0.053000 0.053000 1.200000 0.046000 0.055000
1517810694120828861	200 42 0.900000 0.059000 0.053000 1100 37 0.900000 1.784000 1.776000 600 46 1.000000 0.052000 0.052000 1.200000 0.035000 0.042000
1517810694638033111	200 42 0.900000 0.058000 0.052000 1100 37 0.900000 1.702000 1.695000 600 47 1.000000 0.052000 0.052000 1.200000 0.037000 0.044000
1517810695170029153	200 42 0.900000 0.045000 0.041000 1100 37 0.900000 1.499000 1.488000 600 47 1.000000 0.053000 0.053000 1.200000 0.045000 0.054000
1517810695703954570	200 42 0.900000 0.060000 0.054000 1100 37 0.900000 1.785000 1.777000 600 46 1.000000 0.053000 0.053000 1.200000 0.034000 0.041000
1517810696214000945	200 42 0.900000 0.060000 0.054000 1100 37 0.900000 1.774000 1.766000 600 47 1.000000 0.053000 0.053000 1.200000 0.035000 0.042000
1517810696743934278	200 42 0.900000 0.046000 0.042000 1100 37 0.900000 1.330000 1.323000 600 47 1.000000 0.052000 0.052000 1.200000 0.047000 0.056000
1517810697274616320	200 42 0.900000 0.055000 0.050000 1100 37 0.900000 1.785000 1.779000 600 47 1.000000 0.053000 0.053000 1.200000 0.034000 0.041000
1517810697784396362	200 42 0.900000 0.060000 0.054000 1100 37 0.900000 1.801000 1.795000 600 46 1.000000 0.052000 0.052000 1.200000 0.032000 0.038000
1517810698304470112	200 42 0.900000 0.058000 0.052000 1100 37 0.900000 1.357000 1.350000 600 47 1.000000 0.053000 0.053000 1.200000 0.042000 0.050000
1517810698832634778	200 42 0.900000 0.044000 0.040000 1100 37 0.900000 1.670000 1.663000 600 46 1.000000 0.052000 0.052000 1.200000 0.035000 0.042000
1517810699342572612	200 41 0.900000 0.059000 0.053000 1100 37 0.900000 1.674000 1.667000 600 47 1.000000 0.052000 0.052000 1.200000 0.032000 0.038000
1517810699866626987	200 42 0.900000 0.060000 0.054000 1100 37 0.900000 1.517000 1.509000 600 47 1.000000 0.053000 0.053000 1.200000 0.040000 0.048000
1517810700384569195	200 42 0.900000 0.059000 0.053000 1100 37 0.900000 1.625000 1.618000 600 46 1.000000 0.053000 0.053000 1.200000 0.042000 0.050000
1517810700894557945	200 42 0.900000 0.060000 0.054000 1100 37 0.900000 1.708000 1.702000 600 46 1.000000 0.052000 0.052000 1.200000 0.032000 0.038000
1517810701404992112	200 42 0.900000 0.046000 0.042000 1100 37 0.900000 1.770000 1.762000 600 47 1.000000 0.053000 0.053000 1.200000 0.036000 0.043000
1517810701917166737	200 42 0.900000 0.059000 0.053000 1100 37 0.900000 1.778000 1.770000 600 47 1.000000 0.052000 0.052000 1.200000 0.036000 0.043000
1517810702427818487	200 41 0.900000 0.055000 0.050000 1100 37 0.900000 1.886000 1.878000 600 46 1.000000 0.052000 0.052000 1.200000 0.035000 0.042000
1517810702944086112	200 42 0.900000 0.044000 0.040000 1100 37 0.900000 1.319000 1.309000 600 47 1.000000 0.052000 0.052000 1.200000 0.046000 0.055000
1517810703479846987	200 42 0.900000 0.059000 0.053000 1100 37 0.900000 1.688000 1.681000 600 46 1.000000 0.053000 0.053000 1.200000 0.035000 0.042000
1517810703991534821	200 42 0.900000 0.059000 0.053000 1100 37 0.900000 1.802000 1.794000 600 47 1.000000 0.052000 0.052000 1.200000 0.035000 0.042000
1517810704512450904	200 42 0.900000 0.046000 0.041000 1100 37 0.900000 1.298000 1.291000 600 47 1.000000 0.052000 0.052000 1.200000 0.046000 0.055000
1517810705056390029	200 42 0.900000 0.057000 0.052000 1100 37 0.900000 1.691000 1.685000 600 46 1.000000 0.052000 0.052000 1.200000 0.034000 0.041000
1517810705567152112	200 42 0.900000 0.060000 0.054000 1100 37 0.900000 1.823000 1.817000 600 47 1.000000 0.053000 0.053000 1.200000 0.034000 0.041000
1517810706095170113	200 42 0.900000 0.045000 0.041000 1100 37 0.900000 1.430000 1.419000 600 47 1.000000 0.052000 0.052000 1.200000 0.050000 0.060000
1517810706616858238	200 42 0.900000 0.059000 0.053000 1100 37 0.900000 1.778000 1.772000 600 47 1.000000 0.053000 0.053000 1.200000 0.034000 0.041000
1517810707126900154	200 42 0.900000 0.052000 0.047000 1100 37 0.900000 1.721000 1.714000 600 47 1.000000 0.053000 0.053000 1.200000 0.034000 0.041000
1517810707660928529	200 42 0.900000 0.047000 0.043000 1100 37 0.900000 1.389000 1.382000 600 47 1.000000 0.053000 0.053000 1.200000 0.047000 0.056000
1517810708186835279	200 42 0.900000 0.059000 0.053000 1100 37 0.900000 1.806000 1.798000 600 47 1.000000 0.053000 0.053000 1.200000 0.036000 0.043000
1517810708697582488	200 42 0.900000 0.061000 0.055000 1100 37 0.900000 1.704000 1.697000 600 47 1.000000 0.052000 0.052000 1.200000 0.036000 0.043000
1517810709253410488	200 42 0.900000 0.044000 0.040000 1100 37 0.900000 1.312000 1.305000 600 47 1.000000 0.053000 0.053000 1.200000 0.043000 0.052000
1517810709784273363	200 42 0.900000 0.059000 0.053000 1100 37 0.900000 1.768000 1.762000 600 47 1.000000 0.052000 0.052000 1.200000 0.034000 0.041000
1517810710294254613	200 42 0.900000 0.059000 0.053000 1100 37 0.900000 1.764000 1.758000 600 47 1.000000 0.052000 0.052000 1.200000 0.033000 0.039000
1517810710820698655	200 42 0.900000 0.044000 0.040000 1100 37 0.900000 1.321000 1.314000 600 47 1.000000 0.052000 0.052000 1.200000 0.046000 0.055000
1517810711350425363	200 42 0.900000 0.060000 0.054000 1100 37 0.900000 1.812000 1.806000 600 47 1.000000 0.053000 0.053000 1.200000 0.034000 0.041000
1517810711860529280	200 42 0.900000 0.059000 0.053000 1100 37 0.900000 1.764000 1.758000 600 47 1.000000 0.053000 0.053000 1.200000 0.032000 0.038000
1517810712387564655	200 42 0.900000 0.049000 0.044000 1100 37 0.900000 1.468000 1.460000 600 47 1.000000 0.052000 0.052000 1.200000 0.044000 0.053000
1517810712918090613	200 42 0.900000 0.059000 0.053000 1100 37 0.900000 1.692000 1.685000 600 47 1.000000 0.053000 0.053000 1.200000 0.038000 0.045000
1517810713428373905	200 42 0.900000 0.058000 0.052000 1100 37 0.900000 1.739000 1.732000 600 47 1.000000 0.052000 0.052000 1.200000 0.032000 0.038000
1517810713959508780	200 42 0.900000 0.045000 0.041000 1100 37 0.900000 1.554000 1.546000 600 47 1.000000 0.053000 0.053000 1.200000 0.042000 0.050000
1517810714501499530	200 42 0.900000 0.044000 0.040000 1100 37 0.900000 1.739000 1.732000 600 46 1.000000 0.053000 0.053000 1.200000 0.036000 0.043000
1517810715011899697	200 42 0.900000 0.061000 0.055000 1100 37 0.900000 1.689000 1.682000 600 47 1.000000 0.053000 0.053000 1.200000 0.044000 0.053000
1517810715535354822	200 42 0.900000 0.045000 0.041000 1100 37 0.900000 1.330000 1.324000 600 47 1.000000 0.053000 0.053000 1.200000 0.039000 0.047000
1517810716064154822	200 42 0.900000 0.059000 0.053000 1100 37 0.900000 1.598000 1.591000 600 47 1.000000 0.052000 0.052000 1.200000 0.033000 0.039000
1517810716574174239	200 42 0.900000 0.060000 0.054000 1100 37 0.900000 1.778000 1.772000 600 47 1.000000 0.053000 0.053000 1.200000 0.042000 0.050000
1517810717099080031	200 42 0.900000 0.046000 0.041000 1100 37 0.900000 1.481000 1.476000 600 47 1.000000 0.053000 0.053000 1.200000 0.042000 0.050000
1517810717624200822	200 42 0.900000 0.051000 0.046000 1100 37 0.900000 1.451000 1.443000 600 47 1.000000 0.053000 0.053000 1.200000 0.035000 0.042000
1517810718134224489	200 42 0.900000 0.060000 0.054000 1100 37 0.900000 1.791000 1.785000 600 47 1.000000 0.053000 0.053000 1.200000 0.038000 0.045000
1517810718658714322	200 42 0.900000 0.061000 0.055000 1100 37 0.900000 1.708000 1.702000 600 47 1.000000 0.052000 0.052000 1.200000 0.049000 0.059000
1517810719203786156	200 42 0.900000 0.059000 0.053000 1100 37 0.900000 1.317000 1.310000 600 46 1.000000 0.053000 0.053000 1.200000 0.034000 0.041000
1517810719717411656	200 42 0.900000 0.060000 0.054000 1100 37 0.900000 1.801000 1.795000 600 47 1.000000 0.053000 0.053000 1.200000 0.037000 0.044000
1517810720253595406	200 42 0.900000 0.044000 0.040000 1100 37 0.900000 1.712000 1.706000 600 47 1.000000 0.053000 0.053000 1.200000 0.047000 0.056000
1517810720787657239	200 42 0.900000 0.059000 0.053000 1100 37 0.900000 1.299000 1.292000 600 47 1.000000 0.052000 0.052000 1.200000 0.035000 0.042000
1517810721297503406	200 42 0.900000 0.059000 0.053000 1100 38 0.900000 1.768000 1.762000 600 47 1.000000 0.053000 0.053000 1.200000 0.036000 0.043000
1517810721823182573	200 42 0.900000 0.047000 0.043000 1100 38 0.900000 1.777000 1.771000 600 47 1.000000 0.052000 0.052000 1.200000 0.048000 0.057000
1517810722346134698	200 42 0.900000 0.059000 0.053000 1100 37 0.900000 1.355000 1.345000 600 47 1.000000 0.053000 0.053000 1.200000 0.034000 0.041000
1517810722856221656	200 42 0.900000 0.060000 0.054000 1100 38 0.900000 1.692000 1.685000 600 47 1.000000 0.053000 0.053000 1.200000 0.035000 0.042000
1517810723374410823	200 42 0.900000 0.055000 0.050000 1100 37 0.900000 1.783000 1.777000 600 47 1.000000 0.053000 0.053000 1.200000 0.046000 0.055000
1517810723905329656	200 42 0.900000 0.045000 0.041000 1100 37 0.900000 1.351000 1.344000 600 46 1.000000 0.052000 0.052000 1.200000 0.035000 0.042000
1517810724415602740	200 42 0.900000 0.060000 0.054000 1100 37 0.900000 1.779000 1.773000 600 47 1.000000 0.053000 0.053000 1.200000 0.035000 0.042000
1517810724933235740	200 42 0.900000 0.060000 0.054000 1100 37 0.900000 1.235000 1.230000 600 47 1.000000 0.053000 0.053000 1.200000 0.050000 0.060000
1517810725459557490	200 42 0.900000 0.060000 0.054000 1100 37 0.900000 1.804000 1.796000 600 47 1.000000 0.053000 0.053000 1.200000 0.034000 0.041000
1517810725970061365	200 42 0.900000 0.060000 0.054000 1100 37 0.900000 1.753000 1.745000 600 47 1.000000 0.053000 0.053000 1.200000 0.032000 0.038000
1517810726480590657	200 42 0.900000 0.046000 0.042000 1100 37 0.900000 1.505000 1.497000 600 47 1.000000 0.053000 0.053000 1.200000 0.047000 0.056000
1517810727034657782	200 42 0.900000 0.043000 0.039000 1100 37 0.900000 1.660000 1.655000 600 46 1.000000 0.053000 0.053000 1.200000 0.035000 0.042000
1517810727544479948	200 42 0.900000 0.060000 0.054000 1100 37 0.900000 1.717000 1.711000 600 47 1.000000 0.052000 0.052000 1.200000 0.032000 0.038000
1517810728057841782	200 42 0.900000 0.053000 0.048000 1100 37 0.900000 1.501000 1.493000 600 47 1.000000 0.052000 0.052000 1.200000 0.044000 0.053000
1517810728576733365	200 42 0.900000 0.045000 0.041000 1100 37 0.900000 1.667000 1.660000 600 47 1.000000 0.053000 0.053000 1.200000 0.038000 0.045000
1517810729087536574	200 41 0.900000 0.061000 0.055000 1100 37 0.900000 1.330000 1.323000 600 46 1.000000 0.052000 0.052000 1.200000 0.044000 0.053000
1517810729599964074	200 41 0.900000 0.046000 0.042000 1100 37 0.900000 1.650000 1.641000 600 46 1.000000 0.053000 0.053000 1.200000 0.041000 0.049000
1517810730114921115	200 42 0.900000 0.049000 0.044000 1100 37 0.900000 1.674000 1.668000 600 47 1.000000 0.053000 0.053000 1.200000 0.032000 0.038000
1517810730625363824	200 42 0.900000 0.060000 0.054000 1100 37 0.900000 1.790000 1.781000 600 46 1.000000 0.052000 0.052000 1.200000 0.040000 0.048000
1517810731135660324	200 42 0.900000 0.046000 0.041000 1100 37 0.900000 1.278000 1.271000 600 47 1.000000 0.053000 0.053000 1.200000 0.047000 0.056000
1517810731646009824	200 41 0.900000 0.046000 0.041000 1100 37 0.900000 1.823000 1.817000 600 46 1.000000 0.052000 0.052000 1.200000 0.032000 0.038000
1517810732156674157	200 42 0.900000 0.058000 0.052000 1100 37 0.900000 1.741000 1.735000 600 45 1.000000 0.053000 0.053000 1.200000 0.034000 0.041000
1517810732696414324	200 41 0.900000 0.044000 0.040000 1100 37 0.900000 1.203000 1.196000 600 46 1.000000 0.053000 0.053000 1.200000 0.044000 0.053000
1517810733248504824	200 42 0.900000 0.059000 0.053000 1100 37 0.900000 1.753000 1.745000 600 46 1.000000 0.053000 0.053000 1.200000 0.034000 0.041000
1517810733770831699	200 42 0.900000 0.059000 0.053000 1100 37 0.900000 1.733000 1.727000 600 45 1.000000 0.052000 0.052000 1.200000 0.036000 0.043000
1517810734324406366	200 42 0.900000 0.049000 0.044000 1100 37 0.900000 1.321000 1.314000 600 47 1.000000 0.053000 0.053000 1.200000 0.044000 0.053000
1517810734854146324	200 42 0.900000 0.045000 0.041000 1100 37 0.900000 1.448000 1.440000 600 47 1.000000 0.053000 0.053000 1.200000 0.043000 0.051000
1517810735364405991	200 41 0.900000 0.060000 0.054000 1100 37 0.900000 1.740000 1.733000 600 46 1.000000 0.052000 0.052000 1.200000 0.033000 0.039000
1517810735874906449	200 40 0.900000 0.060000 0.054000 1100 37 0.900000 1.807000 1.799000 600 45 1.000000 0.053000 0.053000 1.200000 0.033000 0.039000
1517810736436394741	200 42 0.900000 0.050000 0.045000 1100 37 0.900000 1.442000 1.434000 600 47 1.000000 0.052000 0.052000 1.200000 0.051000 0.061000
1517810736972850575	200 42 0.900000 0.045000 0.041000 1100 37 0.900000 1.758000 1.752000 600 47 1.000000 0.052000 0.052000 1.200000 0.036000 0.043000
1517810737494416825	200 42 0.900000 0.060000 0.054000 1100 37 0.900000 1.725000 1.719000 600 45 1.000000 0.052000 0.052000 1.200000 0.034000 0.041000
1517810738013616033	200 42 0.900000 0.060000 0.054000 1100 37 0.900000 1.312000 1.305000 600 47 1.000000 0.053000 0.053000 1.200000 0.045000 0.054000
1517810738565480866	200 42 0.900000 0.059000 0.053000 1100 37 0.900000 1.703000 1.696000 600 47 1.000000 0.053000 0.053000 1.200000 0.037000 0.044000
1517810739086845700	200 42 0.900000 0.059000 0.053000 1100 37 0.900000 1.738000 1.731000 600 45 1.000000 0.053000 0.053000 1.200000 0.034000 0.041000
1517810739613949533	200 42 0.900000 0.046000 0.042000 1100 37 0.900000 1.398000 1.388000 600 47 1.000000 0.053000 0.053000 1.200000 0.045000 0.054000
1517810740148186283	200 42 0.900000 0.060000 0.054000 1100 38 0.900000 1.790000 1.784000 600 47 1.000000 0.053000 0.053000 1.200000 0.038000 0.045000
1517810740669428908	200 42 0.900000 0.060000 0.054000 1100 37 0.900000 1.771000 1.765000 600 45 1.000000 0.053000 0.053000 1.200000 0.033000 0.039000
1517810741194215575	200 43 0.900000 0.045000 0.041000 1100 38 0.900000 1.510000 1.502000 600 47 1.000000 0.052000 0.052000 1.200000 0.046000 0.055000
1517810741728771575	200 42 0.900000 0.056000 0.051000 1100 38 0.900000 1.691000 1.684000 600 47 1.000000 0.052000 0.052000 1.200000 0.034000 0.041000
1517810742240291450	200 42 0.900000 0.059000 0.053000 1100 37 0.900000 1.723000 1.716000 600 45 1.000000 0.052000 0.052000 1.200000 0.035000 0.042000
1517810742785915992	200 42 0.900000 0.055000 0.050000 1100 37 0.900000 1.463000 1.455000 600 47 1.000000 0.052000 0.052000 1.200000 0.045000 0.054000
1517810743320588075	200 42 0.900000 0.045000 0.041000 1100 37 0.900000 1.723000 1.716000 600 47 1.000000 0.052000 0.052000 1.200000 0.037000 0.044000
1517810743838147284	200 41 0.900000 0.059000 0.053000 1100 37 0.900000 1.694000 1.687000 600 45 1.000000 0.053000 0.053000 1.200000 0.034000 0.041000
1517810744360493284	200 42 0.900000 0.061000 0.055000 1100 38 0.900000 1.437000 1.429000 600 47 1.000000 0.053000 0.053000 1.200000 0.043000 0.051000
1517810744899843117	200 42 0.900000 0.059000 0.053000 1100 37 0.900000 1.705000 1.698000 600 47 1.000000 0.053000 0.053000 1.200000 0.041000 0.049000
1517810745419716659	200 41 0.900000 0.060000 0.054000 1100 37 0.900000 1.774000 1.766000 600 45 1.000000 0.053000 0.053000 1.200000 0.034000 0.041000
1517810745940065326	200 43 0.900000 0.045000 0.041000 1100 38 0.900000 1.563000 1.555000 600 47 1.000000 0.052000 0.052000 1.200000 0.043000 0.051000
1517810746483136492	200 42 0.900000 0.060000 0.054000 1100 37 0.900000 1.644000 1.637000 600 47 1.000000 0.052000 0.052000 1.200000 0.039000 0.047000
1517810746998777492	200 41 0.900000 0.058000 0.052000 1100 37 0.900000 1.813000 1.807000 600 45 1.000000 0.053000 0.053000 1.200000 0.034000 0.041000
1517810747524014201	200 42 0.900000 0.045000 0.041000 1100 38 0.900000 1.636000 1.629000 600 47 1.000000 0.052000 0.052000 1.200000 0.040000 0.048000
1517810748056573909	200 42 0.900000 0.055000 0.050000 1100 38 0.900000 1.507000 1.499000 600 47 1.000000 0.052000 0.052000 1.200000 0.043000 0.051000
1517810748576857243	200 41 0.900000 0.059000 0.053000 1100 37 0.900000 1.754000 1.748000 600 45 1.000000 0.053000 0.053000 1.200000 0.034000 0.041000
1517810749104836076	200 43 0.900000 0.056000 0.051000 1100 37 0.900000 1.704000 1.697000 600 47 1.000000 0.053000 0.053000 1.200000 0.038000 0.045000
1517810749642303451	200 42 0.900000 0.045000 0.041000 1100 37 0.900000 1.473000 1.465000 600 47 1.000000 0.052000 0.052000 1.200000 0.045000 0.054000
1517810750162307326	200 42 0.900000 0.060000 0.054000 1100 37 0.900000 1.781000 1.775000 600 45 1.000000 0.052000 0.052000 1.200000 0.033000 0.039000
1517810750686804285	200 43 0.900000 0.060000 0.054000 1100 38 0.900000 1.731000 1.724000 600 47 1.000000 0.053000 0.053000 1.200000 0.039000 0.047000
1517810751220576868	200 42 0.900000 0.060000 0.054000 1100 38 0.900000 1.404000 1.396000 600 47 1.000000 0.053000 0.053000 1.200000 0.046000 0.055000
1517810751731309451	200 41 0.900000 0.059000 0.053000 1100 37 0.900000 1.794000 1.786000 600 45 1.000000 0.053000 0.053000 1.200000 0.033000 0.039000
1517810752272501243	200 42 0.900000 0.045000 0.041000 1100 38 0.900000 1.824000 1.818000 600 47 1.000000 0.052000 0.052000 1.200000 0.036000 0.043000
1517810752820393535	200 42 0.900000 0.060000 0.054000 1100 37 0.900000 1.357000 1.350000 600 47 1.000000 0.052000 0.052000 1.200000 0.039000 0.047000
1517810753330590785	200 42 0.900000 0.059000 0.053000 1100 38 0.900000 1.748000 1.741000 600 45 1.000000 0.053000 0.053000 1.200000 0.033000 0.039000
1517810753888432868	200 42 0.900000 0.044000 0.040000 1100 38 0.900000 1.688000 1.681000 600 47 1.000000 0.053000 0.053000 1.200000 0.038000 0.045000
1517810754429966660	200 42 0.900000 0.060000 0.054000 1100 37 0.900000 1.519000 1.511000 600 47 1.000000 0.053000 0.053000 1.200000 0.040000 0.048000
1517810754943954827	200 41 0.900000 0.059000 0.053000 1100 37 0.900000 1.765000 1.759000 600 45 1.000000 0.053000 0.053000 1.200000 0.035000 0.042000
1517810755476827035	200 43 0.900000 0.049000 0.044000 1100 38 0.900000 1.594000 1.587000 600 47 1.000000 0.052000 0.052000 1.200000 0.039000 0.047000
1517810755998052327	200 42 0.900000 0.048000 0.043000 1100 38 0.900000 1.450000 1.442000 600 47 1.000000 0.052000 0.052000 1.200000 0.030000 0.036000
1517810756519047910	200 42 0.900000 0.060000 0.054000 1100 38 0.900000 1.771000 1.763000 600 46 1.000000 0.052000 0.052000 1.200000 0.037000 0.044000
1517810757030512619	200 41 0.900000 0.060000 0.054000 1100 38 0.900000 1.717000 1.711000 600 47 1.000000 0.052000 0.052000 1.200000 0.046000 0.055000
1517810757542796785	200 42 0.900000 0.059000 0.053000 1100 37 0.900000 1.349000 1.342000 600 46 1.000000 0.053000 0.053000 1.200000 0.032000 0.038000
1517810758063808410	200 42 0.900000 0.055000 0.050000 1100 37 0.900000 1.701000 1.695000 600 46 1.000000 0.053000 0.053000 1.200000 0.033000 0.039000
1517810758610223785	200 42 0.900000 0.046000 0.041000 1100 38 0.900000 1.711000 1.705000 600 47 1.000000 0.053000 0.053000 1.200000 0.050000 0.060000
1517810759120463077	200 42 0.900000 0.047000 0.043000 1100 38 0.900000 1.511000 1.503000 600 46 1.000000 0.053000 0.053000 1.200000 0.036000 0.043000
1517810759672440911	200 42 0.900000 0.045000 0.041000 1100 37 0.900000 1.517000 1.509000 600 46 1.000000 0.052000 0.052000 1.200000 0.031000 0.037000
1517810760182765077	200 42 0.900000 0.059000 0.053000 1100 37 0.900000 1.778000 1.772000 600 45 1.000000 0.053000 0.053000 1.200000 0.041000 0.049000
1517810760697290119	200 42 0.900000 0.047000 0.043000 1100 38 0.900000 1.830000 1.824000 600 47 1.000000 0.053000 0.053000 1.200000 0.046000 0.055000
1517810761207615994	200 42 0.900000 0.045000 0.041000 1100 37 0.900000 1.567000 1.556000 600 47 1.000000 0.053000 0.053000 1.200000 0.033000 0.039000
1517810761752539286	200 41 0.900000 0.060000 0.054000 1100 37 0.900000 1.767000 1.761000 600 46 1.000000 0.052000 0.052000 1.200000 0.034000 0.041000
1517810762305804953	200 42 0.900000 0.060000 0.054000 1100 38 0.900000 1.798000 1.790000 600 47 1.000000 0.053000 0.053000 1.200000 0.045000 0.054000
1517810762854859828	200 42 0.900000 0.044000 0.040000 1100 38 0.900000 1.457000 1.451000 600 47 1.000000 0.053000 0.053000 1.200000 0.037000 0.044000
1517810763386255744	200 42 0.900000 0.060000 0.054000 1100 37 0.900000 1.764000 1.756000 600 47 1.000000 0.052000 0.052000 1.200000 0.034000 0.041000
1517810763905519078	200 43 0.900000 0.046000 0.042000 1100 38 0.900000 1.381000 1.374000 600 47 1.000000 0.053000 0.053000 1.200000 0.045000 0.054000
1517810764440361494	200 42 0.900000 0.057000 0.052000 1100 37 0.900000 1.711000 1.704000 600 47 1.000000 0.052000 0.052000 1.200000 0.037000 0.044000
1517810764968715078	200 42 0.900000 0.059000 0.053000 1100 37 0.900000 1.726000 1.719000 600 47 1.000000 0.052000 0.052000 1.200000 0.032000 0.038000
1517810765478937120	200 43 0.900000 0.056000 0.051000 1100 38 0.900000 1.552000 1.541000 600 47 1.000000 0.053000 0.053000 1.200000 0.042000 0.050000
1517810766008372578	200 42 0.900000 0.044000 0.040000 1100 37 0.900000 1.718000 1.711000 600 47 1.000000 0.052000 0.052000 1.200000 0.037000 0.044000
1517810766538131953	200 42 0.900000 0.060000 0.054000 1100 38 0.900000 1.801000 1.793000 600 47 1.000000 0.053000 0.053000 1.200000 0.034000 0.041000
1517810767048331953	200 42 0.900000 0.060000 0.054000 1100 38 0.900000 1.514000 1.506000 600 47 1.000000 0.053000 0.053000 1.200000 0.044000 0.053000
1517810767573386912	200 42 0.900000 0.045000 0.041000 1100 38 0.900000 1.554000 1.546000 600 47 1.000000 0.053000 0.053000 1.200000 0.040000 0.048000
1517810768097586495	200 42 0.900000 0.060000 0.054000 1100 38 0.900000 1.805000 1.797000 600 47 1.000000 0.053000 0.053000 1.200000 0.034000 0.041000
1517810768607518412	200 43 0.900000 0.060000 0.054000 1100 38 0.900000 1.680000 1.673000 600 47 1.000000 0.053000 0.053000 1.200000 0.039000 0.047000
1517810769136259120	200 43 0.900000 0.045000 0.041000 1100 38 0.900000 1.377000 1.370000 600 47 1.000000 0.053000 0.053000 1.200000 0.042000 0.050000
1517810769667635328	200 42 0.900000 0.053000 0.048000 1100 38 0.900000 1.796000 1.790000 600 47 1.000000 0.052000 0.052000 1.200000 0.032000 0.038000
1517810770177590370	200 42 0.900000 0.052000 0.047000 1100 38 0.900000 1.869000 1.861000 600 47 1.000000 0.052000 0.052000 1.200000 0.035000 0.042000
1517810770712899912	200 42 0.900000 0.045000 0.041000 1100 38 0.900000 1.221000 1.214000 600 47 1.000000 0.053000 0.053000 1.200000 0.043000 0.051000
1517810771247745162	200 42 0.900000 0.059000 0.053000 1100 38 0.900000 1.780000 1.774000 600 47 1.000000 0.053000 0.053000 1.200000 0.035000 0.042000
1517810771758574954	200 43 0.900000 0.060000 0.054000 1100 38 0.900000 1.922000 1.914000 600 47 1.000000 0.052000 0.052000 1.200000 0.035000 0.042000
1517810772287957579	200 43 0.900000 0.046000 0.041000 1100 38 0.900000 1.354000 1.347000 600 47 1.000000 0.053000 0.053000 1.200000 0.051000 0.061000
1517810772821150079	200 42 0.900000 0.060000 0.054000 1100 38 0.900000 1.770000 1.762000 600 47 1.000000 0.052000 0.052000 1.200000 0.034000 0.041000
1517810773335581746	200 43 0.900000 0.058000 0.052000 1100 38 0.900000 1.862000 1.854000 600 48 1.000000 0.053000 0.053000 1.200000 0.034000 0.041000
1517810773868019996	200 42 0.900000 0.047000 0.043000 1100 38 0.900000 1.317000 1.310000 600 47 1.000000 0.053000 0.053000 1.200000 0.047000 0.056000
1517810774400852037	200 42 0.900000 0.059000 0.053000 1100 38 0.900000 1.758000 1.752000 600 47 1.000000 0.053000 0.053000 1.200000 0.032000 0.038000
1517810774917998496	200 43 0.900000 0.059000 0.053000 1100 38 0.900000 1.808000 1.800000 600 47 1.000000 0.053000 0.053000 1.200000 0.033000 0.039000
1517810775447528829	200 43 0.900000 0.050000 0.045000 1100 38 0.900000 1.308000 1.301000 600 47 1.000000 0.052000 0.052000 1.200000 0.043000 0.051000
1517810775984744788	200 42 0.900000 0.050000 0.045000 1100 38 0.900000 1.757000 1.749000 600 47 1.000000 0.053000 0.053000 1.200000 0.033000 0.039000
1517810776500144663	200 43 0.900000 0.055000 0.050000 1100 38 0.900000 1.767000 1.761000 600 47 1.000000 0.053000 0.053000 1.200000 0.035000 0.042000
1517810777033400496	200 43 0.900000 0.045000 0.041000 1100 38 0.900000 1.530000 1.519000 600 47 1.000000 0.053000 0.053000 1.200000 0.050000 0.060000
1517810777564683163	200 42 0.900000 0.060000 0.054000 1100 38 0.900000 1.785000 1.777000 600 47 1.000000 0.053000 0.053000 1.200000 0.034000 0.041000
1517810778074870579	200 43 0.900000 0.060000 0.054000 1100 38 0.900000 1.801000 1.793000 600 48 1.000000 0.052000 0.052000 1.200000 0.034000 0.041000
1517810778614821455	200 43 0.900000 0.044000 0.040000 1100 38 0.900000 1.499000 1.488000 600 47 1.000000 0.053000 0.053000 1.200000 0.047000 0.056000
1517810779159972705	200 42 0.900000 0.059000 0.053000 1100 38 0.900000 1.754000 1.746000 600 47 1.000000 0.053000 0.053000 1.200000 0.031000 0.037000
1517810779691939830	200 42 0.900000 0.059000 0.053000 1100 38 0.900000 1.801000 1.793000 600 47 1.000000 0.053000 0.053000 1.200000 0.032000 0.038000
1517810780229749163	200 43 0.900000 0.046000 0.042000 1100 38 0.900000 1.565000 1.554000 600 47 1.000000 0.053000 0.053000 1.200000 0.050000 0.060000
1517810780764939955	200 42 0.900000 0.060000 0.054000 1100 38 0.900000 1.751000 1.745000 600 47 1.000000 0.052000 0.052000 1.200000 0.031000 0.037000
1517810781275040871	200 43 0.900000 0.059000 0.053000 1100 38 0.900000 1.742000 1.735000 600 48 1.000000 0.052000 0.052000 1.200000 0.034000 0.041000
1517810781797162997	200 43 0.900000 0.046000 0.042000 1100 38 0.900000 1.330000 1.323000 600 47 1.000000 0.052000 0.052000 1.200000 0.043000 0.052000
1517810782320281122	200 42 0.900000 0.050000 0.045000 1100 38 0.900000 1.776000 1.768000 600 47 1.000000 0.052000 0.052000 1.200000 0.033000 0.039000
1517810782831070163	200 42 0.900000 0.054000 0.049000 1100 38 0.900000 1.793000 1.787000 600 46 1.000000 0.053000 0.053000 1.200000 0.033000 0.039000
1517810783400326622	200 42 0.900000 0.045000 0.041000 1100 38 0.900000 1.401000 1.393000 600 46 1.000000 0.053000 0.053000 1.200000 0.046000 0.055000
1517810783931299997	200 43 0.900000 0.060000 0.054000 1100 38 0.900000 1.610000 1.603000 600 47 1.000000 0.052000 0.052000 1.200000 0.037000 0.044000
1517810784446781455	200 41 0.900000 0.060000 0.054000 1100 38 0.900000 1.767000 1.761000 600 46 1.000000 0.053000 0.053000 1.200000 0.032000 0.038000
1517810784996038289	200 42 0.900000 0.049000 0.044000 1100 38 0.900000 1.805000 1.799000 600 47 1.000000 0.052000 0.052000 1.200000 0.037000 0.044000
1517810785540414039	200 42 0.900000 0.043000 0.039000 1100 38 0.900000 1.166000 1.160000 600 47 1.000000 0.053000 0.053000 1.200000 0.049000 0.059000
1517810786108526080	200 41 0.900000 0.058000 0.052000 1100 37 0.900000 1.662000 1.657000 600 46 1.000000 0.053000 0.053000 1.200000 0.033000 0.039000
1517810786630114414	200 42 0.900000 0.057000 0.052000 1100 38 0.900000 1.731000 1.725000 600 46 1.000000 0.053000 0.053000 1.200000 0.035000 0.042000
1517810787140179581	200 43 0.900000 0.046000 0.041000 1100 38 0.900000 1.594000 1.589000 600 47 1.000000 0.053000 0.053000 1.200000 0.028000 0.033000
1517810787704297039	200 42 0.900000 0.045000 0.041000 1100 38 0.900000 1.543000 1.536000 600 47 1.000000 0.052000 0.052000 1.200000 0.039000 0.047000
1517810788214608622	200 42 0.900000 0.045000 0.041000 1100 38 0.900000 1.182000 1.176000 600 47 1.000000 0.053000 0.053000 1.200000 0.047000 0.056000
1517810788725421872	200 42 0.900000 0.049000 0.044000 1100 38 0.900000 1.739000 1.733000 600 46 1.000000 0.053000 0.053000 1.200000 0.031000 0.037000
1517810789288302622	200 42 0.900000 0.052000 0.047000 1100 38 0.900000 1.407000 1.399000 600 46 1.000000 0.053000 0.053000 1.200000 0.044000 0.053000
1517810789815537081	200 42 0.900000 0.044000 0.040000 1100 37 0.900000 1.549000 1.541000 600 47 1.000000 0.052000 0.052000 1.200000 0.047000 0.056000
1517810790327594248	200 41 0.900000 0.060000 0.054000 1100 37 0.900000 1.618000 1.611000 600 47 1.000000 0.053000 0.053000 1.200000 0.035000 0.042000
1517810790842426581	200 41 0.900000 0.060000 0.054000 1100 38 0.900000 1.748000 1.742000 600 46 1.000000 0.053000 0.053000 1.200000 0.031000 0.037000
1517810791353289956	200 42 0.900000 0.058000 0.052000 1100 38 0.900000 1.440000 1.432000 600 46 1.000000 0.053000 0.053000 1.200000 0.041000 0.049000
1517810791873555998	200 42 0.900000 0.048000 0.043000 1100 38 0.900000 1.688000 1.681000 600 45 1.000000 0.053000 0.053000 1.200000 0.031000 0.037000
1517810792403996581	200 42 0.900000 0.045000 0.041000 1100 38 0.900000 1.681000 1.674000 600 47 1.000000 0.053000 0.053000 1.200000 0.040000 0.048000
1517810792930668623	200 42 0.900000 0.055000 0.050000 1100 38 0.900000 1.419000 1.411000 600 47 1.000000 0.053000 0.053000 1.200000 0.041000 0.049000
1517810793447150540	200 41 0.900000 0.060000 0.054000 1100 37 0.900000 1.787000 1.779000 600 45 1.000000 0.053000 0.053000 1.200000 0.032000 0.038000
1517810793982022956	200 42 0.900000 0.058000 0.052000 1100 38 0.900000 1.674000 1.668000 600 47 1.000000 0.052000 0.052000 1.200000 0.038000 0.045000
1517810794517842123	200 42 0.900000 0.045000 0.041000 1100 38 0.900000 1.331000 1.324000 600 47 1.000000 0.053000 0.053000 1.200000 0.044000 0.053000
1517810795037743665	200 41 0.900000 0.060000 0.054000 1100 37 0.900000 1.805000 1.799000 600 45 1.000000 0.052000 0.052000 1.200000 0.032000 0.038000
1517810795565149748	200 43 0.900000 0.045000 0.041000 1100 38 0.900000 1.819000 1.813000 600 47 1.000000 0.053000 0.053000 1.200000 0.038000 0.045000
1517810796099415373	200 42 0.900000 0.060000 0.054000 1100 38 0.900000 1.315000 1.305000 600 47 1.000000 0.053000 0.053000 1.200000 0.040000 0.048000
1517810796613964707	200 40 0.900000 0.060000 0.054000 1100 37 0.900000 1.762000 1.754000 600 46 1.000000 0.053000 0.053000 1.200000 0.032000 0.038000
1517810797168342332	200 42 0.900000 0.042000 0.038000 1100 38 0.900000 1.714000 1.707000 600 47 1.000000 0.053000 0.053000 1.200000 0.042000 0.050000
1517810797714962248	200 42 0.900000 0.059000 0.053000 1100 38 0.900000 1.445000 1.437000 600 47 1.000000 0.052000 0.052000 1.200000 0.031000 0.037000
1517810798227107374	200 42 0.900000 0.059000 0.053000 1100 38 0.900000 1.383000 1.376000 600 45 1.000000 0.053000 0.053000 1.200000 0.033000 0.039000
1517810798764716999	200 43 0.900000 0.046000 0.042000 1100 38 0.900000 1.773000 1.765000 600 47 1.000000 0.052000 0.052000 1.200000 0.043000 0.051000
1517810799300844207	200 42 0.900000 0.044000 0.040000 1100 38 0.900000 1.845000 1.837000 600 47 1.000000 0.053000 0.053000 1.200000 0.040000 0.048000
1517810799814433832	200 42 0.900000 0.054000 0.049000 1100 38 0.900000 1.332000 1.325000 600 46 1.000000 0.053000 0.053000 1.200000 0.033000 0.039000
1517810800350562332	200 42 0.900000 0.051000 0.046000 1100 38 0.900000 1.781000 1.773000 600 47 1.000000 0.052000 0.052000 1.200000 0.044000 0.053000
1517810800888325499	200 42 0.900000 0.055000 0.050000 1100 38 0.900000 1.680000 1.671000 600 47 1.000000 0.053000 0.053000 1.200000 0.046000 0.055000
1517810801401207499	200 42 0.900000 0.059000 0.053000 1100 38 0.900000 1.759000 1.753000 600 46 1.000000 0.053000 0.053000 1.200000 0.033000 0.039000
1517810801937213082	200 42 0.900000 0.044000 0.040000 1100 38 0.900000 1.826000 1.820000 600 47 1.000000 0.053000 0.053000 1.200000 0.041000 0.049000
1517810802465842249	200 42 0.900000 0.045000 0.041000 1100 38 0.900000 1.314000 1.307000 600 47 1.000000 0.052000 0.052000 1.200000 0.044000 0.053000
1517810802977811874	200 41 0.900000 0.059000 0.053000 1100 37 0.900000 1.748000 1.742000 600 45 1.000000 0.053000 0.053000 1.200000 0.032000 0.038000
1517810803517453832	200 42 0.900000 0.045000 0.041000 1100 38 0.900000 1.287000 1.280000 600 47 1.000000 0.052000 0.052000 1.200000 0.047000 0.056000
1517810804051725374	200 42 0.900000 0.045000 0.041000 1100 38 0.900000 1.359000 1.349000 600 47 1.000000 0.052000 0.052000 1.200000 0.045000 0.054000
1517810804565584374	200 42 0.900000 0.060000 0.054000 1100 38 0.900000 1.753000 1.745000 600 45 1.000000 0.053000 0.053000 1.200000 0.033000 0.039000
1517810805102667166	200 42 0.900000 0.046000 0.041000 1100 38 0.900000 1.244000 1.237000 600 47 1.000000 0.053000 0.053000 1.200000 0.044000 0.053000
1517810805640976208	200 42 0.900000 0.046000 0.042000 1100 38 0.900000 1.213000 1.206000 600 47 1.000000 0.052000 0.052000 1.200000 0.044000 0.053000
1517810806153125416	200 41 0.900000 0.056000 0.051000 1100 37 0.900000 1.770000 1.764000 600 45 1.000000 0.052000 0.052000 1.200000 0.032000 0.038000
1517810806700499458	200 43 0.900000 0.060000 0.054000 1100 38 0.900000 1.899000 1.891000 600 47 1.000000 0.053000 0.053000 1.200000 0.035000 0.042000
1517810807240082125	200 42 0.900000 0.052000 0.047000 1100 38 0.900000 1.283000 1.276000 600 47 1.000000 0.053000 0.053000 1.200000 0.042000 0.050000
1517810807753097666	200 40 0.900000 0.060000 0.054000 1100 37 0.900000 1.793000 1.787000 600 45 1.000000 0.052000 0.052000 1.200000 0.034000 0.041000
1517810808308392166	200 42 0.900000 0.058000 0.052000 1100 38 0.900000 1.745000 1.738000 600 47 1.000000 0.053000 0.053000 1.200000 0.037000 0.044000
1517810808846542291	200 42 0.900000 0.045000 0.041000 1100 37 0.900000 1.285000 1.276000 600 47 1.000000 0.052000 0.052000 1.200000 0.041000 0.049000
1517810809357807958	200 40 0.900000 0.060000 0.054000 1100 37 0.900000 1.791000 1.783000 600 44 1.000000 0.053000 0.053000 1.200000 0.033000 0.039000
1517810809913380833	200 42 0.900000 0.061000 0.055000 1100 37 0.900000 1.747000 1.740000 600 47 1.000000 0.053000 0.053000 1.200000 0.039000 0.047000
1517810810435307083	200 42 0.900000 0.046000 0.042000 1100 37 0.900000 1.233000 1.226000 600 47 1.000000 0.052000 0.052000 1.200000 0.040000 0.048000
1517810810946716625	200 42 0.900000 0.060000 0.054000 1100 37 0.900000 1.724000 1.717000 600 45 1.000000 0.053000 0.053000 1.200000 0.032000 0.038000
1517810811456457958	200 42 0.900000 0.060000 0.054000 1100 38 0.900000 1.740000 1.734000 600 47 1.000000 0.053000 0.053000 1.200000 0.035000 0.042000
1517810811966743583	200 42 0.900000 0.047000 0.043000 1100 37 0.900000 1.482000 1.474000 600 47 1.000000 0.053000 0.053000 1.200000 0.050000 0.060000
1517810812478687584	200 42 0.900000 0.050000 0.045000 1100 37 0.900000 1.771000 1.765000 600 46 1.000000 0.052000 0.052000 1.200000 0.032000 0.038000
1517810812988735292	200 42 0.900000 0.055000 0.050000 1100 37 0.900000 1.256000 1.249000 600 47 1.000000 0.053000 0.053000 1.200000 0.047000 0.056000
1517810813498890084	200 42 0.900000 0.037000 0.033000 1100 37 0.900000 1.695000 1.689000 600 47 1.000000 0.053000 0.053000 1.200000 0.033000 0.039000
1517810814051691584	200 42 0.900000 0.060000 0.054000 1100 37 0.900000 1.827000 1.821000 600 46 1.000000 0.053000 0.053000 1.200000 0.036000 0.043000
1517810814562515375	200 42 0.900000 0.046000 0.042000 1100 37 0.900000 1.384000 1.378000 600 46 1.000000 0.053000 0.053000 1.200000 0.045000 0.054000
1517810815120469584	200 41 0.900000 0.054000 0.049000 1100 37 0.900000 1.376000 1.369000 600 47 1.000000 0.053000 0.053000 1.200000 0.044000 0.053000
1517810815640770792	200 42 0.900000 0.059000 0.053000 1100 37 0.900000 1.359000 1.352000 600 47 1.000000 0.052000 0.052000 1.200000 0.033000 0.039000
1517810816153573667	200 41 0.900000 0.060000 0.054000 1100 37 0.900000 1.818000 1.812000 600 46 1.000000 0.052000 0.052000 1.200000 0.035000 0.042000
1517810816720440584	200 42 0.900000 0.045000 0.041000 1100 37 0.900000 1.547000 1.536000 600 47 1.000000 0.053000 0.053000 1.200000 0.048000 0.057000
1517810817240083792	200 42 0.900000 0.055000 0.050000 1100 37 0.900000 1.585000 1.578000 600 47 1.000000 0.052000 0.052000 1.200000 0.044000 0.053000
1517810817750438709	200 42 0.900000 0.046000 0.042000 1100 37 0.900000 1.316000 1.309000 600 46 1.000000 0.053000 0.053000 1.200000 0.039000 0.047000
1517810818261139751	200 42 0.900000 0.060000 0.054000 1100 38 0.900000 1.744000 1.738000 600 45 1.000000 0.053000 0.053000 1.200000 0.039000 0.047000
1517810818773087668	200 42 0.900000 0.045000 0.041000 1100 37 0.900000 1.396000 1.386000 600 46 1.000000 0.053000 0.053000 1.200000 0.049000 0.059000
1517810819297289501	200 42 0.900000 0.049000 0.044000 1100 37 0.900000 1.703000 1.696000 600 47 1.000000 0.053000 0.053000 1.200000 0.032000 0.038000
1517810819807637251	200 42 0.900000 0.059000 0.053000 1100 37 0.900000 1.807000 1.799000 600 47 1.000000 0.053000 0.053000 1.200000 0.033000 0.039000
1517810820357825959	200 42 0.900000 0.046000 0.041000 1100 37 0.900000 1.320000 1.313000 600 47 1.000000 0.053000 0.053000 1.200000 0.045000 0.054000
1517810820891657585	200 42 0.900000 0.059000 0.053000 1100 37 0.900000 1.705000 1.699000 600 47 1.000000 0.053000 0.053000 1.200000 0.034000 0.041000
1517810821401460501	200 42 0.900000 0.050000 0.045000 1100 38 0.900000 1.792000 1.786000 600 47 1.000000 0.052000 0.052000 1.200000 0.035000 0.042000
1517810821938931835	200 42 0.900000 0.048000 0.043000 1100 37 0.900000 1.333000 1.326000 600 47 1.000000 0.053000 0.053000 1.200000 0.045000 0.054000
1517810822474271501	200 42 0.900000 0.060000 0.054000 1100 37 0.900000 1.790000 1.784000 600 47 1.000000 0.052000 0.052000 1.200000 0.033000 0.039000
1517810822986859376	200 43 0.900000 0.060000 0.054000 1100 38 0.900000 1.781000 1.775000 600 47 1.000000 0.053000 0.053000 1.200000 0.036000 0.043000
1517810823524883918	200 42 0.900000 0.044000 0.040000 1100 38 0.900000 1.401000 1.393000 600 47 1.000000 0.053000 0.053000 1.200000 0.050000 0.060000
1517810824060917710	200 42 0.900000 0.060000 0.054000 1100 38 0.900000 1.795000 1.787000 600 47 1.000000 0.053000 0.053000 1.200000 0.034000 0.041000
1517810824570890002	200 43 0.900000 0.059000 0.053000 1100 38 0.900000 1.816000 1.810000 600 47 1.000000 0.053000 0.053000 1.200000 0.033000 0.039000
1517810825099612293	200 42 0.900000 0.044000 0.040000 1100 37 0.900000 1.422000 1.414000 600 47 1.000000 0.053000 0.053000 1.200000 0.047000 0.056000
1517810825639047460	200 42 0.900000 0.060000 0.054000 1100 38 0.900000 1.749000 1.742000 600 47 1.000000 0.053000 0.053000 1.200000 0.034000 0.041000
1517810826149106502	200 42 0.900000 0.060000 0.054000 1100 38 0.900000 1.817000 1.809000 600 47 1.000000 0.052000 0.052000 1.200000 0.033000 0.039000
1517810826680324544	200 42 0.900000 0.047000 0.042000 1100 38 0.900000 1.548000 1.537000 600 47 1.000000 0.053000 0.053000 1.200000 0.047000 0.056000
1517810827205307127	200 42 0.900000 0.060000 0.054000 1100 38 0.900000 1.781000 1.773000 600 47 1.000000 0.053000 0.053000 1.200000 0.035000 0.042000
1517810827715455794	200 43 0.900000 0.053000 0.048000 1100 38 0.900000 1.772000 1.764000 600 47 1.000000 0.053000 0.053000 1.200000 0.036000 0.043000
1517810828250318710	200 42 0.900000 0.045000 0.041000 1100 37 0.900000 1.248000 1.241000 600 47 1.000000 0.053000 0.053000 1.200000 0.048000 0.057000
1517810828794241294	200 42 0.900000 0.059000 0.053000 1100 37 0.900000 1.744000 1.737000 600 47 1.000000 0.053000 0.053000 1.200000 0.035000 0.042000
1517810829304450086	200 42 0.900000 0.061000 0.055000 1100 38 0.900000 1.784000 1.778000 600 47 1.000000 0.053000 0.053000 1.200000 0.035000 0.042000
1517810829857404794	200 42 0.900000 0.044000 0.040000 1100 37 0.900000 1.121000 1.115000 600 47 1.000000 0.053000 0.053000 1.200000 0.045000 0.054000
1517810830394597544	200 42 0.900000 0.059000 0.053000 1100 37 0.900000 1.778000 1.770000 600 46 1.000000 0.053000 0.053000 1.200000 0.034000 0.041000
1517810830904695752	200 43 0.900000 0.060000 0.054000 1100 37 0.900000 1.801000 1.793000 600 47 1.000000 0.053000 0.053000 1.200000 0.035000 0.042000
1517810831435497294	200 42 0.900000 0.044000 0.040000 1100 37 0.900000 1.256000 1.249000 600 47 1.000000 0.052000 0.052000 1.200000 0.050000 0.060000
1517810831981345211	200 42 0.900000 0.060000 0.054000 1100 37 0.900000 1.791000 1.783000 600 47 1.000000 0.053000 0.053000 1.200000 0.034000 0.041000
1517810832497321128	200 42 0.900000 0.059000 0.053000 1100 38 0.900000 1.719000 1.712000 600 47 1.000000 0.053000 0.053000 1.200000 0.035000 0.042000
1517810833028024003	200 42 0.900000 0.047000 0.042000 1100 37 0.900000 1.295000 1.288000 600 47 1.000000 0.053000 0.053000 1.200000 0.049000 0.059000
1517810833563887961	200 42 0.900000 0.059000 0.053000 1100 37 0.900000 1.808000 1.800000 600 47 1.000000 0.053000 0.053000 1.200000 0.034000 0.041000
1517810834073731878	200 42 0.900000 0.050000 0.045000 1100 38 0.900000 1.771000 1.765000 600 47 1.000000 0.053000 0.053000 1.200000 0.035000 0.042000
1517810834602616170	200 42 0.900000 0.050000 0.045000 1100 37 0.900000 1.260000 1.253000 600 47 1.000000 0.052000 0.052000 1.200000 0.050000 0.060000
1517810835137337920	200 42 0.900000 0.060000 0.054000 1100 37 0.900000 1.761000 1.755000 600 47 1.000000 0.052000 0.052000 1.200000 0.032000 0.038000
1517810835647187170	200 42 0.900000 0.060000 0.054000 1100 37 0.900000 1.779000 1.773000 600 47 1.000000 0.052000 0.052000 1.200000 0.033000 0.039000
1517810836175131795	200 42 0.900000 0.046000 0.042000 1100 37 0.900000 1.471000 1.463000 600 47 1.000000 0.053000 0.053000 1.200000 0.045000 0.054000
1517810836690886336	200 42 0.900000 0.060000 0.054000 1100 37 0.900000 1.620000 1.613000 600 47 1.000000 0.052000 0.052000 1.200000 0.036000 0.043000
1517810837201547878	200 42 0.900000 0.060000 0.054000 1100 37 0.900000 1.741000 1.735000 600 46 1.000000 0.052000 0.052000 1.200000 0.032000 0.038000
1517810837711806420	200 42 0.900000 0.044000 0.040000 1100 37 0.900000 1.733000 1.724000 600 47 1.000000 0.053000 0.053000 1.200000 0.035000 0.042000
1517810838222225795	200 42 0.900000 0.051000 0.046000 1100 37 0.900000 1.338000 1.331000 600 46 1.000000 0.053000 0.053000 1.200000 0.034000 0.041000
1517810838732874170	200 40 0.900000 0.060000 0.054000 1100 37 0.900000 1.714000 1.708000 600 45 1.000000 0.053000 0.053000 1.200000 0.042000 0.050000
1517810839288447420	200 42 0.900000 0.060000 0.054000 1100 37 0.900000 1.762000 1.749000 600 47 1.000000 0.053000 0.053000 1.200000 0.047000 0.056000
1517810839856447378	200 41 0.900000 0.060000 0.054000 1100 37 0.900000 1.778000 1.772000 600 46 1.000000 0.052000 0.052000 1.200000 0.035000 0.042000
1517810840373402129	200 42 0.900000 0.060000 0.054000 1100 37 0.900000 1.715000 1.709000 600 46 1.000000 0.053000 0.053000 1.200000 0.031000 0.037000
1517810840884044795	200 42 0.900000 0.058000 0.052000 1100 37 0.900000 1.646000 1.637000 600 45 1.000000 0.052000 0.052000 1.200000 0.044000 0.053000
1517810841423401837	200 42 0.900000 0.045000 0.041000 1100 37 0.900000 1.238000 1.231000 600 47 1.000000 0.053000 0.053000 1.200000 0.048000 0.058000
1517810841988447629	200 42 0.900000 0.051000 0.046000 1100 37 0.900000 1.768000 1.762000 600 46 1.000000 0.053000 0.053000 1.200000 0.032000 0.038000
1517810842552506045	200 42 0.900000 0.060000 0.054000 1100 37 0.900000 1.622000 1.617000 600 46 1.000000 0.053000 0.053000 1.200000 0.034000 0.041000
1517810843068459004	200 41 0.900000 0.060000 0.054000 1100 37 0.900000 1.770000 1.762000 600 45 1.000000 0.052000 0.052000 1.200000 0.043000 0.052000
1517810843612109962	200 42 0.900000 0.051000 0.046000 1100 37 0.900000 1.272000 1.265000 600 47 1.000000 0.053000 0.053000 1.200000 0.048000 0.057000
1517810844172455004	200 41 0.900000 0.045000 0.041000 1100 37 0.900000 1.800000 1.794000 600 46 1.000000 0.052000 0.052000 1.200000 0.034000 0.041000
1517810844692651462	200 42 0.900000 0.046000 0.041000 1100 38 0.900000 1.294000 1.287000 600 47 1.000000 0.052000 0.052000 1.200000 0.039000 0.047000
1517810845232650087	200 42 0.900000 0.045000 0.041000 1100 37 0.900000 1.659000 1.652000 600 45 1.000000 0.052000 0.052000 1.200000 0.033000 0.039000
1517810845751525338	200 42 0.900000 0.061000 0.055000 1100 37 0.900000 1.793000 1.787000 600 47 1.000000 0.052000 0.052000 1.200000 0.034000 0.041000
1517810846261926671	200 42 0.900000 0.046000 0.041000 1100 37 0.900000 1.273000 1.266000 600 46 1.000000 0.052000 0.052000 1.200000 0.044000 0.053000
1517810846775347546	200 42 0.900000 0.040000 0.036000 1100 37 0.900000 1.553000 1.546000 600 46 1.000000 0.052000 0.052000 1.200000 0.035000 0.042000
1517810847286265213	200 42 0.900000 0.048000 0.043000 1100 37 0.900000 1.417000 1.409000 600 45 1.000000 0.052000 0.052000 1.200000 0.047000 0.056000
1517810847844319254	200 41 0.900000 0.043000 0.039000 1100 37 0.900000 1.399000 1.392000 600 46 1.000000 0.053000 0.053000 1.200000 0.038000 0.045000
1517810848404462296	200 42 0.900000 0.045000 0.041000 1100 37 0.900000 1.306000 1.299000 600 46 1.000000 0.052000 0.052000 1.200000 0.040000 0.048000
1517810848915078796	200 42 0.900000 0.060000 0.054000 1100 37 0.900000 1.763000 1.757000 600 45 1.000000 0.053000 0.053000 1.200000 0.032000 0.038000
1517810849448362588	200 42 0.900000 0.059000 0.053000 1100 37 0.900000 1.854000 1.846000 600 47 1.000000 0.052000 0.052000 1.200000 0.035000 0.042000
1517810849969933338	200 42 0.900000 0.046000 0.042000 1100 37 0.900000 1.243000 1.236000 600 47 1.000000 0.053000 0.053000 1.200000 0.041000 0.049000
1517810850483707921	200 42 0.900000 0.053000 0.048000 1100 37 0.900000 1.775000 1.769000 600 45 1.000000 0.052000 0.052000 1.200000 0.031000 0.037000
1517810851012936046	200 42 0.900000 0.059000 0.053000 1100 37 0.900000 1.759000 1.751000 600 47 1.000000 0.053000 0.053000 1.200000 0.032000 0.038000
1517810851537330588	200 42 0.900000 0.058000 0.052000 1100 37 0.900000 1.502000 1.491000 600 47 1.000000 0.053000 0.053000 1.200000 0.049000 0.059000
1517810852050573380	200 42 0.900000 0.059000 0.053000 1100 37 0.900000 1.743000 1.736000 600 45 1.000000 0.053000 0.053000 1.200000 0.031000 0.037000
1517810852579206630	200 42 0.900000 0.043000 0.039000 1100 37 0.900000 1.380000 1.370000 600 47 1.000000 0.053000 0.053000 1.200000 0.047000 0.056000
1517810853100418047	200 42 0.900000 0.058000 0.052000 1100 37 0.900000 1.680000 1.673000 600 47 1.000000 0.053000 0.053000 1.200000 0.032000 0.038000
1517810853611469088	200 42 0.900000 0.059000 0.053000 1100 37 0.900000 1.805000 1.797000 600 46 1.000000 0.053000 0.053000 1.200000 0.033000 0.039000
1517810854128561422	200 42 0.900000 0.046000 0.042000 1100 37 0.900000 1.375000 1.365000 600 47 1.000000 0.053000 0.053000 1.200000 0.046000 0.055000
1517810854657930047	200 42 0.900000 0.060000 0.054000 1100 37 0.900000 1.783000 1.775000 600 47 1.000000 0.052000 0.052000 1.200000 0.032000 0.038000
1517810855169484464	200 40 0.900000 0.060000 0.054000 1100 37 0.900000 1.767000 1.759000 600 45 1.000000 0.053000 0.053000 1.200000 0.033000 0.039000
1517810855709162797	200 42 0.900000 0.046000 0.042000 1100 37 0.900000 1.405000 1.395000 600 47 1.000000 0.053000 0.053000 1.200000 0.046000 0.055000
1517810856234941880	200 42 0.900000 0.051000 0.046000 1100 37 0.900000 1.704000 1.697000 600 47 1.000000 0.053000 0.053000 1.200000 0.031000 0.037000
1517810856747659380	200 42 0.900000 0.060000 0.054000 1100 37 0.900000 1.730000 1.723000 600 45 1.000000 0.052000 0.052000 1.200000 0.033000 0.039000
1517810857284542464	200 42 0.900000 0.060000 0.054000 1100 37 0.900000 1.422000 1.414000 600 47 1.000000 0.053000 0.053000 1.200000 0.045000 0.054000
1517810857820716756	200 42 0.900000 0.045000 0.041000 1100 37 0.900000 1.704000 1.697000 600 47 1.000000 0.053000 0.053000 1.200000 0.033000 0.039000
1517810858335009422	200 42 0.900000 0.059000 0.053000 1100 37 0.900000 1.669000 1.662000 600 45 1.000000 0.052000 0.052000 1.200000 0.034000 0.041000
1517810858874807547	200 42 0.900000 0.045000 0.041000 1100 37 0.900000 1.451000 1.443000 600 47 1.000000 0.053000 0.053000 1.200000 0.047000 0.056000
1517810859404043631	200 42 0.900000 0.059000 0.053000 1100 37 0.900000 1.674000 1.667000 600 47 1.000000 0.053000 0.053000 1.200000 0.034000 0.041000
1517810859918268298	200 42 0.900000 0.059000 0.053000 1100 37 0.900000 1.784000 1.776000 600 45 1.000000 0.053000 0.053000 1.200000 0.033000 0.039000
1517810860440882214	200 42 0.900000 0.044000 0.040000 1100 37 0.900000 1.527000 1.520000 600 47 1.000000 0.052000 0.052000 1.200000 0.045000 0.054000
1517810860969210089	200 42 0.900000 0.059000 0.053000 1100 37 0.900000 1.560000 1.552000 600 47 1.000000 0.052000 0.052000 1.200000 0.036000 0.043000
1517810861486502173	200 40 0.900000 0.059000 0.053000 1100 37 0.900000 1.804000 1.796000 600 45 1.000000 0.053000 0.053000 1.200000 0.032000 0.038000
1517810862012802714	200 42 0.900000 0.052000 0.047000 1100 37 0.900000 1.667000 1.660000 600 47 1.000000 0.053000 0.053000 1.200000 0.043000 0.051000
1517810862560061923	200 42 0.900000 0.047000 0.043000 1100 37 0.900000 1.445000 1.437000 600 47 1.000000 0.053000 0.053000 1.200000 0.034000 0.041000
1517810863071735465	200 42 0.900000 0.059000 0.053000 1100 37 0.900000 1.781000 1.773000 600 45 1.000000 0.052000 0.052000 1.200000 0.032000 0.038000
1517810863608107840	200 42 0.900000 0.061000 0.055000 1100 37 0.900000 1.571000 1.564000 600 47 1.000000 0.052000 0.052000 1.200000 0.044000 0.053000
1517810864125732756	200 42 0.900000 0.045000 0.041000 1100 37 0.900000 1.473000 1.465000 600 47 1.000000 0.052000 0.052000 1.200000 0.037000 0.044000
1517810864636293131	200 41 0.900000 0.060000 0.054000 1100 37 0.900000 1.782000 1.774000 600 46 1.000000 0.053000 0.053000 1.200000 0.032000 0.038000
1517810865156359715	200 42 0.900000 0.045000 0.041000 1100 37 0.900000 1.874000 1.866000 600 47 1.000000 0.053000 0.053000 1.200000 0.040000 0.048000
1517810865666774507	200 42 0.900000 0.059000 0.053000 1100 37 0.900000 1.404000 1.394000 600 47 1.000000 0.053000 0.053000 1.200000 0.041000 0.049000
1517810866185023965	200 42 0.900000 0.060000 0.054000 1100 37 0.900000 1.744000 1.738000 600 45 1.000000 0.053000 0.053000 1.200000 0.033000 0.039000
1517810866744433090	200 42 0.900000 0.055000 0.050000 1100 37 0.900000 1.788000 1.780000 600 47 1.000000 0.052000 0.052000 1.200000 0.032000 0.038000
1517810867265902340	200 42 0.900000 0.045000 0.041000 1100 37 0.900000 1.360000 1.350000 600 47 1.000000 0.052000 0.052000 1.200000 0.048000 0.058000
1517810867777394465	200 42 0.900000 0.045000 0.041000 1100 37 0.900000 1.588000 1.581000 600 47 1.000000 0.052000 0.052000 1.200000 0.031000 0.037000
1517810868288174715	200 40 0.900000 0.060000 0.054000 1100 37 0.900000 1.736000 1.730000 600 45 1.000000 0.053000 0.053000 1.200000 0.033000 0.039000
1517810868848388049	200 42 0.900000 0.052000 0.047000 1100 37 0.900000 1.805000 1.797000 600 46 1.000000 0.053000 0.053000 1.200000 0.041000 0.049000
1517810869392423840	200 41 0.900000 0.046000 0.042000 1100 37 0.900000 1.309000 1.299000 600 46 1.000000 0.053000 0.053000 1.200000 0.045000 0.054000
1517810869914997257	200 42 0.900000 0.060000 0.054000 1100 37 0.900000 1.739000 1.732000 600 47 1.000000 0.053000 0.053000 1.200000 0.033000 0.039000
1517810870425463590	200 40 0.900000 0.060000 0.054000 1100 37 0.900000 1.650000 1.645000 600 45 1.000000 0.053000 0.053000 1.200000 0.031000 0.037000
1517810870967341507	200 42 0.900000 0.044000 0.040000 1100 37 0.900000 1.885000 1.877000 600 47 1.000000 0.052000 0.052000 1.200000 0.040000 0.048000
1517810871536438257	200 42 0.900000 0.060000 0.054000 1100 37 0.900000 1.552000 1.541000 600 46 1.000000 0.053000 0.053000 1.200000 0.045000 0.054000
1517810872055432716	200 42 0.900000 0.060000 0.054000 1100 37 0.900000 1.681000 1.675000 600 46 1.000000 0.053000 0.053000 1.200000 0.032000 0.038000
1517810872565709049	200 40 0.900000 0.058000 0.052000 1100 37 0.900000 1.642000 1.635000 600 45 1.000000 0.053000 0.053000 1.200000 0.035000 0.042000
1517810873108338549	200 42 0.900000 0.045000 0.041000 1100 37 0.900000 1.643000 1.636000 600 47 1.000000 0.053000 0.053000 1.200000 0.043000 0.051000
1517810873620604799	200 41 0.900000 0.059000 0.053000 1100 37 0.900000 1.208000 1.199000 600 46 1.000000 0.053000 0.053000 1.200000 0.046000 0.055000
1517810874156551008	200 42 0.900000 0.060000 0.054000 1100 37 0.900000 1.744000 1.738000 600 46 1.000000 0.053000 0.053000 1.200000 0.031000 0.037000
1517810874703405466	200 42 0.900000 0.061000 0.055000 1100 37 0.900000 1.750000 1.744000 600 47 1.000000 0.053000 0.053000 1.200000 0.031000 0.037000
1517810875226746341	200 42 0.900000 0.046000 0.042000 1100 38 0.900000 1.301000 1.294000 600 47 1.000000 0.052000 0.052000 1.200000 0.049000 0.059000
1517810875747708341	200 42 0.900000 0.059000 0.053000 1100 37 0.900000 1.622000 1.615000 600 47 1.000000 0.053000 0.053000 1.200000 0.031000 0.037000
1517810876257637799	200 42 0.900000 0.060000 0.054000 1100 38 0.900000 1.732000 1.726000 600 47 1.000000 0.052000 0.052000 1.200000 0.032000 0.038000
1517810876770578258	200 42 0.900000 0.046000 0.041000 1100 38 0.900000 1.394000 1.388000 600 47 1.000000 0.053000 0.053000 1.200000 0.047000 0.056000
1517810877282905300	200 42 0.900000 0.060000 0.054000 1100 37 0.900000 1.416000 1.408000 600 47 1.000000 0.053000 0.053000 1.200000 0.038000 0.045000
1517810877793746758	200 41 0.900000 0.058000 0.052000 1100 38 0.900000 1.770000 1.764000 600 46 1.000000 0.052000 0.052000 1.200000 0.032000 0.038000
1517810878303927591	200 42 0.900000 0.044000 0.040000 1100 38 0.900000 1.367000 1.360000 600 47 1.000000 0.053000 0.053000 1.200000 0.039000 0.047000
1517810878816735716	200 42 0.900000 0.059000 0.053000 1100 37 0.900000 1.783000 1.777000 600 47 1.000000 0.053000 0.053000 1.200000 0.032000 0.038000
1517810879327225508	200 42 0.900000 0.060000 0.054000 1100 38 0.900000 1.771000 1.763000 600 46 1.000000 0.052000 0.052000 1.200000 0.036000 0.043000
1517810879837632467	200 42 0.900000 0.047000 0.043000 1100 38 0.900000 1.451000 1.440000 600 47 1.000000 0.053000 0.053000 1.200000 0.049000 0.059000
1517810880348042550	200 42 0.900000 0.051000 0.046000 1100 38 0.900000 1.782000 1.774000 600 46 1.000000 0.053000 0.053000 1.200000 0.034000 0.041000
1517810880858595342	200 42 0.900000 0.060000 0.054000 1100 38 0.900000 1.737000 1.731000 600 46 1.000000 0.052000 0.052000 1.200000 0.035000 0.042000
1517810881382198258	200 41 0.900000 0.061000 0.055000 1100 38 0.900000 1.241000 1.234000 600 46 1.000000 0.053000 0.053000 1.200000 0.047000 0.056000
1517810881895867800	200 41 0.900000 0.046000 0.042000 1100 37 0.900000 1.618000 1.611000 600 46 1.000000 0.052000 0.052000 1.200000 0.032000 0.038000
1517810882406843884	200 41 0.900000 0.047000 0.042000 1100 38 0.900000 1.645000 1.640000 600 46 1.000000 0.053000 0.053000 1.200000 0.033000 0.039000
1517810882929428259	200 42 0.900000 0.059000 0.053000 1100 37 0.900000 1.292000 1.285000 600 47 1.000000 0.053000 0.053000 1.200000 0.049000 0.059000
1517810883449460342	200 42 0.900000 0.060000 0.054000 1100 37 0.900000 1.626000 1.619000 600 47 1.000000 0.053000 0.053000 1.200000 0.033000 0.039000
1517810883959976509	200 42 0.900000 0.046000 0.042000 1100 37 0.900000 1.358000 1.351000 600 47 1.000000 0.053000 0.053000 1.200000 0.044000 0.053000
1517810884478228217	200 42 0.900000 0.056000 0.051000 1100 37 0.900000 1.602000 1.595000 600 47 1.000000 0.053000 0.053000 1.200000 0.033000 0.039000
1517810884997607551	200 42 0.900000 0.060000 0.054000 1100 38 0.900000 1.788000 1.780000 600 47 1.000000 0.053000 0.053000 1.200000 0.033000 0.039000
1517810885507514217	200 42 0.900000 0.058000 0.052000 1100 38 0.900000 1.750000 1.743000 600 47 1.000000 0.053000 0.053000 1.200000 0.044000 0.053000
1517810886030436842	200 42 0.900000 0.045000 0.041000 1100 37 0.900000 1.365000 1.358000 600 47 1.000000 0.053000 0.053000 1.200000 0.037000 0.044000
1517810886540142384	200 39 0.900000 0.059000 0.053000 1100 37 0.900000 1.765000 1.759000 600 43 1.000000 0.053000 0.053000 1.200000 0.031000 0.037000
1517810887049231217	200 37 0.900000 0.012000 0.010000 1100 36 1.000000 0.169000 0.169000 600 41 1.000000 0.053000 0.053000 1.200000 0.026000 0.031000
