#Timestamp	CPU(0) Frequency(MHz)	CPU(0) Temperature(C)	A7 Voltage(V)	A7 Current(A)	A7 Power(W)	CPU(4) Frequency(MHz)	CPU(4) Temperature(C)	A15 Voltage(V)	A15 Current(A)	A15 Power(W)	GPU Frequency(MHz)	GPU Temperature(C)	GPU Voltage(V)	GPU Current(A)	GPU Power(W)	RAM Voltage(V)	RAM Current(A)	RAM Power(W)
1538222888718437563	1300 35 1.200000 0.107000 0.129000 1300 34 1.000000 0.527000 0.552000 600 38 1.000000 0.051000 0.051000 1.200000 0.046000 0.055000
1538222889224361604	1300 35 1.200000 0.216000 0.263000 1300 34 1.000000 0.189000 0.198000 600 38 1.000000 0.051000 0.051000 1.200000 0.048000 0.058000
1538222889730386938	1300 35 1.200000 0.218000 0.265000 1300 34 1.000000 0.199000 0.209000 600 38 1.000000 0.051000 0.051000 1.200000 0.048000 0.058000
1538222890236223438	1300 35 1.200000 0.218000 0.265000 1300 34 1.000000 0.197000 0.207000 600 38 1.000000 0.051000 0.051000 1.200000 0.048000 0.058000
1538222890742191521	1300 35 1.200000 0.219000 0.267000 1300 34 1.000000 0.196000 0.205000 600 38 1.000000 0.051000 0.051000 1.200000 0.047000 0.056000
1538222891248083729	1300 35 1.200000 0.218000 0.265000 1300 34 1.000000 0.197000 0.207000 600 38 1.000000 0.051000 0.051000 1.200000 0.048000 0.058000
1538222891753935188	1300 35 1.200000 0.220000 0.268000 1300 34 1.000000 0.186000 0.195000 600 38 1.000000 0.051000 0.051000 1.200000 0.048000 0.058000
1538222892259804521	1300 35 1.200000 0.219000 0.267000 1300 34 1.000000 0.202000 0.212000 600 38 1.000000 0.051000 0.051000 1.200000 0.047000 0.056000
1538222892765618896	1300 35 1.200000 0.219000 0.267000 1300 34 1.000000 0.187000 0.196000 600 38 1.000000 0.051000 0.051000 1.200000 0.048000 0.057000
1538222893271432271	1300 35 1.200000 0.212000 0.258000 1300 34 1.000000 0.215000 0.225000 600 38 1.000000 0.051000 0.051000 1.200000 0.050000 0.060000
1538222893777293105	1300 35 1.200000 0.219000 0.267000 1300 34 1.000000 0.181000 0.190000 600 38 1.000000 0.051000 0.051000 1.200000 0.048000 0.057000
1538222894283039521	1300 35 1.200000 0.219000 0.267000 1300 34 1.000000 0.207000 0.217000 600 38 1.000000 0.051000 0.051000 1.200000 0.048000 0.058000
1538222894788797188	1300 35 1.200000 0.219000 0.267000 1300 34 1.000000 0.186000 0.195000 600 38 1.000000 0.051000 0.051000 1.200000 0.048000 0.058000
1538222895294710355	1300 35 1.200000 0.218000 0.265000 1300 34 1.000000 0.185000 0.194000 600 38 1.000000 0.051000 0.051000 1.200000 0.048000 0.058000
1538222895800579855	1300 35 1.200000 0.217000 0.264000 1300 34 1.000000 0.182000 0.191000 600 38 1.000000 0.051000 0.051000 1.200000 0.048000 0.058000
1538222896306727147	1300 35 1.200000 0.218000 0.265000 1300 34 1.000000 0.199000 0.209000 600 38 1.000000 0.051000 0.051000 1.200000 0.048000 0.058000
1538222896863423105	1300 40 1.200000 0.190000 0.231000 1300 35 1.000000 0.222000 0.233000 600 43 1.000000 0.051000 0.051000 1.200000 0.060000 0.072000
1538222897431957689	1300 41 1.200000 0.327000 0.395000 1300 37 1.000000 1.418000 1.484000 600 44 1.000000 0.051000 0.051000 1.200000 0.215000 0.262000
1538222897979519647	1300 42 1.200000 0.264000 0.321000 1300 37 1.000000 0.659000 0.688000 600 44 1.000000 0.051000 0.051000 1.200000 0.081000 0.098000
1538222898535541564	1300 45 1.200000 0.476000 0.574000 1300 39 1.000000 2.163000 2.266000 600 48 1.000000 0.051000 0.051000 1.200000 0.226000 0.274000
1538222899095553397	1300 47 1.200000 0.474000 0.572000 1300 40 1.000000 2.164000 2.267000 600 50 1.000000 0.051000 0.051000 1.200000 0.228000 0.277000
1538222899663575689	1300 48 1.200000 0.481000 0.580000 1300 41 1.000000 2.177000 2.281000 600 51 1.000000 0.051000 0.051000 1.200000 0.224000 0.272000
1538222900223463522	1300 48 1.200000 0.488000 0.589000 1300 42 1.000000 2.179000 2.283000 600 52 1.000000 0.051000 0.051000 1.200000 0.216000 0.262000
1538222900775360189	1300 49 1.200000 0.492000 0.593000 1300 43 1.000000 2.241000 2.348000 600 52 1.000000 0.052000 0.052000 1.200000 0.207000 0.251000
1538222901339550772	1300 50 1.200000 0.487000 0.587000 1300 43 1.000000 2.219000 2.325000 600 54 1.000000 0.052000 0.052000 1.200000 0.197000 0.239000
1538222901899280231	1300 50 1.200000 0.489000 0.590000 1300 44 1.000000 2.313000 2.424000 600 54 1.000000 0.052000 0.052000 1.200000 0.190000 0.231000
1538222902467563897	1300 52 1.200000 0.509000 0.614000 1300 45 1.000000 2.326000 2.437000 600 55 1.000000 0.052000 0.052000 1.200000 0.155000 0.188000
1538222903023415856	1300 51 1.200000 0.483000 0.582000 1300 45 1.000000 2.233000 2.340000 600 55 1.000000 0.053000 0.053000 1.200000 0.203000 0.247000
1538222903587355314	1300 52 1.200000 0.489000 0.590000 1300 45 1.000000 2.347000 2.464000 600 56 1.000000 0.052000 0.052000 1.200000 0.193000 0.234000
1538222904151360564	1300 52 1.200000 0.520000 0.627000 1300 46 1.000000 2.327000 2.438000 600 55 1.000000 0.052000 0.052000 1.200000 0.160000 0.194000
1538222904658746606	1300 49 1.200000 0.536000 0.646000 1300 45 1.000000 2.396000 2.515000 600 56 1.000000 0.053000 0.053000 1.200000 0.164000 0.198000
1538222905165399856	1300 46 1.200000 0.530000 0.639000 1300 44 1.000000 1.255000 1.308000 600 49 1.000000 0.052000 0.052000 1.200000 0.112000 0.135000
1538222905671459481	1300 45 1.200000 0.559000 0.674000 1300 43 1.000000 0.290000 0.303000 600 47 1.000000 0.053000 0.053000 1.200000 0.084000 0.101000
1538222906177442398	1300 43 1.200000 0.480000 0.579000 1300 42 1.000000 0.235000 0.246000 600 45 1.000000 0.053000 0.053000 1.200000 0.065000 0.078000
1538222906683302815	1300 41 1.200000 0.305000 0.369000 1300 41 1.000000 0.191000 0.200000 600 44 1.000000 0.052000 0.052000 1.200000 0.048000 0.057000
1538222907189058148	1300 40 1.200000 0.209000 0.254000 1300 39 1.000000 0.170000 0.178000 600 43 1.000000 0.052000 0.052000 1.200000 0.034000 0.041000
1538222907747388231	1300 46 1.200000 0.204000 0.248000 1300 41 1.000000 0.928000 0.970000 600 48 1.000000 0.052000 0.052000 1.200000 0.042000 0.050000
1538222908295497648	1300 48 1.200000 0.491000 0.592000 1300 42 1.000000 2.278000 2.387000 600 52 1.000000 0.052000 0.052000 1.200000 0.196000 0.238000
1538222908859283273	1300 50 1.200000 0.492000 0.593000 1300 43 1.000000 2.389000 2.508000 600 53 1.000000 0.052000 0.052000 1.200000 0.182000 0.221000
1538222909398881523	1300 51 1.200000 0.512000 0.617000 1300 44 1.000000 2.416000 2.536000 600 53 1.000000 0.052000 0.052000 1.200000 0.158000 0.191000
1538222909959370440	1300 51 1.200000 0.499000 0.602000 1300 45 1.000000 2.309000 2.419000 600 55 1.000000 0.052000 0.052000 1.200000 0.201000 0.244000
1538222910523287107	1300 52 1.200000 0.520000 0.627000 1300 45 1.000000 2.414000 2.534000 600 56 1.000000 0.052000 0.052000 1.200000 0.167000 0.202000
1538222911091387815	1300 52 1.200000 0.505000 0.609000 1300 45 1.000000 2.396000 2.515000 600 56 1.000000 0.052000 0.052000 1.200000 0.150000 0.182000
1538222911655358149	1300 53 1.200000 0.530000 0.639000 1300 46 1.000000 2.387000 2.506000 600 56 1.000000 0.053000 0.053000 1.200000 0.150000 0.182000
1538222912223280524	1300 53 1.200000 0.533000 0.642000 1300 46 1.000000 2.455000 2.577000 600 57 1.000000 0.053000 0.053000 1.200000 0.153000 0.185000
1538222912787322815	1300 54 1.200000 0.523000 0.630000 1300 47 1.000000 2.342000 2.459000 600 57 1.000000 0.053000 0.053000 1.200000 0.143000 0.173000
1538222913351323024	1300 53 1.200000 0.523000 0.630000 1300 46 1.000000 2.378000 2.496000 600 57 1.000000 0.053000 0.053000 1.200000 0.155000 0.188000
1538222913907512857	1300 54 1.200000 0.537000 0.647000 1300 47 1.000000 2.393000 2.512000 600 57 1.000000 0.053000 0.053000 1.200000 0.157000 0.190000
1538222914467342316	1300 54 1.200000 0.527000 0.635000 1300 47 1.000000 2.219000 2.325000 600 57 1.000000 0.053000 0.053000 1.200000 0.168000 0.204000
1538222915027238149	1300 54 1.200000 0.532000 0.641000 1300 47 1.000000 2.382000 2.501000 600 58 1.000000 0.053000 0.053000 1.200000 0.161000 0.195000
1538222915595219524	1300 55 1.200000 0.539000 0.650000 1300 47 1.000000 2.471000 2.594000 600 58 1.000000 0.053000 0.053000 1.200000 0.142000 0.172000
1538222916159278649	1300 55 1.200000 0.548000 0.660000 1300 48 1.000000 2.528000 2.656000 600 59 1.000000 0.053000 0.053000 1.200000 0.125000 0.151000
1538222916731301983	1300 55 1.200000 0.571000 0.688000 1300 48 1.000000 2.380000 2.499000 600 58 1.000000 0.053000 0.053000 1.200000 0.124000 0.150000
1538222917291255108	1300 55 1.200000 0.565000 0.681000 1300 48 1.000000 2.496000 2.620000 600 58 1.000000 0.053000 0.053000 1.200000 0.129000 0.156000
1538222917867320483	1300 56 1.200000 0.553000 0.666000 1300 48 1.000000 2.569000 2.700000 600 59 1.000000 0.053000 0.053000 1.200000 0.125000 0.151000
1538222918431289483	1300 56 1.200000 0.547000 0.659000 1300 48 1.000000 2.518000 2.643000 600 58 1.000000 0.053000 0.053000 1.200000 0.128000 0.155000
1538222918991239941	1300 56 1.200000 0.545000 0.657000 1300 48 1.000000 2.419000 2.539000 600 58 1.000000 0.053000 0.053000 1.200000 0.146000 0.177000
1538222919555332691	1300 56 1.200000 0.557000 0.671000 1300 48 1.000000 2.550000 2.680000 600 59 1.000000 0.053000 0.053000 1.200000 0.121000 0.146000
1538222920115249358	1300 56 1.200000 0.551000 0.664000 1300 48 1.000000 2.448000 2.570000 600 59 1.000000 0.053000 0.053000 1.200000 0.124000 0.150000
1538222920654973358	1300 56 1.200000 0.553000 0.666000 1300 48 1.000000 2.448000 2.570000 600 58 1.000000 0.053000 0.053000 1.200000 0.124000 0.150000
1538222921215312858	1300 56 1.200000 0.517000 0.623000 1300 48 1.000000 2.479000 2.602000 600 59 1.000000 0.053000 0.053000 1.200000 0.143000 0.173000
1538222921775256941	1300 56 1.200000 0.523000 0.630000 1300 48 1.000000 2.497000 2.621000 600 59 1.000000 0.053000 0.053000 1.200000 0.126000 0.152000
1538222922318651525	1300 56 1.200000 0.533000 0.642000 1300 49 1.000000 2.553000 2.680000 600 60 1.000000 0.053000 0.053000 1.200000 0.119000 0.144000
1538222922875234483	1300 56 1.200000 0.531000 0.640000 1300 49 1.000000 2.577000 2.708000 600 60 1.000000 0.053000 0.053000 1.200000 0.113000 0.136000
1538222923439305858	1300 56 1.200000 0.540000 0.651000 1300 49 1.000000 2.527000 2.653000 600 60 1.000000 0.053000 0.053000 1.200000 0.139000 0.168000
1538222924007422067	1300 56 1.200000 0.553000 0.666000 1300 49 1.000000 2.474000 2.597000 600 60 1.000000 0.053000 0.053000 1.200000 0.151000 0.183000
1538222924567390317	1300 56 1.200000 0.555000 0.669000 1300 49 1.000000 2.384000 2.503000 600 60 1.000000 0.053000 0.053000 1.200000 0.139000 0.168000
1538222925127259942	1300 56 1.200000 0.562000 0.677000 1300 49 1.000000 2.469000 2.592000 600 60 1.000000 0.053000 0.053000 1.200000 0.123000 0.149000
1538222925691488192	1300 56 1.200000 0.564000 0.680000 1300 49 1.000000 2.461000 2.584000 600 60 1.000000 0.053000 0.053000 1.200000 0.137000 0.166000
1538222926247499150	1300 56 1.200000 0.533000 0.642000 1300 49 1.000000 2.455000 2.577000 600 60 1.000000 0.053000 0.053000 1.200000 0.133000 0.161000
1538222926803300234	1300 56 1.200000 0.550000 0.663000 1300 49 1.000000 2.530000 2.659000 600 59 1.000000 0.053000 0.053000 1.200000 0.125000 0.151000
1538222927363575900	1300 56 1.200000 0.541000 0.652000 1300 49 1.000000 2.423000 2.544000 600 59 1.000000 0.053000 0.053000 1.200000 0.132000 0.159000
1538222927915414401	1300 57 1.200000 0.561000 0.676000 1300 49 1.000000 2.497000 2.621000 600 60 1.000000 0.053000 0.053000 1.200000 0.120000 0.145000
1538222928479267317	1300 57 1.200000 0.575000 0.693000 1300 49 1.000000 2.478000 2.604000 600 59 1.000000 0.053000 0.053000 1.200000 0.122000 0.147000
1538222929043373901	1300 57 1.200000 0.563000 0.678000 1300 49 1.000000 2.347000 2.464000 600 59 1.000000 0.053000 0.053000 1.200000 0.148000 0.179000
1538222929607259442	1300 57 1.200000 0.549000 0.662000 1300 49 1.000000 2.498000 2.625000 600 60 1.000000 0.053000 0.053000 1.200000 0.122000 0.147000
1538222930171257692	1300 57 1.200000 0.554000 0.668000 1300 49 1.000000 2.475000 2.601000 600 60 1.000000 0.053000 0.053000 1.200000 0.124000 0.150000
1538222930723268568	1300 57 1.200000 0.564000 0.680000 1300 49 1.000000 2.526000 2.652000 600 60 1.000000 0.053000 0.053000 1.200000 0.121000 0.146000
1538222931291245651	1300 57 1.200000 0.545000 0.657000 1300 49 1.000000 2.560000 2.690000 600 60 1.000000 0.053000 0.053000 1.200000 0.131000 0.159000
1538222931859210276	1300 57 1.200000 0.536000 0.646000 1300 49 1.000000 2.555000 2.685000 600 60 1.000000 0.053000 0.053000 1.200000 0.120000 0.145000
1538222932419319818	1300 57 1.200000 0.540000 0.651000 1300 49 1.000000 2.473000 2.596000 600 60 1.000000 0.053000 0.053000 1.200000 0.123000 0.149000
1538222932979244859	1300 57 1.200000 0.552000 0.665000 1300 49 1.000000 2.550000 2.680000 600 61 1.000000 0.053000 0.053000 1.200000 0.116000 0.140000
1538222933543464985	1300 57 1.200000 0.558000 0.672000 1300 50 1.000000 2.564000 2.694000 600 61 1.000000 0.053000 0.053000 1.200000 0.113000 0.136000
1538222934103120860	1300 56 1.200000 0.561000 0.676000 1300 50 1.000000 2.609000 2.742000 600 61 1.000000 0.053000 0.053000 1.200000 0.097000 0.117000
1538222934659240318	1300 56 1.200000 0.573000 0.691000 1300 49 1.000000 2.474000 2.597000 600 61 1.000000 0.053000 0.053000 1.200000 0.115000 0.139000
1538222935223453026	1300 57 1.200000 0.579000 0.698000 1300 50 1.000000 2.522000 2.650000 600 61 1.000000 0.053000 0.053000 1.200000 0.113000 0.136000
1538222935783221860	1300 57 1.200000 0.582000 0.701000 1300 50 1.000000 2.549000 2.676000 600 61 1.000000 0.053000 0.053000 1.200000 0.102000 0.123000
1538222936347130068	1300 57 1.200000 0.548000 0.660000 1300 50 1.000000 2.592000 2.724000 600 61 1.000000 0.053000 0.053000 1.200000 0.108000 0.130000
1538222936907238110	1300 57 1.200000 0.566000 0.682000 1300 50 1.000000 2.593000 2.725000 600 61 1.000000 0.053000 0.053000 1.200000 0.104000 0.125000
1538222937483254527	1300 57 1.200000 0.566000 0.682000 1300 50 1.000000 2.489000 2.613000 600 60 1.000000 0.053000 0.053000 1.200000 0.135000 0.163000
1538222938051232693	1300 57 1.200000 0.561000 0.676000 1300 50 1.000000 2.520000 2.646000 600 61 1.000000 0.053000 0.053000 1.200000 0.126000 0.152000
1538222938615324360	1300 57 1.200000 0.579000 0.698000 1300 50 1.000000 2.524000 2.650000 600 60 1.000000 0.053000 0.053000 1.200000 0.103000 0.124000
1538222939183206735	1300 57 1.200000 0.584000 0.704000 1300 50 1.000000 2.575000 2.706000 600 61 1.000000 0.053000 0.053000 1.200000 0.104000 0.125000
1538222939747135735	1300 57 1.200000 0.583000 0.703000 1300 50 1.000000 2.608000 2.741000 600 61 1.000000 0.053000 0.053000 1.200000 0.123000 0.149000
1538222940303120485	1300 58 1.200000 0.561000 0.676000 1300 50 1.000000 2.596000 2.728000 600 61 1.000000 0.053000 0.053000 1.200000 0.101000 0.122000
1538222940867202777	1300 57 1.200000 0.560000 0.675000 1300 50 1.000000 2.593000 2.725000 600 61 1.000000 0.053000 0.053000 1.200000 0.117000 0.141000
1538222941419219944	1300 57 1.200000 0.561000 0.676000 1300 50 1.000000 2.567000 2.697000 600 60 1.000000 0.053000 0.053000 1.200000 0.108000 0.130000
1538222941987203111	1300 57 1.200000 0.564000 0.680000 1300 50 1.000000 2.524000 2.650000 600 61 1.000000 0.053000 0.053000 1.200000 0.122000 0.147000
1538222942555345777	1300 57 1.200000 0.571000 0.688000 1300 50 1.000000 2.300000 2.410000 600 60 1.000000 0.053000 0.053000 1.200000 0.148000 0.179000
1538222943119357986	1300 57 1.200000 0.595000 0.716000 1300 50 1.000000 2.417000 2.537000 600 60 1.000000 0.053000 0.053000 1.200000 0.131000 0.158000
1538222943683288736	1300 57 1.200000 0.586000 0.706000 1300 50 1.000000 2.421000 2.542000 600 61 1.000000 0.053000 0.053000 1.200000 0.126000 0.152000
1538222944251220361	1300 57 1.200000 0.596000 0.718000 1300 50 1.000000 2.475000 2.598000 600 61 1.000000 0.053000 0.053000 1.200000 0.126000 0.152000
1538222944819344569	1300 57 1.200000 0.582000 0.701000 1300 50 1.000000 2.473000 2.596000 600 61 1.000000 0.053000 0.053000 1.200000 0.136000 0.164000
1538222945383338819	1300 57 1.200000 0.559000 0.674000 1300 50 1.000000 2.403000 2.523000 600 61 1.000000 0.053000 0.053000 1.200000 0.143000 0.173000
1538222945939268986	1300 57 1.200000 0.574000 0.692000 1300 50 1.000000 2.502000 2.627000 600 61 1.000000 0.053000 0.053000 1.200000 0.133000 0.161000
1538222946507166153	1300 57 1.200000 0.590000 0.711000 1300 50 1.000000 2.496000 2.620000 600 61 1.000000 0.053000 0.053000 1.200000 0.124000 0.150000
1538222947067255319	1300 57 1.200000 0.589000 0.710000 1300 50 1.000000 2.540000 2.667000 600 61 1.000000 0.053000 0.053000 1.200000 0.115000 0.139000
1538222947631088986	1300 58 1.200000 0.608000 0.733000 1300 50 1.000000 2.550000 2.677000 600 61 1.000000 0.053000 0.053000 1.200000 0.107000 0.129000
1538222948191130153	1300 57 1.200000 0.579000 0.698000 1300 50 1.000000 2.558000 2.688000 600 61 1.000000 0.053000 0.053000 1.200000 0.113000 0.136000
1538222948759264653	1300 57 1.200000 0.555000 0.669000 1300 50 1.000000 2.569000 2.700000 600 62 1.000000 0.053000 0.053000 1.200000 0.118000 0.143000
1538222949327192445	1300 58 1.200000 0.566000 0.682000 1300 50 1.000000 2.571000 2.702000 600 61 1.000000 0.053000 0.053000 1.200000 0.099000 0.119000
1538222949867262278	1300 58 1.200000 0.577000 0.695000 1300 50 1.000000 2.556000 2.686000 600 61 1.000000 0.053000 0.053000 1.200000 0.099000 0.119000
1538222950415316528	1300 58 1.200000 0.551000 0.664000 1300 50 1.000000 2.611000 2.744000 600 61 1.000000 0.053000 0.053000 1.200000 0.106000 0.128000
1538222950979105945	1300 58 1.200000 0.567000 0.683000 1300 50 1.000000 2.604000 2.736000 600 62 1.000000 0.053000 0.053000 1.200000 0.107000 0.129000
1538222951535279820	1300 58 1.200000 0.561000 0.676000 1300 50 1.000000 2.648000 2.783000 600 62 1.000000 0.053000 0.053000 1.200000 0.106000 0.128000
1538222952091206528	1300 58 1.200000 0.567000 0.683000 1300 50 1.000000 2.627000 2.760000 600 62 1.000000 0.053000 0.053000 1.200000 0.099000 0.119000
1538222952655272237	1300 57 1.200000 0.570000 0.687000 1300 50 1.000000 2.529000 2.657000 600 61 1.000000 0.053000 0.053000 1.200000 0.088000 0.106000
1538222953211061737	1300 58 1.200000 0.584000 0.704000 1300 50 1.000000 2.598000 2.730000 600 60 1.000000 0.053000 0.053000 1.200000 0.106000 0.128000
1538222953763046320	1300 58 1.200000 0.580000 0.699000 1300 50 1.000000 2.508000 2.633000 600 61 1.000000 0.053000 0.053000 1.200000 0.135000 0.163000
1538222954323084445	1300 58 1.200000 0.579000 0.698000 1300 50 1.000000 2.586000 2.717000 600 61 1.000000 0.053000 0.053000 1.200000 0.101000 0.122000
1538222954887309195	1300 58 1.200000 0.573000 0.691000 1300 50 1.000000 2.581000 2.712000 600 61 1.000000 0.053000 0.053000 1.200000 0.097000 0.117000
1538222955447089737	1300 58 1.200000 0.585000 0.705000 1300 50 1.000000 2.597000 2.729000 600 62 1.000000 0.053000 0.053000 1.200000 0.095000 0.115000
1538222956003154862	1300 58 1.200000 0.585000 0.705000 1300 50 1.000000 2.626000 2.759000 600 61 1.000000 0.053000 0.053000 1.200000 0.088000 0.106000
1538222956546814196	1300 58 1.200000 0.592000 0.713000 1300 50 1.000000 2.640000 2.774000 600 61 1.000000 0.053000 0.053000 1.200000 0.076000 0.091000
1538222957103327946	1300 58 1.200000 0.594000 0.716000 1300 51 1.000000 2.503000 2.628000 600 61 1.000000 0.053000 0.053000 1.200000 0.118000 0.143000
1538222957671252862	1300 58 1.200000 0.590000 0.711000 1300 51 1.000000 2.564000 2.694000 600 62 1.000000 0.053000 0.053000 1.200000 0.097000 0.117000
1538222958231090112	1300 58 1.200000 0.562000 0.677000 1300 50 1.000000 2.592000 2.724000 600 62 1.000000 0.053000 0.053000 1.200000 0.119000 0.144000
1538222958795078779	1300 58 1.200000 0.566000 0.682000 1300 51 1.000000 2.587000 2.718000 600 62 1.000000 0.053000 0.053000 1.200000 0.112000 0.135000
1538222959355222904	1300 58 1.200000 0.573000 0.691000 1300 51 1.000000 2.599000 2.731000 600 62 1.000000 0.053000 0.053000 1.200000 0.100000 0.121000
1538222959923024779	1300 58 1.200000 0.598000 0.721000 1300 51 1.000000 2.597000 2.729000 600 62 1.000000 0.053000 0.053000 1.200000 0.088000 0.106000
1538222960491130821	1300 58 1.200000 0.598000 0.721000 1300 51 1.000000 2.626000 2.759000 600 62 1.000000 0.053000 0.053000 1.200000 0.081000 0.098000
1538222961050966321	1300 58 1.200000 0.586000 0.706000 1300 51 1.000000 2.637000 2.771000 600 62 1.000000 0.053000 0.053000 1.200000 0.078000 0.094000
1538222961603251405	1300 58 1.200000 0.567000 0.683000 1300 51 1.000000 2.649000 2.784000 600 62 1.000000 0.053000 0.053000 1.200000 0.085000 0.102000
1538222962167084238	1300 58 1.200000 0.595000 0.717000 1300 51 1.000000 2.535000 2.664000 600 62 1.000000 0.053000 0.053000 1.200000 0.091000 0.110000
1538222962735280071	1300 58 1.200000 0.590000 0.711000 1300 51 1.000000 2.482000 2.606000 600 62 1.000000 0.053000 0.053000 1.200000 0.110000 0.133000
1538222963295261446	1300 58 1.200000 0.599000 0.722000 1300 51 1.000000 2.549000 2.676000 600 62 1.000000 0.053000 0.053000 1.200000 0.102000 0.123000
1538222963855062155	1300 59 1.200000 0.595000 0.717000 1300 51 1.000000 2.575000 2.706000 600 62 1.000000 0.053000 0.053000 1.200000 0.092000 0.111000
1538222964407138447	1300 58 1.200000 0.605000 0.729000 1300 51 1.000000 2.590000 2.722000 600 62 1.000000 0.053000 0.053000 1.200000 0.087000 0.105000
1538222964963242655	1300 58 1.200000 0.596000 0.718000 1300 51 1.000000 2.575000 2.706000 600 62 1.000000 0.053000 0.053000 1.200000 0.094000 0.113000
1538222965515126738	1300 58 1.200000 0.608000 0.733000 1300 51 1.000000 2.598000 2.730000 600 62 1.000000 0.053000 0.053000 1.200000 0.084000 0.101000
1538222966079249030	1300 58 1.200000 0.605000 0.729000 1300 51 1.000000 2.533000 2.659000 600 62 1.000000 0.053000 0.053000 1.200000 0.109000 0.132000
1538222966647038363	1300 58 1.200000 0.616000 0.742000 1300 51 1.000000 2.562000 2.690000 600 61 1.000000 0.053000 0.053000 1.200000 0.092000 0.111000
1538222967195040572	1300 58 1.200000 0.616000 0.742000 1300 51 1.000000 2.538000 2.664000 600 61 1.000000 0.053000 0.053000 1.200000 0.092000 0.111000
1538222967755211739	1300 58 1.200000 0.622000 0.749000 1300 51 1.000000 2.516000 2.641000 600 61 1.000000 0.053000 0.053000 1.200000 0.096000 0.116000
1538222968315136572	1300 57 1.200000 0.588000 0.709000 1300 50 1.000000 2.490000 2.614000 600 61 1.000000 0.053000 0.053000 1.200000 0.123000 0.149000
1538222968883130239	1300 58 1.200000 0.596000 0.718000 1300 51 1.000000 2.466000 2.589000 600 62 1.000000 0.053000 0.053000 1.200000 0.110000 0.133000
1538222969443024655	1300 58 1.200000 0.567000 0.683000 1300 51 1.000000 2.560000 2.688000 600 61 1.000000 0.053000 0.053000 1.200000 0.113000 0.136000
1538222970007138656	1300 58 1.200000 0.583000 0.703000 1300 51 1.000000 2.567000 2.697000 600 62 1.000000 0.053000 0.053000 1.200000 0.111000 0.134000
1538222970571107322	1300 58 1.200000 0.578000 0.697000 1300 51 1.000000 2.517000 2.642000 600 62 1.000000 0.053000 0.053000 1.200000 0.121000 0.146000
1538222971127182281	1300 58 1.200000 0.590000 0.711000 1300 51 1.000000 2.458000 2.580000 600 61 1.000000 0.053000 0.053000 1.200000 0.132000 0.159000
1538222971687379489	1300 57 1.200000 0.581000 0.700000 1300 51 1.000000 2.465000 2.588000 600 61 1.000000 0.053000 0.053000 1.200000 0.129000 0.156000
1538222972255092614	1300 58 1.200000 0.586000 0.706000 1300 51 1.000000 2.280000 2.394000 600 61 1.000000 0.053000 0.053000 1.200000 0.145000 0.175000
1538222972811040989	1300 58 1.200000 0.606000 0.730000 1300 51 1.000000 2.510000 2.635000 600 62 1.000000 0.053000 0.053000 1.200000 0.114000 0.138000
1538222973367060489	1300 58 1.200000 0.594000 0.716000 1300 51 1.000000 2.511000 2.639000 600 62 1.000000 0.053000 0.053000 1.200000 0.103000 0.124000
1538222973923068323	1300 58 1.200000 0.594000 0.716000 1300 51 1.000000 2.528000 2.656000 600 62 1.000000 0.053000 0.053000 1.200000 0.107000 0.129000
1538222974483034739	1300 58 1.200000 0.612000 0.738000 1300 51 1.000000 2.531000 2.660000 600 62 1.000000 0.053000 0.053000 1.200000 0.102000 0.123000
1538222975031252614	1300 58 1.200000 0.600000 0.723000 1300 51 1.000000 2.581000 2.710000 600 62 1.000000 0.053000 0.053000 1.200000 0.100000 0.121000
1538222975595175281	1300 58 1.200000 0.606000 0.730000 1300 51 1.000000 2.543000 2.670000 600 62 1.000000 0.053000 0.053000 1.200000 0.102000 0.123000
1538222976159121781	1300 58 1.200000 0.612000 0.737000 1300 51 1.000000 2.536000 2.662000 600 62 1.000000 0.053000 0.053000 1.200000 0.097000 0.117000
1538222976715034365	1300 58 1.200000 0.612000 0.738000 1300 51 1.000000 2.597000 2.726000 600 62 1.000000 0.053000 0.053000 1.200000 0.091000 0.110000
1538222977267065031	1300 58 1.200000 0.606000 0.730000 1300 51 1.000000 2.559000 2.689000 600 61 1.000000 0.053000 0.053000 1.200000 0.107000 0.129000
1538222977827103448	1300 59 1.200000 0.621000 0.748000 1300 51 1.000000 2.504000 2.631000 600 62 1.000000 0.053000 0.053000 1.200000 0.102000 0.123000
1538222978383125573	1300 58 1.200000 0.602000 0.726000 1300 51 1.000000 2.510000 2.638000 600 61 1.000000 0.053000 0.053000 1.200000 0.106000 0.128000
1538222978947094490	1300 58 1.200000 0.585000 0.705000 1300 51 1.000000 2.475000 2.601000 600 62 1.000000 0.053000 0.053000 1.200000 0.127000 0.154000
1538222979507086698	1300 58 1.200000 0.580000 0.699000 1300 51 1.000000 2.591000 2.723000 600 62 1.000000 0.053000 0.053000 1.200000 0.106000 0.128000
1538222980071071573	1300 58 1.200000 0.592000 0.713000 1300 51 1.000000 2.535000 2.664000 600 62 1.000000 0.053000 0.053000 1.200000 0.102000 0.123000
1538222980635160490	1300 58 1.200000 0.582000 0.701000 1300 51 1.000000 2.620000 2.753000 600 62 1.000000 0.053000 0.053000 1.200000 0.081000 0.098000
1538222981203068115	1300 58 1.200000 0.593000 0.715000 1300 51 1.000000 2.546000 2.675000 600 62 1.000000 0.054000 0.054000 1.200000 0.105000 0.127000
1538222981759041907	1300 59 1.200000 0.600000 0.723000 1300 51 1.000000 2.546000 2.675000 600 62 1.000000 0.053000 0.053000 1.200000 0.098000 0.118000
1538222982315139407	1300 58 1.200000 0.600000 0.723000 1300 51 1.000000 2.600000 2.732000 600 62 1.000000 0.054000 0.054000 1.200000 0.100000 0.121000
1538222982874998199	1300 59 1.200000 0.527000 0.635000 1300 51 1.000000 2.592000 2.724000 600 62 1.000000 0.053000 0.053000 1.200000 0.117000 0.141000
1538222983419020074	1300 58 1.200000 0.540000 0.651000 1300 51 1.000000 2.578000 2.709000 600 62 1.000000 0.054000 0.054000 1.200000 0.108000 0.130000
1538222983975061616	1300 58 1.200000 0.562000 0.677000 1300 51 1.000000 2.593000 2.725000 600 62 1.000000 0.053000 0.053000 1.200000 0.111000 0.134000
1538222984519026116	1300 59 1.200000 0.572000 0.689000 1300 51 1.000000 2.589000 2.721000 600 62 1.000000 0.054000 0.054000 1.200000 0.110000 0.133000
1538222985083155991	1300 58 1.200000 0.555000 0.669000 1300 51 1.000000 2.639000 2.773000 600 62 1.000000 0.053000 0.053000 1.200000 0.100000 0.121000
1538222985643160324	1300 59 1.200000 0.552000 0.665000 1300 51 1.000000 2.618000 2.751000 600 62 1.000000 0.053000 0.053000 1.200000 0.119000 0.144000
1538222986190988199	1300 59 1.200000 0.570000 0.687000 1300 51 1.000000 2.611000 2.744000 600 62 1.000000 0.053000 0.053000 1.200000 0.116000 0.140000
1538222986755058741	1300 59 1.200000 0.562000 0.677000 1300 51 1.000000 2.626000 2.759000 600 62 1.000000 0.053000 0.053000 1.200000 0.123000 0.149000
1538222987298939866	1300 59 1.200000 0.584000 0.704000 1300 51 1.000000 2.610000 2.743000 600 62 1.000000 0.053000 0.053000 1.200000 0.106000 0.128000
1538222987855074533	1300 59 1.200000 0.561000 0.676000 1300 51 1.000000 2.609000 2.742000 600 63 1.000000 0.053000 0.053000 1.200000 0.100000 0.121000
1538222988415103533	1300 59 1.200000 0.588000 0.709000 1300 51 1.000000 2.632000 2.766000 600 63 1.000000 0.053000 0.053000 1.200000 0.094000 0.113000
1538222988967122366	1300 59 1.200000 0.560000 0.675000 1300 51 1.000000 2.653000 2.788000 600 63 1.000000 0.053000 0.053000 1.200000 0.103000 0.124000
1538222989522967200	1300 59 1.200000 0.597000 0.719000 1300 51 1.000000 2.646000 2.780000 600 63 1.000000 0.053000 0.053000 1.200000 0.094000 0.113000
1538222990083002908	1300 59 1.200000 0.572000 0.689000 1300 51 1.000000 2.646000 2.780000 600 63 1.000000 0.053000 0.053000 1.200000 0.107000 0.129000
1538222990630940991	1300 59 1.200000 0.597000 0.719000 1300 51 1.000000 2.612000 2.745000 600 63 1.000000 0.053000 0.053000 1.200000 0.089000 0.107000
1538222991179095991	1300 59 1.200000 0.578000 0.697000 1300 51 1.000000 2.655000 2.790000 600 63 1.000000 0.053000 0.053000 1.200000 0.091000 0.110000
1538222991731057366	1300 59 1.200000 0.589000 0.710000 1300 51 1.000000 2.623000 2.756000 600 63 1.000000 0.054000 0.054000 1.200000 0.095000 0.115000
1538222992294902283	1300 59 1.200000 0.580000 0.699000 1300 51 1.000000 2.657000 2.792000 600 63 1.000000 0.053000 0.053000 1.200000 0.087000 0.105000
1538222992847061408	1300 59 1.200000 0.599000 0.722000 1300 51 1.000000 2.655000 2.790000 600 63 1.000000 0.054000 0.054000 1.200000 0.079000 0.095000
1538222993382871908	1300 59 1.200000 0.567000 0.683000 1300 51 1.000000 2.645000 2.779000 600 63 1.000000 0.053000 0.053000 1.200000 0.100000 0.121000
1538222993939092367	1300 59 1.200000 0.605000 0.729000 1300 51 1.000000 2.648000 2.783000 600 63 1.000000 0.054000 0.054000 1.200000 0.075000 0.090000
1538222994498863658	1300 59 1.200000 0.572000 0.689000 1300 51 1.000000 2.640000 2.774000 600 63 1.000000 0.054000 0.054000 1.200000 0.093000 0.112000
1538222995055023492	1300 59 1.200000 0.581000 0.700000 1300 51 1.000000 2.656000 2.791000 600 63 1.000000 0.054000 0.054000 1.200000 0.081000 0.098000
1538222995611002367	1300 59 1.200000 0.591000 0.712000 1300 52 1.000000 2.644000 2.778000 600 63 1.000000 0.054000 0.054000 1.200000 0.077000 0.093000
1538222996171032450	1300 58 1.200000 0.610000 0.735000 1300 51 1.000000 2.579000 2.710000 600 63 1.000000 0.053000 0.053000 1.200000 0.097000 0.117000
1538222996718992992	1300 59 1.200000 0.592000 0.713000 1300 51 1.000000 2.614000 2.747000 600 63 1.000000 0.054000 0.054000 1.200000 0.092000 0.111000
1538222997271085950	1300 59 1.200000 0.582000 0.701000 1300 51 1.000000 2.544000 2.673000 600 63 1.000000 0.054000 0.054000 1.200000 0.119000 0.144000
1538222997830980367	1300 59 1.200000 0.606000 0.730000 1300 51 1.000000 2.612000 2.745000 600 63 1.000000 0.053000 0.053000 1.200000 0.084000 0.101000
1538222998387051492	1300 59 1.200000 0.612000 0.737000 1300 52 1.000000 2.622000 2.755000 600 63 1.000000 0.054000 0.054000 1.200000 0.076000 0.091000
1538222998947106201	1300 59 1.200000 0.588000 0.709000 1300 51 1.000000 2.603000 2.735000 600 63 1.000000 0.053000 0.053000 1.200000 0.094000 0.113000
1538222999502990867	1300 59 1.200000 0.612000 0.737000 1300 51 1.000000 2.614000 2.747000 600 63 1.000000 0.054000 0.054000 1.200000 0.084000 0.101000
1538223000063129076	1300 59 1.200000 0.597000 0.719000 1300 51 1.000000 2.634000 2.768000 600 63 1.000000 0.054000 0.054000 1.200000 0.084000 0.101000
1538223000618975201	1300 59 1.200000 0.599000 0.722000 1300 52 1.000000 2.629000 2.763000 600 63 1.000000 0.053000 0.053000 1.200000 0.084000 0.101000
1538223001171010326	1300 59 1.200000 0.598000 0.720000 1300 51 1.000000 2.634000 2.768000 600 63 1.000000 0.053000 0.053000 1.200000 0.077000 0.093000
1538223001722901659	1300 59 1.200000 0.592000 0.713000 1300 52 1.000000 2.643000 2.777000 600 63 1.000000 0.054000 0.054000 1.200000 0.085000 0.102000
1538223002275013909	1300 59 1.200000 0.607000 0.732000 1300 52 1.000000 2.644000 2.778000 600 63 1.000000 0.053000 0.053000 1.200000 0.079000 0.095000
1538223002835037118	1300 59 1.200000 0.609000 0.733000 1300 52 1.000000 2.650000 2.785000 600 63 1.000000 0.054000 0.054000 1.200000 0.069000 0.083000
1538223003386924951	1300 59 1.200000 0.602000 0.726000 1300 52 1.000000 2.656000 2.791000 600 63 1.000000 0.054000 0.054000 1.200000 0.086000 0.104000
1538223003939038118	1300 59 1.200000 0.610000 0.735000 1300 52 1.000000 2.640000 2.774000 600 63 1.000000 0.054000 0.054000 1.200000 0.072000 0.087000
1538223004495088743	1300 59 1.200000 0.600000 0.723000 1300 52 1.000000 2.651000 2.786000 600 63 1.000000 0.054000 0.054000 1.200000 0.075000 0.090000
1538223005043036160	1300 59 1.200000 0.606000 0.730000 1300 52 1.000000 2.628000 2.762000 600 62 1.000000 0.053000 0.053000 1.200000 0.083000 0.100000
1538223005595056660	1300 59 1.200000 0.622000 0.749000 1300 52 1.000000 2.592000 2.724000 600 63 1.000000 0.053000 0.053000 1.200000 0.080000 0.096000
1538223006151081910	1300 59 1.200000 0.599000 0.721000 1300 52 1.000000 2.629000 2.763000 600 63 1.000000 0.054000 0.054000 1.200000 0.087000 0.105000
1538223006711168910	1300 59 1.200000 0.618000 0.744000 1300 52 1.000000 2.613000 2.746000 600 63 1.000000 0.053000 0.053000 1.200000 0.081000 0.098000
1538223007255002285	1300 59 1.200000 0.602000 0.725000 1300 52 1.000000 2.509000 2.634000 600 63 1.000000 0.054000 0.054000 1.200000 0.114000 0.138000
1538223007807089285	1300 59 1.200000 0.619000 0.745000 1300 52 1.000000 2.623000 2.756000 600 63 1.000000 0.053000 0.053000 1.200000 0.074000 0.089000
1538223008367003368	1300 59 1.200000 0.621000 0.748000 1300 52 1.000000 2.599000 2.731000 600 63 1.000000 0.054000 0.054000 1.200000 0.082000 0.099000
1538223008919083535	1300 59 1.200000 0.584000 0.703000 1300 52 1.000000 2.632000 2.766000 600 63 1.000000 0.053000 0.053000 1.200000 0.086000 0.104000
1538223009483052369	1300 59 1.200000 0.607000 0.731000 1300 52 1.000000 2.634000 2.768000 600 63 1.000000 0.054000 0.054000 1.200000 0.080000 0.096000
1538223010027034535	1300 59 1.200000 0.618000 0.744000 1300 52 1.000000 2.631000 2.765000 600 63 1.000000 0.053000 0.053000 1.200000 0.075000 0.090000
1538223010582987285	1300 59 1.200000 0.612000 0.737000 1300 52 1.000000 2.617000 2.750000 600 63 1.000000 0.053000 0.053000 1.200000 0.069000 0.083000
1538223011138976702	1300 59 1.200000 0.597000 0.719000 1300 52 1.000000 2.667000 2.803000 600 63 1.000000 0.054000 0.054000 1.200000 0.080000 0.096000
1538223011691030619	1300 59 1.200000 0.614000 0.739000 1300 52 1.000000 2.642000 2.776000 600 63 1.000000 0.054000 0.054000 1.200000 0.080000 0.096000
1538223012251065661	1300 59 1.200000 0.617000 0.743000 1300 52 1.000000 2.648000 2.783000 600 63 1.000000 0.054000 0.054000 1.200000 0.072000 0.087000
1538223012799023452	1300 59 1.200000 0.604000 0.727000 1300 52 1.000000 2.518000 2.643000 600 63 1.000000 0.053000 0.053000 1.200000 0.102000 0.123000
1538223013359146161	1300 59 1.200000 0.603000 0.726000 1300 52 1.000000 2.588000 2.719000 600 63 1.000000 0.054000 0.054000 1.200000 0.097000 0.117000
1538223013910986077	1300 59 1.200000 0.618000 0.744000 1300 52 1.000000 2.603000 2.735000 600 63 1.000000 0.054000 0.054000 1.200000 0.084000 0.101000
1538223014475078202	1300 59 1.200000 0.621000 0.748000 1300 52 1.000000 2.573000 2.704000 600 63 1.000000 0.053000 0.053000 1.200000 0.102000 0.123000
1538223015027105203	1300 59 1.200000 0.600000 0.723000 1300 52 1.000000 2.571000 2.702000 600 63 1.000000 0.054000 0.054000 1.200000 0.090000 0.108000
1538223015591012619	1300 59 1.200000 0.596000 0.718000 1300 52 1.000000 2.623000 2.754000 600 63 1.000000 0.053000 0.053000 1.200000 0.081000 0.098000
1538223016130992286	1300 59 1.200000 0.626000 0.754000 1300 52 1.000000 2.623000 2.756000 600 63 1.000000 0.054000 0.054000 1.200000 0.071000 0.085000
1538223016687057078	1300 59 1.200000 0.626000 0.754000 1300 52 1.000000 2.623000 2.756000 600 63 1.000000 0.054000 0.054000 1.200000 0.073000 0.088000
1538223017247062161	1300 59 1.200000 0.612000 0.737000 1300 52 1.000000 2.515000 2.640000 600 63 1.000000 0.053000 0.053000 1.200000 0.109000 0.132000
1538223017787075953	1300 59 1.200000 0.623000 0.750000 1300 52 1.000000 2.589000 2.721000 600 63 1.000000 0.053000 0.053000 1.200000 0.076000 0.092000
1538223018339016161	1300 59 1.200000 0.615000 0.741000 1300 52 1.000000 2.622000 2.755000 600 63 1.000000 0.054000 0.054000 1.200000 0.082000 0.099000
1538223018895064036	1300 59 1.200000 0.621000 0.748000 1300 52 1.000000 2.622000 2.755000 600 63 1.000000 0.054000 0.054000 1.200000 0.071000 0.085000
1538223019462963370	1300 59 1.200000 0.629000 0.757000 1300 52 1.000000 2.644000 2.778000 600 63 1.000000 0.054000 0.054000 1.200000 0.060000 0.072000
1538223020022990828	1300 59 1.200000 0.629000 0.757000 1300 52 1.000000 2.641000 2.775000 600 63 1.000000 0.054000 0.054000 1.200000 0.057000 0.068000
1538223020578980120	1300 59 1.200000 0.611000 0.736000 1300 52 1.000000 2.643000 2.777000 600 63 1.000000 0.053000 0.053000 1.200000 0.072000 0.087000
1538223021134971245	1300 59 1.200000 0.610000 0.735000 1300 52 1.000000 2.620000 2.751000 600 63 1.000000 0.054000 0.054000 1.200000 0.074000 0.089000
1538223021682929453	1300 59 1.200000 0.616000 0.742000 1300 52 1.000000 2.643000 2.777000 600 63 1.000000 0.054000 0.054000 1.200000 0.062000 0.074000
1538223022243003662	1300 59 1.200000 0.617000 0.743000 1300 52 1.000000 2.628000 2.762000 600 63 1.000000 0.054000 0.054000 1.200000 0.069000 0.083000
1538223022798993412	1300 59 1.200000 0.624000 0.751000 1300 52 1.000000 2.646000 2.780000 600 63 1.000000 0.054000 0.054000 1.200000 0.057000 0.068000
1538223023359010037	1300 59 1.200000 0.626000 0.754000 1300 52 1.000000 2.634000 2.768000 600 63 1.000000 0.054000 0.054000 1.200000 0.060000 0.072000
1538223023918905995	1300 59 1.200000 0.628000 0.756000 1300 52 1.000000 2.653000 2.788000 600 63 1.000000 0.054000 0.054000 1.200000 0.060000 0.072000
1538223024495005287	1300 59 1.200000 0.631000 0.760000 1300 52 1.000000 2.654000 2.789000 600 63 1.000000 0.054000 0.054000 1.200000 0.052000 0.062000
1538223025047006037	1300 59 1.200000 0.629000 0.757000 1300 52 1.000000 2.634000 2.765000 600 63 1.000000 0.054000 0.054000 1.200000 0.063000 0.076000
1538223025599012954	1300 59 1.200000 0.620000 0.747000 1300 52 1.000000 2.653000 2.788000 600 63 1.000000 0.054000 0.054000 1.200000 0.057000 0.068000
1538223026158951912	1300 59 1.200000 0.624000 0.751000 1300 52 1.000000 2.631000 2.762000 600 63 1.000000 0.054000 0.054000 1.200000 0.054000 0.065000
1538223026714892246	1300 59 1.200000 0.622000 0.749000 1300 52 1.000000 2.661000 2.796000 600 63 1.000000 0.053000 0.053000 1.200000 0.057000 0.068000
1538223027275058246	1300 59 1.200000 0.630000 0.759000 1300 52 1.000000 2.581000 2.712000 600 63 1.000000 0.053000 0.053000 1.200000 0.076000 0.092000
1538223027835019121	1300 59 1.200000 0.630000 0.759000 1300 52 1.000000 2.625000 2.758000 600 63 1.000000 0.054000 0.054000 1.200000 0.067000 0.080000
1538223028383214787	1300 59 1.200000 0.601000 0.724000 1300 52 1.000000 2.594000 2.723000 600 63 1.000000 0.053000 0.053000 1.200000 0.081000 0.098000
1538223028939053663	1300 59 1.200000 0.610000 0.735000 1300 52 1.000000 2.609000 2.742000 600 63 1.000000 0.054000 0.054000 1.200000 0.088000 0.106000
1538223029498954788	1300 59 1.200000 0.613000 0.738000 1300 52 1.000000 2.644000 2.778000 600 63 1.000000 0.054000 0.054000 1.200000 0.072000 0.087000
1538223030055070413	1300 59 1.200000 0.579000 0.697000 1300 52 1.000000 2.631000 2.765000 600 63 1.000000 0.053000 0.053000 1.200000 0.081000 0.098000
1538223030611023288	1300 59 1.200000 0.596000 0.718000 1300 52 1.000000 2.598000 2.727000 600 63 1.000000 0.053000 0.053000 1.200000 0.090000 0.108000
1538223031167048413	1300 59 1.200000 0.565000 0.681000 1300 52 1.000000 2.623000 2.754000 600 62 1.000000 0.054000 0.054000 1.200000 0.090000 0.108000
1538223031727083580	1300 59 1.200000 0.586000 0.706000 1300 52 1.000000 2.585000 2.716000 600 62 1.000000 0.053000 0.053000 1.200000 0.101000 0.122000
1538223032283037830	1300 59 1.200000 0.583000 0.702000 1300 52 1.000000 2.560000 2.688000 600 63 1.000000 0.053000 0.053000 1.200000 0.103000 0.124000
1538223032839052663	1300 59 1.200000 0.595000 0.716000 1300 52 1.000000 2.591000 2.720000 600 63 1.000000 0.053000 0.053000 1.200000 0.099000 0.119000
1538223033395005038	1300 59 1.200000 0.588000 0.709000 1300 52 1.000000 2.623000 2.756000 600 63 1.000000 0.053000 0.053000 1.200000 0.102000 0.123000
1538223033947039705	1300 59 1.200000 0.586000 0.706000 1300 52 1.000000 2.570000 2.698000 600 63 1.000000 0.053000 0.053000 1.200000 0.107000 0.129000
1538223034503040288	1300 59 1.200000 0.590000 0.711000 1300 52 1.000000 2.622000 2.755000 600 63 1.000000 0.053000 0.053000 1.200000 0.089000 0.107000
1538223035059035413	1300 59 1.200000 0.582000 0.701000 1300 52 1.000000 2.604000 2.736000 600 63 1.000000 0.054000 0.054000 1.200000 0.087000 0.105000
1538223035623156247	1300 59 1.200000 0.565000 0.681000 1300 51 1.000000 2.620000 2.753000 600 63 1.000000 0.053000 0.053000 1.200000 0.110000 0.133000
1538223036174970038	1300 59 1.200000 0.572000 0.689000 1300 52 1.000000 2.619000 2.752000 600 63 1.000000 0.053000 0.053000 1.200000 0.090000 0.108000
1538223036731025247	1300 59 1.200000 0.575000 0.693000 1300 52 1.000000 2.652000 2.787000 600 62 1.000000 0.054000 0.054000 1.200000 0.089000 0.107000
1538223037287018289	1300 59 1.200000 0.589000 0.710000 1300 52 1.000000 2.596000 2.725000 600 63 1.000000 0.054000 0.054000 1.200000 0.091000 0.110000
1538223037847080455	1300 59 1.200000 0.577000 0.695000 1300 52 1.000000 2.625000 2.758000 600 63 1.000000 0.054000 0.054000 1.200000 0.097000 0.117000
1538223038403094330	1300 59 1.200000 0.593000 0.714000 1300 52 1.000000 2.617000 2.747000 600 63 1.000000 0.054000 0.054000 1.200000 0.094000 0.113000
1538223038975033997	1300 59 1.200000 0.578000 0.697000 1300 52 1.000000 2.642000 2.776000 600 63 1.000000 0.054000 0.054000 1.200000 0.100000 0.121000
1538223039534963497	1300 59 1.200000 0.598000 0.721000 1300 52 1.000000 2.621000 2.754000 600 63 1.000000 0.053000 0.053000 1.200000 0.091000 0.110000
1538223040091079581	1300 59 1.200000 0.587000 0.707000 1300 52 1.000000 2.630000 2.764000 600 63 1.000000 0.054000 0.054000 1.200000 0.094000 0.113000
1538223040647092456	1300 59 1.200000 0.616000 0.742000 1300 52 1.000000 2.620000 2.753000 600 63 1.000000 0.054000 0.054000 1.200000 0.072000 0.087000
1538223041207042622	1300 59 1.200000 0.579000 0.697000 1300 52 1.000000 2.630000 2.764000 600 63 1.000000 0.053000 0.053000 1.200000 0.098000 0.118000
1538223041747049831	1300 58 1.200000 0.590000 0.711000 1300 52 1.000000 2.633000 2.767000 600 63 1.000000 0.053000 0.053000 1.200000 0.087000 0.105000
1538223042307023539	1300 59 1.200000 0.609000 0.733000 1300 52 1.000000 2.592000 2.724000 600 63 1.000000 0.053000 0.053000 1.200000 0.099000 0.119000
1538223042859110206	1300 59 1.200000 0.609000 0.733000 1300 52 1.000000 2.617000 2.750000 600 63 1.000000 0.054000 0.054000 1.200000 0.082000 0.099000
1538223043407097623	1300 59 1.200000 0.590000 0.710000 1300 52 1.000000 2.613000 2.746000 600 63 1.000000 0.054000 0.054000 1.200000 0.092000 0.111000
1538223043954918664	1300 59 1.200000 0.610000 0.735000 1300 52 1.000000 2.616000 2.749000 600 63 1.000000 0.054000 0.054000 1.200000 0.079000 0.095000
1538223044499072914	1300 59 1.200000 0.587000 0.707000 1300 52 1.000000 2.648000 2.783000 600 63 1.000000 0.054000 0.054000 1.200000 0.096000 0.116000
1538223045063184039	1300 59 1.200000 0.603000 0.726000 1300 52 1.000000 2.620000 2.753000 600 63 1.000000 0.054000 0.054000 1.200000 0.077000 0.093000
1538223045622941081	1300 59 1.200000 0.597000 0.719000 1300 52 1.000000 2.618000 2.751000 600 63 1.000000 0.054000 0.054000 1.200000 0.083000 0.100000
1538223046179169165	1300 59 1.200000 0.596000 0.718000 1300 52 1.000000 2.644000 2.778000 600 63 1.000000 0.054000 0.054000 1.200000 0.079000 0.095000
1538223046731074706	1300 59 1.200000 0.606000 0.730000 1300 52 1.000000 2.556000 2.683000 600 63 1.000000 0.054000 0.054000 1.200000 0.102000 0.123000
1538223047287068040	1300 59 1.200000 0.605000 0.729000 1300 52 1.000000 2.546000 2.673000 600 63 1.000000 0.054000 0.054000 1.200000 0.099000 0.119000
1538223047846967540	1300 59 1.200000 0.611000 0.736000 1300 52 1.000000 2.614000 2.747000 600 63 1.000000 0.054000 0.054000 1.200000 0.080000 0.096000
1538223048395066248	1300 59 1.200000 0.606000 0.730000 1300 52 1.000000 2.640000 2.774000 600 63 1.000000 0.053000 0.053000 1.200000 0.093000 0.112000
1538223048947029457	1300 59 1.200000 0.602000 0.725000 1300 52 1.000000 2.621000 2.754000 600 63 1.000000 0.053000 0.053000 1.200000 0.084000 0.101000
1538223049511019707	1300 59 1.200000 0.617000 0.743000 1300 52 1.000000 2.636000 2.770000 600 63 1.000000 0.054000 0.054000 1.200000 0.064000 0.077000
1538223050063102498	1300 59 1.200000 0.619000 0.745000 1300 52 1.000000 2.575000 2.706000 600 63 1.000000 0.054000 0.054000 1.200000 0.084000 0.101000
1538223050623197832	1300 59 1.200000 0.615000 0.741000 1300 52 1.000000 2.587000 2.718000 600 63 1.000000 0.054000 0.054000 1.200000 0.080000 0.096000
1538223051179026207	1300 59 1.200000 0.593000 0.715000 1300 51 1.000000 2.638000 2.772000 600 63 1.000000 0.054000 0.054000 1.200000 0.093000 0.112000
1538223051739019165	1300 59 1.200000 0.595000 0.716000 1300 52 1.000000 2.639000 2.773000 600 63 1.000000 0.054000 0.054000 1.200000 0.080000 0.096000
1538223052299042707	1300 59 1.200000 0.598000 0.720000 1300 52 1.000000 2.623000 2.756000 600 63 1.000000 0.054000 0.054000 1.200000 0.099000 0.119000
1538223052850982665	1300 59 1.200000 0.598000 0.720000 1300 52 1.000000 2.640000 2.774000 600 63 1.000000 0.054000 0.054000 1.200000 0.076000 0.091000
1538223053390899415	1300 59 1.200000 0.613000 0.738000 1300 52 1.000000 2.646000 2.780000 600 63 1.000000 0.053000 0.053000 1.200000 0.072000 0.087000
1538223053946972916	1300 59 1.200000 0.610000 0.735000 1300 52 1.000000 2.653000 2.788000 600 63 1.000000 0.053000 0.053000 1.200000 0.070000 0.084000
1538223054503162916	1300 59 1.200000 0.606000 0.730000 1300 52 1.000000 2.615000 2.748000 600 63 1.000000 0.053000 0.053000 1.200000 0.092000 0.111000
1538223055062969207	1300 59 1.200000 0.613000 0.739000 1300 52 1.000000 2.649000 2.784000 600 63 1.000000 0.054000 0.054000 1.200000 0.069000 0.083000
1538223055618885249	1300 59 1.200000 0.622000 0.749000 1300 52 1.000000 2.651000 2.786000 600 63 1.000000 0.054000 0.054000 1.200000 0.054000 0.065000
1538223056163002666	1300 59 1.200000 0.619000 0.745000 1300 52 1.000000 2.652000 2.787000 600 63 1.000000 0.054000 0.054000 1.200000 0.058000 0.070000
1538223056719073749	1300 59 1.200000 0.608000 0.732000 1300 52 1.000000 2.655000 2.790000 600 63 1.000000 0.053000 0.053000 1.200000 0.067000 0.081000
1538223057275037458	1300 59 1.200000 0.608000 0.732000 1300 52 1.000000 2.648000 2.783000 600 63 1.000000 0.054000 0.054000 1.200000 0.071000 0.085000
1538223057827045083	1300 59 1.200000 0.610000 0.735000 1300 52 1.000000 2.635000 2.769000 600 63 1.000000 0.054000 0.054000 1.200000 0.076000 0.091000
1538223058383030833	1300 59 1.200000 0.619000 0.745000 1300 52 1.000000 2.655000 2.790000 600 63 1.000000 0.054000 0.054000 1.200000 0.058000 0.070000
1538223058938906416	1300 59 1.200000 0.628000 0.756000 1300 52 1.000000 2.652000 2.787000 600 63 1.000000 0.054000 0.054000 1.200000 0.065000 0.078000
1538223059499021125	1300 59 1.200000 0.614000 0.739000 1300 52 1.000000 2.655000 2.790000 600 63 1.000000 0.054000 0.054000 1.200000 0.066000 0.079000
1538223060038986375	1300 59 1.200000 0.609000 0.733000 1300 52 1.000000 2.650000 2.785000 600 63 1.000000 0.054000 0.054000 1.200000 0.073000 0.088000
1538223060578913416	1300 59 1.200000 0.621000 0.748000 1300 52 1.000000 2.659000 2.794000 600 63 1.000000 0.054000 0.054000 1.200000 0.058000 0.070000
1538223061131008208	1300 59 1.200000 0.610000 0.735000 1300 52 1.000000 2.653000 2.788000 600 63 1.000000 0.053000 0.053000 1.200000 0.060000 0.072000
1538223061694974958	1300 59 1.200000 0.619000 0.745000 1300 52 1.000000 2.652000 2.787000 600 63 1.000000 0.054000 0.054000 1.200000 0.073000 0.088000
1538223062250941958	1300 59 1.200000 0.619000 0.745000 1300 52 1.000000 2.654000 2.789000 600 63 1.000000 0.054000 0.054000 1.200000 0.064000 0.077000
1538223062810892625	1300 59 1.200000 0.617000 0.743000 1300 52 1.000000 2.657000 2.792000 600 63 1.000000 0.054000 0.054000 1.200000 0.048000 0.057000
1538223063366997667	1300 59 1.200000 0.620000 0.747000 1300 52 1.000000 2.665000 2.800000 600 63 1.000000 0.053000 0.053000 1.200000 0.059000 0.071000
1538223063923078250	1300 59 1.200000 0.592000 0.713000 1300 52 1.000000 2.671000 2.807000 600 63 1.000000 0.054000 0.054000 1.200000 0.071000 0.085000
1538223064487088458	1300 59 1.200000 0.592000 0.713000 1300 52 1.000000 2.645000 2.779000 600 63 1.000000 0.054000 0.054000 1.200000 0.091000 0.110000
1538223065035078459	1300 59 1.200000 0.615000 0.741000 1300 52 1.000000 2.661000 2.796000 600 63 1.000000 0.054000 0.054000 1.200000 0.060000 0.072000
1538223065603038792	1300 59 1.200000 0.600000 0.723000 1300 52 1.000000 2.668000 2.804000 600 63 1.000000 0.053000 0.053000 1.200000 0.072000 0.087000
1538223066150871000	1300 59 1.200000 0.594000 0.715000 1300 51 1.000000 2.669000 2.805000 600 63 1.000000 0.054000 0.054000 1.200000 0.079000 0.095000
1538223066711010375	1300 59 1.200000 0.591000 0.712000 1300 51 1.000000 2.669000 2.805000 600 63 1.000000 0.053000 0.053000 1.200000 0.074000 0.089000
1538223067266989125	1300 59 1.200000 0.597000 0.719000 1300 52 1.000000 2.671000 2.807000 600 63 1.000000 0.054000 0.054000 1.200000 0.071000 0.085000
1538223067822877626	1300 59 1.200000 0.589000 0.710000 1300 52 1.000000 2.667000 2.803000 600 63 1.000000 0.054000 0.054000 1.200000 0.076000 0.092000
1538223068379048251	1300 59 1.200000 0.598000 0.720000 1300 52 1.000000 2.676000 2.812000 600 63 1.000000 0.054000 0.054000 1.200000 0.073000 0.088000
1538223068939049626	1300 59 1.200000 0.590000 0.711000 1300 52 1.000000 2.637000 2.771000 600 63 1.000000 0.053000 0.053000 1.200000 0.082000 0.099000
1538223069491029917	1300 59 1.200000 0.594000 0.715000 1300 52 1.000000 2.652000 2.787000 600 62 1.000000 0.053000 0.053000 1.200000 0.070000 0.084000
1538223070042883626	1300 59 1.200000 0.601000 0.724000 1300 52 1.000000 2.569000 2.700000 600 63 1.000000 0.054000 0.054000 1.200000 0.094000 0.113000
1538223070602953709	1300 59 1.200000 0.605000 0.729000 1300 52 1.000000 2.632000 2.766000 600 63 1.000000 0.054000 0.054000 1.200000 0.071000 0.085000
1538223071162889918	1300 59 1.200000 0.611000 0.736000 1300 52 1.000000 2.620000 2.753000 600 63 1.000000 0.054000 0.054000 1.200000 0.074000 0.089000
1538223071719017918	1300 59 1.200000 0.603000 0.726000 1300 52 1.000000 2.632000 2.766000 600 63 1.000000 0.053000 0.053000 1.200000 0.078000 0.094000
1538223072278918626	1300 59 1.200000 0.603000 0.727000 1300 51 1.000000 2.660000 2.795000 600 63 1.000000 0.054000 0.054000 1.200000 0.072000 0.087000
1538223072835105376	1300 59 1.200000 0.577000 0.695000 1300 51 1.000000 2.647000 2.781000 600 63 1.000000 0.054000 0.054000 1.200000 0.088000 0.106000
1538223073399110085	1300 59 1.200000 0.595000 0.717000 1300 52 1.000000 2.631000 2.765000 600 63 1.000000 0.054000 0.054000 1.200000 0.086000 0.104000
1538223073963052460	1300 59 1.200000 0.606000 0.730000 1300 52 1.000000 2.600000 2.730000 600 62 1.000000 0.053000 0.053000 1.200000 0.079000 0.095000
1538223074514975876	1300 59 1.200000 0.600000 0.723000 1300 52 1.000000 2.575000 2.706000 600 63 1.000000 0.054000 0.054000 1.200000 0.094000 0.113000
1538223075066923335	1300 59 1.200000 0.598000 0.720000 1300 52 1.000000 2.623000 2.756000 600 63 1.000000 0.054000 0.054000 1.200000 0.085000 0.102000
1538223075614942585	1300 59 1.200000 0.608000 0.732000 1300 52 1.000000 2.622000 2.755000 600 63 1.000000 0.053000 0.053000 1.200000 0.084000 0.101000
1538223076167069585	1300 59 1.200000 0.605000 0.729000 1300 52 1.000000 2.632000 2.766000 600 63 1.000000 0.053000 0.053000 1.200000 0.069000 0.083000
1538223076723002710	1300 59 1.200000 0.594000 0.716000 1300 52 1.000000 2.627000 2.760000 600 63 1.000000 0.054000 0.054000 1.200000 0.087000 0.105000
1538223077279058460	1300 59 1.200000 0.606000 0.730000 1300 52 1.000000 2.646000 2.780000 600 63 1.000000 0.054000 0.054000 1.200000 0.076000 0.091000
1538223077835030752	1300 59 1.200000 0.606000 0.730000 1300 52 1.000000 2.641000 2.775000 600 63 1.000000 0.054000 0.054000 1.200000 0.068000 0.082000
1538223078391083793	1300 59 1.200000 0.603000 0.727000 1300 52 1.000000 2.609000 2.739000 600 63 1.000000 0.053000 0.053000 1.200000 0.086000 0.104000
1538223078943018794	1300 59 1.200000 0.618000 0.744000 1300 52 1.000000 2.636000 2.770000 600 63 1.000000 0.053000 0.053000 1.200000 0.069000 0.083000
1538223079502943585	1300 59 1.200000 0.623000 0.750000 1300 52 1.000000 2.661000 2.796000 600 63 1.000000 0.054000 0.054000 1.200000 0.057000 0.068000
1538223080054877252	1300 59 1.200000 0.618000 0.744000 1300 52 1.000000 2.661000 2.796000 600 63 1.000000 0.054000 0.054000 1.200000 0.052000 0.062000
1538223080606988044	1300 59 1.200000 0.613000 0.738000 1300 52 1.000000 2.633000 2.767000 600 63 1.000000 0.054000 0.054000 1.200000 0.073000 0.088000
1538223081158991835	1300 59 1.200000 0.609000 0.733000 1300 52 1.000000 2.658000 2.793000 600 63 1.000000 0.054000 0.054000 1.200000 0.068000 0.082000
1538223081715162377	1300 59 1.200000 0.603000 0.726000 1300 52 1.000000 2.655000 2.790000 600 63 1.000000 0.054000 0.054000 1.200000 0.069000 0.083000
1538223082271014461	1300 59 1.200000 0.619000 0.745000 1300 52 1.000000 2.642000 2.776000 600 63 1.000000 0.054000 0.054000 1.200000 0.064000 0.077000
1538223082823017044	1300 59 1.200000 0.609000 0.733000 1300 52 1.000000 2.637000 2.771000 600 63 1.000000 0.054000 0.054000 1.200000 0.086000 0.104000
1538223083383092544	1300 59 1.200000 0.618000 0.744000 1300 52 1.000000 2.653000 2.788000 600 63 1.000000 0.054000 0.054000 1.200000 0.062000 0.075000
1538223083942909169	1300 59 1.200000 0.607000 0.731000 1300 52 1.000000 2.650000 2.785000 600 63 1.000000 0.053000 0.053000 1.200000 0.084000 0.101000
1538223084494885378	1300 59 1.200000 0.589000 0.710000 1300 52 1.000000 2.678000 2.814000 600 63 1.000000 0.053000 0.053000 1.200000 0.074000 0.089000
1538223085055194003	1300 59 1.200000 0.602000 0.726000 1300 52 1.000000 2.654000 2.789000 600 63 1.000000 0.054000 0.054000 1.200000 0.070000 0.084000
1538223085614836336	1300 59 1.200000 0.597000 0.719000 1300 52 1.000000 2.655000 2.790000 600 63 1.000000 0.053000 0.053000 1.200000 0.067000 0.081000
1538223086171038753	1300 59 1.200000 0.602000 0.726000 1300 52 1.000000 2.666000 2.801000 600 63 1.000000 0.054000 0.054000 1.200000 0.078000 0.094000
1538223086730996711	1300 59 1.200000 0.594000 0.716000 1300 52 1.000000 2.674000 2.810000 600 63 1.000000 0.053000 0.053000 1.200000 0.071000 0.085000
1538223087295143586	1300 60 1.200000 0.603000 0.726000 1300 52 1.000000 2.663000 2.798000 600 63 1.000000 0.054000 0.054000 1.200000 0.066000 0.079000
1538223087843064211	1300 59 1.200000 0.619000 0.745000 1300 52 1.000000 2.574000 2.705000 600 63 1.000000 0.054000 0.054000 1.200000 0.083000 0.100000
1538223088383145795	1300 59 1.200000 0.616000 0.742000 1300 52 1.000000 2.626000 2.759000 600 63 1.000000 0.054000 0.054000 1.200000 0.070000 0.084000
1538223088939022003	1300 59 1.200000 0.606000 0.730000 1300 52 1.000000 2.574000 2.705000 600 63 1.000000 0.054000 0.054000 1.200000 0.090000 0.108000
1538223089483047003	1300 59 1.200000 0.614000 0.739000 1300 52 1.000000 2.636000 2.770000 600 63 1.000000 0.054000 0.054000 1.200000 0.073000 0.088000
1538223090039105003	1300 59 1.200000 0.622000 0.749000 1300 52 1.000000 2.646000 2.780000 600 63 1.000000 0.054000 0.054000 1.200000 0.059000 0.071000
1538223090595053920	1300 59 1.200000 0.609000 0.734000 1300 52 1.000000 2.649000 2.784000 600 63 1.000000 0.054000 0.054000 1.200000 0.079000 0.095000
1538223091151056337	1300 59 1.200000 0.605000 0.729000 1300 52 1.000000 2.621000 2.754000 600 63 1.000000 0.054000 0.054000 1.200000 0.089000 0.107000
1538223091698955337	1300 59 1.200000 0.603000 0.726000 1300 52 1.000000 2.639000 2.773000 600 63 1.000000 0.054000 0.054000 1.200000 0.078000 0.094000
1538223092259055878	1300 60 1.200000 0.610000 0.735000 1300 52 1.000000 2.643000 2.777000 600 63 1.000000 0.054000 0.054000 1.200000 0.075000 0.090000
1538223092823113795	1300 60 1.200000 0.610000 0.735000 1300 52 1.000000 2.637000 2.771000 600 63 1.000000 0.054000 0.054000 1.200000 0.073000 0.088000
1538223093383019420	1300 60 1.200000 0.607000 0.731000 1300 52 1.000000 2.632000 2.766000 600 63 1.000000 0.054000 0.054000 1.200000 0.086000 0.104000
1538223093946941462	1300 60 1.200000 0.619000 0.745000 1300 52 1.000000 2.663000 2.798000 600 63 1.000000 0.053000 0.053000 1.200000 0.057000 0.068000
1538223094506915712	1300 59 1.200000 0.592000 0.713000 1300 52 1.000000 2.661000 2.796000 600 63 1.000000 0.053000 0.053000 1.200000 0.082000 0.099000
1538223095046976962	1300 60 1.200000 0.600000 0.723000 1300 52 1.000000 2.660000 2.795000 600 63 1.000000 0.054000 0.054000 1.200000 0.072000 0.087000
1538223095602930879	1300 60 1.200000 0.620000 0.747000 1300 52 1.000000 2.668000 2.804000 600 63 1.000000 0.054000 0.054000 1.200000 0.055000 0.066000
1538223096158998754	1300 60 1.200000 0.604000 0.727000 1300 52 1.000000 2.675000 2.811000 600 63 1.000000 0.054000 0.054000 1.200000 0.065000 0.078000
1538223096719084879	1300 60 1.200000 0.599000 0.721000 1300 52 1.000000 2.679000 2.815000 600 63 1.000000 0.053000 0.053000 1.200000 0.076000 0.091000
1538223097291052629	1300 60 1.200000 0.604000 0.728000 1300 52 1.000000 2.650000 2.785000 600 63 1.000000 0.053000 0.053000 1.200000 0.068000 0.082000
1538223097851063629	1300 60 1.200000 0.613000 0.739000 1300 52 1.000000 2.661000 2.796000 600 63 1.000000 0.054000 0.054000 1.200000 0.068000 0.082000
1538223098407022296	1300 60 1.200000 0.616000 0.742000 1300 52 1.000000 2.651000 2.786000 600 63 1.000000 0.054000 0.054000 1.200000 0.064000 0.077000
1538223098966907629	1300 60 1.200000 0.628000 0.756000 1300 52 1.000000 2.626000 2.759000 600 63 1.000000 0.054000 0.054000 1.200000 0.059000 0.071000
1538223099523010254	1300 60 1.200000 0.619000 0.745000 1300 52 1.000000 2.647000 2.781000 600 63 1.000000 0.053000 0.053000 1.200000 0.069000 0.083000
1538223100078973963	1300 60 1.200000 0.607000 0.731000 1300 52 1.000000 2.654000 2.789000 600 63 1.000000 0.054000 0.054000 1.200000 0.070000 0.084000
1538223100643050296	1300 60 1.200000 0.609000 0.733000 1300 52 1.000000 2.656000 2.791000 600 63 1.000000 0.054000 0.054000 1.200000 0.066000 0.079000
1538223101202909796	1300 60 1.200000 0.625000 0.753000 1300 52 1.000000 2.655000 2.790000 600 63 1.000000 0.053000 0.053000 1.200000 0.064000 0.077000
1538223101754993505	1300 60 1.200000 0.611000 0.736000 1300 52 1.000000 2.669000 2.805000 600 63 1.000000 0.054000 0.054000 1.200000 0.054000 0.065000
1538223102314959546	1300 60 1.200000 0.619000 0.745000 1300 52 1.000000 2.671000 2.807000 600 63 1.000000 0.054000 0.054000 1.200000 0.062000 0.074000
1538223102866871338	1300 60 1.200000 0.622000 0.749000 1300 52 1.000000 2.671000 2.807000 600 63 1.000000 0.054000 0.054000 1.200000 0.054000 0.065000
1538223103431006630	1300 60 1.200000 0.611000 0.736000 1300 52 1.000000 2.679000 2.815000 600 63 1.000000 0.054000 0.054000 1.200000 0.062000 0.075000
1538223103982886880	1300 60 1.200000 0.616000 0.742000 1300 52 1.000000 2.650000 2.785000 600 63 1.000000 0.054000 0.054000 1.200000 0.069000 0.083000
1538223104543072713	1300 60 1.200000 0.619000 0.745000 1300 52 1.000000 2.657000 2.792000 600 63 1.000000 0.054000 0.054000 1.200000 0.060000 0.072000
1538223105099064255	1300 59 1.200000 0.619000 0.745000 1300 52 1.000000 2.630000 2.764000 600 64 1.000000 0.053000 0.053000 1.200000 0.072000 0.087000
1538223105663206213	1300 59 1.200000 0.598000 0.721000 1300 52 1.000000 2.628000 2.762000 600 63 1.000000 0.053000 0.053000 1.200000 0.092000 0.111000
1538223106219098213	1300 60 1.200000 0.607000 0.731000 1300 52 1.000000 2.601000 2.733000 600 63 1.000000 0.054000 0.054000 1.200000 0.084000 0.101000
1538223106782938922	1300 60 1.200000 0.604000 0.728000 1300 52 1.000000 2.620000 2.753000 600 63 1.000000 0.054000 0.054000 1.200000 0.088000 0.106000
1538223107327089505	1300 60 1.200000 0.608000 0.732000 1300 52 1.000000 2.642000 2.776000 600 63 1.000000 0.053000 0.053000 1.200000 0.079000 0.095000
1538223107883131130	1300 60 1.200000 0.617000 0.743000 1300 52 1.000000 2.634000 2.768000 600 63 1.000000 0.054000 0.054000 1.200000 0.068000 0.082000
1538223108427025422	1300 60 1.200000 0.618000 0.745000 1300 52 1.000000 2.630000 2.764000 600 63 1.000000 0.054000 0.054000 1.200000 0.071000 0.085000
1538223108983088089	1300 60 1.200000 0.623000 0.750000 1300 52 1.000000 2.632000 2.766000 600 63 1.000000 0.054000 0.054000 1.200000 0.071000 0.085000
1538223109531118422	1300 59 1.200000 0.608000 0.733000 1300 52 1.000000 2.638000 2.772000 600 63 1.000000 0.054000 0.054000 1.200000 0.082000 0.099000
1538223110091029006	1300 59 1.200000 0.619000 0.746000 1300 52 1.000000 2.610000 2.743000 600 63 1.000000 0.054000 0.054000 1.200000 0.079000 0.095000
1538223110647039506	1300 59 1.200000 0.616000 0.742000 1300 52 1.000000 2.479000 2.602000 600 63 1.000000 0.054000 0.054000 1.200000 0.114000 0.138000
1538223111203082922	1300 59 1.200000 0.626000 0.754000 1300 52 1.000000 2.620000 2.753000 600 63 1.000000 0.054000 0.054000 1.200000 0.066000 0.079000
1538223111759013839	1300 60 1.200000 0.621000 0.748000 1300 52 1.000000 2.638000 2.772000 600 63 1.000000 0.054000 0.054000 1.200000 0.068000 0.082000
1538223112310936881	1300 60 1.200000 0.621000 0.748000 1300 52 1.000000 2.640000 2.774000 600 63 1.000000 0.054000 0.054000 1.200000 0.068000 0.082000
1538223112870922131	1300 60 1.200000 0.623000 0.750000 1300 52 1.000000 2.643000 2.777000 600 63 1.000000 0.054000 0.054000 1.200000 0.060000 0.072000
1538223113434978923	1300 60 1.200000 0.629000 0.757000 1300 52 1.000000 2.646000 2.780000 600 63 1.000000 0.054000 0.054000 1.200000 0.054000 0.065000
1538223113990948756	1300 60 1.200000 0.631000 0.760000 1300 52 1.000000 2.642000 2.776000 600 63 1.000000 0.054000 0.054000 1.200000 0.059000 0.071000
1538223114546939881	1300 60 1.200000 0.606000 0.730000 1300 52 1.000000 2.630000 2.764000 600 63 1.000000 0.054000 0.054000 1.200000 0.075000 0.090000
1538223115107027214	1300 60 1.200000 0.619000 0.745000 1300 52 1.000000 2.628000 2.762000 600 63 1.000000 0.054000 0.054000 1.200000 0.074000 0.089000
1538223115671081965	1300 60 1.200000 0.623000 0.750000 1300 52 1.000000 2.635000 2.769000 600 63 1.000000 0.054000 0.054000 1.200000 0.062000 0.075000
1538223116215029048	1300 60 1.200000 0.622000 0.749000 1300 52 1.000000 2.656000 2.791000 600 64 1.000000 0.054000 0.054000 1.200000 0.062000 0.074000
1538223116770990465	1300 60 1.200000 0.613000 0.738000 1300 52 1.000000 2.651000 2.786000 600 63 1.000000 0.054000 0.054000 1.200000 0.071000 0.085000
1538223117342918381	1300 60 1.200000 0.616000 0.742000 1300 52 1.000000 2.651000 2.786000 600 63 1.000000 0.054000 0.054000 1.200000 0.062000 0.074000
1538223117899069006	1300 60 1.200000 0.623000 0.750000 1300 52 1.000000 2.655000 2.790000 600 64 1.000000 0.053000 0.053000 1.200000 0.053000 0.064000
1538223118458971215	1300 60 1.200000 0.626000 0.754000 1300 52 1.000000 2.659000 2.794000 600 63 1.000000 0.054000 0.054000 1.200000 0.059000 0.071000
1538223119006903923	1300 60 1.200000 0.613000 0.738000 1300 52 1.000000 2.650000 2.785000 600 64 1.000000 0.054000 0.054000 1.200000 0.072000 0.087000
1538223119546917840	1300 60 1.200000 0.618000 0.744000 1300 52 1.000000 2.661000 2.796000 600 64 1.000000 0.054000 0.054000 1.200000 0.057000 0.068000
1538223120106880298	1300 60 1.200000 0.631000 0.760000 1300 52 1.000000 2.673000 2.809000 600 64 1.000000 0.054000 0.054000 1.200000 0.046000 0.055000
1538223120666921632	1300 60 1.200000 0.603000 0.727000 1300 52 1.000000 2.669000 2.805000 600 63 1.000000 0.054000 0.054000 1.200000 0.079000 0.095000
1538223121227067924	1300 60 1.200000 0.610000 0.735000 1300 52 1.000000 2.667000 2.803000 600 64 1.000000 0.053000 0.053000 1.200000 0.063000 0.076000
1538223121774973715	1300 60 1.200000 0.625000 0.753000 1300 52 1.000000 2.637000 2.771000 600 63 1.000000 0.054000 0.054000 1.200000 0.064000 0.077000
1538223122339018340	1300 60 1.200000 0.621000 0.748000 1300 52 1.000000 2.655000 2.790000 600 64 1.000000 0.053000 0.053000 1.200000 0.057000 0.068000
1538223122902900257	1300 60 1.200000 0.617000 0.743000 1300 52 1.000000 2.670000 2.806000 600 64 1.000000 0.054000 0.054000 1.200000 0.058000 0.070000
1538223123462951882	1300 60 1.200000 0.607000 0.731000 1300 52 1.000000 2.661000 2.796000 600 63 1.000000 0.054000 0.054000 1.200000 0.072000 0.087000
1538223124023025549	1300 60 1.200000 0.603000 0.727000 1300 52 1.000000 2.668000 2.804000 600 64 1.000000 0.054000 0.054000 1.200000 0.070000 0.084000
1538223124574968299	1300 60 1.200000 0.616000 0.742000 1300 52 1.000000 2.663000 2.798000 600 64 1.000000 0.054000 0.054000 1.200000 0.058000 0.070000
1538223125138999632	1300 60 1.200000 0.617000 0.743000 1300 52 1.000000 2.682000 2.818000 600 63 1.000000 0.054000 0.054000 1.200000 0.056000 0.067000
1538223125698980507	1300 59 1.200000 0.613000 0.739000 1300 52 1.000000 2.658000 2.793000 600 64 1.000000 0.054000 0.054000 1.200000 0.070000 0.084000
1538223126263029299	1300 60 1.200000 0.616000 0.742000 1300 52 1.000000 2.647000 2.781000 600 64 1.000000 0.054000 0.054000 1.200000 0.069000 0.083000
1538223126826846174	1300 60 1.200000 0.604000 0.727000 1300 52 1.000000 2.659000 2.794000 600 64 1.000000 0.054000 0.054000 1.200000 0.068000 0.082000
1538223127386946508	1300 60 1.200000 0.613000 0.738000 1300 52 1.000000 2.661000 2.796000 600 64 1.000000 0.053000 0.053000 1.200000 0.063000 0.076000
1538223127942941299	1300 60 1.200000 0.613000 0.738000 1300 52 1.000000 2.663000 2.798000 600 64 1.000000 0.053000 0.053000 1.200000 0.057000 0.068000
1538223128506990674	1300 60 1.200000 0.622000 0.749000 1300 52 1.000000 2.664000 2.799000 600 63 1.000000 0.054000 0.054000 1.200000 0.052000 0.062000
1538223129066976883	1300 60 1.200000 0.628000 0.756000 1300 52 1.000000 2.650000 2.785000 600 63 1.000000 0.054000 0.054000 1.200000 0.045000 0.054000
1538223129623015300	1300 59 1.200000 0.627000 0.755000 1300 52 1.000000 2.662000 2.797000 600 63 1.000000 0.054000 0.054000 1.200000 0.051000 0.061000
1538223130178858758	1300 60 1.200000 0.616000 0.742000 1300 52 1.000000 2.653000 2.788000 600 64 1.000000 0.054000 0.054000 1.200000 0.059000 0.071000
1538223130742900133	1300 60 1.200000 0.612000 0.737000 1300 52 1.000000 2.669000 2.805000 600 63 1.000000 0.054000 0.054000 1.200000 0.064000 0.077000
1538223131306979800	1300 60 1.200000 0.618000 0.744000 1300 52 1.000000 2.674000 2.810000 600 64 1.000000 0.054000 0.054000 1.200000 0.061000 0.073000
1538223131866954675	1300 60 1.200000 0.628000 0.757000 1300 52 1.000000 2.675000 2.811000 600 64 1.000000 0.054000 0.054000 1.200000 0.047000 0.056000
1538223132426935883	1300 60 1.200000 0.626000 0.754000 1300 52 1.000000 2.678000 2.814000 600 64 1.000000 0.054000 0.054000 1.200000 0.047000 0.056000
1538223132990946758	1300 60 1.200000 0.627000 0.755000 1300 52 1.000000 2.669000 2.805000 600 64 1.000000 0.054000 0.054000 1.200000 0.045000 0.054000
1538223133551037883	1300 60 1.200000 0.625000 0.753000 1300 52 1.000000 2.655000 2.790000 600 63 1.000000 0.053000 0.053000 1.200000 0.052000 0.062000
1538223134114990050	1300 60 1.200000 0.625000 0.753000 1300 52 1.000000 2.681000 2.817000 600 64 1.000000 0.054000 0.054000 1.200000 0.052000 0.062000
1538223134678890467	1300 60 1.200000 0.623000 0.750000 1300 52 1.000000 2.675000 2.811000 600 64 1.000000 0.053000 0.053000 1.200000 0.045000 0.054000
1538223135238950467	1300 60 1.200000 0.619000 0.745000 1300 52 1.000000 2.681000 2.817000 600 64 1.000000 0.054000 0.054000 1.200000 0.045000 0.054000
1538223135794869300	1300 60 1.200000 0.626000 0.754000 1300 52 1.000000 2.681000 2.817000 600 64 1.000000 0.053000 0.053000 1.200000 0.046000 0.055000
1538223136355054050	1300 60 1.200000 0.604000 0.727000 1300 52 1.000000 2.681000 2.817000 600 63 1.000000 0.054000 0.054000 1.200000 0.058000 0.070000
1538223136915153092	1300 60 1.200000 0.623000 0.750000 1300 52 1.000000 2.650000 2.785000 600 63 1.000000 0.054000 0.054000 1.200000 0.067000 0.081000
1538223137463016925	1300 60 1.200000 0.617000 0.743000 1300 52 1.000000 2.659000 2.794000 600 64 1.000000 0.054000 0.054000 1.200000 0.058000 0.070000
1538223138027086217	1300 60 1.200000 0.615000 0.741000 1300 52 1.000000 2.637000 2.771000 600 64 1.000000 0.054000 0.054000 1.200000 0.066000 0.079000
1538223138582943759	1300 60 1.200000 0.622000 0.749000 1300 52 1.000000 2.669000 2.805000 600 64 1.000000 0.054000 0.054000 1.200000 0.063000 0.076000
1538223139146930842	1300 60 1.200000 0.618000 0.744000 1300 52 1.000000 2.664000 2.799000 600 63 1.000000 0.053000 0.053000 1.200000 0.051000 0.061000
1538223139707184967	1300 60 1.200000 0.619000 0.745000 1300 52 1.000000 2.648000 2.783000 600 63 1.000000 0.054000 0.054000 1.200000 0.071000 0.085000
1538223140263214592	1300 60 1.200000 0.619000 0.745000 1300 52 1.000000 2.632000 2.766000 600 64 1.000000 0.053000 0.053000 1.200000 0.070000 0.084000
1538223140827039218	1300 60 1.200000 0.603000 0.726000 1300 52 1.000000 2.637000 2.771000 600 63 1.000000 0.054000 0.054000 1.200000 0.075000 0.090000
1538223141387058426	1300 60 1.200000 0.621000 0.748000 1300 52 1.000000 2.581000 2.712000 600 64 1.000000 0.054000 0.054000 1.200000 0.082000 0.099000
1538223141946967468	1300 60 1.200000 0.616000 0.742000 1300 52 1.000000 2.655000 2.790000 600 63 1.000000 0.053000 0.053000 1.200000 0.073000 0.088000
1538223142507024968	1300 60 1.200000 0.618000 0.744000 1300 52 1.000000 2.623000 2.756000 600 63 1.000000 0.054000 0.054000 1.200000 0.070000 0.084000
1538223143066941926	1300 60 1.200000 0.625000 0.753000 1300 52 1.000000 2.645000 2.779000 600 63 1.000000 0.054000 0.054000 1.200000 0.058000 0.070000
1538223143627201426	1300 60 1.200000 0.619000 0.745000 1300 52 1.000000 2.649000 2.784000 600 64 1.000000 0.054000 0.054000 1.200000 0.059000 0.071000
1538223144178877301	1300 60 1.200000 0.624000 0.751000 1300 52 1.000000 2.658000 2.793000 600 64 1.000000 0.054000 0.054000 1.200000 0.060000 0.072000
1538223144738829385	1300 60 1.200000 0.622000 0.750000 1300 52 1.000000 2.670000 2.806000 600 64 1.000000 0.054000 0.054000 1.200000 0.063000 0.076000
1538223145298868343	1300 60 1.200000 0.626000 0.754000 1300 52 1.000000 2.669000 2.805000 600 64 1.000000 0.053000 0.053000 1.200000 0.043000 0.051000
1538223145854997551	1300 60 1.200000 0.630000 0.759000 1300 52 1.000000 2.652000 2.787000 600 64 1.000000 0.054000 0.054000 1.200000 0.048000 0.057000
1538223146410989927	1300 60 1.200000 0.632000 0.761000 1300 52 1.000000 2.654000 2.789000 600 63 1.000000 0.053000 0.053000 1.200000 0.050000 0.060000
1538223146974955343	1300 60 1.200000 0.626000 0.754000 1300 52 1.000000 2.637000 2.771000 600 64 1.000000 0.054000 0.054000 1.200000 0.061000 0.073000
1538223147530841177	1300 60 1.200000 0.618000 0.744000 1300 52 1.000000 2.658000 2.793000 600 64 1.000000 0.054000 0.054000 1.200000 0.060000 0.072000
1538223148090948427	1300 60 1.200000 0.627000 0.755000 1300 52 1.000000 2.655000 2.790000 600 64 1.000000 0.054000 0.054000 1.200000 0.051000 0.061000
1538223148650915385	1300 60 1.200000 0.630000 0.759000 1300 52 1.000000 2.661000 2.796000 600 64 1.000000 0.054000 0.054000 1.200000 0.044000 0.053000
1538223149202868344	1300 60 1.200000 0.631000 0.760000 1300 52 1.000000 2.665000 2.800000 600 64 1.000000 0.054000 0.054000 1.200000 0.043000 0.051000
1538223149754854135	1300 60 1.200000 0.629000 0.757000 1300 52 1.000000 2.660000 2.795000 600 64 1.000000 0.054000 0.054000 1.200000 0.045000 0.054000
1538223150310997302	1300 60 1.200000 0.630000 0.759000 1300 52 1.000000 2.664000 2.799000 600 64 1.000000 0.054000 0.054000 1.200000 0.048000 0.057000
1538223150875079969	1300 60 1.200000 0.627000 0.755000 1300 52 1.000000 2.644000 2.778000 600 64 1.000000 0.054000 0.054000 1.200000 0.058000 0.070000
1538223151426977510	1300 60 1.200000 0.605000 0.729000 1300 52 1.000000 2.657000 2.792000 600 63 1.000000 0.054000 0.054000 1.200000 0.071000 0.085000
1538223151986943802	1300 60 1.200000 0.611000 0.736000 1300 52 1.000000 2.657000 2.792000 600 64 1.000000 0.053000 0.053000 1.200000 0.058000 0.070000
1538223152546922761	1300 60 1.200000 0.619000 0.745000 1300 52 1.000000 2.669000 2.805000 600 64 1.000000 0.053000 0.053000 1.200000 0.051000 0.061000
1538223153102877802	1300 60 1.200000 0.631000 0.760000 1300 52 1.000000 2.674000 2.810000 600 64 1.000000 0.054000 0.054000 1.200000 0.044000 0.053000
1538223153658922761	1300 60 1.200000 0.618000 0.744000 1300 52 1.000000 2.662000 2.797000 600 64 1.000000 0.054000 0.054000 1.200000 0.062000 0.074000
1538223154210828761	1300 60 1.200000 0.631000 0.760000 1300 52 1.000000 2.670000 2.806000 600 64 1.000000 0.054000 0.054000 1.200000 0.044000 0.053000
1538223154771018511	1300 60 1.200000 0.619000 0.745000 1300 52 1.000000 2.675000 2.811000 600 64 1.000000 0.054000 0.054000 1.200000 0.053000 0.064000
1538223155334884886	1300 60 1.200000 0.627000 0.755000 1300 52 1.000000 2.659000 2.794000 600 64 1.000000 0.054000 0.054000 1.200000 0.049000 0.059000
1538223155894862386	1300 60 1.200000 0.618000 0.744000 1300 52 1.000000 2.667000 2.803000 600 64 1.000000 0.054000 0.054000 1.200000 0.055000 0.066000
1538223156455037803	1300 60 1.200000 0.627000 0.755000 1300 52 1.000000 2.671000 2.807000 600 64 1.000000 0.054000 0.054000 1.200000 0.043000 0.051000
1538223157015020136	1300 60 1.200000 0.627000 0.755000 1300 52 1.000000 2.659000 2.794000 600 64 1.000000 0.053000 0.053000 1.200000 0.053000 0.064000
1538223157570920845	1300 60 1.200000 0.612000 0.737000 1300 52 1.000000 2.670000 2.806000 600 64 1.000000 0.054000 0.054000 1.200000 0.061000 0.073000
1538223158130870636	1300 60 1.200000 0.617000 0.743000 1300 52 1.000000 2.674000 2.810000 600 64 1.000000 0.054000 0.054000 1.200000 0.060000 0.072000
1538223158686868386	1300 60 1.200000 0.613000 0.738000 1300 52 1.000000 2.679000 2.815000 600 64 1.000000 0.054000 0.054000 1.200000 0.060000 0.072000
1538223159243068720	1300 60 1.200000 0.623000 0.750000 1300 52 1.000000 2.684000 2.820000 600 64 1.000000 0.054000 0.054000 1.200000 0.045000 0.054000
1538223159799005011	1300 60 1.200000 0.629000 0.757000 1300 52 1.000000 2.670000 2.806000 600 64 1.000000 0.053000 0.053000 1.200000 0.046000 0.055000
1538223160358837928	1300 60 1.200000 0.630000 0.759000 1300 52 1.000000 2.653000 2.788000 600 64 1.000000 0.054000 0.054000 1.200000 0.046000 0.055000
1538223160919056845	1300 60 1.200000 0.629000 0.757000 1300 52 1.000000 2.672000 2.808000 600 64 1.000000 0.054000 0.054000 1.200000 0.044000 0.053000
1538223161482930262	1300 60 1.200000 0.634000 0.763000 1300 52 1.000000 2.649000 2.784000 600 64 1.000000 0.054000 0.054000 1.200000 0.054000 0.065000
1538223162026944345	1300 60 1.200000 0.630000 0.759000 1300 52 1.000000 2.643000 2.777000 600 64 1.000000 0.054000 0.054000 1.200000 0.052000 0.062000
1538223162590909720	1300 60 1.200000 0.631000 0.760000 1300 52 1.000000 2.656000 2.791000 600 64 1.000000 0.054000 0.054000 1.200000 0.054000 0.065000
1538223163151027137	1300 60 1.200000 0.633000 0.762000 1300 52 1.000000 2.665000 2.800000 600 64 1.000000 0.054000 0.054000 1.200000 0.043000 0.051000
1538223163702993137	1300 60 1.200000 0.628000 0.756000 1300 52 1.000000 2.665000 2.800000 600 64 1.000000 0.053000 0.053000 1.200000 0.049000 0.059000
1538223164262953512	1300 60 1.200000 0.631000 0.760000 1300 52 1.000000 2.660000 2.795000 600 64 1.000000 0.054000 0.054000 1.200000 0.048000 0.057000
1538223164827009595	1300 60 1.200000 0.630000 0.759000 1300 52 1.000000 2.609000 2.742000 600 64 1.000000 0.054000 0.054000 1.200000 0.064000 0.077000
1538223165387079970	1300 60 1.200000 0.631000 0.760000 1300 52 1.000000 2.671000 2.807000 600 64 1.000000 0.054000 0.054000 1.200000 0.047000 0.056000
1538223165943031012	1300 60 1.200000 0.633000 0.762000 1300 52 1.000000 2.632000 2.766000 600 64 1.000000 0.054000 0.054000 1.200000 0.057000 0.068000
1538223166503012221	1300 60 1.200000 0.632000 0.761000 1300 52 1.000000 2.639000 2.773000 600 64 1.000000 0.054000 0.054000 1.200000 0.053000 0.064000
1538223167062945721	1300 60 1.200000 0.620000 0.747000 1300 52 1.000000 2.639000 2.773000 600 63 1.000000 0.054000 0.054000 1.200000 0.072000 0.087000
1538223167626994012	1300 60 1.200000 0.617000 0.743000 1300 52 1.000000 2.637000 2.771000 600 63 1.000000 0.054000 0.054000 1.200000 0.071000 0.085000
1538223168182965846	1300 60 1.200000 0.612000 0.737000 1300 52 1.000000 2.621000 2.752000 600 64 1.000000 0.054000 0.054000 1.200000 0.074000 0.089000
1538223168742963513	1300 60 1.200000 0.619000 0.745000 1300 52 1.000000 2.613000 2.746000 600 64 1.000000 0.054000 0.054000 1.200000 0.075000 0.090000
1538223169307052554	1300 60 1.200000 0.630000 0.759000 1300 52 1.000000 2.630000 2.761000 600 63 1.000000 0.054000 0.054000 1.200000 0.063000 0.076000
1538223169866929013	1300 60 1.200000 0.624000 0.751000 1300 52 1.000000 2.635000 2.766000 600 64 1.000000 0.054000 0.054000 1.200000 0.071000 0.085000
1538223170410960471	1300 60 1.200000 0.624000 0.751000 1300 52 1.000000 2.651000 2.786000 600 64 1.000000 0.054000 0.054000 1.200000 0.051000 0.061000
1538223170974978804	1300 60 1.200000 0.625000 0.753000 1300 52 1.000000 2.595000 2.724000 600 64 1.000000 0.054000 0.054000 1.200000 0.069000 0.083000
1538223171534964305	1300 60 1.200000 0.630000 0.759000 1300 52 1.000000 2.661000 2.796000 600 64 1.000000 0.053000 0.053000 1.200000 0.054000 0.065000
1538223172099158680	1300 60 1.200000 0.627000 0.755000 1300 52 1.000000 2.659000 2.794000 600 64 1.000000 0.053000 0.053000 1.200000 0.054000 0.065000
1538223172658936555	1300 60 1.200000 0.608000 0.732000 1300 52 1.000000 2.655000 2.790000 600 64 1.000000 0.053000 0.053000 1.200000 0.067000 0.081000
1538223173218908430	1300 60 1.200000 0.626000 0.754000 1300 52 1.000000 2.656000 2.791000 600 64 1.000000 0.054000 0.054000 1.200000 0.050000 0.060000
1538223173786882596	1300 60 1.200000 0.619000 0.745000 1300 52 1.000000 2.669000 2.805000 600 64 1.000000 0.054000 0.054000 1.200000 0.056000 0.067000
1538223174347013097	1300 60 1.200000 0.622000 0.749000 1300 52 1.000000 2.664000 2.799000 600 64 1.000000 0.054000 0.054000 1.200000 0.055000 0.066000
1538223174902906097	1300 60 1.200000 0.630000 0.759000 1300 52 1.000000 2.653000 2.788000 600 64 1.000000 0.053000 0.053000 1.200000 0.054000 0.065000
1538223175466944180	1300 60 1.200000 0.631000 0.760000 1300 52 1.000000 2.669000 2.805000 600 64 1.000000 0.053000 0.053000 1.200000 0.046000 0.055000
1538223176026864513	1300 60 1.200000 0.630000 0.759000 1300 52 1.000000 2.660000 2.795000 600 64 1.000000 0.054000 0.054000 1.200000 0.048000 0.057000
1538223176586893680	1300 60 1.200000 0.632000 0.761000 1300 52 1.000000 2.661000 2.796000 600 64 1.000000 0.054000 0.054000 1.200000 0.041000 0.049000
1538223177130957847	1300 60 1.200000 0.623000 0.750000 1300 52 1.000000 2.665000 2.800000 600 64 1.000000 0.054000 0.054000 1.200000 0.053000 0.063000
1538223177694963347	1300 60 1.200000 0.632000 0.761000 1300 52 1.000000 2.625000 2.758000 600 63 1.000000 0.054000 0.054000 1.200000 0.045000 0.054000
1538223178242943430	1300 60 1.200000 0.632000 0.761000 1300 52 1.000000 2.653000 2.788000 600 63 1.000000 0.054000 0.054000 1.200000 0.045000 0.054000
1538223178798864805	1300 60 1.200000 0.630000 0.759000 1300 52 1.000000 2.660000 2.795000 600 64 1.000000 0.054000 0.054000 1.200000 0.046000 0.055000
1538223179362910764	1300 60 1.200000 0.627000 0.755000 1300 52 1.000000 2.673000 2.809000 600 64 1.000000 0.054000 0.054000 1.200000 0.047000 0.056000
1538223179915046972	1300 60 1.200000 0.630000 0.759000 1300 52 1.000000 2.664000 2.799000 600 64 1.000000 0.054000 0.054000 1.200000 0.049000 0.059000
1538223180474888514	1300 60 1.200000 0.627000 0.755000 1300 52 1.000000 2.673000 2.809000 600 64 1.000000 0.054000 0.054000 1.200000 0.055000 0.066000
1538223181038933556	1300 60 1.200000 0.634000 0.763000 1300 52 1.000000 2.682000 2.818000 600 64 1.000000 0.054000 0.054000 1.200000 0.041000 0.049000
1538223181595040222	1300 60 1.200000 0.635000 0.765000 1300 52 1.000000 2.605000 2.737000 600 62 1.000000 0.054000 0.054000 1.200000 0.057000 0.068000
1538223182155032181	1300 60 1.200000 0.636000 0.766000 1300 52 1.000000 2.620000 2.753000 600 63 1.000000 0.054000 0.054000 1.200000 0.061000 0.073000
1538223182715035181	1300 60 1.200000 0.633000 0.762000 1300 52 1.000000 2.633000 2.767000 600 64 1.000000 0.054000 0.054000 1.200000 0.056000 0.067000
1538223183270970431	1300 60 1.200000 0.632000 0.761000 1300 52 1.000000 2.671000 2.807000 600 64 1.000000 0.054000 0.054000 1.200000 0.047000 0.056000
1538223183822930848	1300 60 1.200000 0.635000 0.765000 1300 52 1.000000 2.657000 2.792000 600 64 1.000000 0.054000 0.054000 1.200000 0.047000 0.056000
1538223184378957473	1300 60 1.200000 0.630000 0.759000 1300 52 1.000000 2.650000 2.785000 600 63 1.000000 0.054000 0.054000 1.200000 0.047000 0.056000
1538223184930949973	1300 60 1.200000 0.634000 0.763000 1300 52 1.000000 2.647000 2.779000 600 64 1.000000 0.054000 0.054000 1.200000 0.049000 0.059000
1538223185482994348	1300 60 1.200000 0.631000 0.760000 1300 52 1.000000 2.652000 2.784000 600 63 1.000000 0.054000 0.054000 1.200000 0.050000 0.060000
1538223186043087598	1300 60 1.200000 0.635000 0.765000 1300 52 1.000000 2.618000 2.748000 600 63 1.000000 0.053000 0.053000 1.200000 0.058000 0.070000
1538223186603019515	1300 60 1.200000 0.634000 0.763000 1300 52 1.000000 2.646000 2.780000 600 63 1.000000 0.054000 0.054000 1.200000 0.053000 0.064000
1538223187150960348	1300 60 1.200000 0.617000 0.743000 1300 52 1.000000 2.679000 2.815000 600 64 1.000000 0.053000 0.053000 1.200000 0.058000 0.070000
1538223187719017348	1300 60 1.200000 0.627000 0.755000 1300 52 1.000000 2.679000 2.815000 600 64 1.000000 0.054000 0.054000 1.200000 0.049000 0.059000
1538223188275044015	1300 60 1.200000 0.633000 0.762000 1300 52 1.000000 2.653000 2.785000 600 64 1.000000 0.054000 0.054000 1.200000 0.053000 0.064000
1538223188839004973	1300 60 1.200000 0.629000 0.757000 1300 52 1.000000 2.650000 2.782000 600 64 1.000000 0.054000 0.054000 1.200000 0.050000 0.060000
1538223189402997723	1300 59 1.200000 0.616000 0.742000 1300 52 1.000000 2.663000 2.796000 600 63 1.000000 0.054000 0.054000 1.200000 0.054000 0.065000
1538223189908923098	1300 57 1.200000 0.631000 0.760000 1300 52 1.000000 2.607000 2.737000 600 61 1.000000 0.054000 0.054000 1.200000 0.060000 0.072000
1538223190414564057	1300 51 1.200000 0.634000 0.763000 1300 50 1.000000 0.993000 1.040000 600 54 1.000000 0.054000 0.054000 1.200000 0.043000 0.051000
1538223190919868515	1300 50 1.200000 0.495000 0.597000 1300 48 1.000000 0.204000 0.214000 600 51 1.000000 0.053000 0.053000 1.200000 0.034000 0.041000
1538223191425208390	1300 47 1.200000 0.495000 0.597000 1300 47 1.000000 0.197000 0.206000 600 50 1.000000 0.053000 0.053000 1.200000 0.029000 0.035000
1538223191930408807	1300 46 1.200000 0.356000 0.430000 1300 45 1.000000 0.173000 0.181000 600 49 1.000000 0.053000 0.053000 1.200000 0.026000 0.031000
1538223192435663057	1300 45 1.200000 0.352000 0.425000 1300 44 1.000000 0.197000 0.206000 600 48 1.000000 0.053000 0.053000 1.200000 0.030000 0.036000
1538223192941029265	1300 45 1.200000 0.354000 0.427000 1300 44 1.000000 0.166000 0.174000 600 47 1.000000 0.053000 0.053000 1.200000 0.027000 0.032000
1538223193446330099	1300 44 1.200000 0.353000 0.426000 1300 43 1.000000 0.171000 0.179000 600 46 1.000000 0.052000 0.052000 1.200000 0.028000 0.033000
1538223193951552099	1300 44 1.200000 0.354000 0.427000 1300 43 1.000000 0.163000 0.171000 600 46 1.000000 0.052000 0.052000 1.200000 0.025000 0.030000
1538223194456818766	1300 43 1.200000 0.354000 0.427000 1300 42 1.000000 0.159000 0.166000 600 45 1.000000 0.052000 0.052000 1.200000 0.026000 0.031000
1538223194962159557	1300 43 1.200000 0.353000 0.426000 1300 42 1.000000 0.183000 0.192000 600 45 1.000000 0.052000 0.052000 1.200000 0.026000 0.031000
1538223195467411807	1300 42 1.200000 0.353000 0.426000 1300 42 1.000000 0.171000 0.179000 600 45 1.000000 0.052000 0.052000 1.200000 0.030000 0.036000
1538223195972638849	1300 42 1.200000 0.353000 0.426000 1300 41 1.000000 0.185000 0.194000 600 44 1.000000 0.052000 0.052000 1.200000 0.027000 0.032000
1538223196477856016	1300 42 1.200000 0.351000 0.424000 1300 41 1.000000 0.166000 0.174000 600 44 1.000000 0.052000 0.052000 1.200000 0.028000 0.033000
1538223196983101266	1300 41 1.200000 0.352000 0.425000 1300 41 1.000000 0.175000 0.183000 600 44 1.000000 0.052000 0.052000 1.200000 0.027000 0.032000
1538223197488371766	1300 41 1.200000 0.350000 0.422000 1300 40 1.000000 0.181000 0.190000 600 44 1.000000 0.052000 0.052000 1.200000 0.029000 0.035000
1538223197993542474	1300 40 1.200000 0.217000 0.264000 1300 40 1.000000 0.157000 0.165000 600 43 1.000000 0.052000 0.052000 1.200000 0.024000 0.028000
1538223198498859974	1300 40 1.200000 0.214000 0.261000 1300 39 1.000000 0.158000 0.166000 600 43 1.000000 0.051000 0.051000 1.200000 0.023000 0.027000
1538223199004083599	1300 40 1.200000 0.213000 0.259000 1300 39 1.000000 0.154000 0.161000 600 43 1.000000 0.052000 0.052000 1.200000 0.023000 0.027000
1538223199509335725	1300 39 1.200000 0.213000 0.259000 1300 39 1.000000 0.150000 0.157000 600 42 1.000000 0.051000 0.051000 1.200000 0.023000 0.027000
1538223200014411641	1300 39 1.200000 0.213000 0.259000 1300 39 1.000000 0.153000 0.160000 600 42 1.000000 0.051000 0.051000 1.200000 0.023000 0.027000
1538223200519549266	1300 39 1.200000 0.213000 0.259000 1300 38 1.000000 0.156000 0.163000 600 42 1.000000 0.051000 0.051000 1.200000 0.025000 0.030000
1538223201026130100	1300 39 1.200000 0.211000 0.257000 1300 38 1.000000 0.174000 0.182000 600 43 1.000000 0.051000 0.051000 1.200000 0.026000 0.031000
1538223201532429725	1300 38 1.200000 0.081000 0.099000 1300 38 1.000000 0.277000 0.290000 600 42 1.000000 0.051000 0.051000 1.200000 0.036000 0.043000
1538223202038397100	1300 38 1.200000 0.070000 0.085000 1300 37 1.000000 0.173000 0.181000 600 41 1.000000 0.051000 0.051000 1.200000 0.023000 0.027000
