#Timestamp	CPU(0) Frequency(MHz)	CPU(0) Temperature(C)	A7 Voltage(V)	A7 Current(A)	A7 Power(W)	CPU(4) Frequency(MHz)	CPU(4) Temperature(C)	A15 Voltage(V)	A15 Current(A)	A15 Power(W)	GPU Frequency(MHz)	GPU Temperature(C)	GPU Voltage(V)	GPU Current(A)	GPU Power(W)	RAM Voltage(V)	RAM Current(A)	RAM Power(W)
1518110138927455308	200 42 0.900000 0.015000 0.013000 1300 39 1.000000 0.769000 0.801000 600 44 1.000000 0.052000 0.052000 1.200000 0.045000 0.054000
1518110139438763933	200 42 0.900000 0.017000 0.015000 1300 40 1.000000 0.707000 0.735000 600 44 1.000000 0.053000 0.053000 1.200000 0.033000 0.039000
1518110139951995599	200 42 0.900000 0.017000 0.015000 1300 40 1.000000 0.709000 0.738000 600 45 1.000000 0.053000 0.053000 1.200000 0.033000 0.039000
1518110140464044808	200 42 0.900000 0.017000 0.015000 1300 40 1.000000 0.709000 0.738000 600 46 1.000000 0.053000 0.053000 1.200000 0.034000 0.041000
1518110141030241516	200 46 0.900000 0.017000 0.015000 1300 41 1.000000 0.734000 0.764000 600 51 1.000000 0.053000 0.053000 1.200000 0.037000 0.044000
1518110141582209975	200 50 0.900000 0.075000 0.068000 1300 42 1.000000 2.977000 3.134000 600 55 1.000000 0.053000 0.053000 1.200000 0.028000 0.033000
1518110142142093058	200 51 0.900000 0.076000 0.069000 1300 44 1.000000 2.986000 3.144000 600 58 1.000000 0.053000 0.053000 1.200000 0.028000 0.033000
1518110142702137558	200 53 0.900000 0.076000 0.069000 1300 45 1.000000 2.987000 3.145000 600 59 1.000000 0.053000 0.053000 1.200000 0.028000 0.033000
1518110143258152683	200 53 0.900000 0.076000 0.069000 1300 45 1.000000 2.987000 3.145000 600 60 1.000000 0.053000 0.053000 1.200000 0.028000 0.033000
1518110143822119975	200 54 0.900000 0.076000 0.069000 1300 46 1.000000 2.985000 3.143000 600 61 1.000000 0.053000 0.053000 1.200000 0.028000 0.033000
1518110144374044808	200 55 0.900000 0.076000 0.069000 1300 47 1.000000 2.982000 3.140000 600 62 1.000000 0.054000 0.054000 1.200000 0.028000 0.033000
1518110144938113267	200 55 0.900000 0.076000 0.069000 1300 47 1.000000 2.991000 3.149000 600 62 1.000000 0.054000 0.054000 1.200000 0.028000 0.033000
1518110145502126517	200 56 0.900000 0.076000 0.069000 1300 48 1.000000 3.011000 3.170000 600 62 1.000000 0.054000 0.054000 1.200000 0.028000 0.033000
1518110146066141059	200 56 0.900000 0.077000 0.070000 1300 48 1.000000 3.010000 3.169000 600 63 1.000000 0.054000 0.054000 1.200000 0.028000 0.033000
1518110146622109975	200 56 0.900000 0.076000 0.069000 1300 48 1.000000 3.011000 3.170000 600 63 1.000000 0.054000 0.054000 1.200000 0.028000 0.033000
1518110147178167434	200 57 0.900000 0.077000 0.070000 1300 49 1.000000 3.013000 3.172000 600 63 1.000000 0.054000 0.054000 1.200000 0.028000 0.033000
1518110147738047975	200 57 0.900000 0.077000 0.070000 1300 49 1.000000 3.004000 3.160000 600 64 1.000000 0.054000 0.054000 1.200000 0.028000 0.033000
1518110148294065600	200 57 0.900000 0.077000 0.070000 1300 49 1.000000 3.006000 3.165000 600 64 1.000000 0.054000 0.054000 1.200000 0.028000 0.033000
1518110148852996517	200 58 0.900000 0.077000 0.070000 1300 49 1.000000 3.004000 3.163000 600 64 1.000000 0.054000 0.054000 1.200000 0.028000 0.033000
1518110149418180351	200 58 0.900000 0.076000 0.069000 1300 50 1.000000 2.980000 3.137000 600 64 1.000000 0.054000 0.054000 1.200000 0.029000 0.035000
1518110149978110726	200 58 0.900000 0.078000 0.071000 1300 50 1.000000 2.970000 3.127000 600 65 1.000000 0.055000 0.055000 1.200000 0.028000 0.033000
1518110150541974101	200 58 0.900000 0.077000 0.070000 1300 50 1.000000 2.969000 3.126000 600 65 1.000000 0.055000 0.055000 1.200000 0.028000 0.033000
1518110151110184892	200 58 0.900000 0.077000 0.070000 1300 50 1.000000 2.966000 3.123000 600 65 1.000000 0.055000 0.055000 1.200000 0.028000 0.033000
1518110151670176101	200 58 0.900000 0.077000 0.070000 1300 50 1.000000 2.970000 3.127000 600 65 1.000000 0.055000 0.055000 1.200000 0.028000 0.033000
1518110152234124768	200 58 0.900000 0.077000 0.070000 1300 50 1.000000 2.969000 3.123000 600 65 1.000000 0.055000 0.055000 1.200000 0.028000 0.033000
1518110152798035601	200 58 0.900000 0.077000 0.070000 1300 50 1.000000 2.971000 3.128000 600 65 1.000000 0.055000 0.055000 1.200000 0.028000 0.033000
1518110153362145018	200 58 0.900000 0.077000 0.070000 1300 50 1.000000 2.969000 3.123000 600 65 1.000000 0.055000 0.055000 1.200000 0.028000 0.033000
1518110153914136268	200 58 0.900000 0.077000 0.070000 1300 50 1.000000 2.967000 3.121000 600 65 1.000000 0.055000 0.055000 1.200000 0.029000 0.035000
1518110154470104268	200 58 0.900000 0.078000 0.071000 1300 51 1.000000 2.968000 3.122000 600 65 1.000000 0.055000 0.055000 1.200000 0.029000 0.035000
1518110155030054476	200 59 0.900000 0.077000 0.070000 1300 51 1.000000 2.972000 3.126000 600 66 1.000000 0.055000 0.055000 1.200000 0.028000 0.033000
1518110155586074810	200 59 0.900000 0.077000 0.070000 1300 51 1.000000 2.970000 3.124000 600 66 1.000000 0.055000 0.055000 1.200000 0.028000 0.033000
1518110156154103560	200 59 0.900000 0.078000 0.071000 1300 51 1.000000 2.972000 3.126000 600 66 1.000000 0.055000 0.055000 1.200000 0.028000 0.033000
1518110156710111268	200 59 0.900000 0.077000 0.070000 1300 51 1.000000 2.973000 3.130000 600 66 1.000000 0.055000 0.055000 1.200000 0.028000 0.033000
1518110157282125893	200 59 0.900000 0.077000 0.070000 1300 51 1.000000 2.976000 3.130000 600 66 1.000000 0.055000 0.055000 1.200000 0.028000 0.033000
1518110157850015643	200 59 0.900000 0.077000 0.070000 1300 51 1.000000 2.984000 3.139000 600 66 1.000000 0.055000 0.055000 1.200000 0.028000 0.033000
1518110158410106602	200 59 0.900000 0.077000 0.070000 1300 51 1.000000 2.989000 3.144000 600 66 1.000000 0.055000 0.055000 1.200000 0.028000 0.033000
1518110158970030977	200 59 0.900000 0.077000 0.070000 1300 51 1.000000 2.992000 3.150000 600 66 1.000000 0.055000 0.055000 1.200000 0.028000 0.033000
1518110159542132810	200 59 0.900000 0.078000 0.071000 1300 51 1.000000 2.990000 3.148000 600 66 1.000000 0.055000 0.055000 1.200000 0.028000 0.033000
1518110160106109352	200 59 0.900000 0.078000 0.071000 1300 52 1.000000 2.992000 3.150000 600 66 1.000000 0.055000 0.055000 1.200000 0.027000 0.032000
1518110160670150602	200 59 0.900000 0.077000 0.070000 1300 52 1.000000 2.992000 3.150000 600 66 1.000000 0.055000 0.055000 1.200000 0.028000 0.033000
1518110161218111352	200 59 0.900000 0.078000 0.071000 1300 51 1.000000 2.982000 3.137000 600 66 1.000000 0.055000 0.055000 1.200000 0.028000 0.033000
1518110161780904102	200 60 0.900000 0.078000 0.071000 1300 52 1.000000 2.981000 3.138000 600 67 1.000000 0.055000 0.055000 1.200000 0.028000 0.033000
1518110162334150019	200 60 0.900000 0.078000 0.071000 1300 52 1.000000 2.983000 3.141000 600 67 1.000000 0.055000 0.055000 1.200000 0.028000 0.033000
1518110162898045019	200 60 0.900000 0.078000 0.071000 1300 52 1.000000 2.982000 3.140000 600 67 1.000000 0.055000 0.055000 1.200000 0.028000 0.033000
1518110163458106644	200 60 0.900000 0.078000 0.071000 1300 52 1.000000 2.991000 3.149000 600 67 1.000000 0.055000 0.055000 1.200000 0.028000 0.033000
1518110164014011727	200 60 0.900000 0.078000 0.071000 1300 52 1.000000 2.980000 3.137000 600 67 1.000000 0.055000 0.055000 1.200000 0.028000 0.033000
1518110164582012769	200 60 0.900000 0.078000 0.071000 1300 52 1.000000 2.980000 3.137000 600 67 1.000000 0.055000 0.055000 1.200000 0.028000 0.033000
1518110165146134352	200 60 0.900000 0.077000 0.070000 1300 52 1.000000 2.991000 3.149000 600 67 1.000000 0.055000 0.055000 1.200000 0.028000 0.033000
1518110165686126311	200 60 0.900000 0.077000 0.070000 1300 52 1.000000 2.979000 3.136000 600 67 1.000000 0.055000 0.055000 1.200000 0.028000 0.033000
1518110166245987144	200 60 0.900000 0.077000 0.070000 1300 52 1.000000 2.963000 3.120000 600 67 1.000000 0.055000 0.055000 1.200000 0.028000 0.033000
1518110166810159853	200 60 0.900000 0.077000 0.070000 1300 52 1.000000 2.958000 3.114000 600 67 1.000000 0.055000 0.055000 1.200000 0.028000 0.033000
1518110167374152103	200 60 0.900000 0.077000 0.070000 1300 52 1.000000 2.955000 3.111000 600 67 1.000000 0.055000 0.055000 1.200000 0.029000 0.035000
1518110167938017853	200 60 0.900000 0.078000 0.071000 1300 52 1.000000 2.975000 3.132000 600 67 1.000000 0.055000 0.055000 1.200000 0.028000 0.033000
1518110168502056395	200 60 0.900000 0.078000 0.071000 1300 52 1.000000 2.967000 3.124000 600 67 1.000000 0.055000 0.055000 1.200000 0.028000 0.033000
1518110169062064895	200 60 0.900000 0.078000 0.071000 1300 52 1.000000 2.965000 3.122000 600 67 1.000000 0.055000 0.055000 1.200000 0.028000 0.033000
1518110169630127436	200 60 0.900000 0.078000 0.071000 1300 52 1.000000 2.974000 3.131000 600 67 1.000000 0.055000 0.055000 1.200000 0.028000 0.033000
1518110170190092728	200 60 0.900000 0.077000 0.070000 1300 52 1.000000 2.979000 3.136000 600 67 1.000000 0.055000 0.055000 1.200000 0.028000 0.033000
1518110170754167395	200 60 0.900000 0.078000 0.071000 1300 52 1.000000 2.971000 3.125000 600 67 1.000000 0.055000 0.055000 1.200000 0.028000 0.033000
1518110171318138978	200 60 0.900000 0.078000 0.071000 1300 52 1.000000 2.961000 3.117000 600 67 1.000000 0.055000 0.055000 1.200000 0.028000 0.033000
1518110171886117312	200 60 0.900000 0.078000 0.071000 1300 52 1.000000 2.979000 3.136000 600 67 1.000000 0.055000 0.055000 1.200000 0.028000 0.033000
1518110172458102395	200 60 0.900000 0.078000 0.071000 1300 52 1.000000 2.973000 3.130000 600 67 1.000000 0.055000 0.055000 1.200000 0.029000 0.035000
1518110173018093353	200 60 0.900000 0.078000 0.071000 1300 52 1.000000 2.970000 3.124000 600 67 1.000000 0.055000 0.055000 1.200000 0.028000 0.033000
1518110173578046187	200 60 0.900000 0.078000 0.071000 1300 52 1.000000 2.992000 3.147000 600 67 1.000000 0.055000 0.055000 1.200000 0.028000 0.033000
1518110174130022604	200 60 0.900000 0.078000 0.071000 1300 52 1.000000 2.990000 3.148000 600 67 1.000000 0.055000 0.055000 1.200000 0.028000 0.033000
1518110174706135895	200 60 0.900000 0.078000 0.071000 1300 52 1.000000 2.995000 3.150000 600 67 1.000000 0.055000 0.055000 1.200000 0.028000 0.033000
1518110175274008270	200 60 0.900000 0.078000 0.071000 1300 52 1.000000 2.985000 3.140000 600 67 1.000000 0.055000 0.055000 1.200000 0.028000 0.033000
1518110175842136687	200 60 0.900000 0.078000 0.071000 1300 52 1.000000 3.000000 3.159000 600 68 1.000000 0.055000 0.055000 1.200000 0.028000 0.033000
1518110176410097687	200 60 0.900000 0.078000 0.071000 1300 53 1.000000 3.000000 3.159000 600 67 1.000000 0.055000 0.055000 1.200000 0.028000 0.033000
1518110176974126187	200 61 0.900000 0.078000 0.071000 1300 53 1.000000 3.000000 3.159000 600 67 1.000000 0.055000 0.055000 1.200000 0.028000 0.033000
1518110177526124437	200 61 0.900000 0.077000 0.070000 1300 53 1.000000 2.999000 3.157000 600 68 1.000000 0.055000 0.055000 1.200000 0.028000 0.033000
1518110178082120937	200 61 0.900000 0.078000 0.071000 1300 53 1.000000 2.979000 3.136000 600 67 1.000000 0.055000 0.055000 1.200000 0.028000 0.033000
1518110178654130937	200 60 0.900000 0.078000 0.071000 1300 53 1.000000 2.986000 3.141000 600 68 1.000000 0.055000 0.055000 1.200000 0.028000 0.033000
1518110179218007396	200 61 0.900000 0.078000 0.071000 1300 53 1.000000 2.997000 3.152000 600 68 1.000000 0.055000 0.055000 1.200000 0.028000 0.033000
1518110179774105813	200 61 0.900000 0.078000 0.071000 1300 53 1.000000 2.985000 3.140000 600 68 1.000000 0.055000 0.055000 1.200000 0.028000 0.033000
1518110180330126646	200 61 0.900000 0.078000 0.071000 1300 53 1.000000 2.999000 3.157000 600 68 1.000000 0.055000 0.055000 1.200000 0.028000 0.033000
1518110180898123854	200 61 0.900000 0.078000 0.071000 1300 53 1.000000 3.011000 3.170000 600 68 1.000000 0.055000 0.055000 1.200000 0.028000 0.033000
1518110181462109604	200 61 0.900000 0.078000 0.071000 1300 53 1.000000 3.009000 3.168000 600 68 1.000000 0.055000 0.055000 1.200000 0.028000 0.033000
1518110182030013313	200 61 0.900000 0.078000 0.071000 1300 53 1.000000 3.004000 3.163000 600 68 1.000000 0.055000 0.055000 1.200000 0.028000 0.033000
1518110182582118563	200 61 0.900000 0.078000 0.071000 1300 53 1.000000 2.988000 3.146000 600 68 1.000000 0.055000 0.055000 1.200000 0.028000 0.033000
1518110183134125230	200 61 0.900000 0.078000 0.071000 1300 53 1.000000 2.997000 3.155000 600 68 1.000000 0.055000 0.055000 1.200000 0.028000 0.033000
1518110183686097396	200 61 0.900000 0.078000 0.071000 1300 53 1.000000 2.998000 3.156000 600 68 1.000000 0.055000 0.055000 1.200000 0.028000 0.033000
1518110184234106355	200 61 0.900000 0.078000 0.071000 1300 53 1.000000 2.999000 3.157000 600 68 1.000000 0.055000 0.055000 1.200000 0.028000 0.033000
1518110184806105563	200 61 0.900000 0.078000 0.071000 1300 53 1.000000 2.997000 3.155000 600 68 1.000000 0.055000 0.055000 1.200000 0.028000 0.033000
1518110185366101563	200 61 0.900000 0.078000 0.071000 1300 53 1.000000 3.011000 3.170000 600 68 1.000000 0.055000 0.055000 1.200000 0.028000 0.033000
1518110185926134313	200 61 0.900000 0.078000 0.071000 1300 53 1.000000 3.011000 3.170000 600 68 1.000000 0.055000 0.055000 1.200000 0.028000 0.033000
1518110186482102897	200 61 0.900000 0.078000 0.071000 1300 53 1.000000 3.011000 3.170000 600 68 1.000000 0.055000 0.055000 1.200000 0.028000 0.033000
1518110187030118230	200 61 0.900000 0.078000 0.071000 1300 53 1.000000 3.009000 3.168000 600 68 1.000000 0.055000 0.055000 1.200000 0.028000 0.033000
1518110187590092730	200 61 0.900000 0.078000 0.071000 1300 53 1.000000 3.010000 3.169000 600 68 1.000000 0.055000 0.055000 1.200000 0.028000 0.033000
1518110188166100647	200 61 0.900000 0.078000 0.071000 1300 53 1.000000 3.009000 3.168000 600 68 1.000000 0.055000 0.055000 1.200000 0.028000 0.033000
1518110188718097647	200 61 0.900000 0.078000 0.071000 1300 53 1.000000 2.989000 3.147000 600 68 1.000000 0.055000 0.055000 1.200000 0.028000 0.033000
1518110189282114564	200 61 0.900000 0.078000 0.071000 1300 53 1.000000 2.989000 3.147000 600 68 1.000000 0.055000 0.055000 1.200000 0.028000 0.033000
1518110189846017564	200 61 0.900000 0.078000 0.071000 1300 53 1.000000 3.004000 3.160000 600 68 1.000000 0.055000 0.055000 1.200000 0.028000 0.033000
1518110190398097564	200 61 0.900000 0.078000 0.071000 1300 53 1.000000 3.004000 3.163000 600 68 1.000000 0.055000 0.055000 1.200000 0.028000 0.033000
1518110190946021897	200 61 0.900000 0.078000 0.071000 1300 53 1.000000 3.003000 3.162000 600 68 1.000000 0.055000 0.055000 1.200000 0.028000 0.033000
1518110191510264731	200 61 0.900000 0.078000 0.071000 1300 53 1.000000 3.004000 3.163000 600 68 1.000000 0.055000 0.055000 1.200000 0.028000 0.033000
1518110192090083647	200 61 0.900000 0.078000 0.071000 1300 53 1.000000 3.005000 3.164000 600 68 1.000000 0.055000 0.055000 1.200000 0.028000 0.033000
1518110192642088647	200 61 0.900000 0.078000 0.071000 1300 53 1.000000 3.004000 3.163000 600 68 1.000000 0.055000 0.055000 1.200000 0.028000 0.033000
1518110193202088731	200 61 0.900000 0.078000 0.071000 1300 53 1.000000 3.001000 3.160000 600 68 1.000000 0.055000 0.055000 1.200000 0.028000 0.033000
1518110193770037481	200 61 0.900000 0.078000 0.071000 1300 53 1.000000 2.998000 3.156000 600 68 1.000000 0.055000 0.055000 1.200000 0.028000 0.033000
1518110194330124523	200 61 0.900000 0.077000 0.070000 1300 53 1.000000 3.006000 3.165000 600 68 1.000000 0.055000 0.055000 1.200000 0.028000 0.033000
1518110194882007273	200 61 0.900000 0.078000 0.071000 1300 53 1.000000 3.004000 3.163000 600 68 1.000000 0.055000 0.055000 1.200000 0.028000 0.033000
1518110195446117939	200 61 0.900000 0.078000 0.071000 1300 53 1.000000 3.004000 3.163000 600 68 1.000000 0.055000 0.055000 1.200000 0.028000 0.033000
1518110196006012523	200 61 0.900000 0.078000 0.071000 1300 53 1.000000 3.004000 3.163000 600 68 1.000000 0.055000 0.055000 1.200000 0.028000 0.033000
1518110196550167648	200 61 0.900000 0.078000 0.071000 1300 53 1.000000 2.992000 3.150000 600 68 1.000000 0.055000 0.055000 1.200000 0.028000 0.033000
1518110197118032565	200 61 0.900000 0.078000 0.071000 1300 53 1.000000 3.005000 3.164000 600 68 1.000000 0.055000 0.055000 1.200000 0.028000 0.033000
1518110197682167398	200 61 0.900000 0.078000 0.071000 1300 53 1.000000 2.986000 3.144000 600 68 1.000000 0.055000 0.055000 1.200000 0.028000 0.033000
1518110198242139981	200 61 0.900000 0.078000 0.071000 1300 53 1.000000 2.997000 3.155000 600 68 1.000000 0.055000 0.055000 1.200000 0.029000 0.035000
1518110198798018315	200 61 0.900000 0.078000 0.071000 1300 53 1.000000 2.994000 3.152000 600 68 1.000000 0.055000 0.055000 1.200000 0.028000 0.033000
1518110199366096148	200 61 0.900000 0.078000 0.071000 1300 53 1.000000 2.981000 3.138000 600 68 1.000000 0.055000 0.055000 1.200000 0.028000 0.033000
1518110199938132440	200 61 0.900000 0.078000 0.071000 1300 53 1.000000 2.998000 3.156000 600 68 1.000000 0.055000 0.055000 1.200000 0.028000 0.033000
1518110200506027857	200 61 0.900000 0.078000 0.071000 1300 53 1.000000 3.001000 3.160000 600 68 1.000000 0.055000 0.055000 1.200000 0.028000 0.033000
1518110201078121190	200 61 0.900000 0.078000 0.071000 1300 53 1.000000 2.981000 3.138000 600 68 1.000000 0.055000 0.055000 1.200000 0.028000 0.033000
1518110201642118982	200 61 0.900000 0.078000 0.071000 1300 53 1.000000 2.991000 3.149000 600 68 1.000000 0.055000 0.055000 1.200000 0.028000 0.033000
1518110202194017065	200 61 0.900000 0.078000 0.071000 1300 53 1.000000 3.000000 3.159000 600 68 1.000000 0.055000 0.055000 1.200000 0.028000 0.033000
1518110202742134232	200 61 0.900000 0.078000 0.071000 1300 53 1.000000 3.004000 3.163000 600 68 1.000000 0.055000 0.055000 1.200000 0.028000 0.033000
1518110203314162815	200 61 0.900000 0.078000 0.071000 1300 53 1.000000 3.004000 3.163000 600 68 1.000000 0.055000 0.055000 1.200000 0.029000 0.035000
1518110203866124232	200 61 0.900000 0.079000 0.072000 1300 53 1.000000 2.983000 3.141000 600 68 1.000000 0.055000 0.055000 1.200000 0.028000 0.033000
1518110204422133982	200 61 0.900000 0.079000 0.072000 1300 53 1.000000 2.980000 3.137000 600 68 1.000000 0.055000 0.055000 1.200000 0.028000 0.033000
1518110204990111024	200 61 0.900000 0.078000 0.071000 1300 53 1.000000 2.984000 3.142000 600 68 1.000000 0.055000 0.055000 1.200000 0.028000 0.033000
1518110205554024857	200 61 0.900000 0.078000 0.071000 1300 53 1.000000 2.970000 3.127000 600 68 1.000000 0.055000 0.055000 1.200000 0.028000 0.033000
1518110206122079316	200 61 0.900000 0.079000 0.072000 1300 53 1.000000 2.977000 3.134000 600 68 1.000000 0.055000 0.055000 1.200000 0.028000 0.033000
1518110206686021732	200 61 0.900000 0.078000 0.071000 1300 54 1.000000 2.967000 3.124000 600 68 1.000000 0.055000 0.055000 1.200000 0.028000 0.033000
1518110207262107649	200 61 0.900000 0.078000 0.071000 1300 53 1.000000 2.994000 3.152000 600 68 1.000000 0.055000 0.055000 1.200000 0.028000 0.033000
1518110207818111316	200 61 0.900000 0.079000 0.072000 1300 54 1.000000 2.993000 3.151000 600 68 1.000000 0.055000 0.055000 1.200000 0.028000 0.033000
1518110208378020483	200 61 0.900000 0.078000 0.071000 1300 53 1.000000 2.978000 3.135000 600 69 1.000000 0.055000 0.055000 1.200000 0.028000 0.033000
1518110208938118358	200 61 0.900000 0.078000 0.071000 1300 54 1.000000 2.979000 3.136000 600 68 1.000000 0.055000 0.055000 1.200000 0.028000 0.033000
1518110209498109649	200 61 0.900000 0.078000 0.071000 1300 53 1.000000 2.980000 3.137000 600 69 1.000000 0.055000 0.055000 1.200000 0.028000 0.033000
1518110210058042858	200 61 0.900000 0.078000 0.071000 1300 54 1.000000 2.981000 3.138000 600 69 1.000000 0.055000 0.055000 1.200000 0.028000 0.033000
1518110210626134691	200 61 0.900000 0.078000 0.071000 1300 54 1.000000 2.974000 3.131000 600 69 1.000000 0.055000 0.055000 1.200000 0.028000 0.033000
1518110211186131400	200 61 0.900000 0.079000 0.072000 1300 54 1.000000 2.993000 3.151000 600 68 1.000000 0.055000 0.055000 1.200000 0.028000 0.033000
1518110211746133775	200 61 0.900000 0.078000 0.071000 1300 54 1.000000 2.992000 3.150000 600 69 1.000000 0.055000 0.055000 1.200000 0.028000 0.033000
1518110212294111816	200 62 0.900000 0.078000 0.071000 1300 54 1.000000 2.994000 3.152000 600 69 1.000000 0.055000 0.055000 1.200000 0.028000 0.033000
1518110212854190692	200 62 0.900000 0.078000 0.071000 1300 54 1.000000 2.992000 3.150000 600 68 1.000000 0.055000 0.055000 1.200000 0.028000 0.033000
1518110213430122692	200 61 0.900000 0.078000 0.071000 1300 54 1.000000 2.978000 3.135000 600 69 1.000000 0.055000 0.055000 1.200000 0.028000 0.033000
1518110213990128358	200 61 0.900000 0.078000 0.071000 1300 54 1.000000 2.983000 3.141000 600 69 1.000000 0.055000 0.055000 1.200000 0.028000 0.033000
1518110214546094483	200 61 0.900000 0.078000 0.071000 1300 54 1.000000 2.988000 3.146000 600 69 1.000000 0.055000 0.055000 1.200000 0.028000 0.033000
1518110215110105650	200 62 0.900000 0.078000 0.071000 1300 54 1.000000 2.977000 3.134000 600 69 1.000000 0.055000 0.055000 1.200000 0.028000 0.033000
1518110215666022525	200 61 0.900000 0.078000 0.071000 1300 54 1.000000 2.990000 3.148000 600 69 1.000000 0.055000 0.055000 1.200000 0.028000 0.033000
1518110216222041484	200 62 0.900000 0.078000 0.071000 1300 54 1.000000 2.990000 3.148000 600 69 1.000000 0.055000 0.055000 1.200000 0.028000 0.033000
1518110216790115400	200 61 0.900000 0.079000 0.072000 1300 54 1.000000 2.990000 3.148000 600 69 1.000000 0.055000 0.055000 1.200000 0.028000 0.033000
1518110217354033359	200 62 0.900000 0.079000 0.072000 1300 54 1.000000 2.987000 3.145000 600 69 1.000000 0.055000 0.055000 1.200000 0.028000 0.033000
1518110217910112567	200 61 0.900000 0.078000 0.071000 1300 54 1.000000 2.979000 3.136000 600 69 1.000000 0.055000 0.055000 1.200000 0.028000 0.033000
1518110218474111692	200 62 0.900000 0.078000 0.071000 1300 54 1.000000 2.987000 3.145000 600 69 1.000000 0.055000 0.055000 1.200000 0.028000 0.033000
1518110219042089317	200 62 0.900000 0.079000 0.072000 1300 54 1.000000 2.989000 3.147000 600 69 1.000000 0.055000 0.055000 1.200000 0.028000 0.033000
1518110219598079776	200 62 0.900000 0.078000 0.071000 1300 54 1.000000 2.988000 3.146000 600 69 1.000000 0.055000 0.055000 1.200000 0.028000 0.033000
1518110220162144984	200 62 0.900000 0.078000 0.071000 1300 54 1.000000 2.991000 3.149000 600 69 1.000000 0.055000 0.055000 1.200000 0.028000 0.033000
1518110220710104567	200 62 0.900000 0.078000 0.071000 1300 54 1.000000 3.024000 3.184000 600 69 1.000000 0.055000 0.055000 1.200000 0.028000 0.033000
1518110221266059151	200 62 0.900000 0.078000 0.071000 1300 54 1.000000 3.023000 3.183000 600 69 1.000000 0.055000 0.055000 1.200000 0.028000 0.033000
1518110221834095984	200 62 0.900000 0.078000 0.071000 1300 54 1.000000 3.021000 3.181000 600 69 1.000000 0.055000 0.055000 1.200000 0.028000 0.033000
1518110222398142151	200 62 0.900000 0.078000 0.071000 1300 54 1.000000 3.024000 3.184000 600 69 1.000000 0.056000 0.056000 1.200000 0.028000 0.033000
1518110222966095734	200 62 0.900000 0.078000 0.071000 1300 54 1.000000 3.024000 3.184000 600 69 1.000000 0.055000 0.055000 1.200000 0.028000 0.033000
1518110223530105984	200 62 0.900000 0.078000 0.071000 1300 54 1.000000 3.017000 3.176000 600 69 1.000000 0.055000 0.055000 1.200000 0.028000 0.033000
1518110224090101068	200 62 0.900000 0.078000 0.071000 1300 54 1.000000 3.017000 3.176000 600 69 1.000000 0.055000 0.055000 1.200000 0.028000 0.033000
1518110224654083776	200 62 0.900000 0.078000 0.071000 1300 54 1.000000 3.025000 3.185000 600 69 1.000000 0.055000 0.055000 1.200000 0.028000 0.033000
1518110225218107818	200 62 0.900000 0.078000 0.071000 1300 54 1.000000 3.024000 3.184000 600 69 1.000000 0.055000 0.055000 1.200000 0.028000 0.033000
1518110225778115235	200 62 0.900000 0.078000 0.071000 1300 54 1.000000 3.022000 3.182000 600 69 1.000000 0.055000 0.055000 1.200000 0.028000 0.033000
1518110226342080068	200 62 0.900000 0.078000 0.071000 1300 54 1.000000 3.024000 3.184000 600 69 1.000000 0.055000 0.055000 1.200000 0.028000 0.033000
1518110226906096152	200 62 0.900000 0.078000 0.071000 1300 54 1.000000 3.023000 3.183000 600 69 1.000000 0.055000 0.055000 1.200000 0.028000 0.033000
1518110227474161277	200 62 0.900000 0.078000 0.071000 1300 54 1.000000 3.025000 3.185000 600 69 1.000000 0.056000 0.056000 1.200000 0.028000 0.033000
1518110228046162610	200 62 0.900000 0.079000 0.072000 1300 54 1.000000 3.011000 3.170000 600 69 1.000000 0.055000 0.055000 1.200000 0.028000 0.033000
1518110228606147652	200 62 0.900000 0.078000 0.071000 1300 54 1.000000 2.997000 3.155000 600 69 1.000000 0.055000 0.055000 1.200000 0.028000 0.033000
1518110229170146235	200 62 0.900000 0.078000 0.071000 1300 54 1.000000 3.006000 3.165000 600 69 1.000000 0.055000 0.055000 1.200000 0.028000 0.033000
1518110229734041485	200 62 0.900000 0.078000 0.071000 1300 54 1.000000 3.006000 3.165000 600 69 1.000000 0.056000 0.056000 1.200000 0.028000 0.033000
1518110230310135277	200 62 0.900000 0.078000 0.071000 1300 54 1.000000 3.004000 3.163000 600 69 1.000000 0.055000 0.055000 1.200000 0.028000 0.033000
1518110230870128069	200 62 0.900000 0.079000 0.072000 1300 54 1.000000 2.995000 3.153000 600 69 1.000000 0.055000 0.055000 1.200000 0.028000 0.033000
1518110231434074360	200 62 0.900000 0.078000 0.071000 1300 54 1.000000 2.995000 3.153000 600 69 1.000000 0.055000 0.055000 1.200000 0.028000 0.033000
1518110231998029360	200 62 0.900000 0.078000 0.071000 1300 54 1.000000 3.003000 3.162000 600 69 1.000000 0.055000 0.055000 1.200000 0.028000 0.033000
1518110232562100152	200 62 0.900000 0.079000 0.072000 1300 54 1.000000 2.997000 3.155000 600 69 1.000000 0.055000 0.055000 1.200000 0.028000 0.033000
1518110233122114111	200 62 0.900000 0.078000 0.071000 1300 54 1.000000 2.989000 3.147000 600 69 1.000000 0.055000 0.055000 1.200000 0.028000 0.033000
1518110233678146444	200 62 0.900000 0.078000 0.071000 1300 54 1.000000 2.993000 3.151000 600 69 1.000000 0.055000 0.055000 1.200000 0.028000 0.033000
1518110234242110527	200 62 0.900000 0.078000 0.071000 1300 54 1.000000 2.992000 3.150000 600 69 1.000000 0.055000 0.055000 1.200000 0.028000 0.033000
1518110234802098194	200 62 0.900000 0.078000 0.071000 1300 54 1.000000 2.999000 3.157000 600 69 1.000000 0.056000 0.056000 1.200000 0.028000 0.033000
1518110235370110236	200 62 0.900000 0.078000 0.071000 1300 54 1.000000 2.992000 3.150000 600 69 1.000000 0.055000 0.055000 1.200000 0.028000 0.033000
1518110235917969069	200 62 0.900000 0.078000 0.071000 1300 54 1.000000 2.989000 3.147000 600 69 1.000000 0.056000 0.056000 1.200000 0.028000 0.033000
1518110236494149069	200 62 0.900000 0.078000 0.071000 1300 54 1.000000 2.980000 3.137000 600 69 1.000000 0.055000 0.055000 1.200000 0.028000 0.033000
1518110237054143319	200 62 0.900000 0.079000 0.072000 1300 54 1.000000 2.975000 3.132000 600 69 1.000000 0.055000 0.055000 1.200000 0.028000 0.033000
1518110237618007319	200 62 0.900000 0.078000 0.071000 1300 54 1.000000 2.984000 3.139000 600 69 1.000000 0.056000 0.056000 1.200000 0.028000 0.033000
1518110238174147403	200 62 0.900000 0.078000 0.071000 1300 54 1.000000 2.974000 3.128000 600 69 1.000000 0.055000 0.055000 1.200000 0.028000 0.033000
1518110238722056195	200 62 0.900000 0.078000 0.071000 1300 54 1.000000 2.970000 3.127000 600 69 1.000000 0.056000 0.056000 1.200000 0.028000 0.033000
1518110239278161986	200 62 0.900000 0.078000 0.071000 1300 54 1.000000 2.964000 3.118000 600 69 1.000000 0.055000 0.055000 1.200000 0.028000 0.033000
1518110239834018611	200 62 0.900000 0.078000 0.071000 1300 54 1.000000 2.973000 3.130000 600 69 1.000000 0.055000 0.055000 1.200000 0.028000 0.033000
1518110240398107070	200 62 0.900000 0.078000 0.071000 1300 54 1.000000 2.975000 3.132000 600 69 1.000000 0.055000 0.055000 1.200000 0.028000 0.033000
1518110240950141862	200 62 0.900000 0.078000 0.071000 1300 54 1.000000 2.963000 3.120000 600 69 1.000000 0.056000 0.056000 1.200000 0.028000 0.033000
1518110241514080070	200 62 0.900000 0.078000 0.071000 1300 54 1.000000 2.969000 3.126000 600 69 1.000000 0.055000 0.055000 1.200000 0.028000 0.033000
1518110242086118903	200 62 0.900000 0.079000 0.072000 1300 54 1.000000 2.985000 3.143000 600 69 1.000000 0.055000 0.055000 1.200000 0.028000 0.033000
1518110242634029195	200 62 0.900000 0.078000 0.071000 1300 54 1.000000 2.983000 3.138000 600 69 1.000000 0.055000 0.055000 1.200000 0.029000 0.035000
1518110243194075320	200 62 0.900000 0.078000 0.071000 1300 54 1.000000 2.972000 3.126000 600 69 1.000000 0.055000 0.055000 1.200000 0.028000 0.033000
1518110243762133029	200 62 0.900000 0.079000 0.072000 1300 54 1.000000 2.974000 3.131000 600 69 1.000000 0.055000 0.055000 1.200000 0.028000 0.033000
1518110244330099862	200 62 0.900000 0.079000 0.072000 1300 54 1.000000 2.989000 3.147000 600 69 1.000000 0.055000 0.055000 1.200000 0.029000 0.035000
1518110244894165070	200 62 0.900000 0.079000 0.072000 1300 54 1.000000 2.996000 3.154000 600 69 1.000000 0.055000 0.055000 1.200000 0.028000 0.033000
1518110245466161404	200 62 0.900000 0.078000 0.071000 1300 54 1.000000 3.022000 3.182000 600 69 1.000000 0.056000 0.056000 1.200000 0.028000 0.033000
1518110246022104070	200 62 0.900000 0.079000 0.072000 1300 54 1.000000 3.024000 3.184000 600 69 1.000000 0.055000 0.055000 1.200000 0.028000 0.033000
1518110246578086404	200 62 0.900000 0.079000 0.072000 1300 54 1.000000 3.025000 3.185000 600 69 1.000000 0.055000 0.055000 1.200000 0.028000 0.033000
1518110247130121112	200 62 0.900000 0.078000 0.071000 1300 54 1.000000 3.025000 3.185000 600 69 1.000000 0.055000 0.055000 1.200000 0.028000 0.033000
1518110247690105196	200 62 0.900000 0.079000 0.072000 1300 54 1.000000 3.013000 3.172000 600 69 1.000000 0.056000 0.056000 1.200000 0.028000 0.033000
1518110248254027821	200 62 0.900000 0.078000 0.071000 1300 54 1.000000 3.015000 3.174000 600 69 1.000000 0.056000 0.056000 1.200000 0.028000 0.033000
1518110248818092821	200 62 0.900000 0.078000 0.071000 1300 54 1.000000 3.011000 3.170000 600 69 1.000000 0.055000 0.055000 1.200000 0.028000 0.033000
1518110249370116196	200 62 0.900000 0.079000 0.072000 1300 54 1.000000 3.024000 3.184000 600 69 1.000000 0.056000 0.056000 1.200000 0.027000 0.032000
1518110249926031654	200 62 0.900000 0.078000 0.071000 1300 54 1.000000 3.005000 3.164000 600 69 1.000000 0.055000 0.055000 1.200000 0.028000 0.033000
1518110250490080571	200 62 0.900000 0.079000 0.072000 1300 54 1.000000 3.012000 3.171000 600 69 1.000000 0.056000 0.056000 1.200000 0.028000 0.033000
1518110251045979529	200 62 0.900000 0.079000 0.072000 1300 54 1.000000 3.025000 3.185000 600 69 1.000000 0.055000 0.055000 1.200000 0.027000 0.032000
1518110251610148529	200 62 0.900000 0.078000 0.071000 1300 54 1.000000 3.026000 3.186000 600 69 1.000000 0.056000 0.056000 1.200000 0.027000 0.032000
1518110252178072988	200 62 0.900000 0.078000 0.071000 1300 54 1.000000 3.021000 3.181000 600 70 1.000000 0.055000 0.055000 1.200000 0.028000 0.033000
1518110252738155696	200 62 0.900000 0.078000 0.071000 1300 54 1.000000 3.017000 3.176000 600 70 1.000000 0.055000 0.055000 1.200000 0.028000 0.033000
1518110253302096946	200 62 0.900000 0.079000 0.072000 1300 54 1.000000 2.989000 3.147000 600 70 1.000000 0.056000 0.056000 1.200000 0.027000 0.032000
1518110253858225321	200 62 0.900000 0.078000 0.071000 1300 54 1.000000 2.992000 3.150000 600 69 1.000000 0.056000 0.056000 1.200000 0.028000 0.033000
1518110254422121905	200 62 0.900000 0.078000 0.071000 1300 54 1.000000 2.975000 3.132000 600 69 1.000000 0.055000 0.055000 1.200000 0.029000 0.035000
1518110254990087405	200 62 0.900000 0.079000 0.072000 1300 54 1.000000 2.996000 3.154000 600 69 1.000000 0.056000 0.056000 1.200000 0.027000 0.032000
1518110255558102488	200 62 0.900000 0.078000 0.071000 1300 54 1.000000 2.996000 3.154000 600 69 1.000000 0.056000 0.056000 1.200000 0.027000 0.032000
1518110256126086072	200 62 0.900000 0.079000 0.072000 1300 54 1.000000 2.995000 3.153000 600 70 1.000000 0.055000 0.055000 1.200000 0.027000 0.032000
1518110256690126780	200 62 0.900000 0.079000 0.072000 1300 54 1.000000 2.995000 3.153000 600 69 1.000000 0.056000 0.056000 1.200000 0.028000 0.033000
1518110257258103405	200 62 0.900000 0.078000 0.071000 1300 54 1.000000 2.994000 3.152000 600 70 1.000000 0.056000 0.056000 1.200000 0.028000 0.033000
1518110257816245739	200 62 0.900000 0.079000 0.072000 1300 55 1.000000 2.995000 3.153000 600 69 1.000000 0.056000 0.056000 1.200000 0.028000 0.033000
1518110258374082322	200 62 0.900000 0.078000 0.071000 1300 54 1.000000 2.980000 3.137000 600 69 1.000000 0.055000 0.055000 1.200000 0.028000 0.033000
1518110258922148155	200 62 0.900000 0.079000 0.072000 1300 54 1.000000 2.995000 3.153000 600 69 1.000000 0.055000 0.055000 1.200000 0.027000 0.032000
1518110259482167239	200 62 0.900000 0.078000 0.071000 1300 54 1.000000 2.996000 3.154000 600 69 1.000000 0.055000 0.055000 1.200000 0.027000 0.032000
1518110260034126155	200 62 0.900000 0.079000 0.072000 1300 54 1.000000 2.992000 3.150000 600 70 1.000000 0.055000 0.055000 1.200000 0.027000 0.032000
1518110260590102781	200 62 0.900000 0.079000 0.072000 1300 54 1.000000 2.992000 3.150000 600 69 1.000000 0.056000 0.056000 1.200000 0.027000 0.032000
1518110261154095114	200 62 0.900000 0.079000 0.072000 1300 54 1.000000 2.993000 3.151000 600 70 1.000000 0.055000 0.055000 1.200000 0.027000 0.032000
1518110261721996197	200 62 0.900000 0.078000 0.071000 1300 54 1.000000 2.995000 3.153000 600 69 1.000000 0.056000 0.056000 1.200000 0.027000 0.032000
1518110262278092656	200 62 0.900000 0.079000 0.072000 1300 54 1.000000 2.993000 3.151000 600 70 1.000000 0.056000 0.056000 1.200000 0.028000 0.033000
1518110262829028822	200 62 0.900000 0.079000 0.072000 1300 54 1.000000 2.994000 3.152000 600 70 1.000000 0.056000 0.056000 1.200000 0.028000 0.033000
1518110263382121864	200 62 0.900000 0.077000 0.070000 1300 54 1.000000 2.985000 3.143000 600 69 1.000000 0.056000 0.056000 1.200000 0.028000 0.033000
1518110263942083989	200 62 0.900000 0.078000 0.071000 1300 54 1.000000 2.983000 3.141000 600 70 1.000000 0.055000 0.055000 1.200000 0.028000 0.033000
1518110264506022114	200 62 0.900000 0.079000 0.072000 1300 54 1.000000 2.997000 3.155000 600 69 1.000000 0.055000 0.055000 1.200000 0.027000 0.032000
1518110265082037031	200 62 0.900000 0.078000 0.071000 1300 54 1.000000 2.995000 3.153000 600 70 1.000000 0.056000 0.056000 1.200000 0.027000 0.032000
1518110265642103656	200 62 0.900000 0.078000 0.071000 1300 54 1.000000 2.984000 3.142000 600 69 1.000000 0.056000 0.056000 1.200000 0.027000 0.032000
1518110266194107948	200 62 0.900000 0.078000 0.071000 1300 54 1.000000 2.986000 3.144000 600 69 1.000000 0.055000 0.055000 1.200000 0.027000 0.032000
1518110266754114156	200 62 0.900000 0.078000 0.071000 1300 55 1.000000 2.993000 3.151000 600 69 1.000000 0.056000 0.056000 1.200000 0.028000 0.033000
1518110267306035073	200 62 0.900000 0.079000 0.072000 1300 55 1.000000 2.978000 3.135000 600 70 1.000000 0.055000 0.055000 1.200000 0.027000 0.032000
1518110267862111115	200 62 0.900000 0.078000 0.071000 1300 55 1.000000 2.976000 3.133000 600 70 1.000000 0.055000 0.055000 1.200000 0.028000 0.033000
1518110268422092823	200 62 0.900000 0.078000 0.071000 1300 54 1.000000 2.993000 3.151000 600 70 1.000000 0.056000 0.056000 1.200000 0.028000 0.033000
1518110268974133490	200 62 0.900000 0.078000 0.071000 1300 54 1.000000 3.009000 3.168000 600 70 1.000000 0.055000 0.055000 1.200000 0.027000 0.032000
1518110269537992657	200 62 0.900000 0.079000 0.072000 1300 55 1.000000 3.003000 3.162000 600 70 1.000000 0.055000 0.055000 1.200000 0.027000 0.032000
1518110270086115240	200 63 0.900000 0.078000 0.071000 1300 55 1.000000 3.000000 3.159000 600 70 1.000000 0.056000 0.056000 1.200000 0.027000 0.032000
1518110270646094907	200 62 0.900000 0.079000 0.072000 1300 55 1.000000 3.001000 3.160000 600 70 1.000000 0.056000 0.056000 1.200000 0.027000 0.032000
1518110271202102532	200 63 0.900000 0.079000 0.072000 1300 55 1.000000 2.999000 3.157000 600 70 1.000000 0.056000 0.056000 1.200000 0.027000 0.032000
1518110271762056365	200 62 0.900000 0.078000 0.071000 1300 55 1.000000 3.006000 3.165000 600 70 1.000000 0.056000 0.056000 1.200000 0.027000 0.032000
1518110272330109824	200 63 0.900000 0.078000 0.071000 1300 55 1.000000 2.999000 3.157000 600 70 1.000000 0.055000 0.055000 1.200000 0.028000 0.033000
1518110272882085324	200 63 0.900000 0.078000 0.071000 1300 55 1.000000 3.013000 3.172000 600 70 1.000000 0.055000 0.055000 1.200000 0.027000 0.032000
1518110273442085157	200 63 0.900000 0.078000 0.071000 1300 55 1.000000 2.988000 3.146000 600 70 1.000000 0.055000 0.055000 1.200000 0.028000 0.033000
1518110274002030365	200 63 0.900000 0.079000 0.072000 1300 55 1.000000 3.012000 3.171000 600 70 1.000000 0.056000 0.056000 1.200000 0.027000 0.032000
1518110274562139282	200 63 0.900000 0.078000 0.071000 1300 55 1.000000 3.006000 3.165000 600 70 1.000000 0.056000 0.056000 1.200000 0.027000 0.032000
1518110275130089366	200 63 0.900000 0.078000 0.071000 1300 55 1.000000 2.995000 3.153000 600 70 1.000000 0.056000 0.056000 1.200000 0.027000 0.032000
1518110275698127324	200 63 0.900000 0.078000 0.071000 1300 55 1.000000 2.989000 3.147000 600 70 1.000000 0.056000 0.056000 1.200000 0.027000 0.032000
1518110276254139949	200 63 0.900000 0.079000 0.072000 1300 55 1.000000 3.004000 3.163000 600 70 1.000000 0.055000 0.055000 1.200000 0.027000 0.032000
1518110276818116866	200 63 0.900000 0.078000 0.071000 1300 55 1.000000 2.987000 3.145000 600 70 1.000000 0.056000 0.056000 1.200000 0.027000 0.032000
1518110277386098699	200 63 0.900000 0.079000 0.072000 1300 55 1.000000 2.980000 3.137000 600 70 1.000000 0.055000 0.055000 1.200000 0.027000 0.032000
1518110277954126658	200 62 0.900000 0.079000 0.072000 1300 55 1.000000 2.995000 3.153000 600 70 1.000000 0.055000 0.055000 1.200000 0.027000 0.032000
1518110278518078199	200 62 0.900000 0.078000 0.071000 1300 55 1.000000 2.995000 3.153000 600 70 1.000000 0.056000 0.056000 1.200000 0.028000 0.033000
1518110279082110408	200 62 0.900000 0.078000 0.071000 1300 55 1.000000 2.985000 3.143000 600 70 1.000000 0.056000 0.056000 1.200000 0.028000 0.033000
1518110279650011366	200 63 0.900000 0.079000 0.072000 1300 55 1.000000 2.972000 3.129000 600 70 1.000000 0.056000 0.056000 1.200000 0.028000 0.033000
1518110280218069866	200 62 0.900000 0.078000 0.071000 1300 55 1.000000 2.973000 3.127000 600 70 1.000000 0.055000 0.055000 1.200000 0.028000 0.033000
1518110280786091950	200 62 0.900000 0.078000 0.071000 1300 55 1.000000 2.991000 3.146000 600 70 1.000000 0.055000 0.055000 1.200000 0.027000 0.032000
1518110281362086200	200 63 0.900000 0.078000 0.071000 1300 55 1.000000 2.995000 3.153000 600 70 1.000000 0.056000 0.056000 1.200000 0.027000 0.032000
1518110281930092283	200 63 0.900000 0.078000 0.071000 1300 55 1.000000 2.995000 3.153000 600 70 1.000000 0.055000 0.055000 1.200000 0.028000 0.033000
1518110282490086075	200 62 0.900000 0.078000 0.071000 1300 55 1.000000 2.995000 3.153000 600 70 1.000000 0.056000 0.056000 1.200000 0.028000 0.033000
1518110283046018492	200 62 0.900000 0.078000 0.071000 1300 55 1.000000 2.986000 3.144000 600 70 1.000000 0.055000 0.055000 1.200000 0.028000 0.033000
1518110283602272033	200 62 0.900000 0.078000 0.071000 1300 55 1.000000 2.990000 3.148000 600 70 1.000000 0.055000 0.055000 1.200000 0.027000 0.032000
1518110284166140492	200 62 0.900000 0.079000 0.072000 1300 55 1.000000 2.988000 3.146000 600 70 1.000000 0.056000 0.056000 1.200000 0.028000 0.033000
1518110284722100533	200 63 0.900000 0.078000 0.071000 1300 55 1.000000 2.986000 3.144000 600 70 1.000000 0.056000 0.056000 1.200000 0.028000 0.033000
1518110285286114575	200 63 0.900000 0.078000 0.071000 1300 55 1.000000 3.005000 3.164000 600 70 1.000000 0.055000 0.055000 1.200000 0.027000 0.032000
1518110285846106659	200 62 0.900000 0.078000 0.071000 1300 55 1.000000 3.009000 3.168000 600 70 1.000000 0.056000 0.056000 1.200000 0.027000 0.032000
1518110286410049325	200 63 0.900000 0.078000 0.071000 1300 55 1.000000 3.009000 3.168000 600 70 1.000000 0.056000 0.056000 1.200000 0.027000 0.032000
1518110286978100409	200 63 0.900000 0.078000 0.071000 1300 55 1.000000 3.009000 3.168000 600 70 1.000000 0.055000 0.055000 1.200000 0.028000 0.033000
1518110287542030617	200 63 0.900000 0.078000 0.071000 1300 55 1.000000 3.009000 3.168000 600 70 1.000000 0.056000 0.056000 1.200000 0.028000 0.033000
1518110288090086284	200 63 0.900000 0.078000 0.071000 1300 55 1.000000 3.000000 3.159000 600 70 1.000000 0.056000 0.056000 1.200000 0.027000 0.032000
1518110288646091034	200 63 0.900000 0.078000 0.071000 1300 55 1.000000 2.990000 3.148000 600 70 1.000000 0.055000 0.055000 1.200000 0.027000 0.032000
1518110289202083659	200 63 0.900000 0.078000 0.071000 1300 55 1.000000 2.999000 3.157000 600 70 1.000000 0.056000 0.056000 1.200000 0.028000 0.033000
1518110289762026909	200 63 0.900000 0.079000 0.072000 1300 55 1.000000 2.992000 3.150000 600 70 1.000000 0.056000 0.056000 1.200000 0.028000 0.033000
1518110290330120826	200 63 0.900000 0.078000 0.071000 1300 55 1.000000 2.996000 3.154000 600 70 1.000000 0.056000 0.056000 1.200000 0.028000 0.033000
1518110290886085576	200 63 0.900000 0.078000 0.071000 1300 55 1.000000 3.008000 3.167000 600 70 1.000000 0.056000 0.056000 1.200000 0.027000 0.032000
1518110291442125326	200 62 0.900000 0.078000 0.071000 1300 55 1.000000 3.009000 3.168000 600 70 1.000000 0.056000 0.056000 1.200000 0.028000 0.033000
1518110292002104076	200 62 0.900000 0.079000 0.072000 1300 55 1.000000 2.987000 3.145000 600 70 1.000000 0.055000 0.055000 1.200000 0.028000 0.033000
1518110292558094659	200 63 0.900000 0.078000 0.071000 1300 55 1.000000 2.988000 3.146000 600 70 1.000000 0.055000 0.055000 1.200000 0.028000 0.033000
1518110293114104159	200 63 0.900000 0.079000 0.072000 1300 55 1.000000 2.987000 3.145000 600 70 1.000000 0.056000 0.056000 1.200000 0.028000 0.033000
1518110293666153951	200 62 0.900000 0.078000 0.071000 1300 55 1.000000 2.861000 3.009000 600 70 1.000000 0.056000 0.056000 1.200000 0.028000 0.033000
1518110294226081368	200 62 0.900000 0.078000 0.071000 1300 55 1.000000 2.986000 3.141000 600 70 1.000000 0.056000 0.056000 1.200000 0.029000 0.035000
1518110294794334701	200 63 0.900000 0.078000 0.071000 1300 55 1.000000 2.975000 3.132000 600 70 1.000000 0.056000 0.056000 1.200000 0.028000 0.033000
1518110295362036701	200 62 0.900000 0.078000 0.071000 1300 55 1.000000 2.986000 3.144000 600 70 1.000000 0.056000 0.056000 1.200000 0.027000 0.032000
1518110295926032993	200 63 0.900000 0.078000 0.071000 1300 55 1.000000 2.986000 3.144000 600 70 1.000000 0.055000 0.055000 1.200000 0.027000 0.032000
1518110296486014701	200 63 0.900000 0.079000 0.072000 1300 55 1.000000 2.989000 3.147000 600 70 1.000000 0.056000 0.056000 1.200000 0.027000 0.032000
1518110297054109118	200 63 0.900000 0.078000 0.071000 1300 55 1.000000 2.989000 3.147000 600 70 1.000000 0.055000 0.055000 1.200000 0.028000 0.033000
1518110297610129993	200 63 0.900000 0.078000 0.071000 1300 55 1.000000 2.988000 3.146000 600 70 1.000000 0.055000 0.055000 1.200000 0.028000 0.033000
1518110298162079452	200 63 0.900000 0.078000 0.071000 1300 55 1.000000 2.987000 3.145000 600 70 1.000000 0.055000 0.055000 1.200000 0.027000 0.032000
1518110298726102452	200 63 0.900000 0.078000 0.071000 1300 55 1.000000 2.989000 3.147000 600 70 1.000000 0.055000 0.055000 1.200000 0.028000 0.033000
1518110299302129243	200 63 0.900000 0.078000 0.071000 1300 55 1.000000 2.977000 3.134000 600 70 1.000000 0.055000 0.055000 1.200000 0.028000 0.033000
1518110299870028035	200 63 0.900000 0.078000 0.071000 1300 55 1.000000 3.043000 3.204000 600 70 1.000000 0.055000 0.055000 1.200000 0.027000 0.032000
1518110300438135244	200 63 0.900000 0.078000 0.071000 1300 55 1.000000 3.018000 3.177000 600 70 1.000000 0.056000 0.056000 1.200000 0.027000 0.032000
1518110300994135494	200 63 0.900000 0.078000 0.071000 1300 55 1.000000 3.030000 3.190000 600 70 1.000000 0.055000 0.055000 1.200000 0.027000 0.032000
1518110301562095369	200 63 0.900000 0.078000 0.071000 1300 55 1.000000 3.033000 3.193000 600 70 1.000000 0.056000 0.056000 1.200000 0.027000 0.032000
1518110302118134952	200 63 0.900000 0.079000 0.072000 1300 55 1.000000 3.020000 3.180000 600 70 1.000000 0.056000 0.056000 1.200000 0.027000 0.032000
1518110302666136577	200 63 0.900000 0.078000 0.071000 1300 55 1.000000 3.031000 3.191000 600 70 1.000000 0.056000 0.056000 1.200000 0.028000 0.033000
1518110303218042536	200 63 0.900000 0.079000 0.072000 1300 55 1.000000 3.034000 3.194000 600 70 1.000000 0.056000 0.056000 1.200000 0.028000 0.033000
1518110303770289994	200 63 0.900000 0.079000 0.072000 1300 55 1.000000 3.040000 3.201000 600 70 1.000000 0.056000 0.056000 1.200000 0.028000 0.033000
1518110304338094244	200 63 0.900000 0.078000 0.071000 1300 55 1.000000 3.035000 3.195000 600 70 1.000000 0.055000 0.055000 1.200000 0.027000 0.032000
1518110304898052994	200 63 0.900000 0.078000 0.071000 1300 55 1.000000 3.021000 3.181000 600 70 1.000000 0.056000 0.056000 1.200000 0.027000 0.032000
1518110305458140203	200 63 0.900000 0.078000 0.071000 1300 55 1.000000 3.028000 3.188000 600 70 1.000000 0.056000 0.056000 1.200000 0.027000 0.032000
1518110306030116411	200 63 0.900000 0.079000 0.072000 1300 55 1.000000 3.039000 3.200000 600 70 1.000000 0.056000 0.056000 1.200000 0.028000 0.033000
1518110306586119286	200 63 0.900000 0.078000 0.071000 1300 55 1.000000 3.038000 3.199000 600 70 1.000000 0.055000 0.055000 1.200000 0.027000 0.032000
1518110307153085911	200 63 0.900000 0.078000 0.071000 1300 55 1.000000 3.025000 3.185000 600 70 1.000000 0.056000 0.056000 1.200000 0.028000 0.033000
1518110307698122078	200 63 0.900000 0.079000 0.072000 1300 55 1.000000 3.041000 3.202000 600 70 1.000000 0.056000 0.056000 1.200000 0.028000 0.033000
1518110308266054870	200 63 0.900000 0.079000 0.072000 1300 55 1.000000 3.023000 3.183000 600 70 1.000000 0.056000 0.056000 1.200000 0.028000 0.033000
1518110308818397870	200 63 0.900000 0.079000 0.072000 1300 55 1.000000 3.044000 3.205000 600 70 1.000000 0.056000 0.056000 1.200000 0.027000 0.032000
1518110309386121953	200 63 0.900000 0.079000 0.072000 1300 55 1.000000 3.045000 3.206000 600 70 1.000000 0.056000 0.056000 1.200000 0.027000 0.032000
1518110309950130411	200 63 0.900000 0.079000 0.072000 1300 55 1.000000 3.041000 3.202000 600 70 1.000000 0.056000 0.056000 1.200000 0.027000 0.032000
1518110310502096828	200 63 0.900000 0.079000 0.072000 1300 55 1.000000 3.031000 3.191000 600 70 1.000000 0.056000 0.056000 1.200000 0.027000 0.032000
1518110311062001703	200 63 0.900000 0.079000 0.072000 1300 55 1.000000 3.029000 3.189000 600 70 1.000000 0.056000 0.056000 1.200000 0.027000 0.032000
1518110311622088703	200 63 0.900000 0.079000 0.072000 1300 55 1.000000 3.032000 3.192000 600 70 1.000000 0.056000 0.056000 1.200000 0.027000 0.032000
1518110312186089745	200 63 0.900000 0.078000 0.071000 1300 55 1.000000 3.034000 3.194000 600 70 1.000000 0.056000 0.056000 1.200000 0.027000 0.032000
1518110312750093120	200 63 0.900000 0.078000 0.071000 1300 55 1.000000 3.036000 3.196000 600 70 1.000000 0.056000 0.056000 1.200000 0.027000 0.032000
1518110313314120245	200 63 0.900000 0.079000 0.072000 1300 55 1.000000 3.044000 3.205000 600 70 1.000000 0.056000 0.056000 1.200000 0.027000 0.032000
1518110313874099120	200 63 0.900000 0.079000 0.072000 1300 55 1.000000 3.045000 3.206000 600 70 1.000000 0.056000 0.056000 1.200000 0.027000 0.032000
1518110314426103995	200 63 0.900000 0.078000 0.071000 1300 55 1.000000 3.034000 3.194000 600 70 1.000000 0.056000 0.056000 1.200000 0.027000 0.032000
1518110314974140412	200 63 0.900000 0.078000 0.071000 1300 55 1.000000 3.029000 3.189000 600 70 1.000000 0.056000 0.056000 1.200000 0.027000 0.032000
1518110315526142454	200 63 0.900000 0.079000 0.072000 1300 55 1.000000 3.018000 3.177000 600 70 1.000000 0.056000 0.056000 1.200000 0.027000 0.032000
1518110316090139954	200 63 0.900000 0.078000 0.071000 1300 55 1.000000 3.005000 3.164000 600 70 1.000000 0.056000 0.056000 1.200000 0.027000 0.032000
1518110316650069287	200 63 0.900000 0.078000 0.071000 1300 55 1.000000 3.011000 3.170000 600 70 1.000000 0.055000 0.055000 1.200000 0.028000 0.033000
1518110317218137787	200 63 0.900000 0.078000 0.071000 1300 55 1.000000 3.000000 3.159000 600 70 1.000000 0.056000 0.056000 1.200000 0.028000 0.033000
1518110317770114871	200 63 0.900000 0.079000 0.072000 1300 55 1.000000 3.022000 3.182000 600 70 1.000000 0.056000 0.056000 1.200000 0.027000 0.032000
1518110318334141746	200 63 0.900000 0.079000 0.072000 1300 55 1.000000 3.021000 3.181000 600 70 1.000000 0.056000 0.056000 1.200000 0.027000 0.032000
1518110318894013746	200 63 0.900000 0.078000 0.071000 1300 55 1.000000 3.021000 3.181000 600 70 1.000000 0.056000 0.056000 1.200000 0.028000 0.033000
1518110319470068371	200 63 0.900000 0.078000 0.071000 1300 55 1.000000 3.020000 3.180000 600 70 1.000000 0.055000 0.055000 1.200000 0.028000 0.033000
1518110320026111704	200 63 0.900000 0.078000 0.071000 1300 55 1.000000 3.021000 3.181000 600 70 1.000000 0.055000 0.055000 1.200000 0.028000 0.033000
1518110320590116871	200 63 0.900000 0.078000 0.071000 1300 55 1.000000 3.001000 3.160000 600 70 1.000000 0.055000 0.055000 1.200000 0.028000 0.033000
1518110321154139371	200 63 0.900000 0.078000 0.071000 1300 55 1.000000 2.998000 3.156000 600 70 1.000000 0.055000 0.055000 1.200000 0.027000 0.032000
1518110321726113871	200 63 0.900000 0.078000 0.071000 1300 55 1.000000 2.999000 3.157000 600 70 1.000000 0.055000 0.055000 1.200000 0.027000 0.032000
1518110322290025996	200 63 0.900000 0.079000 0.072000 1300 55 1.000000 3.023000 3.183000 600 70 1.000000 0.055000 0.055000 1.200000 0.028000 0.033000
1518110322858079746	200 63 0.900000 0.079000 0.072000 1300 55 1.000000 3.022000 3.182000 600 70 1.000000 0.055000 0.055000 1.200000 0.028000 0.033000
1518110323422150538	200 63 0.900000 0.079000 0.072000 1300 55 1.000000 3.012000 3.171000 600 70 1.000000 0.056000 0.056000 1.200000 0.028000 0.033000
1518110323982111663	200 63 0.900000 0.078000 0.071000 1300 55 1.000000 3.006000 3.165000 600 70 1.000000 0.056000 0.056000 1.200000 0.028000 0.033000
1518110324542109496	200 63 0.900000 0.079000 0.072000 1300 55 1.000000 2.992000 3.150000 600 70 1.000000 0.056000 0.056000 1.200000 0.028000 0.033000
1518110325106036580	200 63 0.900000 0.079000 0.072000 1300 55 1.000000 2.987000 3.145000 600 70 1.000000 0.056000 0.056000 1.200000 0.028000 0.033000
1518110325670035413	200 63 0.900000 0.079000 0.072000 1300 55 1.000000 2.993000 3.148000 600 70 1.000000 0.055000 0.055000 1.200000 0.028000 0.033000
1518110326226106705	200 63 0.900000 0.078000 0.071000 1300 55 1.000000 3.007000 3.166000 600 70 1.000000 0.056000 0.056000 1.200000 0.027000 0.032000
1518110326790120247	200 63 0.900000 0.078000 0.071000 1300 55 1.000000 3.007000 3.166000 600 70 1.000000 0.055000 0.055000 1.200000 0.028000 0.033000
1518110327354111788	200 63 0.900000 0.078000 0.071000 1300 55 1.000000 3.006000 3.165000 600 70 1.000000 0.056000 0.056000 1.200000 0.028000 0.033000
1518110327902115497	200 63 0.900000 0.078000 0.071000 1300 55 1.000000 3.003000 3.162000 600 70 1.000000 0.056000 0.056000 1.200000 0.028000 0.033000
1518110328478093914	200 63 0.900000 0.079000 0.072000 1300 55 1.000000 3.003000 3.162000 600 70 1.000000 0.055000 0.055000 1.200000 0.028000 0.033000
1518110329042129539	200 63 0.900000 0.078000 0.071000 1300 55 1.000000 3.003000 3.162000 600 70 1.000000 0.056000 0.056000 1.200000 0.028000 0.033000
1518110329598118455	200 63 0.900000 0.079000 0.072000 1300 55 1.000000 2.994000 3.152000 600 70 1.000000 0.055000 0.055000 1.200000 0.027000 0.032000
1518110330154107455	200 63 0.900000 0.078000 0.071000 1300 55 1.000000 2.993000 3.151000 600 70 1.000000 0.056000 0.056000 1.200000 0.028000 0.033000
1518110330702011622	200 63 0.900000 0.079000 0.072000 1300 55 1.000000 3.005000 3.164000 600 70 1.000000 0.056000 0.056000 1.200000 0.027000 0.032000
1518110331270034372	200 63 0.900000 0.079000 0.072000 1300 55 1.000000 3.016000 3.175000 600 70 1.000000 0.056000 0.056000 1.200000 0.027000 0.032000
1518110331838009914	200 63 0.900000 0.079000 0.072000 1300 55 1.000000 2.996000 3.154000 600 70 1.000000 0.055000 0.055000 1.200000 0.027000 0.032000
1518110332390146956	200 63 0.900000 0.079000 0.072000 1300 55 1.000000 2.996000 3.151000 600 70 1.000000 0.056000 0.056000 1.200000 0.028000 0.033000
1518110332954084331	200 63 0.900000 0.078000 0.071000 1300 55 1.000000 2.997000 3.155000 600 70 1.000000 0.055000 0.055000 1.200000 0.028000 0.033000
1518110333502122081	200 63 0.900000 0.079000 0.072000 1300 55 1.000000 2.996000 3.154000 600 70 1.000000 0.056000 0.056000 1.200000 0.028000 0.033000
1518110334070146123	200 63 0.900000 0.078000 0.071000 1300 55 1.000000 2.996000 3.154000 600 70 1.000000 0.056000 0.056000 1.200000 0.028000 0.033000
1518110334634110789	200 63 0.900000 0.079000 0.072000 1300 55 1.000000 2.991000 3.149000 600 70 1.000000 0.056000 0.056000 1.200000 0.028000 0.033000
1518110335190090331	200 63 0.900000 0.078000 0.071000 1300 55 1.000000 2.980000 3.137000 600 70 1.000000 0.056000 0.056000 1.200000 0.027000 0.032000
1518110335758030165	200 63 0.900000 0.078000 0.071000 1300 55 1.000000 2.989000 3.147000 600 70 1.000000 0.055000 0.055000 1.200000 0.027000 0.032000
1518110336310010456	200 63 0.900000 0.078000 0.071000 1300 55 1.000000 2.975000 3.132000 600 70 1.000000 0.056000 0.056000 1.200000 0.028000 0.033000
1518110336878002123	200 63 0.900000 0.078000 0.071000 1300 55 1.000000 2.978000 3.135000 600 70 1.000000 0.055000 0.055000 1.200000 0.027000 0.032000
1518110337426182040	200 63 0.900000 0.078000 0.071000 1300 55 1.000000 2.983000 3.141000 600 70 1.000000 0.056000 0.056000 1.200000 0.028000 0.033000
1518110337982053165	200 63 0.900000 0.078000 0.071000 1300 55 1.000000 2.981000 3.138000 600 70 1.000000 0.055000 0.055000 1.200000 0.028000 0.033000
1518110338534027248	200 63 0.900000 0.079000 0.072000 1300 55 1.000000 2.985000 3.143000 600 70 1.000000 0.056000 0.056000 1.200000 0.028000 0.033000
1518110339090131957	200 63 0.900000 0.079000 0.072000 1300 55 1.000000 2.974000 3.131000 600 70 1.000000 0.055000 0.055000 1.200000 0.028000 0.033000
1518110339654105665	200 63 0.900000 0.079000 0.072000 1300 55 1.000000 2.996000 3.154000 600 70 1.000000 0.055000 0.055000 1.200000 0.028000 0.033000
1518110340206097207	200 63 0.900000 0.079000 0.072000 1300 55 1.000000 3.037000 3.197000 600 70 1.000000 0.056000 0.056000 1.200000 0.027000 0.032000
1518110340762021332	200 63 0.900000 0.079000 0.072000 1300 55 1.000000 3.032000 3.192000 600 70 1.000000 0.055000 0.055000 1.200000 0.027000 0.032000
1518110341326084790	200 63 0.900000 0.079000 0.072000 1300 55 1.000000 3.026000 3.186000 600 70 1.000000 0.056000 0.056000 1.200000 0.027000 0.032000
1518110341894029915	200 63 0.900000 0.079000 0.072000 1300 55 1.000000 3.019000 3.179000 600 70 1.000000 0.056000 0.056000 1.200000 0.027000 0.032000
1518110342454105665	200 63 0.900000 0.079000 0.072000 1300 55 1.000000 3.018000 3.177000 600 70 1.000000 0.056000 0.056000 1.200000 0.027000 0.032000
1518110343018007499	200 63 0.900000 0.079000 0.072000 1300 55 1.000000 3.022000 3.182000 600 70 1.000000 0.056000 0.056000 1.200000 0.028000 0.033000
1518110343586122499	200 63 0.900000 0.079000 0.072000 1300 55 1.000000 3.023000 3.183000 600 70 1.000000 0.056000 0.056000 1.200000 0.028000 0.033000
1518110344154015999	200 63 0.900000 0.079000 0.072000 1300 55 1.000000 3.018000 3.177000 600 70 1.000000 0.055000 0.055000 1.200000 0.028000 0.033000
1518110344730110374	200 63 0.900000 0.079000 0.072000 1300 55 1.000000 3.040000 3.201000 600 70 1.000000 0.056000 0.056000 1.200000 0.027000 0.032000
1518110345294097416	200 63 0.900000 0.078000 0.071000 1300 55 1.000000 3.032000 3.192000 600 70 1.000000 0.055000 0.055000 1.200000 0.027000 0.032000
1518110345862091291	200 63 0.900000 0.078000 0.071000 1300 55 1.000000 3.031000 3.191000 600 70 1.000000 0.055000 0.055000 1.200000 0.027000 0.032000
1518110346418037957	200 63 0.900000 0.079000 0.072000 1300 55 1.000000 3.017000 3.176000 600 70 1.000000 0.056000 0.056000 1.200000 0.027000 0.032000
1518110346978081708	200 63 0.900000 0.079000 0.072000 1300 55 1.000000 3.025000 3.185000 600 70 1.000000 0.056000 0.056000 1.200000 0.027000 0.032000
1518110347534133249	200 63 0.900000 0.078000 0.071000 1300 55 1.000000 3.030000 3.190000 600 70 1.000000 0.056000 0.056000 1.200000 0.028000 0.033000
1518110348102037874	200 63 0.900000 0.079000 0.072000 1300 55 1.000000 2.994000 3.152000 600 70 1.000000 0.056000 0.056000 1.200000 0.028000 0.033000
1518110348670095583	200 63 0.900000 0.078000 0.071000 1300 55 1.000000 3.005000 3.164000 600 70 1.000000 0.056000 0.056000 1.200000 0.027000 0.032000
1518110349238089333	200 63 0.900000 0.078000 0.071000 1300 55 1.000000 3.004000 3.163000 600 70 1.000000 0.056000 0.056000 1.200000 0.027000 0.032000
1518110349786130708	200 63 0.900000 0.079000 0.072000 1300 55 1.000000 2.992000 3.150000 600 70 1.000000 0.056000 0.056000 1.200000 0.027000 0.032000
1518110350350120375	200 63 0.900000 0.079000 0.072000 1300 55 1.000000 2.990000 3.148000 600 70 1.000000 0.056000 0.056000 1.200000 0.027000 0.032000
1518110350918034083	200 63 0.900000 0.078000 0.071000 1300 55 1.000000 2.988000 3.146000 600 70 1.000000 0.056000 0.056000 1.200000 0.027000 0.032000
1518110351474122958	200 63 0.900000 0.079000 0.072000 1300 55 1.000000 2.984000 3.142000 600 70 1.000000 0.056000 0.056000 1.200000 0.027000 0.032000
1518110352038086666	200 63 0.900000 0.078000 0.071000 1300 55 1.000000 2.995000 3.150000 600 70 1.000000 0.056000 0.056000 1.200000 0.028000 0.033000
1518110352598107125	200 63 0.900000 0.080000 0.073000 1300 55 1.000000 3.006000 3.165000 600 70 1.000000 0.056000 0.056000 1.200000 0.027000 0.032000
1518110353154081208	200 63 0.900000 0.079000 0.072000 1300 55 1.000000 3.004000 3.163000 600 70 1.000000 0.056000 0.056000 1.200000 0.027000 0.032000
1518110353706107958	200 63 0.900000 0.079000 0.072000 1300 55 1.000000 3.004000 3.163000 600 70 1.000000 0.056000 0.056000 1.200000 0.028000 0.033000
1518110354274100083	200 63 0.900000 0.079000 0.072000 1300 55 1.000000 3.004000 3.163000 600 70 1.000000 0.056000 0.056000 1.200000 0.028000 0.033000
1518110354814152208	200 63 0.900000 0.079000 0.072000 1300 55 1.000000 2.997000 3.155000 600 70 1.000000 0.056000 0.056000 1.200000 0.029000 0.035000
1518110355382094542	200 63 0.900000 0.079000 0.072000 1300 55 1.000000 3.021000 3.181000 600 70 1.000000 0.056000 0.056000 1.200000 0.029000 0.035000
1518110355938086667	200 63 0.900000 0.078000 0.071000 1300 55 1.000000 2.993000 3.151000 600 70 1.000000 0.055000 0.055000 1.200000 0.028000 0.033000
1518110356489855625	200 63 0.900000 0.079000 0.072000 1300 55 1.000000 3.004000 3.163000 600 70 1.000000 0.056000 0.056000 1.200000 0.029000 0.035000
1518110357050016584	200 63 0.900000 0.078000 0.071000 1300 55 1.000000 3.012000 3.171000 600 70 1.000000 0.056000 0.056000 1.200000 0.029000 0.035000
1518110357626051209	200 63 0.900000 0.079000 0.072000 1300 55 1.000000 3.015000 3.174000 600 70 1.000000 0.056000 0.056000 1.200000 0.028000 0.033000
1518110358194114542	200 63 0.900000 0.079000 0.072000 1300 55 1.000000 3.013000 3.172000 600 70 1.000000 0.056000 0.056000 1.200000 0.028000 0.033000
1518110358758114501	200 63 0.900000 0.079000 0.072000 1300 55 1.000000 3.015000 3.174000 600 70 1.000000 0.056000 0.056000 1.200000 0.029000 0.035000
1518110359321978334	200 63 0.900000 0.078000 0.071000 1300 55 1.000000 3.015000 3.174000 600 70 1.000000 0.056000 0.056000 1.200000 0.029000 0.035000
1518110359882116751	200 63 0.900000 0.079000 0.072000 1300 55 1.000000 3.006000 3.165000 600 70 1.000000 0.056000 0.056000 1.200000 0.028000 0.033000
1518110360450094126	200 63 0.900000 0.078000 0.071000 1300 55 1.000000 3.009000 3.168000 600 70 1.000000 0.056000 0.056000 1.200000 0.028000 0.033000
1518110361010112751	200 63 0.900000 0.078000 0.071000 1300 55 1.000000 2.993000 3.151000 600 70 1.000000 0.056000 0.056000 1.200000 0.028000 0.033000
1518110361570012418	200 63 0.900000 0.079000 0.072000 1300 55 1.000000 3.015000 3.174000 600 70 1.000000 0.056000 0.056000 1.200000 0.028000 0.033000
1518110362134102709	200 63 0.900000 0.079000 0.072000 1300 55 1.000000 3.015000 3.174000 600 70 1.000000 0.055000 0.055000 1.200000 0.028000 0.033000
1518110362698095501	200 63 0.900000 0.079000 0.072000 1300 55 1.000000 3.014000 3.173000 600 70 1.000000 0.056000 0.056000 1.200000 0.028000 0.033000
1518110363266078876	200 63 0.900000 0.079000 0.072000 1300 55 1.000000 3.009000 3.168000 600 70 1.000000 0.056000 0.056000 1.200000 0.029000 0.035000
1518110363834012501	200 63 0.900000 0.079000 0.072000 1300 55 1.000000 3.007000 3.166000 600 70 1.000000 0.056000 0.056000 1.200000 0.029000 0.035000
1518110364402152876	200 63 0.900000 0.079000 0.072000 1300 55 1.000000 3.006000 3.165000 600 70 1.000000 0.055000 0.055000 1.200000 0.028000 0.033000
1518110364966010543	200 63 0.900000 0.079000 0.072000 1300 55 1.000000 3.004000 3.163000 600 70 1.000000 0.056000 0.056000 1.200000 0.028000 0.033000
1518110365518091001	200 63 0.900000 0.079000 0.072000 1300 55 1.000000 3.008000 3.167000 600 70 1.000000 0.056000 0.056000 1.200000 0.028000 0.033000
1518110366078087960	200 63 0.900000 0.079000 0.072000 1300 55 1.000000 3.007000 3.163000 600 70 1.000000 0.056000 0.056000 1.200000 0.028000 0.033000
1518110366646113335	200 63 0.900000 0.079000 0.072000 1300 55 1.000000 3.006000 3.162000 600 70 1.000000 0.056000 0.056000 1.200000 0.028000 0.033000
1518110367210083752	200 63 0.900000 0.078000 0.071000 1300 55 1.000000 3.009000 3.168000 600 70 1.000000 0.055000 0.055000 1.200000 0.028000 0.033000
1518110367758114252	200 63 0.900000 0.079000 0.072000 1300 55 1.000000 3.008000 3.167000 600 70 1.000000 0.056000 0.056000 1.200000 0.029000 0.035000
1518110368310020085	200 63 0.900000 0.079000 0.072000 1300 55 1.000000 3.007000 3.166000 600 70 1.000000 0.055000 0.055000 1.200000 0.028000 0.033000
1518110368870113335	200 63 0.900000 0.078000 0.071000 1300 55 1.000000 3.009000 3.168000 600 70 1.000000 0.056000 0.056000 1.200000 0.029000 0.035000
1518110369442082669	200 63 0.900000 0.078000 0.071000 1300 55 1.000000 2.995000 3.153000 600 70 1.000000 0.056000 0.056000 1.200000 0.028000 0.033000
1518110369998108002	200 63 0.900000 0.078000 0.071000 1300 55 1.000000 3.004000 3.163000 600 70 1.000000 0.056000 0.056000 1.200000 0.028000 0.033000
1518110370506976252	200 63 0.900000 0.079000 0.072000 1300 55 1.000000 3.006000 3.165000 600 65 1.000000 0.056000 0.056000 1.200000 0.028000 0.033000
1518110371015750127	200 57 0.900000 0.079000 0.072000 1300 54 1.000000 1.959000 2.051000 600 61 1.000000 0.055000 0.055000 1.200000 0.028000 0.033000
1518110371524448294	200 53 0.900000 0.079000 0.072000 1300 52 1.000000 0.957000 1.001000 600 58 1.000000 0.055000 0.055000 1.200000 0.028000 0.033000
1518110372033218169	200 51 0.900000 0.078000 0.071000 1300 51 1.000000 0.215000 0.225000 600 56 1.000000 0.055000 0.055000 1.200000 0.028000 0.033000
1518110372541780502	200 50 0.900000 0.077000 0.070000 1300 50 1.000000 0.200000 0.210000 600 54 1.000000 0.055000 0.055000 1.200000 0.028000 0.033000
1518110373050386544	200 49 0.900000 0.076000 0.069000 1300 49 1.000000 0.194000 0.203000 600 53 1.000000 0.055000 0.055000 1.200000 0.028000 0.033000
1518110373558893794	200 48 0.900000 0.077000 0.070000 1300 48 1.000000 0.213000 0.223000 600 53 1.000000 0.055000 0.055000 1.200000 0.028000 0.033000
1518110374067445336	200 48 0.900000 0.076000 0.069000 1300 48 1.000000 0.186000 0.195000 600 52 1.000000 0.054000 0.054000 1.200000 0.028000 0.033000
1518110374576201127	200 47 0.900000 0.076000 0.069000 1300 47 1.000000 0.198000 0.208000 600 51 1.000000 0.054000 0.054000 1.200000 0.028000 0.033000
1518110375084780211	200 47 0.900000 0.076000 0.069000 1300 47 1.000000 0.201000 0.211000 600 51 1.000000 0.054000 0.054000 1.200000 0.028000 0.033000
1518110375593259336	200 47 0.900000 0.076000 0.069000 1300 46 1.000000 0.182000 0.191000 600 50 1.000000 0.054000 0.054000 1.200000 0.027000 0.032000
1518110376101713003	200 46 0.900000 0.076000 0.069000 1300 46 1.000000 0.203000 0.213000 600 50 1.000000 0.054000 0.054000 1.200000 0.027000 0.032000
1518110376610294669	200 46 0.900000 0.076000 0.069000 1300 45 1.000000 0.179000 0.187000 600 50 1.000000 0.054000 0.054000 1.200000 0.028000 0.033000
1518110377118820378	200 46 0.900000 0.076000 0.069000 1300 45 1.000000 0.194000 0.203000 600 49 1.000000 0.053000 0.053000 1.200000 0.028000 0.033000
1518110377627311919	200 45 0.900000 0.076000 0.069000 1300 45 1.000000 0.172000 0.180000 600 49 1.000000 0.054000 0.054000 1.200000 0.027000 0.032000
1518110378135867545	200 45 0.900000 0.076000 0.069000 1300 45 1.000000 0.169000 0.177000 600 49 1.000000 0.054000 0.054000 1.200000 0.028000 0.033000
1518110378644356628	200 45 0.900000 0.075000 0.068000 1300 44 1.000000 0.197000 0.207000 600 49 1.000000 0.053000 0.053000 1.200000 0.028000 0.033000
1518110379152851836	200 45 0.900000 0.075000 0.068000 1300 44 1.000000 0.180000 0.189000 600 48 1.000000 0.053000 0.053000 1.200000 0.028000 0.033000
1518110379661499420	200 44 0.900000 0.076000 0.069000 1300 44 1.000000 0.185000 0.194000 600 48 1.000000 0.053000 0.053000 1.200000 0.027000 0.032000
1518110380170129170	200 44 0.900000 0.076000 0.069000 1300 44 1.000000 0.195000 0.204000 600 48 1.000000 0.053000 0.053000 1.200000 0.028000 0.033000
1518110380678540628	200 44 0.900000 0.075000 0.068000 1300 44 1.000000 0.171000 0.179000 600 48 1.000000 0.053000 0.053000 1.200000 0.028000 0.033000
1518110381187143295	200 44 0.900000 0.075000 0.068000 1300 44 1.000000 0.193000 0.202000 600 48 1.000000 0.053000 0.053000 1.200000 0.028000 0.033000
1518110381696003295	200 44 0.900000 0.075000 0.068000 1300 44 1.000000 0.188000 0.197000 600 48 1.000000 0.053000 0.053000 1.200000 0.028000 0.033000
1518110382205256295	200 44 0.900000 0.075000 0.068000 1300 43 1.000000 0.180000 0.189000 600 48 1.000000 0.053000 0.053000 1.200000 0.028000 0.033000
1518110382713921962	200 44 0.900000 0.075000 0.068000 1300 43 1.000000 0.203000 0.213000 600 47 1.000000 0.053000 0.053000 1.200000 0.028000 0.033000
1518110383222563587	200 44 0.900000 0.075000 0.068000 1300 43 1.000000 0.176000 0.184000 600 47 1.000000 0.053000 0.053000 1.200000 0.027000 0.032000
1518110383731005129	200 43 0.900000 0.076000 0.069000 1300 43 1.000000 0.167000 0.175000 600 47 1.000000 0.053000 0.053000 1.200000 0.027000 0.032000
1518110384239572837	200 43 0.900000 0.076000 0.069000 1300 43 1.000000 0.169000 0.177000 600 47 1.000000 0.053000 0.053000 1.200000 0.028000 0.033000
1518110384747964670	200 43 0.900000 0.075000 0.068000 1300 43 1.000000 0.164000 0.172000 600 47 1.000000 0.053000 0.053000 1.200000 0.028000 0.033000
1518110385256690379	200 43 0.900000 0.075000 0.068000 1300 43 1.000000 0.192000 0.201000 600 47 1.000000 0.053000 0.053000 1.200000 0.028000 0.033000
1518110385765160045	200 43 0.900000 0.076000 0.069000 1300 43 1.000000 0.181000 0.190000 600 47 1.000000 0.053000 0.053000 1.200000 0.028000 0.033000
1518110386273777254	200 43 0.900000 0.076000 0.069000 1300 42 1.000000 0.180000 0.189000 600 47 1.000000 0.053000 0.053000 1.200000 0.028000 0.033000
1518110386782181546	200 43 0.900000 0.075000 0.068000 1300 42 1.000000 0.195000 0.204000 600 46 1.000000 0.053000 0.053000 1.200000 0.028000 0.033000
1518110387290905837	200 43 0.900000 0.075000 0.068000 1300 42 1.000000 0.169000 0.177000 600 46 1.000000 0.053000 0.053000 1.200000 0.028000 0.033000
1518110387799509462	200 43 0.900000 0.075000 0.068000 1300 42 1.000000 0.186000 0.195000 600 46 1.000000 0.053000 0.053000 1.200000 0.028000 0.033000
1518110388308106712	200 43 0.900000 0.075000 0.068000 1300 42 1.000000 0.188000 0.197000 600 46 1.000000 0.053000 0.053000 1.200000 0.028000 0.033000
1518110388816514171	200 43 0.900000 0.075000 0.068000 1300 42 1.000000 0.180000 0.189000 600 46 1.000000 0.053000 0.053000 1.200000 0.028000 0.033000
1518110389324936838	200 42 0.900000 0.075000 0.068000 1300 42 1.000000 0.165000 0.173000 600 46 1.000000 0.053000 0.053000 1.200000 0.028000 0.033000
1518110389833383213	200 42 0.900000 0.075000 0.068000 1300 42 1.000000 0.161000 0.169000 600 46 1.000000 0.053000 0.053000 1.200000 0.027000 0.032000
1518110390341920088	200 42 0.900000 0.075000 0.068000 1300 42 1.000000 0.164000 0.172000 600 46 1.000000 0.053000 0.053000 1.200000 0.028000 0.033000
1518110390850458421	200 42 0.900000 0.075000 0.068000 1300 42 1.000000 0.168000 0.176000 600 46 1.000000 0.053000 0.053000 1.200000 0.028000 0.033000
1518110391358957629	200 42 0.900000 0.075000 0.068000 1300 42 1.000000 0.164000 0.172000 600 46 1.000000 0.053000 0.053000 1.200000 0.028000 0.033000
1518110391867592005	200 42 0.900000 0.074000 0.067000 1300 42 1.000000 0.163000 0.171000 600 46 1.000000 0.053000 0.053000 1.200000 0.028000 0.033000
1518110392376298796	200 42 0.900000 0.075000 0.068000 1300 42 1.000000 0.177000 0.186000 600 46 1.000000 0.053000 0.053000 1.200000 0.028000 0.033000
1518110392884824838	200 42 0.900000 0.075000 0.068000 1300 41 1.000000 0.180000 0.189000 600 46 1.000000 0.053000 0.053000 1.200000 0.028000 0.033000
1518110393393246421	200 42 0.900000 0.074000 0.067000 1300 41 1.000000 0.196000 0.205000 600 45 1.000000 0.053000 0.053000 1.200000 0.028000 0.033000
1518110393901663005	200 42 0.900000 0.075000 0.068000 1300 42 1.000000 0.168000 0.176000 600 46 1.000000 0.053000 0.053000 1.200000 0.028000 0.033000
1518110394410022546	200 42 0.900000 0.074000 0.067000 1300 41 1.000000 0.185000 0.194000 600 46 1.000000 0.053000 0.053000 1.200000 0.028000 0.033000
1518110394918599630	200 42 0.900000 0.075000 0.068000 1300 41 1.000000 0.183000 0.192000 600 45 1.000000 0.053000 0.053000 1.200000 0.028000 0.033000
1518110395427077922	200 42 0.900000 0.074000 0.067000 1300 41 1.000000 0.167000 0.175000 600 45 1.000000 0.053000 0.053000 1.200000 0.028000 0.033000
1518110395935657838	200 42 0.900000 0.075000 0.068000 1300 41 1.000000 0.165000 0.173000 600 45 1.000000 0.053000 0.053000 1.200000 0.028000 0.033000
1518110396443974088	200 42 0.900000 0.074000 0.067000 1300 41 1.000000 0.161000 0.169000 600 45 1.000000 0.053000 0.053000 1.200000 0.027000 0.032000
1518110396952553630	200 42 0.900000 0.075000 0.068000 1300 41 1.000000 0.164000 0.172000 600 45 1.000000 0.053000 0.053000 1.200000 0.028000 0.033000
1518110397461153172	200 42 0.900000 0.075000 0.068000 1300 41 1.000000 0.163000 0.171000 600 45 1.000000 0.053000 0.053000 1.200000 0.028000 0.033000
1518110397969778797	200 42 0.900000 0.075000 0.068000 1300 41 1.000000 0.163000 0.171000 600 45 1.000000 0.053000 0.053000 1.200000 0.028000 0.033000
1518110398478134505	200 41 0.900000 0.075000 0.068000 1300 41 1.000000 0.161000 0.169000 600 45 1.000000 0.053000 0.053000 1.200000 0.028000 0.033000
1518110398986766964	200 42 0.900000 0.075000 0.068000 1300 41 1.000000 0.160000 0.168000 600 45 1.000000 0.053000 0.053000 1.200000 0.028000 0.033000
1518110399495448297	200 41 0.900000 0.075000 0.068000 1300 41 1.000000 0.177000 0.186000 600 45 1.000000 0.053000 0.053000 1.200000 0.028000 0.033000
1518110400004178589	200 41 0.900000 0.074000 0.067000 1300 41 1.000000 0.194000 0.203000 600 45 1.000000 0.053000 0.053000 1.200000 0.028000 0.033000
1518110400512943297	200 41 0.900000 0.075000 0.068000 1300 41 1.000000 0.170000 0.178000 600 45 1.000000 0.053000 0.053000 1.200000 0.027000 0.032000
1518110401021521381	200 41 0.900000 0.074000 0.067000 1300 41 1.000000 0.164000 0.172000 600 45 1.000000 0.053000 0.053000 1.200000 0.028000 0.033000
1518110401529853964	200 41 0.900000 0.075000 0.068000 1300 41 1.000000 0.160000 0.168000 600 45 1.000000 0.053000 0.053000 1.200000 0.028000 0.033000
1518110402038374214	200 41 0.900000 0.074000 0.067000 1300 41 1.000000 0.161000 0.169000 600 45 1.000000 0.053000 0.053000 1.200000 0.028000 0.033000
1518110402546961881	200 41 0.900000 0.075000 0.068000 1300 41 1.000000 0.163000 0.171000 600 45 1.000000 0.053000 0.053000 1.200000 0.028000 0.033000
1518110403055593714	200 41 0.900000 0.074000 0.067000 1300 40 1.000000 0.161000 0.169000 600 45 1.000000 0.053000 0.053000 1.200000 0.028000 0.033000
1518110403563998964	200 41 0.900000 0.075000 0.068000 1300 40 1.000000 0.161000 0.169000 600 45 1.000000 0.053000 0.053000 1.200000 0.027000 0.032000
1518110404072414798	200 41 0.900000 0.075000 0.068000 1300 40 1.000000 0.161000 0.169000 600 44 1.000000 0.053000 0.053000 1.200000 0.028000 0.033000
1518110404580657048	200 41 0.900000 0.074000 0.067000 1300 40 1.000000 0.165000 0.173000 600 44 1.000000 0.053000 0.053000 1.200000 0.028000 0.033000
1518110405089315839	200 41 0.900000 0.074000 0.067000 1300 40 1.000000 0.192000 0.201000 600 45 1.000000 0.053000 0.053000 1.200000 0.028000 0.033000
1518110405597825423	200 41 0.900000 0.074000 0.067000 1300 40 1.000000 0.176000 0.184000 600 44 1.000000 0.053000 0.053000 1.200000 0.027000 0.032000
1518110406106508548	200 41 0.900000 0.074000 0.067000 1300 40 1.000000 0.174000 0.182000 600 44 1.000000 0.053000 0.053000 1.200000 0.027000 0.032000
1518110406615317840	200 41 0.900000 0.074000 0.067000 1300 40 1.000000 0.164000 0.172000 600 44 1.000000 0.053000 0.053000 1.200000 0.028000 0.033000
1518110407123803006	200 41 0.900000 0.074000 0.067000 1300 40 1.000000 0.171000 0.179000 600 44 1.000000 0.053000 0.053000 1.200000 0.028000 0.033000
1518110407632532673	200 41 0.900000 0.074000 0.067000 1300 40 1.000000 0.180000 0.189000 600 44 1.000000 0.053000 0.053000 1.200000 0.028000 0.033000
1518110408141149923	200 41 0.900000 0.075000 0.068000 1300 40 1.000000 0.182000 0.191000 600 44 1.000000 0.053000 0.053000 1.200000 0.028000 0.033000
1518110408649526632	200 41 0.900000 0.074000 0.067000 1300 40 1.000000 0.165000 0.173000 600 44 1.000000 0.053000 0.053000 1.200000 0.027000 0.032000
1518110409158369465	200 41 0.900000 0.075000 0.068000 1300 40 1.000000 0.196000 0.205000 600 44 1.000000 0.053000 0.053000 1.200000 0.028000 0.033000
1518110409667026507	200 40 0.900000 0.074000 0.067000 1300 40 1.000000 0.183000 0.192000 600 44 1.000000 0.053000 0.053000 1.200000 0.028000 0.033000
1518110410175608632	200 41 0.900000 0.074000 0.067000 1300 40 1.000000 0.175000 0.183000 600 44 1.000000 0.053000 0.053000 1.200000 0.028000 0.033000
1518110410684135007	200 41 0.900000 0.074000 0.067000 1300 40 1.000000 0.192000 0.201000 600 44 1.000000 0.053000 0.053000 1.200000 0.027000 0.032000
1518110411192769507	200 41 0.900000 0.075000 0.068000 1300 40 1.000000 0.169000 0.177000 600 44 1.000000 0.053000 0.053000 1.200000 0.027000 0.032000
1518110411701276049	200 40 0.900000 0.074000 0.067000 1300 40 1.000000 0.184000 0.193000 600 44 1.000000 0.053000 0.053000 1.200000 0.027000 0.032000
1518110412209805924	200 40 0.900000 0.075000 0.068000 1300 40 1.000000 0.183000 0.192000 600 44 1.000000 0.053000 0.053000 1.200000 0.028000 0.033000
1518110412718145465	200 40 0.900000 0.074000 0.067000 1300 40 1.000000 0.160000 0.168000 600 44 1.000000 0.053000 0.053000 1.200000 0.027000 0.032000
1518110413226878799	200 41 0.900000 0.074000 0.067000 1300 40 1.000000 0.163000 0.171000 600 44 1.000000 0.053000 0.053000 1.200000 0.027000 0.032000
1518110413735455132	200 40 0.900000 0.074000 0.067000 1300 40 1.000000 0.175000 0.183000 600 44 1.000000 0.053000 0.053000 1.200000 0.028000 0.033000
1518110414244117549	200 40 0.900000 0.074000 0.067000 1300 40 1.000000 0.176000 0.184000 600 44 1.000000 0.053000 0.053000 1.200000 0.027000 0.032000
1518110414752570132	200 40 0.900000 0.075000 0.068000 1300 40 1.000000 0.191000 0.200000 600 44 1.000000 0.053000 0.053000 1.200000 0.028000 0.033000
1518110415261072466	200 40 0.900000 0.074000 0.067000 1300 40 1.000000 0.166000 0.174000 600 44 1.000000 0.053000 0.053000 1.200000 0.028000 0.033000
1518110415769747466	200 40 0.900000 0.074000 0.067000 1300 40 1.000000 0.185000 0.194000 600 44 1.000000 0.053000 0.053000 1.200000 0.027000 0.032000
1518110416277991674	200 40 0.900000 0.074000 0.067000 1300 40 1.000000 0.183000 0.192000 600 44 1.000000 0.053000 0.053000 1.200000 0.028000 0.033000
1518110416786574382	200 40 0.900000 0.074000 0.067000 1300 39 1.000000 0.169000 0.177000 600 44 1.000000 0.053000 0.053000 1.200000 0.027000 0.032000
1518110417294930049	200 40 0.900000 0.075000 0.068000 1300 40 1.000000 0.192000 0.201000 600 44 1.000000 0.053000 0.053000 1.200000 0.027000 0.032000
1518110417803479091	200 40 0.900000 0.075000 0.068000 1300 40 1.000000 0.170000 0.178000 600 44 1.000000 0.053000 0.053000 1.200000 0.027000 0.032000
1518110418312141424	200 40 0.900000 0.074000 0.067000 1300 40 1.000000 0.180000 0.189000 600 44 1.000000 0.053000 0.053000 1.200000 0.028000 0.033000
1518110418820681591	200 40 0.900000 0.075000 0.068000 1300 39 1.000000 0.161000 0.169000 600 44 1.000000 0.053000 0.053000 1.200000 0.028000 0.033000
1518110419329144466	200 40 0.900000 0.074000 0.067000 1300 39 1.000000 0.158000 0.166000 600 44 1.000000 0.053000 0.053000 1.200000 0.027000 0.032000
1518110419837760258	200 40 0.900000 0.074000 0.067000 1300 39 1.000000 0.160000 0.168000 600 44 1.000000 0.053000 0.053000 1.200000 0.028000 0.033000
1518110420346280008	200 40 0.900000 0.074000 0.067000 1300 39 1.000000 0.160000 0.168000 600 43 1.000000 0.053000 0.053000 1.200000 0.028000 0.033000
1518110420854687425	200 40 0.900000 0.074000 0.067000 1300 39 1.000000 0.175000 0.183000 600 43 1.000000 0.053000 0.053000 1.200000 0.028000 0.033000
1518110421363171925	200 40 0.900000 0.074000 0.067000 1300 39 1.000000 0.193000 0.202000 600 43 1.000000 0.053000 0.053000 1.200000 0.028000 0.033000
1518110421871721216	200 40 0.900000 0.074000 0.067000 1300 39 1.000000 0.166000 0.174000 600 43 1.000000 0.053000 0.053000 1.200000 0.028000 0.033000
1518110422380412175	200 40 0.900000 0.074000 0.067000 1300 39 1.000000 0.182000 0.191000 600 43 1.000000 0.053000 0.053000 1.200000 0.028000 0.033000
1518110422889197425	200 40 0.900000 0.074000 0.067000 1300 39 1.000000 0.185000 0.194000 600 43 1.000000 0.052000 0.052000 1.200000 0.028000 0.033000
1518110423397706800	200 40 0.900000 0.075000 0.068000 1300 39 1.000000 0.166000 0.174000 600 43 1.000000 0.053000 0.053000 1.200000 0.027000 0.032000
1518110423906310592	200 40 0.900000 0.075000 0.068000 1300 39 1.000000 0.188000 0.197000 600 43 1.000000 0.053000 0.053000 1.200000 0.028000 0.033000
1518110424414612758	200 40 0.900000 0.074000 0.067000 1300 39 1.000000 0.173000 0.181000 600 43 1.000000 0.053000 0.053000 1.200000 0.027000 0.032000
1518110424923136508	200 40 0.900000 0.074000 0.067000 1300 39 1.000000 0.163000 0.171000 600 43 1.000000 0.053000 0.053000 1.200000 0.027000 0.032000
1518110425431642009	200 40 0.900000 0.073000 0.066000 1300 39 1.000000 0.164000 0.172000 600 43 1.000000 0.053000 0.053000 1.200000 0.027000 0.032000
1518110425940092134	200 40 0.900000 0.075000 0.068000 1300 39 1.000000 0.160000 0.168000 600 43 1.000000 0.053000 0.053000 1.200000 0.027000 0.032000
1518110426448686092	200 40 0.900000 0.073000 0.066000 1300 39 1.000000 0.157000 0.165000 600 43 1.000000 0.053000 0.053000 1.200000 0.027000 0.032000
1518110426957157509	200 40 0.900000 0.074000 0.067000 1300 39 1.000000 0.159000 0.167000 600 43 1.000000 0.053000 0.053000 1.200000 0.027000 0.032000
1518110427465826009	200 40 0.900000 0.074000 0.067000 1300 39 1.000000 0.169000 0.177000 600 43 1.000000 0.053000 0.053000 1.200000 0.028000 0.033000
1518110427974405134	200 40 0.900000 0.074000 0.067000 1300 39 1.000000 0.192000 0.201000 600 43 1.000000 0.053000 0.053000 1.200000 0.028000 0.033000
1518110428482870301	200 40 0.900000 0.074000 0.067000 1300 39 1.000000 0.170000 0.178000 600 43 1.000000 0.053000 0.053000 1.200000 0.028000 0.033000
1518110428991422676	200 40 0.900000 0.074000 0.067000 1300 39 1.000000 0.175000 0.183000 600 43 1.000000 0.053000 0.053000 1.200000 0.028000 0.033000
1518110429500070217	200 40 0.900000 0.074000 0.067000 1300 39 1.000000 0.186000 0.195000 600 43 1.000000 0.053000 0.053000 1.200000 0.027000 0.032000
1518110430008686134	200 39 0.900000 0.073000 0.066000 1300 39 1.000000 0.165000 0.173000 600 43 1.000000 0.053000 0.053000 1.200000 0.028000 0.033000
1518110430517279842	200 39 0.900000 0.074000 0.067000 1300 39 1.000000 0.160000 0.168000 600 43 1.000000 0.053000 0.053000 1.200000 0.027000 0.032000
1518110431025953801	200 40 0.900000 0.074000 0.067000 1300 39 1.000000 0.158000 0.166000 600 43 1.000000 0.053000 0.053000 1.200000 0.028000 0.033000
1518110431534347176	200 39 0.900000 0.074000 0.067000 1300 39 1.000000 0.160000 0.168000 600 43 1.000000 0.053000 0.053000 1.200000 0.028000 0.033000
1518110432042896884	200 39 0.900000 0.073000 0.066000 1300 39 1.000000 0.160000 0.168000 600 43 1.000000 0.053000 0.053000 1.200000 0.028000 0.033000
1518110432551506593	200 39 0.900000 0.074000 0.067000 1300 39 1.000000 0.162000 0.170000 600 43 1.000000 0.052000 0.052000 1.200000 0.028000 0.033000
1518110433059877843	200 39 0.900000 0.074000 0.067000 1300 39 1.000000 0.159000 0.167000 600 43 1.000000 0.053000 0.053000 1.200000 0.028000 0.033000
1518110433568354968	200 39 0.900000 0.074000 0.067000 1300 39 1.000000 0.157000 0.165000 600 43 1.000000 0.053000 0.053000 1.200000 0.028000 0.033000
1518110434076651760	200 39 0.900000 0.074000 0.067000 1300 39 1.000000 0.159000 0.167000 600 43 1.000000 0.053000 0.053000 1.200000 0.028000 0.033000
1518110434585230385	200 39 0.900000 0.074000 0.067000 1300 39 1.000000 0.189000 0.198000 600 43 1.000000 0.053000 0.053000 1.200000 0.028000 0.033000
1518110435093717843	200 39 0.900000 0.074000 0.067000 1300 39 1.000000 0.173000 0.181000 600 43 1.000000 0.052000 0.052000 1.200000 0.027000 0.032000
1518110435602130551	200 39 0.900000 0.074000 0.067000 1300 39 1.000000 0.171000 0.179000 600 43 1.000000 0.052000 0.052000 1.200000 0.027000 0.032000
1518110436110580051	200 39 0.900000 0.074000 0.067000 1300 39 1.000000 0.187000 0.196000 600 43 1.000000 0.053000 0.053000 1.200000 0.028000 0.033000
1518110436618986010	200 39 0.900000 0.073000 0.066000 1300 39 1.000000 0.160000 0.168000 600 43 1.000000 0.052000 0.052000 1.200000 0.028000 0.033000
1518110437127568093	200 39 0.900000 0.074000 0.067000 1300 39 1.000000 0.163000 0.171000 600 43 1.000000 0.052000 0.052000 1.200000 0.027000 0.032000
1518110437636266135	200 39 0.900000 0.075000 0.068000 1300 39 1.000000 0.158000 0.166000 600 43 1.000000 0.053000 0.053000 1.200000 0.028000 0.033000
1518110438144708427	200 39 0.900000 0.074000 0.067000 1300 39 1.000000 0.157000 0.165000 600 43 1.000000 0.053000 0.053000 1.200000 0.028000 0.033000
1518110438653129260	200 39 0.900000 0.074000 0.067000 1300 39 1.000000 0.169000 0.177000 600 43 1.000000 0.053000 0.053000 1.200000 0.028000 0.033000
1518110439161665635	200 39 0.900000 0.074000 0.067000 1300 39 1.000000 0.162000 0.170000 600 43 1.000000 0.053000 0.053000 1.200000 0.028000 0.033000
1518110439670153552	200 39 0.900000 0.074000 0.067000 1300 38 1.000000 0.159000 0.167000 600 43 1.000000 0.053000 0.053000 1.200000 0.028000 0.033000
1518110440178757635	200 39 0.900000 0.075000 0.068000 1300 38 1.000000 0.156000 0.163000 600 43 1.000000 0.053000 0.053000 1.200000 0.027000 0.032000
1518110440687346760	200 39 0.900000 0.074000 0.067000 1300 38 1.000000 0.159000 0.167000 600 43 1.000000 0.053000 0.053000 1.200000 0.027000 0.032000
1518110441195971135	200 39 0.900000 0.074000 0.067000 1300 38 1.000000 0.160000 0.168000 600 43 1.000000 0.053000 0.053000 1.200000 0.028000 0.033000
1518110441704528594	200 39 0.900000 0.074000 0.067000 1300 39 1.000000 0.179000 0.188000 600 42 1.000000 0.053000 0.053000 1.200000 0.028000 0.033000
1518110442213007761	200 39 0.900000 0.073000 0.066000 1300 38 1.000000 0.167000 0.175000 600 42 1.000000 0.052000 0.052000 1.200000 0.028000 0.033000
1518110442721526219	200 39 0.900000 0.074000 0.067000 1300 39 1.000000 0.188000 0.197000 600 42 1.000000 0.052000 0.052000 1.200000 0.027000 0.032000
1518110443229891886	200 39 0.900000 0.074000 0.067000 1300 38 1.000000 0.165000 0.173000 600 42 1.000000 0.053000 0.053000 1.200000 0.027000 0.032000
1518110443738640636	200 39 0.900000 0.074000 0.067000 1300 38 1.000000 0.179000 0.188000 600 42 1.000000 0.053000 0.053000 1.200000 0.027000 0.032000
1518110444247420552	200 39 0.900000 0.074000 0.067000 1300 38 1.000000 0.182000 0.191000 600 42 1.000000 0.053000 0.053000 1.200000 0.027000 0.032000
1518110444755988719	200 39 0.900000 0.074000 0.067000 1300 38 1.000000 0.160000 0.168000 600 42 1.000000 0.052000 0.052000 1.200000 0.028000 0.033000
1518110445264573303	200 39 0.900000 0.073000 0.066000 1300 38 1.000000 0.187000 0.196000 600 42 1.000000 0.052000 0.052000 1.200000 0.028000 0.033000
1518110445773120928	200 39 0.900000 0.074000 0.067000 1300 38 1.000000 0.175000 0.183000 600 42 1.000000 0.053000 0.053000 1.200000 0.028000 0.033000
1518110446281705969	200 39 0.900000 0.074000 0.067000 1300 38 1.000000 0.172000 0.180000 600 42 1.000000 0.053000 0.053000 1.200000 0.028000 0.033000
1518110446790296844	200 39 0.900000 0.074000 0.067000 1300 38 1.000000 0.189000 0.198000 600 42 1.000000 0.052000 0.052000 1.200000 0.027000 0.032000
1518110447298706386	200 39 0.900000 0.074000 0.067000 1300 38 1.000000 0.166000 0.174000 600 42 1.000000 0.053000 0.053000 1.200000 0.027000 0.032000
1518110447807381511	200 39 0.900000 0.074000 0.067000 1300 38 1.000000 0.180000 0.189000 600 42 1.000000 0.053000 0.053000 1.200000 0.027000 0.032000
1518110448315775303	200 39 0.900000 0.074000 0.067000 1300 38 1.000000 0.161000 0.169000 600 42 1.000000 0.052000 0.052000 1.200000 0.027000 0.032000
1518110448824557720	200 39 0.900000 0.074000 0.067000 1300 38 1.000000 0.165000 0.173000 600 42 1.000000 0.053000 0.053000 1.200000 0.028000 0.033000
1518110449333160928	200 39 0.900000 0.074000 0.067000 1300 38 1.000000 0.189000 0.198000 600 42 1.000000 0.053000 0.053000 1.200000 0.028000 0.033000
1518110449841710886	200 39 0.900000 0.073000 0.066000 1300 38 1.000000 0.172000 0.180000 600 42 1.000000 0.053000 0.053000 1.200000 0.028000 0.033000
1518110450350135261	200 39 0.900000 0.074000 0.067000 1300 38 1.000000 0.172000 0.180000 600 42 1.000000 0.052000 0.052000 1.200000 0.027000 0.032000
1518110450858491678	200 39 0.900000 0.074000 0.067000 1300 38 1.000000 0.189000 0.198000 600 42 1.000000 0.053000 0.053000 1.200000 0.027000 0.032000
1518110451367333428	200 39 0.900000 0.074000 0.067000 1300 38 1.000000 0.166000 0.174000 600 42 1.000000 0.053000 0.053000 1.200000 0.028000 0.033000
1518110451876061887	200 39 0.900000 0.074000 0.067000 1300 38 1.000000 0.181000 0.190000 600 42 1.000000 0.053000 0.053000 1.200000 0.028000 0.033000
1518110452384613053	200 39 0.900000 0.075000 0.068000 1300 38 1.000000 0.181000 0.190000 600 42 1.000000 0.052000 0.052000 1.200000 0.027000 0.032000
1518110452893294637	200 39 0.900000 0.074000 0.067000 1300 38 1.000000 0.164000 0.172000 600 42 1.000000 0.053000 0.053000 1.200000 0.027000 0.032000
1518110453402186179	200 39 0.900000 0.074000 0.067000 1300 38 1.000000 0.189000 0.198000 600 42 1.000000 0.053000 0.053000 1.200000 0.027000 0.032000
1518110453910940095	200 39 0.900000 0.074000 0.067000 1300 38 1.000000 0.175000 0.183000 600 42 1.000000 0.053000 0.053000 1.200000 0.027000 0.032000
1518110454419490429	200 39 0.900000 0.074000 0.067000 1300 38 1.000000 0.159000 0.167000 600 42 1.000000 0.052000 0.052000 1.200000 0.027000 0.032000
1518110454928214220	200 39 0.900000 0.074000 0.067000 1300 38 1.000000 0.161000 0.169000 600 42 1.000000 0.052000 0.052000 1.200000 0.027000 0.032000
1518110455436710970	200 39 0.900000 0.074000 0.067000 1300 38 1.000000 0.158000 0.166000 600 42 1.000000 0.052000 0.052000 1.200000 0.027000 0.032000
1518110455945253970	200 39 0.900000 0.074000 0.067000 1300 38 1.000000 0.176000 0.184000 600 42 1.000000 0.053000 0.053000 1.200000 0.028000 0.033000
1518110456453687512	200 39 0.900000 0.074000 0.067000 1300 38 1.000000 0.180000 0.189000 600 42 1.000000 0.053000 0.053000 1.200000 0.028000 0.033000
1518110456962281596	200 38 0.900000 0.074000 0.067000 1300 38 1.000000 0.160000 0.168000 600 42 1.000000 0.053000 0.053000 1.200000 0.027000 0.032000
1518110457470812179	200 39 0.900000 0.074000 0.067000 1300 38 1.000000 0.188000 0.197000 600 42 1.000000 0.052000 0.052000 1.200000 0.028000 0.033000
1518110457979557971	200 39 0.900000 0.073000 0.066000 1300 38 1.000000 0.173000 0.181000 600 42 1.000000 0.053000 0.053000 1.200000 0.028000 0.033000
1518110458488066304	200 38 0.900000 0.074000 0.067000 1300 38 1.000000 0.168000 0.176000 600 42 1.000000 0.053000 0.053000 1.200000 0.027000 0.032000
1518110458996599554	200 38 0.900000 0.045000 0.041000 1300 38 1.000000 0.182000 0.191000 600 42 1.000000 0.053000 0.053000 1.200000 0.025000 0.030000
1518110459505038554	200 38 0.900000 0.027000 0.024000 1300 38 1.000000 0.162000 0.170000 600 42 1.000000 0.052000 0.052000 1.200000 0.024000 0.028000
1518110460013763138	200 38 0.900000 0.027000 0.024000 1300 38 1.000000 0.155000 0.162000 600 42 1.000000 0.052000 0.052000 1.200000 0.024000 0.028000
1518110460522310138	200 38 0.900000 0.027000 0.024000 1300 38 1.000000 0.152000 0.159000 600 42 1.000000 0.052000 0.052000 1.200000 0.024000 0.028000
1518110461031366388	200 38 0.900000 0.015000 0.013000 1300 38 1.000000 0.246000 0.258000 600 42 1.000000 0.053000 0.053000 1.200000 0.027000 0.032000
1518110461540117513	200 38 0.900000 0.012000 0.010000 1300 38 1.000000 0.151000 0.158000 600 42 1.000000 0.052000 0.052000 1.200000 0.023000 0.027000
