#Timestamp	CPU(0) Frequency(MHz)	CPU(0) Temperature(C)	A7 Voltage(V)	A7 Current(A)	A7 Power(W)	CPU(4) Frequency(MHz)	CPU(4) Temperature(C)	A15 Voltage(V)	A15 Current(A)	A15 Power(W)	GPU Frequency(MHz)	GPU Temperature(C)	GPU Voltage(V)	GPU Current(A)	GPU Power(W)	RAM Voltage(V)	RAM Current(A)	RAM Power(W)
1518253421870494805	1200 47 1.100000 0.068000 0.079000 1000 46 0.900000 0.572000 0.551000 600 51 1.000000 0.054000 0.054000 1.200000 0.039000 0.047000
1518253422380311972	1200 47 1.100000 0.071000 0.083000 1000 46 0.900000 0.554000 0.534000 600 51 1.000000 0.054000 0.054000 1.200000 0.038000 0.045000
1518253422888695138	1200 47 1.100000 0.071000 0.083000 1000 46 0.900000 0.564000 0.544000 600 51 1.000000 0.054000 0.054000 1.200000 0.037000 0.044000
1518253423397046430	1200 47 1.100000 0.071000 0.083000 1000 46 0.900000 0.565000 0.545000 600 51 1.000000 0.054000 0.054000 1.200000 0.039000 0.047000
1518253423961782389	1200 53 1.100000 0.184000 0.215000 1000 48 0.900000 0.874000 0.844000 600 56 1.000000 0.054000 0.054000 1.200000 0.042000 0.050000
1518253424525747347	1200 55 1.100000 0.550000 0.636000 1000 50 0.900000 2.091000 2.032000 600 58 1.000000 0.054000 0.054000 1.200000 0.037000 0.044000
1518253425085766722	1200 56 1.100000 0.551000 0.637000 1000 51 0.900000 2.104000 2.045000 600 59 1.000000 0.054000 0.054000 1.200000 0.037000 0.044000
1518253425637736430	1200 57 1.100000 0.552000 0.638000 1000 51 0.900000 2.106000 2.044000 600 60 1.000000 0.054000 0.054000 1.200000 0.037000 0.044000
1518253426193910847	1200 57 1.100000 0.552000 0.638000 1000 52 0.900000 2.108000 2.048000 600 60 1.000000 0.055000 0.055000 1.200000 0.037000 0.044000
1518253426777708972	1200 58 1.100000 0.552000 0.638000 1000 52 0.900000 2.110000 2.048000 600 61 1.000000 0.055000 0.055000 1.200000 0.037000 0.044000
1518253427349733764	1200 58 1.100000 0.552000 0.638000 1000 53 0.900000 2.104000 2.045000 600 61 1.000000 0.055000 0.055000 1.200000 0.037000 0.044000
1518253427901724681	1200 58 1.100000 0.553000 0.639000 1000 53 0.900000 2.111000 2.051000 600 62 1.000000 0.055000 0.055000 1.200000 0.037000 0.044000
1518253428449763222	1200 59 1.100000 0.553000 0.639000 1000 53 0.900000 2.107000 2.045000 600 62 1.000000 0.055000 0.055000 1.200000 0.037000 0.044000
1518253429005700639	1200 59 1.100000 0.553000 0.639000 1000 53 0.900000 2.111000 2.051000 600 62 1.000000 0.055000 0.055000 1.200000 0.037000 0.044000
1518253429573684598	1200 59 1.100000 0.554000 0.640000 1000 54 0.900000 2.115000 2.053000 600 62 1.000000 0.055000 0.055000 1.200000 0.037000 0.044000
1518253430137773264	1200 59 1.100000 0.551000 0.637000 1000 54 0.900000 2.098000 2.039000 600 63 1.000000 0.055000 0.055000 1.200000 0.039000 0.047000
1518253430705746014	1200 59 1.100000 0.554000 0.640000 1000 54 0.900000 2.116000 2.056000 600 63 1.000000 0.055000 0.055000 1.200000 0.037000 0.044000
1518253431265762556	1200 59 1.100000 0.555000 0.642000 1000 54 0.900000 2.116000 2.056000 600 63 1.000000 0.055000 0.055000 1.200000 0.037000 0.044000
1518253431813745306	1200 60 1.100000 0.554000 0.640000 1000 54 0.900000 2.116000 2.056000 600 63 1.000000 0.055000 0.055000 1.200000 0.037000 0.044000
1518253432357778973	1200 60 1.100000 0.554000 0.640000 1000 54 0.900000 2.113000 2.053000 600 63 1.000000 0.055000 0.055000 1.200000 0.037000 0.044000
1518253432908746598	1200 60 1.100000 0.554000 0.640000 1000 54 0.900000 2.111000 2.051000 600 63 1.000000 0.055000 0.055000 1.200000 0.037000 0.044000
1518253433469684973	1200 60 1.100000 0.554000 0.640000 1000 54 0.900000 2.111000 2.051000 600 63 1.000000 0.055000 0.055000 1.200000 0.037000 0.044000
1518253434029738431	1200 60 1.100000 0.555000 0.641000 1000 55 0.900000 2.122000 2.062000 600 63 1.000000 0.055000 0.055000 1.200000 0.037000 0.044000
1518253434593698015	1200 60 1.100000 0.555000 0.642000 1000 55 0.900000 2.118000 2.058000 600 63 1.000000 0.055000 0.055000 1.200000 0.037000 0.044000
1518253435161742057	1200 60 1.100000 0.555000 0.641000 1000 55 0.900000 2.115000 2.055000 600 64 1.000000 0.055000 0.055000 1.200000 0.037000 0.044000
1518253435725722640	1200 60 1.100000 0.554000 0.640000 1000 55 0.900000 2.116000 2.056000 600 64 1.000000 0.055000 0.055000 1.200000 0.037000 0.044000
1518253436289663973	1200 60 1.100000 0.554000 0.640000 1000 55 0.900000 2.116000 2.056000 600 64 1.000000 0.055000 0.055000 1.200000 0.037000 0.044000
1518253436853641015	1200 60 1.100000 0.554000 0.640000 1000 55 0.900000 2.117000 2.057000 600 64 1.000000 0.055000 0.055000 1.200000 0.037000 0.044000
1518253437413718224	1200 60 1.100000 0.554000 0.640000 1000 55 0.900000 2.116000 2.056000 600 64 1.000000 0.055000 0.055000 1.200000 0.037000 0.044000
1518253437969722265	1200 60 1.100000 0.555000 0.641000 1000 55 0.900000 2.111000 2.051000 600 64 1.000000 0.055000 0.055000 1.200000 0.037000 0.044000
1518253438521741807	1200 60 1.100000 0.555000 0.642000 1000 55 0.900000 2.111000 2.051000 600 64 1.000000 0.055000 0.055000 1.200000 0.036000 0.043000
1518253439073706474	1200 60 1.100000 0.555000 0.641000 1000 55 0.900000 2.110000 2.050000 600 64 1.000000 0.056000 0.056000 1.200000 0.037000 0.044000
1518253439633653349	1200 60 1.100000 0.555000 0.641000 1000 55 0.900000 2.110000 2.050000 600 64 1.000000 0.055000 0.055000 1.200000 0.037000 0.044000
1518253440181726516	1200 60 1.100000 0.555000 0.641000 1000 55 0.900000 2.109000 2.049000 600 64 1.000000 0.055000 0.055000 1.200000 0.037000 0.044000
1518253440749740432	1200 60 1.100000 0.555000 0.641000 1000 55 0.900000 2.109000 2.049000 600 64 1.000000 0.055000 0.055000 1.200000 0.036000 0.043000
1518253441325668057	1200 61 1.100000 0.554000 0.640000 1000 55 0.900000 2.107000 2.048000 600 64 1.000000 0.055000 0.055000 1.200000 0.036000 0.043000
1518253441869717141	1200 60 1.100000 0.554000 0.640000 1000 55 0.900000 2.111000 2.051000 600 64 1.000000 0.055000 0.055000 1.200000 0.035000 0.042000
1518253442429727307	1200 60 1.100000 0.554000 0.640000 1000 55 0.900000 2.109000 2.049000 600 64 1.000000 0.055000 0.055000 1.200000 0.034000 0.041000
1518253442989718724	1200 60 1.100000 0.554000 0.640000 1000 55 0.900000 2.112000 2.052000 600 64 1.000000 0.055000 0.055000 1.200000 0.035000 0.042000
1518253443549707349	1200 61 1.100000 0.554000 0.640000 1000 55 0.900000 2.116000 2.056000 600 64 1.000000 0.055000 0.055000 1.200000 0.034000 0.041000
1518253444109690016	1200 61 1.100000 0.554000 0.640000 1000 55 0.900000 2.112000 2.052000 600 64 1.000000 0.056000 0.056000 1.200000 0.035000 0.042000
1518253444669714933	1200 61 1.100000 0.554000 0.640000 1000 55 0.900000 2.105000 2.046000 600 64 1.000000 0.055000 0.055000 1.200000 0.035000 0.042000
1518253445221710099	1200 61 1.100000 0.554000 0.640000 1000 55 0.900000 2.093000 2.034000 600 64 1.000000 0.055000 0.055000 1.200000 0.035000 0.042000
1518253445781725808	1200 61 1.100000 0.554000 0.640000 1000 55 0.900000 2.096000 2.037000 600 64 1.000000 0.055000 0.055000 1.200000 0.035000 0.042000
1518253446341720600	1200 61 1.100000 0.554000 0.640000 1000 55 0.900000 2.094000 2.035000 600 64 1.000000 0.055000 0.055000 1.200000 0.035000 0.042000
1518253446901697850	1200 61 1.100000 0.554000 0.640000 1000 55 0.900000 2.098000 2.039000 600 64 1.000000 0.055000 0.055000 1.200000 0.035000 0.042000
1518253447453712350	1200 61 1.100000 0.554000 0.640000 1000 55 0.900000 2.099000 2.040000 600 64 1.000000 0.056000 0.056000 1.200000 0.035000 0.042000
1518253448021666725	1200 61 1.100000 0.554000 0.640000 1000 55 0.900000 2.103000 2.044000 600 64 1.000000 0.055000 0.055000 1.200000 0.035000 0.042000
1518253448577749808	1200 61 1.100000 0.554000 0.640000 1000 55 0.900000 2.103000 2.044000 600 64 1.000000 0.055000 0.055000 1.200000 0.035000 0.042000
1518253449137714850	1200 61 1.100000 0.554000 0.640000 1000 55 0.900000 2.092000 2.033000 600 64 1.000000 0.055000 0.055000 1.200000 0.035000 0.042000
1518253449697683808	1200 61 1.100000 0.554000 0.640000 1000 55 0.900000 2.096000 2.037000 600 64 1.000000 0.055000 0.055000 1.200000 0.035000 0.042000
1518253450257765517	1200 61 1.100000 0.554000 0.640000 1000 55 0.900000 2.094000 2.035000 600 64 1.000000 0.055000 0.055000 1.200000 0.035000 0.042000
1518253450813727933	1200 61 1.100000 0.554000 0.640000 1000 55 0.900000 2.096000 2.037000 600 64 1.000000 0.055000 0.055000 1.200000 0.036000 0.043000
1518253451369777142	1200 61 1.100000 0.554000 0.640000 1000 55 0.900000 2.097000 2.038000 600 64 1.000000 0.055000 0.055000 1.200000 0.035000 0.042000
1518253451925698184	1200 61 1.100000 0.554000 0.640000 1000 55 0.900000 2.092000 2.033000 600 64 1.000000 0.055000 0.055000 1.200000 0.035000 0.042000
1518253452489726725	1200 61 1.100000 0.554000 0.640000 1000 55 0.900000 2.097000 2.038000 600 64 1.000000 0.055000 0.055000 1.200000 0.035000 0.042000
1518253453049700142	1200 61 1.100000 0.554000 0.640000 1000 55 0.900000 2.101000 2.042000 600 64 1.000000 0.055000 0.055000 1.200000 0.035000 0.042000
1518253453613718267	1200 61 1.100000 0.554000 0.640000 1000 55 0.900000 2.102000 2.043000 600 64 1.000000 0.055000 0.055000 1.200000 0.035000 0.042000
1518253454177696059	1200 61 1.100000 0.554000 0.640000 1000 55 0.900000 2.097000 2.038000 600 64 1.000000 0.055000 0.055000 1.200000 0.035000 0.042000
1518253454737705726	1200 61 1.100000 0.554000 0.640000 1000 55 0.900000 2.097000 2.038000 600 64 1.000000 0.055000 0.055000 1.200000 0.035000 0.042000
1518253455293741434	1200 61 1.100000 0.554000 0.640000 1000 56 0.900000 2.114000 2.054000 600 64 1.000000 0.055000 0.055000 1.200000 0.035000 0.042000
1518253455841768267	1200 61 1.100000 0.554000 0.640000 1000 56 0.900000 2.114000 2.054000 600 64 1.000000 0.055000 0.055000 1.200000 0.036000 0.043000
1518253456406127101	1200 61 1.100000 0.554000 0.640000 1000 55 0.900000 2.119000 2.059000 600 64 1.000000 0.055000 0.055000 1.200000 0.035000 0.042000
1518253456977733226	1200 61 1.100000 0.554000 0.640000 1000 55 0.900000 2.117000 2.057000 600 64 1.000000 0.056000 0.056000 1.200000 0.035000 0.042000
1518253457537658768	1200 61 1.100000 0.554000 0.640000 1000 55 0.900000 2.123000 2.063000 600 64 1.000000 0.055000 0.055000 1.200000 0.035000 0.042000
1518253458097730684	1200 61 1.100000 0.555000 0.642000 1000 55 0.900000 2.125000 2.065000 600 64 1.000000 0.055000 0.055000 1.200000 0.035000 0.042000
1518253458637732059	1200 61 1.100000 0.555000 0.641000 1000 55 0.900000 2.126000 2.066000 600 64 1.000000 0.055000 0.055000 1.200000 0.035000 0.042000
1518253459197749143	1200 61 1.100000 0.555000 0.641000 1000 55 0.900000 2.123000 2.063000 600 64 1.000000 0.055000 0.055000 1.200000 0.036000 0.043000
1518253459757687560	1200 61 1.100000 0.556000 0.642000 1000 56 0.900000 2.119000 2.059000 600 64 1.000000 0.055000 0.055000 1.200000 0.036000 0.043000
1518253460317712310	1200 61 1.100000 0.555000 0.642000 1000 56 0.900000 2.117000 2.057000 600 64 1.000000 0.055000 0.055000 1.200000 0.036000 0.043000
1518253460869723143	1200 61 1.100000 0.556000 0.643000 1000 56 0.900000 2.120000 2.060000 600 64 1.000000 0.056000 0.056000 1.200000 0.036000 0.043000
1518253461421687768	1200 61 1.100000 0.556000 0.643000 1000 56 0.900000 2.111000 2.051000 600 64 1.000000 0.055000 0.055000 1.200000 0.036000 0.043000
1518253461969724935	1200 61 1.100000 0.555000 0.642000 1000 56 0.900000 2.116000 2.056000 600 64 1.000000 0.055000 0.055000 1.200000 0.035000 0.042000
1518253462525798227	1200 61 1.100000 0.556000 0.643000 1000 56 0.900000 2.126000 2.066000 600 64 1.000000 0.056000 0.056000 1.200000 0.035000 0.042000
1518253463081735768	1200 61 1.100000 0.556000 0.643000 1000 56 0.900000 2.127000 2.067000 600 64 1.000000 0.055000 0.055000 1.200000 0.035000 0.042000
1518253463633739477	1200 61 1.100000 0.555000 0.642000 1000 55 0.900000 2.126000 2.066000 600 64 1.000000 0.056000 0.056000 1.200000 0.035000 0.042000
1518253464197708185	1200 61 1.100000 0.556000 0.643000 1000 56 0.900000 2.125000 2.065000 600 64 1.000000 0.055000 0.055000 1.200000 0.035000 0.042000
1518253464757734268	1200 61 1.100000 0.556000 0.643000 1000 56 0.900000 2.127000 2.067000 600 64 1.000000 0.056000 0.056000 1.200000 0.035000 0.042000
1518253465313661935	1200 61 1.100000 0.556000 0.643000 1000 56 0.900000 2.127000 2.067000 600 64 1.000000 0.056000 0.056000 1.200000 0.036000 0.043000
1518253465877679185	1200 61 1.100000 0.556000 0.643000 1000 56 0.900000 2.121000 2.061000 600 64 1.000000 0.055000 0.055000 1.200000 0.035000 0.042000
1518253466437680185	1200 61 1.100000 0.556000 0.643000 1000 56 0.900000 2.110000 2.050000 600 64 1.000000 0.056000 0.056000 1.200000 0.035000 0.042000
1518253466997670769	1200 61 1.100000 0.556000 0.643000 1000 56 0.900000 2.103000 2.044000 600 64 1.000000 0.055000 0.055000 1.200000 0.036000 0.043000
1518253467553672185	1200 61 1.100000 0.556000 0.643000 1000 56 0.900000 2.113000 2.053000 600 64 1.000000 0.056000 0.056000 1.200000 0.035000 0.042000
1518253468113712352	1200 61 1.100000 0.556000 0.642000 1000 56 0.900000 2.113000 2.053000 600 64 1.000000 0.056000 0.056000 1.200000 0.035000 0.042000
1518253468657654519	1200 61 1.100000 0.556000 0.642000 1000 56 0.900000 2.113000 2.053000 600 64 1.000000 0.056000 0.056000 1.200000 0.035000 0.042000
1518253469209674311	1200 61 1.100000 0.556000 0.642000 1000 56 0.900000 2.114000 2.054000 600 64 1.000000 0.056000 0.056000 1.200000 0.035000 0.042000
1518253469761728852	1200 61 1.100000 0.556000 0.642000 1000 56 0.900000 2.114000 2.054000 600 64 1.000000 0.055000 0.055000 1.200000 0.035000 0.042000
1518253470317687061	1200 61 1.100000 0.556000 0.642000 1000 56 0.900000 2.112000 2.052000 600 64 1.000000 0.055000 0.055000 1.200000 0.035000 0.042000
1518253470881684436	1200 61 1.100000 0.556000 0.642000 1000 56 0.900000 2.112000 2.052000 600 64 1.000000 0.055000 0.055000 1.200000 0.035000 0.042000
1518253471449693853	1200 61 1.100000 0.556000 0.642000 1000 56 0.900000 2.113000 2.053000 600 64 1.000000 0.056000 0.056000 1.200000 0.035000 0.042000
1518253472005673769	1200 61 1.100000 0.556000 0.642000 1000 56 0.900000 2.113000 2.053000 600 64 1.000000 0.055000 0.055000 1.200000 0.036000 0.043000
1518253472557649936	1200 61 1.100000 0.556000 0.642000 1000 56 0.900000 2.112000 2.052000 600 64 1.000000 0.056000 0.056000 1.200000 0.035000 0.042000
1518253473109713103	1200 61 1.100000 0.556000 0.642000 1000 56 0.900000 2.107000 2.048000 600 64 1.000000 0.055000 0.055000 1.200000 0.035000 0.042000
1518253473669673395	1200 61 1.100000 0.556000 0.642000 1000 56 0.900000 2.108000 2.048000 600 65 1.000000 0.055000 0.055000 1.200000 0.035000 0.042000
1518253474229692311	1200 61 1.100000 0.556000 0.642000 1000 56 0.900000 2.108000 2.048000 600 64 1.000000 0.056000 0.056000 1.200000 0.035000 0.042000
1518253474793717728	1200 61 1.100000 0.556000 0.642000 1000 56 0.900000 2.101000 2.042000 600 65 1.000000 0.055000 0.055000 1.200000 0.035000 0.042000
1518253475345702270	1200 61 1.100000 0.556000 0.642000 1000 56 0.900000 2.100000 2.041000 600 64 1.000000 0.055000 0.055000 1.200000 0.035000 0.042000
1518253475905720353	1200 61 1.100000 0.556000 0.642000 1000 56 0.900000 2.100000 2.041000 600 64 1.000000 0.056000 0.056000 1.200000 0.036000 0.043000
1518253476473703478	1200 61 1.100000 0.556000 0.642000 1000 56 0.900000 2.094000 2.035000 600 64 1.000000 0.055000 0.055000 1.200000 0.036000 0.043000
1518253477033715103	1200 61 1.100000 0.556000 0.642000 1000 56 0.900000 2.092000 2.033000 600 64 1.000000 0.055000 0.055000 1.200000 0.035000 0.042000
1518253477593704395	1200 61 1.100000 0.556000 0.642000 1000 56 0.900000 2.095000 2.036000 600 64 1.000000 0.055000 0.055000 1.200000 0.035000 0.042000
1518253478153715103	1200 61 1.100000 0.556000 0.643000 1000 56 0.900000 2.097000 2.038000 600 64 1.000000 0.056000 0.056000 1.200000 0.036000 0.043000
1518253478701703562	1200 61 1.100000 0.556000 0.643000 1000 56 0.900000 2.093000 2.034000 600 64 1.000000 0.055000 0.055000 1.200000 0.035000 0.042000
1518253479265687937	1200 61 1.100000 0.556000 0.642000 1000 56 0.900000 2.091000 2.032000 600 64 1.000000 0.055000 0.055000 1.200000 0.036000 0.043000
1518253479817708854	1200 61 1.100000 0.556000 0.642000 1000 56 0.900000 2.090000 2.031000 600 64 1.000000 0.055000 0.055000 1.200000 0.035000 0.042000
1518253480365696187	1200 61 1.100000 0.556000 0.642000 1000 56 0.900000 2.091000 2.032000 600 64 1.000000 0.055000 0.055000 1.200000 0.036000 0.043000
1518253480929723562	1200 61 1.100000 0.556000 0.642000 1000 56 0.900000 2.094000 2.035000 600 64 1.000000 0.056000 0.056000 1.200000 0.036000 0.043000
1518253481493689270	1200 61 1.100000 0.556000 0.642000 1000 56 0.900000 2.091000 2.032000 600 64 1.000000 0.055000 0.055000 1.200000 0.036000 0.043000
1518253482049735812	1200 61 1.100000 0.556000 0.642000 1000 56 0.900000 2.099000 2.040000 600 64 1.000000 0.055000 0.055000 1.200000 0.036000 0.043000
1518253482601727021	1200 61 1.100000 0.556000 0.642000 1000 56 0.900000 2.100000 2.041000 600 64 1.000000 0.055000 0.055000 1.200000 0.036000 0.043000
1518253483165685729	1200 61 1.100000 0.556000 0.643000 1000 56 0.900000 2.094000 2.035000 600 64 1.000000 0.055000 0.055000 1.200000 0.036000 0.043000
1518253483729789646	1200 61 1.100000 0.556000 0.642000 1000 56 0.900000 2.094000 2.035000 600 64 1.000000 0.055000 0.055000 1.200000 0.036000 0.043000
1518253484285708187	1200 61 1.100000 0.556000 0.642000 1000 56 0.900000 2.096000 2.037000 600 64 1.000000 0.055000 0.055000 1.200000 0.036000 0.043000
1518253484845717813	1200 61 1.100000 0.556000 0.642000 1000 56 0.900000 2.093000 2.034000 600 64 1.000000 0.055000 0.055000 1.200000 0.036000 0.043000
1518253485409784396	1200 61 1.100000 0.556000 0.642000 1000 56 0.900000 2.089000 2.030000 600 64 1.000000 0.056000 0.056000 1.200000 0.036000 0.043000
1518253485961712354	1200 61 1.100000 0.556000 0.642000 1000 56 0.900000 2.090000 2.031000 600 65 1.000000 0.055000 0.055000 1.200000 0.036000 0.043000
1518253486517701354	1200 61 1.100000 0.556000 0.643000 1000 56 0.900000 2.106000 2.047000 600 65 1.000000 0.055000 0.055000 1.200000 0.036000 0.043000
1518253487069721563	1200 61 1.100000 0.556000 0.642000 1000 56 0.900000 2.127000 2.067000 600 65 1.000000 0.055000 0.055000 1.200000 0.036000 0.043000
1518253487621701813	1200 61 1.100000 0.556000 0.643000 1000 56 0.900000 2.128000 2.068000 600 65 1.000000 0.055000 0.055000 1.200000 0.036000 0.043000
1518253488173701646	1200 61 1.100000 0.556000 0.643000 1000 56 0.900000 2.128000 2.068000 600 65 1.000000 0.056000 0.056000 1.200000 0.036000 0.043000
1518253488737696230	1200 61 1.100000 0.555000 0.641000 1000 56 0.900000 2.122000 2.062000 600 65 1.000000 0.055000 0.055000 1.200000 0.036000 0.043000
1518253489285720563	1200 61 1.100000 0.556000 0.642000 1000 56 0.900000 2.116000 2.056000 600 65 1.000000 0.056000 0.056000 1.200000 0.036000 0.043000
1518253489841682438	1200 61 1.100000 0.556000 0.642000 1000 56 0.900000 2.118000 2.058000 600 65 1.000000 0.056000 0.056000 1.200000 0.036000 0.043000
1518253490413716063	1200 61 1.100000 0.556000 0.642000 1000 56 0.900000 2.123000 2.063000 600 65 1.000000 0.055000 0.055000 1.200000 0.036000 0.043000
1518253490977667688	1200 61 1.100000 0.556000 0.642000 1000 56 0.900000 2.117000 2.057000 600 65 1.000000 0.055000 0.055000 1.200000 0.036000 0.043000
1518253491529718938	1200 61 1.100000 0.556000 0.642000 1000 56 0.900000 2.116000 2.056000 600 65 1.000000 0.055000 0.055000 1.200000 0.036000 0.043000
1518253492081731855	1200 61 1.100000 0.556000 0.642000 1000 56 0.900000 2.128000 2.068000 600 65 1.000000 0.056000 0.056000 1.200000 0.036000 0.043000
1518253492641734688	1200 61 1.100000 0.556000 0.642000 1000 56 0.900000 2.128000 2.068000 600 65 1.000000 0.056000 0.056000 1.200000 0.035000 0.042000
1518253493217694564	1200 61 1.100000 0.559000 0.646000 1000 56 0.900000 2.129000 2.069000 600 65 1.000000 0.055000 0.055000 1.200000 0.035000 0.042000
1518253493781646397	1200 61 1.100000 0.558000 0.645000 1000 56 0.900000 2.128000 2.068000 600 65 1.000000 0.056000 0.056000 1.200000 0.034000 0.041000
1518253494345712647	1200 61 1.100000 0.558000 0.645000 1000 56 0.900000 2.127000 2.067000 600 65 1.000000 0.056000 0.056000 1.200000 0.035000 0.042000
1518253494905682730	1200 61 1.100000 0.558000 0.645000 1000 56 0.900000 2.121000 2.061000 600 65 1.000000 0.055000 0.055000 1.200000 0.035000 0.042000
1518253495453772605	1200 61 1.100000 0.558000 0.645000 1000 56 0.900000 2.122000 2.062000 600 65 1.000000 0.056000 0.056000 1.200000 0.035000 0.042000
1518253496017690772	1200 61 1.100000 0.558000 0.645000 1000 56 0.900000 2.123000 2.063000 600 65 1.000000 0.055000 0.055000 1.200000 0.034000 0.041000
1518253496581704397	1200 61 1.100000 0.558000 0.645000 1000 56 0.900000 2.119000 2.059000 600 65 1.000000 0.056000 0.056000 1.200000 0.034000 0.041000
1518253497145685689	1200 61 1.100000 0.559000 0.646000 1000 56 0.900000 2.118000 2.058000 600 65 1.000000 0.055000 0.055000 1.200000 0.034000 0.041000
1518253497713676397	1200 61 1.100000 0.558000 0.645000 1000 56 0.900000 2.116000 2.056000 600 64 1.000000 0.056000 0.056000 1.200000 0.034000 0.041000
1518253498269708856	1200 61 1.100000 0.558000 0.645000 1000 56 0.900000 2.115000 2.055000 600 65 1.000000 0.055000 0.055000 1.200000 0.034000 0.041000
1518253498837665273	1200 61 1.100000 0.558000 0.645000 1000 56 0.900000 2.114000 2.054000 600 65 1.000000 0.055000 0.055000 1.200000 0.034000 0.041000
1518253499401711023	1200 61 1.100000 0.558000 0.645000 1000 56 0.900000 2.108000 2.048000 600 65 1.000000 0.056000 0.056000 1.200000 0.035000 0.042000
1518253499973678606	1200 61 1.100000 0.558000 0.645000 1000 56 0.900000 2.105000 2.046000 600 65 1.000000 0.055000 0.055000 1.200000 0.034000 0.041000
1518253500533690773	1200 61 1.100000 0.559000 0.646000 1000 56 0.900000 2.116000 2.056000 600 65 1.000000 0.055000 0.055000 1.200000 0.033000 0.039000
1518253501085691564	1200 61 1.100000 0.558000 0.645000 1000 56 0.900000 2.115000 2.055000 600 65 1.000000 0.055000 0.055000 1.200000 0.034000 0.041000
1518253501653688773	1200 61 1.100000 0.558000 0.645000 1000 56 0.900000 2.116000 2.056000 600 65 1.000000 0.055000 0.055000 1.200000 0.034000 0.041000
1518253502217666106	1200 61 1.100000 0.558000 0.645000 1000 56 0.900000 2.116000 2.056000 600 65 1.000000 0.056000 0.056000 1.200000 0.034000 0.041000
1518253502785688481	1200 61 1.100000 0.558000 0.645000 1000 56 0.900000 2.115000 2.055000 600 65 1.000000 0.055000 0.055000 1.200000 0.034000 0.041000
1518253503341701815	1200 61 1.100000 0.558000 0.645000 1000 56 0.900000 2.115000 2.055000 600 65 1.000000 0.055000 0.055000 1.200000 0.034000 0.041000
1518253503901692481	1200 61 1.100000 0.558000 0.645000 1000 56 0.900000 2.109000 2.049000 600 65 1.000000 0.055000 0.055000 1.200000 0.034000 0.041000
1518253504449654857	1200 61 1.100000 0.558000 0.645000 1000 56 0.900000 2.109000 2.049000 600 65 1.000000 0.055000 0.055000 1.200000 0.034000 0.041000
1518253505005656732	1200 61 1.100000 0.558000 0.645000 1000 56 0.900000 2.115000 2.055000 600 65 1.000000 0.056000 0.056000 1.200000 0.034000 0.041000
1518253505565712273	1200 61 1.100000 0.558000 0.645000 1000 56 0.900000 2.115000 2.055000 600 65 1.000000 0.056000 0.056000 1.200000 0.034000 0.041000
1518253506113710982	1200 61 1.100000 0.559000 0.646000 1000 56 0.900000 2.112000 2.052000 600 65 1.000000 0.055000 0.055000 1.200000 0.034000 0.041000
1518253506673689940	1200 61 1.100000 0.558000 0.645000 1000 56 0.900000 2.112000 2.052000 600 65 1.000000 0.055000 0.055000 1.200000 0.034000 0.041000
1518253507225723107	1200 61 1.100000 0.558000 0.645000 1000 56 0.900000 2.111000 2.051000 600 65 1.000000 0.055000 0.055000 1.200000 0.034000 0.041000
1518253507781733982	1200 61 1.100000 0.558000 0.645000 1000 56 0.900000 2.102000 2.043000 600 65 1.000000 0.056000 0.056000 1.200000 0.034000 0.041000
1518253508345696524	1200 61 1.100000 0.558000 0.645000 1000 56 0.900000 2.095000 2.036000 600 65 1.000000 0.056000 0.056000 1.200000 0.034000 0.041000
1518253508889729107	1200 61 1.100000 0.558000 0.645000 1000 56 0.900000 2.095000 2.036000 600 65 1.000000 0.056000 0.056000 1.200000 0.035000 0.042000
1518253509461668315	1200 61 1.100000 0.558000 0.645000 1000 56 0.900000 2.093000 2.034000 600 65 1.000000 0.056000 0.056000 1.200000 0.034000 0.041000
1518253510021703482	1200 61 1.100000 0.558000 0.645000 1000 56 0.900000 2.093000 2.034000 600 65 1.000000 0.056000 0.056000 1.200000 0.034000 0.041000
1518253510577723691	1200 61 1.100000 0.555000 0.641000 1000 56 0.900000 2.093000 2.034000 600 64 1.000000 0.055000 0.055000 1.200000 0.037000 0.044000
1518253511133725024	1200 61 1.100000 0.555000 0.641000 1000 56 0.900000 2.094000 2.035000 600 65 1.000000 0.055000 0.055000 1.200000 0.037000 0.044000
1518253511701711399	1200 61 1.100000 0.555000 0.641000 1000 56 0.900000 2.090000 2.031000 600 65 1.000000 0.055000 0.055000 1.200000 0.037000 0.044000
1518253512269712732	1200 61 1.100000 0.555000 0.641000 1000 56 0.900000 2.093000 2.034000 600 65 1.000000 0.056000 0.056000 1.200000 0.038000 0.045000
1518253512829713358	1200 61 1.100000 0.555000 0.641000 1000 56 0.900000 2.093000 2.034000 600 65 1.000000 0.056000 0.056000 1.200000 0.037000 0.044000
1518253513393708024	1200 61 1.100000 0.555000 0.641000 1000 56 0.900000 2.090000 2.031000 600 64 1.000000 0.055000 0.055000 1.200000 0.037000 0.044000
1518253513953701941	1200 61 1.100000 0.555000 0.641000 1000 56 0.900000 2.088000 2.029000 600 65 1.000000 0.055000 0.055000 1.200000 0.037000 0.044000
1518253514525670024	1200 61 1.100000 0.555000 0.641000 1000 56 0.900000 2.102000 2.043000 600 65 1.000000 0.055000 0.055000 1.200000 0.037000 0.044000
1518253515085702858	1200 61 1.100000 0.555000 0.641000 1000 56 0.900000 2.096000 2.037000 600 65 1.000000 0.055000 0.055000 1.200000 0.038000 0.045000
1518253515637704525	1200 61 1.100000 0.554000 0.640000 1000 56 0.900000 2.094000 2.035000 600 65 1.000000 0.056000 0.056000 1.200000 0.037000 0.044000
1518253516193706275	1200 61 1.100000 0.555000 0.641000 1000 56 0.900000 2.096000 2.037000 600 65 1.000000 0.056000 0.056000 1.200000 0.037000 0.044000
1518253516753703025	1200 61 1.100000 0.554000 0.640000 1000 56 0.900000 2.105000 2.046000 600 65 1.000000 0.055000 0.055000 1.200000 0.037000 0.044000
1518253517309750233	1200 61 1.100000 0.555000 0.641000 1000 56 0.900000 2.106000 2.047000 600 65 1.000000 0.055000 0.055000 1.200000 0.037000 0.044000
1518253517873732858	1200 61 1.100000 0.555000 0.641000 1000 56 0.900000 2.114000 2.054000 600 65 1.000000 0.055000 0.055000 1.200000 0.037000 0.044000
1518253518433695900	1200 61 1.100000 0.554000 0.640000 1000 56 0.900000 2.108000 2.048000 600 65 1.000000 0.055000 0.055000 1.200000 0.037000 0.044000
1518253518993707942	1200 61 1.100000 0.555000 0.641000 1000 56 0.900000 2.112000 2.052000 600 65 1.000000 0.055000 0.055000 1.200000 0.037000 0.044000
1518253519553714942	1200 61 1.100000 0.555000 0.641000 1000 56 0.900000 2.112000 2.052000 600 65 1.000000 0.055000 0.055000 1.200000 0.037000 0.044000
1518253520109689567	1200 61 1.100000 0.555000 0.641000 1000 56 0.900000 2.111000 2.051000 600 65 1.000000 0.056000 0.056000 1.200000 0.037000 0.044000
1518253520657740317	1200 61 1.100000 0.554000 0.640000 1000 56 0.900000 2.104000 2.045000 600 65 1.000000 0.055000 0.055000 1.200000 0.037000 0.044000
1518253521209733859	1200 61 1.100000 0.554000 0.640000 1000 56 0.900000 2.103000 2.044000 600 65 1.000000 0.055000 0.055000 1.200000 0.038000 0.045000
1518253521761701317	1200 61 1.100000 0.555000 0.641000 1000 56 0.900000 2.102000 2.043000 600 65 1.000000 0.056000 0.056000 1.200000 0.037000 0.044000
1518253522325689817	1200 61 1.100000 0.555000 0.641000 1000 56 0.900000 2.107000 2.048000 600 65 1.000000 0.055000 0.055000 1.200000 0.037000 0.044000
1518253522889704734	1200 61 1.100000 0.555000 0.641000 1000 56 0.900000 2.109000 2.049000 600 65 1.000000 0.055000 0.055000 1.200000 0.037000 0.044000
1518253523449666900	1200 61 1.100000 0.555000 0.641000 1000 56 0.900000 2.111000 2.051000 600 65 1.000000 0.056000 0.056000 1.200000 0.037000 0.044000
1518253524021695234	1200 61 1.100000 0.555000 0.641000 1000 56 0.900000 2.110000 2.050000 600 65 1.000000 0.056000 0.056000 1.200000 0.037000 0.044000
1518253524573652984	1200 61 1.100000 0.555000 0.641000 1000 56 0.900000 2.110000 2.050000 600 65 1.000000 0.056000 0.056000 1.200000 0.037000 0.044000
1518253525125712859	1200 61 1.100000 0.555000 0.641000 1000 56 0.900000 2.111000 2.051000 600 65 1.000000 0.056000 0.056000 1.200000 0.038000 0.045000
1518253525677659776	1200 61 1.100000 0.554000 0.640000 1000 56 0.900000 2.105000 2.046000 600 65 1.000000 0.055000 0.055000 1.200000 0.038000 0.045000
1518253526237661317	1200 61 1.100000 0.554000 0.640000 1000 56 0.900000 2.105000 2.046000 600 65 1.000000 0.056000 0.056000 1.200000 0.037000 0.044000
1518253526801685443	1200 61 1.100000 0.555000 0.641000 1000 56 0.900000 2.097000 2.038000 600 65 1.000000 0.056000 0.056000 1.200000 0.037000 0.044000
1518253527369665734	1200 61 1.100000 0.555000 0.641000 1000 56 0.900000 2.088000 2.029000 600 65 1.000000 0.056000 0.056000 1.200000 0.037000 0.044000
1518253527933722443	1200 61 1.100000 0.555000 0.641000 1000 56 0.900000 2.083000 2.024000 600 65 1.000000 0.056000 0.056000 1.200000 0.034000 0.041000
1518253528493715526	1200 61 1.100000 0.555000 0.641000 1000 56 0.900000 2.101000 2.042000 600 65 1.000000 0.055000 0.055000 1.200000 0.034000 0.041000
1518253529041763651	1200 61 1.100000 0.555000 0.641000 1000 56 0.900000 2.099000 2.040000 600 65 1.000000 0.055000 0.055000 1.200000 0.034000 0.041000
1518253529605647735	1200 61 1.100000 0.555000 0.641000 1000 56 0.900000 2.101000 2.042000 600 65 1.000000 0.056000 0.056000 1.200000 0.034000 0.041000
1518253530169646276	1200 61 1.100000 0.555000 0.641000 1000 56 0.900000 2.100000 2.041000 600 65 1.000000 0.055000 0.055000 1.200000 0.034000 0.041000
1518253530733684485	1200 61 1.100000 0.555000 0.641000 1000 56 0.900000 2.100000 2.041000 600 65 1.000000 0.056000 0.056000 1.200000 0.035000 0.042000
1518253531297675526	1200 61 1.100000 0.555000 0.641000 1000 56 0.900000 2.098000 2.039000 600 65 1.000000 0.056000 0.056000 1.200000 0.034000 0.041000
1518253531849705735	1200 61 1.100000 0.555000 0.641000 1000 56 0.900000 2.099000 2.040000 600 65 1.000000 0.056000 0.056000 1.200000 0.034000 0.041000
1518253532413686985	1200 61 1.100000 0.554000 0.640000 1000 56 0.900000 2.095000 2.036000 600 65 1.000000 0.055000 0.055000 1.200000 0.034000 0.041000
1518253532965703027	1200 61 1.100000 0.555000 0.641000 1000 56 0.900000 2.098000 2.039000 600 65 1.000000 0.056000 0.056000 1.200000 0.034000 0.041000
1518253533529703902	1200 61 1.100000 0.555000 0.641000 1000 56 0.900000 2.100000 2.041000 600 65 1.000000 0.056000 0.056000 1.200000 0.034000 0.041000
1518253534097705318	1200 61 1.100000 0.555000 0.641000 1000 56 0.900000 2.100000 2.041000 600 65 1.000000 0.056000 0.056000 1.200000 0.034000 0.041000
1518253534661688360	1200 61 1.100000 0.554000 0.640000 1000 56 0.900000 2.101000 2.042000 600 65 1.000000 0.055000 0.055000 1.200000 0.034000 0.041000
1518253535217685610	1200 61 1.100000 0.555000 0.641000 1000 56 0.900000 2.100000 2.041000 600 65 1.000000 0.055000 0.055000 1.200000 0.034000 0.041000
1518253535769684277	1200 61 1.100000 0.554000 0.640000 1000 56 0.900000 2.099000 2.040000 600 65 1.000000 0.055000 0.055000 1.200000 0.034000 0.041000
1518253536332629110	1200 61 1.100000 0.554000 0.640000 1000 56 0.900000 2.099000 2.040000 600 65 1.000000 0.056000 0.056000 1.200000 0.034000 0.041000
1518253536905688402	1200 61 1.100000 0.555000 0.641000 1000 56 0.900000 2.107000 2.048000 600 65 1.000000 0.056000 0.056000 1.200000 0.034000 0.041000
1518253537469696819	1200 61 1.100000 0.555000 0.641000 1000 56 0.900000 2.109000 2.049000 600 65 1.000000 0.056000 0.056000 1.200000 0.034000 0.041000
1518253538033708902	1200 61 1.100000 0.555000 0.641000 1000 56 0.900000 2.109000 2.049000 600 65 1.000000 0.056000 0.056000 1.200000 0.034000 0.041000
1518253538597783944	1200 61 1.100000 0.554000 0.640000 1000 56 0.900000 1.989000 1.933000 600 65 1.000000 0.055000 0.055000 1.200000 0.035000 0.042000
1518253539157669486	1200 61 1.100000 0.555000 0.641000 1000 56 0.900000 2.110000 2.050000 600 65 1.000000 0.056000 0.056000 1.200000 0.034000 0.041000
1518253539725731569	1200 61 1.100000 0.555000 0.641000 1000 56 0.900000 2.109000 2.049000 600 65 1.000000 0.056000 0.056000 1.200000 0.034000 0.041000
1518253540285690111	1200 61 1.100000 0.555000 0.641000 1000 56 0.900000 2.108000 2.048000 600 65 1.000000 0.056000 0.056000 1.200000 0.034000 0.041000
1518253540841764278	1200 61 1.100000 0.555000 0.641000 1000 56 0.900000 2.107000 2.048000 600 65 1.000000 0.056000 0.056000 1.200000 0.034000 0.041000
1518253541417700444	1200 61 1.100000 0.555000 0.641000 1000 56 0.900000 2.108000 2.048000 600 65 1.000000 0.055000 0.055000 1.200000 0.034000 0.041000
1518253541985704986	1200 61 1.100000 0.555000 0.641000 1000 56 0.900000 2.108000 2.048000 600 65 1.000000 0.055000 0.055000 1.200000 0.034000 0.041000
1518253542553697236	1200 61 1.100000 0.555000 0.641000 1000 56 0.900000 2.107000 2.048000 600 65 1.000000 0.056000 0.056000 1.200000 0.034000 0.041000
1518253543125745236	1200 61 1.100000 0.555000 0.641000 1000 56 0.900000 2.099000 2.040000 600 65 1.000000 0.055000 0.055000 1.200000 0.034000 0.041000
1518253543689753195	1200 61 1.100000 0.555000 0.641000 1000 56 0.900000 2.099000 2.040000 600 65 1.000000 0.056000 0.056000 1.200000 0.034000 0.041000
1518253544257739236	1200 61 1.100000 0.555000 0.641000 1000 56 0.900000 2.101000 2.042000 600 65 1.000000 0.056000 0.056000 1.200000 0.034000 0.041000
1518253544813708903	1200 61 1.100000 0.555000 0.641000 1000 56 0.900000 2.102000 2.043000 600 65 1.000000 0.055000 0.055000 1.200000 0.034000 0.041000
1518253545377698070	1200 61 1.100000 0.556000 0.642000 1000 56 0.900000 2.103000 2.044000 600 65 1.000000 0.056000 0.056000 1.200000 0.035000 0.042000
1518253545941705945	1200 61 1.100000 0.555000 0.641000 1000 56 0.900000 2.100000 2.041000 600 65 1.000000 0.055000 0.055000 1.200000 0.035000 0.042000
1518253546513697195	1200 61 1.100000 0.555000 0.641000 1000 56 0.900000 2.099000 2.038000 600 65 1.000000 0.056000 0.056000 1.200000 0.035000 0.042000
1518253547089700112	1200 61 1.100000 0.555000 0.641000 1000 56 0.900000 2.100000 2.039000 600 65 1.000000 0.056000 0.056000 1.200000 0.035000 0.042000
1518253547649704903	1200 61 1.100000 0.555000 0.641000 1000 56 0.900000 2.114000 2.054000 600 65 1.000000 0.055000 0.055000 1.200000 0.035000 0.042000
1518253548213738028	1200 61 1.100000 0.555000 0.641000 1000 56 0.900000 2.117000 2.057000 600 65 1.000000 0.055000 0.055000 1.200000 0.035000 0.042000
1518253548781826737	1200 61 1.100000 0.555000 0.641000 1000 56 0.900000 2.120000 2.060000 600 65 1.000000 0.056000 0.056000 1.200000 0.035000 0.042000
1518253549353778654	1200 61 1.100000 0.556000 0.642000 1000 56 0.900000 2.129000 2.069000 600 65 1.000000 0.056000 0.056000 1.200000 0.035000 0.042000
1518253549913714695	1200 61 1.100000 0.556000 0.642000 1000 56 0.900000 2.123000 2.063000 600 65 1.000000 0.055000 0.055000 1.200000 0.035000 0.042000
1518253550473718445	1200 61 1.100000 0.556000 0.642000 1000 56 0.900000 2.121000 2.061000 600 65 1.000000 0.056000 0.056000 1.200000 0.035000 0.042000
1518253551025739112	1200 61 1.100000 0.555000 0.641000 1000 56 0.900000 2.126000 2.066000 600 65 1.000000 0.056000 0.056000 1.200000 0.035000 0.042000
1518253551585727570	1200 61 1.100000 0.555000 0.641000 1000 56 0.900000 2.124000 2.064000 600 65 1.000000 0.056000 0.056000 1.200000 0.035000 0.042000
1518253552145721029	1200 61 1.100000 0.556000 0.642000 1000 56 0.900000 2.126000 2.066000 600 65 1.000000 0.055000 0.055000 1.200000 0.035000 0.042000
1518253552689755571	1200 61 1.100000 0.555000 0.641000 1000 56 0.900000 2.122000 2.062000 600 65 1.000000 0.056000 0.056000 1.200000 0.034000 0.041000
1518253553253705612	1200 61 1.100000 0.555000 0.641000 1000 56 0.900000 2.121000 2.061000 600 65 1.000000 0.055000 0.055000 1.200000 0.035000 0.042000
1518253553809734571	1200 61 1.100000 0.556000 0.642000 1000 56 0.900000 2.131000 2.071000 600 65 1.000000 0.056000 0.056000 1.200000 0.035000 0.042000
1518253554377732904	1200 61 1.100000 0.556000 0.642000 1000 56 0.900000 2.128000 2.068000 600 65 1.000000 0.055000 0.055000 1.200000 0.035000 0.042000
1518253554949720696	1200 61 1.100000 0.555000 0.641000 1000 56 0.900000 2.128000 2.068000 600 65 1.000000 0.056000 0.056000 1.200000 0.034000 0.041000
1518253555501692988	1200 61 1.100000 0.556000 0.642000 1000 56 0.900000 2.121000 2.061000 600 65 1.000000 0.056000 0.056000 1.200000 0.034000 0.041000
1518253556069665946	1200 61 1.100000 0.556000 0.642000 1000 56 0.900000 2.121000 2.061000 600 65 1.000000 0.056000 0.056000 1.200000 0.035000 0.042000
1518253556617723654	1200 61 1.100000 0.555000 0.641000 1000 56 0.900000 2.119000 2.059000 600 65 1.000000 0.056000 0.056000 1.200000 0.035000 0.042000
1518253557181711154	1200 61 1.100000 0.556000 0.642000 1000 56 0.900000 2.123000 2.063000 600 65 1.000000 0.056000 0.056000 1.200000 0.035000 0.042000
1518253557737715571	1200 61 1.100000 0.556000 0.642000 1000 56 0.900000 2.118000 2.058000 600 65 1.000000 0.056000 0.056000 1.200000 0.035000 0.042000
1518253558297735655	1200 61 1.100000 0.556000 0.642000 1000 56 0.900000 2.128000 2.068000 600 65 1.000000 0.056000 0.056000 1.200000 0.035000 0.042000
1518253558861713196	1200 61 1.100000 0.555000 0.641000 1000 56 0.900000 2.128000 2.068000 600 65 1.000000 0.055000 0.055000 1.200000 0.035000 0.042000
1518253559425699780	1200 61 1.100000 0.556000 0.642000 1000 56 0.900000 2.129000 2.069000 600 65 1.000000 0.056000 0.056000 1.200000 0.035000 0.042000
1518253559981674946	1200 61 1.100000 0.556000 0.642000 1000 56 0.900000 2.122000 2.062000 600 65 1.000000 0.055000 0.055000 1.200000 0.035000 0.042000
1518253560533695405	1200 61 1.100000 0.556000 0.642000 1000 56 0.900000 2.125000 2.065000 600 65 1.000000 0.055000 0.055000 1.200000 0.035000 0.042000
1518253561081738322	1200 61 1.100000 0.556000 0.642000 1000 56 0.900000 2.117000 2.057000 600 65 1.000000 0.056000 0.056000 1.200000 0.036000 0.043000
1518253561649729072	1200 61 1.100000 0.555000 0.641000 1000 56 0.900000 2.118000 2.058000 600 65 1.000000 0.056000 0.056000 1.200000 0.035000 0.042000
1518253562209735738	1200 61 1.100000 0.555000 0.641000 1000 56 0.900000 2.116000 2.056000 600 65 1.000000 0.056000 0.056000 1.200000 0.035000 0.042000
1518253562757682988	1200 61 1.100000 0.555000 0.641000 1000 56 0.900000 2.124000 2.064000 600 65 1.000000 0.056000 0.056000 1.200000 0.035000 0.042000
1518253563305710947	1200 61 1.100000 0.554000 0.640000 1000 56 0.900000 2.130000 2.070000 600 65 1.000000 0.056000 0.056000 1.200000 0.035000 0.042000
1518253563881702822	1200 61 1.100000 0.554000 0.640000 1000 56 0.900000 2.130000 2.070000 600 65 1.000000 0.056000 0.056000 1.200000 0.035000 0.042000
1518253564441787447	1200 61 1.100000 0.555000 0.641000 1000 56 0.900000 2.131000 2.071000 600 65 1.000000 0.056000 0.056000 1.200000 0.035000 0.042000
1518253565005726530	1200 61 1.100000 0.555000 0.641000 1000 56 0.900000 2.129000 2.069000 600 65 1.000000 0.056000 0.056000 1.200000 0.035000 0.042000
1518253565557681822	1200 61 1.100000 0.554000 0.640000 1000 56 0.900000 2.124000 2.064000 600 65 1.000000 0.055000 0.055000 1.200000 0.035000 0.042000
1518253566117668239	1200 61 1.100000 0.554000 0.640000 1000 56 0.900000 2.120000 2.060000 600 65 1.000000 0.056000 0.056000 1.200000 0.035000 0.042000
1518253566673776781	1200 61 1.100000 0.555000 0.641000 1000 56 0.900000 2.120000 2.060000 600 65 1.000000 0.056000 0.056000 1.200000 0.035000 0.042000
1518253567245710697	1200 61 1.100000 0.554000 0.640000 1000 56 0.900000 2.123000 2.063000 600 65 1.000000 0.055000 0.055000 1.200000 0.035000 0.042000
1518253567801727739	1200 61 1.100000 0.555000 0.641000 1000 56 0.900000 2.117000 2.057000 600 65 1.000000 0.056000 0.056000 1.200000 0.035000 0.042000
1518253568365715322	1200 61 1.100000 0.555000 0.641000 1000 56 0.900000 2.116000 2.056000 600 65 1.000000 0.056000 0.056000 1.200000 0.035000 0.042000
1518253568933744281	1200 61 1.100000 0.555000 0.641000 1000 56 0.900000 2.118000 2.058000 600 65 1.000000 0.055000 0.055000 1.200000 0.035000 0.042000
1518253569477713198	1200 61 1.100000 0.555000 0.642000 1000 56 0.900000 2.107000 2.048000 600 65 1.000000 0.056000 0.056000 1.200000 0.035000 0.042000
1518253570037721239	1200 61 1.100000 0.555000 0.641000 1000 56 0.900000 2.107000 2.048000 600 65 1.000000 0.056000 0.056000 1.200000 0.036000 0.043000
1518253570601634698	1200 61 1.100000 0.554000 0.640000 1000 56 0.900000 2.106000 2.047000 600 65 1.000000 0.056000 0.056000 1.200000 0.035000 0.042000
1518253571161734073	1200 61 1.100000 0.554000 0.640000 1000 56 0.900000 2.104000 2.045000 600 65 1.000000 0.056000 0.056000 1.200000 0.035000 0.042000
1518253571725696990	1200 61 1.100000 0.555000 0.641000 1000 56 0.900000 2.104000 2.045000 600 65 1.000000 0.055000 0.055000 1.200000 0.035000 0.042000
1518253572289691406	1200 61 1.100000 0.555000 0.642000 1000 56 0.900000 2.107000 2.048000 600 65 1.000000 0.056000 0.056000 1.200000 0.035000 0.042000
1518253572857684156	1200 61 1.100000 0.555000 0.641000 1000 56 0.900000 2.108000 2.048000 600 65 1.000000 0.056000 0.056000 1.200000 0.035000 0.042000
1518253573413741031	1200 61 1.100000 0.555000 0.641000 1000 56 0.900000 2.108000 2.048000 600 65 1.000000 0.056000 0.056000 1.200000 0.035000 0.042000
1518253573977705115	1200 61 1.100000 0.555000 0.641000 1000 56 0.900000 2.105000 2.046000 600 65 1.000000 0.056000 0.056000 1.200000 0.036000 0.043000
1518253574541675282	1200 61 1.100000 0.555000 0.642000 1000 56 0.900000 2.106000 2.047000 600 65 1.000000 0.056000 0.056000 1.200000 0.035000 0.042000
1518253575105719615	1200 61 1.100000 0.555000 0.642000 1000 56 0.900000 2.105000 2.046000 600 65 1.000000 0.055000 0.055000 1.200000 0.035000 0.042000
1518253575661730948	1200 61 1.100000 0.554000 0.640000 1000 56 0.900000 2.102000 2.043000 600 65 1.000000 0.056000 0.056000 1.200000 0.036000 0.043000
1518253576217682115	1200 61 1.100000 0.555000 0.641000 1000 56 0.900000 2.102000 2.043000 600 65 1.000000 0.056000 0.056000 1.200000 0.035000 0.042000
1518253576769672698	1200 61 1.100000 0.555000 0.642000 1000 56 0.900000 2.106000 2.047000 600 65 1.000000 0.056000 0.056000 1.200000 0.035000 0.042000
1518253577337701032	1200 61 1.100000 0.555000 0.642000 1000 56 0.900000 2.097000 2.038000 600 65 1.000000 0.056000 0.056000 1.200000 0.035000 0.042000
1518253577901682074	1200 61 1.100000 0.555000 0.641000 1000 56 0.900000 2.097000 2.036000 600 65 1.000000 0.055000 0.055000 1.200000 0.035000 0.042000
1518253578457711532	1200 61 1.100000 0.554000 0.640000 1000 56 0.900000 2.100000 2.039000 600 65 1.000000 0.056000 0.056000 1.200000 0.035000 0.042000
1518253579025672657	1200 61 1.100000 0.555000 0.642000 1000 56 0.900000 2.102000 2.043000 600 65 1.000000 0.055000 0.055000 1.200000 0.035000 0.042000
1518253579585699574	1200 61 1.100000 0.556000 0.643000 1000 56 0.900000 2.105000 2.046000 600 65 1.000000 0.056000 0.056000 1.200000 0.033000 0.039000
1518253580149721116	1200 61 1.100000 0.556000 0.642000 1000 56 0.900000 2.118000 2.058000 600 65 1.000000 0.055000 0.055000 1.200000 0.034000 0.041000
1518253580697739449	1200 61 1.100000 0.556000 0.643000 1000 56 0.900000 2.117000 2.057000 600 65 1.000000 0.056000 0.056000 1.200000 0.034000 0.041000
1518253581253727491	1200 61 1.100000 0.556000 0.642000 1000 56 0.900000 2.119000 2.059000 600 65 1.000000 0.055000 0.055000 1.200000 0.034000 0.041000
1518253581817725199	1200 61 1.100000 0.556000 0.642000 1000 56 0.900000 2.116000 2.056000 600 65 1.000000 0.055000 0.055000 1.200000 0.033000 0.039000
1518253582373711491	1200 61 1.100000 0.556000 0.642000 1000 56 0.900000 2.112000 2.052000 600 65 1.000000 0.056000 0.056000 1.200000 0.033000 0.039000
1518253582929730908	1200 61 1.100000 0.556000 0.642000 1000 56 0.900000 2.111000 2.051000 600 65 1.000000 0.055000 0.055000 1.200000 0.034000 0.041000
1518253583481693908	1200 61 1.100000 0.555000 0.641000 1000 56 0.900000 2.115000 2.055000 600 65 1.000000 0.056000 0.056000 1.200000 0.034000 0.041000
1518253584037678991	1200 61 1.100000 0.556000 0.642000 1000 56 0.900000 2.114000 2.054000 600 65 1.000000 0.055000 0.055000 1.200000 0.033000 0.039000
1518253584597752366	1200 61 1.100000 0.556000 0.643000 1000 56 0.900000 2.114000 2.054000 600 65 1.000000 0.055000 0.055000 1.200000 0.034000 0.041000
1518253585153717033	1200 61 1.100000 0.556000 0.642000 1000 56 0.900000 2.115000 2.055000 600 65 1.000000 0.055000 0.055000 1.200000 0.034000 0.041000
1518253585705718283	1200 61 1.100000 0.556000 0.642000 1000 56 0.900000 2.116000 2.056000 600 65 1.000000 0.055000 0.055000 1.200000 0.034000 0.041000
1518253586261697825	1200 61 1.100000 0.556000 0.642000 1000 56 0.900000 2.122000 2.062000 600 65 1.000000 0.055000 0.055000 1.200000 0.033000 0.039000
1518253586825682741	1200 61 1.100000 0.556000 0.642000 1000 56 0.900000 2.120000 2.060000 600 65 1.000000 0.055000 0.055000 1.200000 0.033000 0.039000
1518253587397697950	1200 61 1.100000 0.556000 0.642000 1000 56 0.900000 2.114000 2.054000 600 65 1.000000 0.056000 0.056000 1.200000 0.034000 0.041000
1518253587961712450	1200 61 1.100000 0.556000 0.642000 1000 56 0.900000 2.120000 2.060000 600 65 1.000000 0.055000 0.055000 1.200000 0.034000 0.041000
1518253588525705450	1200 61 1.100000 0.555000 0.641000 1000 56 0.900000 2.118000 2.058000 600 65 1.000000 0.055000 0.055000 1.200000 0.033000 0.039000
1518253589073719200	1200 61 1.100000 0.556000 0.642000 1000 56 0.900000 2.127000 2.067000 600 65 1.000000 0.055000 0.055000 1.200000 0.034000 0.041000
1518253589633703825	1200 61 1.100000 0.556000 0.642000 1000 56 0.900000 2.124000 2.064000 600 65 1.000000 0.056000 0.056000 1.200000 0.034000 0.041000
1518253590197760325	1200 61 1.100000 0.556000 0.642000 1000 56 0.900000 2.105000 2.046000 600 65 1.000000 0.056000 0.056000 1.200000 0.034000 0.041000
1518253590753668992	1200 61 1.100000 0.556000 0.642000 1000 56 0.900000 2.118000 2.058000 600 65 1.000000 0.055000 0.055000 1.200000 0.033000 0.039000
1518253591313724367	1200 61 1.100000 0.556000 0.642000 1000 56 0.900000 2.117000 2.057000 600 65 1.000000 0.055000 0.055000 1.200000 0.034000 0.041000
1518253591877700575	1200 61 1.100000 0.556000 0.642000 1000 56 0.900000 2.116000 2.056000 600 65 1.000000 0.056000 0.056000 1.200000 0.034000 0.041000
1518253592433666575	1200 61 1.100000 0.556000 0.642000 1000 56 0.900000 2.112000 2.052000 600 65 1.000000 0.055000 0.055000 1.200000 0.034000 0.041000
1518253592985694325	1200 61 1.100000 0.556000 0.642000 1000 56 0.900000 2.116000 2.056000 600 65 1.000000 0.056000 0.056000 1.200000 0.034000 0.041000
1518253593549740409	1200 61 1.100000 0.556000 0.642000 1000 56 0.900000 2.102000 2.043000 600 65 1.000000 0.056000 0.056000 1.200000 0.034000 0.041000
1518253594105730909	1200 61 1.100000 0.556000 0.642000 1000 56 0.900000 2.105000 2.046000 600 65 1.000000 0.055000 0.055000 1.200000 0.034000 0.041000
1518253594665717784	1200 61 1.100000 0.556000 0.642000 1000 56 0.900000 2.111000 2.051000 600 65 1.000000 0.055000 0.055000 1.200000 0.034000 0.041000
1518253595229745867	1200 61 1.100000 0.556000 0.642000 1000 56 0.900000 2.108000 2.048000 600 65 1.000000 0.056000 0.056000 1.200000 0.034000 0.041000
1518253595797706826	1200 61 1.100000 0.556000 0.642000 1000 56 0.900000 2.116000 2.056000 600 65 1.000000 0.056000 0.056000 1.200000 0.034000 0.041000
1518253596349663659	1200 61 1.100000 0.557000 0.643000 1000 56 0.900000 2.116000 2.056000 600 65 1.000000 0.055000 0.055000 1.200000 0.032000 0.038000
1518253596905719284	1200 61 1.100000 0.555000 0.641000 1000 56 0.900000 2.116000 2.056000 600 65 1.000000 0.055000 0.055000 1.200000 0.035000 0.042000
1518253597473703743	1200 61 1.100000 0.555000 0.641000 1000 56 0.900000 2.114000 2.054000 600 65 1.000000 0.056000 0.056000 1.200000 0.036000 0.043000
1518253598033654993	1200 61 1.100000 0.555000 0.641000 1000 56 0.900000 2.106000 2.047000 600 65 1.000000 0.055000 0.055000 1.200000 0.035000 0.042000
1518253598585706534	1200 61 1.100000 0.555000 0.641000 1000 56 0.900000 2.110000 2.050000 600 65 1.000000 0.055000 0.055000 1.200000 0.035000 0.042000
1518253599137745159	1200 61 1.100000 0.555000 0.641000 1000 56 0.900000 2.097000 2.038000 600 65 1.000000 0.055000 0.055000 1.200000 0.035000 0.042000
1518253599697755618	1200 61 1.100000 0.555000 0.642000 1000 56 0.900000 2.092000 2.033000 600 65 1.000000 0.056000 0.056000 1.200000 0.035000 0.042000
1518253600249672243	1200 61 1.100000 0.556000 0.642000 1000 56 0.900000 2.097000 2.038000 600 65 1.000000 0.055000 0.055000 1.200000 0.035000 0.042000
1518253600793741826	1200 61 1.100000 0.555000 0.641000 1000 56 0.900000 2.096000 2.037000 600 65 1.000000 0.056000 0.056000 1.200000 0.035000 0.042000
1518253601353665326	1200 61 1.100000 0.555000 0.641000 1000 56 0.900000 2.097000 2.038000 600 65 1.000000 0.056000 0.056000 1.200000 0.035000 0.042000
1518253601917693076	1200 61 1.100000 0.555000 0.641000 1000 56 0.900000 2.097000 2.038000 600 65 1.000000 0.055000 0.055000 1.200000 0.035000 0.042000
1518253602473707035	1200 61 1.100000 0.555000 0.641000 1000 56 0.900000 2.097000 2.038000 600 65 1.000000 0.055000 0.055000 1.200000 0.035000 0.042000
1518253603029687827	1200 61 1.100000 0.555000 0.641000 1000 56 0.900000 2.097000 2.038000 600 65 1.000000 0.056000 0.056000 1.200000 0.035000 0.042000
1518253603577707993	1200 61 1.100000 0.555000 0.641000 1000 56 0.900000 2.097000 2.038000 600 65 1.000000 0.055000 0.055000 1.200000 0.035000 0.042000
1518253604141711910	1200 61 1.100000 0.555000 0.641000 1000 56 0.900000 2.091000 2.032000 600 65 1.000000 0.056000 0.056000 1.200000 0.035000 0.042000
1518253604705721618	1200 61 1.100000 0.555000 0.641000 1000 56 0.900000 2.089000 2.030000 600 65 1.000000 0.055000 0.055000 1.200000 0.035000 0.042000
1518253605261742994	1200 61 1.100000 0.555000 0.641000 1000 56 0.900000 2.097000 2.038000 600 65 1.000000 0.055000 0.055000 1.200000 0.035000 0.042000
1518253605829660952	1200 61 1.100000 0.555000 0.641000 1000 56 0.900000 2.098000 2.039000 600 65 1.000000 0.056000 0.056000 1.200000 0.035000 0.042000
1518253606393687702	1200 61 1.100000 0.555000 0.641000 1000 56 0.900000 2.097000 2.038000 600 65 1.000000 0.055000 0.055000 1.200000 0.035000 0.042000
1518253606945683285	1200 61 1.100000 0.555000 0.641000 1000 56 0.900000 2.096000 2.037000 600 65 1.000000 0.056000 0.056000 1.200000 0.034000 0.041000
1518253607501721660	1200 61 1.100000 0.555000 0.641000 1000 56 0.900000 2.097000 2.038000 600 65 1.000000 0.056000 0.056000 1.200000 0.035000 0.042000
1518253608061675244	1200 61 1.100000 0.555000 0.641000 1000 56 0.900000 2.097000 2.038000 600 65 1.000000 0.055000 0.055000 1.200000 0.035000 0.042000
1518253608625696161	1200 61 1.100000 0.555000 0.641000 1000 56 0.900000 2.096000 2.037000 600 65 1.000000 0.056000 0.056000 1.200000 0.035000 0.042000
1518253609189707827	1200 61 1.100000 0.555000 0.641000 1000 56 0.900000 2.091000 2.032000 600 65 1.000000 0.055000 0.055000 1.200000 0.035000 0.042000
1518253609741718494	1200 61 1.100000 0.555000 0.641000 1000 56 0.900000 2.094000 2.033000 600 65 1.000000 0.056000 0.056000 1.200000 0.035000 0.042000
1518253610301767911	1200 61 1.100000 0.555000 0.641000 1000 56 0.900000 2.096000 2.037000 600 65 1.000000 0.056000 0.056000 1.200000 0.035000 0.042000
1518253610845683744	1200 61 1.100000 0.556000 0.642000 1000 56 0.900000 2.096000 2.037000 600 65 1.000000 0.055000 0.055000 1.200000 0.035000 0.042000
1518253611425647828	1200 61 1.100000 0.555000 0.641000 1000 56 0.900000 2.094000 2.035000 600 65 1.000000 0.056000 0.056000 1.200000 0.035000 0.042000
1518253611981754369	1200 61 1.100000 0.555000 0.641000 1000 56 0.900000 2.088000 2.029000 600 65 1.000000 0.055000 0.055000 1.200000 0.035000 0.042000
1518253612541706036	1200 61 1.100000 0.555000 0.641000 1000 56 0.900000 2.088000 2.029000 600 65 1.000000 0.056000 0.056000 1.200000 0.035000 0.042000
1518253613097741411	1200 61 1.100000 0.555000 0.641000 1000 56 0.900000 2.088000 2.029000 600 65 1.000000 0.055000 0.055000 1.200000 0.035000 0.042000
1518253613642232911	1200 61 1.100000 0.555000 0.641000 1000 56 0.900000 2.085000 2.026000 600 65 1.000000 0.056000 0.056000 1.200000 0.035000 0.042000
1518253614205715328	1200 61 1.100000 0.556000 0.642000 1000 56 0.900000 2.084000 2.025000 600 65 1.000000 0.056000 0.056000 1.200000 0.035000 0.042000
1518253614745708745	1200 61 1.100000 0.556000 0.642000 1000 56 0.900000 2.088000 2.029000 600 65 1.000000 0.056000 0.056000 1.200000 0.034000 0.041000
1518253615305731536	1200 61 1.100000 0.556000 0.642000 1000 56 0.900000 2.092000 2.033000 600 65 1.000000 0.055000 0.055000 1.200000 0.034000 0.041000
1518253615861639536	1200 61 1.100000 0.556000 0.642000 1000 56 0.900000 2.083000 2.024000 600 65 1.000000 0.055000 0.055000 1.200000 0.034000 0.041000
1518253616421687912	1200 61 1.100000 0.556000 0.642000 1000 56 0.900000 2.093000 2.032000 600 65 1.000000 0.056000 0.056000 1.200000 0.034000 0.041000
1518253616993712537	1200 61 1.100000 0.556000 0.642000 1000 56 0.900000 2.090000 2.029000 600 65 1.000000 0.055000 0.055000 1.200000 0.034000 0.041000
1518253617561707787	1200 61 1.100000 0.556000 0.642000 1000 56 0.900000 2.091000 2.032000 600 65 1.000000 0.055000 0.055000 1.200000 0.034000 0.041000
1518253618113673203	1200 61 1.100000 0.556000 0.642000 1000 56 0.900000 2.081000 2.022000 600 65 1.000000 0.055000 0.055000 1.200000 0.035000 0.042000
1518253618673675245	1200 61 1.100000 0.556000 0.642000 1000 56 0.900000 2.087000 2.028000 600 65 1.000000 0.055000 0.055000 1.200000 0.034000 0.041000
1518253619229695037	1200 61 1.100000 0.556000 0.642000 1000 56 0.900000 2.087000 2.028000 600 65 1.000000 0.055000 0.055000 1.200000 0.034000 0.041000
1518253619809661079	1200 61 1.100000 0.556000 0.642000 1000 56 0.900000 2.093000 2.034000 600 65 1.000000 0.055000 0.055000 1.200000 0.034000 0.041000
1518253620365755745	1200 61 1.100000 0.556000 0.643000 1000 56 0.900000 2.091000 2.032000 600 65 1.000000 0.056000 0.056000 1.200000 0.034000 0.041000
1518253620929752287	1200 61 1.100000 0.555000 0.641000 1000 56 0.900000 2.096000 2.037000 600 65 1.000000 0.056000 0.056000 1.200000 0.034000 0.041000
1518253621489655162	1200 61 1.100000 0.556000 0.642000 1000 56 0.900000 2.094000 2.035000 600 65 1.000000 0.055000 0.055000 1.200000 0.034000 0.041000
1518253622049720121	1200 61 1.100000 0.555000 0.641000 1000 56 0.900000 2.095000 2.036000 600 65 1.000000 0.055000 0.055000 1.200000 0.034000 0.041000
1518253622625685162	1200 61 1.100000 0.556000 0.642000 1000 56 0.900000 2.092000 2.033000 600 65 1.000000 0.055000 0.055000 1.200000 0.034000 0.041000
1518253623181701287	1200 61 1.100000 0.556000 0.642000 1000 56 0.900000 2.095000 2.036000 600 65 1.000000 0.055000 0.055000 1.200000 0.035000 0.042000
1518253623749699954	1200 61 1.100000 0.556000 0.642000 1000 56 0.900000 2.102000 2.043000 600 65 1.000000 0.055000 0.055000 1.200000 0.034000 0.041000
1518253624301724287	1200 61 1.100000 0.556000 0.642000 1000 56 0.900000 2.102000 2.043000 600 65 1.000000 0.056000 0.056000 1.200000 0.034000 0.041000
1518253624857651329	1200 61 1.100000 0.556000 0.642000 1000 56 0.900000 2.101000 2.042000 600 65 1.000000 0.055000 0.055000 1.200000 0.034000 0.041000
1518253625417744413	1200 61 1.100000 0.556000 0.642000 1000 56 0.900000 2.090000 2.031000 600 65 1.000000 0.056000 0.056000 1.200000 0.034000 0.041000
1518253625973751538	1200 61 1.100000 0.556000 0.642000 1000 56 0.900000 2.095000 2.036000 600 65 1.000000 0.055000 0.055000 1.200000 0.034000 0.041000
1518253626533642496	1200 61 1.100000 0.556000 0.642000 1000 56 0.900000 2.093000 2.034000 600 65 1.000000 0.055000 0.055000 1.200000 0.034000 0.041000
1518253627097697246	1200 61 1.100000 0.556000 0.642000 1000 56 0.900000 2.090000 2.031000 600 65 1.000000 0.055000 0.055000 1.200000 0.034000 0.041000
1518253627665729871	1200 61 1.100000 0.555000 0.641000 1000 56 0.900000 2.091000 2.032000 600 65 1.000000 0.055000 0.055000 1.200000 0.034000 0.041000
1518253628221649371	1200 61 1.100000 0.556000 0.642000 1000 56 0.900000 2.102000 2.043000 600 65 1.000000 0.056000 0.056000 1.200000 0.034000 0.041000
1518253628773681246	1200 61 1.100000 0.556000 0.642000 1000 56 0.900000 2.102000 2.043000 600 65 1.000000 0.056000 0.056000 1.200000 0.034000 0.041000
1518253629333730288	1200 61 1.100000 0.556000 0.642000 1000 56 0.900000 2.101000 2.042000 600 65 1.000000 0.056000 0.056000 1.200000 0.034000 0.041000
1518253629841362996	1200 58 1.100000 0.555000 0.641000 1000 55 0.900000 1.768000 1.716000 600 61 1.000000 0.055000 0.055000 1.200000 0.034000 0.041000
1518253630349122372	1200 56 1.100000 0.556000 0.642000 1000 54 0.900000 0.693000 0.668000 600 59 1.000000 0.055000 0.055000 1.200000 0.035000 0.042000
1518253630856792247	1200 53 1.100000 0.193000 0.225000 1000 52 0.900000 0.246000 0.239000 600 57 1.000000 0.055000 0.055000 1.200000 0.033000 0.039000
1518253631364235705	1200 51 1.100000 0.067000 0.078000 1000 51 0.900000 0.132000 0.128000 600 55 1.000000 0.055000 0.055000 1.200000 0.024000 0.028000
