#Timestamp	CPU(0) Frequency(MHz)	CPU(0) Temperature(C)	A7 Voltage(V)	A7 Current(A)	A7 Power(W)	CPU(4) Frequency(MHz)	CPU(4) Temperature(C)	A15 Voltage(V)	A15 Current(A)	A15 Power(W)	GPU Frequency(MHz)	GPU Temperature(C)	GPU Voltage(V)	GPU Current(A)	GPU Power(W)	RAM Voltage(V)	RAM Current(A)	RAM Power(W)
1559624868331798850	1000 47 1.000000 0.111000 0.121000 1600 41 1.100000 0.662000 0.748000 600 46 1.000000 0.052000 0.052000 1.200000 0.055000 0.066000
1559624868838102976	1000 48 1.100000 0.049000 0.053000 1600 42 1.100000 1.215000 1.376000 600 46 1.000000 0.052000 0.052000 1.200000 0.051000 0.061000
1559624869343787767	1000 49 1.100000 0.048000 0.052000 1600 42 1.100000 1.096000 1.240000 600 46 1.000000 0.052000 0.052000 1.200000 0.039000 0.047000
1559624869849544476	1000 49 1.100000 0.048000 0.052000 1600 42 1.100000 1.086000 1.229000 600 46 1.000000 0.052000 0.052000 1.200000 0.029000 0.035000
1559624870355214642	1000 49 1.100000 0.056000 0.061000 1600 42 1.100000 1.297000 1.469000 600 46 1.000000 0.052000 0.052000 1.200000 0.035000 0.042000
1559624870860856101	1000 49 1.100000 0.048000 0.052000 1600 42 1.100000 1.090000 1.233000 600 46 1.000000 0.052000 0.052000 1.200000 0.028000 0.033000
1559624871366504976	1000 49 1.100000 0.048000 0.052000 1600 42 1.100000 1.084000 1.227000 600 46 1.000000 0.052000 0.052000 1.200000 0.030000 0.036000
1559624871872368809	1000 49 1.100000 0.048000 0.052000 1600 42 1.100000 1.085000 1.228000 600 46 1.000000 0.052000 0.052000 1.200000 0.030000 0.036000
1559624872378015768	1000 49 1.100000 0.048000 0.052000 1600 42 1.100000 1.143000 1.293000 600 46 1.000000 0.052000 0.052000 1.200000 0.031000 0.037000
1559624872883691768	1000 49 1.100000 0.049000 0.053000 1600 42 1.100000 1.189000 1.347000 600 46 1.000000 0.052000 0.052000 1.200000 0.034000 0.041000
1559624873389379476	1000 49 1.100000 0.048000 0.052000 1600 42 1.100000 1.111000 1.257000 600 45 1.000000 0.052000 0.052000 1.200000 0.029000 0.035000
1559624873895007851	1000 48 1.100000 0.048000 0.052000 1600 42 1.100000 1.093000 1.237000 600 46 1.000000 0.052000 0.052000 1.200000 0.029000 0.035000
1559624874400556476	1000 49 1.100000 0.052000 0.057000 1600 42 1.100000 1.163000 1.316000 600 46 1.000000 0.052000 0.052000 1.200000 0.032000 0.038000
1559624874906121185	1000 49 1.100000 0.048000 0.052000 1600 42 1.100000 1.195000 1.352000 600 46 1.000000 0.052000 0.052000 1.200000 0.033000 0.039000
1559624875411679601	1000 49 1.100000 0.048000 0.052000 1600 42 1.100000 1.087000 1.230000 600 46 1.000000 0.052000 0.052000 1.200000 0.028000 0.033000
1559624875917274893	1000 49 1.100000 0.049000 0.053000 1600 42 1.100000 1.094000 1.238000 600 46 1.000000 0.052000 0.052000 1.200000 0.029000 0.035000
1559624876422745726	1000 49 1.100000 0.061000 0.067000 1600 42 1.100000 1.181000 1.336000 600 46 1.000000 0.052000 0.052000 1.200000 0.033000 0.039000
1559624876928328518	1000 49 1.100000 0.049000 0.053000 1600 42 1.100000 1.089000 1.232000 600 46 1.000000 0.052000 0.052000 1.200000 0.029000 0.035000
1559624877433925810	1000 49 1.100000 0.048000 0.052000 1600 41 1.100000 1.099000 1.244000 600 45 1.000000 0.052000 0.052000 1.200000 0.028000 0.033000
1559624877939469310	1000 48 1.100000 0.048000 0.052000 1600 41 1.100000 1.115000 1.262000 600 46 1.000000 0.052000 0.052000 1.200000 0.029000 0.035000
1559624878446861310	1000 48 1.100000 0.047000 0.051000 1600 41 1.100000 1.093000 1.237000 600 47 1.000000 0.051000 0.051000 1.200000 0.030000 0.036000
1559624878953445810	1000 49 1.100000 0.063000 0.069000 1600 41 1.100000 1.267000 1.435000 600 46 1.000000 0.052000 0.052000 1.200000 0.036000 0.043000
1559624879459087102	1000 48 1.100000 0.049000 0.053000 1600 41 1.100000 1.099000 1.244000 600 45 1.000000 0.052000 0.052000 1.200000 0.029000 0.035000
1559624879964783352	1000 48 1.100000 0.048000 0.052000 1600 41 1.100000 1.089000 1.232000 600 45 1.000000 0.052000 0.052000 1.200000 0.028000 0.033000
1559624880473661019	1000 48 1.100000 0.048000 0.052000 1600 41 1.100000 1.085000 1.228000 600 46 1.000000 0.052000 0.052000 1.200000 0.029000 0.035000
1559624880980068894	1000 48 1.100000 0.051000 0.056000 1600 41 1.100000 1.228000 1.391000 600 45 1.000000 0.052000 0.052000 1.200000 0.032000 0.038000
1559624881485823352	1000 48 1.100000 0.048000 0.052000 1600 41 1.100000 1.085000 1.228000 600 45 1.000000 0.052000 0.052000 1.200000 0.029000 0.035000
1559624881991456435	1000 48 1.100000 0.048000 0.052000 1600 41 1.100000 1.086000 1.229000 600 45 1.000000 0.052000 0.052000 1.200000 0.029000 0.035000
1559624882497061644	1000 48 1.100000 0.048000 0.052000 1600 41 1.100000 1.084000 1.227000 600 45 1.000000 0.052000 0.052000 1.200000 0.029000 0.035000
1559624883002712852	1000 48 1.100000 0.061000 0.067000 1600 41 1.100000 1.120000 1.267000 600 45 1.000000 0.052000 0.052000 1.200000 0.030000 0.036000
1559624883508423477	1000 48 1.100000 0.048000 0.052000 1600 41 1.100000 1.085000 1.228000 600 45 1.000000 0.052000 0.052000 1.200000 0.029000 0.035000
1559624884014254936	1000 48 1.100000 0.048000 0.052000 1600 41 1.100000 1.094000 1.238000 600 45 1.000000 0.052000 0.052000 1.200000 0.030000 0.036000
1559624884519931019	1000 48 1.100000 0.048000 0.052000 1600 41 1.100000 1.110000 1.256000 600 45 1.000000 0.052000 0.052000 1.200000 0.029000 0.035000
1559624885025531977	1000 48 1.100000 0.048000 0.052000 1600 41 1.100000 1.377000 1.560000 600 46 1.000000 0.052000 0.052000 1.200000 0.040000 0.048000
1559624885531219686	1000 48 1.100000 0.050000 0.055000 1600 41 1.100000 1.085000 1.228000 600 45 1.000000 0.052000 0.052000 1.200000 0.028000 0.033000
1559624886036855103	1000 48 1.100000 0.047000 0.051000 1600 41 1.100000 1.084000 1.227000 600 45 1.000000 0.052000 0.052000 1.200000 0.029000 0.035000
1559624886542574436	1000 48 1.100000 0.048000 0.052000 1600 41 1.100000 1.085000 1.228000 600 45 1.000000 0.052000 0.052000 1.200000 0.030000 0.036000
1559624887048152936	1000 48 1.100000 0.050000 0.055000 1600 41 1.100000 1.406000 1.591000 600 45 1.000000 0.052000 0.052000 1.200000 0.038000 0.045000
1559624887553768478	1000 48 1.100000 0.048000 0.052000 1600 41 1.100000 1.109000 1.255000 600 45 1.000000 0.052000 0.052000 1.200000 0.029000 0.035000
1559624888059399270	1000 48 1.100000 0.048000 0.052000 1600 41 1.100000 1.094000 1.238000 600 45 1.000000 0.052000 0.052000 1.200000 0.028000 0.033000
1559624888564991020	1000 48 1.100000 0.047000 0.051000 1600 41 1.100000 1.095000 1.239000 600 45 1.000000 0.052000 0.052000 1.200000 0.029000 0.035000
1559624889070466936	1000 48 1.100000 0.048000 0.052000 1600 41 1.100000 1.159000 1.311000 600 46 1.000000 0.052000 0.052000 1.200000 0.031000 0.037000
1559624889576072353	1000 48 1.100000 0.048000 0.052000 1600 41 1.100000 1.089000 1.232000 600 45 1.000000 0.052000 0.052000 1.200000 0.031000 0.037000
1559624890082039395	1000 48 1.100000 0.048000 0.052000 1600 41 1.100000 1.082000 1.224000 600 45 1.000000 0.052000 0.052000 1.200000 0.029000 0.035000
1559624890587804561	1000 48 1.100000 0.048000 0.052000 1600 41 1.100000 1.082000 1.224000 600 45 1.000000 0.052000 0.052000 1.200000 0.029000 0.035000
1559624891093019187	1000 48 1.100000 0.048000 0.052000 1600 41 1.100000 1.109000 1.255000 600 47 1.000000 0.052000 0.052000 1.200000 0.028000 0.033000
1559624891599834687	1000 48 1.100000 0.053000 0.058000 1600 41 1.100000 1.324000 1.500000 600 45 1.000000 0.051000 0.051000 1.200000 0.036000 0.043000
1559624892105812187	1000 48 1.100000 0.050000 0.055000 1600 41 1.100000 1.098000 1.242000 600 45 1.000000 0.052000 0.052000 1.200000 0.029000 0.035000
1559624892611470853	1000 48 1.100000 0.048000 0.052000 1600 41 1.100000 1.085000 1.228000 600 45 1.000000 0.052000 0.052000 1.200000 0.031000 0.037000
1559624893117730270	1000 48 1.100000 0.048000 0.052000 1600 41 1.100000 1.103000 1.248000 600 46 1.000000 0.052000 0.052000 1.200000 0.031000 0.037000
1559624893623374645	1000 48 1.100000 0.049000 0.053000 1600 41 1.100000 1.319000 1.494000 600 45 1.000000 0.052000 0.052000 1.200000 0.035000 0.042000
1559624894128924729	1000 48 1.100000 0.047000 0.051000 1600 41 1.100000 1.101000 1.246000 600 45 1.000000 0.052000 0.052000 1.200000 0.029000 0.035000
1559624894634550729	1000 48 1.100000 0.048000 0.052000 1600 41 1.100000 1.099000 1.244000 600 45 1.000000 0.052000 0.052000 1.200000 0.029000 0.035000
1559624895140175604	1000 48 1.100000 0.048000 0.052000 1600 41 1.100000 1.136000 1.285000 600 45 1.000000 0.052000 0.052000 1.200000 0.031000 0.037000
1559624895645820479	1000 48 1.100000 0.053000 0.058000 1600 41 1.100000 1.320000 1.495000 600 45 1.000000 0.052000 0.052000 1.200000 0.034000 0.041000
1559624896151983604	1000 48 1.100000 0.048000 0.052000 1600 41 1.100000 1.087000 1.230000 600 45 1.000000 0.052000 0.052000 1.200000 0.029000 0.035000
1559624896657612937	1000 48 1.100000 0.047000 0.051000 1600 41 1.100000 1.108000 1.254000 600 45 1.000000 0.052000 0.052000 1.200000 0.029000 0.035000
1559624897163466437	1000 48 1.100000 0.048000 0.052000 1600 41 1.100000 1.082000 1.224000 600 45 1.000000 0.052000 0.052000 1.200000 0.030000 0.036000
1559624897669051562	1000 48 1.100000 0.048000 0.052000 1600 41 1.100000 1.108000 1.254000 600 45 1.000000 0.052000 0.052000 1.200000 0.028000 0.033000
1559624898175687312	1000 48 1.100000 0.048000 0.052000 1600 41 1.100000 1.087000 1.230000 600 45 1.000000 0.052000 0.052000 1.200000 0.030000 0.036000
1559624898681557104	1000 48 1.100000 0.048000 0.052000 1600 41 1.100000 1.100000 1.245000 600 45 1.000000 0.052000 0.052000 1.200000 0.030000 0.036000
1559624899187176104	1000 48 1.100000 0.048000 0.052000 1600 41 1.100000 1.089000 1.232000 600 45 1.000000 0.052000 0.052000 1.200000 0.028000 0.033000
1559624899692759146	1000 48 1.100000 0.052000 0.057000 1600 41 1.100000 1.117000 1.264000 600 45 1.000000 0.051000 0.051000 1.200000 0.029000 0.035000
1559624900198475521	1000 48 1.100000 0.048000 0.052000 1600 41 1.100000 1.096000 1.240000 600 45 1.000000 0.052000 0.052000 1.200000 0.029000 0.035000
1559624900705242938	1000 45 1.100000 0.047000 0.051000 1600 41 1.100000 1.096000 1.240000 600 45 1.000000 0.052000 0.052000 1.200000 0.028000 0.033000
1559624901212284229	1000 49 1.000000 0.174000 0.190000 1600 41 1.100000 1.043000 1.180000 600 46 1.000000 0.052000 0.052000 1.200000 0.091000 0.110000
1559624901719421313	1000 51 1.000000 0.273000 0.296000 1600 43 1.100000 1.981000 2.250000 600 48 1.000000 0.052000 0.052000 1.200000 0.099000 0.119000
1559624902226569938	1000 51 1.000000 0.283000 0.307000 1600 43 1.100000 1.968000 2.235000 600 49 1.000000 0.052000 0.052000 1.200000 0.098000 0.118000
1559624902733842063	1000 52 1.000000 0.284000 0.308000 1600 44 1.100000 1.984000 2.253000 600 49 1.000000 0.052000 0.052000 1.200000 0.097000 0.117000
1559624903241009021	1000 52 1.000000 0.276000 0.299000 1600 44 1.100000 1.981000 2.250000 600 50 1.000000 0.052000 0.052000 1.200000 0.096000 0.116000
1559624903749232313	1000 53 1.000000 0.284000 0.308000 1600 45 1.100000 1.991000 2.261000 600 52 1.000000 0.053000 0.053000 1.200000 0.099000 0.119000
1559624904256401605	1000 53 1.000000 0.271000 0.294000 1600 45 1.100000 2.177000 2.475000 600 50 1.000000 0.053000 0.053000 1.200000 0.104000 0.126000
1559624904763598438	1000 53 1.000000 0.287000 0.311000 1600 45 1.100000 1.999000 2.270000 600 51 1.000000 0.052000 0.052000 1.200000 0.097000 0.117000
1559624905270953647	1000 54 1.000000 0.285000 0.309000 1600 46 1.100000 1.979000 2.248000 600 51 1.000000 0.052000 0.052000 1.200000 0.098000 0.118000
1559624905779219522	1000 54 1.000000 0.286000 0.310000 1600 46 1.100000 1.961000 2.227000 600 51 1.000000 0.053000 0.053000 1.200000 0.098000 0.118000
1559624906286474188	1000 54 1.000000 0.290000 0.314000 1600 46 1.100000 2.190000 2.490000 600 51 1.000000 0.052000 0.052000 1.200000 0.107000 0.129000
1559624906793668647	1000 54 1.000000 0.286000 0.310000 1600 46 1.100000 1.974000 2.242000 600 51 1.000000 0.053000 0.053000 1.200000 0.097000 0.117000
1559624907300852522	1000 54 1.000000 0.287000 0.311000 1600 46 1.100000 1.977000 2.245000 600 52 1.000000 0.053000 0.053000 1.200000 0.096000 0.116000
1559624907808049689	1000 54 1.000000 0.286000 0.310000 1600 46 1.100000 1.977000 2.245000 600 52 1.000000 0.053000 0.053000 1.200000 0.098000 0.118000
1559624908316216689	1000 55 1.000000 0.289000 0.313000 1600 46 1.100000 2.149000 2.443000 600 52 1.000000 0.052000 0.052000 1.200000 0.108000 0.130000
1559624908823752314	1000 55 1.000000 0.284000 0.308000 1600 46 1.100000 1.978000 2.247000 600 52 1.000000 0.053000 0.053000 1.200000 0.098000 0.118000
1559624909330835230	1000 55 1.000000 0.285000 0.309000 1600 47 1.100000 1.998000 2.269000 600 52 1.000000 0.053000 0.053000 1.200000 0.099000 0.119000
1559624909837905105	1000 55 1.000000 0.284000 0.308000 1600 47 1.100000 1.991000 2.261000 600 52 1.000000 0.053000 0.053000 1.200000 0.099000 0.119000
1559624910344955522	1000 55 1.000000 0.285000 0.309000 1600 47 1.100000 2.001000 2.275000 600 53 1.000000 0.053000 0.053000 1.200000 0.099000 0.119000
1559624910851876606	1000 55 1.000000 0.276000 0.299000 1600 47 1.100000 1.953000 2.218000 600 52 1.000000 0.053000 0.053000 1.200000 0.095000 0.115000
1559624911358843397	1000 55 1.000000 0.285000 0.309000 1600 47 1.100000 1.993000 2.264000 600 52 1.000000 0.053000 0.053000 1.200000 0.098000 0.118000
1559624911866072314	1000 55 1.000000 0.286000 0.310000 1600 47 1.100000 1.994000 2.265000 600 52 1.000000 0.053000 0.053000 1.200000 0.098000 0.118000
1559624912373724022	1000 55 1.000000 0.286000 0.310000 1600 47 1.100000 1.981000 2.250000 600 54 1.000000 0.053000 0.053000 1.200000 0.098000 0.118000
1559624912880827897	1000 55 1.000000 0.287000 0.311000 1600 47 1.100000 1.986000 2.256000 600 53 1.000000 0.053000 0.053000 1.200000 0.096000 0.116000
1559624913387986231	1000 55 1.000000 0.285000 0.309000 1600 47 1.100000 1.988000 2.258000 600 53 1.000000 0.053000 0.053000 1.200000 0.099000 0.119000
1559624913895000939	1000 55 1.000000 0.287000 0.311000 1600 47 1.100000 1.979000 2.248000 600 53 1.000000 0.053000 0.053000 1.200000 0.098000 0.118000
1559624914403733439	1000 55 1.000000 0.286000 0.310000 1600 47 1.100000 1.986000 2.258000 600 53 1.000000 0.053000 0.053000 1.200000 0.098000 0.118000
1559624914911413564	1000 56 1.000000 0.286000 0.310000 1600 47 1.100000 1.991000 2.261000 600 53 1.000000 0.053000 0.053000 1.200000 0.098000 0.118000
1559624915418584231	1000 56 1.000000 0.286000 0.310000 1600 47 1.100000 2.039000 2.318000 600 53 1.000000 0.053000 0.053000 1.200000 0.099000 0.119000
1559624915925760523	1000 56 1.000000 0.286000 0.310000 1600 47 1.100000 2.031000 2.309000 600 53 1.000000 0.053000 0.053000 1.200000 0.100000 0.121000
1559624916432857023	1000 56 1.000000 0.287000 0.311000 1600 47 1.100000 1.990000 2.260000 600 53 1.000000 0.053000 0.053000 1.200000 0.098000 0.118000
1559624916940139065	1000 56 1.000000 0.287000 0.311000 1600 48 1.100000 2.234000 2.540000 600 53 1.000000 0.053000 0.053000 1.200000 0.105000 0.127000
1559624917447107231	1000 56 1.000000 0.286000 0.310000 1600 47 1.100000 1.960000 2.226000 600 54 1.000000 0.053000 0.053000 1.200000 0.096000 0.116000
1559624917954193315	1000 56 1.000000 0.286000 0.310000 1600 48 1.100000 1.987000 2.259000 600 53 1.000000 0.053000 0.053000 1.200000 0.099000 0.119000
1559624918461340190	1000 56 1.000000 0.287000 0.311000 1600 47 1.100000 1.981000 2.250000 600 53 1.000000 0.053000 0.053000 1.200000 0.098000 0.118000
1559624918968286815	1000 56 1.000000 0.285000 0.309000 1600 48 1.100000 2.195000 2.495000 600 53 1.000000 0.053000 0.053000 1.200000 0.104000 0.126000
1559624919475405482	1000 56 1.000000 0.287000 0.311000 1600 48 1.100000 1.951000 2.216000 600 54 1.000000 0.053000 0.053000 1.200000 0.097000 0.117000
1559624919982570190	1000 56 1.000000 0.287000 0.311000 1600 48 1.100000 1.983000 2.254000 600 53 1.000000 0.053000 0.053000 1.200000 0.098000 0.118000
1559624920489578357	1000 56 1.000000 0.287000 0.311000 1600 48 1.100000 1.980000 2.249000 600 53 1.000000 0.053000 0.053000 1.200000 0.098000 0.118000
1559624920996515148	1000 56 1.000000 0.287000 0.311000 1600 48 1.100000 2.136000 2.428000 600 54 1.000000 0.053000 0.053000 1.200000 0.103000 0.124000
1559624921503408523	1000 55 1.000000 0.287000 0.311000 1600 48 1.100000 1.961000 2.229000 600 55 1.000000 0.053000 0.053000 1.200000 0.098000 0.118000
1559624922012267024	1000 56 1.000000 0.279000 0.302000 1600 48 1.100000 1.981000 2.250000 600 53 1.000000 0.053000 0.053000 1.200000 0.100000 0.121000
1559624922519498315	1000 56 1.000000 0.289000 0.313000 1600 48 1.100000 1.994000 2.267000 600 53 1.000000 0.053000 0.053000 1.200000 0.098000 0.118000
1559624923027286732	1000 56 1.000000 0.287000 0.311000 1600 48 1.100000 1.962000 2.230000 600 54 1.000000 0.053000 0.053000 1.200000 0.097000 0.117000
1559624923535619899	1000 56 1.000000 0.289000 0.313000 1600 48 1.100000 2.103000 2.391000 600 55 1.000000 0.053000 0.053000 1.200000 0.102000 0.123000
1559624924042947315	1000 56 1.000000 0.288000 0.312000 1600 48 1.100000 1.990000 2.262000 600 53 1.000000 0.053000 0.053000 1.200000 0.097000 0.117000
1559624924550092107	1000 56 1.000000 0.288000 0.312000 1600 48 1.100000 1.987000 2.259000 600 53 1.000000 0.053000 0.053000 1.200000 0.098000 0.118000
1559624925057369732	1000 56 1.000000 0.282000 0.306000 1600 48 1.100000 2.011000 2.286000 600 53 1.000000 0.053000 0.053000 1.200000 0.098000 0.118000
1559624925565506524	1000 56 1.000000 0.291000 0.315000 1600 48 1.100000 2.078000 2.362000 600 54 1.000000 0.053000 0.053000 1.200000 0.103000 0.124000
1559624926072746232	1000 56 1.000000 0.287000 0.311000 1600 48 1.100000 2.099000 2.386000 600 54 1.000000 0.053000 0.053000 1.200000 0.098000 0.118000
1559624926579881732	1000 56 1.000000 0.287000 0.311000 1600 48 1.100000 2.003000 2.277000 600 53 1.000000 0.053000 0.053000 1.200000 0.098000 0.118000
1559624927086891399	1000 56 1.000000 0.288000 0.312000 1600 48 1.100000 2.002000 2.274000 600 53 1.000000 0.053000 0.053000 1.200000 0.097000 0.117000
1559624927596217233	1000 56 1.000000 0.288000 0.312000 1600 48 1.100000 2.038000 2.317000 600 54 1.000000 0.053000 0.053000 1.200000 0.107000 0.129000
1559624928116170149	1000 56 1.000000 0.294000 0.318000 1600 48 1.100000 2.051000 2.331000 600 54 1.000000 0.053000 0.053000 1.200000 0.102000 0.123000
1559624928624424274	1000 56 1.000000 0.282000 0.306000 1600 48 1.100000 2.003000 2.275000 600 54 1.000000 0.053000 0.053000 1.200000 0.099000 0.119000
1559624929132605358	1000 56 1.000000 0.287000 0.311000 1600 48 1.100000 2.007000 2.279000 600 53 1.000000 0.053000 0.053000 1.200000 0.099000 0.119000
1559624929639826316	1000 56 1.000000 0.287000 0.311000 1600 48 1.100000 2.003000 2.275000 600 54 1.000000 0.053000 0.053000 1.200000 0.099000 0.119000
1559624930148444441	1000 56 1.000000 0.283000 0.307000 1600 48 1.100000 2.247000 2.557000 600 54 1.000000 0.053000 0.053000 1.200000 0.109000 0.132000
1559624930655900900	1000 56 1.000000 0.288000 0.312000 1600 48 1.100000 2.003000 2.275000 600 53 1.000000 0.053000 0.053000 1.200000 0.099000 0.119000
1559624931164312983	1000 56 1.000000 0.287000 0.311000 1600 48 1.100000 1.994000 2.265000 600 54 1.000000 0.053000 0.053000 1.200000 0.099000 0.119000
1559624931672859608	1000 56 1.000000 0.288000 0.312000 1600 48 1.100000 2.008000 2.281000 600 54 1.000000 0.053000 0.053000 1.200000 0.099000 0.119000
1559624932180212608	1000 56 1.000000 0.294000 0.318000 1600 48 1.100000 2.259000 2.568000 600 54 1.000000 0.053000 0.053000 1.200000 0.111000 0.134000
1559624932687402316	1000 56 1.000000 0.277000 0.300000 1600 48 1.100000 1.987000 2.257000 600 53 1.000000 0.053000 0.053000 1.200000 0.099000 0.119000
1559624933194416483	1000 56 1.000000 0.287000 0.311000 1600 48 1.100000 2.013000 2.286000 600 54 1.000000 0.053000 0.053000 1.200000 0.099000 0.119000
1559624933701507983	1000 56 1.000000 0.287000 0.311000 1600 48 1.100000 1.992000 2.264000 600 54 1.000000 0.053000 0.053000 1.200000 0.099000 0.119000
1559624934208674942	1000 57 1.000000 0.302000 0.327000 1600 48 1.100000 2.269000 2.582000 600 54 1.000000 0.053000 0.053000 1.200000 0.110000 0.133000
1559624934715801067	1000 57 1.000000 0.287000 0.311000 1600 48 1.100000 1.987000 2.259000 600 54 1.000000 0.053000 0.053000 1.200000 0.098000 0.118000
1559624935223139567	1000 56 1.000000 0.283000 0.307000 1600 48 1.100000 1.950000 2.217000 600 54 1.000000 0.053000 0.053000 1.200000 0.098000 0.118000
1559624935730245775	1000 57 1.000000 0.287000 0.311000 1600 48 1.100000 1.989000 2.261000 600 54 1.000000 0.053000 0.053000 1.200000 0.099000 0.119000
1559624936237532275	1000 57 1.000000 0.287000 0.311000 1600 48 1.100000 2.005000 2.279000 600 54 1.000000 0.053000 0.053000 1.200000 0.099000 0.119000
1559624936744569400	1000 56 1.000000 0.287000 0.311000 1600 48 1.100000 1.994000 2.267000 600 54 1.000000 0.053000 0.053000 1.200000 0.099000 0.119000
1559624937251841275	1000 57 1.000000 0.286000 0.310000 1600 48 1.100000 2.004000 2.276000 600 54 1.000000 0.053000 0.053000 1.200000 0.099000 0.119000
1559624937760349734	1000 57 1.000000 0.287000 0.311000 1600 48 1.100000 1.998000 2.269000 600 54 1.000000 0.053000 0.053000 1.200000 0.098000 0.118000
1559624938266211567	1000 48 1.000000 0.259000 0.281000 1600 47 1.100000 2.045000 2.323000 600 52 1.000000 0.053000 0.053000 1.200000 0.099000 0.119000
1559624938771286651	1000 45 1.100000 0.049000 0.053000 1600 45 1.100000 0.256000 0.291000 600 49 1.000000 0.053000 0.053000 1.200000 0.023000 0.027000
