#Timestamp	CPU(0) Frequency(MHz)	CPU(0) Temperature(C)	A7 Voltage(V)	A7 Current(A)	A7 Power(W)	CPU(4) Frequency(MHz)	CPU(4) Temperature(C)	A15 Voltage(V)	A15 Current(A)	A15 Power(W)	GPU Frequency(MHz)	GPU Temperature(C)	GPU Voltage(V)	GPU Current(A)	GPU Power(W)	RAM Voltage(V)	RAM Current(A)	RAM Power(W)
1517695579391448472	800 52 1.000000 0.043000 0.045000 1500 45 1.000000 1.602000 1.755000 600 56 1.000000 0.054000 0.054000 1.200000 0.040000 0.048000
1517695579901342930	800 54 1.000000 0.229000 0.233000 1500 47 1.100000 2.502000 2.754000 600 58 1.000000 0.053000 0.053000 1.200000 0.043000 0.051000
1517695580406745930	800 55 1.000000 0.233000 0.237000 1500 47 1.100000 2.338000 2.571000 600 60 1.000000 0.054000 0.054000 1.200000 0.041000 0.049000
1517695580915045347	800 55 1.000000 0.210000 0.214000 1500 48 1.100000 2.372000 2.609000 600 60 1.000000 0.054000 0.054000 1.200000 0.042000 0.050000
1517695581429407555	800 56 1.000000 0.176000 0.180000 1500 48 1.100000 2.312000 2.543000 600 61 1.000000 0.054000 0.054000 1.200000 0.043000 0.051000
1517695581943686055	800 56 1.000000 0.183000 0.187000 1500 48 1.100000 2.347000 2.581000 600 61 1.000000 0.054000 0.054000 1.200000 0.044000 0.053000
1517695582459424514	800 56 1.000000 0.180000 0.183000 1500 48 1.100000 2.179000 2.396000 600 62 1.000000 0.054000 0.054000 1.200000 0.043000 0.051000
1517695582968376055	800 56 1.000000 0.176000 0.179000 1500 49 1.100000 2.286000 2.514000 600 62 1.000000 0.054000 0.054000 1.200000 0.046000 0.055000
1517695583476243222	800 57 1.000000 0.171000 0.174000 1500 49 1.100000 2.304000 2.534000 600 62 1.000000 0.054000 0.054000 1.200000 0.049000 0.059000
1517695583985204389	800 57 1.000000 0.182000 0.186000 1500 49 1.100000 2.274000 2.501000 600 62 1.000000 0.054000 0.054000 1.200000 0.048000 0.057000
1517695584519295389	800 57 1.000000 0.201000 0.205000 1500 49 1.100000 2.318000 2.549000 600 61 1.000000 0.054000 0.054000 1.200000 0.044000 0.053000
1517695585057588431	800 57 1.000000 0.224000 0.228000 1500 49 1.100000 2.409000 2.649000 600 62 1.000000 0.054000 0.054000 1.200000 0.050000 0.060000
1517695585567531431	800 57 1.000000 0.198000 0.202000 1500 49 1.100000 2.616000 2.880000 600 62 1.000000 0.055000 0.055000 1.200000 0.046000 0.055000
1517695586075293222	800 57 1.000000 0.238000 0.242000 1500 49 1.100000 2.333000 2.568000 600 63 1.000000 0.054000 0.054000 1.200000 0.040000 0.048000
1517695586580846348	800 57 1.000000 0.232000 0.236000 1500 49 1.100000 2.269000 2.495000 600 63 1.000000 0.055000 0.055000 1.200000 0.041000 0.049000
1517695587096161431	800 57 1.000000 0.226000 0.230000 1500 49 1.100000 2.394000 2.633000 600 63 1.000000 0.054000 0.054000 1.200000 0.042000 0.050000
1517695587607146889	800 57 1.000000 0.208000 0.212000 1500 49 1.100000 2.366000 2.602000 600 63 1.000000 0.054000 0.054000 1.200000 0.043000 0.051000
1517695588118328556	800 57 1.000000 0.161000 0.164000 1500 49 1.100000 2.396000 2.635000 600 63 1.000000 0.054000 0.054000 1.200000 0.042000 0.050000
1517695588624136806	800 57 1.000000 0.178000 0.181000 1500 49 1.100000 2.443000 2.687000 600 63 1.000000 0.054000 0.054000 1.200000 0.045000 0.054000
1517695589135989806	800 57 1.000000 0.177000 0.180000 1500 50 1.100000 2.366000 2.602000 600 63 1.000000 0.055000 0.055000 1.200000 0.046000 0.055000
1517695589675166598	800 56 1.000000 0.188000 0.192000 1500 50 1.100000 2.350000 2.585000 600 62 1.000000 0.054000 0.054000 1.200000 0.049000 0.059000
1517695590194703181	800 58 1.000000 0.187000 0.191000 1500 50 1.100000 2.385000 2.623000 600 63 1.000000 0.054000 0.054000 1.200000 0.049000 0.059000
1517695590700206431	800 57 1.000000 0.213000 0.217000 1500 50 1.100000 2.500000 2.752000 600 62 1.000000 0.054000 0.054000 1.200000 0.053000 0.064000
1517695591205728140	800 57 1.000000 0.234000 0.238000 1500 49 1.100000 2.709000 2.985000 600 62 1.000000 0.055000 0.055000 1.200000 0.050000 0.060000
1517695591710983223	800 57 1.000000 0.196000 0.200000 1500 50 1.100000 2.742000 3.021000 600 63 1.000000 0.054000 0.054000 1.200000 0.049000 0.059000
1517695592217001390	800 58 1.000000 0.191000 0.195000 1500 50 1.100000 2.779000 3.062000 600 63 1.000000 0.054000 0.054000 1.200000 0.048000 0.057000
1517695592722735723	800 57 1.000000 0.192000 0.196000 1500 50 1.100000 2.753000 3.036000 600 62 1.000000 0.054000 0.054000 1.200000 0.047000 0.056000
1517695593228369223	800 58 1.000000 0.196000 0.200000 1500 50 1.100000 2.807000 3.093000 600 62 1.000000 0.054000 0.054000 1.200000 0.045000 0.054000
1517695593734203307	800 58 1.000000 0.224000 0.228000 1500 50 1.100000 2.856000 3.147000 600 61 1.000000 0.055000 0.055000 1.200000 0.043000 0.051000
1517695594239859182	800 57 1.000000 0.190000 0.194000 1500 50 1.100000 2.227000 2.451000 600 61 1.000000 0.055000 0.055000 1.200000 0.051000 0.061000
1517695594745395599	800 55 1.000000 0.195000 0.199000 1500 50 1.100000 2.280000 2.510000 600 61 1.000000 0.055000 0.055000 1.200000 0.052000 0.062000
1517695595251101515	800 56 1.000000 0.191000 0.195000 1500 50 1.100000 2.432000 2.677000 600 61 1.000000 0.055000 0.055000 1.200000 0.052000 0.062000
1517695595756802807	800 55 1.000000 0.193000 0.197000 1500 50 1.100000 2.709000 2.985000 600 61 1.000000 0.055000 0.055000 1.200000 0.050000 0.060000
1517695596262446724	800 57 1.000000 0.208000 0.212000 1500 50 1.100000 2.763000 3.047000 600 60 1.000000 0.055000 0.055000 1.200000 0.049000 0.059000
1517695596768140307	800 55 1.000000 0.226000 0.230000 1500 50 1.100000 2.723000 3.003000 600 61 1.000000 0.055000 0.055000 1.200000 0.049000 0.059000
1517695597273900307	800 57 1.000000 0.236000 0.240000 1500 50 1.100000 2.904000 3.200000 600 60 1.000000 0.055000 0.055000 1.200000 0.047000 0.056000
1517695597779447891	800 57 1.000000 0.190000 0.194000 1500 50 1.100000 2.700000 2.972000 600 60 1.000000 0.055000 0.055000 1.200000 0.048000 0.057000
1517695598285039432	800 57 1.000000 0.193000 0.197000 1500 50 1.000000 2.463000 2.704000 600 60 1.000000 0.055000 0.055000 1.200000 0.042000 0.050000
1517695598790801349	800 57 1.000000 0.187000 0.191000 1500 50 1.100000 2.205000 2.427000 600 60 1.000000 0.055000 0.055000 1.200000 0.044000 0.053000
1517695599296546557	800 54 1.000000 0.203000 0.207000 1500 50 1.100000 2.239000 2.465000 600 63 1.000000 0.055000 0.055000 1.200000 0.042000 0.050000
1517695599802493849	800 54 1.000000 0.236000 0.240000 1500 50 1.100000 2.439000 2.685000 600 60 1.000000 0.055000 0.055000 1.200000 0.042000 0.050000
1517695600308331599	800 57 1.000000 0.191000 0.195000 1500 50 1.100000 2.463000 2.711000 600 60 1.000000 0.055000 0.055000 1.200000 0.049000 0.059000
1517695600814973558	800 57 1.000000 0.190000 0.194000 1500 50 1.100000 2.361000 2.597000 600 59 1.000000 0.055000 0.055000 1.200000 0.049000 0.059000
1517695601321144516	800 54 1.000000 0.190000 0.194000 1500 50 1.100000 2.250000 2.475000 600 60 1.000000 0.055000 0.055000 1.200000 0.052000 0.062000
1517695601827165558	800 54 1.000000 0.188000 0.192000 1500 50 1.100000 2.274000 2.501000 600 62 1.000000 0.055000 0.055000 1.200000 0.049000 0.059000
1517695602333016183	800 57 1.000000 0.221000 0.225000 1500 50 1.100000 2.347000 2.581000 600 60 1.000000 0.054000 0.054000 1.200000 0.048000 0.057000
1517695602839457516	800 54 1.000000 0.228000 0.232000 1500 50 1.100000 2.350000 2.585000 600 62 1.000000 0.055000 0.055000 1.200000 0.044000 0.053000
1517695603345363183	800 54 1.000000 0.221000 0.225000 1500 50 1.100000 2.398000 2.637000 600 60 1.000000 0.054000 0.054000 1.200000 0.045000 0.054000
1517695603851371808	800 54 1.000000 0.229000 0.233000 1500 50 1.100000 2.092000 2.303000 600 59 1.000000 0.055000 0.055000 1.200000 0.043000 0.051000
1517695604360738766	800 54 1.000000 0.175000 0.178000 1500 50 1.100000 2.402000 2.642000 600 60 1.000000 0.054000 0.054000 1.200000 0.040000 0.048000
1517695604868515433	800 56 1.000000 0.194000 0.198000 1500 50 1.100000 2.406000 2.649000 600 59 1.000000 0.055000 0.055000 1.200000 0.042000 0.050000
1517695605382523600	800 57 1.000000 0.219000 0.223000 1500 50 1.100000 2.655000 2.925000 600 60 1.000000 0.054000 0.054000 1.200000 0.041000 0.049000
1517695605888303392	800 55 1.000000 0.219000 0.223000 1500 49 1.100000 2.730000 3.008000 600 60 1.000000 0.055000 0.055000 1.200000 0.041000 0.049000
1517695606401064392	800 56 1.000000 0.240000 0.245000 1500 49 1.100000 2.755000 3.038000 600 61 1.000000 0.055000 0.055000 1.200000 0.043000 0.051000
1517695606913573475	800 56 1.000000 0.191000 0.195000 1500 49 1.100000 2.483000 2.731000 600 62 1.000000 0.055000 0.055000 1.200000 0.051000 0.061000
1517695607467201600	800 56 1.000000 0.180000 0.183000 1500 49 1.100000 2.145000 2.361000 600 61 1.000000 0.055000 0.055000 1.200000 0.042000 0.050000
1517695607972614475	800 57 1.000000 0.199000 0.203000 1500 50 1.100000 2.713000 2.992000 600 63 1.000000 0.055000 0.055000 1.200000 0.047000 0.056000
1517695608478249683	800 57 1.000000 0.226000 0.230000 1500 50 1.100000 2.272000 2.501000 600 61 1.000000 0.055000 0.055000 1.200000 0.041000 0.049000
1517695608984343225	800 56 1.000000 0.227000 0.231000 1500 50 1.100000 2.438000 2.684000 600 62 1.000000 0.055000 0.055000 1.200000 0.042000 0.050000
1517695609490532975	800 57 1.000000 0.205000 0.209000 1500 49 1.100000 2.566000 2.827000 600 62 1.000000 0.054000 0.054000 1.200000 0.041000 0.049000
1517695610043142975	800 56 1.000000 0.209000 0.213000 1500 49 1.100000 2.771000 3.053000 600 61 1.000000 0.055000 0.055000 1.200000 0.040000 0.048000
1517695610591186475	800 57 1.000000 0.198000 0.202000 1500 50 1.100000 2.791000 3.075000 600 62 1.000000 0.055000 0.055000 1.200000 0.044000 0.053000
1517695611142804100	800 57 1.000000 0.230000 0.234000 1500 50 1.100000 2.824000 3.112000 600 62 1.000000 0.054000 0.054000 1.200000 0.049000 0.059000
1517695611667163434	800 57 1.000000 0.219000 0.223000 1500 50 1.100000 2.664000 2.933000 600 62 1.000000 0.054000 0.054000 1.200000 0.052000 0.062000
1517695612197385976	800 57 1.000000 0.188000 0.192000 1500 50 1.100000 2.361000 2.599000 600 62 1.000000 0.055000 0.055000 1.200000 0.051000 0.061000
1517695612703038601	800 57 1.000000 0.194000 0.198000 1500 50 1.100000 2.304000 2.534000 600 61 1.000000 0.054000 0.054000 1.200000 0.050000 0.060000
1517695613208910351	800 56 1.000000 0.192000 0.196000 1500 50 1.100000 2.210000 2.433000 600 61 1.000000 0.055000 0.055000 1.200000 0.046000 0.055000
1517695613714644017	800 58 1.000000 0.180000 0.183000 1500 50 1.100000 2.363000 2.599000 600 61 1.000000 0.055000 0.055000 1.200000 0.046000 0.055000
1517695614220145059	800 58 1.000000 0.181000 0.184000 1500 50 1.100000 2.327000 2.559000 600 63 1.000000 0.054000 0.054000 1.200000 0.045000 0.054000
1517695614725579768	800 58 1.000000 0.194000 0.198000 1500 50 1.100000 2.253000 2.480000 600 63 1.000000 0.055000 0.055000 1.200000 0.047000 0.056000
1517695615231030643	800 58 1.000000 0.208000 0.212000 1500 50 1.100000 2.261000 2.487000 600 63 1.000000 0.055000 0.055000 1.200000 0.046000 0.055000
1517695615740485476	800 58 1.000000 0.233000 0.237000 1500 50 1.100000 2.429000 2.671000 600 63 1.000000 0.054000 0.054000 1.200000 0.050000 0.060000
1517695616251125143	800 58 1.000000 0.229000 0.233000 1500 50 1.100000 2.194000 2.415000 600 63 1.000000 0.055000 0.055000 1.200000 0.050000 0.060000
1517695616775220768	800 58 1.000000 0.176000 0.179000 1500 50 1.100000 2.307000 2.540000 600 63 1.000000 0.055000 0.055000 1.200000 0.050000 0.060000
1517695617287300976	800 58 1.000000 0.191000 0.195000 1500 50 1.100000 2.664000 2.933000 600 64 1.000000 0.055000 0.055000 1.200000 0.049000 0.059000
1517695617799381935	800 58 1.000000 0.182000 0.186000 1500 50 1.100000 2.569000 2.831000 600 63 1.000000 0.054000 0.054000 1.200000 0.050000 0.060000
1517695618313575476	800 58 1.000000 0.193000 0.197000 1500 50 1.100000 2.859000 3.150000 600 63 1.000000 0.054000 0.054000 1.200000 0.050000 0.060000
1517695618823441643	800 58 1.000000 0.193000 0.197000 1500 50 1.100000 2.743000 3.022000 600 63 1.000000 0.055000 0.055000 1.200000 0.049000 0.059000
1517695619330709935	800 58 1.000000 0.229000 0.233000 1500 50 1.100000 2.903000 3.199000 600 63 1.000000 0.055000 0.055000 1.200000 0.049000 0.059000
1517695619840626102	800 58 1.000000 0.188000 0.192000 1500 50 1.100000 2.349000 2.586000 600 63 1.000000 0.055000 0.055000 1.200000 0.042000 0.050000
1517695620347204477	800 58 1.000000 0.187000 0.191000 1500 50 1.100000 2.435000 2.678000 600 64 1.000000 0.055000 0.055000 1.200000 0.043000 0.051000
1517695620854306018	800 58 1.000000 0.172000 0.175000 1500 50 1.100000 2.425000 2.667000 600 63 1.000000 0.055000 0.055000 1.200000 0.045000 0.054000
1517695621359750102	800 58 1.000000 0.194000 0.198000 1500 50 1.100000 2.400000 2.640000 600 64 1.000000 0.054000 0.054000 1.200000 0.046000 0.055000
1517695621865394185	800 58 1.000000 0.200000 0.204000 1500 50 1.100000 2.389000 2.627000 600 62 1.000000 0.055000 0.055000 1.200000 0.049000 0.059000
1517695622371127310	800 56 1.000000 0.235000 0.239000 1500 50 1.100000 2.422000 2.664000 600 62 1.000000 0.055000 0.055000 1.200000 0.048000 0.057000
1517695622876905894	800 56 1.000000 0.182000 0.186000 1500 50 1.100000 2.490000 2.741000 600 63 1.000000 0.055000 0.055000 1.200000 0.049000 0.059000
1517695623382498977	800 55 1.000000 0.190000 0.194000 1500 50 1.100000 2.786000 3.070000 600 61 1.000000 0.055000 0.055000 1.200000 0.050000 0.060000
1517695623888106560	800 55 1.000000 0.195000 0.199000 1500 50 1.100000 2.616000 2.885000 600 61 1.000000 0.055000 0.055000 1.200000 0.049000 0.059000
1517695624393947144	800 55 1.000000 0.186000 0.190000 1500 50 1.100000 2.846000 3.136000 600 61 1.000000 0.055000 0.055000 1.200000 0.050000 0.060000
1517695624899398644	800 57 1.000000 0.214000 0.218000 1500 50 1.100000 2.893000 3.188000 600 61 1.000000 0.054000 0.054000 1.200000 0.045000 0.054000
1517695625405379311	800 57 1.000000 0.236000 0.240000 1500 50 1.100000 2.828000 3.116000 600 60 1.000000 0.054000 0.054000 1.200000 0.045000 0.054000
1517695625917092311	800 54 1.000000 0.185000 0.189000 1500 50 1.100000 2.363000 2.599000 600 60 1.000000 0.055000 0.055000 1.200000 0.047000 0.056000
1517695626428329852	800 56 1.000000 0.184000 0.188000 1500 50 1.100000 2.371000 2.608000 600 61 1.000000 0.055000 0.055000 1.200000 0.050000 0.060000
1517695626955513644	800 57 1.000000 0.181000 0.184000 1500 50 1.100000 2.667000 2.939000 600 62 1.000000 0.055000 0.055000 1.200000 0.051000 0.061000
1517695627485281811	800 57 1.000000 0.226000 0.230000 1500 50 1.100000 2.834000 3.123000 600 62 1.000000 0.055000 0.055000 1.200000 0.050000 0.060000
1517695628038081977	800 57 1.000000 0.236000 0.240000 1500 50 1.100000 2.789000 3.073000 600 62 1.000000 0.054000 0.054000 1.200000 0.045000 0.054000
1517695628591200228	800 58 1.000000 0.195000 0.199000 1500 50 1.100000 2.496000 2.748000 600 62 1.000000 0.055000 0.055000 1.200000 0.040000 0.048000
1517695629143093144	800 58 1.000000 0.182000 0.185000 1500 50 1.100000 2.784000 3.067000 600 63 1.000000 0.055000 0.055000 1.200000 0.051000 0.061000
1517695629659465394	800 58 1.000000 0.178000 0.181000 1500 50 1.100000 2.876000 3.169000 600 63 1.000000 0.055000 0.055000 1.200000 0.047000 0.056000
1517695630166504061	800 58 1.000000 0.187000 0.191000 1500 50 1.100000 2.744000 3.023000 600 63 1.000000 0.055000 0.055000 1.200000 0.047000 0.056000
1517695630674754728	800 58 1.000000 0.198000 0.202000 1500 50 1.100000 2.850000 3.140000 600 63 1.000000 0.055000 0.055000 1.200000 0.044000 0.053000
1517695631185068811	800 58 1.000000 0.190000 0.194000 1500 50 1.100000 2.245000 2.469000 600 63 1.000000 0.054000 0.054000 1.200000 0.045000 0.054000
1517695631695390020	800 58 1.000000 0.189000 0.193000 1500 50 1.100000 2.407000 2.647000 600 63 1.000000 0.055000 0.055000 1.200000 0.048000 0.057000
1517695632202198020	800 58 1.000000 0.193000 0.197000 1500 50 1.100000 2.343000 2.577000 600 63 1.000000 0.055000 0.055000 1.200000 0.049000 0.059000
1517695632708093978	800 58 1.000000 0.192000 0.196000 1500 50 1.100000 2.516000 2.770000 600 63 1.000000 0.055000 0.055000 1.200000 0.049000 0.059000
1517695633213780436	800 58 1.000000 0.185000 0.189000 1500 50 1.100000 2.722000 2.999000 600 62 1.000000 0.054000 0.054000 1.200000 0.050000 0.060000
1517695633719078395	800 58 1.000000 0.183000 0.186000 1500 50 1.100000 2.734000 3.007000 600 63 1.000000 0.055000 0.055000 1.200000 0.048000 0.057000
1517695634224466978	800 58 1.000000 0.215000 0.219000 1500 50 1.100000 2.190000 2.411000 600 63 1.000000 0.055000 0.055000 1.200000 0.049000 0.059000
1517695634732899895	800 58 1.000000 0.221000 0.225000 1500 50 1.100000 2.396000 2.635000 600 63 1.000000 0.055000 0.055000 1.200000 0.049000 0.059000
1517695635249960062	800 58 1.000000 0.216000 0.220000 1500 50 1.100000 2.294000 2.525000 600 63 1.000000 0.055000 0.055000 1.200000 0.049000 0.059000
1517695635761058062	800 58 1.000000 0.194000 0.198000 1500 50 1.100000 2.370000 2.607000 600 63 1.000000 0.055000 0.055000 1.200000 0.048000 0.057000
1517695636271381228	800 58 1.000000 0.190000 0.194000 1500 50 1.100000 2.238000 2.464000 600 63 1.000000 0.055000 0.055000 1.200000 0.045000 0.054000
1517695636777830104	800 58 1.000000 0.180000 0.183000 1500 50 1.100000 2.187000 2.407000 600 63 1.000000 0.055000 0.055000 1.200000 0.044000 0.053000
1517695637289133854	800 58 1.000000 0.195000 0.199000 1500 50 1.100000 2.316000 2.549000 600 63 1.000000 0.055000 0.055000 1.200000 0.042000 0.050000
1517695637794555645	800 58 1.000000 0.226000 0.230000 1500 50 1.100000 2.381000 2.621000 600 63 1.000000 0.055000 0.055000 1.200000 0.041000 0.049000
1517695638311619437	800 58 1.000000 0.191000 0.195000 1500 50 1.100000 2.721000 2.998000 600 63 1.000000 0.055000 0.055000 1.200000 0.050000 0.060000
1517695638822657562	800 58 1.000000 0.187000 0.191000 1500 50 1.100000 2.622000 2.889000 600 63 1.000000 0.054000 0.054000 1.200000 0.051000 0.061000
1517695639327944979	800 58 1.000000 0.192000 0.196000 1500 50 1.100000 2.475000 2.727000 600 63 1.000000 0.055000 0.055000 1.200000 0.049000 0.059000
1517695639833571854	800 58 1.000000 0.187000 0.191000 1500 50 1.100000 2.427000 2.672000 600 63 1.000000 0.055000 0.055000 1.200000 0.051000 0.061000
1517695640348567854	800 58 1.000000 0.176000 0.179000 1500 50 1.100000 2.290000 2.521000 600 63 1.000000 0.055000 0.055000 1.200000 0.050000 0.060000
1517695640874215312	800 58 1.000000 0.175000 0.178000 1500 50 1.100000 2.381000 2.619000 600 63 1.000000 0.055000 0.055000 1.200000 0.050000 0.060000
1517695641386718146	800 58 1.000000 0.214000 0.218000 1500 50 1.100000 2.372000 2.609000 600 63 1.000000 0.055000 0.055000 1.200000 0.050000 0.060000
1517695641892510646	800 58 1.000000 0.193000 0.197000 1500 50 1.100000 2.349000 2.583000 600 63 1.000000 0.055000 0.055000 1.200000 0.049000 0.059000
1517695642398490313	800 58 1.000000 0.191000 0.195000 1500 50 1.100000 2.275000 2.504000 600 62 1.000000 0.055000 0.055000 1.200000 0.045000 0.054000
1517695642904113438	800 57 1.000000 0.182000 0.186000 1500 50 1.100000 2.350000 2.587000 600 60 1.000000 0.055000 0.055000 1.200000 0.045000 0.054000
1517695643415174896	800 57 1.000000 0.185000 0.189000 1500 50 1.100000 2.240000 2.466000 600 59 1.000000 0.055000 0.055000 1.200000 0.041000 0.049000
1517695643920900354	800 57 1.000000 0.217000 0.221000 1500 50 1.100000 2.679000 2.952000 600 61 1.000000 0.054000 0.054000 1.200000 0.041000 0.049000
1517695644445159271	800 57 1.000000 0.235000 0.239000 1500 50 1.100000 2.790000 3.077000 600 62 1.000000 0.055000 0.055000 1.200000 0.043000 0.051000
1517695644968062146	800 57 1.000000 0.199000 0.203000 1500 50 1.100000 2.878000 3.171000 600 63 1.000000 0.055000 0.055000 1.200000 0.051000 0.061000
1517695645491760646	800 58 1.000000 0.184000 0.188000 1500 50 1.100000 2.304000 2.534000 600 63 1.000000 0.055000 0.055000 1.200000 0.052000 0.062000
1517695646030919646	800 58 1.000000 0.190000 0.194000 1500 50 1.100000 2.322000 2.554000 600 63 1.000000 0.055000 0.055000 1.200000 0.051000 0.061000
1517695646568179646	800 57 1.000000 0.227000 0.231000 1500 50 1.100000 2.315000 2.548000 600 63 1.000000 0.055000 0.055000 1.200000 0.043000 0.051000
1517695647073796271	800 55 1.000000 0.239000 0.244000 1500 50 1.100000 2.369000 2.608000 600 61 1.000000 0.055000 0.055000 1.200000 0.040000 0.048000
1517695647579447688	800 54 1.000000 0.219000 0.223000 1500 50 1.100000 2.831000 3.119000 600 60 1.000000 0.055000 0.055000 1.200000 0.041000 0.049000
1517695648085139313	800 54 1.000000 0.175000 0.178000 1500 50 1.100000 2.747000 3.027000 600 60 1.000000 0.055000 0.055000 1.200000 0.039000 0.047000
1517695648590744355	800 55 1.000000 0.183000 0.187000 1500 50 1.100000 2.333000 2.566000 600 61 1.000000 0.055000 0.055000 1.200000 0.049000 0.059000
1517695649096258772	800 55 1.000000 0.180000 0.183000 1500 50 1.100000 2.424000 2.666000 600 61 1.000000 0.055000 0.055000 1.200000 0.049000 0.059000
1517695649601824313	800 57 1.000000 0.174000 0.177000 1500 50 1.100000 2.187000 2.405000 600 62 1.000000 0.055000 0.055000 1.200000 0.046000 0.055000
1517695650108798147	800 58 1.000000 0.187000 0.191000 1500 50 1.100000 2.280000 2.508000 600 63 1.000000 0.055000 0.055000 1.200000 0.045000 0.054000
1517695650614150022	800 58 1.000000 0.176000 0.179000 1500 50 1.100000 2.332000 2.565000 600 63 1.000000 0.055000 0.055000 1.200000 0.045000 0.054000
1517695651119378480	800 58 1.000000 0.190000 0.194000 1500 50 1.100000 2.315000 2.548000 600 63 1.000000 0.055000 0.055000 1.200000 0.043000 0.051000
1517695651625120689	800 58 1.000000 0.190000 0.194000 1500 50 1.100000 2.415000 2.656000 600 63 1.000000 0.055000 0.055000 1.200000 0.042000 0.050000
1517695652131253022	800 58 1.000000 0.219000 0.223000 1500 50 1.100000 2.400000 2.642000 600 63 1.000000 0.054000 0.054000 1.200000 0.039000 0.047000
1517695652637040105	800 58 1.000000 0.226000 0.230000 1500 50 1.100000 2.411000 2.656000 600 63 1.000000 0.054000 0.054000 1.200000 0.052000 0.062000
1517695653145027314	800 58 1.000000 0.237000 0.241000 1500 50 1.100000 2.837000 3.126000 600 63 1.000000 0.055000 0.055000 1.200000 0.047000 0.056000
1517695653651317606	800 58 1.000000 0.239000 0.244000 1500 50 1.100000 2.767000 3.052000 600 63 1.000000 0.055000 0.055000 1.200000 0.050000 0.060000
1517695654156772856	800 58 1.000000 0.183000 0.187000 1500 50 1.100000 2.781000 3.064000 600 63 1.000000 0.055000 0.055000 1.200000 0.048000 0.057000
1517695654662620481	800 58 1.000000 0.236000 0.240000 1500 50 1.100000 2.353000 2.588000 600 63 1.000000 0.055000 0.055000 1.200000 0.038000 0.045000
1517695655168402314	800 58 1.000000 0.213000 0.217000 1500 50 1.100000 2.435000 2.680000 600 63 1.000000 0.055000 0.055000 1.200000 0.041000 0.049000
1517695655676598356	800 58 1.000000 0.180000 0.184000 1500 50 1.100000 2.181000 2.401000 600 63 1.000000 0.055000 0.055000 1.200000 0.044000 0.053000
1517695656182134148	800 58 1.000000 0.190000 0.194000 1500 50 1.100000 2.236000 2.461000 600 63 1.000000 0.055000 0.055000 1.200000 0.044000 0.053000
1517695656691213648	800 58 1.000000 0.193000 0.197000 1500 50 1.100000 2.303000 2.533000 600 63 1.000000 0.054000 0.054000 1.200000 0.047000 0.056000
1517695657199293439	800 58 1.000000 0.184000 0.188000 1500 50 1.100000 2.276000 2.505000 600 63 1.000000 0.055000 0.055000 1.200000 0.049000 0.059000
1517695657717361523	800 58 1.000000 0.179000 0.182000 1500 50 1.100000 2.310000 2.543000 600 63 1.000000 0.054000 0.054000 1.200000 0.052000 0.062000
1517695658228578856	800 58 1.000000 0.180000 0.183000 1500 50 1.100000 2.421000 2.665000 600 63 1.000000 0.055000 0.055000 1.200000 0.051000 0.061000
1517695658734116231	800 58 1.000000 0.220000 0.224000 1500 50 1.100000 2.733000 3.009000 600 63 1.000000 0.055000 0.055000 1.200000 0.049000 0.059000
1517695659239810231	800 58 1.000000 0.236000 0.240000 1500 50 1.100000 2.781000 3.064000 600 62 1.000000 0.055000 0.055000 1.200000 0.050000 0.060000
1517695659745553898	800 55 1.000000 0.231000 0.235000 1500 50 1.100000 2.876000 3.169000 600 60 1.000000 0.055000 0.055000 1.200000 0.050000 0.060000
1517695660251190398	800 54 1.000000 0.236000 0.240000 1500 50 1.100000 2.747000 3.027000 600 60 1.000000 0.055000 0.055000 1.200000 0.048000 0.057000
1517695660756810440	800 54 1.000000 0.188000 0.192000 1500 50 1.100000 2.776000 3.059000 600 60 1.000000 0.055000 0.055000 1.200000 0.048000 0.057000
1517695661264164856	800 54 1.000000 0.202000 0.206000 1500 50 1.100000 2.188000 2.408000 600 60 1.000000 0.055000 0.055000 1.200000 0.050000 0.060000
1517695661771817648	800 55 1.000000 0.171000 0.174000 1500 50 1.100000 2.384000 2.622000 600 61 1.000000 0.055000 0.055000 1.200000 0.049000 0.059000
1517695662316659107	800 56 1.000000 0.189000 0.193000 1500 50 1.100000 2.586000 2.849000 600 63 1.000000 0.055000 0.055000 1.200000 0.051000 0.061000
1517695662860988898	800 57 1.000000 0.181000 0.184000 1500 50 1.100000 2.810000 3.096000 600 62 1.000000 0.055000 0.055000 1.200000 0.054000 0.065000
1517695663406179690	800 57 1.000000 0.232000 0.236000 1500 50 1.100000 2.747000 3.027000 600 62 1.000000 0.054000 0.054000 1.200000 0.046000 0.055000
1517695663959123982	800 58 1.000000 0.190000 0.194000 1500 50 1.100000 2.356000 2.596000 600 62 1.000000 0.055000 0.055000 1.200000 0.051000 0.061000
1517695664504270732	800 57 1.000000 0.209000 0.213000 1500 50 1.100000 2.776000 3.059000 600 62 1.000000 0.054000 0.054000 1.200000 0.053000 0.064000
1517695665009961857	800 56 1.000000 0.239000 0.244000 1500 50 1.100000 2.762000 3.043000 600 62 1.000000 0.055000 0.055000 1.200000 0.049000 0.059000
1517695665515508690	800 57 1.000000 0.225000 0.229000 1500 50 1.100000 2.691000 2.965000 600 63 1.000000 0.055000 0.055000 1.200000 0.050000 0.060000
1517695666021557274	800 58 1.000000 0.226000 0.230000 1500 50 1.100000 2.876000 3.169000 600 63 1.000000 0.055000 0.055000 1.200000 0.045000 0.054000
1517695666544908982	800 58 1.000000 0.189000 0.193000 1500 50 1.100000 2.203000 2.423000 600 63 1.000000 0.054000 0.054000 1.200000 0.046000 0.055000
1517695667062617857	800 58 1.000000 0.235000 0.239000 1500 50 1.100000 2.401000 2.641000 600 63 1.000000 0.055000 0.055000 1.200000 0.047000 0.056000
1517695667587608982	800 58 1.000000 0.222000 0.226000 1500 50 1.100000 2.046000 2.252000 600 63 1.000000 0.054000 0.054000 1.200000 0.048000 0.057000
1517695668095568274	800 58 1.000000 0.205000 0.209000 1500 50 1.100000 2.362000 2.598000 600 63 1.000000 0.055000 0.055000 1.200000 0.050000 0.060000
1517695668608649941	800 58 1.000000 0.182000 0.186000 1500 50 1.100000 2.516000 2.767000 600 63 1.000000 0.055000 0.055000 1.200000 0.051000 0.061000
1517695669122105774	800 58 1.000000 0.190000 0.194000 1500 50 1.100000 2.605000 2.868000 600 63 1.000000 0.055000 0.055000 1.200000 0.051000 0.061000
1517695669627885357	800 58 1.000000 0.195000 0.199000 1500 50 1.100000 2.706000 2.979000 600 64 1.000000 0.055000 0.055000 1.200000 0.053000 0.064000
1517695670142636358	800 58 1.000000 0.182000 0.186000 1500 50 1.100000 2.387000 2.625000 600 63 1.000000 0.055000 0.055000 1.200000 0.049000 0.059000
1517695670648194608	800 57 1.000000 0.196000 0.200000 1500 50 1.100000 2.331000 2.564000 600 63 1.000000 0.055000 0.055000 1.200000 0.051000 0.061000
1517695671153798649	800 57 1.000000 0.207000 0.211000 1500 50 1.100000 2.416000 2.657000 600 62 1.000000 0.055000 0.055000 1.200000 0.051000 0.061000
1517695671659361233	800 57 1.000000 0.236000 0.240000 1500 50 1.100000 2.412000 2.653000 600 62 1.000000 0.055000 0.055000 1.200000 0.050000 0.060000
1517695672174555191	800 58 1.000000 0.234000 0.238000 1500 50 1.100000 2.225000 2.449000 600 64 1.000000 0.055000 0.055000 1.200000 0.058000 0.070000
1517695672682515649	800 58 1.000000 0.237000 0.241000 1500 50 1.100000 2.352000 2.587000 600 64 1.000000 0.055000 0.055000 1.200000 0.048000 0.057000
1517695673193931066	800 58 1.000000 0.194000 0.198000 1500 50 1.100000 2.226000 2.450000 600 63 1.000000 0.055000 0.055000 1.200000 0.045000 0.054000
1517695673721798983	800 58 1.000000 0.176000 0.179000 1500 50 1.100000 2.321000 2.553000 600 63 1.000000 0.055000 0.055000 1.200000 0.044000 0.053000
1517695674233256191	800 58 1.000000 0.194000 0.198000 1500 50 1.100000 2.429000 2.671000 600 64 1.000000 0.055000 0.055000 1.200000 0.045000 0.054000
1517695674747237775	800 58 1.000000 0.188000 0.192000 1500 50 1.100000 2.320000 2.554000 600 63 1.000000 0.055000 0.055000 1.200000 0.045000 0.054000
1517695675258870566	800 58 1.000000 0.211000 0.215000 1500 50 1.100000 2.184000 2.404000 600 63 1.000000 0.054000 0.054000 1.200000 0.044000 0.053000
1517695675781322983	800 58 1.000000 0.185000 0.188000 1500 50 1.100000 2.630000 2.895000 600 63 1.000000 0.055000 0.055000 1.200000 0.049000 0.059000
1517695676286831858	800 58 1.000000 0.144000 0.147000 1500 50 1.100000 2.603000 2.868000 600 63 1.000000 0.055000 0.055000 1.200000 0.050000 0.060000
1517695676795498525	800 58 1.000000 0.188000 0.192000 1500 50 1.100000 2.418000 2.659000 600 63 1.000000 0.055000 0.055000 1.200000 0.046000 0.055000
1517695677301017900	800 58 1.000000 0.191000 0.195000 1500 50 1.100000 2.412000 2.653000 600 61 1.000000 0.055000 0.055000 1.200000 0.052000 0.062000
1517695677806845608	800 55 1.000000 0.175000 0.178000 1500 50 1.100000 2.282000 2.512000 600 60 1.000000 0.055000 0.055000 1.200000 0.053000 0.064000
1517695678316705233	800 57 1.000000 0.233000 0.237000 1500 50 1.100000 2.339000 2.572000 600 60 1.000000 0.055000 0.055000 1.200000 0.050000 0.060000
1517695678823087192	800 56 1.000000 0.237000 0.241000 1500 50 1.100000 2.205000 2.425000 600 61 1.000000 0.055000 0.055000 1.200000 0.044000 0.053000
1517695679353306567	800 57 1.000000 0.196000 0.200000 1500 50 1.100000 2.527000 2.782000 600 62 1.000000 0.055000 0.055000 1.200000 0.041000 0.049000
1517695679877818900	800 58 1.000000 0.222000 0.226000 1500 50 1.100000 2.826000 3.114000 600 62 1.000000 0.055000 0.055000 1.200000 0.042000 0.050000
1517695680400851442	800 58 1.000000 0.229000 0.233000 1500 50 1.100000 2.747000 3.027000 600 63 1.000000 0.054000 0.054000 1.200000 0.048000 0.057000
1517695680925952900	800 58 1.000000 0.203000 0.207000 1500 50 1.100000 2.412000 2.653000 600 63 1.000000 0.055000 0.055000 1.200000 0.052000 0.062000
1517695681431325651	800 58 1.000000 0.190000 0.194000 1500 50 1.100000 2.409000 2.649000 600 63 1.000000 0.054000 0.054000 1.200000 0.049000 0.059000
1517695681936929442	800 54 1.000000 0.190000 0.194000 1500 50 1.100000 2.234000 2.459000 600 62 1.000000 0.055000 0.055000 1.200000 0.045000 0.054000
1517695682442992151	800 57 1.000000 0.225000 0.229000 1500 50 1.100000 2.531000 2.789000 600 61 1.000000 0.055000 0.055000 1.200000 0.042000 0.050000
1517695682963876276	800 57 1.000000 0.235000 0.239000 1500 50 1.100000 2.769000 3.054000 600 62 1.000000 0.055000 0.055000 1.200000 0.043000 0.051000
1517695683503429734	800 57 1.000000 0.188000 0.192000 1500 50 1.100000 2.751000 3.031000 600 62 1.000000 0.055000 0.055000 1.200000 0.049000 0.059000
1517695684059124984	800 58 1.000000 0.195000 0.199000 1500 50 1.100000 2.382000 2.620000 600 62 1.000000 0.055000 0.055000 1.200000 0.048000 0.057000
1517695684619118151	800 57 1.000000 0.189000 0.193000 1500 50 1.100000 2.301000 2.531000 600 62 1.000000 0.055000 0.055000 1.200000 0.049000 0.059000
1517695685125118276	800 58 1.000000 0.197000 0.201000 1500 50 1.100000 2.297000 2.528000 600 63 1.000000 0.055000 0.055000 1.200000 0.051000 0.061000
1517695685630474609	800 58 1.000000 0.190000 0.194000 1500 50 1.100000 2.217000 2.438000 600 63 1.000000 0.055000 0.055000 1.200000 0.047000 0.056000
1517695686183137109	800 58 1.000000 0.177000 0.180000 1500 50 1.100000 2.318000 2.549000 600 62 1.000000 0.055000 0.055000 1.200000 0.047000 0.056000
1517695686705804359	800 58 1.000000 0.193000 0.197000 1500 50 1.100000 2.256000 2.483000 600 63 1.000000 0.055000 0.055000 1.200000 0.042000 0.050000
1517695687211057485	800 58 1.000000 0.180000 0.183000 1500 50 1.100000 2.239000 2.465000 600 63 1.000000 0.055000 0.055000 1.200000 0.042000 0.050000
1517695687716649235	800 56 1.000000 0.187000 0.191000 1500 50 1.100000 2.411000 2.656000 600 63 1.000000 0.055000 0.055000 1.200000 0.041000 0.049000
1517695688222478985	800 55 1.000000 0.215000 0.219000 1500 50 1.100000 2.769000 3.051000 600 61 1.000000 0.055000 0.055000 1.200000 0.042000 0.050000
1517695688728177485	800 58 1.000000 0.219000 0.223000 1500 50 1.100000 2.799000 3.084000 600 61 1.000000 0.055000 0.055000 1.200000 0.039000 0.047000
1517695689234215193	800 56 1.000000 0.176000 0.179000 1500 50 1.100000 2.696000 2.973000 600 62 1.000000 0.055000 0.055000 1.200000 0.051000 0.061000
1517695689739886985	800 58 1.000000 0.185000 0.189000 1500 50 1.100000 2.244000 2.470000 600 61 1.000000 0.054000 0.054000 1.200000 0.051000 0.061000
1517695690245811985	800 58 1.000000 0.195000 0.199000 1500 50 1.100000 2.222000 2.446000 600 61 1.000000 0.055000 0.055000 1.200000 0.049000 0.059000
1517695690751417485	800 55 1.000000 0.180000 0.183000 1500 50 1.100000 2.276000 2.505000 600 61 1.000000 0.055000 0.055000 1.200000 0.044000 0.053000
1517695691257051527	800 56 1.000000 0.216000 0.220000 1500 50 1.100000 2.348000 2.582000 600 62 1.000000 0.055000 0.055000 1.200000 0.047000 0.056000
1517695691762825818	800 56 1.000000 0.225000 0.230000 1500 50 1.100000 2.372000 2.609000 600 61 1.000000 0.055000 0.055000 1.200000 0.045000 0.054000
1517695692268610818	800 58 1.000000 0.190000 0.194000 1500 50 1.100000 2.466000 2.715000 600 61 1.000000 0.055000 0.055000 1.200000 0.050000 0.060000
1517695692774435569	800 58 1.000000 0.184000 0.188000 1500 50 1.100000 2.717000 2.991000 600 61 1.000000 0.055000 0.055000 1.200000 0.049000 0.059000
1517695693279934610	800 56 1.000000 0.186000 0.190000 1500 50 1.100000 2.809000 3.095000 600 61 1.000000 0.055000 0.055000 1.200000 0.048000 0.057000
1517695693785745902	800 58 1.000000 0.183000 0.187000 1500 50 1.100000 2.769000 3.051000 600 61 1.000000 0.055000 0.055000 1.200000 0.051000 0.061000
1517695694291586485	800 56 1.000000 0.219000 0.223000 1500 50 1.100000 2.817000 3.104000 600 62 1.000000 0.054000 0.054000 1.200000 0.051000 0.061000
1517695694797292194	800 58 1.000000 0.213000 0.217000 1500 50 1.100000 2.843000 3.132000 600 62 1.000000 0.055000 0.055000 1.200000 0.049000 0.059000
1517695695303371361	800 55 1.000000 0.240000 0.245000 1500 50 1.100000 2.707000 2.983000 600 61 1.000000 0.055000 0.055000 1.200000 0.049000 0.059000
1517695695809387777	800 54 1.000000 0.190000 0.194000 1500 50 1.100000 2.325000 2.557000 600 60 1.000000 0.054000 0.054000 1.200000 0.044000 0.053000
1517695696315074069	800 57 1.000000 0.191000 0.195000 1500 50 1.100000 2.353000 2.588000 600 60 1.000000 0.055000 0.055000 1.200000 0.045000 0.054000
1517695696826171486	800 56 1.000000 0.224000 0.228000 1500 50 1.100000 2.690000 2.964000 600 60 1.000000 0.055000 0.055000 1.200000 0.047000 0.056000
1517695697360180277	800 57 1.000000 0.234000 0.238000 1500 50 1.100000 2.857000 3.148000 600 62 1.000000 0.055000 0.055000 1.200000 0.052000 0.062000
1517695697881591819	800 58 1.000000 0.228000 0.232000 1500 50 1.100000 2.820000 3.110000 600 62 1.000000 0.054000 0.054000 1.200000 0.049000 0.059000
1517695698410640778	800 58 1.000000 0.192000 0.196000 1500 50 1.100000 2.375000 2.612000 600 63 1.000000 0.055000 0.055000 1.200000 0.046000 0.055000
1517695698943561403	800 58 1.000000 0.229000 0.233000 1500 50 1.100000 2.116000 2.327000 600 63 1.000000 0.054000 0.054000 1.200000 0.042000 0.050000
1517695699460813069	800 58 1.000000 0.218000 0.222000 1500 50 1.100000 2.120000 2.334000 600 63 1.000000 0.055000 0.055000 1.200000 0.044000 0.053000
1517695699966293569	800 55 1.000000 0.177000 0.180000 1500 50 1.100000 2.246000 2.472000 600 62 1.000000 0.055000 0.055000 1.200000 0.048000 0.058000
1517695700475947278	800 56 1.000000 0.195000 0.199000 1500 50 1.100000 2.657000 2.928000 600 60 1.000000 0.055000 0.055000 1.200000 0.051000 0.061000
1517695701019326028	800 57 1.000000 0.215000 0.219000 1500 50 1.100000 2.771000 3.053000 600 62 1.000000 0.055000 0.055000 1.200000 0.050000 0.060000
1517695701563108778	800 57 1.000000 0.247000 0.252000 1500 50 1.100000 2.719000 2.993000 600 62 1.000000 0.055000 0.055000 1.200000 0.048000 0.057000
1517695702076258945	800 58 1.000000 0.226000 0.230000 1500 50 1.100000 2.474000 2.723000 600 63 1.000000 0.055000 0.055000 1.200000 0.041000 0.049000
1517695702583414195	800 58 1.000000 0.216000 0.220000 1500 50 1.100000 2.279000 2.506000 600 63 1.000000 0.055000 0.055000 1.200000 0.042000 0.050000
1517695703138866736	800 57 1.000000 0.183000 0.187000 1500 50 1.100000 2.254000 2.481000 600 62 1.000000 0.055000 0.055000 1.200000 0.040000 0.048000
1517695703647767487	800 58 1.000000 0.187000 0.191000 1500 50 1.100000 2.408000 2.648000 600 63 1.000000 0.055000 0.055000 1.200000 0.041000 0.049000
1517695704195125903	800 56 1.000000 0.184000 0.188000 1500 50 1.100000 2.170000 2.389000 600 62 1.000000 0.055000 0.055000 1.200000 0.042000 0.050000
1517695704706723945	800 58 1.000000 0.235000 0.239000 1500 50 1.100000 2.308000 2.541000 600 63 1.000000 0.055000 0.055000 1.200000 0.046000 0.055000
1517695705212208987	800 58 1.000000 0.211000 0.215000 1500 50 1.100000 2.293000 2.526000 600 63 1.000000 0.055000 0.055000 1.200000 0.048000 0.057000
1517695705747111737	800 57 1.000000 0.172000 0.175000 1500 50 1.100000 2.604000 2.867000 600 62 1.000000 0.055000 0.055000 1.200000 0.051000 0.061000
1517695706267502778	800 58 1.000000 0.193000 0.197000 1500 50 1.100000 2.253000 2.480000 600 64 1.000000 0.055000 0.055000 1.200000 0.048000 0.057000
1517695706773169362	800 56 1.000000 0.190000 0.194000 1500 50 1.100000 2.307000 2.537000 600 62 1.000000 0.055000 0.055000 1.200000 0.051000 0.061000
1517695707278903070	800 56 1.000000 0.185000 0.189000 1500 50 1.100000 2.163000 2.381000 600 62 1.000000 0.055000 0.055000 1.200000 0.048000 0.057000
1517695707784571779	800 58 1.000000 0.206000 0.210000 1500 50 1.100000 2.257000 2.484000 600 62 1.000000 0.055000 0.055000 1.200000 0.048000 0.057000
1517695708290300487	800 56 1.000000 0.225000 0.229000 1500 50 1.000000 2.437000 2.675000 600 61 1.000000 0.055000 0.055000 1.200000 0.047000 0.056000
1517695708795971070	800 57 1.000000 0.233000 0.237000 1500 50 1.100000 2.362000 2.598000 600 61 1.000000 0.055000 0.055000 1.200000 0.043000 0.051000
1517695709301578446	800 49 1.000000 0.038000 0.039000 1500 48 1.000000 0.427000 0.468000 600 54 1.000000 0.054000 0.054000 1.200000 0.023000 0.027000
1517695709807014487	800 47 1.000000 0.038000 0.039000 1500 46 1.100000 0.230000 0.253000 600 51 1.000000 0.054000 0.054000 1.200000 0.024000 0.028000
