#Timestamp	CPU(0) Frequency(MHz)	CPU(0) Temperature(C)	A7 Voltage(V)	A7 Current(A)	A7 Power(W)	CPU(4) Frequency(MHz)	CPU(4) Temperature(C)	A15 Voltage(V)	A15 Current(A)	A15 Power(W)	GPU Frequency(MHz)	GPU Temperature(C)	GPU Voltage(V)	GPU Current(A)	GPU Power(W)	RAM Voltage(V)	RAM Current(A)	RAM Power(W)
1517292875430469341	1300 39 1.200000 0.077000 0.095000 900 39 0.900000 0.507000 0.476000 600 43 1.000000 0.051000 0.051000 1.200000 0.042000 0.050000
1517292875938086882	1300 39 1.200000 0.079000 0.096000 900 38 0.900000 0.474000 0.444000 600 43 1.000000 0.051000 0.051000 1.200000 0.037000 0.044000
1517292876445473591	1300 39 1.200000 0.078000 0.095000 900 38 0.900000 0.480000 0.451000 600 43 1.000000 0.051000 0.051000 1.200000 0.038000 0.045000
1517292876953396966	1300 41 1.200000 0.077000 0.094000 900 38 0.900000 0.483000 0.454000 600 44 1.000000 0.051000 0.051000 1.200000 0.039000 0.047000
1517292877466895674	1300 43 1.200000 0.377000 0.456000 900 40 0.900000 1.336000 1.259000 600 46 1.000000 0.051000 0.051000 1.200000 0.046000 0.055000
1517292878002086633	1300 43 1.200000 0.265000 0.322000 900 40 0.900000 0.687000 0.649000 600 46 1.000000 0.051000 0.051000 1.200000 0.043000 0.051000
1517292878509544466	1300 44 1.200000 0.264000 0.321000 900 40 0.900000 1.365000 1.287000 600 47 1.000000 0.051000 0.051000 1.200000 0.042000 0.050000
1517292879066609508	1300 44 1.200000 0.239000 0.290000 900 41 0.900000 1.413000 1.332000 600 47 1.000000 0.052000 0.052000 1.200000 0.050000 0.060000
1517292879612924216	1300 43 1.200000 0.388000 0.470000 900 40 0.900000 0.600000 0.568000 600 46 1.000000 0.051000 0.051000 1.200000 0.042000 0.050000
1517292880122418633	1300 43 1.200000 0.303000 0.367000 900 40 0.900000 1.418000 1.337000 600 47 1.000000 0.052000 0.052000 1.200000 0.041000 0.049000
1517292880688824758	1300 44 1.200000 0.341000 0.413000 900 41 0.900000 1.298000 1.224000 600 47 1.000000 0.052000 0.052000 1.200000 0.048000 0.057000
1517292881196988508	1300 44 1.200000 0.278000 0.338000 900 41 0.900000 0.855000 0.807000 600 47 1.000000 0.052000 0.052000 1.200000 0.046000 0.055000
1517292881755314466	1300 44 1.200000 0.280000 0.340000 900 41 0.900000 1.148000 1.081000 600 47 1.000000 0.052000 0.052000 1.200000 0.039000 0.047000
1517292882262724591	1300 43 1.200000 0.443000 0.536000 900 41 0.900000 1.396000 1.315000 600 46 1.000000 0.052000 0.052000 1.200000 0.048000 0.057000
1517292882814524008	1300 45 1.200000 0.259000 0.314000 900 41 0.900000 0.661000 0.625000 600 48 1.000000 0.052000 0.052000 1.200000 0.051000 0.061000
1517292883374605217	1300 45 1.200000 0.275000 0.334000 900 42 0.900000 1.421000 1.340000 600 48 1.000000 0.052000 0.052000 1.200000 0.041000 0.049000
1517292883891700092	1300 45 1.200000 0.287000 0.347000 900 41 0.900000 1.354000 1.276000 600 48 1.000000 0.051000 0.051000 1.200000 0.042000 0.050000
1517292884399073217	1300 43 1.200000 0.392000 0.474000 900 41 0.900000 1.138000 1.071000 600 46 1.000000 0.052000 0.052000 1.200000 0.047000 0.056000
1517292884944782217	1300 45 1.200000 0.359000 0.435000 900 42 0.900000 0.675000 0.638000 600 47 1.000000 0.052000 0.052000 1.200000 0.051000 0.061000
1517292885512780175	1300 45 1.200000 0.432000 0.523000 900 42 0.900000 1.365000 1.285000 600 47 1.000000 0.052000 0.052000 1.200000 0.040000 0.048000
1517292886049046009	1300 45 1.200000 0.403000 0.488000 900 41 0.900000 1.360000 1.281000 600 48 1.000000 0.052000 0.052000 1.200000 0.043000 0.051000
1517292886556907050	1300 44 1.200000 0.312000 0.379000 900 42 0.900000 1.080000 1.017000 600 47 1.000000 0.052000 0.052000 1.200000 0.047000 0.056000
1517292887095285050	1300 45 1.200000 0.248000 0.302000 900 42 0.900000 1.176000 1.107000 600 48 1.000000 0.052000 0.052000 1.200000 0.044000 0.053000
1517292887652760884	1300 45 1.200000 0.435000 0.526000 900 42 0.900000 1.416000 1.333000 600 48 1.000000 0.052000 0.052000 1.200000 0.042000 0.050000
1517292888192451092	1300 45 1.200000 0.415000 0.501000 900 42 0.900000 1.332000 1.256000 600 47 1.000000 0.052000 0.052000 1.200000 0.042000 0.050000
1517292888700624926	1300 44 1.200000 0.401000 0.485000 900 42 0.900000 0.915000 0.864000 600 48 1.000000 0.052000 0.052000 1.200000 0.049000 0.059000
1517292889243526259	1300 45 1.200000 0.266000 0.323000 900 42 0.900000 1.182000 1.113000 600 48 1.000000 0.051000 0.051000 1.200000 0.042000 0.050000
1517292889799572884	1300 45 1.200000 0.354000 0.429000 900 42 0.900000 1.360000 1.281000 600 48 1.000000 0.052000 0.052000 1.200000 0.043000 0.051000
1517292890308001842	1300 44 1.200000 0.269000 0.327000 900 41 0.900000 1.065000 1.006000 600 47 1.000000 0.052000 0.052000 1.200000 0.042000 0.050000
1517292890816212342	1300 44 1.200000 0.312000 0.379000 900 42 0.900000 1.254000 1.182000 600 48 1.000000 0.052000 0.052000 1.200000 0.041000 0.049000
1517292891360772593	1300 45 1.200000 0.201000 0.245000 900 42 0.900000 1.230000 1.158000 600 48 1.000000 0.052000 0.052000 1.200000 0.043000 0.051000
1517292891869457218	1300 45 1.200000 0.385000 0.466000 900 42 0.900000 1.357000 1.278000 600 48 1.000000 0.052000 0.052000 1.200000 0.042000 0.050000
1517292892436778218	1300 45 1.200000 0.373000 0.452000 900 42 0.900000 1.455000 1.372000 600 48 1.000000 0.052000 0.052000 1.200000 0.041000 0.049000
1517292892944267509	1300 43 1.200000 0.404000 0.488000 900 41 0.900000 1.452000 1.367000 600 46 1.000000 0.052000 0.052000 1.200000 0.039000 0.047000
1517292893452520884	1300 44 1.200000 0.217000 0.265000 900 41 0.900000 1.162000 1.098000 600 48 1.000000 0.052000 0.052000 1.200000 0.045000 0.054000
1517292893968792968	1300 45 1.200000 0.305000 0.370000 900 42 0.900000 1.418000 1.337000 600 48 1.000000 0.052000 0.052000 1.200000 0.040000 0.048000
1517292894490100718	1300 43 1.200000 0.365000 0.442000 900 41 0.900000 1.320000 1.244000 600 46 1.000000 0.052000 0.052000 1.200000 0.045000 0.054000
1517292895048729301	1300 45 1.200000 0.251000 0.306000 900 41 0.900000 0.683000 0.646000 600 48 1.000000 0.052000 0.052000 1.200000 0.052000 0.062000
1517292895597714135	1300 45 1.200000 0.346000 0.420000 900 42 0.900000 1.467000 1.381000 600 48 1.000000 0.052000 0.052000 1.200000 0.041000 0.049000
1517292896154520260	1300 45 1.200000 0.292000 0.354000 900 42 0.900000 1.083000 1.019000 600 48 1.000000 0.052000 0.052000 1.200000 0.045000 0.054000
1517292896663609635	1300 44 1.200000 0.331000 0.402000 900 41 0.900000 1.457000 1.372000 600 47 1.000000 0.051000 0.051000 1.200000 0.042000 0.050000
1517292897171202843	1300 45 1.200000 0.282000 0.341000 900 42 0.900000 1.337000 1.260000 600 48 1.000000 0.052000 0.052000 1.200000 0.038000 0.045000
1517292897709318468	1300 45 1.200000 0.420000 0.510000 900 42 0.900000 1.122000 1.055000 600 48 1.000000 0.052000 0.052000 1.200000 0.045000 0.054000
1517292898254708968	1300 45 1.200000 0.400000 0.484000 900 42 0.900000 1.023000 0.962000 600 48 1.000000 0.052000 0.052000 1.200000 0.044000 0.053000
1517292898762072343	1300 44 1.200000 0.396000 0.479000 900 41 0.900000 1.381000 1.302000 600 47 1.000000 0.052000 0.052000 1.200000 0.042000 0.050000
1517292899315920135	1300 45 1.200000 0.392000 0.474000 900 42 0.900000 1.324000 1.248000 600 48 1.000000 0.052000 0.052000 1.200000 0.042000 0.050000
1517292899868793052	1300 45 1.200000 0.317000 0.385000 900 42 0.900000 1.229000 1.157000 600 48 1.000000 0.052000 0.052000 1.200000 0.049000 0.059000
1517292900376151260	1300 44 1.200000 0.228000 0.277000 900 41 0.900000 0.748000 0.708000 600 47 1.000000 0.052000 0.052000 1.200000 0.049000 0.059000
1517292900884141802	1300 43 1.200000 0.397000 0.481000 900 41 0.900000 1.319000 1.243000 600 46 1.000000 0.052000 0.052000 1.200000 0.043000 0.051000
1517292901421486010	1300 45 1.200000 0.421000 0.509000 900 42 0.900000 1.445000 1.362000 600 48 1.000000 0.052000 0.052000 1.200000 0.044000 0.053000
1517292901970383594	1300 45 1.200000 0.443000 0.536000 900 42 0.900000 1.266000 1.193000 600 48 1.000000 0.052000 0.052000 1.200000 0.046000 0.055000
1517292902524741886	1300 45 1.200000 0.216000 0.262000 900 42 0.900000 1.033000 0.973000 600 48 1.000000 0.052000 0.052000 1.200000 0.049000 0.059000
1517292903032924302	1300 44 1.200000 0.249000 0.302000 900 42 0.900000 1.140000 1.072000 600 47 1.000000 0.052000 0.052000 1.200000 0.044000 0.053000
1517292903545725511	1300 43 1.200000 0.367000 0.444000 900 42 0.900000 1.295000 1.223000 600 46 1.000000 0.052000 0.052000 1.200000 0.040000 0.048000
1517292904084084052	1300 45 1.200000 0.228000 0.278000 900 42 0.900000 1.354000 1.276000 600 48 1.000000 0.052000 0.052000 1.200000 0.044000 0.053000
1517292904638608636	1300 45 1.200000 0.297000 0.360000 900 42 0.900000 1.072000 1.008000 600 48 1.000000 0.052000 0.052000 1.200000 0.048000 0.057000
1517292905196756678	1300 45 1.200000 0.345000 0.417000 900 42 0.900000 1.149000 1.082000 600 48 1.000000 0.052000 0.052000 1.200000 0.041000 0.049000
1517292905717014053	1300 44 1.200000 0.424000 0.513000 900 41 0.900000 1.391000 1.311000 600 47 1.000000 0.052000 0.052000 1.200000 0.042000 0.050000
1517292906259938511	1300 45 1.200000 0.290000 0.352000 900 42 0.900000 1.409000 1.328000 600 48 1.000000 0.052000 0.052000 1.200000 0.043000 0.051000
1517292906803875844	1300 45 1.200000 0.341000 0.414000 900 42 0.900000 1.116000 1.051000 600 48 1.000000 0.052000 0.052000 1.200000 0.048000 0.057000
1517292907340215428	1300 46 1.200000 0.300000 0.364000 900 42 0.900000 1.139000 1.071000 600 48 1.000000 0.052000 0.052000 1.200000 0.048000 0.057000
1517292907886329303	1300 44 1.200000 0.344000 0.416000 900 41 0.900000 1.163000 1.099000 600 47 1.000000 0.052000 0.052000 1.200000 0.040000 0.048000
1517292908404698428	1300 43 1.200000 0.407000 0.492000 900 41 0.900000 1.320000 1.244000 600 46 1.000000 0.052000 0.052000 1.200000 0.042000 0.050000
1517292908912793886	1300 45 1.200000 0.330000 0.399000 900 42 0.900000 1.325000 1.252000 600 48 1.000000 0.051000 0.051000 1.200000 0.042000 0.050000
1517292909472737345	1300 45 1.200000 0.230000 0.279000 900 42 0.900000 1.106000 1.040000 600 48 1.000000 0.052000 0.052000 1.200000 0.049000 0.059000
1517292910033434095	1300 45 1.200000 0.326000 0.396000 900 42 0.900000 1.274000 1.200000 600 48 1.000000 0.052000 0.052000 1.200000 0.037000 0.044000
1517292910598163720	1300 45 1.200000 0.396000 0.479000 900 42 0.900000 1.380000 1.299000 600 48 1.000000 0.052000 0.052000 1.200000 0.039000 0.047000
1517292911106247637	1300 45 1.200000 0.270000 0.328000 900 42 0.900000 1.406000 1.325000 600 47 1.000000 0.052000 0.052000 1.200000 0.040000 0.048000
1517292911614408887	1300 45 1.200000 0.248000 0.302000 900 42 0.900000 1.098000 1.033000 600 48 1.000000 0.052000 0.052000 1.200000 0.049000 0.059000
1517292912125612595	1300 44 1.200000 0.434000 0.525000 900 42 0.900000 0.710000 0.671000 600 48 1.000000 0.052000 0.052000 1.200000 0.051000 0.061000
1517292912645035512	1300 45 1.200000 0.218000 0.266000 900 42 0.900000 1.475000 1.390000 600 47 1.000000 0.052000 0.052000 1.200000 0.039000 0.047000
1517292913153547970	1300 45 1.200000 0.302000 0.366000 900 42 0.900000 1.441000 1.358000 600 48 1.000000 0.052000 0.052000 1.200000 0.042000 0.050000
1517292913661582220	1300 45 1.200000 0.185000 0.224000 900 42 0.900000 1.157000 1.088000 600 48 1.000000 0.052000 0.052000 1.200000 0.047000 0.056000
1517292914223832262	1300 45 1.200000 0.316000 0.383000 900 42 0.900000 1.074000 1.011000 600 48 1.000000 0.052000 0.052000 1.200000 0.040000 0.048000
1517292914768800637	1300 45 1.200000 0.406000 0.491000 900 42 0.900000 1.473000 1.389000 600 48 1.000000 0.052000 0.052000 1.200000 0.041000 0.049000
1517292915276798929	1300 44 1.200000 0.418000 0.505000 900 42 0.900000 1.408000 1.327000 600 48 1.000000 0.052000 0.052000 1.200000 0.040000 0.048000
1517292915816175137	1300 46 1.200000 0.410000 0.496000 900 42 0.900000 1.408000 1.327000 600 48 1.000000 0.052000 0.052000 1.200000 0.041000 0.049000
1517292916372931929	1300 45 1.200000 0.315000 0.383000 900 42 0.900000 1.077000 1.014000 600 48 1.000000 0.052000 0.052000 1.200000 0.046000 0.055000
1517292916880568221	1300 45 1.200000 0.415000 0.502000 900 42 0.900000 1.010000 0.951000 600 48 1.000000 0.052000 0.052000 1.200000 0.050000 0.060000
1517292917416582512	1300 45 1.200000 0.356000 0.430000 900 42 0.900000 1.390000 1.309000 600 48 1.000000 0.052000 0.052000 1.200000 0.043000 0.051000
1517292917932221679	1300 45 1.200000 0.368000 0.446000 900 42 0.900000 1.457000 1.372000 600 47 1.000000 0.051000 0.051000 1.200000 0.049000 0.059000
1517292918445240929	1300 46 1.200000 0.303000 0.368000 900 42 0.900000 1.425000 1.343000 600 48 1.000000 0.052000 0.052000 1.200000 0.050000 0.060000
1517292919001641471	1300 46 1.200000 0.277000 0.336000 900 42 0.900000 1.286000 1.211000 600 48 1.000000 0.052000 0.052000 1.200000 0.043000 0.051000
1517292919542128471	1300 46 1.200000 0.369000 0.447000 900 42 0.900000 1.095000 1.032000 600 48 1.000000 0.052000 0.052000 1.200000 0.039000 0.047000
1517292920050429138	1300 45 1.200000 0.400000 0.484000 900 42 0.900000 1.417000 1.334000 600 48 1.000000 0.052000 0.052000 1.200000 0.045000 0.054000
1517292920558577721	1300 45 1.200000 0.316000 0.384000 900 42 0.900000 1.074000 1.014000 600 47 1.000000 0.052000 0.052000 1.200000 0.050000 0.060000
1517292921075930804	1300 45 1.200000 0.284000 0.345000 900 42 0.900000 1.050000 0.989000 600 48 1.000000 0.052000 0.052000 1.200000 0.047000 0.056000
1517292921584701971	1300 45 1.200000 0.182000 0.222000 900 42 0.900000 1.333000 1.257000 600 48 1.000000 0.052000 0.052000 1.200000 0.039000 0.047000
1517292922107334471	1300 44 1.200000 0.363000 0.440000 900 41 0.900000 1.398000 1.318000 600 48 1.000000 0.052000 0.052000 1.200000 0.041000 0.049000
1517292922615387555	1300 44 1.200000 0.423000 0.511000 900 42 0.900000 1.042000 0.980000 600 47 1.000000 0.052000 0.052000 1.200000 0.047000 0.056000
1517292923122837305	1300 46 1.200000 0.275000 0.334000 900 42 0.900000 1.028000 0.967000 600 48 1.000000 0.052000 0.052000 1.200000 0.050000 0.060000
1517292923656587846	1300 45 1.200000 0.327000 0.396000 900 42 0.900000 1.129000 1.063000 600 48 1.000000 0.052000 0.052000 1.200000 0.045000 0.054000
1517292924198337763	1300 45 1.200000 0.399000 0.481000 900 42 0.900000 1.392000 1.311000 600 48 1.000000 0.052000 0.052000 1.200000 0.044000 0.053000
1517292924747103138	1300 45 1.200000 0.430000 0.520000 900 42 0.900000 1.354000 1.275000 600 48 1.000000 0.052000 0.052000 1.200000 0.040000 0.048000
1517292925255269513	1300 44 1.200000 0.445000 0.538000 900 42 0.900000 1.351000 1.272000 600 46 1.000000 0.052000 0.052000 1.200000 0.045000 0.054000
1517292925816133222	1300 46 1.200000 0.378000 0.458000 900 42 0.900000 1.126000 1.059000 600 48 1.000000 0.052000 0.052000 1.200000 0.050000 0.060000
1517292926352919722	1300 44 1.200000 0.282000 0.343000 900 42 0.900000 0.841000 0.795000 600 48 1.000000 0.052000 0.052000 1.200000 0.047000 0.056000
1517292926912742722	1300 45 1.200000 0.369000 0.447000 900 42 0.900000 1.350000 1.273000 600 48 1.000000 0.052000 0.052000 1.200000 0.041000 0.049000
1517292927420695555	1300 45 1.200000 0.438000 0.530000 900 42 0.900000 1.295000 1.219000 600 47 1.000000 0.052000 0.052000 1.200000 0.045000 0.054000
1517292927978914264	1300 45 1.200000 0.358000 0.434000 900 42 0.900000 0.974000 0.916000 600 48 1.000000 0.052000 0.052000 1.200000 0.052000 0.062000
1517292928487121222	1300 44 1.200000 0.291000 0.354000 900 41 0.900000 1.454000 1.369000 600 47 1.000000 0.052000 0.052000 1.200000 0.039000 0.047000
1517292928995243305	1300 43 1.200000 0.338000 0.409000 900 41 0.900000 1.439000 1.356000 600 47 1.000000 0.052000 0.052000 1.200000 0.037000 0.044000
1517292929503485430	1300 44 1.200000 0.165000 0.201000 900 41 0.900000 0.990000 0.932000 600 48 1.000000 0.052000 0.052000 1.200000 0.048000 0.057000
1517292930011272055	1300 45 1.200000 0.183000 0.223000 900 42 0.900000 1.361000 1.286000 600 48 1.000000 0.052000 0.052000 1.200000 0.038000 0.045000
1517292930524753806	1300 44 1.200000 0.432000 0.522000 900 42 0.900000 1.474000 1.388000 600 46 1.000000 0.052000 0.052000 1.200000 0.042000 0.050000
1517292931070609139	1300 45 1.200000 0.283000 0.344000 900 42 0.900000 1.163000 1.095000 600 48 1.000000 0.051000 0.051000 1.200000 0.046000 0.055000
1517292931593085597	1300 44 1.200000 0.359000 0.435000 900 41 0.900000 1.071000 1.012000 600 47 1.000000 0.052000 0.052000 1.200000 0.044000 0.053000
1517292932104710014	1300 44 1.200000 0.371000 0.449000 900 41 0.900000 1.241000 1.172000 600 46 1.000000 0.052000 0.052000 1.200000 0.041000 0.049000
1517292932665171889	1300 45 1.200000 0.420000 0.508000 900 42 0.900000 1.226000 1.154000 600 48 1.000000 0.052000 0.052000 1.200000 0.050000 0.060000
1517292933215246306	1300 45 1.200000 0.259000 0.315000 900 42 0.900000 0.689000 0.651000 600 48 1.000000 0.052000 0.052000 1.200000 0.051000 0.061000
1517292933729935056	1300 45 1.200000 0.309000 0.376000 900 42 0.900000 1.297000 1.223000 600 48 1.000000 0.052000 0.052000 1.200000 0.042000 0.050000
1517292934239029431	1300 43 1.200000 0.415000 0.501000 900 41 0.900000 1.416000 1.335000 600 46 1.000000 0.052000 0.052000 1.200000 0.043000 0.051000
1517292934800736848	1300 45 1.200000 0.429000 0.519000 900 42 0.900000 1.254000 1.181000 600 48 1.000000 0.052000 0.052000 1.200000 0.046000 0.055000
1517292935372741431	1300 45 1.200000 0.317000 0.385000 900 42 0.900000 1.094000 1.029000 600 48 1.000000 0.052000 0.052000 1.200000 0.046000 0.055000
1517292935928745473	1300 44 1.200000 0.405000 0.490000 900 41 0.900000 1.359000 1.281000 600 47 1.000000 0.051000 0.051000 1.200000 0.040000 0.048000
1517292936492757140	1300 45 1.200000 0.293000 0.356000 900 42 0.900000 1.430000 1.348000 600 48 1.000000 0.052000 0.052000 1.200000 0.039000 0.047000
1517292937000714056	1300 43 1.200000 0.419000 0.506000 900 42 0.900000 1.430000 1.347000 600 48 1.000000 0.052000 0.052000 1.200000 0.040000 0.048000
1517292937521655223	1300 45 1.200000 0.291000 0.353000 900 42 0.900000 1.055000 0.992000 600 49 1.000000 0.052000 0.052000 1.200000 0.046000 0.055000
1517292938054966223	1300 45 1.200000 0.412000 0.498000 900 42 0.900000 1.270000 1.196000 600 48 1.000000 0.052000 0.052000 1.200000 0.041000 0.049000
1517292938563972015	1300 45 1.200000 0.442000 0.534000 900 41 0.900000 1.410000 1.329000 600 48 1.000000 0.052000 0.052000 1.200000 0.042000 0.050000
1517292939072570390	1300 45 1.200000 0.287000 0.348000 900 42 0.900000 1.476000 1.390000 600 47 1.000000 0.052000 0.052000 1.200000 0.043000 0.051000
1517292939580277807	1300 46 1.200000 0.318000 0.386000 900 42 0.900000 1.130000 1.063000 600 48 1.000000 0.052000 0.052000 1.200000 0.048000 0.057000
1517292940104355515	1300 45 1.200000 0.315000 0.383000 900 42 0.900000 1.054000 0.996000 600 48 1.000000 0.052000 0.052000 1.200000 0.046000 0.055000
1517292940613554723	1300 43 1.200000 0.405000 0.490000 900 41 0.900000 1.313000 1.238000 600 46 1.000000 0.052000 0.052000 1.200000 0.044000 0.053000
1517292941168840890	1300 45 1.200000 0.340000 0.412000 900 42 0.900000 1.201000 1.132000 600 48 1.000000 0.052000 0.052000 1.200000 0.047000 0.056000
1517292941688754182	1300 44 1.200000 0.240000 0.292000 900 42 0.900000 0.638000 0.603000 600 47 1.000000 0.052000 0.052000 1.200000 0.054000 0.065000
1517292942206581682	1300 45 1.200000 0.322000 0.391000 900 42 0.900000 1.303000 1.228000 600 48 1.000000 0.052000 0.052000 1.200000 0.042000 0.050000
1517292942717518057	1300 44 1.200000 0.375000 0.454000 900 41 0.900000 1.363000 1.285000 600 48 1.000000 0.052000 0.052000 1.200000 0.044000 0.053000
1517292943249068182	1300 44 1.200000 0.299000 0.363000 900 42 0.900000 1.353000 1.275000 600 48 1.000000 0.052000 0.052000 1.200000 0.045000 0.054000
1517292943757205557	1300 45 1.200000 0.310000 0.376000 900 42 0.900000 1.093000 1.028000 600 48 1.000000 0.052000 0.052000 1.200000 0.046000 0.055000
1517292944265430474	1300 45 1.200000 0.361000 0.436000 900 41 0.900000 1.121000 1.055000 600 48 1.000000 0.052000 0.052000 1.200000 0.046000 0.055000
1517292944774973932	1300 43 1.200000 0.307000 0.373000 900 41 0.900000 1.366000 1.288000 600 46 1.000000 0.052000 0.052000 1.200000 0.041000 0.049000
1517292945306997766	1300 45 1.200000 0.366000 0.443000 900 42 0.900000 1.289000 1.218000 600 48 1.000000 0.052000 0.052000 1.200000 0.042000 0.050000
1517292945838044307	1300 45 1.200000 0.275000 0.333000 900 42 0.900000 1.276000 1.200000 600 48 1.000000 0.052000 0.052000 1.200000 0.049000 0.059000
1517292946386890391	1300 45 1.200000 0.170000 0.207000 900 42 0.900000 1.091000 1.026000 600 48 1.000000 0.052000 0.052000 1.200000 0.043000 0.051000
1517292946909729932	1300 45 1.200000 0.324000 0.393000 900 42 0.900000 1.093000 1.028000 600 48 1.000000 0.052000 0.052000 1.200000 0.041000 0.049000
1517292947418356766	1300 45 1.200000 0.388000 0.470000 900 42 0.900000 1.449000 1.364000 600 48 1.000000 0.052000 0.052000 1.200000 0.040000 0.048000
1517292947926462558	1300 44 1.200000 0.441000 0.533000 900 42 0.900000 1.431000 1.348000 600 47 1.000000 0.052000 0.052000 1.200000 0.041000 0.049000
1517292948451123808	1300 46 1.200000 0.298000 0.362000 900 42 0.900000 1.423000 1.340000 600 48 1.000000 0.052000 0.052000 1.200000 0.047000 0.056000
1517292949008978683	1300 45 1.200000 0.361000 0.438000 900 42 0.900000 0.992000 0.933000 600 48 1.000000 0.052000 0.052000 1.200000 0.047000 0.056000
1517292949568717058	1300 45 1.200000 0.404000 0.488000 900 42 0.900000 1.087000 1.022000 600 48 1.000000 0.052000 0.052000 1.200000 0.041000 0.049000
1517292950076219475	1300 44 1.200000 0.420000 0.508000 900 41 0.900000 1.407000 1.326000 600 47 1.000000 0.052000 0.052000 1.200000 0.041000 0.049000
1517292950584590891	1300 45 1.200000 0.362000 0.439000 900 42 0.900000 1.346000 1.271000 600 48 1.000000 0.051000 0.051000 1.200000 0.040000 0.048000
1517292951140754141	1300 45 1.200000 0.278000 0.338000 900 42 0.900000 1.164000 1.095000 600 48 1.000000 0.052000 0.052000 1.200000 0.050000 0.060000
1517292951649158225	1300 44 1.200000 0.438000 0.530000 900 42 0.900000 1.011000 0.955000 600 47 1.000000 0.052000 0.052000 1.200000 0.044000 0.053000
1517292952157727975	1300 45 1.200000 0.380000 0.459000 900 42 0.900000 1.340000 1.263000 600 48 1.000000 0.052000 0.052000 1.200000 0.044000 0.053000
1517292952708752392	1300 45 1.200000 0.338000 0.410000 900 42 0.900000 1.329000 1.251000 600 48 1.000000 0.051000 0.051000 1.200000 0.049000 0.059000
1517292953284775850	1300 45 1.200000 0.310000 0.376000 900 42 0.900000 1.062000 0.999000 600 48 1.000000 0.052000 0.052000 1.200000 0.049000 0.059000
1517292953793383975	1300 45 1.200000 0.314000 0.380000 900 42 0.900000 1.172000 1.104000 600 48 1.000000 0.052000 0.052000 1.200000 0.038000 0.045000
1517292954301290225	1300 45 1.200000 0.428000 0.517000 900 42 0.900000 1.406000 1.325000 600 47 1.000000 0.052000 0.052000 1.200000 0.040000 0.048000
1517292954844796433	1300 44 1.200000 0.262000 0.318000 900 42 0.900000 1.395000 1.315000 600 47 1.000000 0.052000 0.052000 1.200000 0.040000 0.048000
1517292955352282642	1300 45 1.200000 0.381000 0.462000 900 42 0.900000 0.626000 0.592000 600 48 1.000000 0.052000 0.052000 1.200000 0.054000 0.065000
1517292955899921559	1300 45 1.200000 0.405000 0.490000 900 42 0.900000 1.292000 1.217000 600 48 1.000000 0.052000 0.052000 1.200000 0.044000 0.053000
1517292956407303600	1300 43 1.200000 0.414000 0.500000 900 42 0.900000 1.360000 1.282000 600 46 1.000000 0.052000 0.052000 1.200000 0.041000 0.049000
1517292956960895184	1300 44 1.200000 0.260000 0.317000 900 41 0.900000 1.347000 1.274000 600 48 1.000000 0.052000 0.052000 1.200000 0.044000 0.053000
1517292957504811309	1300 45 1.200000 0.341000 0.413000 900 42 0.900000 1.411000 1.330000 600 47 1.000000 0.052000 0.052000 1.200000 0.044000 0.053000
1517292958016219475	1300 45 1.200000 0.431000 0.521000 900 42 0.900000 1.379000 1.299000 600 48 1.000000 0.052000 0.052000 1.200000 0.040000 0.048000
1517292958527493684	1300 44 1.200000 0.407000 0.491000 900 42 0.900000 1.317000 1.240000 600 47 1.000000 0.052000 0.052000 1.200000 0.049000 0.059000
1517292959068798684	1300 46 1.200000 0.398000 0.481000 900 42 0.900000 1.016000 0.957000 600 48 1.000000 0.052000 0.052000 1.200000 0.047000 0.056000
1517292959616882851	1300 46 1.200000 0.277000 0.336000 900 42 0.900000 1.221000 1.150000 600 48 1.000000 0.052000 0.052000 1.200000 0.045000 0.054000
1517292960172932976	1300 45 1.200000 0.268000 0.325000 900 42 0.900000 1.374000 1.294000 600 48 1.000000 0.051000 0.051000 1.200000 0.041000 0.049000
1517292960704257851	1300 45 1.200000 0.305000 0.371000 900 42 0.900000 1.366000 1.288000 600 48 1.000000 0.051000 0.051000 1.200000 0.042000 0.050000
1517292961211625851	1300 43 1.200000 0.288000 0.350000 900 42 0.900000 1.206000 1.136000 600 46 1.000000 0.052000 0.052000 1.200000 0.048000 0.057000
1517292961763133684	1300 45 1.200000 0.278000 0.338000 900 42 0.900000 0.749000 0.709000 600 48 1.000000 0.052000 0.052000 1.200000 0.050000 0.060000
1517292962308767851	1300 45 1.200000 0.430000 0.520000 900 42 0.900000 1.361000 1.282000 600 48 1.000000 0.052000 0.052000 1.200000 0.041000 0.049000
1517292962868827143	1300 45 1.200000 0.431000 0.521000 900 42 0.900000 1.399000 1.317000 600 48 1.000000 0.052000 0.052000 1.200000 0.043000 0.051000
1517292963424803434	1300 45 1.200000 0.402000 0.486000 900 42 0.900000 1.420000 1.337000 600 48 1.000000 0.052000 0.052000 1.200000 0.043000 0.051000
1517292963932208476	1300 43 1.200000 0.441000 0.534000 900 42 0.900000 1.385000 1.304000 600 47 1.000000 0.052000 0.052000 1.200000 0.043000 0.051000
1517292964492637143	1300 45 1.200000 0.349000 0.422000 900 42 0.900000 0.996000 0.942000 600 48 1.000000 0.052000 0.052000 1.200000 0.051000 0.061000
1517292965013083560	1300 44 1.200000 0.280000 0.340000 900 42 0.900000 1.062000 1.000000 600 48 1.000000 0.052000 0.052000 1.200000 0.045000 0.054000
1517292965540251435	1300 45 1.200000 0.277000 0.336000 900 42 0.900000 1.389000 1.309000 600 48 1.000000 0.052000 0.052000 1.200000 0.042000 0.050000
1517292966049794435	1300 44 1.200000 0.400000 0.485000 900 42 0.900000 1.394000 1.314000 600 47 1.000000 0.052000 0.052000 1.200000 0.042000 0.050000
1517292966585729602	1300 46 1.200000 0.423000 0.511000 900 42 0.900000 1.390000 1.310000 600 48 1.000000 0.052000 0.052000 1.200000 0.044000 0.053000
1517292967093925685	1300 45 1.200000 0.304000 0.369000 900 42 0.900000 0.974000 0.917000 600 48 1.000000 0.052000 0.052000 1.200000 0.049000 0.059000
1517292967612096477	1300 45 1.200000 0.325000 0.394000 900 42 0.900000 1.079000 1.015000 600 48 1.000000 0.052000 0.052000 1.200000 0.041000 0.049000
1517292968159679268	1300 45 1.200000 0.343000 0.415000 900 41 0.900000 1.354000 1.276000 600 48 1.000000 0.052000 0.052000 1.200000 0.040000 0.048000
1517292968667055477	1300 43 1.200000 0.289000 0.351000 900 42 0.900000 1.434000 1.352000 600 46 1.000000 0.052000 0.052000 1.200000 0.038000 0.045000
1517292969175362185	1300 45 1.200000 0.300000 0.365000 900 42 0.900000 1.288000 1.214000 600 48 1.000000 0.052000 0.052000 1.200000 0.048000 0.057000
1517292969736777894	1300 45 1.200000 0.281000 0.341000 900 42 0.900000 1.313000 1.238000 600 48 1.000000 0.052000 0.052000 1.200000 0.040000 0.048000
1517292970258586852	1300 45 1.200000 0.254000 0.308000 900 42 0.900000 1.081000 1.017000 600 48 1.000000 0.052000 0.052000 1.200000 0.042000 0.050000
1517292970812800394	1300 44 1.200000 0.255000 0.311000 900 41 0.900000 1.332000 1.256000 600 47 1.000000 0.051000 0.051000 1.200000 0.038000 0.045000
1517292971329156394	1300 44 1.200000 0.424000 0.513000 900 41 0.900000 1.400000 1.320000 600 46 1.000000 0.052000 0.052000 1.200000 0.042000 0.050000
1517292971849794727	1300 45 1.200000 0.414000 0.500000 900 42 0.900000 1.445000 1.361000 600 48 1.000000 0.052000 0.052000 1.200000 0.042000 0.050000
1517292972396747394	1300 45 1.200000 0.424000 0.512000 900 42 0.900000 1.260000 1.186000 600 48 1.000000 0.051000 0.051000 1.200000 0.048000 0.057000
1517292972956811102	1300 45 1.200000 0.324000 0.392000 900 42 0.900000 1.047000 0.986000 600 48 1.000000 0.052000 0.052000 1.200000 0.050000 0.060000
1517292973512782602	1300 45 1.200000 0.403000 0.487000 900 42 0.900000 1.195000 1.125000 600 48 1.000000 0.052000 0.052000 1.200000 0.038000 0.045000
1517292974072727394	1300 45 1.200000 0.408000 0.492000 900 42 0.900000 1.401000 1.319000 600 48 1.000000 0.052000 0.052000 1.200000 0.041000 0.049000
1517292974580210977	1300 43 1.200000 0.363000 0.439000 900 42 0.900000 1.378000 1.299000 600 47 1.000000 0.052000 0.052000 1.200000 0.041000 0.049000
1517292975103319144	1300 45 1.200000 0.255000 0.311000 900 42 0.900000 0.802000 0.758000 600 48 1.000000 0.052000 0.052000 1.200000 0.052000 0.062000
1517292975656514853	1300 45 1.200000 0.399000 0.482000 900 42 0.900000 1.192000 1.122000 600 48 1.000000 0.052000 0.052000 1.200000 0.047000 0.056000
1517292976175827769	1300 43 1.200000 0.430000 0.520000 900 41 0.900000 1.406000 1.325000 600 46 1.000000 0.052000 0.052000 1.200000 0.041000 0.049000
1517292976718463353	1300 45 1.200000 0.348000 0.421000 900 42 0.900000 1.361000 1.283000 600 48 1.000000 0.052000 0.052000 1.200000 0.046000 0.055000
1517292977225958394	1300 45 1.200000 0.281000 0.341000 900 42 0.900000 1.050000 0.989000 600 48 1.000000 0.052000 0.052000 1.200000 0.048000 0.057000
1517292977784784895	1300 45 1.200000 0.315000 0.383000 900 42 0.900000 1.176000 1.107000 600 48 1.000000 0.052000 0.052000 1.200000 0.046000 0.055000
1517292978292338645	1300 44 1.200000 0.414000 0.500000 900 41 0.900000 1.368000 1.290000 600 47 1.000000 0.052000 0.052000 1.200000 0.043000 0.051000
1517292978800762270	1300 44 1.200000 0.420000 0.508000 900 42 0.900000 1.238000 1.169000 600 48 1.000000 0.052000 0.052000 1.200000 0.045000 0.054000
1517292979354603311	1300 45 1.200000 0.274000 0.332000 900 42 0.900000 1.130000 1.063000 600 48 1.000000 0.052000 0.052000 1.200000 0.043000 0.052000
1517292979862944936	1300 45 1.200000 0.452000 0.546000 900 42 0.900000 1.277000 1.201000 600 48 1.000000 0.052000 0.052000 1.200000 0.040000 0.048000
1517292980370436311	1300 43 1.200000 0.298000 0.362000 900 41 0.900000 1.409000 1.328000 600 46 1.000000 0.052000 0.052000 1.200000 0.041000 0.049000
1517292980878790353	1300 44 1.200000 0.259000 0.315000 900 42 0.900000 1.230000 1.162000 600 47 1.000000 0.051000 0.051000 1.200000 0.048000 0.057000
1517292981428791312	1300 45 1.200000 0.269000 0.327000 900 42 0.900000 1.062000 1.000000 600 47 1.000000 0.052000 0.052000 1.200000 0.041000 0.049000
1517292981937101395	1300 44 1.200000 0.422000 0.509000 900 41 0.900000 1.386000 1.306000 600 47 1.000000 0.052000 0.052000 1.200000 0.040000 0.048000
1517292982476813895	1300 44 1.200000 0.324000 0.392000 900 42 0.900000 1.403000 1.323000 600 47 1.000000 0.052000 0.052000 1.200000 0.042000 0.050000
1517292983003914645	1300 45 1.200000 0.295000 0.358000 900 42 0.900000 1.043000 0.981000 600 48 1.000000 0.052000 0.052000 1.200000 0.045000 0.054000
1517292983569207020	1300 45 1.200000 0.304000 0.369000 900 42 0.900000 1.048000 0.986000 600 48 1.000000 0.052000 0.052000 1.200000 0.042000 0.050000
1517292984120817562	1300 45 1.200000 0.430000 0.520000 900 42 0.900000 1.471000 1.387000 600 48 1.000000 0.052000 0.052000 1.200000 0.042000 0.050000
1517292984628089145	1300 43 1.200000 0.386000 0.466000 900 42 0.900000 1.415000 1.332000 600 46 1.000000 0.052000 0.052000 1.200000 0.041000 0.049000
1517292985135761979	1300 44 1.200000 0.336000 0.407000 900 42 0.900000 1.068000 1.010000 600 48 1.000000 0.051000 0.051000 1.200000 0.051000 0.061000
1517292985687555104	1300 45 1.200000 0.286000 0.347000 900 42 0.900000 1.086000 1.021000 600 48 1.000000 0.052000 0.052000 1.200000 0.045000 0.054000
1517292986244743146	1300 45 1.200000 0.432000 0.521000 900 42 0.900000 1.426000 1.344000 600 47 1.000000 0.052000 0.052000 1.200000 0.042000 0.050000
1517292986757640271	1300 43 1.200000 0.373000 0.451000 900 42 0.900000 1.434000 1.350000 600 46 1.000000 0.052000 0.052000 1.200000 0.044000 0.053000
1517292987312282437	1300 46 1.200000 0.279000 0.338000 900 42 0.900000 1.388000 1.308000 600 48 1.000000 0.052000 0.052000 1.200000 0.044000 0.053000
1517292987866578562	1300 45 1.200000 0.297000 0.361000 900 42 0.900000 1.010000 0.951000 600 48 1.000000 0.052000 0.052000 1.200000 0.045000 0.054000
1517292988413231854	1300 45 1.200000 0.387000 0.468000 900 42 0.900000 1.023000 0.962000 600 48 1.000000 0.052000 0.052000 1.200000 0.045000 0.054000
1517292988956820188	1300 44 1.200000 0.429000 0.519000 900 41 0.900000 1.263000 1.189000 600 47 1.000000 0.052000 0.052000 1.200000 0.043000 0.051000
1517292989465118271	1300 43 1.200000 0.331000 0.401000 900 41 0.900000 1.419000 1.336000 600 46 1.000000 0.052000 0.052000 1.200000 0.041000 0.049000
1517292989979564438	1300 45 1.200000 0.301000 0.365000 900 42 0.900000 1.220000 1.152000 600 48 1.000000 0.052000 0.052000 1.200000 0.049000 0.059000
1517292990518588396	1300 45 1.200000 0.317000 0.385000 900 42 0.900000 1.015000 0.955000 600 48 1.000000 0.052000 0.052000 1.200000 0.045000 0.054000
1517292991027183021	1300 44 1.200000 0.395000 0.478000 900 41 0.900000 1.124000 1.062000 600 47 1.000000 0.052000 0.052000 1.200000 0.046000 0.055000
1517292991535366479	1300 43 1.200000 0.395000 0.478000 900 41 0.900000 1.242000 1.173000 600 46 1.000000 0.052000 0.052000 1.200000 0.043000 0.051000
1517292992080779521	1300 44 1.200000 0.407000 0.492000 900 42 0.900000 1.358000 1.279000 600 47 1.000000 0.052000 0.052000 1.200000 0.048000 0.057000
1517292992638188730	1300 45 1.200000 0.429000 0.519000 900 42 0.900000 1.014000 0.954000 600 48 1.000000 0.052000 0.052000 1.200000 0.046000 0.055000
1517292993151716688	1300 45 1.200000 0.416000 0.503000 900 42 0.900000 1.084000 1.020000 600 48 1.000000 0.052000 0.052000 1.200000 0.050000 0.060000
1517292993659652438	1300 44 1.200000 0.403000 0.486000 900 41 0.900000 0.972000 0.919000 600 47 1.000000 0.052000 0.052000 1.200000 0.046000 0.055000
1517292994167677605	1300 42 1.200000 0.297000 0.361000 900 41 0.900000 1.441000 1.358000 600 47 1.000000 0.052000 0.052000 1.200000 0.039000 0.047000
1517292994697843688	1300 45 1.200000 0.287000 0.349000 900 42 0.900000 0.960000 0.904000 600 48 1.000000 0.051000 0.051000 1.200000 0.045000 0.054000
1517292995238043938	1300 45 1.200000 0.265000 0.322000 900 41 0.900000 1.018000 0.962000 600 48 1.000000 0.051000 0.051000 1.200000 0.050000 0.060000
1517292995764985772	1300 45 1.200000 0.421000 0.508000 900 42 0.900000 1.341000 1.264000 600 48 1.000000 0.052000 0.052000 1.200000 0.045000 0.054000
1517292996294819188	1300 45 1.200000 0.427000 0.516000 900 42 0.900000 1.483000 1.396000 600 48 1.000000 0.052000 0.052000 1.200000 0.039000 0.047000
1517292996802525438	1300 44 1.200000 0.410000 0.496000 900 41 0.900000 1.131000 1.065000 600 47 1.000000 0.052000 0.052000 1.200000 0.040000 0.048000
1517292997357641230	1300 45 1.200000 0.442000 0.535000 900 42 0.900000 1.149000 1.081000 600 48 1.000000 0.052000 0.052000 1.200000 0.046000 0.055000
1517292997924440022	1300 45 1.200000 0.316000 0.384000 900 42 0.900000 1.281000 1.206000 600 48 1.000000 0.052000 0.052000 1.200000 0.042000 0.050000
1517292998444353564	1300 44 1.200000 0.294000 0.358000 900 42 0.900000 1.314000 1.239000 600 47 1.000000 0.052000 0.052000 1.200000 0.041000 0.049000
1517292998954136730	1300 45 1.200000 0.370000 0.448000 900 41 0.900000 1.356000 1.278000 600 47 1.000000 0.052000 0.052000 1.200000 0.045000 0.054000
1517292999502288564	1300 45 1.200000 0.317000 0.385000 900 42 0.900000 1.014000 0.955000 600 48 1.000000 0.052000 0.052000 1.200000 0.051000 0.061000
1517293000063726730	1300 45 1.200000 0.243000 0.295000 900 42 0.900000 1.366000 1.286000 600 48 1.000000 0.052000 0.052000 1.200000 0.041000 0.049000
1517293000608823439	1300 45 1.200000 0.431000 0.521000 900 42 0.900000 1.018000 0.958000 600 48 1.000000 0.052000 0.052000 1.200000 0.051000 0.061000
1517293001169617397	1300 44 1.200000 0.350000 0.425000 900 42 0.900000 1.205000 1.138000 600 47 1.000000 0.052000 0.052000 1.200000 0.041000 0.049000
1517293001677601606	1300 45 1.200000 0.175000 0.213000 900 42 0.900000 1.352000 1.277000 600 48 1.000000 0.052000 0.052000 1.200000 0.038000 0.045000
1517293002187817481	1300 45 1.200000 0.338000 0.409000 900 42 0.900000 1.052000 0.989000 600 48 1.000000 0.052000 0.052000 1.200000 0.045000 0.054000
1517293002752786814	1300 44 1.200000 0.280000 0.340000 900 42 0.900000 1.214000 1.142000 600 47 1.000000 0.052000 0.052000 1.200000 0.043000 0.051000
1517293003267204064	1300 44 1.200000 0.348000 0.422000 900 41 0.900000 1.378000 1.299000 600 48 1.000000 0.052000 0.052000 1.200000 0.040000 0.048000
1517293003792327314	1300 46 1.200000 0.433000 0.523000 900 42 0.900000 1.414000 1.331000 600 48 1.000000 0.052000 0.052000 1.200000 0.044000 0.053000
1517293004352751356	1300 45 1.200000 0.433000 0.523000 900 42 0.900000 1.061000 0.998000 600 48 1.000000 0.051000 0.051000 1.200000 0.047000 0.056000
1517293004908767814	1300 45 1.200000 0.362000 0.439000 900 42 0.900000 1.059000 0.996000 600 48 1.000000 0.052000 0.052000 1.200000 0.047000 0.056000
1517293005464745231	1300 45 1.200000 0.404000 0.488000 900 42 0.900000 1.459000 1.374000 600 47 1.000000 0.052000 0.052000 1.200000 0.044000 0.053000
1517293006009067815	1300 45 1.200000 0.413000 0.499000 900 42 0.900000 1.359000 1.280000 600 48 1.000000 0.052000 0.052000 1.200000 0.042000 0.050000
1517293006517010981	1300 45 1.200000 0.420000 0.508000 900 42 0.900000 1.381000 1.300000 600 47 1.000000 0.052000 0.052000 1.200000 0.045000 0.054000
1517293007026072023	1300 46 1.200000 0.325000 0.395000 900 42 0.900000 1.084000 1.020000 600 48 1.000000 0.052000 0.052000 1.200000 0.046000 0.055000
1517293007576722565	1300 45 1.200000 0.275000 0.334000 900 42 0.900000 1.087000 1.022000 600 48 1.000000 0.052000 0.052000 1.200000 0.048000 0.057000
1517293008136797856	1300 45 1.200000 0.399000 0.482000 900 42 0.900000 1.431000 1.348000 600 48 1.000000 0.051000 0.051000 1.200000 0.041000 0.049000
1517293008644935523	1300 45 1.200000 0.440000 0.532000 900 42 0.900000 1.430000 1.347000 600 47 1.000000 0.052000 0.052000 1.200000 0.042000 0.050000
1517293009162504982	1300 45 1.200000 0.363000 0.440000 900 42 0.900000 1.373000 1.294000 600 48 1.000000 0.052000 0.052000 1.200000 0.047000 0.056000
1517293009703497773	1300 45 1.200000 0.222000 0.269000 900 42 0.900000 1.152000 1.084000 600 48 1.000000 0.052000 0.052000 1.200000 0.043000 0.051000
1517293010252771023	1300 45 1.200000 0.321000 0.390000 900 42 0.900000 1.427000 1.345000 600 48 1.000000 0.052000 0.052000 1.200000 0.039000 0.047000
1517293010760525898	1300 44 1.200000 0.439000 0.531000 900 42 0.900000 1.444000 1.361000 600 46 1.000000 0.052000 0.052000 1.200000 0.045000 0.054000
1517293011280760107	1300 45 1.200000 0.223000 0.272000 900 42 0.900000 1.225000 1.157000 600 48 1.000000 0.052000 0.052000 1.200000 0.048000 0.057000
1517293011836783607	1300 45 1.200000 0.344000 0.417000 900 42 0.900000 1.106000 1.040000 600 48 1.000000 0.052000 0.052000 1.200000 0.039000 0.047000
1517293012344989065	1300 45 1.200000 0.420000 0.507000 900 42 0.900000 1.443000 1.360000 600 48 1.000000 0.052000 0.052000 1.200000 0.040000 0.048000
1517293012852767899	1300 43 1.200000 0.304000 0.369000 900 41 0.900000 1.332000 1.256000 600 46 1.000000 0.052000 0.052000 1.200000 0.039000 0.047000
1517293013400780274	1300 45 1.200000 0.286000 0.348000 900 42 0.900000 0.990000 0.936000 600 48 1.000000 0.052000 0.052000 1.200000 0.051000 0.061000
1517293013909114149	1300 44 1.200000 0.315000 0.382000 900 41 0.900000 1.066000 1.004000 600 48 1.000000 0.052000 0.052000 1.200000 0.045000 0.054000
1517293014416667149	1300 43 1.200000 0.350000 0.424000 900 41 0.900000 1.416000 1.333000 600 47 1.000000 0.051000 0.051000 1.200000 0.040000 0.048000
1517293014963201316	1300 45 1.200000 0.304000 0.369000 900 42 0.900000 1.424000 1.342000 600 48 1.000000 0.052000 0.052000 1.200000 0.043000 0.051000
1517293015500104899	1300 45 1.200000 0.321000 0.390000 900 42 0.900000 1.020000 0.959000 600 48 1.000000 0.052000 0.052000 1.200000 0.050000 0.060000
1517293016032888774	1300 45 1.200000 0.284000 0.345000 900 42 0.900000 0.975000 0.918000 600 48 1.000000 0.052000 0.052000 1.200000 0.050000 0.060000
1517293016560075107	1300 45 1.200000 0.282000 0.342000 900 42 0.900000 1.162000 1.094000 600 48 1.000000 0.052000 0.052000 1.200000 0.042000 0.050000
1517293017075017358	1300 44 1.200000 0.360000 0.436000 900 41 0.900000 1.413000 1.331000 600 47 1.000000 0.052000 0.052000 1.200000 0.041000 0.049000
1517293017582568191	1300 45 1.200000 0.316000 0.384000 900 42 0.900000 1.380000 1.304000 600 47 1.000000 0.052000 0.052000 1.200000 0.042000 0.050000
1517293018107258941	1300 45 1.200000 0.292000 0.355000 900 41 0.900000 0.832000 0.787000 600 48 1.000000 0.052000 0.052000 1.200000 0.052000 0.062000
1517293018619095524	1300 45 1.200000 0.406000 0.491000 900 42 0.900000 1.094000 1.029000 600 48 1.000000 0.052000 0.052000 1.200000 0.041000 0.049000
1517293019136920733	1300 45 1.200000 0.433000 0.523000 900 42 0.900000 1.229000 1.156000 600 48 1.000000 0.052000 0.052000 1.200000 0.042000 0.050000
1517293019645022024	1300 43 1.200000 0.300000 0.365000 900 41 0.900000 1.352000 1.274000 600 46 1.000000 0.052000 0.052000 1.200000 0.039000 0.047000
1517293020192835525	1300 45 1.200000 0.397000 0.481000 900 42 0.900000 1.403000 1.321000 600 48 1.000000 0.052000 0.052000 1.200000 0.044000 0.053000
1517293020731633316	1300 45 1.200000 0.268000 0.325000 900 42 0.900000 1.314000 1.237000 600 48 1.000000 0.052000 0.052000 1.200000 0.047000 0.056000
1517293021249594525	1300 45 1.200000 0.300000 0.364000 900 42 0.900000 1.055000 0.992000 600 48 1.000000 0.052000 0.052000 1.200000 0.045000 0.054000
1517293021779813608	1300 45 1.200000 0.282000 0.342000 900 42 0.900000 0.989000 0.930000 600 48 1.000000 0.052000 0.052000 1.200000 0.051000 0.061000
1517293022288108316	1300 45 1.200000 0.342000 0.415000 900 42 0.900000 1.194000 1.123000 600 48 1.000000 0.052000 0.052000 1.200000 0.042000 0.050000
1517293022796551942	1300 43 1.200000 0.432000 0.522000 900 42 0.900000 1.435000 1.351000 600 46 1.000000 0.052000 0.052000 1.200000 0.039000 0.047000
1517293023360729317	1300 45 1.200000 0.400000 0.484000 900 42 0.900000 1.326000 1.250000 600 48 1.000000 0.052000 0.052000 1.200000 0.040000 0.048000
1517293023932750942	1300 45 1.200000 0.307000 0.373000 900 42 0.900000 1.324000 1.247000 600 48 1.000000 0.052000 0.052000 1.200000 0.047000 0.056000
1517293024484814483	1300 45 1.200000 0.401000 0.485000 900 42 0.900000 1.155000 1.086000 600 48 1.000000 0.052000 0.052000 1.200000 0.050000 0.060000
1517293024993341442	1300 43 1.200000 0.322000 0.391000 900 41 0.900000 1.423000 1.341000 600 46 1.000000 0.052000 0.052000 1.200000 0.037000 0.044000
1517293025501440275	1300 44 1.200000 0.226000 0.275000 900 41 0.900000 1.428000 1.346000 600 48 1.000000 0.052000 0.052000 1.200000 0.037000 0.044000
1517293026009086650	1300 45 1.200000 0.238000 0.289000 900 41 0.900000 1.030000 0.970000 600 48 1.000000 0.052000 0.052000 1.200000 0.045000 0.054000
1517293026557316567	1300 45 1.200000 0.425000 0.514000 900 42 0.900000 1.229000 1.156000 600 48 1.000000 0.052000 0.052000 1.200000 0.038000 0.045000
1517293027064941900	1300 43 1.200000 0.396000 0.479000 900 42 0.900000 1.256000 1.184000 600 47 1.000000 0.052000 0.052000 1.200000 0.040000 0.048000
1517293027585522442	1300 45 1.200000 0.376000 0.454000 900 42 0.900000 1.408000 1.327000 600 48 1.000000 0.052000 0.052000 1.200000 0.043000 0.051000
1517293028128731359	1300 45 1.200000 0.292000 0.355000 900 42 0.900000 1.092000 1.028000 600 48 1.000000 0.052000 0.052000 1.200000 0.049000 0.059000
1517293028692770734	1300 44 1.200000 0.240000 0.292000 900 41 0.900000 1.121000 1.055000 600 48 1.000000 0.052000 0.052000 1.200000 0.036000 0.043000
1517293029200614609	1300 44 1.200000 0.331000 0.402000 900 42 0.900000 1.400000 1.320000 600 48 1.000000 0.052000 0.052000 1.200000 0.039000 0.047000
1517293029758456234	1300 45 1.200000 0.399000 0.482000 900 42 0.900000 1.437000 1.353000 600 48 1.000000 0.051000 0.051000 1.200000 0.043000 0.051000
1517293030266739901	1300 44 1.200000 0.420000 0.508000 900 41 0.900000 0.596000 0.563000 600 47 1.000000 0.051000 0.051000 1.200000 0.048000 0.058000
1517293030776088484	1300 44 1.200000 0.299000 0.363000 900 41 0.900000 1.411000 1.329000 600 47 1.000000 0.052000 0.052000 1.200000 0.041000 0.049000
1517293031319614651	1300 45 1.200000 0.317000 0.385000 900 42 0.900000 1.340000 1.262000 600 48 1.000000 0.052000 0.052000 1.200000 0.040000 0.048000
1517293031872781859	1300 45 1.200000 0.296000 0.359000 900 42 0.900000 1.424000 1.339000 600 48 1.000000 0.052000 0.052000 1.200000 0.047000 0.056000
1517293032432801234	1300 45 1.200000 0.367000 0.445000 900 42 0.900000 1.445000 1.361000 600 48 1.000000 0.051000 0.051000 1.200000 0.047000 0.056000
1517293032996783193	1300 45 1.200000 0.436000 0.527000 900 42 0.900000 1.397000 1.315000 600 47 1.000000 0.052000 0.052000 1.200000 0.042000 0.050000
1517293033560791901	1300 45 1.200000 0.421000 0.509000 900 42 0.900000 1.452000 1.367000 600 48 1.000000 0.052000 0.052000 1.200000 0.042000 0.050000
1517293034068635651	1300 43 1.200000 0.407000 0.492000 900 42 0.900000 1.169000 1.100000 600 47 1.000000 0.052000 0.052000 1.200000 0.038000 0.045000
1517293034576504776	1300 45 1.200000 0.308000 0.374000 900 42 0.900000 1.157000 1.088000 600 48 1.000000 0.052000 0.052000 1.200000 0.046000 0.055000
1517293035120133026	1300 45 1.200000 0.267000 0.324000 900 42 0.900000 1.398000 1.316000 600 48 1.000000 0.052000 0.052000 1.200000 0.048000 0.057000
1517293035636037151	1300 45 1.200000 0.296000 0.359000 900 42 0.900000 1.333000 1.255000 600 48 1.000000 0.051000 0.051000 1.200000 0.039000 0.047000
1517293036143315776	1300 44 1.200000 0.356000 0.431000 900 42 0.900000 1.226000 1.153000 600 47 1.000000 0.052000 0.052000 1.200000 0.040000 0.048000
1517293036651395693	1300 44 1.200000 0.266000 0.323000 900 41 0.900000 0.827000 0.782000 600 48 1.000000 0.052000 0.052000 1.200000 0.052000 0.062000
1517293037164176777	1300 45 1.200000 0.200000 0.244000 900 41 0.900000 1.387000 1.307000 600 48 1.000000 0.052000 0.052000 1.200000 0.036000 0.043000
1517293037672189360	1300 43 1.200000 0.348000 0.421000 900 41 0.900000 1.417000 1.336000 600 47 1.000000 0.052000 0.052000 1.200000 0.048000 0.057000
1517293038180570735	1300 45 1.200000 0.313000 0.380000 900 42 0.900000 1.055000 0.992000 600 48 1.000000 0.052000 0.052000 1.200000 0.043000 0.051000
1517293038688848193	1300 44 1.200000 0.311000 0.377000 900 42 0.900000 1.215000 1.143000 600 47 1.000000 0.051000 0.051000 1.200000 0.042000 0.050000
1517293039241970235	1300 45 1.200000 0.286000 0.347000 900 42 0.900000 1.408000 1.327000 600 47 1.000000 0.051000 0.051000 1.200000 0.039000 0.047000
1517293039749973610	1300 43 1.200000 0.389000 0.471000 900 41 0.900000 1.336000 1.259000 600 47 1.000000 0.052000 0.052000 1.200000 0.044000 0.053000
1517293040312756360	1300 45 1.200000 0.374000 0.452000 900 42 0.900000 1.063000 1.000000 600 48 1.000000 0.052000 0.052000 1.200000 0.045000 0.054000
1517293040849286944	1300 45 1.200000 0.326000 0.396000 900 42 0.900000 1.084000 1.020000 600 48 1.000000 0.052000 0.052000 1.200000 0.041000 0.049000
1517293041368429735	1300 45 1.200000 0.308000 0.374000 900 42 0.900000 1.186000 1.116000 600 48 1.000000 0.051000 0.051000 1.200000 0.042000 0.050000
1517293041876688944	1300 44 1.200000 0.285000 0.346000 900 41 0.900000 1.379000 1.299000 600 47 1.000000 0.052000 0.052000 1.200000 0.041000 0.049000
1517293042384248861	1300 42 1.200000 0.396000 0.479000 900 41 0.900000 1.384000 1.303000 600 46 1.000000 0.052000 0.052000 1.200000 0.038000 0.045000
1517293042891679194	1300 44 1.200000 0.244000 0.297000 900 42 0.900000 1.002000 0.946000 600 48 1.000000 0.052000 0.052000 1.200000 0.053000 0.064000
1517293043421094194	1300 45 1.200000 0.243000 0.295000 900 42 0.900000 1.048000 0.987000 600 48 1.000000 0.052000 0.052000 1.200000 0.041000 0.049000
1517293043928787569	1300 45 1.200000 0.406000 0.491000 900 42 0.900000 1.184000 1.114000 600 48 1.000000 0.052000 0.052000 1.200000 0.041000 0.049000
1517293044441214402	1300 44 1.200000 0.408000 0.492000 900 42 0.900000 1.380000 1.299000 600 48 1.000000 0.052000 0.052000 1.200000 0.040000 0.048000
1517293044961371694	1300 43 1.200000 0.281000 0.341000 900 41 0.900000 1.398000 1.318000 600 46 1.000000 0.052000 0.052000 1.200000 0.042000 0.050000
1517293045520949403	1300 44 1.200000 0.233000 0.284000 900 41 0.900000 1.155000 1.091000 600 48 1.000000 0.052000 0.052000 1.200000 0.048000 0.057000
1517293046075943694	1300 45 1.200000 0.296000 0.360000 900 41 0.900000 0.988000 0.929000 600 47 1.000000 0.052000 0.052000 1.200000 0.048000 0.057000
1517293046588432736	1300 44 1.200000 0.331000 0.402000 900 41 0.900000 1.186000 1.120000 600 47 1.000000 0.052000 0.052000 1.200000 0.042000 0.050000
1517293047095827861	1300 43 1.200000 0.263000 0.320000 900 41 0.900000 1.383000 1.304000 600 46 1.000000 0.052000 0.052000 1.200000 0.039000 0.047000
1517293047611820319	1300 44 1.200000 0.313000 0.380000 900 41 0.900000 0.909000 0.859000 600 47 1.000000 0.052000 0.052000 1.200000 0.052000 0.062000
1517293048164764570	1300 45 1.200000 0.313000 0.380000 900 41 0.900000 1.223000 1.152000 600 47 1.000000 0.051000 0.051000 1.200000 0.040000 0.048000
1517293048720766236	1300 44 1.200000 0.330000 0.400000 900 41 0.900000 1.414000 1.331000 600 47 1.000000 0.052000 0.052000 1.200000 0.043000 0.051000
1517293049228708653	1300 45 1.200000 0.382000 0.462000 900 41 0.900000 1.327000 1.254000 600 47 1.000000 0.051000 0.051000 1.200000 0.041000 0.049000
1517293049792775111	1300 45 1.200000 0.274000 0.333000 900 41 0.900000 1.117000 1.052000 600 48 1.000000 0.051000 0.051000 1.200000 0.050000 0.060000
1517293050300508111	1300 44 1.200000 0.379000 0.459000 900 41 0.900000 1.095000 1.030000 600 48 1.000000 0.052000 0.052000 1.200000 0.045000 0.054000
1517293050841834987	1300 45 1.200000 0.355000 0.430000 900 41 0.900000 1.362000 1.283000 600 48 1.000000 0.051000 0.051000 1.200000 0.042000 0.050000
1517293051349737278	1300 44 1.200000 0.430000 0.520000 900 41 0.900000 1.351000 1.272000 600 47 1.000000 0.052000 0.052000 1.200000 0.043000 0.051000
1517293051902749403	1300 45 1.200000 0.313000 0.378000 900 42 0.900000 1.390000 1.309000 600 48 1.000000 0.052000 0.052000 1.200000 0.045000 0.054000
1517293052464775653	1300 45 1.200000 0.305000 0.371000 900 42 0.900000 1.073000 1.009000 600 47 1.000000 0.052000 0.052000 1.200000 0.049000 0.059000
1517293053016787112	1300 45 1.200000 0.303000 0.368000 900 42 0.900000 1.097000 1.032000 600 48 1.000000 0.051000 0.051000 1.200000 0.044000 0.053000
1517293053532770779	1300 44 1.200000 0.391000 0.473000 900 41 0.900000 1.479000 1.393000 600 47 1.000000 0.052000 0.052000 1.200000 0.041000 0.049000
1517293054058452404	1300 43 1.200000 0.405000 0.490000 900 41 0.900000 1.308000 1.233000 600 48 1.000000 0.052000 0.052000 1.200000 0.042000 0.050000
1517293054576995529	1300 45 1.200000 0.429000 0.519000 900 42 0.900000 1.380000 1.299000 600 48 1.000000 0.051000 0.051000 1.200000 0.050000 0.060000
1517293055127433237	1300 45 1.200000 0.374000 0.453000 900 42 0.900000 1.136000 1.068000 600 48 1.000000 0.052000 0.052000 1.200000 0.046000 0.055000
1517293055650550779	1300 45 1.200000 0.407000 0.492000 900 42 0.900000 0.839000 0.793000 600 48 1.000000 0.052000 0.052000 1.200000 0.046000 0.055000
1517293056163244654	1300 44 1.200000 0.399000 0.482000 900 41 0.900000 1.366000 1.288000 600 48 1.000000 0.051000 0.051000 1.200000 0.039000 0.047000
1517293056684366279	1300 45 1.200000 0.292000 0.354000 900 41 0.900000 1.382000 1.301000 600 48 1.000000 0.052000 0.052000 1.200000 0.046000 0.055000
1517293057232755696	1300 44 1.200000 0.255000 0.311000 900 41 0.900000 0.627000 0.593000 600 47 1.000000 0.051000 0.051000 1.200000 0.052000 0.062000
1517293057741053071	1300 44 1.200000 0.346000 0.419000 900 41 0.900000 1.366000 1.288000 600 47 1.000000 0.052000 0.052000 1.200000 0.040000 0.048000
1517293058289818571	1300 44 1.200000 0.282000 0.342000 900 41 0.900000 1.431000 1.348000 600 48 1.000000 0.052000 0.052000 1.200000 0.041000 0.049000
1517293058797601196	1300 40 1.200000 0.201000 0.245000 900 40 0.900000 0.451000 0.425000 600 44 1.000000 0.051000 0.051000 1.200000 0.038000 0.045000
1517293059305051029	1300 39 1.200000 0.071000 0.087000 900 39 0.900000 0.106000 0.100000 600 43 1.000000 0.052000 0.052000 1.200000 0.023000 0.027000
