#Timestamp	CPU(0) Frequency(MHz)	CPU(0) Temperature(C)	A7 Voltage(V)	A7 Current(A)	A7 Power(W)	CPU(4) Frequency(MHz)	CPU(4) Temperature(C)	A15 Voltage(V)	A15 Current(A)	A15 Power(W)	GPU Frequency(MHz)	GPU Temperature(C)	GPU Voltage(V)	GPU Current(A)	GPU Power(W)	RAM Voltage(V)	RAM Current(A)	RAM Power(W)
1518040566495347597	500 50 0.900000 0.029000 0.026000 1300 49 1.000000 0.794000 0.827000 600 54 1.000000 0.054000 0.054000 1.200000 0.038000 0.045000
1518040567002595056	500 51 0.900000 0.030000 0.027000 1300 49 1.000000 0.767000 0.799000 600 54 1.000000 0.054000 0.054000 1.200000 0.036000 0.043000
1518040567510084597	500 50 0.900000 0.029000 0.026000 1300 48 1.000000 0.771000 0.803000 600 55 1.000000 0.054000 0.054000 1.200000 0.040000 0.048000
1518040568077428514	500 55 0.900000 0.029000 0.026000 1300 49 1.000000 0.947000 0.986000 600 60 1.000000 0.054000 0.054000 1.200000 0.039000 0.047000
1518040568625416223	500 58 0.900000 0.178000 0.162000 1300 51 1.000000 2.958000 3.111000 600 64 1.000000 0.055000 0.055000 1.200000 0.031000 0.037000
1518040569193413223	500 60 0.900000 0.178000 0.162000 1300 52 1.000000 2.970000 3.124000 600 65 1.000000 0.055000 0.055000 1.200000 0.031000 0.037000
1518040569745382723	500 61 0.900000 0.179000 0.163000 1300 53 1.000000 2.975000 3.132000 600 67 1.000000 0.055000 0.055000 1.200000 0.031000 0.037000
1518040570301358348	500 61 0.900000 0.180000 0.163000 1300 54 1.000000 2.974000 3.131000 600 68 1.000000 0.055000 0.055000 1.200000 0.031000 0.037000
1518040570857362931	500 62 0.900000 0.180000 0.163000 1300 54 1.000000 2.978000 3.132000 600 68 1.000000 0.055000 0.055000 1.200000 0.031000 0.037000
1518040571421375848	500 62 0.900000 0.180000 0.163000 1300 55 1.000000 2.976000 3.130000 600 69 1.000000 0.055000 0.055000 1.200000 0.031000 0.037000
1518040571973353556	500 63 0.900000 0.180000 0.163000 1300 55 1.000000 2.972000 3.129000 600 69 1.000000 0.055000 0.055000 1.200000 0.031000 0.037000
1518040572537398931	500 63 0.900000 0.179000 0.163000 1300 55 1.000000 2.980000 3.137000 600 70 1.000000 0.055000 0.055000 1.200000 0.031000 0.037000
1518040573089370931	500 63 0.900000 0.180000 0.163000 1300 55 1.000000 2.995000 3.153000 600 70 1.000000 0.056000 0.056000 1.200000 0.031000 0.037000
1518040573633426640	500 64 0.900000 0.180000 0.163000 1300 56 1.000000 2.994000 3.152000 600 70 1.000000 0.055000 0.055000 1.200000 0.031000 0.037000
1518040574181399432	500 64 0.900000 0.180000 0.164000 1300 56 1.000000 2.992000 3.150000 600 70 1.000000 0.056000 0.056000 1.200000 0.032000 0.038000
1518040574741384890	500 64 0.900000 0.180000 0.163000 1300 56 1.000000 2.998000 3.156000 600 71 1.000000 0.056000 0.056000 1.200000 0.031000 0.037000
1518040575305387098	500 64 0.900000 0.180000 0.163000 1300 56 1.000000 2.998000 3.156000 600 71 1.000000 0.055000 0.055000 1.200000 0.031000 0.037000
1518040575869390557	500 64 0.900000 0.181000 0.164000 1300 56 1.000000 2.999000 3.157000 600 71 1.000000 0.056000 0.056000 1.200000 0.031000 0.037000
1518040576429392224	500 64 0.900000 0.180000 0.163000 1300 56 1.000000 2.992000 3.150000 600 71 1.000000 0.056000 0.056000 1.200000 0.031000 0.037000
1518040576989387390	500 64 0.900000 0.180000 0.164000 1300 56 1.000000 2.992000 3.150000 600 71 1.000000 0.056000 0.056000 1.200000 0.031000 0.037000
1518040577541371890	500 64 0.900000 0.180000 0.163000 1300 57 1.000000 2.981000 3.138000 600 71 1.000000 0.056000 0.056000 1.200000 0.031000 0.037000
1518040578101355849	500 65 0.900000 0.180000 0.163000 1300 57 1.000000 2.991000 3.149000 600 71 1.000000 0.056000 0.056000 1.200000 0.031000 0.037000
1518040578661386932	500 65 0.900000 0.180000 0.163000 1300 57 1.000000 2.991000 3.149000 600 71 1.000000 0.056000 0.056000 1.200000 0.031000 0.037000
1518040579209326766	500 65 0.900000 0.180000 0.163000 1300 57 1.000000 2.992000 3.150000 600 71 1.000000 0.056000 0.056000 1.200000 0.032000 0.038000
1518040579761360974	500 65 0.900000 0.180000 0.163000 1300 57 1.000000 2.992000 3.150000 600 71 1.000000 0.056000 0.056000 1.200000 0.032000 0.038000
1518040580321362516	500 65 0.900000 0.181000 0.164000 1300 57 1.000000 2.995000 3.153000 600 72 1.000000 0.056000 0.056000 1.200000 0.031000 0.037000
1518040580877342807	500 65 0.900000 0.181000 0.164000 1300 57 1.000000 2.994000 3.152000 600 72 1.000000 0.056000 0.056000 1.200000 0.031000 0.037000
1518040581433377057	500 65 0.900000 0.180000 0.163000 1300 57 1.000000 2.997000 3.155000 600 72 1.000000 0.056000 0.056000 1.200000 0.031000 0.037000
1518040581993357766	500 65 0.900000 0.181000 0.164000 1300 57 1.000000 2.997000 3.155000 600 72 1.000000 0.056000 0.056000 1.200000 0.031000 0.037000
1518040582557330183	500 65 0.900000 0.180000 0.163000 1300 57 1.000000 2.988000 3.143000 600 72 1.000000 0.056000 0.056000 1.200000 0.031000 0.037000
1518040583121409141	500 65 0.900000 0.181000 0.164000 1300 57 1.000000 2.997000 3.155000 600 72 1.000000 0.056000 0.056000 1.200000 0.031000 0.037000
1518040583673369141	500 65 0.900000 0.180000 0.163000 1300 57 1.000000 2.997000 3.155000 600 72 1.000000 0.056000 0.056000 1.200000 0.031000 0.037000
1518040584213423849	500 65 0.900000 0.181000 0.164000 1300 57 1.000000 3.034000 3.194000 600 72 1.000000 0.056000 0.056000 1.200000 0.031000 0.037000
1518040584765401975	500 65 0.900000 0.180000 0.163000 1300 57 1.000000 3.032000 3.192000 600 72 1.000000 0.056000 0.056000 1.200000 0.032000 0.038000
1518040585321367850	500 65 0.900000 0.180000 0.163000 1300 57 1.000000 3.017000 3.176000 600 72 1.000000 0.056000 0.056000 1.200000 0.031000 0.037000
1518040585873385016	500 65 0.900000 0.181000 0.164000 1300 57 1.000000 3.029000 3.189000 600 72 1.000000 0.056000 0.056000 1.200000 0.031000 0.037000
1518040586421356891	500 65 0.900000 0.181000 0.164000 1300 57 1.000000 3.032000 3.192000 600 72 1.000000 0.056000 0.056000 1.200000 0.031000 0.037000
1518040586973346016	500 65 0.900000 0.181000 0.165000 1300 57 1.000000 3.032000 3.192000 600 72 1.000000 0.056000 0.056000 1.200000 0.031000 0.037000
1518040587521342767	500 65 0.900000 0.181000 0.164000 1300 57 1.000000 3.018000 3.177000 600 72 1.000000 0.056000 0.056000 1.200000 0.031000 0.037000
1518040588085392517	500 65 0.900000 0.181000 0.164000 1300 57 1.000000 3.027000 3.187000 600 72 1.000000 0.057000 0.057000 1.200000 0.031000 0.037000
1518040588657353183	500 65 0.900000 0.181000 0.165000 1300 57 1.000000 3.028000 3.188000 600 72 1.000000 0.056000 0.056000 1.200000 0.031000 0.037000
1518040589209327392	500 65 0.900000 0.181000 0.164000 1300 57 1.000000 3.021000 3.181000 600 72 1.000000 0.056000 0.056000 1.200000 0.031000 0.037000
1518040589761369767	500 65 0.900000 0.180000 0.163000 1300 57 1.000000 3.035000 3.195000 600 72 1.000000 0.056000 0.056000 1.200000 0.031000 0.037000
1518040590313346100	500 65 0.900000 0.181000 0.164000 1300 57 1.000000 3.035000 3.195000 600 72 1.000000 0.056000 0.056000 1.200000 0.031000 0.037000
1518040590865355559	500 66 0.900000 0.181000 0.165000 1300 57 1.000000 3.026000 3.186000 600 72 1.000000 0.057000 0.057000 1.200000 0.031000 0.037000
1518040591429371100	500 65 0.900000 0.181000 0.164000 1300 57 1.000000 3.025000 3.185000 600 72 1.000000 0.056000 0.056000 1.200000 0.031000 0.037000
1518040591981386184	500 66 0.900000 0.181000 0.164000 1300 57 1.000000 3.027000 3.187000 600 72 1.000000 0.056000 0.056000 1.200000 0.032000 0.038000
1518040592545417809	500 66 0.900000 0.181000 0.164000 1300 57 1.000000 3.040000 3.201000 600 72 1.000000 0.056000 0.056000 1.200000 0.031000 0.037000
1518040593109351309	500 66 0.900000 0.180000 0.163000 1300 58 1.000000 3.033000 3.193000 600 73 1.000000 0.056000 0.056000 1.200000 0.032000 0.038000
1518040593669335976	500 66 0.900000 0.180000 0.163000 1300 58 1.000000 3.047000 3.208000 600 72 1.000000 0.056000 0.056000 1.200000 0.031000 0.037000
1518040594213389309	500 65 0.900000 0.181000 0.164000 1300 58 1.000000 3.044000 3.205000 600 72 1.000000 0.057000 0.057000 1.200000 0.031000 0.037000
1518040594773379142	500 66 0.900000 0.181000 0.164000 1300 58 1.000000 3.046000 3.207000 600 72 1.000000 0.056000 0.056000 1.200000 0.031000 0.037000
1518040595317395101	500 66 0.900000 0.180000 0.163000 1300 58 1.000000 3.042000 3.203000 600 72 1.000000 0.056000 0.056000 1.200000 0.031000 0.037000
1518040595869347434	500 66 0.900000 0.181000 0.164000 1300 58 1.000000 3.039000 3.200000 600 72 1.000000 0.057000 0.057000 1.200000 0.032000 0.038000
1518040596441391184	500 66 0.900000 0.180000 0.163000 1300 58 1.000000 3.030000 3.190000 600 73 1.000000 0.056000 0.056000 1.200000 0.031000 0.037000
1518040597001388559	500 66 0.900000 0.181000 0.164000 1300 58 1.000000 3.038000 3.199000 600 72 1.000000 0.056000 0.056000 1.200000 0.031000 0.037000
1518040597561376518	500 66 0.900000 0.181000 0.164000 1300 58 1.000000 3.042000 3.203000 600 72 1.000000 0.056000 0.056000 1.200000 0.031000 0.037000
1518040598113402726	500 66 0.900000 0.181000 0.165000 1300 58 1.000000 3.032000 3.192000 600 73 1.000000 0.057000 0.057000 1.200000 0.032000 0.038000
1518040598673362476	500 66 0.900000 0.181000 0.164000 1300 58 1.000000 3.034000 3.194000 600 73 1.000000 0.057000 0.057000 1.200000 0.032000 0.038000
1518040599229378643	500 66 0.900000 0.181000 0.164000 1300 58 1.000000 3.049000 3.210000 600 73 1.000000 0.056000 0.056000 1.200000 0.031000 0.037000
1518040599797371810	500 66 0.900000 0.181000 0.164000 1300 58 1.000000 3.041000 3.202000 600 72 1.000000 0.056000 0.056000 1.200000 0.032000 0.038000
1518040600361428393	500 66 0.900000 0.181000 0.164000 1300 58 1.000000 3.041000 3.202000 600 73 1.000000 0.057000 0.057000 1.200000 0.031000 0.037000
1518040600921401768	500 66 0.900000 0.181000 0.164000 1300 58 1.000000 3.043000 3.204000 600 72 1.000000 0.057000 0.057000 1.200000 0.031000 0.037000
1518040601469350310	500 66 0.900000 0.181000 0.164000 1300 58 1.000000 3.033000 3.193000 600 73 1.000000 0.057000 0.057000 1.200000 0.031000 0.037000
1518040602021433560	500 66 0.900000 0.181000 0.164000 1300 58 1.000000 3.033000 3.193000 600 73 1.000000 0.056000 0.056000 1.200000 0.032000 0.038000
1518040602573396560	500 66 0.900000 0.181000 0.164000 1300 58 1.000000 3.034000 3.194000 600 73 1.000000 0.057000 0.057000 1.200000 0.032000 0.038000
1518040603137335685	500 66 0.900000 0.181000 0.165000 1300 58 1.000000 3.034000 3.194000 600 73 1.000000 0.056000 0.056000 1.200000 0.032000 0.038000
1518040603689406602	500 66 0.900000 0.181000 0.164000 1300 58 1.000000 3.043000 3.204000 600 73 1.000000 0.057000 0.057000 1.200000 0.031000 0.037000
1518040604245383144	500 66 0.900000 0.181000 0.165000 1300 58 1.000000 3.043000 3.204000 600 73 1.000000 0.056000 0.056000 1.200000 0.031000 0.037000
1518040604813383644	500 66 0.900000 0.181000 0.164000 1300 58 1.000000 3.044000 3.205000 600 73 1.000000 0.057000 0.057000 1.200000 0.031000 0.037000
1518040605361355310	500 66 0.900000 0.181000 0.164000 1300 58 1.000000 3.046000 3.207000 600 73 1.000000 0.056000 0.056000 1.200000 0.031000 0.037000
1518040605925369435	500 66 0.900000 0.181000 0.164000 1300 58 1.000000 3.043000 3.204000 600 73 1.000000 0.056000 0.056000 1.200000 0.031000 0.037000
1518040606485367477	500 66 0.900000 0.181000 0.164000 1300 58 1.000000 3.039000 3.200000 600 73 1.000000 0.056000 0.056000 1.200000 0.031000 0.037000
1518040607037406102	500 66 0.900000 0.181000 0.164000 1300 58 1.000000 3.027000 3.187000 600 73 1.000000 0.056000 0.056000 1.200000 0.031000 0.037000
1518040607589384602	500 66 0.900000 0.181000 0.165000 1300 58 1.000000 3.033000 3.193000 600 73 1.000000 0.057000 0.057000 1.200000 0.031000 0.037000
1518040608145339352	500 66 0.900000 0.181000 0.165000 1300 58 1.000000 3.026000 3.186000 600 73 1.000000 0.057000 0.057000 1.200000 0.031000 0.037000
1518040608689416602	500 66 0.900000 0.181000 0.165000 1300 58 1.000000 3.015000 3.174000 600 73 1.000000 0.056000 0.056000 1.200000 0.031000 0.037000
1518040609241327311	500 66 0.900000 0.181000 0.164000 1300 58 1.000000 3.016000 3.175000 600 73 1.000000 0.057000 0.057000 1.200000 0.031000 0.037000
1518040609797363811	500 66 0.900000 0.181000 0.164000 1300 58 1.000000 3.012000 3.171000 600 73 1.000000 0.056000 0.056000 1.200000 0.031000 0.037000
1518040610349393644	500 66 0.900000 0.182000 0.165000 1300 58 1.000000 3.014000 3.170000 600 73 1.000000 0.056000 0.056000 1.200000 0.032000 0.038000
1518040610897420269	500 66 0.900000 0.181000 0.164000 1300 58 1.000000 3.012000 3.168000 600 73 1.000000 0.057000 0.057000 1.200000 0.033000 0.039000
1518040611445434144	500 66 0.900000 0.181000 0.164000 1300 58 1.000000 3.013000 3.172000 600 73 1.000000 0.056000 0.056000 1.200000 0.032000 0.038000
1518040612005399311	500 66 0.900000 0.181000 0.165000 1300 58 1.000000 3.011000 3.170000 600 72 1.000000 0.057000 0.057000 1.200000 0.033000 0.039000
1518040612565373561	500 66 0.900000 0.181000 0.164000 1300 58 1.000000 3.011000 3.167000 600 73 1.000000 0.057000 0.057000 1.200000 0.033000 0.039000
1518040613113341603	500 66 0.900000 0.181000 0.164000 1300 58 1.000000 3.003000 3.159000 600 73 1.000000 0.057000 0.057000 1.200000 0.033000 0.039000
1518040613673390603	500 66 0.900000 0.182000 0.165000 1300 58 1.000000 2.998000 3.156000 600 73 1.000000 0.057000 0.057000 1.200000 0.032000 0.038000
1518040614229355520	500 66 0.900000 0.181000 0.165000 1300 58 1.000000 3.010000 3.169000 600 73 1.000000 0.056000 0.056000 1.200000 0.033000 0.039000
1518040614777375520	500 66 0.900000 0.181000 0.165000 1300 58 1.000000 3.014000 3.173000 600 73 1.000000 0.056000 0.056000 1.200000 0.033000 0.039000
1518040615325362978	500 66 0.900000 0.182000 0.165000 1300 58 1.000000 3.016000 3.175000 600 73 1.000000 0.056000 0.056000 1.200000 0.033000 0.039000
1518040615885387437	500 66 0.900000 0.182000 0.165000 1300 58 1.000000 3.013000 3.172000 600 73 1.000000 0.057000 0.057000 1.200000 0.032000 0.038000
1518040616437379853	500 66 0.900000 0.181000 0.164000 1300 58 1.000000 3.026000 3.186000 600 73 1.000000 0.056000 0.056000 1.200000 0.032000 0.038000
1518040616993362978	500 66 0.900000 0.181000 0.164000 1300 58 1.000000 3.023000 3.183000 600 73 1.000000 0.056000 0.056000 1.200000 0.033000 0.039000
1518040617545361562	500 66 0.900000 0.181000 0.164000 1300 58 1.000000 3.025000 3.185000 600 73 1.000000 0.056000 0.056000 1.200000 0.032000 0.038000
1518040618097366770	500 66 0.900000 0.181000 0.164000 1300 58 1.000000 3.027000 3.187000 600 73 1.000000 0.056000 0.056000 1.200000 0.032000 0.038000
1518040618649334229	500 66 0.900000 0.181000 0.165000 1300 58 1.000000 3.026000 3.186000 600 73 1.000000 0.056000 0.056000 1.200000 0.032000 0.038000
1518040619209346687	500 66 0.900000 0.181000 0.164000 1300 58 1.000000 3.026000 3.186000 600 73 1.000000 0.056000 0.056000 1.200000 0.032000 0.038000
1518040619757313604	500 66 0.900000 0.182000 0.165000 1300 58 1.000000 3.023000 3.183000 600 73 1.000000 0.056000 0.056000 1.200000 0.032000 0.038000
1518040620305375104	500 66 0.900000 0.181000 0.165000 1300 58 1.000000 3.026000 3.186000 600 73 1.000000 0.057000 0.057000 1.200000 0.032000 0.038000
1518040620857373812	500 66 0.900000 0.181000 0.164000 1300 58 1.000000 3.018000 3.177000 600 73 1.000000 0.057000 0.057000 1.200000 0.032000 0.038000
1518040621405362521	500 66 0.900000 0.181000 0.164000 1300 58 1.000000 3.017000 3.176000 600 73 1.000000 0.057000 0.057000 1.200000 0.032000 0.038000
1518040621969380479	500 66 0.900000 0.181000 0.164000 1300 58 1.000000 3.013000 3.169000 600 73 1.000000 0.057000 0.057000 1.200000 0.033000 0.039000
1518040622513416854	500 66 0.900000 0.181000 0.164000 1300 58 1.000000 3.017000 3.176000 600 73 1.000000 0.056000 0.056000 1.200000 0.032000 0.038000
1518040623077355687	500 66 0.900000 0.182000 0.165000 1300 58 1.000000 3.020000 3.180000 600 73 1.000000 0.056000 0.056000 1.200000 0.032000 0.038000
1518040623637363563	500 66 0.900000 0.181000 0.164000 1300 58 1.000000 3.024000 3.184000 600 73 1.000000 0.057000 0.057000 1.200000 0.032000 0.038000
1518040624201387271	500 66 0.900000 0.181000 0.164000 1300 58 1.000000 3.017000 3.176000 600 73 1.000000 0.057000 0.057000 1.200000 0.033000 0.039000
1518040624753518438	500 66 0.900000 0.182000 0.165000 1300 58 1.000000 3.001000 3.160000 600 73 1.000000 0.057000 0.057000 1.200000 0.033000 0.039000
1518040625297379479	500 66 0.900000 0.181000 0.165000 1300 58 1.000000 3.001000 3.160000 600 73 1.000000 0.057000 0.057000 1.200000 0.032000 0.038000
1518040625849416771	500 66 0.900000 0.182000 0.165000 1300 58 1.000000 3.015000 3.174000 600 73 1.000000 0.057000 0.057000 1.200000 0.032000 0.038000
1518040626401408104	500 66 0.900000 0.181000 0.164000 1300 58 1.000000 3.007000 3.166000 600 73 1.000000 0.056000 0.056000 1.200000 0.032000 0.038000
1518040626961381855	500 66 0.900000 0.181000 0.164000 1300 58 1.000000 3.007000 3.166000 600 73 1.000000 0.056000 0.056000 1.200000 0.032000 0.038000
1518040627505402230	500 66 0.900000 0.181000 0.164000 1300 58 1.000000 3.007000 3.166000 600 73 1.000000 0.056000 0.056000 1.200000 0.032000 0.038000
1518040628057369563	500 66 0.900000 0.181000 0.164000 1300 58 1.000000 3.005000 3.164000 600 73 1.000000 0.056000 0.056000 1.200000 0.032000 0.038000
1518040628609377605	500 66 0.900000 0.181000 0.165000 1300 58 1.000000 3.000000 3.159000 600 73 1.000000 0.057000 0.057000 1.200000 0.032000 0.038000
1518040629165362146	500 66 0.900000 0.182000 0.165000 1300 58 1.000000 3.004000 3.163000 600 73 1.000000 0.056000 0.056000 1.200000 0.032000 0.038000
1518040629721388397	500 66 0.900000 0.181000 0.165000 1300 58 1.000000 3.005000 3.164000 600 73 1.000000 0.057000 0.057000 1.200000 0.032000 0.038000
1518040630289315897	500 66 0.900000 0.181000 0.165000 1300 58 1.000000 3.001000 3.160000 600 73 1.000000 0.056000 0.056000 1.200000 0.033000 0.039000
1518040630837374522	500 66 0.900000 0.181000 0.165000 1300 58 1.000000 3.014000 3.173000 600 73 1.000000 0.056000 0.056000 1.200000 0.033000 0.039000
1518040631397362938	500 66 0.900000 0.181000 0.164000 1300 58 1.000000 3.015000 3.174000 600 73 1.000000 0.056000 0.056000 1.200000 0.032000 0.038000
1518040631945401980	500 66 0.900000 0.181000 0.164000 1300 58 1.000000 3.015000 3.174000 600 73 1.000000 0.057000 0.057000 1.200000 0.032000 0.038000
1518040632505359522	500 66 0.900000 0.182000 0.165000 1300 58 1.000000 3.029000 3.189000 600 73 1.000000 0.056000 0.056000 1.200000 0.032000 0.038000
1518040633065360439	500 66 0.900000 0.181000 0.164000 1300 58 1.000000 3.024000 3.184000 600 73 1.000000 0.056000 0.056000 1.200000 0.032000 0.038000
1518040633625388980	500 66 0.900000 0.181000 0.164000 1300 58 1.000000 3.026000 3.186000 600 73 1.000000 0.057000 0.057000 1.200000 0.032000 0.038000
1518040634177397064	500 66 0.900000 0.182000 0.165000 1300 58 1.000000 3.019000 3.179000 600 73 1.000000 0.056000 0.056000 1.200000 0.033000 0.039000
1518040634733389397	500 66 0.900000 0.181000 0.165000 1300 58 1.000000 3.020000 3.180000 600 73 1.000000 0.056000 0.056000 1.200000 0.032000 0.038000
1518040635301368897	500 66 0.900000 0.181000 0.165000 1300 58 1.000000 3.021000 3.181000 600 73 1.000000 0.056000 0.056000 1.200000 0.032000 0.038000
1518040635865379314	500 66 0.900000 0.182000 0.165000 1300 58 1.000000 3.013000 3.172000 600 73 1.000000 0.057000 0.057000 1.200000 0.032000 0.038000
1518040636425332522	500 66 0.900000 0.182000 0.165000 1300 58 1.000000 3.029000 3.189000 600 73 1.000000 0.057000 0.057000 1.200000 0.032000 0.038000
1518040636973407647	500 66 0.900000 0.181000 0.165000 1300 58 1.000000 3.030000 3.190000 600 73 1.000000 0.056000 0.056000 1.200000 0.032000 0.038000
1518040637525377314	500 66 0.900000 0.181000 0.164000 1300 58 1.000000 3.029000 3.189000 600 73 1.000000 0.057000 0.057000 1.200000 0.032000 0.038000
1518040638077410273	500 66 0.900000 0.181000 0.165000 1300 58 1.000000 3.028000 3.188000 600 73 1.000000 0.057000 0.057000 1.200000 0.032000 0.038000
1518040638637345148	500 66 0.900000 0.181000 0.165000 1300 58 1.000000 3.021000 3.181000 600 73 1.000000 0.057000 0.057000 1.200000 0.032000 0.038000
1518040639201342439	500 66 0.900000 0.181000 0.165000 1300 58 1.000000 3.018000 3.177000 600 73 1.000000 0.057000 0.057000 1.200000 0.032000 0.038000
1518040639753350648	500 66 0.900000 0.181000 0.165000 1300 58 1.000000 3.017000 3.176000 600 73 1.000000 0.056000 0.056000 1.200000 0.032000 0.038000
1518040640317389314	500 66 0.900000 0.181000 0.164000 1300 58 1.000000 2.997000 3.155000 600 73 1.000000 0.057000 0.057000 1.200000 0.032000 0.038000
1518040640869370481	500 66 0.900000 0.181000 0.164000 1300 58 1.000000 2.992000 3.150000 600 73 1.000000 0.057000 0.057000 1.200000 0.032000 0.038000
1518040641429401231	500 66 0.900000 0.181000 0.164000 1300 58 1.000000 3.007000 3.166000 600 73 1.000000 0.056000 0.056000 1.200000 0.032000 0.038000
1518040641981361773	500 66 0.900000 0.182000 0.165000 1300 58 1.000000 3.006000 3.165000 600 73 1.000000 0.057000 0.057000 1.200000 0.032000 0.038000
1518040642541415731	500 66 0.900000 0.182000 0.165000 1300 58 1.000000 3.007000 3.166000 600 73 1.000000 0.057000 0.057000 1.200000 0.032000 0.038000
1518040643089399398	500 66 0.900000 0.182000 0.165000 1300 58 1.000000 3.009000 3.168000 600 73 1.000000 0.057000 0.057000 1.200000 0.032000 0.038000
1518040643637410440	500 66 0.900000 0.181000 0.165000 1300 58 1.000000 3.008000 3.167000 600 73 1.000000 0.056000 0.056000 1.200000 0.032000 0.038000
1518040644189395232	500 66 0.900000 0.181000 0.165000 1300 58 1.000000 3.008000 3.167000 600 73 1.000000 0.056000 0.056000 1.200000 0.032000 0.038000
1518040644741355273	500 66 0.900000 0.181000 0.164000 1300 58 1.000000 3.002000 3.161000 600 73 1.000000 0.056000 0.056000 1.200000 0.032000 0.038000
1518040645293404482	500 66 0.900000 0.181000 0.164000 1300 58 1.000000 2.999000 3.157000 600 73 1.000000 0.056000 0.056000 1.200000 0.032000 0.038000
1518040645853331107	500 66 0.900000 0.181000 0.165000 1300 58 1.000000 2.998000 3.156000 600 73 1.000000 0.056000 0.056000 1.200000 0.032000 0.038000
1518040646417352982	500 66 0.900000 0.181000 0.165000 1300 58 1.000000 2.991000 3.149000 600 73 1.000000 0.057000 0.057000 1.200000 0.033000 0.039000
1518040646977372024	500 66 0.900000 0.181000 0.165000 1300 58 1.000000 3.009000 3.168000 600 73 1.000000 0.057000 0.057000 1.200000 0.032000 0.038000
1518040647529384690	500 66 0.900000 0.182000 0.165000 1300 58 1.000000 3.006000 3.165000 600 73 1.000000 0.056000 0.056000 1.200000 0.032000 0.038000
1518040648093422107	500 66 0.900000 0.181000 0.164000 1300 58 1.000000 3.003000 3.162000 600 73 1.000000 0.056000 0.056000 1.200000 0.032000 0.038000
1518040648645364482	500 66 0.900000 0.181000 0.165000 1300 58 1.000000 3.001000 3.160000 600 73 1.000000 0.057000 0.057000 1.200000 0.032000 0.038000
1518040649201337107	500 66 0.900000 0.182000 0.165000 1300 58 1.000000 3.002000 3.161000 600 73 1.000000 0.056000 0.056000 1.200000 0.032000 0.038000
1518040649753395566	500 66 0.900000 0.181000 0.165000 1300 58 1.000000 3.004000 3.160000 600 73 1.000000 0.056000 0.056000 1.200000 0.032000 0.038000
1518040650309379149	500 66 0.900000 0.181000 0.165000 1300 58 1.000000 3.002000 3.161000 600 73 1.000000 0.056000 0.056000 1.200000 0.032000 0.038000
1518040650869348691	500 66 0.900000 0.182000 0.165000 1300 58 1.000000 2.995000 3.153000 600 73 1.000000 0.057000 0.057000 1.200000 0.032000 0.038000
1518040651425371607	500 66 0.900000 0.181000 0.165000 1300 58 1.000000 2.995000 3.153000 600 73 1.000000 0.056000 0.056000 1.200000 0.033000 0.039000
1518040651993378316	500 66 0.900000 0.181000 0.164000 1300 58 1.000000 3.004000 3.163000 600 73 1.000000 0.057000 0.057000 1.200000 0.033000 0.039000
1518040652545362524	500 66 0.900000 0.181000 0.165000 1300 58 1.000000 3.003000 3.159000 600 73 1.000000 0.057000 0.057000 1.200000 0.032000 0.038000
1518040653097368858	500 66 0.900000 0.181000 0.165000 1300 58 1.000000 3.003000 3.159000 600 73 1.000000 0.056000 0.056000 1.200000 0.033000 0.039000
1518040653653392233	500 66 0.900000 0.181000 0.165000 1300 58 1.000000 2.989000 3.147000 600 73 1.000000 0.056000 0.056000 1.200000 0.032000 0.038000
1518040654201389983	500 66 0.900000 0.182000 0.165000 1300 58 1.000000 2.990000 3.148000 600 73 1.000000 0.057000 0.057000 1.200000 0.033000 0.039000
1518040654761395941	500 66 0.900000 0.181000 0.165000 1300 58 1.000000 2.994000 3.152000 600 73 1.000000 0.057000 0.057000 1.200000 0.032000 0.038000
1518040655309413983	500 66 0.900000 0.181000 0.165000 1300 58 1.000000 2.984000 3.142000 600 73 1.000000 0.056000 0.056000 1.200000 0.032000 0.038000
1518040655877376941	500 66 0.900000 0.181000 0.164000 1300 58 1.000000 2.986000 3.141000 600 73 1.000000 0.057000 0.057000 1.200000 0.033000 0.039000
1518040656437397358	500 66 0.900000 0.181000 0.164000 1300 58 1.000000 2.980000 3.137000 600 73 1.000000 0.056000 0.056000 1.200000 0.033000 0.039000
1518040656997383066	500 66 0.900000 0.181000 0.165000 1300 58 1.000000 2.988000 3.146000 600 72 1.000000 0.056000 0.056000 1.200000 0.032000 0.038000
1518040657557396525	500 66 0.900000 0.181000 0.165000 1300 58 1.000000 2.990000 3.148000 600 72 1.000000 0.056000 0.056000 1.200000 0.033000 0.039000
1518040658117388775	500 66 0.900000 0.181000 0.165000 1300 58 1.000000 2.988000 3.146000 600 72 1.000000 0.057000 0.057000 1.200000 0.034000 0.041000
1518040658677427692	500 66 0.900000 0.180000 0.164000 1300 58 1.000000 2.979000 3.136000 600 73 1.000000 0.056000 0.056000 1.200000 0.033000 0.039000
1518040659241383400	500 66 0.900000 0.181000 0.165000 1300 58 1.000000 2.990000 3.148000 600 73 1.000000 0.057000 0.057000 1.200000 0.033000 0.039000
1518040659801390942	500 66 0.900000 0.181000 0.165000 1300 58 1.000000 2.992000 3.150000 600 73 1.000000 0.057000 0.057000 1.200000 0.033000 0.039000
1518040660357361525	500 66 0.900000 0.181000 0.164000 1300 58 1.000000 2.986000 3.144000 600 73 1.000000 0.057000 0.057000 1.200000 0.033000 0.039000
1518040660925384067	500 66 0.900000 0.181000 0.165000 1300 58 1.000000 2.991000 3.149000 600 73 1.000000 0.056000 0.056000 1.200000 0.033000 0.039000
1518040661485396984	500 66 0.900000 0.181000 0.165000 1300 58 1.000000 2.993000 3.151000 600 72 1.000000 0.057000 0.057000 1.200000 0.032000 0.038000
1518040662041396817	500 66 0.900000 0.181000 0.165000 1300 58 1.000000 2.995000 3.153000 600 73 1.000000 0.056000 0.056000 1.200000 0.033000 0.039000
1518040662597381942	500 66 0.900000 0.180000 0.164000 1300 58 1.000000 2.987000 3.145000 600 73 1.000000 0.057000 0.057000 1.200000 0.033000 0.039000
1518040663153393901	500 66 0.900000 0.181000 0.165000 1300 58 1.000000 3.000000 3.159000 600 73 1.000000 0.057000 0.057000 1.200000 0.033000 0.039000
1518040663697369734	500 66 0.900000 0.181000 0.165000 1300 58 1.000000 2.993000 3.151000 600 73 1.000000 0.057000 0.057000 1.200000 0.033000 0.039000
1518040664245356234	500 66 0.900000 0.181000 0.165000 1300 58 1.000000 2.998000 3.156000 600 73 1.000000 0.056000 0.056000 1.200000 0.033000 0.039000
1518040664817407442	500 66 0.900000 0.181000 0.165000 1300 58 1.000000 3.005000 3.164000 600 73 1.000000 0.056000 0.056000 1.200000 0.033000 0.039000
1518040665365382151	500 66 0.900000 0.181000 0.165000 1300 58 1.000000 2.997000 3.155000 600 73 1.000000 0.057000 0.057000 1.200000 0.032000 0.038000
1518040665929348526	500 66 0.900000 0.180000 0.164000 1300 58 1.000000 2.995000 3.153000 600 73 1.000000 0.057000 0.057000 1.200000 0.032000 0.038000
1518040666489353193	500 66 0.900000 0.181000 0.164000 1300 58 1.000000 3.009000 3.168000 600 73 1.000000 0.056000 0.056000 1.200000 0.032000 0.038000
1518040667041372484	500 66 0.900000 0.182000 0.165000 1300 58 1.000000 3.009000 3.168000 600 73 1.000000 0.056000 0.056000 1.200000 0.032000 0.038000
1518040667593339151	500 66 0.900000 0.181000 0.165000 1300 58 1.000000 3.008000 3.167000 600 73 1.000000 0.057000 0.057000 1.200000 0.032000 0.038000
1518040668145378734	500 66 0.900000 0.181000 0.164000 1300 58 1.000000 3.001000 3.157000 600 73 1.000000 0.056000 0.056000 1.200000 0.032000 0.038000
1518040668693419610	500 66 0.900000 0.181000 0.164000 1300 58 1.000000 3.005000 3.164000 600 73 1.000000 0.056000 0.056000 1.200000 0.032000 0.038000
1518040669249378651	500 66 0.900000 0.181000 0.165000 1300 58 1.000000 2.998000 3.156000 600 73 1.000000 0.057000 0.057000 1.200000 0.033000 0.039000
1518040669809403401	500 66 0.900000 0.181000 0.165000 1300 58 1.000000 2.998000 3.153000 600 73 1.000000 0.056000 0.056000 1.200000 0.032000 0.038000
1518040670365361651	500 66 0.900000 0.181000 0.165000 1300 58 1.000000 3.005000 3.161000 600 73 1.000000 0.056000 0.056000 1.200000 0.033000 0.039000
1518040670913423651	500 66 0.900000 0.181000 0.165000 1300 58 1.000000 2.997000 3.155000 600 73 1.000000 0.056000 0.056000 1.200000 0.032000 0.038000
1518040671473401152	500 66 0.900000 0.181000 0.165000 1300 58 1.000000 2.998000 3.156000 600 73 1.000000 0.056000 0.056000 1.200000 0.033000 0.039000
1518040672033402152	500 66 0.900000 0.181000 0.165000 1300 58 1.000000 3.024000 3.184000 600 73 1.000000 0.056000 0.056000 1.200000 0.032000 0.038000
1518040672601384318	500 66 0.900000 0.181000 0.165000 1300 58 1.000000 3.022000 3.182000 600 73 1.000000 0.056000 0.056000 1.200000 0.032000 0.038000
1518040673161387443	500 66 0.900000 0.181000 0.164000 1300 58 1.000000 3.023000 3.183000 600 73 1.000000 0.057000 0.057000 1.200000 0.032000 0.038000
1518040673717390860	500 66 0.900000 0.181000 0.164000 1300 58 1.000000 3.023000 3.183000 600 73 1.000000 0.057000 0.057000 1.200000 0.032000 0.038000
1518040674265356902	500 66 0.900000 0.181000 0.164000 1300 58 1.000000 3.020000 3.180000 600 73 1.000000 0.056000 0.056000 1.200000 0.032000 0.038000
1518040674813367277	500 66 0.900000 0.181000 0.165000 1300 58 1.000000 3.018000 3.177000 600 73 1.000000 0.056000 0.056000 1.200000 0.032000 0.038000
1518040675361366027	500 66 0.900000 0.181000 0.165000 1300 58 1.000000 3.022000 3.182000 600 73 1.000000 0.057000 0.057000 1.200000 0.032000 0.038000
1518040675916333694	500 66 0.900000 0.182000 0.165000 1300 58 1.000000 3.020000 3.180000 600 73 1.000000 0.057000 0.057000 1.200000 0.032000 0.038000
1518040676473333277	500 66 0.900000 0.181000 0.165000 1300 58 1.000000 3.014000 3.173000 600 73 1.000000 0.056000 0.056000 1.200000 0.032000 0.038000
1518040677037331736	500 66 0.900000 0.181000 0.164000 1300 58 1.000000 3.023000 3.183000 600 73 1.000000 0.056000 0.056000 1.200000 0.032000 0.038000
1518040677597368361	500 66 0.900000 0.181000 0.165000 1300 58 1.000000 3.025000 3.185000 600 73 1.000000 0.057000 0.057000 1.200000 0.032000 0.038000
1518040678153374944	500 66 0.900000 0.182000 0.165000 1300 58 1.000000 3.022000 3.182000 600 73 1.000000 0.057000 0.057000 1.200000 0.032000 0.038000
1518040678705423736	500 66 0.900000 0.182000 0.165000 1300 58 1.000000 3.026000 3.186000 600 73 1.000000 0.056000 0.056000 1.200000 0.032000 0.038000
1518040679261406236	500 66 0.900000 0.181000 0.164000 1300 58 1.000000 3.032000 3.192000 600 73 1.000000 0.057000 0.057000 1.200000 0.032000 0.038000
1518040679809377778	500 66 0.900000 0.181000 0.164000 1300 58 1.000000 3.021000 3.181000 600 73 1.000000 0.056000 0.056000 1.200000 0.032000 0.038000
1518040680369367611	500 66 0.900000 0.181000 0.165000 1300 58 1.000000 3.020000 3.180000 600 73 1.000000 0.057000 0.057000 1.200000 0.032000 0.038000
1518040680925360569	500 66 0.900000 0.181000 0.164000 1300 58 1.000000 3.012000 3.171000 600 73 1.000000 0.056000 0.056000 1.200000 0.032000 0.038000
1518040681473337944	500 66 0.900000 0.181000 0.165000 1300 58 1.000000 3.016000 3.175000 600 73 1.000000 0.056000 0.056000 1.200000 0.033000 0.039000
1518040682041348903	500 66 0.900000 0.181000 0.164000 1300 58 1.000000 3.009000 3.168000 600 73 1.000000 0.056000 0.056000 1.200000 0.032000 0.038000
1518040682605369028	500 66 0.900000 0.181000 0.165000 1300 58 1.000000 3.019000 3.179000 600 73 1.000000 0.057000 0.057000 1.200000 0.032000 0.038000
1518040683161328486	500 66 0.900000 0.181000 0.165000 1300 58 1.000000 3.020000 3.180000 600 73 1.000000 0.057000 0.057000 1.200000 0.032000 0.038000
1518040683721363611	500 66 0.900000 0.181000 0.165000 1300 58 1.000000 3.021000 3.181000 600 73 1.000000 0.056000 0.056000 1.200000 0.032000 0.038000
1518040684281347945	500 66 0.900000 0.181000 0.165000 1300 58 1.000000 3.019000 3.175000 600 73 1.000000 0.057000 0.057000 1.200000 0.032000 0.038000
1518040684841377736	500 66 0.900000 0.181000 0.165000 1300 58 1.000000 3.017000 3.176000 600 73 1.000000 0.057000 0.057000 1.200000 0.032000 0.038000
1518040685401367445	500 66 0.900000 0.181000 0.164000 1300 58 1.000000 3.019000 3.179000 600 73 1.000000 0.056000 0.056000 1.200000 0.032000 0.038000
1518040685957393320	500 66 0.900000 0.181000 0.165000 1300 58 1.000000 3.020000 3.180000 600 73 1.000000 0.056000 0.056000 1.200000 0.032000 0.038000
1518040686509357653	500 66 0.900000 0.181000 0.164000 1300 58 1.000000 3.010000 3.166000 600 73 1.000000 0.056000 0.056000 1.200000 0.032000 0.038000
1518040687061369528	500 66 0.900000 0.181000 0.164000 1300 58 1.000000 3.006000 3.162000 600 73 1.000000 0.056000 0.056000 1.200000 0.032000 0.038000
1518040687617381320	500 66 0.900000 0.182000 0.165000 1300 58 1.000000 3.009000 3.165000 600 73 1.000000 0.057000 0.057000 1.200000 0.032000 0.038000
1518040688173385320	500 66 0.900000 0.181000 0.164000 1300 58 1.000000 3.004000 3.163000 600 73 1.000000 0.057000 0.057000 1.200000 0.032000 0.038000
1518040688717389362	500 66 0.900000 0.180000 0.163000 1300 58 1.000000 3.009000 3.168000 600 73 1.000000 0.056000 0.056000 1.200000 0.032000 0.038000
1518040689261372154	500 66 0.900000 0.181000 0.164000 1300 58 1.000000 3.004000 3.163000 600 73 1.000000 0.057000 0.057000 1.200000 0.032000 0.038000
1518040689813406862	500 66 0.900000 0.182000 0.165000 1300 58 1.000000 3.006000 3.165000 600 73 1.000000 0.057000 0.057000 1.200000 0.032000 0.038000
1518040690381381487	500 66 0.900000 0.181000 0.165000 1300 58 1.000000 2.998000 3.153000 600 73 1.000000 0.057000 0.057000 1.200000 0.032000 0.038000
1518040690933405404	500 66 0.900000 0.181000 0.164000 1300 58 1.000000 3.012000 3.171000 600 73 1.000000 0.057000 0.057000 1.200000 0.032000 0.038000
1518040691481413279	500 66 0.900000 0.181000 0.165000 1300 58 1.000000 3.011000 3.170000 600 73 1.000000 0.057000 0.057000 1.200000 0.032000 0.038000
1518040692041385946	500 66 0.900000 0.181000 0.164000 1300 58 1.000000 3.011000 3.170000 600 73 1.000000 0.057000 0.057000 1.200000 0.032000 0.038000
1518040692597414404	500 66 0.900000 0.181000 0.164000 1300 58 1.000000 3.014000 3.173000 600 73 1.000000 0.057000 0.057000 1.200000 0.032000 0.038000
1518040693153389362	500 66 0.900000 0.181000 0.165000 1300 58 1.000000 3.012000 3.171000 600 73 1.000000 0.056000 0.056000 1.200000 0.032000 0.038000
1518040693705394654	500 66 0.900000 0.181000 0.165000 1300 58 1.000000 3.007000 3.166000 600 73 1.000000 0.057000 0.057000 1.200000 0.029000 0.035000
1518040694269359529	500 66 0.900000 0.181000 0.165000 1300 58 1.000000 3.008000 3.167000 600 73 1.000000 0.057000 0.057000 1.200000 0.030000 0.036000
1518040694825392613	500 66 0.900000 0.182000 0.165000 1300 58 1.000000 3.011000 3.167000 600 73 1.000000 0.057000 0.057000 1.200000 0.030000 0.036000
1518040695369381071	500 66 0.900000 0.180000 0.164000 1300 58 1.000000 3.009000 3.168000 600 73 1.000000 0.057000 0.057000 1.200000 0.029000 0.035000
1518040695925362571	500 66 0.900000 0.181000 0.165000 1300 58 1.000000 3.012000 3.171000 600 73 1.000000 0.057000 0.057000 1.200000 0.029000 0.035000
1518040696469342238	500 66 0.900000 0.182000 0.165000 1300 58 1.000000 3.012000 3.171000 600 73 1.000000 0.057000 0.057000 1.200000 0.030000 0.036000
1518040697021441030	500 66 0.900000 0.181000 0.165000 1300 58 1.000000 3.011000 3.170000 600 73 1.000000 0.057000 0.057000 1.200000 0.030000 0.036000
1518040697581358196	500 66 0.900000 0.181000 0.165000 1300 58 1.000000 3.008000 3.167000 600 73 1.000000 0.057000 0.057000 1.200000 0.030000 0.036000
1518040698129372488	500 66 0.900000 0.181000 0.165000 1300 58 1.000000 3.021000 3.181000 600 73 1.000000 0.056000 0.056000 1.200000 0.029000 0.035000
1518040698677416196	500 66 0.900000 0.181000 0.165000 1300 58 1.000000 3.021000 3.181000 600 73 1.000000 0.056000 0.056000 1.200000 0.029000 0.035000
1518040699237377072	500 66 0.900000 0.180000 0.164000 1300 58 1.000000 3.020000 3.180000 600 73 1.000000 0.056000 0.056000 1.200000 0.029000 0.035000
1518040699777383113	500 66 0.900000 0.181000 0.165000 1300 58 1.000000 3.012000 3.171000 600 73 1.000000 0.057000 0.057000 1.200000 0.030000 0.036000
1518040700325368280	500 66 0.900000 0.181000 0.165000 1300 58 1.000000 3.018000 3.177000 600 73 1.000000 0.056000 0.056000 1.200000 0.029000 0.035000
1518040700889354405	500 66 0.900000 0.181000 0.165000 1300 58 1.000000 3.015000 3.174000 600 73 1.000000 0.057000 0.057000 1.200000 0.029000 0.035000
1518040701437408447	500 66 0.900000 0.181000 0.165000 1300 58 1.000000 3.017000 3.176000 600 73 1.000000 0.057000 0.057000 1.200000 0.030000 0.036000
1518040701989391197	500 66 0.900000 0.181000 0.165000 1300 58 1.000000 3.010000 3.169000 600 73 1.000000 0.057000 0.057000 1.200000 0.029000 0.035000
1518040702549328405	500 66 0.900000 0.181000 0.165000 1300 58 1.000000 3.010000 3.169000 600 73 1.000000 0.056000 0.056000 1.200000 0.030000 0.036000
1518040703101408697	500 66 0.900000 0.181000 0.165000 1300 58 1.000000 3.014000 3.173000 600 73 1.000000 0.057000 0.057000 1.200000 0.030000 0.036000
1518040703653379447	500 66 0.900000 0.181000 0.164000 1300 58 1.000000 3.014000 3.173000 600 73 1.000000 0.056000 0.056000 1.200000 0.030000 0.036000
1518040704205400114	500 66 0.900000 0.181000 0.165000 1300 58 1.000000 3.020000 3.180000 600 73 1.000000 0.057000 0.057000 1.200000 0.029000 0.035000
1518040704769388364	500 66 0.900000 0.182000 0.165000 1300 58 1.000000 3.020000 3.180000 600 73 1.000000 0.057000 0.057000 1.200000 0.029000 0.035000
1518040705321360322	500 66 0.900000 0.181000 0.165000 1300 58 1.000000 3.021000 3.181000 600 73 1.000000 0.057000 0.057000 1.200000 0.030000 0.036000
1518040705885373739	500 66 0.900000 0.180000 0.164000 1300 58 1.000000 3.018000 3.177000 600 73 1.000000 0.056000 0.056000 1.200000 0.030000 0.036000
1518040706437378447	500 66 0.900000 0.181000 0.165000 1300 58 1.000000 3.015000 3.174000 600 73 1.000000 0.056000 0.056000 1.200000 0.030000 0.036000
1518040706989416072	500 66 0.900000 0.181000 0.165000 1300 58 1.000000 3.014000 3.173000 600 73 1.000000 0.057000 0.057000 1.200000 0.030000 0.036000
1518040707545391989	500 66 0.900000 0.181000 0.165000 1300 58 1.000000 3.015000 3.174000 600 73 1.000000 0.057000 0.057000 1.200000 0.030000 0.036000
1518040708105339614	500 66 0.900000 0.181000 0.165000 1300 58 1.000000 3.009000 3.168000 600 73 1.000000 0.057000 0.057000 1.200000 0.030000 0.036000
1518040708653342614	500 66 0.900000 0.181000 0.165000 1300 58 1.000000 3.005000 3.164000 600 73 1.000000 0.057000 0.057000 1.200000 0.030000 0.036000
1518040709205354406	500 66 0.900000 0.181000 0.165000 1300 58 1.000000 3.012000 3.171000 600 73 1.000000 0.056000 0.056000 1.200000 0.029000 0.035000
1518040709769382489	500 66 0.900000 0.181000 0.164000 1300 58 1.000000 3.020000 3.180000 600 73 1.000000 0.056000 0.056000 1.200000 0.029000 0.035000
1518040710321410781	500 66 0.900000 0.181000 0.165000 1300 58 1.000000 3.018000 3.177000 600 73 1.000000 0.057000 0.057000 1.200000 0.029000 0.035000
1518040710873345615	500 66 0.900000 0.181000 0.164000 1300 58 1.000000 3.008000 3.167000 600 73 1.000000 0.057000 0.057000 1.200000 0.029000 0.035000
1518040711437374240	500 66 0.900000 0.181000 0.165000 1300 58 1.000000 3.007000 3.166000 600 73 1.000000 0.057000 0.057000 1.200000 0.029000 0.035000
1518040711989369656	500 66 0.900000 0.181000 0.165000 1300 58 1.000000 3.007000 3.166000 600 73 1.000000 0.057000 0.057000 1.200000 0.029000 0.035000
1518040712549335323	500 66 0.900000 0.181000 0.165000 1300 58 1.000000 3.007000 3.166000 600 73 1.000000 0.056000 0.056000 1.200000 0.030000 0.036000
1518040713101354698	500 66 0.900000 0.181000 0.165000 1300 58 1.000000 3.002000 3.161000 600 73 1.000000 0.057000 0.057000 1.200000 0.029000 0.035000
1518040713653394365	500 66 0.900000 0.181000 0.165000 1300 58 1.000000 3.000000 3.159000 600 73 1.000000 0.057000 0.057000 1.200000 0.030000 0.036000
1518040714205371448	500 66 0.900000 0.181000 0.165000 1300 58 1.000000 3.006000 3.165000 600 73 1.000000 0.057000 0.057000 1.200000 0.030000 0.036000
1518040714757361032	500 66 0.900000 0.181000 0.165000 1300 58 1.000000 3.007000 3.166000 600 73 1.000000 0.057000 0.057000 1.200000 0.029000 0.035000
1518040715317311532	500 66 0.900000 0.181000 0.165000 1300 58 1.000000 3.007000 3.166000 600 73 1.000000 0.057000 0.057000 1.200000 0.029000 0.035000
1518040715873393865	500 66 0.900000 0.181000 0.164000 1300 58 1.000000 3.008000 3.167000 600 73 1.000000 0.057000 0.057000 1.200000 0.030000 0.036000
1518040716429369949	500 66 0.900000 0.181000 0.164000 1300 58 1.000000 3.006000 3.165000 600 73 1.000000 0.057000 0.057000 1.200000 0.029000 0.035000
1518040716977353157	500 66 0.900000 0.181000 0.164000 1300 58 1.000000 3.006000 3.165000 600 73 1.000000 0.056000 0.056000 1.200000 0.029000 0.035000
1518040717537478740	500 66 0.900000 0.181000 0.164000 1300 58 1.000000 3.008000 3.167000 600 73 1.000000 0.056000 0.056000 1.200000 0.029000 0.035000
1518040718097368032	500 66 0.900000 0.181000 0.164000 1300 58 1.000000 3.039000 3.200000 600 73 1.000000 0.056000 0.056000 1.200000 0.029000 0.035000
1518040718649435574	500 66 0.900000 0.181000 0.165000 1300 58 1.000000 3.028000 3.188000 600 73 1.000000 0.056000 0.056000 1.200000 0.029000 0.035000
1518040719205345991	500 66 0.900000 0.181000 0.164000 1300 58 1.000000 3.028000 3.188000 600 73 1.000000 0.057000 0.057000 1.200000 0.030000 0.036000
1518040719769398991	500 66 0.900000 0.181000 0.165000 1300 58 1.000000 3.022000 3.182000 600 73 1.000000 0.057000 0.057000 1.200000 0.030000 0.036000
1518040720321374116	500 66 0.900000 0.181000 0.165000 1300 58 1.000000 3.030000 3.190000 600 73 1.000000 0.057000 0.057000 1.200000 0.029000 0.035000
1518040720885367407	500 66 0.900000 0.181000 0.165000 1300 58 1.000000 3.029000 3.189000 600 73 1.000000 0.056000 0.056000 1.200000 0.029000 0.035000
1518040721437390074	500 66 0.900000 0.181000 0.164000 1300 58 1.000000 3.012000 3.171000 600 73 1.000000 0.056000 0.056000 1.200000 0.029000 0.035000
1518040721985395491	500 66 0.900000 0.181000 0.165000 1300 58 1.000000 3.020000 3.180000 600 73 1.000000 0.057000 0.057000 1.200000 0.029000 0.035000
1518040722537408158	500 66 0.900000 0.181000 0.165000 1300 58 1.000000 3.020000 3.180000 600 73 1.000000 0.057000 0.057000 1.200000 0.029000 0.035000
1518040723097415033	500 66 0.900000 0.181000 0.164000 1300 58 1.000000 3.018000 3.177000 600 73 1.000000 0.057000 0.057000 1.200000 0.029000 0.035000
1518040723645396241	500 66 0.900000 0.181000 0.164000 1300 58 1.000000 3.014000 3.173000 600 73 1.000000 0.057000 0.057000 1.200000 0.029000 0.035000
1518040724193362824	500 66 0.900000 0.181000 0.165000 1300 58 1.000000 3.014000 3.173000 600 73 1.000000 0.057000 0.057000 1.200000 0.030000 0.036000
1518040724753414950	500 66 0.900000 0.181000 0.165000 1300 58 1.000000 3.019000 3.179000 600 73 1.000000 0.057000 0.057000 1.200000 0.029000 0.035000
1518040725313383950	500 66 0.900000 0.181000 0.165000 1300 58 1.000000 3.024000 3.181000 600 73 1.000000 0.057000 0.057000 1.200000 0.030000 0.036000
1518040725873377950	500 66 0.900000 0.181000 0.164000 1300 58 1.000000 3.023000 3.183000 600 73 1.000000 0.057000 0.057000 1.200000 0.030000 0.036000
1518040726437411991	500 66 0.900000 0.181000 0.165000 1300 58 1.000000 2.992000 3.150000 600 73 1.000000 0.057000 0.057000 1.200000 0.030000 0.036000
1518040727001333950	500 66 0.900000 0.181000 0.164000 1300 58 1.000000 3.004000 3.163000 600 73 1.000000 0.057000 0.057000 1.200000 0.030000 0.036000
1518040727553440492	500 66 0.900000 0.181000 0.165000 1300 58 1.000000 3.006000 3.165000 600 73 1.000000 0.057000 0.057000 1.200000 0.029000 0.035000
1518040728113400867	500 66 0.900000 0.181000 0.165000 1300 58 1.000000 3.004000 3.163000 600 73 1.000000 0.057000 0.057000 1.200000 0.030000 0.036000
1518040728673390742	500 66 0.900000 0.181000 0.165000 1300 58 1.000000 3.012000 3.171000 600 73 1.000000 0.056000 0.056000 1.200000 0.030000 0.036000
1518040729233398367	500 66 0.900000 0.182000 0.165000 1300 58 1.000000 3.019000 3.179000 600 73 1.000000 0.057000 0.057000 1.200000 0.030000 0.036000
1518040729789349825	500 66 0.900000 0.181000 0.164000 1300 58 1.000000 3.015000 3.174000 600 73 1.000000 0.056000 0.056000 1.200000 0.029000 0.035000
1518040730341390325	500 66 0.900000 0.181000 0.165000 1300 58 1.000000 3.024000 3.184000 600 73 1.000000 0.056000 0.056000 1.200000 0.029000 0.035000
1518040730901361325	500 66 0.900000 0.181000 0.165000 1300 58 1.000000 3.015000 3.174000 600 73 1.000000 0.057000 0.057000 1.200000 0.030000 0.036000
1518040731453419492	500 66 0.900000 0.181000 0.165000 1300 58 1.000000 3.021000 3.181000 600 73 1.000000 0.057000 0.057000 1.200000 0.029000 0.035000
1518040732005417492	500 66 0.900000 0.181000 0.165000 1300 58 1.000000 3.016000 3.175000 600 73 1.000000 0.057000 0.057000 1.200000 0.030000 0.036000
1518040732545383950	500 66 0.900000 0.181000 0.165000 1300 58 1.000000 3.013000 3.172000 600 73 1.000000 0.057000 0.057000 1.200000 0.030000 0.036000
1518040733097394242	500 66 0.900000 0.181000 0.165000 1300 58 1.000000 3.013000 3.172000 600 73 1.000000 0.056000 0.056000 1.200000 0.030000 0.036000
1518040733653412951	500 66 0.900000 0.181000 0.165000 1300 58 1.000000 3.013000 3.172000 600 73 1.000000 0.056000 0.056000 1.200000 0.030000 0.036000
1518040734209394409	500 66 0.900000 0.181000 0.165000 1300 58 1.000000 3.041000 3.202000 600 73 1.000000 0.057000 0.057000 1.200000 0.030000 0.036000
1518040734753341242	500 66 0.900000 0.181000 0.165000 1300 58 1.000000 3.048000 3.209000 600 73 1.000000 0.056000 0.056000 1.200000 0.030000 0.036000
1518040735313380701	500 66 0.900000 0.181000 0.165000 1300 58 1.000000 3.050000 3.211000 600 73 1.000000 0.056000 0.056000 1.200000 0.032000 0.038000
1518040735869390743	500 66 0.900000 0.181000 0.165000 1300 58 1.000000 3.055000 3.216000 600 73 1.000000 0.056000 0.056000 1.200000 0.030000 0.036000
1518040736421406909	500 66 0.900000 0.181000 0.165000 1300 58 1.000000 3.055000 3.216000 600 73 1.000000 0.057000 0.057000 1.200000 0.030000 0.036000
1518040736977365034	500 66 0.900000 0.181000 0.165000 1300 58 1.000000 3.056000 3.217000 600 73 1.000000 0.057000 0.057000 1.200000 0.030000 0.036000
1518040737533376784	500 66 0.900000 0.181000 0.165000 1300 58 1.000000 3.054000 3.215000 600 73 1.000000 0.057000 0.057000 1.200000 0.030000 0.036000
1518040738077409201	500 66 0.900000 0.181000 0.165000 1300 58 1.000000 3.054000 3.215000 600 73 1.000000 0.057000 0.057000 1.200000 0.030000 0.036000
1518040738629433035	500 66 0.900000 0.181000 0.165000 1300 58 1.000000 3.047000 3.208000 600 73 1.000000 0.057000 0.057000 1.200000 0.030000 0.036000
1518040739193362743	500 66 0.900000 0.181000 0.165000 1300 58 1.000000 3.052000 3.213000 600 73 1.000000 0.057000 0.057000 1.200000 0.030000 0.036000
1518040739749392326	500 66 0.900000 0.181000 0.165000 1300 58 1.000000 3.055000 3.216000 600 73 1.000000 0.056000 0.056000 1.200000 0.030000 0.036000
1518040740309386201	500 66 0.900000 0.181000 0.165000 1300 58 1.000000 3.043000 3.204000 600 73 1.000000 0.057000 0.057000 1.200000 0.031000 0.037000
1518040740869341785	500 66 0.900000 0.182000 0.165000 1300 58 1.000000 3.046000 3.207000 600 73 1.000000 0.057000 0.057000 1.200000 0.030000 0.036000
1518040741425369118	500 66 0.900000 0.181000 0.165000 1300 58 1.000000 3.054000 3.215000 600 73 1.000000 0.057000 0.057000 1.200000 0.030000 0.036000
1518040741977398535	500 66 0.900000 0.181000 0.165000 1300 58 1.000000 3.038000 3.199000 600 73 1.000000 0.056000 0.056000 1.200000 0.030000 0.036000
1518040742533361910	500 66 0.900000 0.181000 0.164000 1300 58 1.000000 3.042000 3.203000 600 73 1.000000 0.057000 0.057000 1.200000 0.030000 0.036000
1518040743097357535	500 66 0.900000 0.181000 0.165000 1300 58 1.000000 3.042000 3.203000 600 73 1.000000 0.057000 0.057000 1.200000 0.030000 0.036000
1518040743665411118	500 66 0.900000 0.181000 0.165000 1300 58 1.000000 3.043000 3.204000 600 73 1.000000 0.056000 0.056000 1.200000 0.030000 0.036000
1518040744209366494	500 66 0.900000 0.181000 0.165000 1300 58 1.000000 3.040000 3.201000 600 73 1.000000 0.057000 0.057000 1.200000 0.031000 0.037000
1518040744769348660	500 66 0.900000 0.181000 0.165000 1300 58 1.000000 3.034000 3.194000 600 73 1.000000 0.057000 0.057000 1.200000 0.030000 0.036000
1518040745329362994	500 66 0.900000 0.181000 0.165000 1300 58 1.000000 3.035000 3.195000 600 73 1.000000 0.057000 0.057000 1.200000 0.030000 0.036000
1518040745897360702	500 66 0.900000 0.181000 0.165000 1300 58 1.000000 3.035000 3.195000 600 73 1.000000 0.057000 0.057000 1.200000 0.030000 0.036000
1518040746453358910	500 66 0.900000 0.181000 0.165000 1300 58 1.000000 3.044000 3.205000 600 73 1.000000 0.057000 0.057000 1.200000 0.030000 0.036000
1518040747021368786	500 66 0.900000 0.181000 0.165000 1300 58 1.000000 3.043000 3.204000 600 73 1.000000 0.057000 0.057000 1.200000 0.030000 0.036000
1518040747573379327	500 66 0.900000 0.182000 0.165000 1300 58 1.000000 3.043000 3.204000 600 73 1.000000 0.057000 0.057000 1.200000 0.030000 0.036000
1518040748125408077	500 66 0.900000 0.181000 0.165000 1300 58 1.000000 3.041000 3.202000 600 73 1.000000 0.057000 0.057000 1.200000 0.030000 0.036000
1518040748685365202	500 66 0.900000 0.181000 0.164000 1300 58 1.000000 3.043000 3.204000 600 73 1.000000 0.056000 0.056000 1.200000 0.030000 0.036000
1518040749241393202	500 66 0.900000 0.181000 0.165000 1300 58 1.000000 3.043000 3.204000 600 73 1.000000 0.057000 0.057000 1.200000 0.030000 0.036000
1518040749813377661	500 66 0.900000 0.181000 0.165000 1300 58 1.000000 3.022000 3.182000 600 73 1.000000 0.056000 0.056000 1.200000 0.030000 0.036000
1518040750361371953	500 66 0.900000 0.181000 0.165000 1300 58 1.000000 3.024000 3.184000 600 73 1.000000 0.057000 0.057000 1.200000 0.031000 0.037000
1518040750913389911	500 66 0.900000 0.181000 0.165000 1300 58 1.000000 3.021000 3.181000 600 73 1.000000 0.056000 0.056000 1.200000 0.030000 0.036000
1518040751465372119	500 66 0.900000 0.181000 0.165000 1300 58 1.000000 3.021000 3.181000 600 73 1.000000 0.057000 0.057000 1.200000 0.030000 0.036000
1518040752025395619	500 66 0.900000 0.181000 0.165000 1300 58 1.000000 3.018000 3.177000 600 73 1.000000 0.057000 0.057000 1.200000 0.030000 0.036000
1518040752585412578	500 66 0.900000 0.181000 0.165000 1300 58 1.000000 3.018000 3.177000 600 73 1.000000 0.057000 0.057000 1.200000 0.029000 0.035000
1518040753133401411	500 66 0.900000 0.181000 0.165000 1300 58 1.000000 3.019000 3.179000 600 73 1.000000 0.057000 0.057000 1.200000 0.030000 0.036000
1518040753681412953	500 66 0.900000 0.181000 0.165000 1300 58 1.000000 3.021000 3.181000 600 73 1.000000 0.057000 0.057000 1.200000 0.030000 0.036000
1518040754241387036	500 66 0.900000 0.182000 0.165000 1300 58 1.000000 3.021000 3.181000 600 73 1.000000 0.056000 0.056000 1.200000 0.030000 0.036000
1518040754789361911	500 66 0.900000 0.181000 0.165000 1300 58 1.000000 3.018000 3.177000 600 73 1.000000 0.057000 0.057000 1.200000 0.030000 0.036000
1518040755353390953	500 66 0.900000 0.181000 0.165000 1300 58 1.000000 3.004000 3.163000 600 73 1.000000 0.057000 0.057000 1.200000 0.030000 0.036000
1518040755913387287	500 66 0.900000 0.182000 0.165000 1300 58 1.000000 3.010000 3.169000 600 73 1.000000 0.057000 0.057000 1.200000 0.030000 0.036000
1518040756457404953	500 66 0.900000 0.181000 0.165000 1300 58 1.000000 3.009000 3.168000 600 73 1.000000 0.056000 0.056000 1.200000 0.030000 0.036000
1518040757017373328	500 66 0.900000 0.181000 0.164000 1300 58 1.000000 3.009000 3.168000 600 73 1.000000 0.057000 0.057000 1.200000 0.030000 0.036000
1518040757577407787	500 66 0.900000 0.180000 0.163000 1300 58 1.000000 3.009000 3.168000 600 73 1.000000 0.057000 0.057000 1.200000 0.030000 0.036000
1518040758137377579	500 66 0.900000 0.181000 0.165000 1300 58 1.000000 3.000000 3.159000 600 73 1.000000 0.056000 0.056000 1.200000 0.030000 0.036000
1518040758689415495	500 66 0.900000 0.181000 0.164000 1300 58 1.000000 3.001000 3.160000 600 73 1.000000 0.057000 0.057000 1.200000 0.030000 0.036000
1518040759245394495	500 66 0.900000 0.181000 0.165000 1300 58 1.000000 3.001000 3.157000 600 73 1.000000 0.056000 0.056000 1.200000 0.030000 0.036000
1518040759805409745	500 66 0.900000 0.181000 0.165000 1300 58 1.000000 2.997000 3.155000 600 73 1.000000 0.056000 0.056000 1.200000 0.030000 0.036000
1518040760365415037	500 66 0.900000 0.181000 0.165000 1300 58 1.000000 2.993000 3.151000 600 73 1.000000 0.057000 0.057000 1.200000 0.030000 0.036000
1518040760917398787	500 66 0.900000 0.181000 0.165000 1300 58 1.000000 3.001000 3.160000 600 73 1.000000 0.057000 0.057000 1.200000 0.030000 0.036000
1518040761473350829	500 66 0.900000 0.181000 0.165000 1300 58 1.000000 3.004000 3.163000 600 73 1.000000 0.057000 0.057000 1.200000 0.031000 0.037000
1518040762021424954	500 66 0.900000 0.182000 0.165000 1300 58 1.000000 2.996000 3.154000 600 73 1.000000 0.057000 0.057000 1.200000 0.031000 0.037000
1518040762577351329	500 66 0.900000 0.181000 0.165000 1300 58 1.000000 2.989000 3.147000 600 73 1.000000 0.057000 0.057000 1.200000 0.030000 0.036000
1518040763141385496	500 66 0.900000 0.180000 0.164000 1300 58 1.000000 2.993000 3.148000 600 73 1.000000 0.056000 0.056000 1.200000 0.031000 0.037000
1518040763701422621	500 66 0.900000 0.181000 0.165000 1300 58 1.000000 3.001000 3.160000 600 73 1.000000 0.057000 0.057000 1.200000 0.030000 0.036000
1518040764261397329	500 66 0.900000 0.181000 0.165000 1300 58 1.000000 2.998000 3.156000 600 73 1.000000 0.056000 0.056000 1.200000 0.030000 0.036000
1518040764821328579	500 66 0.900000 0.181000 0.164000 1300 58 1.000000 2.989000 3.147000 600 73 1.000000 0.056000 0.056000 1.200000 0.030000 0.036000
1518040765373390079	500 66 0.900000 0.181000 0.165000 1300 58 1.000000 3.001000 3.160000 600 73 1.000000 0.056000 0.056000 1.200000 0.030000 0.036000
1518040765925374038	500 66 0.900000 0.181000 0.165000 1300 58 1.000000 3.005000 3.164000 600 73 1.000000 0.057000 0.057000 1.200000 0.030000 0.036000
1518040766473346246	500 66 0.900000 0.182000 0.165000 1300 58 1.000000 3.020000 3.180000 600 73 1.000000 0.056000 0.056000 1.200000 0.030000 0.036000
1518040767021419871	500 66 0.900000 0.181000 0.165000 1300 58 1.000000 3.018000 3.177000 600 73 1.000000 0.057000 0.057000 1.200000 0.030000 0.036000
1518040767573393121	500 66 0.900000 0.180000 0.164000 1300 58 1.000000 3.017000 3.176000 600 73 1.000000 0.056000 0.056000 1.200000 0.030000 0.036000
1518040768133365871	500 66 0.900000 0.181000 0.165000 1300 58 1.000000 3.011000 3.170000 600 73 1.000000 0.057000 0.057000 1.200000 0.030000 0.036000
1518040768681402538	500 66 0.900000 0.181000 0.164000 1300 58 1.000000 3.005000 3.164000 600 73 1.000000 0.057000 0.057000 1.200000 0.030000 0.036000
1518040769233321288	500 66 0.900000 0.181000 0.165000 1300 58 1.000000 3.001000 3.160000 600 73 1.000000 0.057000 0.057000 1.200000 0.030000 0.036000
1518040769793384830	500 66 0.900000 0.181000 0.165000 1300 58 1.000000 3.008000 3.167000 600 73 1.000000 0.057000 0.057000 1.200000 0.030000 0.036000
1518040770353371163	500 66 0.900000 0.181000 0.165000 1300 58 1.000000 3.007000 3.166000 600 73 1.000000 0.057000 0.057000 1.200000 0.030000 0.036000
1518040770909397913	500 66 0.900000 0.181000 0.165000 1300 58 1.000000 3.014000 3.173000 600 73 1.000000 0.057000 0.057000 1.200000 0.030000 0.036000
1518040771469372997	500 66 0.900000 0.181000 0.165000 1300 58 1.000000 3.010000 3.169000 600 73 1.000000 0.056000 0.056000 1.200000 0.030000 0.036000
1518040772029375205	500 66 0.900000 0.181000 0.165000 1300 58 1.000000 3.020000 3.180000 600 73 1.000000 0.057000 0.057000 1.200000 0.030000 0.036000
1518040772581342455	500 66 0.900000 0.181000 0.165000 1300 58 1.000000 3.020000 3.180000 600 73 1.000000 0.057000 0.057000 1.200000 0.030000 0.036000
1518040773125398372	500 66 0.900000 0.181000 0.165000 1300 58 1.000000 3.019000 3.179000 600 73 1.000000 0.057000 0.057000 1.200000 0.030000 0.036000
1518040773677402289	500 66 0.900000 0.181000 0.165000 1300 58 1.000000 3.012000 3.171000 600 73 1.000000 0.056000 0.056000 1.200000 0.030000 0.036000
1518040774233381455	500 66 0.900000 0.181000 0.165000 1300 58 1.000000 3.026000 3.186000 600 73 1.000000 0.057000 0.057000 1.200000 0.030000 0.036000
1518040774793407747	500 66 0.900000 0.181000 0.165000 1300 58 1.000000 3.021000 3.181000 600 73 1.000000 0.057000 0.057000 1.200000 0.030000 0.036000
1518040775353374122	500 66 0.900000 0.181000 0.165000 1300 58 1.000000 3.017000 3.176000 600 73 1.000000 0.056000 0.056000 1.200000 0.030000 0.036000
1518040775901395372	500 66 0.900000 0.181000 0.165000 1300 58 1.000000 3.022000 3.182000 600 73 1.000000 0.057000 0.057000 1.200000 0.030000 0.036000
1518040776416012664	500 66 0.900000 0.181000 0.165000 1300 58 1.000000 3.025000 3.185000 600 73 1.000000 0.057000 0.057000 1.200000 0.031000 0.037000
1518040776931570039	500 66 0.900000 0.068000 0.062000 1300 58 1.000000 3.029000 3.189000 600 73 1.000000 0.056000 0.056000 1.200000 0.027000 0.032000
1518040777446787706	500 65 0.900000 0.067000 0.061000 1300 58 1.000000 3.029000 3.189000 600 73 1.000000 0.056000 0.056000 1.200000 0.026000 0.031000
1518040777962283748	500 65 0.900000 0.029000 0.026000 1300 58 1.000000 3.031000 3.191000 600 73 1.000000 0.057000 0.057000 1.200000 0.025000 0.030000
1518040778477800164	500 65 0.900000 0.028000 0.025000 1300 57 1.000000 3.032000 3.192000 600 73 1.000000 0.056000 0.056000 1.200000 0.025000 0.030000
1518040778992938623	500 65 0.900000 0.029000 0.026000 1300 58 1.000000 3.032000 3.192000 600 73 1.000000 0.056000 0.056000 1.200000 0.025000 0.030000
1518040779508230581	500 65 0.900000 0.027000 0.024000 1300 57 1.000000 3.033000 3.193000 600 73 1.000000 0.056000 0.056000 1.200000 0.025000 0.030000
1518040780023697914	500 65 0.900000 0.027000 0.024000 1300 57 1.000000 3.032000 3.192000 600 73 1.000000 0.056000 0.056000 1.200000 0.025000 0.030000
1518040780538789331	500 65 0.900000 0.028000 0.025000 1300 57 1.000000 3.034000 3.194000 600 73 1.000000 0.056000 0.056000 1.200000 0.025000 0.030000
1518040781046813915	500 65 0.900000 0.028000 0.025000 1300 57 1.000000 3.033000 3.193000 600 70 1.000000 0.057000 0.057000 1.200000 0.025000 0.030000
1518040781553432915	500 59 0.900000 0.027000 0.024000 1300 56 1.000000 1.704000 1.782000 600 64 1.000000 0.057000 0.057000 1.200000 0.024000 0.028000
1518040782059989706	500 55 0.900000 0.029000 0.026000 1300 54 1.000000 0.200000 0.210000 600 60 1.000000 0.056000 0.056000 1.200000 0.024000 0.028000
