#Timestamp	CPU(0) Frequency(MHz)	CPU(0) Temperature(C)	A7 Voltage(V)	A7 Current(A)	A7 Power(W)	CPU(4) Frequency(MHz)	CPU(4) Temperature(C)	A15 Voltage(V)	A15 Current(A)	A15 Power(W)	GPU Frequency(MHz)	GPU Temperature(C)	GPU Voltage(V)	GPU Current(A)	GPU Power(W)	RAM Voltage(V)	RAM Current(A)	RAM Power(W)
1517236252754076341	1400 39 1.000000 0.045000 0.047000 1600 31 0.900000 0.206000 0.193000 600 35 1.000000 0.050000 0.050000 1.200000 0.040000 0.048000
1517236253259572132	1400 39 1.200000 0.077000 0.097000 1600 32 1.100000 1.076000 1.216000 600 36 1.000000 0.050000 0.050000 1.200000 0.031000 0.037000
1517236253765263424	1400 40 1.200000 0.077000 0.097000 1600 33 1.100000 1.093000 1.236000 600 37 1.000000 0.051000 0.051000 1.200000 0.032000 0.038000
1517236254270859049	1400 41 1.200000 0.080000 0.101000 1600 34 1.100000 1.182000 1.336000 600 37 1.000000 0.051000 0.051000 1.200000 0.034000 0.041000
1517236254776335799	1400 41 1.200000 0.078000 0.099000 1600 34 1.100000 1.096000 1.239000 600 37 1.000000 0.051000 0.051000 1.200000 0.031000 0.037000
1517236255281855049	1400 41 1.200000 0.077000 0.097000 1600 34 1.100000 1.079000 1.220000 600 37 1.000000 0.051000 0.051000 1.200000 0.031000 0.037000
1517236255787354591	1400 41 1.200000 0.078000 0.099000 1600 34 1.100000 1.097000 1.240000 600 38 1.000000 0.051000 0.051000 1.200000 0.031000 0.037000
1517236256292867841	1400 42 1.200000 0.078000 0.099000 1600 34 1.100000 1.093000 1.236000 600 38 1.000000 0.051000 0.051000 1.200000 0.031000 0.037000
1517236256798457716	1400 42 1.200000 0.079000 0.100000 1600 35 1.100000 1.089000 1.231000 600 38 1.000000 0.051000 0.051000 1.200000 0.030000 0.036000
1517236257303881841	1400 42 1.200000 0.078000 0.099000 1600 35 1.100000 1.096000 1.239000 600 38 1.000000 0.051000 0.051000 1.200000 0.031000 0.037000
1517236257809372841	1400 42 1.200000 0.079000 0.100000 1600 35 1.100000 1.083000 1.224000 600 38 1.000000 0.051000 0.051000 1.200000 0.031000 0.037000
1517236258315541050	1400 42 1.200000 0.079000 0.100000 1600 35 1.100000 1.111000 1.256000 600 38 1.000000 0.051000 0.051000 1.200000 0.032000 0.038000
1517236258821175050	1400 42 1.200000 0.078000 0.099000 1600 35 1.100000 1.082000 1.223000 600 39 1.000000 0.051000 0.051000 1.200000 0.032000 0.038000
1517236259326679008	1400 43 1.200000 0.081000 0.103000 1600 35 1.100000 1.202000 1.359000 600 39 1.000000 0.051000 0.051000 1.200000 0.030000 0.036000
1517236259832247675	1400 43 1.200000 0.079000 0.100000 1600 35 1.100000 1.167000 1.319000 600 39 1.000000 0.051000 0.051000 1.200000 0.031000 0.037000
1517236260337835383	1400 43 1.200000 0.079000 0.100000 1600 35 1.100000 1.103000 1.247000 600 39 1.000000 0.051000 0.051000 1.200000 0.030000 0.036000
1517236260843358633	1400 43 1.200000 0.079000 0.100000 1600 36 1.100000 1.089000 1.231000 600 39 1.000000 0.051000 0.051000 1.200000 0.031000 0.037000
1517236261348907133	1400 43 1.200000 0.078000 0.099000 1600 36 1.100000 1.096000 1.239000 600 39 1.000000 0.051000 0.051000 1.200000 0.031000 0.037000
1517236261854432217	1400 43 1.200000 0.078000 0.099000 1600 36 1.100000 1.086000 1.228000 600 39 1.000000 0.051000 0.051000 1.200000 0.031000 0.037000
1517236262359982550	1400 43 1.200000 0.078000 0.099000 1600 36 1.100000 1.090000 1.232000 600 39 1.000000 0.051000 0.051000 1.200000 0.032000 0.038000
1517236262865558800	1400 43 1.200000 0.079000 0.100000 1600 36 1.100000 1.104000 1.248000 600 39 1.000000 0.051000 0.051000 1.200000 0.031000 0.037000
1517236263371056592	1400 43 1.200000 0.080000 0.101000 1600 36 1.100000 1.085000 1.227000 600 39 1.000000 0.051000 0.051000 1.200000 0.033000 0.039000
1517236263876266634	1400 43 1.200000 0.079000 0.100000 1600 36 1.100000 1.083000 1.224000 600 40 1.000000 0.051000 0.051000 1.200000 0.031000 0.037000
1517236264381704467	1400 43 1.200000 0.081000 0.103000 1600 36 1.100000 1.181000 1.336000 600 40 1.000000 0.051000 0.051000 1.200000 0.034000 0.041000
1517236264887268800	1400 44 1.200000 0.093000 0.118000 1600 36 1.100000 1.293000 1.463000 600 40 1.000000 0.051000 0.051000 1.200000 0.040000 0.048000
1517236265392893676	1400 43 1.200000 0.079000 0.100000 1600 36 1.100000 1.092000 1.235000 600 40 1.000000 0.051000 0.051000 1.200000 0.040000 0.048000
1517236265898433134	1400 43 1.200000 0.079000 0.100000 1600 36 1.100000 1.109000 1.254000 600 40 1.000000 0.051000 0.051000 1.200000 0.031000 0.037000
1517236266404036967	1400 44 1.200000 0.078000 0.099000 1600 36 1.100000 1.093000 1.236000 600 40 1.000000 0.051000 0.051000 1.200000 0.031000 0.037000
1517236266909653717	1400 43 1.200000 0.079000 0.100000 1600 36 1.100000 1.089000 1.231000 600 39 1.000000 0.051000 0.051000 1.200000 0.032000 0.038000
1517236267415316967	1400 43 1.200000 0.079000 0.100000 1600 36 1.100000 1.101000 1.245000 600 40 1.000000 0.051000 0.051000 1.200000 0.032000 0.038000
1517236267920799467	1400 44 1.200000 0.079000 0.100000 1600 36 1.100000 1.091000 1.233000 600 40 1.000000 0.051000 0.051000 1.200000 0.032000 0.038000
1517236268426344551	1400 44 1.200000 0.078000 0.099000 1600 36 1.100000 1.083000 1.224000 600 40 1.000000 0.051000 0.051000 1.200000 0.031000 0.037000
1517236268931643593	1400 44 1.200000 0.079000 0.100000 1600 36 1.100000 1.083000 1.224000 600 40 1.000000 0.051000 0.051000 1.200000 0.033000 0.039000
1517236269436851634	1400 44 1.200000 0.081000 0.103000 1600 36 1.100000 1.084000 1.226000 600 41 1.000000 0.051000 0.051000 1.200000 0.031000 0.037000
1517236269942513218	1400 44 1.200000 0.087000 0.110000 1600 37 1.100000 1.086000 1.228000 600 40 1.000000 0.051000 0.051000 1.200000 0.033000 0.039000
1517236270448111343	1400 44 1.200000 0.079000 0.100000 1600 36 1.100000 1.113000 1.258000 600 40 1.000000 0.051000 0.051000 1.200000 0.031000 0.037000
1517236270953629593	1400 44 1.200000 0.079000 0.100000 1600 36 1.100000 1.096000 1.239000 600 40 1.000000 0.051000 0.051000 1.200000 0.032000 0.038000
1517236271459161635	1400 44 1.200000 0.080000 0.101000 1600 37 1.100000 1.099000 1.242000 600 40 1.000000 0.051000 0.051000 1.200000 0.031000 0.037000
1517236271964677968	1400 44 1.200000 0.079000 0.100000 1600 37 1.100000 1.097000 1.240000 600 40 1.000000 0.051000 0.051000 1.200000 0.031000 0.037000
1517236272470205426	1400 44 1.200000 0.080000 0.101000 1600 37 1.100000 1.091000 1.233000 600 40 1.000000 0.051000 0.051000 1.200000 0.032000 0.038000
1517236272975791551	1400 44 1.200000 0.080000 0.101000 1600 37 1.100000 1.103000 1.247000 600 40 1.000000 0.051000 0.051000 1.200000 0.030000 0.036000
1517236273481385260	1400 44 1.200000 0.079000 0.100000 1600 36 1.100000 1.081000 1.222000 600 40 1.000000 0.051000 0.051000 1.200000 0.032000 0.038000
1517236273986779468	1400 44 1.200000 0.079000 0.100000 1600 37 1.100000 1.081000 1.222000 600 40 1.000000 0.051000 0.051000 1.200000 0.031000 0.037000
1517236274492512677	1400 43 1.200000 0.079000 0.100000 1600 37 1.100000 1.084000 1.226000 600 41 1.000000 0.051000 0.051000 1.200000 0.033000 0.039000
1517236274998095593	1400 44 1.200000 0.078000 0.099000 1600 37 1.100000 1.090000 1.232000 600 40 1.000000 0.051000 0.051000 1.200000 0.033000 0.039000
1517236275503622968	1400 44 1.200000 0.080000 0.101000 1600 37 1.100000 1.114000 1.259000 600 40 1.000000 0.051000 0.051000 1.200000 0.031000 0.037000
1517236276009186968	1400 44 1.200000 0.079000 0.100000 1600 37 1.100000 1.083000 1.224000 600 40 1.000000 0.051000 0.051000 1.200000 0.031000 0.037000
1517236276514774802	1400 44 1.200000 0.080000 0.101000 1600 37 1.100000 1.096000 1.239000 600 40 1.000000 0.051000 0.051000 1.200000 0.032000 0.038000
1517236277020331219	1400 44 1.200000 0.079000 0.100000 1600 37 1.100000 1.096000 1.239000 600 40 1.000000 0.051000 0.051000 1.200000 0.030000 0.036000
1517236277525883719	1400 44 1.200000 0.079000 0.100000 1600 37 1.100000 1.106000 1.250000 600 40 1.000000 0.051000 0.051000 1.200000 0.033000 0.039000
1517236278031457094	1400 44 1.200000 0.080000 0.101000 1600 37 1.100000 1.096000 1.239000 600 40 1.000000 0.051000 0.051000 1.200000 0.032000 0.038000
1517236278537083385	1400 44 1.200000 0.079000 0.100000 1600 37 1.100000 1.112000 1.257000 600 40 1.000000 0.051000 0.051000 1.200000 0.032000 0.038000
1517236279042576219	1400 44 1.200000 0.079000 0.100000 1600 37 1.100000 1.082000 1.223000 600 40 1.000000 0.051000 0.051000 1.200000 0.032000 0.038000
1517236279548099969	1400 44 1.200000 0.079000 0.100000 1600 37 1.100000 1.082000 1.223000 600 41 1.000000 0.051000 0.051000 1.200000 0.032000 0.038000
1517236280053703011	1400 44 1.200000 0.083000 0.105000 1600 37 1.100000 1.112000 1.257000 600 40 1.000000 0.051000 0.051000 1.200000 0.037000 0.044000
1517236280559315052	1400 44 1.200000 0.079000 0.100000 1600 37 1.100000 1.087000 1.229000 600 40 1.000000 0.051000 0.051000 1.200000 0.031000 0.037000
1517236281064835594	1400 44 1.200000 0.079000 0.100000 1600 37 1.100000 1.079000 1.220000 600 40 1.000000 0.051000 0.051000 1.200000 0.031000 0.037000
1517236281570403386	1400 44 1.200000 0.079000 0.100000 1600 37 1.100000 1.079000 1.220000 600 40 1.000000 0.051000 0.051000 1.200000 0.032000 0.038000
1517236282075933844	1400 44 1.200000 0.080000 0.101000 1600 37 1.100000 1.082000 1.223000 600 40 1.000000 0.051000 0.051000 1.200000 0.032000 0.038000
1517236282581641053	1400 44 1.200000 0.079000 0.100000 1600 37 1.100000 1.094000 1.237000 600 40 1.000000 0.051000 0.051000 1.200000 0.030000 0.036000
1517236283087146553	1400 44 1.200000 0.080000 0.101000 1600 37 1.100000 1.099000 1.242000 600 40 1.000000 0.051000 0.051000 1.200000 0.032000 0.038000
1517236283592635594	1400 44 1.200000 0.080000 0.101000 1600 37 1.100000 1.082000 1.223000 600 40 1.000000 0.051000 0.051000 1.200000 0.032000 0.038000
1517236284098068594	1400 44 1.200000 0.079000 0.100000 1600 37 1.100000 1.087000 1.229000 600 41 1.000000 0.051000 0.051000 1.200000 0.031000 0.037000
1517236284603625053	1400 44 1.200000 0.080000 0.101000 1600 37 1.100000 1.091000 1.233000 600 41 1.000000 0.051000 0.051000 1.200000 0.032000 0.038000
1517236285109233720	1400 44 1.200000 0.092000 0.117000 1600 37 1.100000 1.221000 1.380000 600 41 1.000000 0.051000 0.051000 1.200000 0.040000 0.048000
1517236285614725553	1400 44 1.200000 0.080000 0.101000 1600 37 1.100000 1.091000 1.233000 600 41 1.000000 0.051000 0.051000 1.200000 0.031000 0.037000
1517236286120374553	1400 44 1.200000 0.079000 0.100000 1600 37 1.100000 1.085000 1.227000 600 40 1.000000 0.051000 0.051000 1.200000 0.031000 0.037000
1517236286625918386	1400 44 1.200000 0.079000 0.100000 1600 37 1.100000 1.081000 1.222000 600 41 1.000000 0.051000 0.051000 1.200000 0.030000 0.036000
1517236287131475511	1400 44 1.200000 0.079000 0.100000 1600 37 1.100000 1.081000 1.222000 600 41 1.000000 0.051000 0.051000 1.200000 0.031000 0.037000
1517236287636994303	1400 44 1.200000 0.079000 0.100000 1600 37 1.100000 1.082000 1.223000 600 41 1.000000 0.051000 0.051000 1.200000 0.031000 0.037000
1517236288142560553	1400 44 1.200000 0.079000 0.100000 1600 37 1.100000 1.079000 1.220000 600 41 1.000000 0.051000 0.051000 1.200000 0.032000 0.038000
1517236288648095387	1400 44 1.200000 0.079000 0.100000 1600 37 1.100000 1.108000 1.253000 600 41 1.000000 0.051000 0.051000 1.200000 0.032000 0.038000
1517236289153634720	1400 45 1.200000 0.079000 0.100000 1600 37 1.100000 1.082000 1.223000 600 41 1.000000 0.051000 0.051000 1.200000 0.032000 0.038000
1517236289659162720	1400 45 1.200000 0.081000 0.103000 1600 37 1.100000 1.086000 1.228000 600 41 1.000000 0.051000 0.051000 1.200000 0.032000 0.038000
1517236290164741678	1400 45 1.200000 0.088000 0.111000 1600 37 1.100000 1.294000 1.463000 600 41 1.000000 0.051000 0.051000 1.200000 0.039000 0.047000
1517236290670330095	1400 45 1.200000 0.079000 0.100000 1600 37 1.100000 1.111000 1.256000 600 41 1.000000 0.051000 0.051000 1.200000 0.032000 0.038000
1517236291175834512	1400 44 1.200000 0.080000 0.101000 1600 37 1.100000 1.090000 1.232000 600 41 1.000000 0.051000 0.051000 1.200000 0.030000 0.036000
1517236291681266262	1400 45 1.200000 0.079000 0.100000 1600 37 1.100000 1.102000 1.246000 600 41 1.000000 0.051000 0.051000 1.200000 0.031000 0.037000
1517236292186794804	1400 45 1.200000 0.080000 0.101000 1600 37 1.100000 1.103000 1.247000 600 41 1.000000 0.051000 0.051000 1.200000 0.032000 0.038000
1517236292692301929	1400 44 1.200000 0.079000 0.100000 1600 37 1.100000 1.096000 1.239000 600 41 1.000000 0.051000 0.051000 1.200000 0.031000 0.037000
1517236293197986804	1400 45 1.200000 0.079000 0.100000 1600 37 1.100000 1.109000 1.254000 600 41 1.000000 0.051000 0.051000 1.200000 0.031000 0.037000
1517236293703440429	1400 45 1.200000 0.080000 0.101000 1600 37 1.100000 1.090000 1.232000 600 41 1.000000 0.051000 0.051000 1.200000 0.031000 0.037000
1517236294208834012	1400 45 1.200000 0.079000 0.100000 1600 37 1.100000 1.109000 1.254000 600 41 1.000000 0.051000 0.051000 1.200000 0.035000 0.042000
1517236294714399221	1400 45 1.200000 0.079000 0.100000 1600 37 1.100000 1.196000 1.353000 600 41 1.000000 0.051000 0.051000 1.200000 0.031000 0.037000
1517236295219974596	1400 45 1.200000 0.080000 0.101000 1600 38 1.100000 1.108000 1.253000 600 41 1.000000 0.051000 0.051000 1.200000 0.040000 0.048000
1517236295725623804	1400 45 1.200000 0.080000 0.101000 1600 37 1.100000 1.087000 1.229000 600 41 1.000000 0.051000 0.051000 1.200000 0.031000 0.037000
1517236296231195013	1400 45 1.200000 0.080000 0.101000 1600 38 1.100000 1.099000 1.242000 600 41 1.000000 0.051000 0.051000 1.200000 0.031000 0.037000
1517236296736648471	1400 45 1.200000 0.080000 0.101000 1600 38 1.100000 1.098000 1.241000 600 41 1.000000 0.051000 0.051000 1.200000 0.033000 0.039000
1517236297242182971	1400 45 1.200000 0.079000 0.100000 1600 38 1.100000 1.100000 1.244000 600 41 1.000000 0.051000 0.051000 1.200000 0.030000 0.036000
1517236297747976721	1400 45 1.200000 0.081000 0.103000 1600 38 1.100000 1.103000 1.247000 600 41 1.000000 0.051000 0.051000 1.200000 0.031000 0.037000
1517236298253580929	1400 45 1.200000 0.080000 0.101000 1600 38 1.100000 1.082000 1.223000 600 41 1.000000 0.051000 0.051000 1.200000 0.030000 0.036000
1517236298759088971	1400 45 1.200000 0.079000 0.100000 1600 37 1.100000 1.108000 1.253000 600 41 1.000000 0.051000 0.051000 1.200000 0.030000 0.036000
1517236299264553471	1400 45 1.200000 0.080000 0.101000 1600 38 1.100000 1.084000 1.226000 600 41 1.000000 0.051000 0.051000 1.200000 0.037000 0.044000
1517236299770068555	1400 45 1.200000 0.079000 0.100000 1600 38 1.100000 1.086000 1.228000 600 41 1.000000 0.051000 0.051000 1.200000 0.034000 0.041000
1517236300275589471	1400 45 1.200000 0.090000 0.114000 1600 38 1.100000 1.280000 1.448000 600 41 1.000000 0.051000 0.051000 1.200000 0.035000 0.042000
1517236300780994263	1400 45 1.200000 0.080000 0.101000 1600 38 1.100000 1.106000 1.250000 600 41 1.000000 0.051000 0.051000 1.200000 0.033000 0.039000
1517236301286510180	1400 45 1.200000 0.079000 0.100000 1600 38 1.100000 1.094000 1.237000 600 41 1.000000 0.051000 0.051000 1.200000 0.030000 0.036000
1517236301792056388	1400 45 1.200000 0.080000 0.101000 1600 38 1.100000 1.100000 1.244000 600 41 1.000000 0.051000 0.051000 1.200000 0.031000 0.037000
1517236302298612597	1400 43 1.200000 0.080000 0.101000 1600 38 1.100000 1.104000 1.248000 600 41 1.000000 0.051000 0.051000 1.200000 0.030000 0.036000
1517236302804649305	1400 42 1.200000 0.083000 0.105000 1600 37 1.100000 1.035000 1.170000 600 42 1.000000 0.051000 0.051000 1.200000 0.135000 0.163000
1517236303310142472	1400 45 1.200000 0.216000 0.273000 1600 39 1.100000 1.394000 1.578000 600 43 1.000000 0.051000 0.051000 1.200000 0.114000 0.138000
1517236303815471847	1400 47 1.200000 0.313000 0.393000 1600 39 1.100000 1.603000 1.816000 600 43 1.000000 0.051000 0.051000 1.200000 0.073000 0.088000
1517236304320775722	1400 47 1.200000 0.425000 0.534000 1600 40 1.100000 1.615000 1.829000 600 44 1.000000 0.051000 0.051000 1.200000 0.071000 0.085000
1517236304826193139	1400 48 1.200000 0.425000 0.534000 1600 41 1.100000 1.602000 1.815000 600 44 1.000000 0.052000 0.052000 1.200000 0.074000 0.089000
1517236305331632472	1400 48 1.200000 0.442000 0.555000 1600 41 1.100000 1.731000 1.961000 600 45 1.000000 0.052000 0.052000 1.200000 0.075000 0.090000
1517236305836850930	1400 49 1.200000 0.426000 0.535000 1600 41 1.100000 1.598000 1.810000 600 45 1.000000 0.052000 0.052000 1.200000 0.073000 0.088000
1517236306342360305	1400 49 1.200000 0.426000 0.535000 1600 41 1.100000 1.595000 1.805000 600 45 1.000000 0.052000 0.052000 1.200000 0.073000 0.088000
1517236306847675389	1400 49 1.200000 0.427000 0.536000 1600 42 1.100000 1.612000 1.826000 600 45 1.000000 0.052000 0.052000 1.200000 0.073000 0.088000
1517236307354198014	1400 49 1.200000 0.427000 0.536000 1600 42 1.100000 1.601000 1.813000 600 45 1.000000 0.052000 0.052000 1.200000 0.074000 0.089000
1517236307859485472	1400 49 1.200000 0.427000 0.536000 1600 42 1.100000 1.606000 1.819000 600 45 1.000000 0.052000 0.052000 1.200000 0.075000 0.090000
1517236308364647389	1400 50 1.200000 0.427000 0.536000 1600 42 1.100000 1.601000 1.812000 600 46 1.000000 0.052000 0.052000 1.200000 0.075000 0.090000
1517236308869918264	1400 50 1.200000 0.427000 0.536000 1600 42 1.100000 1.623000 1.838000 600 46 1.000000 0.052000 0.052000 1.200000 0.073000 0.088000
1517236309375211556	1400 50 1.200000 0.427000 0.536000 1600 42 1.100000 1.600000 1.812000 600 46 1.000000 0.052000 0.052000 1.200000 0.075000 0.090000
1517236309880456472	1400 50 1.200000 0.427000 0.536000 1600 43 1.100000 1.619000 1.834000 600 46 1.000000 0.052000 0.052000 1.200000 0.075000 0.090000
1517236310385774306	1400 50 1.200000 0.429000 0.539000 1600 43 1.100000 1.624000 1.839000 600 47 1.000000 0.052000 0.052000 1.200000 0.073000 0.088000
1517236310891077848	1400 50 1.200000 0.428000 0.537000 1600 43 1.100000 1.599000 1.811000 600 46 1.000000 0.052000 0.052000 1.200000 0.073000 0.088000
1517236311396297764	1400 50 1.200000 0.428000 0.537000 1600 43 1.100000 1.600000 1.812000 600 46 1.000000 0.052000 0.052000 1.200000 0.075000 0.090000
1517236311901639056	1400 50 1.200000 0.427000 0.536000 1600 43 1.100000 1.597000 1.807000 600 46 1.000000 0.052000 0.052000 1.200000 0.073000 0.088000
1517236312406995139	1400 50 1.200000 0.428000 0.537000 1600 43 1.100000 1.619000 1.832000 600 46 1.000000 0.052000 0.052000 1.200000 0.075000 0.090000
1517236312912383556	1400 50 1.200000 0.428000 0.537000 1600 43 1.100000 1.600000 1.811000 600 47 1.000000 0.052000 0.052000 1.200000 0.073000 0.088000
1517236313417765140	1400 50 1.200000 0.428000 0.537000 1600 43 1.100000 1.622000 1.837000 600 47 1.000000 0.052000 0.052000 1.200000 0.072000 0.086000
1517236313923088015	1400 50 1.200000 0.428000 0.537000 1600 43 1.100000 1.605000 1.818000 600 46 1.000000 0.052000 0.052000 1.200000 0.076000 0.091000
1517236314428324556	1400 51 1.200000 0.428000 0.537000 1600 43 1.100000 1.616000 1.830000 600 47 1.000000 0.052000 0.052000 1.200000 0.073000 0.088000
1517236314933636181	1400 50 1.200000 0.428000 0.537000 1600 43 1.100000 1.610000 1.822000 600 47 1.000000 0.052000 0.052000 1.200000 0.074000 0.089000
1517236315438893348	1400 51 1.200000 0.428000 0.537000 1600 43 1.100000 1.600000 1.812000 600 48 1.000000 0.052000 0.052000 1.200000 0.075000 0.090000
1517236315944133515	1400 51 1.200000 0.428000 0.537000 1600 43 1.100000 1.603000 1.816000 600 47 1.000000 0.052000 0.052000 1.200000 0.074000 0.089000
1517236316449412765	1400 51 1.200000 0.428000 0.537000 1600 43 1.100000 1.600000 1.811000 600 47 1.000000 0.052000 0.052000 1.200000 0.073000 0.088000
1517236316954746848	1400 51 1.200000 0.428000 0.537000 1600 43 1.100000 1.598000 1.810000 600 47 1.000000 0.052000 0.052000 1.200000 0.074000 0.089000
1517236317460008973	1400 51 1.200000 0.427000 0.536000 1600 43 1.100000 1.599000 1.811000 600 47 1.000000 0.052000 0.052000 1.200000 0.074000 0.089000
1517236317965255973	1400 51 1.200000 0.428000 0.537000 1600 44 1.100000 1.599000 1.811000 600 47 1.000000 0.052000 0.052000 1.200000 0.072000 0.086000
1517236318471304890	1400 51 1.200000 0.428000 0.537000 1600 44 1.100000 1.618000 1.831000 600 47 1.000000 0.052000 0.052000 1.200000 0.076000 0.091000
1517236318976878390	1400 51 1.200000 0.428000 0.537000 1600 44 1.100000 1.607000 1.820000 600 47 1.000000 0.053000 0.053000 1.200000 0.072000 0.086000
1517236319482258432	1400 51 1.200000 0.429000 0.539000 1600 44 1.100000 1.619000 1.834000 600 48 1.000000 0.052000 0.052000 1.200000 0.074000 0.089000
1517236319987483057	1400 51 1.200000 0.429000 0.539000 1600 44 1.100000 1.602000 1.813000 600 47 1.000000 0.052000 0.052000 1.200000 0.075000 0.090000
1517236320492755515	1400 51 1.200000 0.428000 0.537000 1600 44 1.100000 1.606000 1.819000 600 48 1.000000 0.052000 0.052000 1.200000 0.074000 0.089000
1517236320998109932	1400 51 1.200000 0.443000 0.556000 1600 44 1.100000 1.607000 1.820000 600 47 1.000000 0.052000 0.052000 1.200000 0.077000 0.093000
1517236321503356682	1400 51 1.200000 0.428000 0.537000 1600 44 1.100000 1.602000 1.815000 600 47 1.000000 0.052000 0.052000 1.200000 0.075000 0.090000
1517236322008623516	1400 51 1.200000 0.428000 0.537000 1600 44 1.100000 1.599000 1.811000 600 47 1.000000 0.052000 0.052000 1.200000 0.074000 0.089000
1517236322513997516	1400 51 1.200000 0.429000 0.539000 1600 44 1.100000 1.599000 1.811000 600 48 1.000000 0.052000 0.052000 1.200000 0.073000 0.088000
1517236323019314516	1400 51 1.200000 0.428000 0.537000 1600 44 1.100000 1.603000 1.816000 600 47 1.000000 0.052000 0.052000 1.200000 0.074000 0.089000
1517236323524598099	1400 51 1.200000 0.428000 0.537000 1600 44 1.100000 1.603000 1.814000 600 48 1.000000 0.052000 0.052000 1.200000 0.074000 0.089000
1517236324029872224	1400 51 1.200000 0.428000 0.537000 1600 44 1.100000 1.601000 1.813000 600 48 1.000000 0.052000 0.052000 1.200000 0.073000 0.088000
1517236324535207183	1400 51 1.200000 0.428000 0.537000 1600 44 1.100000 1.603000 1.816000 600 48 1.000000 0.052000 0.052000 1.200000 0.075000 0.090000
1517236325040466558	1400 51 1.200000 0.428000 0.537000 1600 44 1.100000 1.626000 1.840000 600 48 1.000000 0.052000 0.052000 1.200000 0.074000 0.089000
1517236325547299266	1400 51 1.200000 0.428000 0.537000 1600 44 1.100000 1.605000 1.818000 600 48 1.000000 0.052000 0.052000 1.200000 0.073000 0.088000
1517236326052580558	1400 52 1.200000 0.428000 0.537000 1600 44 1.100000 1.610000 1.824000 600 48 1.000000 0.052000 0.052000 1.200000 0.084000 0.101000
1517236326557978183	1400 51 1.200000 0.428000 0.537000 1600 44 1.100000 1.613000 1.827000 600 48 1.000000 0.053000 0.053000 1.200000 0.073000 0.088000
1517236327063268600	1400 52 1.200000 0.428000 0.537000 1600 44 1.100000 1.613000 1.827000 600 48 1.000000 0.053000 0.053000 1.200000 0.074000 0.089000
1517236327568547350	1400 51 1.200000 0.428000 0.537000 1600 44 1.100000 1.613000 1.827000 600 48 1.000000 0.052000 0.052000 1.200000 0.076000 0.091000
1517236328073832475	1400 51 1.200000 0.428000 0.537000 1600 44 1.100000 1.616000 1.830000 600 48 1.000000 0.052000 0.052000 1.200000 0.074000 0.089000
1517236328579046100	1400 52 1.200000 0.428000 0.537000 1600 44 1.100000 1.633000 1.850000 600 48 1.000000 0.052000 0.052000 1.200000 0.073000 0.088000
1517236329084392891	1400 52 1.200000 0.428000 0.537000 1600 44 1.100000 1.613000 1.827000 600 48 1.000000 0.052000 0.052000 1.200000 0.076000 0.091000
1517236329589833058	1400 52 1.200000 0.429000 0.539000 1600 44 1.100000 1.629000 1.845000 600 48 1.000000 0.052000 0.052000 1.200000 0.078000 0.094000
1517236330095149892	1400 52 1.200000 0.428000 0.537000 1600 44 1.100000 1.618000 1.833000 600 48 1.000000 0.052000 0.052000 1.200000 0.073000 0.088000
1517236330602849308	1400 52 1.200000 0.429000 0.539000 1600 44 1.100000 1.610000 1.824000 600 49 1.000000 0.052000 0.052000 1.200000 0.075000 0.090000
1517236331108682142	1400 52 1.200000 0.433000 0.543000 1600 44 1.100000 1.701000 1.927000 600 48 1.000000 0.052000 0.052000 1.200000 0.080000 0.096000
1517236331613929850	1400 52 1.200000 0.429000 0.539000 1600 44 1.100000 1.615000 1.829000 600 48 1.000000 0.052000 0.052000 1.200000 0.074000 0.089000
1517236332119230933	1400 52 1.200000 0.428000 0.537000 1600 44 1.100000 1.623000 1.838000 600 48 1.000000 0.052000 0.052000 1.200000 0.075000 0.090000
1517236332624566517	1400 52 1.200000 0.429000 0.539000 1600 44 1.100000 1.607000 1.820000 600 48 1.000000 0.052000 0.052000 1.200000 0.073000 0.088000
1517236333129861309	1400 52 1.200000 0.429000 0.539000 1600 45 1.100000 1.632000 1.849000 600 48 1.000000 0.052000 0.052000 1.200000 0.073000 0.088000
1517236333635164600	1400 52 1.200000 0.429000 0.539000 1600 45 1.100000 1.605000 1.818000 600 48 1.000000 0.053000 0.053000 1.200000 0.075000 0.090000
1517236334140515142	1400 52 1.200000 0.429000 0.539000 1600 45 1.100000 1.624000 1.839000 600 48 1.000000 0.053000 0.053000 1.200000 0.073000 0.088000
1517236334645865934	1400 52 1.200000 0.429000 0.539000 1600 45 1.100000 1.613000 1.827000 600 48 1.000000 0.053000 0.053000 1.200000 0.076000 0.091000
1517236335151187226	1400 52 1.200000 0.429000 0.539000 1600 44 1.100000 1.618000 1.833000 600 48 1.000000 0.052000 0.052000 1.200000 0.075000 0.090000
1517236335656459934	1400 52 1.200000 0.429000 0.539000 1600 45 1.100000 1.622000 1.837000 600 48 1.000000 0.053000 0.053000 1.200000 0.073000 0.088000
1517236336161856309	1400 52 1.200000 0.429000 0.539000 1600 45 1.100000 1.828000 2.074000 600 48 1.000000 0.052000 0.052000 1.200000 0.073000 0.088000
1517236336667166351	1400 52 1.200000 0.429000 0.539000 1600 44 1.100000 1.626000 1.842000 600 48 1.000000 0.052000 0.052000 1.200000 0.074000 0.089000
1517236337172466767	1400 52 1.200000 0.429000 0.539000 1600 45 1.100000 1.606000 1.819000 600 48 1.000000 0.052000 0.052000 1.200000 0.073000 0.088000
1517236337677820517	1400 52 1.200000 0.429000 0.539000 1600 45 1.100000 1.629000 1.845000 600 48 1.000000 0.053000 0.053000 1.200000 0.075000 0.090000
1517236338183174059	1400 52 1.200000 0.428000 0.537000 1600 45 1.100000 1.613000 1.827000 600 48 1.000000 0.053000 0.053000 1.200000 0.074000 0.089000
1517236338688385934	1400 52 1.200000 0.429000 0.539000 1600 45 1.100000 1.617000 1.832000 600 48 1.000000 0.053000 0.053000 1.200000 0.073000 0.088000
1517236339193731476	1400 52 1.200000 0.428000 0.537000 1600 45 1.100000 1.623000 1.838000 600 48 1.000000 0.052000 0.052000 1.200000 0.073000 0.088000
1517236339699133393	1400 52 1.200000 0.429000 0.539000 1600 45 1.100000 1.612000 1.826000 600 48 1.000000 0.053000 0.053000 1.200000 0.077000 0.093000
1517236340204342351	1400 52 1.200000 0.429000 0.539000 1600 45 1.100000 1.629000 1.845000 600 48 1.000000 0.052000 0.052000 1.200000 0.072000 0.086000
1517236340709690351	1400 52 1.200000 0.428000 0.537000 1600 45 1.100000 1.609000 1.822000 600 48 1.000000 0.052000 0.052000 1.200000 0.073000 0.088000
1517236341215018476	1400 52 1.200000 0.433000 0.544000 1600 45 1.100000 1.832000 2.079000 600 49 1.000000 0.052000 0.052000 1.200000 0.076000 0.091000
1517236341720402518	1400 52 1.200000 0.429000 0.539000 1600 45 1.100000 1.608000 1.821000 600 48 1.000000 0.053000 0.053000 1.200000 0.073000 0.088000
1517236342225774810	1400 52 1.200000 0.429000 0.539000 1600 45 1.100000 1.607000 1.820000 600 48 1.000000 0.052000 0.052000 1.200000 0.072000 0.086000
1517236342731062810	1400 52 1.200000 0.429000 0.539000 1600 45 1.100000 1.622000 1.837000 600 48 1.000000 0.052000 0.052000 1.200000 0.073000 0.088000
1517236343236382768	1400 52 1.200000 0.429000 0.539000 1600 45 1.100000 1.607000 1.820000 600 48 1.000000 0.053000 0.053000 1.200000 0.073000 0.088000
1517236343741712685	1400 52 1.200000 0.428000 0.537000 1600 45 1.100000 1.629000 1.845000 600 48 1.000000 0.053000 0.053000 1.200000 0.074000 0.089000
1517236344246951518	1400 52 1.200000 0.429000 0.539000 1600 45 1.100000 1.607000 1.820000 600 48 1.000000 0.052000 0.052000 1.200000 0.074000 0.089000
1517236344752306352	1400 52 1.200000 0.429000 0.539000 1600 45 1.100000 1.632000 1.849000 600 48 1.000000 0.052000 0.052000 1.200000 0.074000 0.089000
1517236345257598727	1400 52 1.200000 0.429000 0.539000 1600 45 1.100000 1.614000 1.828000 600 49 1.000000 0.052000 0.052000 1.200000 0.075000 0.090000
1517236345763724018	1400 52 1.200000 0.429000 0.539000 1600 45 1.100000 1.616000 1.830000 600 48 1.000000 0.052000 0.052000 1.200000 0.073000 0.088000
1517236346269301102	1400 52 1.200000 0.433000 0.544000 1600 45 1.100000 1.827000 2.073000 600 49 1.000000 0.052000 0.052000 1.200000 0.077000 0.093000
1517236346774641602	1400 52 1.200000 0.429000 0.539000 1600 45 1.100000 1.610000 1.824000 600 49 1.000000 0.053000 0.053000 1.200000 0.076000 0.091000
1517236347279874435	1400 52 1.200000 0.429000 0.539000 1600 45 1.100000 1.606000 1.819000 600 49 1.000000 0.052000 0.052000 1.200000 0.073000 0.088000
1517236347785119769	1400 52 1.200000 0.429000 0.539000 1600 45 1.100000 1.603000 1.816000 600 48 1.000000 0.052000 0.052000 1.200000 0.074000 0.089000
1517236348290519810	1400 52 1.200000 0.429000 0.539000 1600 45 1.100000 1.633000 1.850000 600 48 1.000000 0.052000 0.052000 1.200000 0.073000 0.088000
1517236348795707977	1400 52 1.200000 0.428000 0.537000 1600 45 1.100000 1.608000 1.821000 600 49 1.000000 0.052000 0.052000 1.200000 0.074000 0.089000
1517236349301093019	1400 52 1.200000 0.429000 0.539000 1600 45 1.100000 1.625000 1.841000 600 49 1.000000 0.053000 0.053000 1.200000 0.075000 0.090000
1517236349806504561	1400 52 1.200000 0.429000 0.539000 1600 45 1.100000 1.619000 1.834000 600 49 1.000000 0.052000 0.052000 1.200000 0.074000 0.089000
1517236350311911394	1400 52 1.200000 0.429000 0.539000 1600 45 1.100000 1.614000 1.828000 600 49 1.000000 0.052000 0.052000 1.200000 0.073000 0.088000
1517236350817137186	1400 52 1.200000 0.429000 0.539000 1600 45 1.100000 1.625000 1.841000 600 49 1.000000 0.053000 0.053000 1.200000 0.075000 0.090000
1517236351322442477	1400 52 1.200000 0.440000 0.553000 1600 45 1.100000 1.791000 2.032000 600 49 1.000000 0.053000 0.053000 1.200000 0.074000 0.089000
1517236351827716644	1400 52 1.200000 0.429000 0.539000 1600 45 1.100000 1.616000 1.830000 600 49 1.000000 0.053000 0.053000 1.200000 0.073000 0.088000
1517236352333158894	1400 52 1.200000 0.429000 0.538000 1600 45 1.100000 1.614000 1.828000 600 49 1.000000 0.053000 0.053000 1.200000 0.075000 0.090000
1517236352838570811	1400 52 1.200000 0.429000 0.539000 1600 45 1.100000 1.604000 1.817000 600 49 1.000000 0.052000 0.052000 1.200000 0.075000 0.090000
1517236353343805019	1400 52 1.200000 0.429000 0.539000 1600 45 1.100000 1.606000 1.819000 600 49 1.000000 0.053000 0.053000 1.200000 0.074000 0.089000
1517236353849054394	1400 52 1.200000 0.429000 0.539000 1600 45 1.100000 1.608000 1.821000 600 49 1.000000 0.053000 0.053000 1.200000 0.073000 0.088000
1517236354355433144	1400 52 1.200000 0.429000 0.539000 1600 45 1.100000 1.631000 1.847000 600 48 1.000000 0.053000 0.053000 1.200000 0.073000 0.088000
1517236354862239811	1400 52 1.200000 0.430000 0.540000 1600 45 1.100000 1.608000 1.821000 600 49 1.000000 0.053000 0.053000 1.200000 0.074000 0.089000
1517236355367619520	1400 52 1.200000 0.430000 0.540000 1600 45 1.100000 1.631000 1.847000 600 49 1.000000 0.053000 0.053000 1.200000 0.077000 0.093000
1517236355872914853	1400 52 1.200000 0.428000 0.537000 1600 45 1.100000 1.613000 1.827000 600 49 1.000000 0.053000 0.053000 1.200000 0.073000 0.088000
1517236356378293770	1400 53 1.200000 0.434000 0.545000 1600 45 1.100000 1.716000 1.944000 600 49 1.000000 0.053000 0.053000 1.200000 0.074000 0.089000
1517236356883567395	1400 53 1.200000 0.429000 0.539000 1600 45 1.100000 1.613000 1.827000 600 49 1.000000 0.053000 0.053000 1.200000 0.076000 0.091000
1517236357388810686	1400 52 1.200000 0.428000 0.537000 1600 45 1.100000 1.615000 1.829000 600 49 1.000000 0.052000 0.052000 1.200000 0.074000 0.089000
1517236357894176478	1400 53 1.200000 0.429000 0.539000 1600 45 1.100000 1.615000 1.829000 600 49 1.000000 0.052000 0.052000 1.200000 0.074000 0.089000
1517236358399370937	1400 53 1.200000 0.428000 0.537000 1600 45 1.100000 1.617000 1.832000 600 49 1.000000 0.053000 0.053000 1.200000 0.075000 0.090000
1517236358904490978	1400 53 1.200000 0.429000 0.539000 1600 45 1.100000 1.615000 1.829000 600 49 1.000000 0.053000 0.053000 1.200000 0.074000 0.089000
1517236359409817437	1400 52 1.200000 0.429000 0.539000 1600 45 1.100000 1.616000 1.830000 600 49 1.000000 0.052000 0.052000 1.200000 0.074000 0.089000
1517236359915162478	1400 53 1.200000 0.430000 0.540000 1600 45 1.100000 1.691000 1.915000 600 49 1.000000 0.052000 0.052000 1.200000 0.076000 0.091000
1517236360420509645	1400 53 1.200000 0.430000 0.540000 1600 45 1.100000 1.609000 1.822000 600 49 1.000000 0.053000 0.053000 1.200000 0.073000 0.088000
1517236360925821145	1400 53 1.200000 0.429000 0.539000 1600 45 1.100000 1.627000 1.843000 600 49 1.000000 0.053000 0.053000 1.200000 0.074000 0.089000
1517236361431213229	1400 53 1.200000 0.428000 0.537000 1600 45 1.100000 1.619000 1.834000 600 49 1.000000 0.052000 0.052000 1.200000 0.076000 0.091000
1517236361936567562	1400 53 1.200000 0.430000 0.540000 1600 45 1.100000 1.608000 1.821000 600 49 1.000000 0.052000 0.052000 1.200000 0.073000 0.088000
1517236362441898354	1400 53 1.200000 0.430000 0.540000 1600 45 1.100000 1.607000 1.820000 600 49 1.000000 0.052000 0.052000 1.200000 0.074000 0.089000
1517236362947206895	1400 53 1.200000 0.429000 0.539000 1600 45 1.100000 1.608000 1.821000 600 49 1.000000 0.052000 0.052000 1.200000 0.075000 0.090000
1517236363452448562	1400 53 1.200000 0.429000 0.539000 1600 45 1.100000 1.610000 1.824000 600 49 1.000000 0.053000 0.053000 1.200000 0.074000 0.089000
1517236363957824729	1400 53 1.200000 0.429000 0.538000 1600 45 1.100000 1.607000 1.820000 600 49 1.000000 0.053000 0.053000 1.200000 0.073000 0.088000
1517236364463146312	1400 53 1.200000 0.429000 0.539000 1600 45 1.100000 1.607000 1.820000 600 49 1.000000 0.052000 0.052000 1.200000 0.075000 0.090000
1517236364968392437	1400 53 1.200000 0.437000 0.549000 1600 46 1.100000 1.678000 1.901000 600 49 1.000000 0.053000 0.053000 1.200000 0.077000 0.093000
1517236365473716479	1400 53 1.200000 0.430000 0.540000 1600 45 1.100000 1.608000 1.821000 600 49 1.000000 0.053000 0.053000 1.200000 0.073000 0.088000
1517236365979831688	1400 53 1.200000 0.429000 0.539000 1600 45 1.100000 1.607000 1.820000 600 49 1.000000 0.053000 0.053000 1.200000 0.074000 0.089000
1517236366485518104	1400 53 1.200000 0.431000 0.541000 1600 46 1.100000 1.607000 1.820000 600 49 1.000000 0.053000 0.053000 1.200000 0.073000 0.088000
1517236366990750729	1400 53 1.200000 0.440000 0.553000 1600 46 1.100000 1.816000 2.061000 600 49 1.000000 0.053000 0.053000 1.200000 0.077000 0.093000
1517236367496098604	1400 53 1.200000 0.429000 0.539000 1600 46 1.100000 1.608000 1.821000 600 49 1.000000 0.052000 0.052000 1.200000 0.074000 0.089000
1517236368001403146	1400 53 1.200000 0.430000 0.540000 1600 46 1.100000 1.631000 1.847000 600 49 1.000000 0.053000 0.053000 1.200000 0.074000 0.089000
1517236368506774271	1400 53 1.200000 0.429000 0.539000 1600 46 1.100000 1.616000 1.830000 600 49 1.000000 0.053000 0.053000 1.200000 0.073000 0.088000
1517236369012024480	1400 53 1.200000 0.429000 0.539000 1600 46 1.100000 1.621000 1.836000 600 49 1.000000 0.053000 0.053000 1.200000 0.076000 0.091000
1517236369517333271	1400 53 1.200000 0.430000 0.540000 1600 45 1.100000 1.625000 1.841000 600 49 1.000000 0.053000 0.053000 1.200000 0.072000 0.086000
1517236370022742896	1400 53 1.200000 0.430000 0.540000 1600 46 1.100000 1.613000 1.827000 600 49 1.000000 0.053000 0.053000 1.200000 0.074000 0.089000
1517236370528043021	1400 53 1.200000 0.430000 0.540000 1600 46 1.100000 1.633000 1.850000 600 49 1.000000 0.052000 0.052000 1.200000 0.075000 0.090000
1517236371033369521	1400 53 1.200000 0.430000 0.540000 1600 46 1.100000 1.608000 1.821000 600 49 1.000000 0.053000 0.053000 1.200000 0.073000 0.088000
1517236371538654980	1400 53 1.200000 0.430000 0.540000 1600 46 1.100000 1.628000 1.844000 600 50 1.000000 0.053000 0.053000 1.200000 0.074000 0.089000
1517236372043942313	1400 53 1.200000 0.429000 0.539000 1600 46 1.100000 1.613000 1.827000 600 49 1.000000 0.052000 0.052000 1.200000 0.074000 0.089000
1517236372549508688	1400 53 1.200000 0.430000 0.540000 1600 46 1.100000 1.622000 1.837000 600 49 1.000000 0.052000 0.052000 1.200000 0.074000 0.089000
1517236373054849647	1400 53 1.200000 0.430000 0.540000 1600 46 1.100000 1.627000 1.843000 600 49 1.000000 0.053000 0.053000 1.200000 0.074000 0.089000
1517236373560161980	1400 53 1.200000 0.430000 0.540000 1600 46 1.100000 1.613000 1.827000 600 49 1.000000 0.053000 0.053000 1.200000 0.075000 0.090000
1517236374065537230	1400 53 1.200000 0.430000 0.540000 1600 46 1.100000 1.629000 1.845000 600 49 1.000000 0.053000 0.053000 1.200000 0.073000 0.088000
1517236374570830189	1400 53 1.200000 0.430000 0.540000 1600 46 1.100000 1.610000 1.824000 600 49 1.000000 0.053000 0.053000 1.200000 0.073000 0.088000
1517236375076198355	1400 53 1.200000 0.430000 0.540000 1600 46 1.100000 1.634000 1.851000 600 49 1.000000 0.052000 0.052000 1.200000 0.078000 0.094000
1517236375581566647	1400 53 1.200000 0.430000 0.540000 1600 46 1.100000 1.614000 1.828000 600 49 1.000000 0.053000 0.053000 1.200000 0.072000 0.086000
1517236376086857772	1400 53 1.200000 0.430000 0.540000 1600 46 1.100000 1.622000 1.837000 600 49 1.000000 0.053000 0.053000 1.200000 0.073000 0.088000
1517236376592169189	1400 53 1.200000 0.430000 0.540000 1600 46 1.100000 1.624000 1.839000 600 50 1.000000 0.053000 0.053000 1.200000 0.075000 0.090000
1517236377097504189	1400 53 1.200000 0.445000 0.558000 1600 46 1.100000 1.681000 1.904000 600 49 1.000000 0.052000 0.052000 1.200000 0.072000 0.087000
1517236377602786147	1400 53 1.200000 0.430000 0.540000 1600 46 1.100000 1.610000 1.824000 600 49 1.000000 0.053000 0.053000 1.200000 0.073000 0.088000
1517236378107982689	1400 53 1.200000 0.430000 0.540000 1600 46 1.100000 1.607000 1.820000 600 49 1.000000 0.053000 0.053000 1.200000 0.075000 0.090000
1517236378613263772	1400 53 1.200000 0.430000 0.540000 1600 46 1.100000 1.630000 1.846000 600 49 1.000000 0.052000 0.052000 1.200000 0.073000 0.088000
1517236379118610481	1400 53 1.200000 0.429000 0.539000 1600 46 1.100000 1.618000 1.833000 600 49 1.000000 0.052000 0.052000 1.200000 0.075000 0.090000
1517236379623785064	1400 53 1.200000 0.430000 0.540000 1600 46 1.100000 1.624000 1.839000 600 49 1.000000 0.053000 0.053000 1.200000 0.074000 0.089000
1517236380129469564	1400 52 1.200000 0.410000 0.515000 1600 45 1.100000 1.625000 1.841000 600 48 1.000000 0.053000 0.053000 1.200000 0.062000 0.074000
1517236380634871606	1400 51 1.200000 0.083000 0.105000 1600 44 1.100000 1.096000 1.239000 600 47 1.000000 0.053000 0.053000 1.200000 0.026000 0.031000
1517236381140269814	1400 50 1.200000 0.083000 0.105000 1600 43 1.100000 1.105000 1.249000 600 47 1.000000 0.052000 0.052000 1.200000 0.026000 0.031000
1517236381646824314	1400 49 1.200000 0.082000 0.104000 1600 43 1.100000 1.084000 1.226000 600 47 1.000000 0.053000 0.053000 1.200000 0.027000 0.032000
1517236382155859064	1400 49 1.200000 0.083000 0.105000 1600 43 1.100000 1.282000 1.451000 600 46 1.000000 0.052000 0.052000 1.200000 0.026000 0.031000
1517236382661519065	1400 49 1.200000 0.084000 0.106000 1600 42 1.100000 1.113000 1.258000 600 46 1.000000 0.052000 0.052000 1.200000 0.035000 0.042000
1517236383166815398	1400 49 1.200000 0.083000 0.105000 1600 42 1.100000 1.072000 1.212000 600 46 1.000000 0.052000 0.052000 1.200000 0.026000 0.031000
1517236383672184398	1400 49 1.200000 0.082000 0.104000 1600 42 1.100000 1.074000 1.214000 600 45 1.000000 0.052000 0.052000 1.200000 0.026000 0.031000
1517236384177628356	1400 48 1.200000 0.082000 0.104000 1600 42 1.100000 1.082000 1.223000 600 45 1.000000 0.052000 0.052000 1.200000 0.027000 0.032000
1517236384682961481	1400 48 1.200000 0.081000 0.103000 1600 41 1.100000 1.080000 1.221000 600 45 1.000000 0.052000 0.052000 1.200000 0.027000 0.032000
1517236385188474398	1400 48 1.200000 0.082000 0.104000 1600 41 1.100000 1.092000 1.235000 600 45 1.000000 0.052000 0.052000 1.200000 0.027000 0.032000
1517236385693834857	1400 48 1.200000 0.081000 0.103000 1600 41 1.100000 1.086000 1.228000 600 45 1.000000 0.052000 0.052000 1.200000 0.028000 0.033000
1517236386199261690	1400 48 1.200000 0.081000 0.103000 1600 41 1.100000 1.083000 1.224000 600 45 1.000000 0.052000 0.052000 1.200000 0.027000 0.032000
1517236386704668440	1400 48 1.200000 0.081000 0.103000 1600 41 1.100000 1.096000 1.239000 600 45 1.000000 0.052000 0.052000 1.200000 0.026000 0.031000
1517236387210123523	1400 48 1.200000 0.099000 0.125000 1600 41 1.100000 1.278000 1.446000 600 45 1.000000 0.052000 0.052000 1.200000 0.040000 0.048000
1517236387715631607	1400 48 1.200000 0.081000 0.103000 1600 41 1.100000 1.192000 1.349000 600 45 1.000000 0.052000 0.052000 1.200000 0.026000 0.031000
1517236388221030774	1400 48 1.200000 0.083000 0.105000 1600 41 1.100000 1.090000 1.232000 600 45 1.000000 0.052000 0.052000 1.200000 0.031000 0.037000
1517236388726460107	1400 48 1.200000 0.083000 0.105000 1600 41 1.100000 1.121000 1.267000 600 45 1.000000 0.052000 0.052000 1.200000 0.034000 0.041000
1517236389231820149	1400 47 1.200000 0.083000 0.105000 1600 41 1.100000 1.081000 1.222000 600 44 1.000000 0.052000 0.052000 1.200000 0.032000 0.038000
1517236389738078107	1400 47 1.200000 0.081000 0.103000 1600 41 1.100000 1.075000 1.215000 600 44 1.000000 0.052000 0.052000 1.200000 0.027000 0.032000
1517236390243549899	1400 47 1.200000 0.082000 0.104000 1600 41 1.100000 1.166000 1.318000 600 44 1.000000 0.052000 0.052000 1.200000 0.030000 0.036000
1517236390748936982	1400 47 1.200000 0.082000 0.104000 1600 41 1.100000 1.084000 1.226000 600 44 1.000000 0.052000 0.052000 1.200000 0.027000 0.032000
1517236391254381982	1400 47 1.200000 0.081000 0.103000 1600 41 1.100000 1.108000 1.253000 600 44 1.000000 0.052000 0.052000 1.200000 0.026000 0.031000
1517236391759752149	1400 47 1.200000 0.081000 0.103000 1600 41 1.100000 1.076000 1.216000 600 44 1.000000 0.052000 0.052000 1.200000 0.028000 0.033000
1517236392265193732	1400 48 1.200000 0.096000 0.122000 1600 41 1.100000 1.333000 1.508000 600 45 1.000000 0.052000 0.052000 1.200000 0.029000 0.035000
1517236392771064816	1400 47 1.200000 0.091000 0.115000 1600 41 1.100000 1.126000 1.273000 600 45 1.000000 0.052000 0.052000 1.200000 0.034000 0.041000
1517236393276569066	1400 47 1.200000 0.089000 0.113000 1600 41 1.100000 1.127000 1.274000 600 45 1.000000 0.052000 0.052000 1.200000 0.035000 0.042000
1517236393782136982	1400 47 1.200000 0.083000 0.105000 1600 41 1.100000 1.116000 1.262000 600 45 1.000000 0.052000 0.052000 1.200000 0.035000 0.042000
1517236394287727274	1400 47 1.200000 0.081000 0.103000 1600 40 1.100000 1.076000 1.216000 600 44 1.000000 0.052000 0.052000 1.200000 0.031000 0.037000
1517236394793057441	1400 47 1.200000 0.081000 0.103000 1600 41 1.100000 1.074000 1.214000 600 44 1.000000 0.052000 0.052000 1.200000 0.027000 0.032000
1517236395298572108	1400 47 1.200000 0.080000 0.101000 1600 41 1.100000 1.163000 1.315000 600 44 1.000000 0.052000 0.052000 1.200000 0.032000 0.038000
1517236395804049858	1400 47 1.200000 0.081000 0.103000 1600 40 1.100000 1.074000 1.214000 600 44 1.000000 0.052000 0.052000 1.200000 0.027000 0.032000
1517236396309630649	1400 47 1.200000 0.081000 0.103000 1600 40 1.100000 1.090000 1.232000 600 44 1.000000 0.052000 0.052000 1.200000 0.027000 0.032000
1517236396815023816	1400 47 1.200000 0.081000 0.103000 1600 40 1.100000 1.101000 1.245000 600 44 1.000000 0.052000 0.052000 1.200000 0.027000 0.032000
1517236397320375233	1400 47 1.200000 0.082000 0.104000 1600 40 1.100000 1.272000 1.439000 600 44 1.000000 0.052000 0.052000 1.200000 0.026000 0.031000
1517236397825861108	1400 47 1.200000 0.083000 0.105000 1600 40 1.100000 1.107000 1.252000 600 44 1.000000 0.052000 0.052000 1.200000 0.034000 0.041000
1517236398331259525	1400 47 1.200000 0.081000 0.103000 1600 40 1.100000 1.195000 1.352000 600 44 1.000000 0.052000 0.052000 1.200000 0.028000 0.033000
1517236398836664483	1400 47 1.200000 0.083000 0.105000 1600 40 1.100000 1.113000 1.258000 600 44 1.000000 0.052000 0.052000 1.200000 0.033000 0.039000
1517236399342234566	1400 47 1.200000 0.083000 0.105000 1600 40 1.100000 1.101000 1.245000 600 44 1.000000 0.052000 0.052000 1.200000 0.034000 0.041000
1517236399847654233	1400 47 1.200000 0.081000 0.103000 1600 40 1.100000 1.084000 1.226000 600 44 1.000000 0.052000 0.052000 1.200000 0.026000 0.031000
1517236400353100317	1400 47 1.200000 0.081000 0.103000 1600 40 1.100000 1.128000 1.275000 600 44 1.000000 0.052000 0.052000 1.200000 0.030000 0.036000
1517236400858646358	1400 42 1.200000 0.082000 0.104000 1600 40 1.100000 1.033000 1.168000 600 45 1.000000 0.051000 0.051000 1.200000 0.027000 0.032000
1517236401365020942	1400 40 1.200000 0.084000 0.106000 1600 39 1.100000 0.269000 0.305000 600 43 1.000000 0.052000 0.052000 1.200000 0.035000 0.042000
1517236401870193733	1400 39 1.200000 0.092000 0.117000 1600 38 1.100000 0.204000 0.232000 600 42 1.000000 0.052000 0.052000 1.200000 0.027000 0.032000
