#Timestamp	CPU(0) Frequency(MHz)	CPU(0) Temperature(C)	A7 Voltage(V)	A7 Current(A)	A7 Power(W)	CPU(4) Frequency(MHz)	CPU(4) Temperature(C)	A15 Voltage(V)	A15 Current(A)	A15 Power(W)	GPU Frequency(MHz)	GPU Temperature(C)	GPU Voltage(V)	GPU Current(A)	GPU Power(W)	RAM Voltage(V)	RAM Current(A)	RAM Power(W)
1517795157265425217	400 33 0.900000 0.019000 0.017000 500 31 0.900000 0.487000 0.443000 600 36 1.000000 0.051000 0.051000 1.200000 0.040000 0.048000
1517795157784319509	400 33 0.900000 0.095000 0.086000 500 31 0.900000 0.798000 0.722000 600 37 1.000000 0.052000 0.052000 1.200000 0.038000 0.045000
1517795158349435551	400 34 0.900000 0.068000 0.062000 500 31 0.900000 0.717000 0.648000 600 37 1.000000 0.051000 0.051000 1.200000 0.034000 0.041000
1517795158876380259	400 33 0.900000 0.106000 0.096000 500 31 0.900000 0.542000 0.491000 600 37 1.000000 0.052000 0.052000 1.200000 0.034000 0.041000
1517795159441490884	400 34 0.900000 0.108000 0.098000 500 31 0.900000 0.771000 0.699000 600 37 1.000000 0.051000 0.051000 1.200000 0.042000 0.050000
1517795159977508634	400 34 0.900000 0.104000 0.094000 500 32 0.900000 0.768000 0.695000 600 38 1.000000 0.051000 0.051000 1.200000 0.035000 0.042000
1517795160491002343	400 34 0.900000 0.045000 0.041000 500 32 0.900000 0.659000 0.597000 600 37 1.000000 0.051000 0.051000 1.200000 0.034000 0.041000
1517795161009314009	400 34 0.900000 0.098000 0.089000 500 32 0.900000 0.781000 0.706000 600 37 1.000000 0.051000 0.051000 1.200000 0.035000 0.042000
1517795161524849468	400 34 0.900000 0.068000 0.062000 500 32 0.900000 0.755000 0.683000 600 36 1.000000 0.052000 0.052000 1.200000 0.030000 0.036000
1517795162077469760	400 34 0.900000 0.099000 0.090000 500 32 0.900000 0.380000 0.345000 600 38 1.000000 0.051000 0.051000 1.200000 0.044000 0.053000
1517795162641426718	400 34 0.900000 0.102000 0.093000 500 32 0.900000 0.716000 0.647000 600 37 1.000000 0.052000 0.052000 1.200000 0.036000 0.043000
1517795163201512885	400 34 0.900000 0.104000 0.094000 500 32 0.900000 0.749000 0.677000 600 38 1.000000 0.051000 0.051000 1.200000 0.035000 0.042000
1517795163714696301	400 34 0.900000 0.103000 0.093000 500 32 0.900000 0.721000 0.653000 600 37 1.000000 0.052000 0.052000 1.200000 0.037000 0.044000
1517795164228834301	400 33 0.900000 0.101000 0.092000 500 32 0.900000 0.729000 0.659000 600 37 1.000000 0.051000 0.051000 1.200000 0.034000 0.041000
1517795164797348135	400 34 0.900000 0.044000 0.040000 500 32 0.900000 0.479000 0.434000 600 38 1.000000 0.051000 0.051000 1.200000 0.041000 0.049000
1517795165345395677	400 34 0.900000 0.099000 0.090000 500 32 0.900000 0.754000 0.682000 600 37 1.000000 0.052000 0.052000 1.200000 0.035000 0.042000
1517795165913517718	400 34 0.900000 0.046000 0.041000 500 32 0.900000 0.538000 0.487000 600 38 1.000000 0.052000 0.052000 1.200000 0.037000 0.044000
1517795166426722302	400 34 0.900000 0.100000 0.091000 500 32 0.900000 0.754000 0.682000 600 38 1.000000 0.052000 0.052000 1.200000 0.033000 0.039000
1517795166940920802	400 34 0.900000 0.104000 0.094000 500 32 0.900000 0.732000 0.662000 600 37 1.000000 0.051000 0.051000 1.200000 0.032000 0.038000
1517795167509468094	400 34 0.900000 0.100000 0.091000 500 32 0.900000 0.605000 0.548000 600 38 1.000000 0.052000 0.052000 1.200000 0.041000 0.049000
1517795168073422510	400 34 0.900000 0.105000 0.095000 500 32 0.900000 0.756000 0.682000 600 38 1.000000 0.051000 0.051000 1.200000 0.033000 0.039000
1517795168625526969	400 34 0.900000 0.046000 0.041000 500 32 0.900000 0.608000 0.550000 600 38 1.000000 0.052000 0.052000 1.200000 0.035000 0.042000
1517795169189459052	400 34 0.900000 0.103000 0.093000 500 32 0.900000 0.754000 0.680000 600 37 1.000000 0.052000 0.052000 1.200000 0.034000 0.041000
1517795169708789760	400 33 0.900000 0.104000 0.094000 500 32 0.900000 0.693000 0.627000 600 36 1.000000 0.052000 0.052000 1.200000 0.033000 0.039000
1517795170223037552	400 34 0.900000 0.059000 0.053000 500 32 0.900000 0.572000 0.518000 600 37 1.000000 0.051000 0.051000 1.200000 0.043000 0.051000
1517795170801495969	400 34 0.900000 0.081000 0.073000 500 32 0.900000 0.742000 0.670000 600 38 1.000000 0.052000 0.052000 1.200000 0.032000 0.038000
1517795171354298636	400 34 0.900000 0.081000 0.073000 500 32 0.900000 0.632000 0.572000 600 38 1.000000 0.052000 0.052000 1.200000 0.037000 0.044000
1517795171929471261	400 34 0.900000 0.105000 0.095000 500 32 0.900000 0.767000 0.694000 600 38 1.000000 0.051000 0.051000 1.200000 0.035000 0.042000
1517795172457563302	400 33 0.900000 0.091000 0.082000 500 32 0.900000 0.774000 0.700000 600 37 1.000000 0.052000 0.052000 1.200000 0.033000 0.039000
1517795172971208844	400 34 0.900000 0.065000 0.059000 500 32 0.900000 0.447000 0.406000 600 37 1.000000 0.052000 0.052000 1.200000 0.044000 0.053000
1517795173537422511	400 34 0.900000 0.105000 0.095000 500 32 0.900000 0.744000 0.673000 600 38 1.000000 0.051000 0.051000 1.200000 0.035000 0.042000
1517795174101460928	400 34 0.900000 0.067000 0.061000 500 32 0.900000 0.379000 0.344000 600 38 1.000000 0.052000 0.052000 1.200000 0.043000 0.051000
1517795174669437344	400 34 0.900000 0.104000 0.094000 500 32 0.900000 0.724000 0.655000 600 38 1.000000 0.051000 0.051000 1.200000 0.032000 0.038000
1517795175187870803	400 34 0.900000 0.076000 0.069000 500 32 0.900000 0.758000 0.685000 600 37 1.000000 0.052000 0.052000 1.200000 0.032000 0.038000
1517795175704644678	400 34 0.900000 0.073000 0.066000 500 32 0.900000 0.820000 0.742000 600 38 1.000000 0.051000 0.051000 1.200000 0.037000 0.044000
1517795176273375636	400 34 0.900000 0.106000 0.096000 500 32 0.900000 0.731000 0.661000 600 38 1.000000 0.052000 0.052000 1.200000 0.032000 0.038000
1517795176837344720	400 34 0.900000 0.076000 0.069000 500 32 0.900000 0.444000 0.403000 600 38 1.000000 0.052000 0.052000 1.200000 0.038000 0.045000
1517795177393452761	400 34 0.900000 0.106000 0.096000 500 32 0.900000 0.764000 0.689000 600 38 1.000000 0.052000 0.052000 1.200000 0.035000 0.042000
1517795177918711386	400 33 0.900000 0.098000 0.089000 500 32 0.900000 0.761000 0.687000 600 37 1.000000 0.051000 0.051000 1.200000 0.034000 0.041000
1517795178438421178	400 34 0.900000 0.083000 0.075000 500 32 0.900000 0.666000 0.603000 600 37 1.000000 0.052000 0.052000 1.200000 0.040000 0.048000
1517795179001481803	400 34 0.900000 0.055000 0.050000 500 32 0.900000 0.742000 0.671000 600 38 1.000000 0.052000 0.052000 1.200000 0.030000 0.036000
1517795179557476303	400 34 0.900000 0.082000 0.074000 500 32 0.900000 0.655000 0.592000 600 38 1.000000 0.052000 0.052000 1.200000 0.034000 0.041000
1517795180072093637	400 34 0.900000 0.106000 0.096000 500 32 0.900000 0.776000 0.700000 600 38 1.000000 0.052000 0.052000 1.200000 0.034000 0.041000
1517795180586211095	400 33 0.900000 0.093000 0.084000 500 32 0.900000 0.764000 0.689000 600 37 1.000000 0.051000 0.051000 1.200000 0.033000 0.039000
1517795181161485512	400 34 0.900000 0.073000 0.066000 500 32 0.900000 0.411000 0.374000 600 38 1.000000 0.052000 0.052000 1.200000 0.043000 0.052000
1517795181733469179	400 34 0.900000 0.104000 0.094000 500 32 0.900000 0.769000 0.695000 600 38 1.000000 0.052000 0.052000 1.200000 0.033000 0.039000
1517795182289571304	400 34 0.900000 0.070000 0.063000 500 32 0.900000 0.414000 0.376000 600 38 1.000000 0.052000 0.052000 1.200000 0.045000 0.054000
1517795182857424512	400 34 0.900000 0.106000 0.096000 500 32 0.900000 0.768000 0.693000 600 38 1.000000 0.052000 0.052000 1.200000 0.034000 0.041000
1517795183382443720	400 34 0.900000 0.103000 0.093000 500 32 0.900000 0.732000 0.662000 600 38 1.000000 0.052000 0.052000 1.200000 0.035000 0.042000
1517795183933356804	400 34 0.900000 0.108000 0.098000 500 32 0.900000 0.732000 0.660000 600 37 1.000000 0.052000 0.052000 1.200000 0.032000 0.038000
1517795184479191096	400 34 0.900000 0.101000 0.092000 500 32 0.900000 0.761000 0.687000 600 38 1.000000 0.052000 0.052000 1.200000 0.032000 0.038000
1517795184992432471	400 34 0.900000 0.046000 0.041000 500 32 0.900000 0.382000 0.347000 600 38 1.000000 0.051000 0.051000 1.200000 0.042000 0.050000
1517795185510991054	400 34 0.900000 0.089000 0.081000 500 32 0.900000 0.733000 0.663000 600 38 1.000000 0.051000 0.051000 1.200000 0.030000 0.036000
1517795186026076804	400 33 0.900000 0.043000 0.039000 500 32 0.900000 0.731000 0.661000 600 37 1.000000 0.051000 0.051000 1.200000 0.028000 0.033000
1517795186601457387	400 34 0.900000 0.079000 0.072000 500 32 0.900000 0.656000 0.594000 600 38 1.000000 0.052000 0.052000 1.200000 0.041000 0.049000
1517795187161364638	400 34 0.900000 0.098000 0.089000 500 32 0.900000 0.748000 0.676000 600 38 1.000000 0.051000 0.051000 1.200000 0.033000 0.039000
1517795187721380346	400 34 0.900000 0.048000 0.043000 500 32 0.900000 0.522000 0.473000 600 38 1.000000 0.052000 0.052000 1.200000 0.038000 0.045000
1517795188289382179	400 34 0.900000 0.104000 0.094000 500 32 0.900000 0.753000 0.679000 600 38 1.000000 0.052000 0.052000 1.200000 0.034000 0.041000
1517795188808636429	400 34 0.900000 0.106000 0.096000 500 32 0.900000 0.748000 0.676000 600 37 1.000000 0.052000 0.052000 1.200000 0.034000 0.041000
1517795189381382179	400 34 0.900000 0.045000 0.041000 500 32 0.900000 0.717000 0.649000 600 38 1.000000 0.051000 0.051000 1.200000 0.039000 0.047000
1517795189895274763	400 34 0.900000 0.106000 0.096000 500 32 0.900000 0.773000 0.698000 600 38 1.000000 0.051000 0.051000 1.200000 0.034000 0.041000
1517795190409203971	400 34 0.900000 0.054000 0.049000 500 32 0.900000 0.703000 0.636000 600 38 1.000000 0.052000 0.052000 1.200000 0.042000 0.050000
1517795190927904763	400 34 0.900000 0.081000 0.073000 500 32 0.900000 0.713000 0.645000 600 38 1.000000 0.051000 0.051000 1.200000 0.033000 0.039000
1517795191443680680	400 33 0.900000 0.076000 0.069000 500 32 0.900000 0.765000 0.690000 600 37 1.000000 0.051000 0.051000 1.200000 0.033000 0.039000
1517795191999978971	400 34 0.900000 0.048000 0.043000 500 32 0.900000 0.588000 0.533000 600 38 1.000000 0.052000 0.052000 1.200000 0.035000 0.042000
1517795192565489597	400 34 0.900000 0.105000 0.095000 500 32 0.900000 0.711000 0.643000 600 38 1.000000 0.052000 0.052000 1.200000 0.035000 0.042000
1517795193119709930	400 34 0.900000 0.058000 0.052000 500 32 0.900000 0.568000 0.515000 600 38 1.000000 0.052000 0.052000 1.200000 0.038000 0.045000
1517795193685347763	400 34 0.900000 0.079000 0.072000 500 32 0.900000 0.780000 0.705000 600 38 1.000000 0.051000 0.051000 1.200000 0.035000 0.042000
1517795194204986972	400 33 0.900000 0.081000 0.073000 500 32 0.900000 0.633000 0.573000 600 38 1.000000 0.052000 0.052000 1.200000 0.034000 0.041000
1517795194725330930	400 34 0.900000 0.068000 0.062000 500 32 0.900000 0.770000 0.695000 600 38 1.000000 0.052000 0.052000 1.200000 0.045000 0.054000
1517795195289497722	400 34 0.900000 0.068000 0.062000 500 32 0.900000 0.777000 0.701000 600 38 1.000000 0.051000 0.051000 1.200000 0.032000 0.038000
1517795195861470639	400 34 0.900000 0.087000 0.079000 500 32 0.900000 0.360000 0.327000 600 38 1.000000 0.052000 0.052000 1.200000 0.035000 0.042000
1517795196429441889	400 34 0.900000 0.105000 0.095000 500 32 0.900000 0.749000 0.677000 600 38 1.000000 0.052000 0.052000 1.200000 0.037000 0.044000
1517795196944376597	400 34 0.900000 0.097000 0.088000 500 32 0.900000 0.780000 0.704000 600 37 1.000000 0.052000 0.052000 1.200000 0.034000 0.041000
1517795197521505764	400 34 0.900000 0.083000 0.075000 500 32 0.900000 0.753000 0.681000 600 37 1.000000 0.051000 0.051000 1.200000 0.044000 0.053000
1517795198051984597	400 35 0.900000 0.103000 0.093000 500 32 0.900000 0.752000 0.679000 600 38 1.000000 0.052000 0.052000 1.200000 0.035000 0.042000
1517795198565635056	400 34 0.900000 0.065000 0.059000 500 32 0.900000 0.374000 0.337000 600 38 1.000000 0.052000 0.052000 1.200000 0.035000 0.042000
1517795199125456556	400 34 0.900000 0.106000 0.096000 500 32 0.900000 0.770000 0.696000 600 38 1.000000 0.051000 0.051000 1.200000 0.037000 0.044000
1517795199646682014	400 34 0.900000 0.053000 0.048000 500 32 0.900000 0.764000 0.689000 600 37 1.000000 0.051000 0.051000 1.200000 0.034000 0.041000
1517795200209378722	400 34 0.900000 0.102000 0.093000 500 32 0.900000 0.747000 0.674000 600 37 1.000000 0.052000 0.052000 1.200000 0.037000 0.044000
1517795200754104347	400 34 0.900000 0.098000 0.089000 500 32 0.900000 0.772000 0.697000 600 38 1.000000 0.052000 0.052000 1.200000 0.033000 0.039000
1517795201268667806	400 34 0.900000 0.048000 0.043000 500 32 0.900000 0.414000 0.375000 600 38 1.000000 0.052000 0.052000 1.200000 0.043000 0.051000
1517795201841511014	400 34 0.900000 0.100000 0.091000 500 32 0.900000 0.760000 0.687000 600 38 1.000000 0.052000 0.052000 1.200000 0.033000 0.039000
1517795202361399848	400 33 0.900000 0.106000 0.096000 500 32 0.900000 0.760000 0.686000 600 38 1.000000 0.052000 0.052000 1.200000 0.035000 0.042000
1517795202876591473	400 34 0.900000 0.102000 0.093000 500 32 0.900000 0.700000 0.634000 600 38 1.000000 0.052000 0.052000 1.200000 0.040000 0.048000
1517795203441486181	400 34 0.900000 0.047000 0.042000 500 32 0.900000 0.746000 0.673000 600 38 1.000000 0.052000 0.052000 1.200000 0.031000 0.037000
1517795204013346473	400 34 0.900000 0.058000 0.052000 500 32 0.900000 0.644000 0.582000 600 38 1.000000 0.052000 0.052000 1.200000 0.034000 0.041000
1517795204577406140	400 34 0.900000 0.106000 0.096000 500 32 0.900000 0.783000 0.707000 600 38 1.000000 0.052000 0.052000 1.200000 0.035000 0.042000
1517795205103725515	400 33 0.900000 0.106000 0.096000 500 32 0.900000 0.752000 0.679000 600 38 1.000000 0.052000 0.052000 1.200000 0.035000 0.042000
1517795205624156015	400 34 0.900000 0.103000 0.093000 500 32 0.900000 0.450000 0.408000 600 38 1.000000 0.052000 0.052000 1.200000 0.044000 0.053000
1517795206189381140	400 34 0.900000 0.048000 0.043000 500 32 0.900000 0.749000 0.677000 600 38 1.000000 0.052000 0.052000 1.200000 0.032000 0.038000
1517795206761392765	400 34 0.900000 0.056000 0.051000 500 32 0.900000 0.785000 0.708000 600 38 1.000000 0.052000 0.052000 1.200000 0.037000 0.044000
1517795207280728932	400 34 0.900000 0.106000 0.096000 500 32 0.900000 0.796000 0.720000 600 38 1.000000 0.052000 0.052000 1.200000 0.037000 0.044000
1517795207796950848	400 34 0.900000 0.093000 0.084000 500 32 0.900000 0.735000 0.665000 600 37 1.000000 0.052000 0.052000 1.200000 0.034000 0.041000
1517795208365504723	400 34 0.900000 0.065000 0.059000 500 32 0.900000 0.476000 0.432000 600 38 1.000000 0.052000 0.052000 1.200000 0.040000 0.048000
1517795208909430140	400 34 0.900000 0.098000 0.089000 500 32 0.900000 0.711000 0.643000 600 38 1.000000 0.051000 0.051000 1.200000 0.034000 0.041000
1517795209469437807	400 34 0.900000 0.056000 0.051000 500 32 0.900000 0.512000 0.464000 600 38 1.000000 0.051000 0.051000 1.200000 0.041000 0.049000
1517795209984899682	400 34 0.900000 0.106000 0.096000 500 32 0.900000 0.780000 0.704000 600 38 1.000000 0.052000 0.052000 1.200000 0.033000 0.039000
1517795210503531307	400 33 0.900000 0.056000 0.051000 500 32 0.900000 0.762000 0.689000 600 37 1.000000 0.052000 0.052000 1.200000 0.030000 0.036000
1517795211069461807	400 34 0.900000 0.088000 0.080000 500 32 0.900000 0.525000 0.476000 600 38 1.000000 0.051000 0.051000 1.200000 0.043000 0.051000
1517795211589796265	400 34 0.900000 0.097000 0.088000 500 32 0.900000 0.763000 0.690000 600 38 1.000000 0.051000 0.051000 1.200000 0.033000 0.039000
1517795212133545599	400 34 0.900000 0.058000 0.052000 500 32 0.900000 0.669000 0.606000 600 37 1.000000 0.052000 0.052000 1.200000 0.037000 0.044000
1517795212697484141	400 34 0.900000 0.071000 0.064000 500 32 0.900000 0.733000 0.663000 600 38 1.000000 0.052000 0.052000 1.200000 0.032000 0.038000
1517795213211874932	400 34 0.900000 0.102000 0.093000 500 32 0.900000 0.772000 0.698000 600 38 1.000000 0.052000 0.052000 1.200000 0.034000 0.041000
1517795213777440641	400 34 0.900000 0.053000 0.048000 500 32 0.900000 0.411000 0.374000 600 38 1.000000 0.051000 0.051000 1.200000 0.042000 0.050000
1517795214290844391	400 34 0.900000 0.102000 0.093000 500 32 0.900000 0.763000 0.688000 600 38 1.000000 0.052000 0.052000 1.200000 0.033000 0.039000
1517795214841599932	400 34 0.900000 0.104000 0.094000 500 32 0.900000 0.745000 0.672000 600 38 1.000000 0.052000 0.052000 1.200000 0.035000 0.042000
1517795215397476224	400 34 0.900000 0.109000 0.099000 500 32 0.900000 0.774000 0.700000 600 38 1.000000 0.051000 0.051000 1.200000 0.034000 0.041000
1517795215911956141	400 34 0.900000 0.106000 0.096000 500 32 0.900000 0.771000 0.697000 600 37 1.000000 0.052000 0.052000 1.200000 0.034000 0.041000
1517795216485525933	400 34 0.900000 0.044000 0.040000 500 32 0.900000 0.359000 0.326000 600 38 1.000000 0.052000 0.052000 1.200000 0.045000 0.054000
1517795217004060558	400 34 0.900000 0.104000 0.094000 500 32 0.900000 0.756000 0.682000 600 38 1.000000 0.052000 0.052000 1.200000 0.035000 0.042000
1517795217527983641	400 34 0.900000 0.079000 0.072000 500 32 0.900000 0.772000 0.697000 600 37 1.000000 0.052000 0.052000 1.200000 0.034000 0.041000
1517795218105503225	400 34 0.900000 0.108000 0.098000 500 32 0.900000 0.669000 0.605000 600 38 1.000000 0.052000 0.052000 1.200000 0.039000 0.047000
1517795218619924308	400 34 0.900000 0.106000 0.096000 500 32 0.900000 0.724000 0.655000 600 38 1.000000 0.052000 0.052000 1.200000 0.035000 0.042000
1517795219181354350	400 34 0.900000 0.041000 0.037000 500 32 0.900000 0.480000 0.435000 600 38 1.000000 0.052000 0.052000 1.200000 0.040000 0.048000
1517795219727914266	400 35 0.900000 0.104000 0.094000 500 32 0.900000 0.704000 0.637000 600 38 1.000000 0.052000 0.052000 1.200000 0.034000 0.041000
1517795220250854350	400 34 0.900000 0.105000 0.095000 500 32 0.900000 0.521000 0.472000 600 37 1.000000 0.052000 0.052000 1.200000 0.036000 0.043000
1517795220821411558	400 34 0.900000 0.105000 0.095000 500 32 0.900000 0.754000 0.682000 600 38 1.000000 0.051000 0.051000 1.200000 0.033000 0.039000
1517795221337559433	400 34 0.900000 0.104000 0.094000 500 32 0.900000 0.740000 0.669000 600 38 1.000000 0.052000 0.052000 1.200000 0.032000 0.038000
1517795221853437017	400 34 0.900000 0.038000 0.034000 500 32 0.900000 0.541000 0.491000 600 38 1.000000 0.052000 0.052000 1.200000 0.045000 0.054000
1517795222421453475	400 34 0.900000 0.049000 0.044000 500 32 0.900000 0.763000 0.690000 600 38 1.000000 0.051000 0.051000 1.200000 0.031000 0.037000
1517795222949121183	400 34 0.900000 0.105000 0.095000 500 32 0.900000 0.755000 0.683000 600 37 1.000000 0.052000 0.052000 1.200000 0.034000 0.041000
1517795223470539267	400 34 0.900000 0.106000 0.096000 500 32 0.900000 0.775000 0.701000 600 37 1.000000 0.052000 0.052000 1.200000 0.035000 0.042000
1517795224033519809	400 34 0.900000 0.051000 0.046000 500 32 0.900000 0.754000 0.682000 600 38 1.000000 0.052000 0.052000 1.200000 0.030000 0.036000
1517795224593447684	400 34 0.900000 0.046000 0.041000 500 32 0.900000 0.441000 0.400000 600 38 1.000000 0.052000 0.052000 1.200000 0.038000 0.045000
1517795225157465434	400 34 0.900000 0.101000 0.092000 500 32 0.900000 0.772000 0.697000 600 38 1.000000 0.051000 0.051000 1.200000 0.034000 0.041000
1517795225673532392	400 34 0.900000 0.104000 0.094000 500 32 0.900000 0.764000 0.689000 600 37 1.000000 0.052000 0.052000 1.200000 0.033000 0.039000
1517795226187563351	400 34 0.900000 0.106000 0.096000 500 32 0.900000 0.760000 0.688000 600 38 1.000000 0.052000 0.052000 1.200000 0.040000 0.048000
1517795226765458434	400 35 0.900000 0.106000 0.096000 500 32 0.900000 0.720000 0.651000 600 38 1.000000 0.051000 0.051000 1.200000 0.032000 0.038000
1517795227308089601	400 34 0.900000 0.101000 0.092000 500 32 0.900000 0.464000 0.421000 600 38 1.000000 0.052000 0.052000 1.200000 0.042000 0.050000
1517795227881442309	400 34 0.900000 0.104000 0.094000 500 32 0.900000 0.767000 0.694000 600 38 1.000000 0.052000 0.052000 1.200000 0.034000 0.041000
1517795228400296267	400 34 0.900000 0.088000 0.080000 500 32 0.900000 0.474000 0.430000 600 37 1.000000 0.051000 0.051000 1.200000 0.041000 0.049000
1517795228977382559	400 34 0.900000 0.056000 0.051000 500 32 0.900000 0.716000 0.648000 600 38 1.000000 0.051000 0.051000 1.200000 0.039000 0.047000
1517795229490826684	400 35 0.900000 0.098000 0.089000 500 32 0.900000 0.755000 0.681000 600 38 1.000000 0.052000 0.052000 1.200000 0.032000 0.038000
1517795230005372434	400 34 0.900000 0.070000 0.063000 500 32 0.900000 0.738000 0.668000 600 38 1.000000 0.052000 0.052000 1.200000 0.041000 0.049000
1517795230573499268	400 34 0.900000 0.076000 0.069000 500 32 0.900000 0.774000 0.698000 600 38 1.000000 0.051000 0.051000 1.200000 0.033000 0.039000
1517795231096720143	400 34 0.900000 0.076000 0.069000 500 32 0.900000 0.579000 0.524000 600 37 1.000000 0.052000 0.052000 1.200000 0.038000 0.045000
1517795231673490351	400 34 0.900000 0.106000 0.096000 500 32 0.900000 0.761000 0.687000 600 38 1.000000 0.052000 0.052000 1.200000 0.043000 0.051000
1517795232188010768	400 34 0.900000 0.106000 0.096000 500 32 0.900000 0.756000 0.684000 600 37 1.000000 0.052000 0.052000 1.200000 0.034000 0.041000
1517795232753460143	400 34 0.900000 0.048000 0.043000 500 32 0.900000 0.695000 0.629000 600 38 1.000000 0.052000 0.052000 1.200000 0.039000 0.047000
1517795233272404143	400 34 0.900000 0.097000 0.088000 500 32 0.900000 0.705000 0.638000 600 38 1.000000 0.052000 0.052000 1.200000 0.033000 0.039000
1517795233787869101	400 34 0.900000 0.085000 0.077000 500 32 0.900000 0.540000 0.489000 600 37 1.000000 0.052000 0.052000 1.200000 0.033000 0.039000
1517795234361487060	400 34 0.900000 0.101000 0.092000 500 32 0.900000 0.760000 0.686000 600 38 1.000000 0.052000 0.052000 1.200000 0.042000 0.050000
1517795234875813060	400 34 0.900000 0.106000 0.096000 500 32 0.900000 0.746000 0.675000 600 37 1.000000 0.052000 0.052000 1.200000 0.033000 0.039000
1517795235441430935	400 34 0.900000 0.042000 0.038000 500 32 0.900000 0.622000 0.563000 600 38 1.000000 0.052000 0.052000 1.200000 0.039000 0.047000
1517795236009412602	400 34 0.900000 0.106000 0.096000 500 32 0.900000 0.725000 0.656000 600 37 1.000000 0.052000 0.052000 1.200000 0.034000 0.041000
1517795236577537727	400 34 0.900000 0.083000 0.075000 500 32 0.900000 0.470000 0.426000 600 38 1.000000 0.052000 0.052000 1.200000 0.033000 0.039000
1517795237096607602	400 34 0.900000 0.106000 0.096000 500 32 0.900000 0.737000 0.666000 600 38 1.000000 0.052000 0.052000 1.200000 0.040000 0.048000
1517795237611762727	400 33 0.900000 0.063000 0.057000 500 32 0.900000 0.765000 0.690000 600 37 1.000000 0.051000 0.051000 1.200000 0.033000 0.039000
1517795238130643810	400 34 0.900000 0.082000 0.074000 500 32 0.900000 0.695000 0.631000 600 38 1.000000 0.052000 0.052000 1.200000 0.037000 0.044000
1517795238697445727	400 34 0.900000 0.096000 0.087000 500 32 0.900000 0.754000 0.682000 600 38 1.000000 0.052000 0.052000 1.200000 0.032000 0.038000
1517795239261576227	400 34 0.900000 0.059000 0.053000 500 32 0.900000 0.508000 0.461000 600 38 1.000000 0.052000 0.052000 1.200000 0.036000 0.043000
1517795239821554185	400 34 0.900000 0.106000 0.096000 500 32 0.900000 0.751000 0.679000 600 38 1.000000 0.052000 0.052000 1.200000 0.032000 0.038000
1517795240336111394	400 34 0.900000 0.106000 0.096000 500 32 0.900000 0.769000 0.694000 600 37 1.000000 0.051000 0.051000 1.200000 0.033000 0.039000
1517795240897468436	400 34 0.900000 0.102000 0.093000 500 32 0.900000 0.758000 0.685000 600 38 1.000000 0.051000 0.051000 1.200000 0.039000 0.047000
1517795241411779186	400 34 0.900000 0.106000 0.096000 500 32 0.900000 0.761000 0.688000 600 37 1.000000 0.052000 0.052000 1.200000 0.032000 0.038000
1517795241985468561	400 34 0.900000 0.070000 0.063000 500 32 0.900000 0.366000 0.333000 600 38 1.000000 0.052000 0.052000 1.200000 0.045000 0.054000
1517795242537466936	400 34 0.900000 0.099000 0.090000 500 32 0.900000 0.774000 0.698000 600 38 1.000000 0.052000 0.052000 1.200000 0.035000 0.042000
1517795243063519811	400 34 0.900000 0.052000 0.047000 500 32 0.900000 0.602000 0.545000 600 38 1.000000 0.052000 0.052000 1.200000 0.037000 0.044000
1517795243629497936	400 34 0.900000 0.101000 0.092000 500 32 0.900000 0.774000 0.700000 600 38 1.000000 0.052000 0.052000 1.200000 0.034000 0.041000
1517795244145421061	400 34 0.900000 0.086000 0.078000 500 32 0.900000 0.715000 0.647000 600 38 1.000000 0.052000 0.052000 1.200000 0.033000 0.039000
1517795244697531269	400 34 0.900000 0.105000 0.095000 500 32 0.900000 0.685000 0.620000 600 38 1.000000 0.052000 0.052000 1.200000 0.041000 0.049000
1517795245211801644	400 33 0.900000 0.096000 0.087000 500 32 0.900000 0.743000 0.672000 600 38 1.000000 0.052000 0.052000 1.200000 0.032000 0.038000
1517795245769530478	400 34 0.900000 0.040000 0.036000 500 32 0.900000 0.440000 0.399000 600 38 1.000000 0.052000 0.052000 1.200000 0.038000 0.045000
1517795246288416561	400 34 0.900000 0.101000 0.092000 500 32 0.900000 0.724000 0.655000 600 38 1.000000 0.052000 0.052000 1.200000 0.034000 0.041000
1517795246857407978	400 34 0.900000 0.081000 0.073000 500 32 0.900000 0.732000 0.662000 600 38 1.000000 0.052000 0.052000 1.200000 0.033000 0.039000
1517795247417538145	400 34 0.900000 0.104000 0.094000 500 32 0.900000 0.748000 0.676000 600 38 1.000000 0.052000 0.052000 1.200000 0.037000 0.044000
1517795247931587895	400 34 0.900000 0.094000 0.085000 500 32 0.900000 0.760000 0.686000 600 38 1.000000 0.052000 0.052000 1.200000 0.032000 0.038000
1517795248449236436	400 34 0.900000 0.106000 0.096000 500 32 0.900000 0.782000 0.708000 600 37 1.000000 0.052000 0.052000 1.200000 0.036000 0.043000
1517795249017476978	400 34 0.900000 0.078000 0.071000 500 32 0.900000 0.737000 0.666000 600 38 1.000000 0.052000 0.052000 1.200000 0.031000 0.037000
1517795249585451645	400 34 0.900000 0.049000 0.044000 500 32 0.900000 0.419000 0.380000 600 38 1.000000 0.052000 0.052000 1.200000 0.041000 0.049000
1517795250153460937	400 34 0.900000 0.106000 0.096000 500 32 0.900000 0.759000 0.686000 600 38 1.000000 0.052000 0.052000 1.200000 0.033000 0.039000
1517795250669425187	400 34 0.900000 0.088000 0.080000 500 32 0.900000 0.757000 0.683000 600 37 1.000000 0.052000 0.052000 1.200000 0.032000 0.038000
1517795251188012228	400 34 0.900000 0.096000 0.087000 500 32 0.900000 0.663000 0.601000 600 38 1.000000 0.052000 0.052000 1.200000 0.041000 0.049000
1517795251703041854	400 34 0.900000 0.055000 0.050000 500 32 0.900000 0.756000 0.682000 600 37 1.000000 0.051000 0.051000 1.200000 0.032000 0.038000
1517795252219923020	400 34 0.900000 0.067000 0.061000 500 32 0.900000 0.748000 0.675000 600 37 1.000000 0.051000 0.051000 1.200000 0.030000 0.036000
1517795252789425687	400 34 0.900000 0.106000 0.096000 500 32 0.900000 0.777000 0.703000 600 37 1.000000 0.052000 0.052000 1.200000 0.035000 0.042000
1517795253320907979	400 34 0.900000 0.105000 0.095000 500 32 0.900000 0.772000 0.697000 600 38 1.000000 0.052000 0.052000 1.200000 0.033000 0.039000
1517795253847881187	400 34 0.900000 0.045000 0.041000 500 32 0.900000 0.423000 0.384000 600 38 1.000000 0.052000 0.052000 1.200000 0.041000 0.049000
1517795254413507021	400 34 0.900000 0.099000 0.090000 500 32 0.900000 0.733000 0.663000 600 38 1.000000 0.052000 0.052000 1.200000 0.034000 0.041000
1517795254928044896	400 34 0.900000 0.106000 0.096000 500 32 0.900000 0.782000 0.706000 600 37 1.000000 0.052000 0.052000 1.200000 0.034000 0.041000
1517795255446659271	400 34 0.900000 0.105000 0.095000 500 32 0.900000 0.727000 0.658000 600 38 1.000000 0.052000 0.052000 1.200000 0.041000 0.049000
1517795256021454104	400 34 0.900000 0.051000 0.046000 500 32 0.900000 0.751000 0.679000 600 38 1.000000 0.052000 0.052000 1.200000 0.031000 0.037000
1517795256581469771	400 34 0.900000 0.059000 0.053000 500 32 0.900000 0.652000 0.590000 600 38 1.000000 0.052000 0.052000 1.200000 0.038000 0.045000
1517795257129497646	400 34 0.900000 0.104000 0.094000 500 32 0.900000 0.769000 0.694000 600 37 1.000000 0.052000 0.052000 1.200000 0.033000 0.039000
1517795257644346438	400 34 0.900000 0.105000 0.095000 500 32 0.900000 0.753000 0.681000 600 37 1.000000 0.052000 0.052000 1.200000 0.033000 0.039000
1517795258205546604	400 34 0.900000 0.053000 0.048000 500 32 0.900000 0.471000 0.428000 600 38 1.000000 0.052000 0.052000 1.200000 0.045000 0.054000
1517795258773333563	400 34 0.900000 0.106000 0.096000 500 32 0.900000 0.760000 0.687000 600 38 1.000000 0.051000 0.051000 1.200000 0.032000 0.038000
1517795259349423688	400 34 0.900000 0.053000 0.048000 500 32 0.900000 0.361000 0.328000 600 37 1.000000 0.051000 0.051000 1.200000 0.044000 0.053000
1517795259862907230	400 34 0.900000 0.063000 0.057000 500 32 0.900000 0.751000 0.679000 600 38 1.000000 0.052000 0.052000 1.200000 0.029000 0.035000
1517795260377305980	400 33 0.900000 0.097000 0.088000 500 32 0.900000 0.757000 0.685000 600 37 1.000000 0.051000 0.051000 1.200000 0.031000 0.037000
1517795260929573730	400 34 0.900000 0.084000 0.076000 500 32 0.900000 0.690000 0.625000 600 38 1.000000 0.052000 0.052000 1.200000 0.038000 0.045000
1517795261443118646	400 34 0.900000 0.102000 0.093000 500 32 0.900000 0.719000 0.650000 600 38 1.000000 0.051000 0.051000 1.200000 0.033000 0.039000
1517795261958343688	400 34 0.900000 0.065000 0.059000 500 32 0.900000 0.543000 0.492000 600 37 1.000000 0.051000 0.051000 1.200000 0.036000 0.043000
1517795262472692313	400 34 0.900000 0.073000 0.066000 500 32 0.900000 0.765000 0.692000 600 37 1.000000 0.052000 0.052000 1.200000 0.031000 0.037000
1517795263041466063	400 34 0.900000 0.091000 0.082000 500 32 0.900000 0.759000 0.686000 600 38 1.000000 0.051000 0.051000 1.200000 0.031000 0.037000
1517795263597510313	400 34 0.900000 0.054000 0.049000 500 32 0.900000 0.349000 0.317000 600 38 1.000000 0.051000 0.051000 1.200000 0.042000 0.050000
1517795264165507980	400 34 0.900000 0.106000 0.096000 500 32 0.900000 0.722000 0.653000 600 38 1.000000 0.052000 0.052000 1.200000 0.032000 0.038000
1517795264698516438	400 33 0.900000 0.105000 0.095000 500 32 0.900000 0.784000 0.707000 600 37 1.000000 0.052000 0.052000 1.200000 0.032000 0.038000
1517795265218869772	400 34 0.900000 0.065000 0.059000 500 32 0.900000 0.794000 0.718000 600 37 1.000000 0.052000 0.052000 1.200000 0.036000 0.043000
1517795265785474772	400 34 0.900000 0.071000 0.064000 500 32 0.900000 0.780000 0.704000 600 38 1.000000 0.052000 0.052000 1.200000 0.030000 0.036000
1517795266353416730	400 34 0.900000 0.095000 0.086000 500 32 0.900000 0.514000 0.466000 600 38 1.000000 0.052000 0.052000 1.200000 0.036000 0.043000
1517795266867071189	400 34 0.900000 0.107000 0.097000 500 32 0.900000 0.760000 0.686000 600 38 1.000000 0.052000 0.052000 1.200000 0.033000 0.039000
1517795267381599689	400 34 0.900000 0.102000 0.093000 500 32 0.900000 0.723000 0.654000 600 37 1.000000 0.052000 0.052000 1.200000 0.033000 0.039000
1517795267901414689	400 34 0.900000 0.051000 0.046000 500 32 0.900000 0.615000 0.557000 600 38 1.000000 0.052000 0.052000 1.200000 0.043000 0.051000
1517795268425258481	400 34 0.900000 0.091000 0.082000 500 32 0.900000 0.775000 0.701000 600 38 1.000000 0.052000 0.052000 1.200000 0.032000 0.038000
1517795268940531647	400 34 0.900000 0.095000 0.086000 500 32 0.900000 0.668000 0.605000 600 37 1.000000 0.051000 0.051000 1.200000 0.033000 0.039000
1517795269517494981	400 34 0.900000 0.106000 0.096000 500 32 0.900000 0.773000 0.699000 600 38 1.000000 0.052000 0.052000 1.200000 0.032000 0.038000
1517795270031895772	400 34 0.900000 0.106000 0.096000 500 32 0.900000 0.777000 0.703000 600 37 1.000000 0.052000 0.052000 1.200000 0.033000 0.039000
1517795270601482189	400 34 0.900000 0.052000 0.047000 500 32 0.900000 0.421000 0.383000 600 37 1.000000 0.052000 0.052000 1.200000 0.043000 0.051000
1517795271143773106	400 34 0.900000 0.106000 0.096000 500 32 0.900000 0.774000 0.698000 600 38 1.000000 0.052000 0.052000 1.200000 0.032000 0.038000
1517795271670911148	400 34 0.900000 0.106000 0.096000 500 32 0.900000 0.761000 0.687000 600 37 1.000000 0.051000 0.051000 1.200000 0.033000 0.039000
1517795272241470564	400 34 0.900000 0.066000 0.060000 500 32 0.900000 0.775000 0.701000 600 38 1.000000 0.052000 0.052000 1.200000 0.037000 0.044000
1517795272755747398	400 34 0.900000 0.102000 0.093000 500 32 0.900000 0.783000 0.707000 600 37 1.000000 0.052000 0.052000 1.200000 0.032000 0.038000
1517795273313495314	400 34 0.900000 0.075000 0.068000 500 32 0.900000 0.820000 0.742000 600 38 1.000000 0.051000 0.051000 1.200000 0.036000 0.043000
1517795273838026356	400 34 0.900000 0.106000 0.096000 500 32 0.900000 0.757000 0.685000 600 38 1.000000 0.052000 0.052000 1.200000 0.035000 0.042000
1517795274385609398	400 34 0.900000 0.071000 0.064000 500 32 0.900000 0.430000 0.391000 600 37 1.000000 0.051000 0.051000 1.200000 0.033000 0.039000
1517795274941480940	400 34 0.900000 0.104000 0.094000 500 32 0.900000 0.710000 0.642000 600 38 1.000000 0.052000 0.052000 1.200000 0.036000 0.043000
1517795275455864440	400 34 0.900000 0.092000 0.083000 500 32 0.900000 0.740000 0.668000 600 37 1.000000 0.052000 0.052000 1.200000 0.033000 0.039000
1517795275969794106	400 34 0.900000 0.083000 0.075000 500 32 0.900000 0.696000 0.630000 600 38 1.000000 0.052000 0.052000 1.200000 0.036000 0.043000
1517795276529506898	400 34 0.900000 0.089000 0.081000 500 32 0.900000 0.769000 0.694000 600 38 1.000000 0.052000 0.052000 1.200000 0.032000 0.038000
1517795277051655398	400 33 0.900000 0.098000 0.089000 500 32 0.900000 0.649000 0.587000 600 37 1.000000 0.052000 0.052000 1.200000 0.034000 0.041000
1517795277565978898	400 34 0.900000 0.071000 0.064000 500 32 0.900000 0.766000 0.694000 600 38 1.000000 0.052000 0.052000 1.200000 0.043000 0.051000
1517795278137463648	400 34 0.900000 0.106000 0.096000 500 32 0.900000 0.766000 0.691000 600 38 1.000000 0.051000 0.051000 1.200000 0.033000 0.039000
1517795278693499898	400 34 0.900000 0.076000 0.069000 500 32 0.900000 0.659000 0.596000 600 38 1.000000 0.052000 0.052000 1.200000 0.034000 0.041000
1517795279212212149	400 34 0.900000 0.106000 0.096000 500 32 0.900000 0.769000 0.694000 600 38 1.000000 0.052000 0.052000 1.200000 0.035000 0.042000
1517795279727887899	400 34 0.900000 0.046000 0.041000 500 32 0.900000 0.743000 0.672000 600 37 1.000000 0.052000 0.052000 1.200000 0.032000 0.038000
1517795280297558482	400 34 0.900000 0.060000 0.054000 500 32 0.900000 0.415000 0.376000 600 38 1.000000 0.052000 0.052000 1.200000 0.043000 0.051000
1517795280815027940	400 34 0.900000 0.106000 0.096000 500 32 0.900000 0.729000 0.659000 600 38 1.000000 0.052000 0.052000 1.200000 0.034000 0.041000
1517795281333452607	400 34 0.900000 0.087000 0.079000 500 32 0.900000 0.781000 0.705000 600 38 1.000000 0.052000 0.052000 1.200000 0.032000 0.038000
1517795281889408690	400 34 0.900000 0.106000 0.096000 500 32 0.900000 0.684000 0.619000 600 38 1.000000 0.052000 0.052000 1.200000 0.042000 0.050000
1517795282403653899	400 34 0.900000 0.098000 0.089000 500 32 0.900000 0.722000 0.653000 600 38 1.000000 0.052000 0.052000 1.200000 0.034000 0.041000
1517795282977470899	400 34 0.900000 0.063000 0.057000 500 32 0.900000 0.548000 0.497000 600 37 1.000000 0.052000 0.052000 1.200000 0.036000 0.043000
1517795283491310232	400 34 0.900000 0.106000 0.096000 500 32 0.900000 0.775000 0.699000 600 37 1.000000 0.052000 0.052000 1.200000 0.035000 0.042000
1517795284030554482	400 34 0.900000 0.091000 0.083000 500 32 0.900000 0.746000 0.675000 600 37 1.000000 0.051000 0.051000 1.200000 0.032000 0.038000
1517795284597018857	400 34 0.900000 0.077000 0.070000 500 32 0.900000 0.608000 0.551000 600 38 1.000000 0.052000 0.052000 1.200000 0.043000 0.051000
1517795285111478983	400 33 0.900000 0.097000 0.088000 500 32 0.900000 0.726000 0.657000 600 37 1.000000 0.052000 0.052000 1.200000 0.035000 0.042000
1517795285639158441	400 34 0.900000 0.051000 0.046000 500 32 0.900000 0.458000 0.415000 600 38 1.000000 0.052000 0.052000 1.200000 0.035000 0.042000
1517795286184872941	400 34 0.900000 0.107000 0.097000 500 32 0.900000 0.757000 0.685000 600 38 1.000000 0.052000 0.052000 1.200000 0.036000 0.043000
1517795286753466399	400 34 0.900000 0.071000 0.064000 500 32 0.900000 0.496000 0.451000 600 37 1.000000 0.052000 0.052000 1.200000 0.041000 0.049000
1517795287267311066	400 34 0.900000 0.095000 0.086000 500 32 0.900000 0.766000 0.693000 600 37 1.000000 0.052000 0.052000 1.200000 0.033000 0.039000
1517795287782942108	400 34 0.900000 0.031000 0.028000 500 32 0.900000 0.610000 0.552000 600 37 1.000000 0.051000 0.051000 1.200000 0.035000 0.042000
1517795288318916066	400 34 0.900000 0.100000 0.091000 500 32 0.900000 0.772000 0.697000 600 38 1.000000 0.052000 0.052000 1.200000 0.033000 0.039000
1517795288833234233	400 33 0.900000 0.078000 0.071000 500 32 0.900000 0.766000 0.693000 600 37 1.000000 0.052000 0.052000 1.200000 0.032000 0.038000
1517795289372505733	400 34 0.900000 0.105000 0.095000 500 32 0.900000 0.807000 0.731000 600 38 1.000000 0.051000 0.051000 1.200000 0.039000 0.047000
1517795289933459983	400 34 0.900000 0.099000 0.090000 500 32 0.900000 0.763000 0.690000 600 38 1.000000 0.051000 0.051000 1.200000 0.031000 0.037000
1517795290450235775	400 34 0.900000 0.053000 0.048000 500 32 0.900000 0.383000 0.348000 600 38 1.000000 0.051000 0.051000 1.200000 0.042000 0.050000
1517795291025512442	400 34 0.900000 0.101000 0.092000 500 32 0.900000 0.772000 0.697000 600 38 1.000000 0.052000 0.052000 1.200000 0.032000 0.038000
1517795291552788983	400 34 0.900000 0.103000 0.093000 500 32 0.900000 0.720000 0.651000 600 37 1.000000 0.051000 0.051000 1.200000 0.034000 0.041000
1517795292117374858	400 34 0.900000 0.106000 0.096000 500 32 0.900000 0.756000 0.684000 600 38 1.000000 0.052000 0.052000 1.200000 0.035000 0.042000
1517795292631600775	400 33 0.900000 0.099000 0.090000 500 32 0.900000 0.771000 0.696000 600 37 1.000000 0.052000 0.052000 1.200000 0.033000 0.039000
1517795293201491900	400 34 0.900000 0.056000 0.051000 500 32 0.900000 0.427000 0.388000 600 38 1.000000 0.052000 0.052000 1.200000 0.044000 0.053000
1517795293714938359	400 34 0.900000 0.102000 0.093000 500 32 0.900000 0.755000 0.683000 600 38 1.000000 0.052000 0.052000 1.200000 0.033000 0.039000
1517795294244305692	400 34 0.900000 0.081000 0.073000 500 32 0.900000 0.752000 0.680000 600 37 1.000000 0.051000 0.051000 1.200000 0.032000 0.038000
1517795294763567984	400 34 0.900000 0.104000 0.094000 500 32 0.900000 0.731000 0.661000 600 38 1.000000 0.052000 0.052000 1.200000 0.037000 0.044000
1517795295311804817	400 34 0.900000 0.094000 0.085000 500 32 0.900000 0.776000 0.700000 600 38 1.000000 0.052000 0.052000 1.200000 0.032000 0.038000
1517795295825158609	400 34 0.900000 0.060000 0.054000 500 32 0.900000 0.410000 0.372000 600 38 1.000000 0.052000 0.052000 1.200000 0.043000 0.051000
1517795296393501526	400 34 0.900000 0.104000 0.094000 500 32 0.900000 0.735000 0.665000 600 38 1.000000 0.052000 0.052000 1.200000 0.034000 0.041000
1517795296916972984	400 33 0.900000 0.100000 0.091000 500 32 0.900000 0.780000 0.704000 600 37 1.000000 0.052000 0.052000 1.200000 0.033000 0.039000
1517795297485391859	400 34 0.900000 0.071000 0.064000 500 32 0.900000 0.689000 0.623000 600 37 1.000000 0.052000 0.052000 1.200000 0.040000 0.048000
1517795298019790109	400 34 0.900000 0.104000 0.094000 500 32 0.900000 0.718000 0.649000 600 38 1.000000 0.051000 0.051000 1.200000 0.034000 0.041000
1517795298533529526	400 34 0.900000 0.077000 0.070000 500 32 0.900000 0.513000 0.465000 600 37 1.000000 0.052000 0.052000 1.200000 0.039000 0.047000
1517795299121365943	400 34 0.900000 0.076000 0.069000 500 32 0.900000 0.752000 0.680000 600 38 1.000000 0.052000 0.052000 1.200000 0.032000 0.038000
1517795299642259359	400 34 0.900000 0.083000 0.075000 500 32 0.900000 0.650000 0.588000 600 37 1.000000 0.052000 0.052000 1.200000 0.033000 0.039000
1517795300161973609	400 34 0.900000 0.103000 0.093000 500 32 0.900000 0.752000 0.680000 600 37 1.000000 0.052000 0.052000 1.200000 0.032000 0.038000
1517795300737423359	400 34 0.900000 0.065000 0.059000 500 32 0.900000 0.743000 0.672000 600 38 1.000000 0.052000 0.052000 1.200000 0.031000 0.037000
1517795301305478693	400 34 0.900000 0.059000 0.053000 500 32 0.900000 0.380000 0.345000 600 37 1.000000 0.052000 0.052000 1.200000 0.044000 0.053000
1517795301873492193	400 34 0.900000 0.106000 0.096000 500 32 0.900000 0.754000 0.680000 600 38 1.000000 0.052000 0.052000 1.200000 0.033000 0.039000
1517795302389788735	400 34 0.900000 0.100000 0.091000 500 32 0.900000 0.779000 0.704000 600 37 1.000000 0.052000 0.052000 1.200000 0.033000 0.039000
1517795302953483651	400 34 0.900000 0.072000 0.065000 500 32 0.900000 0.752000 0.680000 600 37 1.000000 0.052000 0.052000 1.200000 0.037000 0.044000
1517795303496147568	400 34 0.900000 0.106000 0.096000 500 32 0.900000 0.764000 0.689000 600 38 1.000000 0.052000 0.052000 1.200000 0.033000 0.039000
1517795304009855485	400 34 0.900000 0.068000 0.062000 500 32 0.900000 0.383000 0.348000 600 37 1.000000 0.052000 0.052000 1.200000 0.042000 0.050000
1517795304569439402	400 34 0.900000 0.106000 0.096000 500 32 0.900000 0.720000 0.651000 600 38 1.000000 0.052000 0.052000 1.200000 0.034000 0.041000
1517795305097273443	400 33 0.900000 0.106000 0.096000 500 31 0.900000 0.757000 0.683000 600 37 1.000000 0.052000 0.052000 1.200000 0.033000 0.039000
1517795305665480735	400 34 0.900000 0.098000 0.089000 500 32 0.900000 0.803000 0.726000 600 37 1.000000 0.051000 0.051000 1.200000 0.038000 0.045000
1517795306185255110	400 34 0.900000 0.100000 0.091000 500 32 0.900000 0.768000 0.693000 600 38 1.000000 0.051000 0.051000 1.200000 0.032000 0.038000
1517795306698898318	400 34 0.900000 0.047000 0.042000 500 32 0.900000 0.414000 0.376000 600 37 1.000000 0.052000 0.052000 1.200000 0.041000 0.049000
1517795307261452944	400 34 0.900000 0.051000 0.046000 500 32 0.900000 0.743000 0.672000 600 37 1.000000 0.052000 0.052000 1.200000 0.031000 0.037000
1517795307775966777	400 33 0.900000 0.106000 0.096000 500 32 0.900000 0.764000 0.689000 600 36 1.000000 0.052000 0.052000 1.200000 0.032000 0.038000
1517795308320574402	400 34 0.900000 0.104000 0.094000 500 32 0.900000 0.702000 0.636000 600 38 1.000000 0.051000 0.051000 1.200000 0.043000 0.051000
1517795308885577944	400 34 0.900000 0.104000 0.094000 500 32 0.900000 0.766000 0.693000 600 38 1.000000 0.052000 0.052000 1.200000 0.033000 0.039000
1517795309450449069	400 34 0.900000 0.053000 0.048000 500 32 0.900000 0.617000 0.559000 600 37 1.000000 0.052000 0.052000 1.200000 0.042000 0.050000
1517795310025475361	400 34 0.900000 0.099000 0.090000 500 32 0.900000 0.768000 0.693000 600 38 1.000000 0.052000 0.052000 1.200000 0.032000 0.038000
1517795310545593319	400 33 0.900000 0.106000 0.096000 500 32 0.900000 0.648000 0.587000 600 37 1.000000 0.052000 0.052000 1.200000 0.033000 0.039000
1517795311117404402	400 34 0.900000 0.107000 0.097000 500 32 0.900000 0.764000 0.689000 600 37 1.000000 0.051000 0.051000 1.200000 0.032000 0.038000
1517795311661854777	400 34 0.900000 0.106000 0.096000 500 32 0.900000 0.760000 0.687000 600 38 1.000000 0.051000 0.051000 1.200000 0.032000 0.038000
1517795312175317777	400 34 0.900000 0.045000 0.041000 500 32 0.900000 0.502000 0.456000 600 38 1.000000 0.051000 0.051000 1.200000 0.044000 0.053000
1517795312749355069	400 34 0.900000 0.091000 0.082000 500 32 0.900000 0.759000 0.686000 600 38 1.000000 0.051000 0.051000 1.200000 0.031000 0.037000
1517795313279266361	400 33 0.900000 0.105000 0.095000 500 31 0.900000 0.780000 0.705000 600 37 1.000000 0.051000 0.051000 1.200000 0.032000 0.038000
1517795313800189819	400 34 0.900000 0.104000 0.094000 500 32 0.900000 0.767000 0.694000 600 37 1.000000 0.051000 0.051000 1.200000 0.037000 0.044000
1517795314369498444	400 34 0.900000 0.048000 0.043000 500 32 0.900000 0.756000 0.682000 600 38 1.000000 0.052000 0.052000 1.200000 0.029000 0.035000
1517795314937504569	400 34 0.900000 0.053000 0.048000 500 32 0.900000 0.474000 0.430000 600 37 1.000000 0.051000 0.051000 1.200000 0.035000 0.042000
1517795315454340694	400 33 0.900000 0.101000 0.092000 500 32 0.900000 0.753000 0.681000 600 38 1.000000 0.052000 0.052000 1.200000 0.032000 0.038000
1517795315968673320	400 34 0.900000 0.097000 0.088000 500 32 0.900000 0.776000 0.702000 600 37 1.000000 0.052000 0.052000 1.200000 0.030000 0.036000
1517795316537512861	400 34 0.900000 0.075000 0.068000 500 32 0.900000 0.498000 0.453000 600 37 1.000000 0.052000 0.052000 1.200000 0.036000 0.043000
1517795317069614403	400 34 0.900000 0.105000 0.095000 500 32 0.900000 0.768000 0.695000 600 38 1.000000 0.052000 0.052000 1.200000 0.032000 0.038000
1517795317598225736	400 34 0.900000 0.075000 0.068000 500 32 0.900000 0.735000 0.665000 600 37 1.000000 0.052000 0.052000 1.200000 0.032000 0.038000
1517795318173479570	400 34 0.900000 0.106000 0.096000 500 32 0.900000 0.757000 0.685000 600 38 1.000000 0.051000 0.051000 1.200000 0.037000 0.044000
1517795318687680612	400 34 0.900000 0.100000 0.091000 500 32 0.900000 0.770000 0.696000 600 37 1.000000 0.051000 0.051000 1.200000 0.033000 0.039000
1517795319249562153	400 34 0.900000 0.082000 0.074000 500 32 0.900000 0.403000 0.366000 600 37 1.000000 0.052000 0.052000 1.200000 0.044000 0.053000
1517795319793775570	400 34 0.900000 0.100000 0.091000 500 32 0.900000 0.724000 0.655000 600 38 1.000000 0.052000 0.052000 1.200000 0.035000 0.042000
1517795320310009153	400 34 0.900000 0.065000 0.059000 500 32 0.900000 0.766000 0.693000 600 37 1.000000 0.052000 0.052000 1.200000 0.032000 0.038000
1517795320873503570	400 34 0.900000 0.080000 0.072000 500 32 0.900000 0.769000 0.695000 600 37 1.000000 0.052000 0.052000 1.200000 0.040000 0.048000
1517795321421812862	400 34 0.900000 0.091000 0.082000 500 32 0.900000 0.721000 0.652000 600 38 1.000000 0.052000 0.052000 1.200000 0.032000 0.038000
1517795321935455320	400 34 0.900000 0.078000 0.071000 500 32 0.900000 0.575000 0.521000 600 37 1.000000 0.052000 0.052000 1.200000 0.035000 0.042000
1517795322517494612	400 34 0.900000 0.106000 0.096000 500 32 0.900000 0.771000 0.697000 600 38 1.000000 0.051000 0.051000 1.200000 0.033000 0.039000
1517795323034440487	400 33 0.900000 0.096000 0.087000 500 31 0.900000 0.693000 0.627000 600 37 1.000000 0.051000 0.051000 1.200000 0.033000 0.039000
1517795323555432320	400 33 0.900000 0.075000 0.068000 500 32 0.900000 0.528000 0.478000 600 37 1.000000 0.051000 0.051000 1.200000 0.047000 0.056000
1517795324074301987	400 34 0.900000 0.063000 0.057000 500 32 0.900000 0.731000 0.661000 600 37 1.000000 0.052000 0.052000 1.200000 0.032000 0.038000
1517795324641556946	400 34 0.900000 0.061000 0.055000 500 32 0.900000 0.745000 0.672000 600 37 1.000000 0.051000 0.051000 1.200000 0.033000 0.039000
1517795325196844821	400 34 0.900000 0.106000 0.096000 500 32 0.900000 0.826000 0.747000 600 38 1.000000 0.052000 0.052000 1.200000 0.040000 0.048000
1517795325711979362	400 34 0.900000 0.104000 0.094000 500 32 0.900000 0.728000 0.657000 600 37 1.000000 0.051000 0.051000 1.200000 0.033000 0.039000
1517795326269356821	400 34 0.900000 0.048000 0.043000 500 32 0.900000 0.454000 0.412000 600 37 1.000000 0.051000 0.051000 1.200000 0.040000 0.048000
1517795326825494946	400 34 0.900000 0.104000 0.094000 500 32 0.900000 0.756000 0.684000 600 37 1.000000 0.052000 0.052000 1.200000 0.034000 0.041000
1517795327385426071	400 34 0.900000 0.072000 0.065000 500 32 0.900000 0.452000 0.410000 600 37 1.000000 0.051000 0.051000 1.200000 0.038000 0.045000
1517795327941428154	400 34 0.900000 0.106000 0.096000 500 32 0.900000 0.737000 0.666000 600 37 1.000000 0.051000 0.051000 1.200000 0.032000 0.038000
1517795328459653196	400 33 0.900000 0.100000 0.091000 500 31 0.900000 0.773000 0.699000 600 37 1.000000 0.051000 0.051000 1.200000 0.033000 0.039000
1517795328974169488	400 34 0.900000 0.093000 0.084000 500 32 0.900000 0.733000 0.664000 600 37 1.000000 0.052000 0.052000 1.200000 0.041000 0.049000
1517795329549480530	400 34 0.900000 0.046000 0.041000 500 32 0.900000 0.749000 0.676000 600 38 1.000000 0.052000 0.052000 1.200000 0.030000 0.036000
1517795330082453488	400 34 0.900000 0.047000 0.042000 500 32 0.900000 0.417000 0.378000 600 38 1.000000 0.052000 0.052000 1.200000 0.038000 0.045000
1517795330657487946	400 34 0.900000 0.101000 0.092000 500 32 0.900000 0.745000 0.674000 600 38 1.000000 0.052000 0.052000 1.200000 0.034000 0.041000
1517795331217549238	400 34 0.900000 0.089000 0.081000 500 32 0.900000 0.765000 0.690000 600 37 1.000000 0.051000 0.051000 1.200000 0.033000 0.039000
1517795331731361613	400 34 0.900000 0.107000 0.097000 500 32 0.900000 0.759000 0.686000 600 37 1.000000 0.052000 0.052000 1.200000 0.040000 0.048000
1517795332245842071	400 33 0.900000 0.045000 0.041000 500 32 0.900000 0.745000 0.674000 600 37 1.000000 0.052000 0.052000 1.200000 0.031000 0.037000
1517795332788221363	400 34 0.900000 0.089000 0.081000 500 32 0.900000 0.454000 0.413000 600 38 1.000000 0.051000 0.051000 1.200000 0.045000 0.054000
1517795333306942113	400 34 0.900000 0.106000 0.096000 500 32 0.900000 0.772000 0.698000 600 38 1.000000 0.051000 0.051000 1.200000 0.032000 0.038000
1517795333843239530	400 34 0.900000 0.046000 0.041000 500 32 0.900000 0.572000 0.518000 600 37 1.000000 0.052000 0.052000 1.200000 0.038000 0.045000
1517795334417448613	400 34 0.900000 0.104000 0.094000 500 32 0.900000 0.769000 0.695000 600 38 1.000000 0.052000 0.052000 1.200000 0.034000 0.041000
1517795334989523155	400 34 0.900000 0.101000 0.092000 500 32 0.900000 0.779000 0.703000 600 37 1.000000 0.052000 0.052000 1.200000 0.034000 0.041000
1517795335549509655	400 34 0.900000 0.093000 0.084000 500 32 0.900000 0.700000 0.633000 600 37 1.000000 0.052000 0.052000 1.200000 0.038000 0.045000
1517795336071415947	400 33 0.900000 0.094000 0.085000 500 31 0.900000 0.587000 0.531000 600 38 1.000000 0.051000 0.051000 1.200000 0.033000 0.039000
1517795336633415780	400 34 0.900000 0.106000 0.096000 500 32 0.900000 0.780000 0.704000 600 38 1.000000 0.052000 0.052000 1.200000 0.032000 0.038000
1517795337148034072	400 33 0.900000 0.106000 0.096000 500 32 0.900000 0.766000 0.691000 600 37 1.000000 0.052000 0.052000 1.200000 0.031000 0.037000
1517795337666415697	400 34 0.900000 0.109000 0.099000 500 32 0.900000 0.824000 0.745000 600 38 1.000000 0.051000 0.051000 1.200000 0.039000 0.047000
1517795338241466197	400 34 0.900000 0.104000 0.094000 500 32 0.900000 0.763000 0.688000 600 38 1.000000 0.051000 0.051000 1.200000 0.033000 0.039000
1517795338771270572	400 34 0.900000 0.050000 0.045000 500 32 0.900000 0.442000 0.402000 600 38 1.000000 0.052000 0.052000 1.200000 0.041000 0.049000
1517795339341336156	400 34 0.900000 0.069000 0.062000 500 32 0.900000 0.769000 0.695000 600 37 1.000000 0.052000 0.052000 1.200000 0.031000 0.037000
1517795339857570406	400 34 0.900000 0.077000 0.070000 500 31 0.900000 0.769000 0.695000 600 37 1.000000 0.051000 0.051000 1.200000 0.032000 0.038000
1517795340437455531	400 34 0.900000 0.068000 0.062000 500 32 0.900000 0.786000 0.711000 600 37 1.000000 0.052000 0.052000 1.200000 0.038000 0.045000
1517795340952027531	400 33 0.900000 0.099000 0.090000 500 32 0.900000 0.766000 0.693000 600 37 1.000000 0.052000 0.052000 1.200000 0.032000 0.038000
1517795341513468406	400 34 0.900000 0.046000 0.041000 500 32 0.900000 0.490000 0.444000 600 37 1.000000 0.052000 0.052000 1.200000 0.043000 0.051000
1517795342073552906	400 34 0.900000 0.097000 0.088000 500 32 0.900000 0.769000 0.695000 600 37 1.000000 0.051000 0.051000 1.200000 0.033000 0.039000
1517795342641465698	400 34 0.900000 0.106000 0.096000 500 32 0.900000 0.615000 0.557000 600 37 1.000000 0.052000 0.052000 1.200000 0.037000 0.044000
1517795343160662448	400 34 0.900000 0.102000 0.093000 500 32 0.900000 0.772000 0.697000 600 37 1.000000 0.052000 0.052000 1.200000 0.033000 0.039000
1517795343676692240	400 33 0.900000 0.069000 0.062000 500 32 0.900000 0.766000 0.693000 600 36 1.000000 0.051000 0.051000 1.200000 0.032000 0.038000
1517795344195696906	400 34 0.900000 0.041000 0.037000 500 32 0.900000 0.503000 0.457000 600 38 1.000000 0.052000 0.052000 1.200000 0.043000 0.051000
1517795344717108198	400 34 0.900000 0.073000 0.066000 500 32 0.900000 0.753000 0.681000 600 37 1.000000 0.052000 0.052000 1.200000 0.033000 0.039000
1517795345249558656	400 33 0.900000 0.106000 0.096000 500 31 0.900000 0.772000 0.698000 600 37 1.000000 0.052000 0.052000 1.200000 0.032000 0.038000
1517795345817442656	400 34 0.900000 0.106000 0.096000 500 32 0.900000 0.763000 0.690000 600 37 1.000000 0.052000 0.052000 1.200000 0.037000 0.044000
1517795346332091448	400 33 0.900000 0.093000 0.084000 500 32 0.900000 0.772000 0.698000 600 37 1.000000 0.051000 0.051000 1.200000 0.032000 0.038000
1517795346893383907	400 34 0.900000 0.093000 0.084000 500 32 0.900000 0.393000 0.357000 600 37 1.000000 0.051000 0.051000 1.200000 0.042000 0.050000
1517795347429788948	400 34 0.900000 0.102000 0.093000 500 32 0.900000 0.771000 0.696000 600 38 1.000000 0.052000 0.052000 1.200000 0.031000 0.037000
1517795347954203032	400 33 0.900000 0.093000 0.084000 500 31 0.900000 0.413000 0.375000 600 37 1.000000 0.051000 0.051000 1.200000 0.040000 0.048000
1517795348529426115	400 34 0.900000 0.106000 0.096000 500 32 0.900000 0.726000 0.657000 600 37 1.000000 0.052000 0.052000 1.200000 0.031000 0.037000
1517795349046073240	400 33 0.900000 0.107000 0.097000 500 31 0.900000 0.763000 0.688000 600 37 1.000000 0.052000 0.052000 1.200000 0.031000 0.037000
1517795349621444157	400 34 0.900000 0.062000 0.056000 500 31 0.900000 0.726000 0.657000 600 37 1.000000 0.052000 0.052000 1.200000 0.041000 0.049000
1517795350135084865	400 34 0.900000 0.107000 0.097000 500 32 0.900000 0.708000 0.640000 600 37 1.000000 0.052000 0.052000 1.200000 0.032000 0.038000
1517795350659948574	400 33 0.900000 0.081000 0.073000 500 31 0.900000 0.479000 0.434000 600 37 1.000000 0.052000 0.052000 1.200000 0.035000 0.042000
1517795351225411532	400 34 0.900000 0.106000 0.096000 500 32 0.900000 0.783000 0.707000 600 37 1.000000 0.051000 0.051000 1.200000 0.032000 0.038000
1517795351740148157	400 33 0.900000 0.097000 0.088000 500 31 0.900000 0.768000 0.693000 600 37 1.000000 0.052000 0.052000 1.200000 0.033000 0.039000
1517795352309525907	400 34 0.900000 0.081000 0.073000 500 31 0.900000 0.598000 0.542000 600 37 1.000000 0.052000 0.052000 1.200000 0.042000 0.050000
1517795352846866616	400 34 0.900000 0.104000 0.094000 500 31 0.900000 0.771000 0.697000 600 37 1.000000 0.052000 0.052000 1.200000 0.031000 0.037000
1517795353372318074	400 34 0.900000 0.101000 0.092000 500 31 0.900000 0.612000 0.554000 600 37 1.000000 0.052000 0.052000 1.200000 0.034000 0.041000
1517795353937534949	400 34 0.900000 0.087000 0.079000 500 31 0.900000 0.755000 0.681000 600 37 1.000000 0.052000 0.052000 1.200000 0.032000 0.038000
1517795354452022616	400 33 0.900000 0.098000 0.089000 500 32 0.900000 0.723000 0.654000 600 37 1.000000 0.051000 0.051000 1.200000 0.032000 0.038000
1517795355005501074	400 33 0.900000 0.059000 0.053000 500 31 0.900000 0.503000 0.456000 600 37 1.000000 0.052000 0.052000 1.200000 0.044000 0.053000
1517795355549507908	400 34 0.900000 0.105000 0.095000 500 31 0.900000 0.767000 0.692000 600 37 1.000000 0.051000 0.051000 1.200000 0.032000 0.038000
1517795356072139658	400 33 0.900000 0.104000 0.094000 500 31 0.900000 0.683000 0.618000 600 37 1.000000 0.051000 0.051000 1.200000 0.033000 0.039000
1517795356637379741	400 34 0.900000 0.091000 0.082000 500 31 0.900000 0.751000 0.681000 600 37 1.000000 0.051000 0.051000 1.200000 0.037000 0.044000
1517795357151057658	400 34 0.900000 0.105000 0.095000 500 31 0.900000 0.763000 0.690000 600 37 1.000000 0.052000 0.052000 1.200000 0.032000 0.038000
1517795357664626158	400 34 0.900000 0.055000 0.050000 500 31 0.900000 0.772000 0.698000 600 37 1.000000 0.051000 0.051000 1.200000 0.044000 0.053000
1517795358233451450	400 34 0.900000 0.106000 0.096000 500 31 0.900000 0.792000 0.716000 600 37 1.000000 0.051000 0.051000 1.200000 0.037000 0.044000
1517795358750968408	400 33 0.900000 0.048000 0.043000 500 31 0.900000 0.768000 0.695000 600 36 1.000000 0.051000 0.051000 1.200000 0.033000 0.039000
1517795359265635741	400 34 0.900000 0.101000 0.092000 500 31 0.900000 0.797000 0.722000 600 37 1.000000 0.051000 0.051000 1.200000 0.040000 0.048000
1517795359829424658	400 33 0.900000 0.101000 0.092000 500 31 0.900000 0.711000 0.643000 600 37 1.000000 0.051000 0.051000 1.200000 0.032000 0.038000
1517795360393551325	400 33 0.900000 0.068000 0.062000 500 31 0.900000 0.555000 0.503000 600 37 1.000000 0.051000 0.051000 1.200000 0.036000 0.043000
1517795360953444033	400 33 0.900000 0.104000 0.094000 500 31 0.900000 0.772000 0.698000 600 37 1.000000 0.051000 0.051000 1.200000 0.033000 0.039000
1517795361467696992	400 33 0.900000 0.104000 0.094000 500 31 0.900000 0.728000 0.658000 600 36 1.000000 0.052000 0.052000 1.200000 0.032000 0.038000
1517795362010690867	400 34 0.900000 0.095000 0.086000 500 31 0.900000 0.511000 0.463000 600 37 1.000000 0.052000 0.052000 1.200000 0.046000 0.055000
1517795362577471408	400 34 0.900000 0.096000 0.087000 500 31 0.900000 0.766000 0.691000 600 37 1.000000 0.051000 0.051000 1.200000 0.033000 0.039000
1517795363141425034	400 34 0.900000 0.057000 0.052000 500 31 0.900000 0.658000 0.596000 600 37 1.000000 0.052000 0.052000 1.200000 0.036000 0.043000
1517795363709453117	400 33 0.900000 0.104000 0.094000 500 31 0.900000 0.754000 0.682000 600 37 1.000000 0.051000 0.051000 1.200000 0.036000 0.043000
1517795364229925700	400 33 0.900000 0.106000 0.096000 500 31 0.900000 0.763000 0.690000 600 36 1.000000 0.052000 0.052000 1.200000 0.033000 0.039000
1517795364761184409	400 34 0.900000 0.100000 0.091000 500 31 0.900000 0.395000 0.359000 600 37 1.000000 0.052000 0.052000 1.200000 0.043000 0.051000
1517795365333482784	400 34 0.900000 0.099000 0.090000 500 31 0.900000 0.743000 0.672000 600 37 1.000000 0.051000 0.051000 1.200000 0.034000 0.041000
1517795365897565117	400 33 0.900000 0.053000 0.048000 500 31 0.900000 0.775000 0.701000 600 37 1.000000 0.051000 0.051000 1.200000 0.034000 0.041000
1517795366465539826	400 33 0.900000 0.104000 0.094000 500 31 0.900000 0.715000 0.647000 600 37 1.000000 0.052000 0.052000 1.200000 0.032000 0.038000
1517795366985239034	400 33 0.900000 0.104000 0.094000 500 31 0.900000 0.763000 0.688000 600 36 1.000000 0.052000 0.052000 1.200000 0.033000 0.039000
1517795367510026659	400 34 0.900000 0.110000 0.100000 500 31 0.900000 0.792000 0.716000 600 37 1.000000 0.052000 0.052000 1.200000 0.041000 0.049000
1517795368073480284	400 34 0.900000 0.097000 0.088000 500 31 0.900000 0.708000 0.641000 600 37 1.000000 0.051000 0.051000 1.200000 0.032000 0.038000
1517795368637500201	400 33 0.900000 0.053000 0.048000 500 31 0.900000 0.535000 0.485000 600 37 1.000000 0.051000 0.051000 1.200000 0.035000 0.042000
1517795369185376576	400 33 0.900000 0.104000 0.094000 500 31 0.900000 0.770000 0.696000 600 37 1.000000 0.052000 0.052000 1.200000 0.033000 0.039000
1517795369699819284	400 33 0.900000 0.105000 0.095000 500 31 0.900000 0.736000 0.666000 600 36 1.000000 0.051000 0.051000 1.200000 0.033000 0.039000
1517795370231241034	400 34 0.900000 0.107000 0.097000 500 31 0.900000 0.629000 0.570000 600 37 1.000000 0.051000 0.051000 1.200000 0.042000 0.050000
1517795370802236284	400 33 0.900000 0.103000 0.093000 500 31 0.900000 0.778000 0.702000 600 37 1.000000 0.051000 0.051000 1.200000 0.033000 0.039000
1517795371369424159	400 33 0.900000 0.049000 0.044000 500 31 0.900000 0.641000 0.580000 600 37 1.000000 0.052000 0.052000 1.200000 0.033000 0.039000
1517795371888013160	400 33 0.900000 0.100000 0.091000 500 31 0.900000 0.763000 0.690000 600 37 1.000000 0.051000 0.051000 1.200000 0.035000 0.042000
1517795372403716326	400 33 0.900000 0.093000 0.084000 500 31 0.900000 0.743000 0.672000 600 36 1.000000 0.051000 0.051000 1.200000 0.032000 0.038000
1517795372950562785	400 34 0.900000 0.047000 0.042000 500 31 0.900000 0.440000 0.400000 600 37 1.000000 0.051000 0.051000 1.200000 0.044000 0.053000
1517795373521454785	400 33 0.900000 0.101000 0.092000 500 31 0.900000 0.776000 0.700000 600 37 1.000000 0.052000 0.052000 1.200000 0.033000 0.039000
1517795374058587451	400 34 0.900000 0.045000 0.041000 500 31 0.900000 0.469000 0.426000 600 37 1.000000 0.052000 0.052000 1.200000 0.046000 0.055000
1517795374621464577	400 34 0.900000 0.106000 0.096000 500 31 0.900000 0.769000 0.694000 600 37 1.000000 0.052000 0.052000 1.200000 0.032000 0.038000
1517795375140070452	400 33 0.900000 0.086000 0.078000 500 31 0.900000 0.651000 0.589000 600 36 1.000000 0.052000 0.052000 1.200000 0.035000 0.042000
1517795375709504952	400 34 0.900000 0.105000 0.095000 500 31 0.900000 0.764000 0.691000 600 37 1.000000 0.052000 0.052000 1.200000 0.036000 0.043000
1517795376223638452	400 33 0.900000 0.099000 0.090000 500 31 0.900000 0.761000 0.688000 600 37 1.000000 0.052000 0.052000 1.200000 0.032000 0.038000
1517795376785438743	400 33 0.900000 0.075000 0.068000 500 31 0.900000 0.499000 0.453000 600 37 1.000000 0.051000 0.051000 1.200000 0.041000 0.049000
1517795377309842827	400 34 0.900000 0.100000 0.091000 500 31 0.900000 0.783000 0.708000 600 37 1.000000 0.052000 0.052000 1.200000 0.033000 0.039000
1517795377877460869	400 33 0.900000 0.047000 0.042000 500 31 0.900000 0.598000 0.542000 600 37 1.000000 0.052000 0.052000 1.200000 0.036000 0.043000
1517795378390794410	400 33 0.900000 0.100000 0.091000 500 31 0.900000 0.758000 0.684000 600 37 1.000000 0.051000 0.051000 1.200000 0.034000 0.041000
1517795378904945494	400 33 0.900000 0.103000 0.093000 500 31 0.900000 0.746000 0.675000 600 36 1.000000 0.051000 0.051000 1.200000 0.034000 0.041000
1517795379444185494	400 34 0.900000 0.046000 0.042000 500 31 0.900000 0.737000 0.667000 600 37 1.000000 0.051000 0.051000 1.200000 0.043000 0.051000
1517795380013472536	400 33 0.900000 0.106000 0.096000 500 31 0.900000 0.734000 0.664000 600 37 1.000000 0.052000 0.052000 1.200000 0.034000 0.041000
1517795380562139077	400 33 0.900000 0.071000 0.064000 500 31 0.900000 0.473000 0.429000 600 37 1.000000 0.052000 0.052000 1.200000 0.038000 0.045000
1517795381121388994	400 34 0.900000 0.106000 0.096000 500 31 0.900000 0.721000 0.652000 600 37 1.000000 0.052000 0.052000 1.200000 0.033000 0.039000
1517795381644122911	400 33 0.900000 0.106000 0.096000 500 31 0.900000 0.767000 0.692000 600 37 1.000000 0.052000 0.052000 1.200000 0.033000 0.039000
1517795382185073119	400 34 0.900000 0.104000 0.094000 500 31 0.900000 0.743000 0.672000 600 37 1.000000 0.051000 0.051000 1.200000 0.039000 0.047000
1517795382699330161	400 32 0.900000 0.107000 0.097000 500 31 0.900000 0.784000 0.707000 600 36 1.000000 0.051000 0.051000 1.200000 0.033000 0.039000
1517795383218316286	400 34 0.900000 0.071000 0.064000 500 31 0.900000 0.561000 0.508000 600 37 1.000000 0.052000 0.052000 1.200000 0.047000 0.056000
1517795383789447411	400 34 0.900000 0.092000 0.083000 500 31 0.900000 0.771000 0.696000 600 37 1.000000 0.052000 0.052000 1.200000 0.034000 0.041000
1517795384303282494	400 34 0.900000 0.045000 0.041000 500 31 0.900000 0.500000 0.453000 600 37 1.000000 0.051000 0.051000 1.200000 0.037000 0.044000
1517795384869421744	400 33 0.900000 0.047000 0.042000 500 31 0.900000 0.744000 0.673000 600 37 1.000000 0.051000 0.051000 1.200000 0.032000 0.038000
1517795385384193619	400 33 0.900000 0.104000 0.094000 500 31 0.900000 0.540000 0.489000 600 36 1.000000 0.052000 0.052000 1.200000 0.038000 0.045000
1517795385903683161	400 33 0.900000 0.049000 0.044000 500 31 0.900000 0.696000 0.631000 600 37 1.000000 0.051000 0.051000 1.200000 0.046000 0.055000
1517795386469413870	400 34 0.900000 0.088000 0.080000 500 31 0.900000 0.768000 0.695000 600 37 1.000000 0.051000 0.051000 1.200000 0.032000 0.038000
1517795386984002620	400 33 0.900000 0.043000 0.039000 500 31 0.900000 0.630000 0.570000 600 37 1.000000 0.051000 0.051000 1.200000 0.041000 0.049000
1517795387549353536	400 33 0.900000 0.063000 0.057000 500 31 0.900000 0.775000 0.701000 600 37 1.000000 0.052000 0.052000 1.200000 0.031000 0.037000
1517795388077742536	400 33 0.900000 0.082000 0.074000 500 31 0.900000 0.504000 0.457000 600 36 1.000000 0.051000 0.051000 1.200000 0.037000 0.044000
1517795388637388453	400 34 0.900000 0.106000 0.096000 500 31 0.900000 0.782000 0.707000 600 37 1.000000 0.051000 0.051000 1.200000 0.032000 0.038000
1517795389151386745	400 33 0.900000 0.100000 0.091000 500 31 0.900000 0.770000 0.696000 600 37 1.000000 0.051000 0.051000 1.200000 0.032000 0.038000
1517795389717373995	400 33 0.900000 0.094000 0.085000 500 31 0.900000 0.772000 0.698000 600 37 1.000000 0.051000 0.051000 1.200000 0.042000 0.050000
1517795390231295203	400 33 0.900000 0.101000 0.092000 500 31 0.900000 0.757000 0.685000 600 37 1.000000 0.051000 0.051000 1.200000 0.033000 0.039000
1517795390751987453	400 33 0.900000 0.027000 0.024000 500 31 0.900000 0.542000 0.491000 600 37 1.000000 0.051000 0.051000 1.200000 0.035000 0.042000
1517795391321493620	400 34 0.900000 0.091000 0.082000 500 31 0.900000 0.766000 0.693000 600 37 1.000000 0.052000 0.052000 1.200000 0.032000 0.038000
1517795391839891454	400 34 0.900000 0.099000 0.090000 500 31 0.900000 0.721000 0.652000 600 37 1.000000 0.052000 0.052000 1.200000 0.031000 0.037000
1517795392397492620	400 34 0.900000 0.035000 0.032000 500 31 0.900000 0.478000 0.434000 600 37 1.000000 0.052000 0.052000 1.200000 0.045000 0.054000
1517795392911310579	400 34 0.900000 0.080000 0.073000 500 31 0.900000 0.776000 0.700000 600 37 1.000000 0.051000 0.051000 1.200000 0.029000 0.035000
1517795393425221954	400 33 0.900000 0.077000 0.070000 500 31 0.900000 0.777000 0.701000 600 37 1.000000 0.051000 0.051000 1.200000 0.031000 0.037000
1517795393997432996	400 34 0.900000 0.049000 0.044000 500 31 0.900000 0.661000 0.598000 600 37 1.000000 0.051000 0.051000 1.200000 0.041000 0.049000
1517795394516665829	400 34 0.900000 0.105000 0.095000 500 32 0.900000 0.727000 0.657000 600 37 1.000000 0.051000 0.051000 1.200000 0.032000 0.038000
1517795395032854454	400 33 0.900000 0.096000 0.087000 500 31 0.900000 0.545000 0.494000 600 37 1.000000 0.052000 0.052000 1.200000 0.035000 0.042000
1517795395593430537	400 34 0.900000 0.106000 0.096000 500 31 0.900000 0.758000 0.684000 600 37 1.000000 0.052000 0.052000 1.200000 0.032000 0.038000
1517795396106870246	400 34 0.900000 0.106000 0.096000 500 32 0.900000 0.712000 0.642000 600 38 1.000000 0.052000 0.052000 1.200000 0.031000 0.037000
1517795396620169037	400 34 0.900000 0.053000 0.048000 500 31 0.900000 0.664000 0.601000 600 37 1.000000 0.052000 0.052000 1.200000 0.042000 0.050000
1517795397181327329	400 34 0.900000 0.105000 0.095000 500 32 0.900000 0.774000 0.698000 600 37 1.000000 0.051000 0.051000 1.200000 0.032000 0.038000
1517795397700284913	400 33 0.900000 0.106000 0.096000 500 31 0.900000 0.747000 0.674000 600 37 1.000000 0.051000 0.051000 1.200000 0.032000 0.038000
1517795398213794746	400 34 0.900000 0.052000 0.047000 500 32 0.900000 0.460000 0.418000 600 37 1.000000 0.051000 0.051000 1.200000 0.036000 0.043000
1517795398785393829	400 34 0.900000 0.102000 0.093000 500 32 0.900000 0.766000 0.691000 600 37 1.000000 0.052000 0.052000 1.200000 0.032000 0.038000
1517795399331999163	400 34 0.900000 0.090000 0.082000 500 31 0.900000 0.769000 0.694000 600 37 1.000000 0.052000 0.052000 1.200000 0.040000 0.048000
1517795399905472871	400 34 0.900000 0.105000 0.095000 500 31 0.900000 0.723000 0.654000 600 37 1.000000 0.051000 0.051000 1.200000 0.033000 0.039000
1517795400419700705	400 33 0.900000 0.082000 0.074000 500 31 0.900000 0.766000 0.691000 600 37 1.000000 0.052000 0.052000 1.200000 0.032000 0.038000
1517795400937334871	400 34 0.900000 0.063000 0.057000 500 32 0.900000 0.385000 0.350000 600 37 1.000000 0.052000 0.052000 1.200000 0.041000 0.049000
1517795401501446830	400 34 0.900000 0.075000 0.068000 500 31 0.900000 0.701000 0.634000 600 37 1.000000 0.052000 0.052000 1.200000 0.033000 0.039000
1517795402065362496	400 34 0.900000 0.044000 0.040000 500 31 0.900000 0.520000 0.471000 600 37 1.000000 0.052000 0.052000 1.200000 0.037000 0.044000
1517795402633513122	400 33 0.900000 0.105000 0.095000 500 31 0.900000 0.766000 0.691000 600 37 1.000000 0.051000 0.051000 1.200000 0.033000 0.039000
1517795403147381538	400 33 0.900000 0.091000 0.082000 500 31 0.900000 0.720000 0.651000 600 36 1.000000 0.052000 0.052000 1.200000 0.034000 0.041000
1517795403691220080	400 34 0.900000 0.106000 0.096000 500 32 0.900000 0.608000 0.551000 600 37 1.000000 0.051000 0.051000 1.200000 0.044000 0.053000
1517795404253459455	400 34 0.900000 0.106000 0.096000 500 32 0.900000 0.774000 0.698000 600 37 1.000000 0.051000 0.051000 1.200000 0.033000 0.039000
1517795404817422747	400 34 0.900000 0.083000 0.075000 500 32 0.900000 0.609000 0.551000 600 37 1.000000 0.051000 0.051000 1.200000 0.036000 0.043000
1517795405369514705	400 34 0.900000 0.106000 0.096000 500 31 0.900000 0.754000 0.680000 600 37 1.000000 0.052000 0.052000 1.200000 0.033000 0.039000
1517795405889808914	400 33 0.900000 0.098000 0.089000 500 31 0.900000 0.724000 0.655000 600 36 1.000000 0.052000 0.052000 1.200000 0.032000 0.038000
1517795406408777955	400 33 0.900000 0.072000 0.065000 500 31 0.900000 0.513000 0.465000 600 37 1.000000 0.052000 0.052000 1.200000 0.045000 0.054000
1517795406969371455	400 34 0.900000 0.105000 0.095000 500 32 0.900000 0.765000 0.692000 600 37 1.000000 0.052000 0.052000 1.200000 0.034000 0.041000
1517795407529374747	400 34 0.900000 0.076000 0.069000 500 31 0.900000 0.697000 0.631000 600 37 1.000000 0.051000 0.051000 1.200000 0.033000 0.039000
1517795408085357206	400 34 0.900000 0.106000 0.096000 500 31 0.900000 0.763000 0.690000 600 37 1.000000 0.052000 0.052000 1.200000 0.036000 0.043000
1517795408611028039	400 33 0.900000 0.070000 0.063000 500 31 0.900000 0.748000 0.676000 600 36 1.000000 0.051000 0.051000 1.200000 0.033000 0.039000
1517795409131595206	400 34 0.900000 0.105000 0.095000 500 31 0.900000 0.753000 0.681000 600 37 1.000000 0.052000 0.052000 1.200000 0.037000 0.044000
1517795409689425747	400 34 0.900000 0.053000 0.048000 500 31 0.900000 0.748000 0.675000 600 37 1.000000 0.052000 0.052000 1.200000 0.035000 0.042000
1517795410261413372	400 34 0.900000 0.083000 0.075000 500 31 0.900000 0.443000 0.402000 600 37 1.000000 0.052000 0.052000 1.200000 0.038000 0.045000
1517795410777565123	400 34 0.900000 0.104000 0.094000 500 31 0.900000 0.769000 0.694000 600 37 1.000000 0.052000 0.052000 1.200000 0.033000 0.039000
1517795411292159831	400 34 0.900000 0.051000 0.046000 500 31 0.900000 0.780000 0.704000 600 37 1.000000 0.052000 0.052000 1.200000 0.030000 0.036000
1517795411857442664	400 34 0.900000 0.050000 0.045000 500 31 0.900000 0.581000 0.526000 600 37 1.000000 0.052000 0.052000 1.200000 0.044000 0.053000
1517795412380078831	400 34 0.900000 0.106000 0.096000 500 31 0.900000 0.780000 0.704000 600 37 1.000000 0.051000 0.051000 1.200000 0.033000 0.039000
1517795412898806039	400 34 0.900000 0.087000 0.079000 500 31 0.900000 0.653000 0.591000 600 37 1.000000 0.051000 0.051000 1.200000 0.035000 0.042000
1517795413469462956	400 34 0.900000 0.106000 0.096000 500 31 0.900000 0.764000 0.691000 600 37 1.000000 0.051000 0.051000 1.200000 0.036000 0.043000
1517795413982898373	400 34 0.900000 0.107000 0.097000 500 31 0.900000 0.772000 0.697000 600 37 1.000000 0.052000 0.052000 1.200000 0.033000 0.039000
1517795414496345706	400 33 0.900000 0.060000 0.054000 500 31 0.900000 0.433000 0.394000 600 37 1.000000 0.051000 0.051000 1.200000 0.040000 0.048000
1517795415057362915	400 34 0.900000 0.078000 0.071000 500 31 0.900000 0.728000 0.657000 600 37 1.000000 0.052000 0.052000 1.200000 0.033000 0.039000
1517795415572455915	400 33 0.900000 0.096000 0.087000 500 31 0.900000 0.765000 0.690000 600 36 1.000000 0.052000 0.052000 1.200000 0.034000 0.041000
1517795416112660290	400 34 0.900000 0.100000 0.091000 500 31 0.900000 0.739000 0.669000 600 37 1.000000 0.052000 0.052000 1.200000 0.043000 0.051000
1517795416626126915	400 34 0.900000 0.106000 0.096000 500 31 0.900000 0.720000 0.651000 600 37 1.000000 0.051000 0.051000 1.200000 0.033000 0.039000
1517795417154210207	400 33 0.900000 0.046000 0.042000 500 31 0.900000 0.752000 0.680000 600 37 1.000000 0.052000 0.052000 1.200000 0.031000 0.037000
1517795417725483665	400 34 0.900000 0.100000 0.091000 500 31 0.900000 0.741000 0.670000 600 37 1.000000 0.051000 0.051000 1.200000 0.039000 0.047000
1517795418261907248	400 34 0.900000 0.097000 0.088000 500 31 0.900000 0.760000 0.686000 600 37 1.000000 0.051000 0.051000 1.200000 0.033000 0.039000
1517795418775950040	400 33 0.900000 0.055000 0.050000 500 31 0.900000 0.426000 0.387000 600 37 1.000000 0.052000 0.052000 1.200000 0.039000 0.047000
1517795419341471165	400 34 0.900000 0.100000 0.091000 500 31 0.900000 0.698000 0.631000 600 37 1.000000 0.051000 0.051000 1.200000 0.034000 0.041000
1517795419855767540	400 33 0.900000 0.102000 0.093000 500 31 0.900000 0.776000 0.700000 600 36 1.000000 0.052000 0.052000 1.200000 0.036000 0.043000
1517795420369501582	400 34 0.900000 0.088000 0.080000 500 31 0.900000 0.689000 0.624000 600 37 1.000000 0.051000 0.051000 1.200000 0.042000 0.050000
1517795420937437040	400 34 0.900000 0.101000 0.092000 500 32 0.900000 0.712000 0.644000 600 37 1.000000 0.052000 0.052000 1.200000 0.033000 0.039000
1517795421479438374	400 34 0.900000 0.047000 0.042000 500 31 0.900000 0.473000 0.429000 600 37 1.000000 0.052000 0.052000 1.200000 0.038000 0.045000
1517795422045470582	400 34 0.900000 0.102000 0.093000 500 31 0.900000 0.777000 0.703000 600 37 1.000000 0.051000 0.051000 1.200000 0.034000 0.041000
1517795422572612749	400 33 0.900000 0.105000 0.095000 500 31 0.900000 0.771000 0.697000 600 37 1.000000 0.052000 0.052000 1.200000 0.034000 0.041000
1517795423105493082	400 34 0.900000 0.042000 0.038000 500 31 0.900000 0.781000 0.707000 600 37 1.000000 0.052000 0.052000 1.200000 0.043000 0.051000
1517795423620361957	400 33 0.900000 0.098000 0.089000 500 31 0.900000 0.741000 0.669000 600 37 1.000000 0.051000 0.051000 1.200000 0.034000 0.041000
1517795424185456916	400 33 0.900000 0.086000 0.078000 500 31 0.900000 0.418000 0.379000 600 37 1.000000 0.052000 0.052000 1.200000 0.037000 0.044000
1517795424699071166	400 34 0.900000 0.103000 0.093000 500 31 0.900000 0.763000 0.688000 600 37 1.000000 0.051000 0.051000 1.200000 0.033000 0.039000
1517795425227184416	400 33 0.900000 0.029000 0.026000 500 31 0.900000 0.358000 0.325000 600 37 1.000000 0.052000 0.052000 1.200000 0.036000 0.043000
1517795425771334374	400 34 0.900000 0.086000 0.078000 500 31 0.900000 0.745000 0.674000 600 37 1.000000 0.051000 0.051000 1.200000 0.039000 0.047000
1517795426285576499	400 32 0.900000 0.104000 0.094000 500 31 0.900000 0.624000 0.565000 600 37 1.000000 0.052000 0.052000 1.200000 0.034000 0.041000
1517795426799610708	400 34 0.900000 0.043000 0.039000 500 31 0.900000 0.487000 0.442000 600 37 1.000000 0.051000 0.051000 1.200000 0.044000 0.053000
1517795427373519208	400 34 0.900000 0.106000 0.096000 500 31 0.900000 0.745000 0.674000 600 37 1.000000 0.052000 0.052000 1.200000 0.034000 0.041000
1517795427933489625	400 33 0.900000 0.086000 0.078000 500 31 0.900000 0.705000 0.638000 600 37 1.000000 0.051000 0.051000 1.200000 0.045000 0.054000
1517795428485487333	400 33 0.900000 0.107000 0.097000 500 31 0.900000 0.784000 0.707000 600 37 1.000000 0.052000 0.052000 1.200000 0.034000 0.041000
1517795429032269791	400 33 0.900000 0.062000 0.056000 500 31 0.900000 0.456000 0.414000 600 37 1.000000 0.051000 0.051000 1.200000 0.043000 0.051000
1517795429597473125	400 34 0.900000 0.108000 0.098000 500 31 0.900000 0.778000 0.702000 600 37 1.000000 0.051000 0.051000 1.200000 0.032000 0.038000
1517795430165536000	400 33 0.900000 0.105000 0.095000 500 31 0.900000 0.502000 0.455000 600 37 1.000000 0.052000 0.052000 1.200000 0.037000 0.044000
1517795430721401833	400 34 0.900000 0.103000 0.093000 500 31 0.900000 0.731000 0.661000 600 37 1.000000 0.052000 0.052000 1.200000 0.034000 0.041000
1517795431242617667	400 33 0.900000 0.103000 0.093000 500 31 0.900000 0.724000 0.655000 600 37 1.000000 0.052000 0.052000 1.200000 0.033000 0.039000
1517795431809467583	400 34 0.900000 0.084000 0.076000 500 31 0.900000 0.766000 0.693000 600 37 1.000000 0.052000 0.052000 1.200000 0.039000 0.047000
1517795432323589792	400 33 0.900000 0.098000 0.089000 500 31 0.900000 0.765000 0.690000 600 36 1.000000 0.051000 0.051000 1.200000 0.034000 0.041000
1517795432851806458	400 34 0.900000 0.047000 0.042000 500 31 0.900000 0.572000 0.518000 600 37 1.000000 0.052000 0.052000 1.200000 0.047000 0.056000
1517795433409513584	400 34 0.900000 0.106000 0.096000 500 31 0.900000 0.707000 0.639000 600 37 1.000000 0.051000 0.051000 1.200000 0.033000 0.039000
1517795433923235959	400 33 0.900000 0.065000 0.059000 500 31 0.900000 0.418000 0.379000 600 37 1.000000 0.052000 0.052000 1.200000 0.038000 0.045000
1517795434497450875	400 34 0.900000 0.063000 0.057000 500 31 0.900000 0.707000 0.639000 600 37 1.000000 0.052000 0.052000 1.200000 0.033000 0.039000
1517795435061485334	400 34 0.900000 0.040000 0.036000 500 31 0.900000 0.364000 0.330000 600 37 1.000000 0.052000 0.052000 1.200000 0.039000 0.047000
1517795435579815000	400 34 0.900000 0.105000 0.095000 500 31 0.900000 0.783000 0.708000 600 37 1.000000 0.052000 0.052000 1.200000 0.033000 0.039000
1517795436095220209	400 33 0.900000 0.055000 0.050000 500 31 0.900000 0.754000 0.682000 600 36 1.000000 0.051000 0.051000 1.200000 0.029000 0.035000
1517795436637095792	400 34 0.900000 0.061000 0.055000 500 31 0.900000 0.464000 0.421000 600 37 1.000000 0.052000 0.052000 1.200000 0.038000 0.045000
1517795437192361251	400 34 0.900000 0.101000 0.092000 500 31 0.900000 0.782000 0.706000 600 37 1.000000 0.052000 0.052000 1.200000 0.030000 0.036000
1517795437706809167	400 33 0.900000 0.044000 0.040000 500 31 0.900000 0.490000 0.444000 600 37 1.000000 0.052000 0.052000 1.200000 0.043000 0.051000
1517795438277549001	400 34 0.900000 0.053000 0.048000 500 31 0.900000 0.769000 0.695000 600 37 1.000000 0.051000 0.051000 1.200000 0.031000 0.037000
1517795438806547001	400 33 0.900000 0.093000 0.084000 500 31 0.900000 0.755000 0.681000 600 37 1.000000 0.052000 0.052000 1.200000 0.034000 0.041000
1517795439367501876	400 34 0.900000 0.106000 0.096000 500 31 0.900000 0.724000 0.655000 600 37 1.000000 0.052000 0.052000 1.200000 0.032000 0.038000
1517795439882042084	400 33 0.900000 0.096000 0.087000 500 31 0.900000 0.765000 0.690000 600 36 1.000000 0.051000 0.051000 1.200000 0.032000 0.038000
1517795440433369793	400 34 0.900000 0.091000 0.082000 500 31 0.900000 0.386000 0.351000 600 37 1.000000 0.052000 0.052000 1.200000 0.040000 0.048000
1517795440947680459	400 33 0.900000 0.088000 0.080000 500 31 0.900000 0.761000 0.687000 600 37 1.000000 0.051000 0.051000 1.200000 0.031000 0.037000
1517795441462669210	400 33 0.900000 0.033000 0.030000 500 31 0.900000 0.760000 0.687000 600 37 1.000000 0.052000 0.052000 1.200000 0.034000 0.041000
1517795441981562960	400 34 0.900000 0.079000 0.072000 500 31 0.900000 0.738000 0.668000 600 37 1.000000 0.052000 0.052000 1.200000 0.032000 0.038000
1517795442501096876	400 34 0.900000 0.072000 0.065000 500 31 0.900000 0.755000 0.683000 600 37 1.000000 0.051000 0.051000 1.200000 0.032000 0.038000
1517795443073405543	400 34 0.900000 0.038000 0.034000 500 31 0.900000 0.657000 0.595000 600 37 1.000000 0.052000 0.052000 1.200000 0.032000 0.038000
1517795443633350210	400 34 0.900000 0.106000 0.096000 500 31 0.900000 0.774000 0.700000 600 37 1.000000 0.052000 0.052000 1.200000 0.038000 0.045000
1517795444159558085	400 33 0.900000 0.097000 0.088000 500 31 0.900000 0.731000 0.661000 600 37 1.000000 0.051000 0.051000 1.200000 0.033000 0.039000
1517795444725443918	400 34 0.900000 0.080000 0.072000 500 31 0.900000 0.560000 0.508000 600 37 1.000000 0.052000 0.052000 1.200000 0.045000 0.054000
1517795445239156585	400 34 0.900000 0.099000 0.090000 500 31 0.900000 0.768000 0.695000 600 37 1.000000 0.051000 0.051000 1.200000 0.032000 0.038000
1517795445752934793	400 33 0.900000 0.053000 0.048000 500 31 0.900000 0.634000 0.574000 600 37 1.000000 0.052000 0.052000 1.200000 0.035000 0.042000
1517795446329423793	400 33 0.900000 0.058000 0.052000 500 31 0.900000 0.749000 0.677000 600 37 1.000000 0.052000 0.052000 1.200000 0.035000 0.042000
1517795446845919293	400 33 0.900000 0.105000 0.095000 500 31 0.900000 0.753000 0.679000 600 37 1.000000 0.051000 0.051000 1.200000 0.033000 0.039000
1517795447405439127	400 34 0.900000 0.092000 0.083000 500 31 0.900000 0.412000 0.374000 600 37 1.000000 0.052000 0.052000 1.200000 0.044000 0.053000
1517795447949379002	400 34 0.900000 0.104000 0.094000 500 31 0.900000 0.775000 0.701000 600 37 1.000000 0.051000 0.051000 1.200000 0.032000 0.038000
1517795448463277627	400 33 0.900000 0.045000 0.041000 500 31 0.900000 0.443000 0.403000 600 37 1.000000 0.052000 0.052000 1.200000 0.040000 0.048000
1517795449037467002	400 34 0.900000 0.050000 0.045000 500 31 0.900000 0.776000 0.702000 600 37 1.000000 0.051000 0.051000 1.200000 0.030000 0.036000
1517795449552269294	400 33 0.900000 0.106000 0.096000 500 31 0.900000 0.778000 0.704000 600 37 1.000000 0.052000 0.052000 1.200000 0.033000 0.039000
1517795450109357669	400 34 0.900000 0.102000 0.093000 500 31 0.900000 0.752000 0.680000 600 37 1.000000 0.052000 0.052000 1.200000 0.041000 0.049000
1517795450636902377	400 34 0.900000 0.104000 0.094000 500 31 0.900000 0.769000 0.694000 600 38 1.000000 0.051000 0.051000 1.200000 0.034000 0.041000
1517795451150255544	400 34 0.900000 0.042000 0.038000 500 31 0.900000 0.364000 0.331000 600 37 1.000000 0.051000 0.051000 1.200000 0.043000 0.051000
1517795451717438377	400 34 0.900000 0.105000 0.095000 500 31 0.900000 0.772000 0.697000 600 37 1.000000 0.052000 0.052000 1.200000 0.035000 0.042000
1517795452233453086	400 33 0.900000 0.090000 0.082000 500 31 0.900000 0.756000 0.682000 600 37 1.000000 0.052000 0.052000 1.200000 0.034000 0.041000
1517795452805525169	400 34 0.900000 0.106000 0.096000 500 31 0.900000 0.790000 0.714000 600 37 1.000000 0.051000 0.051000 1.200000 0.040000 0.048000
1517795453319156044	400 33 0.900000 0.101000 0.092000 500 32 0.900000 0.784000 0.707000 600 37 1.000000 0.051000 0.051000 1.200000 0.033000 0.039000
1517795453833924544	400 34 0.900000 0.069000 0.062000 500 31 0.900000 0.426000 0.387000 600 37 1.000000 0.052000 0.052000 1.200000 0.037000 0.044000
1517795454397481461	400 34 0.900000 0.073000 0.066000 500 31 0.900000 0.741000 0.669000 600 37 1.000000 0.052000 0.052000 1.200000 0.031000 0.037000
1517795454921222544	400 33 0.900000 0.104000 0.094000 500 31 0.900000 0.777000 0.703000 600 36 1.000000 0.052000 0.052000 1.200000 0.034000 0.041000
1517795455485461711	400 33 0.900000 0.068000 0.062000 500 32 0.900000 0.808000 0.731000 600 37 1.000000 0.052000 0.052000 1.200000 0.044000 0.053000
1517795456038063878	400 34 0.900000 0.104000 0.094000 500 31 0.900000 0.716000 0.647000 600 37 1.000000 0.051000 0.051000 1.200000 0.032000 0.038000
1517795456551496295	400 34 0.900000 0.077000 0.070000 500 32 0.900000 0.455000 0.413000 600 37 1.000000 0.051000 0.051000 1.200000 0.036000 0.043000
1517795457129519711	400 34 0.900000 0.102000 0.093000 500 31 0.900000 0.768000 0.695000 600 37 1.000000 0.051000 0.051000 1.200000 0.034000 0.041000
1517795457650797878	400 33 0.900000 0.098000 0.089000 500 31 0.900000 0.768000 0.693000 600 37 1.000000 0.051000 0.051000 1.200000 0.033000 0.039000
1517795458225534128	400 34 0.900000 0.082000 0.074000 500 31 0.900000 0.661000 0.599000 600 37 1.000000 0.052000 0.052000 1.200000 0.045000 0.054000
1517795458739169128	400 34 0.900000 0.106000 0.096000 500 31 0.900000 0.755000 0.683000 600 37 1.000000 0.051000 0.051000 1.200000 0.031000 0.037000
1517795459252643295	400 34 0.900000 0.058000 0.053000 500 31 0.900000 0.538000 0.487000 600 37 1.000000 0.052000 0.052000 1.200000 0.035000 0.042000
1517795459813466628	400 34 0.900000 0.106000 0.096000 500 31 0.900000 0.773000 0.699000 600 37 1.000000 0.052000 0.052000 1.200000 0.034000 0.041000
1517795460327666045	400 34 0.900000 0.046000 0.042000 500 31 0.900000 0.558000 0.506000 600 37 1.000000 0.051000 0.051000 1.200000 0.035000 0.042000
1517795460847758753	400 33 0.900000 0.111000 0.101000 500 31 0.900000 0.769000 0.695000 600 37 1.000000 0.052000 0.052000 1.200000 0.032000 0.038000
1517795461413377962	400 34 0.900000 0.066000 0.060000 500 31 0.900000 0.762000 0.689000 600 37 1.000000 0.052000 0.052000 1.200000 0.032000 0.038000
1517795461965412795	400 34 0.900000 0.058000 0.052000 500 31 0.900000 0.439000 0.399000 600 37 1.000000 0.052000 0.052000 1.200000 0.043000 0.051000
1517795462529555004	400 34 0.900000 0.106000 0.096000 500 31 0.900000 0.779000 0.703000 600 37 1.000000 0.051000 0.051000 1.200000 0.034000 0.041000
1517795463043781337	400 33 0.900000 0.106000 0.096000 500 31 0.900000 0.717000 0.648000 600 37 1.000000 0.052000 0.052000 1.200000 0.032000 0.038000
1517795463629528587	400 34 0.900000 0.112000 0.102000 500 31 0.900000 0.791000 0.715000 600 37 1.000000 0.051000 0.051000 1.200000 0.038000 0.045000
1517795464156236587	400 34 0.900000 0.104000 0.094000 500 31 0.900000 0.760000 0.687000 600 37 1.000000 0.052000 0.052000 1.200000 0.033000 0.039000
1517795464669862379	400 34 0.900000 0.043000 0.039000 500 31 0.900000 0.446000 0.405000 600 37 1.000000 0.052000 0.052000 1.200000 0.040000 0.048000
1517795465188369587	400 34 0.900000 0.102000 0.093000 500 31 0.900000 0.774000 0.698000 600 37 1.000000 0.052000 0.052000 1.200000 0.036000 0.043000
1517795465704259629	400 33 0.900000 0.086000 0.078000 500 31 0.900000 0.769000 0.694000 600 36 1.000000 0.052000 0.052000 1.200000 0.031000 0.037000
1517795466244017337	400 34 0.900000 0.104000 0.094000 500 31 0.900000 0.808000 0.731000 600 37 1.000000 0.052000 0.052000 1.200000 0.041000 0.049000
1517795466805333004	400 34 0.900000 0.104000 0.094000 500 31 0.900000 0.769000 0.695000 600 37 1.000000 0.052000 0.052000 1.200000 0.033000 0.039000
1517795467353351088	400 34 0.900000 0.043000 0.039000 500 31 0.900000 0.434000 0.394000 600 37 1.000000 0.052000 0.052000 1.200000 0.039000 0.047000
1517795467909499838	400 34 0.900000 0.107000 0.097000 500 31 0.900000 0.742000 0.671000 600 37 1.000000 0.051000 0.051000 1.200000 0.034000 0.041000
1517795468433302004	400 33 0.900000 0.106000 0.096000 500 31 0.900000 0.768000 0.693000 600 36 1.000000 0.051000 0.051000 1.200000 0.033000 0.039000
1517795468947072504	400 34 0.900000 0.062000 0.056000 500 31 0.900000 0.712000 0.644000 600 37 1.000000 0.052000 0.052000 1.200000 0.040000 0.048000
1517795469529529505	400 34 0.900000 0.056000 0.051000 500 31 0.900000 0.739000 0.667000 600 37 1.000000 0.051000 0.051000 1.200000 0.030000 0.036000
1517795470095594963	400 34 0.900000 0.095000 0.086000 500 31 0.900000 0.483000 0.438000 600 37 1.000000 0.052000 0.052000 1.200000 0.037000 0.044000
1517795470661517963	400 34 0.900000 0.106000 0.096000 500 32 0.900000 0.709000 0.641000 600 37 1.000000 0.052000 0.052000 1.200000 0.032000 0.038000
1517795471181452380	400 33 0.900000 0.074000 0.067000 500 31 0.900000 0.433000 0.393000 600 37 1.000000 0.052000 0.052000 1.200000 0.037000 0.044000
1517795471741488963	400 34 0.900000 0.079000 0.072000 500 31 0.900000 0.754000 0.682000 600 37 1.000000 0.051000 0.051000 1.200000 0.031000 0.037000
1517795472256029797	400 34 0.900000 0.100000 0.091000 500 31 0.900000 0.754000 0.682000 600 37 1.000000 0.052000 0.052000 1.200000 0.033000 0.039000
1517795472813461963	400 34 0.900000 0.100000 0.091000 500 31 0.900000 0.774000 0.700000 600 37 1.000000 0.051000 0.051000 1.200000 0.043000 0.051000
1517795473389491297	400 33 0.900000 0.106000 0.096000 500 32 0.900000 0.766000 0.693000 600 37 1.000000 0.051000 0.051000 1.200000 0.033000 0.039000
1517795473949377672	400 34 0.900000 0.102000 0.093000 500 31 0.900000 0.421000 0.383000 600 37 1.000000 0.052000 0.052000 1.200000 0.042000 0.050000
1517795474513423547	400 34 0.900000 0.104000 0.094000 500 31 0.900000 0.774000 0.698000 600 37 1.000000 0.051000 0.051000 1.200000 0.033000 0.039000
1517795475034576255	400 33 0.900000 0.100000 0.091000 500 31 0.900000 0.623000 0.562000 600 37 1.000000 0.051000 0.051000 1.200000 0.033000 0.039000
1517795475605379714	400 34 0.900000 0.082000 0.074000 500 31 0.900000 0.459000 0.416000 600 37 1.000000 0.052000 0.052000 1.200000 0.040000 0.048000
1517795476119829297	400 33 0.900000 0.099000 0.090000 500 31 0.900000 0.775000 0.701000 600 36 1.000000 0.052000 0.052000 1.200000 0.033000 0.039000
1517795476633780047	400 34 0.900000 0.048000 0.043000 500 31 0.900000 0.484000 0.439000 600 37 1.000000 0.052000 0.052000 1.200000 0.044000 0.053000
1517795477189522047	400 34 0.900000 0.105000 0.095000 500 31 0.900000 0.743000 0.672000 600 37 1.000000 0.052000 0.052000 1.200000 0.034000 0.041000
1517795477704109505	400 33 0.900000 0.067000 0.061000 500 31 0.900000 0.779000 0.704000 600 37 1.000000 0.052000 0.052000 1.200000 0.040000 0.048000
1517795478273378339	400 34 0.900000 0.077000 0.070000 500 31 0.900000 0.742000 0.671000 600 37 1.000000 0.052000 0.052000 1.200000 0.034000 0.041000
1517795478841527881	400 34 0.900000 0.047000 0.043000 500 31 0.900000 0.602000 0.546000 600 37 1.000000 0.052000 0.052000 1.200000 0.042000 0.050000
1517795479401508797	400 34 0.900000 0.106000 0.096000 500 31 0.900000 0.757000 0.683000 600 37 1.000000 0.052000 0.052000 1.200000 0.032000 0.038000
1517795479922557922	400 33 0.900000 0.047000 0.042000 500 31 0.900000 0.754000 0.680000 600 37 1.000000 0.052000 0.052000 1.200000 0.039000 0.047000
1517795480441087714	400 34 0.900000 0.106000 0.096000 500 31 0.900000 0.781000 0.707000 600 37 1.000000 0.051000 0.051000 1.200000 0.033000 0.039000
1517795480956683381	400 33 0.900000 0.080000 0.073000 500 31 0.900000 0.779000 0.704000 600 37 1.000000 0.051000 0.051000 1.200000 0.033000 0.039000
1517795481475543256	400 34 0.900000 0.055000 0.050000 500 31 0.900000 0.450000 0.408000 600 37 1.000000 0.052000 0.052000 1.200000 0.038000 0.045000
1517795481990141006	400 34 0.900000 0.080000 0.072000 500 31 0.900000 0.772000 0.697000 600 37 1.000000 0.051000 0.051000 1.200000 0.032000 0.038000
1517795482573480464	400 33 0.900000 0.031000 0.028000 500 31 0.900000 0.638000 0.578000 600 37 1.000000 0.052000 0.052000 1.200000 0.042000 0.050000
1517795483086889548	400 34 0.900000 0.106000 0.096000 500 31 0.900000 0.782000 0.707000 600 37 1.000000 0.052000 0.052000 1.200000 0.031000 0.037000
1517795483601013465	400 33 0.900000 0.106000 0.096000 500 31 0.900000 0.731000 0.661000 600 36 1.000000 0.052000 0.052000 1.200000 0.034000 0.041000
1517795484157517006	400 33 0.900000 0.104000 0.094000 500 31 0.900000 0.742000 0.672000 600 37 1.000000 0.052000 0.052000 1.200000 0.032000 0.038000
1517795484672194256	400 34 0.900000 0.099000 0.090000 500 31 0.900000 0.764000 0.691000 600 37 1.000000 0.052000 0.052000 1.200000 0.033000 0.039000
1517795485241461256	400 34 0.900000 0.090000 0.082000 500 31 0.900000 0.461000 0.419000 600 37 1.000000 0.051000 0.051000 1.200000 0.040000 0.048000
1517795485759871423	400 34 0.900000 0.105000 0.095000 500 31 0.900000 0.768000 0.695000 600 37 1.000000 0.052000 0.052000 1.200000 0.036000 0.043000
1517795486325515757	400 34 0.900000 0.041000 0.037000 500 31 0.900000 0.650000 0.588000 600 37 1.000000 0.051000 0.051000 1.200000 0.032000 0.038000
1517795486889530757	400 34 0.900000 0.103000 0.093000 500 31 0.900000 0.754000 0.682000 600 37 1.000000 0.051000 0.051000 1.200000 0.038000 0.045000
1517795487403999715	400 34 0.900000 0.107000 0.097000 500 31 0.900000 0.735000 0.665000 600 37 1.000000 0.051000 0.051000 1.200000 0.032000 0.038000
1517795487927257048	400 34 0.900000 0.068000 0.062000 500 31 0.900000 0.616000 0.558000 600 37 1.000000 0.051000 0.051000 1.200000 0.042000 0.050000
1517795488446753048	400 34 0.900000 0.074000 0.067000 500 31 0.900000 0.772000 0.698000 600 37 1.000000 0.052000 0.052000 1.200000 0.031000 0.037000
1517795489017483382	400 34 0.900000 0.055000 0.050000 500 31 0.900000 0.701000 0.634000 600 37 1.000000 0.051000 0.051000 1.200000 0.032000 0.038000
1517795489577462715	400 34 0.900000 0.104000 0.094000 500 32 0.900000 0.771000 0.697000 600 37 1.000000 0.051000 0.051000 1.200000 0.037000 0.044000
1517795490092074590	400 33 0.900000 0.097000 0.088000 500 31 0.900000 0.766000 0.691000 600 36 1.000000 0.051000 0.051000 1.200000 0.033000 0.039000
1517795490616462299	400 34 0.900000 0.076000 0.069000 500 31 0.900000 0.493000 0.447000 600 38 1.000000 0.052000 0.052000 1.200000 0.043000 0.051000
1517795491185472632	400 34 0.900000 0.103000 0.093000 500 32 0.900000 0.771000 0.697000 600 37 1.000000 0.051000 0.051000 1.200000 0.034000 0.041000
1517795491711787257	400 34 0.900000 0.058000 0.052000 500 32 0.900000 0.651000 0.589000 600 37 1.000000 0.051000 0.051000 1.200000 0.034000 0.041000
1517795492277330341	400 34 0.900000 0.099000 0.090000 500 31 0.900000 0.765000 0.692000 600 37 1.000000 0.052000 0.052000 1.200000 0.037000 0.044000
1517795492794178299	400 33 0.900000 0.106000 0.096000 500 31 0.900000 0.687000 0.622000 600 37 1.000000 0.052000 0.052000 1.200000 0.033000 0.039000
1517795493361531007	400 34 0.900000 0.109000 0.099000 500 32 0.900000 0.786000 0.711000 600 37 1.000000 0.051000 0.051000 1.200000 0.038000 0.045000
1517795493878663382	400 34 0.900000 0.106000 0.096000 500 32 0.900000 0.781000 0.706000 600 38 1.000000 0.052000 0.052000 1.200000 0.032000 0.038000
1517795494392894924	400 34 0.900000 0.044000 0.040000 500 31 0.900000 0.530000 0.482000 600 37 1.000000 0.051000 0.051000 1.200000 0.041000 0.049000
1517795494957462216	400 34 0.900000 0.053000 0.048000 500 31 0.900000 0.785000 0.708000 600 37 1.000000 0.051000 0.051000 1.200000 0.030000 0.036000
1517795495477357841	400 33 0.900000 0.105000 0.095000 500 31 0.900000 0.709000 0.642000 600 37 1.000000 0.052000 0.052000 1.200000 0.033000 0.039000
1517795496045467049	400 34 0.900000 0.105000 0.095000 500 32 0.900000 0.774000 0.700000 600 38 1.000000 0.051000 0.051000 1.200000 0.039000 0.047000
1517795496560050799	400 34 0.900000 0.104000 0.094000 500 32 0.900000 0.757000 0.685000 600 38 1.000000 0.051000 0.051000 1.200000 0.033000 0.039000
1517795497117470341	400 33 0.900000 0.062000 0.056000 500 32 0.900000 0.479000 0.435000 600 37 1.000000 0.052000 0.052000 1.200000 0.043000 0.051000
1517795497654565925	400 34 0.900000 0.106000 0.096000 500 32 0.900000 0.757000 0.683000 600 38 1.000000 0.052000 0.052000 1.200000 0.035000 0.042000
1517795498175669050	400 34 0.900000 0.065000 0.059000 500 31 0.900000 0.636000 0.576000 600 37 1.000000 0.052000 0.052000 1.200000 0.034000 0.041000
1517795498745404050	400 34 0.900000 0.106000 0.096000 500 32 0.900000 0.785000 0.708000 600 37 1.000000 0.052000 0.052000 1.200000 0.037000 0.044000
1517795499259724883	400 33 0.900000 0.097000 0.088000 500 31 0.900000 0.734000 0.664000 600 36 1.000000 0.052000 0.052000 1.200000 0.033000 0.039000
1517795499821454550	400 34 0.900000 0.048000 0.043000 500 32 0.900000 0.620000 0.562000 600 37 1.000000 0.051000 0.051000 1.200000 0.044000 0.053000
1517795500381438092	400 34 0.900000 0.098000 0.089000 500 32 0.900000 0.778000 0.704000 600 37 1.000000 0.051000 0.051000 1.200000 0.034000 0.041000
1517795500949504633	400 34 0.900000 0.106000 0.096000 500 32 0.900000 0.588000 0.533000 600 37 1.000000 0.052000 0.052000 1.200000 0.034000 0.041000
1517795501525468383	400 34 0.900000 0.107000 0.097000 500 32 0.900000 0.768000 0.695000 600 37 1.000000 0.052000 0.052000 1.200000 0.035000 0.042000
1517795502052581967	400 34 0.900000 0.082000 0.074000 500 32 0.900000 0.544000 0.493000 600 37 1.000000 0.052000 0.052000 1.200000 0.033000 0.039000
1517795502629475925	400 34 0.900000 0.105000 0.095000 500 32 0.900000 0.777000 0.703000 600 37 1.000000 0.051000 0.051000 1.200000 0.033000 0.039000
1517795503143081925	400 34 0.900000 0.089000 0.081000 500 32 0.900000 0.754000 0.682000 600 37 1.000000 0.052000 0.052000 1.200000 0.033000 0.039000
1517795503689467925	400 33 0.900000 0.069000 0.062000 500 32 0.900000 0.553000 0.502000 600 37 1.000000 0.052000 0.052000 1.200000 0.043000 0.051000
1517795504246957134	400 34 0.900000 0.102000 0.093000 500 32 0.900000 0.760000 0.687000 600 38 1.000000 0.052000 0.052000 1.200000 0.033000 0.039000
1517795504768210300	400 34 0.900000 0.063000 0.057000 500 31 0.900000 0.585000 0.530000 600 37 1.000000 0.052000 0.052000 1.200000 0.034000 0.041000
1517795505321428425	400 34 0.900000 0.105000 0.095000 500 32 0.900000 0.760000 0.687000 600 37 1.000000 0.052000 0.052000 1.200000 0.035000 0.042000
1517795505835511259	400 34 0.900000 0.099000 0.090000 500 32 0.900000 0.725000 0.656000 600 37 1.000000 0.052000 0.052000 1.200000 0.034000 0.041000
1517795506405410301	400 34 0.900000 0.045000 0.041000 500 32 0.900000 0.568000 0.515000 600 37 1.000000 0.051000 0.051000 1.200000 0.044000 0.053000
1517795506918919176	400 34 0.900000 0.101000 0.092000 500 32 0.900000 0.763000 0.690000 600 38 1.000000 0.052000 0.052000 1.200000 0.034000 0.041000
1517795507431840884	400 32 0.900000 0.104000 0.094000 500 31 0.900000 0.596000 0.540000 600 36 1.000000 0.052000 0.052000 1.200000 0.034000 0.041000
1517795507944655759	400 32 0.900000 0.017000 0.015000 500 31 0.900000 0.059000 0.053000 600 35 1.000000 0.051000 0.051000 1.200000 0.024000 0.028000
