#Timestamp	CPU(0) Frequency(MHz)	CPU(0) Temperature(C)	A7 Voltage(V)	A7 Current(A)	A7 Power(W)	CPU(4) Frequency(MHz)	CPU(4) Temperature(C)	A15 Voltage(V)	A15 Current(A)	A15 Power(W)	GPU Frequency(MHz)	GPU Temperature(C)	GPU Voltage(V)	GPU Current(A)	GPU Power(W)	RAM Voltage(V)	RAM Current(A)	RAM Power(W)
1517599881560083480	1400 42 1.200000 0.083000 0.105000 800 39 0.900000 0.406000 0.375000 600 45 1.000000 0.052000 0.052000 1.200000 0.034000 0.041000
1517599882069000147	1400 41 1.200000 0.470000 0.591000 800 40 0.900000 1.182000 1.085000 600 45 1.000000 0.053000 0.053000 1.200000 0.043000 0.051000
1517599882583214272	1400 44 1.200000 0.333000 0.420000 800 41 0.900000 1.022000 0.937000 600 46 1.000000 0.053000 0.053000 1.200000 0.052000 0.062000
1517599883096642314	1400 44 1.200000 0.339000 0.428000 800 41 0.900000 0.941000 0.865000 600 46 1.000000 0.053000 0.053000 1.200000 0.039000 0.047000
1517599883632026356	1400 44 1.200000 0.427000 0.537000 800 41 0.900000 1.164000 1.068000 600 46 1.000000 0.053000 0.053000 1.200000 0.037000 0.044000
1517599884140765647	1400 43 1.200000 0.470000 0.591000 800 41 0.900000 1.206000 1.107000 600 47 1.000000 0.053000 0.053000 1.200000 0.047000 0.056000
1517599884700019939	1400 44 1.200000 0.386000 0.486000 800 41 0.900000 0.899000 0.825000 600 47 1.000000 0.053000 0.053000 1.200000 0.049000 0.059000
1517599885225264856	1400 45 1.200000 0.325000 0.411000 800 41 0.900000 0.964000 0.884000 600 47 1.000000 0.053000 0.053000 1.200000 0.042000 0.050000
1517599885780142939	1400 44 1.200000 0.468000 0.589000 800 41 0.900000 1.180000 1.083000 600 46 1.000000 0.053000 0.053000 1.200000 0.041000 0.049000
1517599886289791023	1400 43 1.200000 0.377000 0.476000 800 41 0.900000 1.246000 1.143000 600 47 1.000000 0.053000 0.053000 1.200000 0.049000 0.059000
1517599886802450231	1400 45 1.200000 0.284000 0.359000 800 42 0.900000 1.020000 0.936000 600 47 1.000000 0.053000 0.053000 1.200000 0.052000 0.062000
1517599887365204689	1400 45 1.200000 0.458000 0.577000 800 41 0.900000 0.848000 0.780000 600 47 1.000000 0.053000 0.053000 1.200000 0.041000 0.049000
1517599887924153981	1400 45 1.200000 0.489000 0.615000 800 41 0.900000 1.206000 1.107000 600 46 1.000000 0.053000 0.053000 1.200000 0.041000 0.049000
1517599888484087064	1400 44 1.200000 0.498000 0.626000 800 41 0.900000 1.197000 1.098000 600 47 1.000000 0.053000 0.053000 1.200000 0.041000 0.049000
1517599888992763440	1400 43 1.200000 0.451000 0.568000 800 41 0.900000 1.209000 1.109000 600 47 1.000000 0.053000 0.053000 1.200000 0.051000 0.061000
1517599889500941606	1400 45 1.200000 0.270000 0.341000 800 42 0.900000 0.891000 0.817000 600 47 1.000000 0.053000 0.053000 1.200000 0.045000 0.054000
1517599890059961231	1400 45 1.200000 0.377000 0.475000 800 42 0.900000 0.971000 0.893000 600 47 1.000000 0.053000 0.053000 1.200000 0.039000 0.047000
1517599890568400106	1400 45 1.200000 0.476000 0.599000 800 41 0.900000 1.139000 1.045000 600 47 1.000000 0.053000 0.053000 1.200000 0.041000 0.049000
1517599891077397523	1400 43 1.200000 0.479000 0.602000 800 41 0.900000 1.229000 1.128000 600 46 1.000000 0.053000 0.053000 1.200000 0.051000 0.061000
1517599891592506856	1400 45 1.200000 0.379000 0.478000 800 42 0.900000 0.947000 0.871000 600 47 1.000000 0.053000 0.053000 1.200000 0.045000 0.054000
1517599892148011898	1400 45 1.200000 0.313000 0.395000 800 41 0.900000 0.892000 0.820000 600 47 1.000000 0.053000 0.053000 1.200000 0.037000 0.044000
1517599892660237732	1400 45 1.200000 0.494000 0.620000 800 41 0.900000 1.209000 1.109000 600 47 1.000000 0.053000 0.053000 1.200000 0.042000 0.050000
1517599893168858315	1400 43 1.200000 0.402000 0.506000 800 41 0.900000 1.206000 1.107000 600 46 1.000000 0.053000 0.053000 1.200000 0.045000 0.054000
1517599893690219023	1400 45 1.200000 0.259000 0.327000 800 42 0.900000 1.016000 0.932000 600 47 1.000000 0.053000 0.053000 1.200000 0.048000 0.058000
1517599894243976148	1400 45 1.200000 0.437000 0.550000 800 42 0.900000 0.823000 0.757000 600 47 1.000000 0.053000 0.053000 1.200000 0.041000 0.049000
1517599894800125190	1400 44 1.200000 0.484000 0.608000 800 41 0.900000 1.126000 1.035000 600 47 1.000000 0.053000 0.053000 1.200000 0.037000 0.044000
1517599895348048065	1400 44 1.200000 0.497000 0.624000 800 41 0.900000 1.219000 1.119000 600 47 1.000000 0.053000 0.053000 1.200000 0.042000 0.050000
1517599895856698482	1400 43 1.200000 0.436000 0.549000 800 41 0.900000 1.189000 1.091000 600 46 1.000000 0.053000 0.053000 1.200000 0.038000 0.045000
1517599896364999690	1400 45 1.200000 0.302000 0.382000 800 42 0.900000 0.934000 0.857000 600 47 1.000000 0.053000 0.053000 1.200000 0.047000 0.056000
1517599896923988149	1400 45 1.200000 0.326000 0.411000 800 42 0.900000 0.872000 0.802000 600 47 1.000000 0.053000 0.053000 1.200000 0.042000 0.050000
1517599897476105316	1400 45 1.200000 0.492000 0.618000 800 41 0.900000 1.221000 1.120000 600 47 1.000000 0.053000 0.053000 1.200000 0.042000 0.050000
1517599898027946816	1400 44 1.200000 0.308000 0.389000 800 41 0.900000 0.863000 0.794000 600 47 1.000000 0.053000 0.053000 1.200000 0.040000 0.048000
1517599898536649649	1400 43 1.200000 0.495000 0.622000 800 41 0.900000 1.243000 1.141000 600 46 1.000000 0.053000 0.053000 1.200000 0.039000 0.047000
1517599899054284107	1400 45 1.200000 0.360000 0.454000 800 42 0.900000 1.184000 1.086000 600 47 1.000000 0.053000 0.053000 1.200000 0.049000 0.059000
1517599899611971316	1400 45 1.200000 0.283000 0.357000 800 41 0.900000 1.147000 1.052000 600 47 1.000000 0.053000 0.053000 1.200000 0.047000 0.056000
1517599900176042816	1400 45 1.200000 0.416000 0.524000 800 42 0.900000 0.877000 0.806000 600 46 1.000000 0.053000 0.053000 1.200000 0.043000 0.051000
1517599900724017941	1400 44 1.200000 0.485000 0.610000 800 41 0.900000 1.011000 0.930000 600 46 1.000000 0.053000 0.053000 1.200000 0.045000 0.054000
1517599901232929524	1400 44 1.200000 0.470000 0.591000 800 41 0.900000 1.152000 1.057000 600 47 1.000000 0.053000 0.053000 1.200000 0.046000 0.055000
1517599901773012441	1400 45 1.200000 0.360000 0.453000 800 42 0.900000 1.236000 1.134000 600 47 1.000000 0.053000 0.053000 1.200000 0.045000 0.054000
1517599902284008733	1400 45 1.200000 0.304000 0.383000 800 42 0.900000 0.907000 0.834000 600 47 1.000000 0.053000 0.053000 1.200000 0.047000 0.056000
1517599902840764149	1400 45 1.200000 0.386000 0.487000 800 41 0.900000 1.222000 1.121000 600 47 1.000000 0.053000 0.053000 1.200000 0.039000 0.047000
1517599903349805316	1400 43 1.200000 0.471000 0.592000 800 41 0.900000 1.164000 1.068000 600 46 1.000000 0.053000 0.053000 1.200000 0.042000 0.050000
1517599903872557608	1400 45 1.200000 0.449000 0.564000 800 42 0.900000 0.847000 0.779000 600 47 1.000000 0.053000 0.053000 1.200000 0.043000 0.051000
1517599904396642066	1400 45 1.200000 0.335000 0.422000 800 41 0.900000 0.993000 0.911000 600 47 1.000000 0.053000 0.053000 1.200000 0.049000 0.059000
1517599904924804316	1400 45 1.200000 0.478000 0.601000 800 41 0.900000 1.198000 1.099000 600 47 1.000000 0.053000 0.053000 1.200000 0.037000 0.044000
1517599905433556858	1400 44 1.200000 0.504000 0.634000 800 41 0.900000 1.155000 1.060000 600 46 1.000000 0.053000 0.053000 1.200000 0.039000 0.047000
1517599905941996317	1400 45 1.200000 0.335000 0.423000 800 42 0.900000 0.930000 0.855000 600 47 1.000000 0.053000 0.053000 1.200000 0.041000 0.049000
1517599906480058608	1400 45 1.200000 0.310000 0.392000 800 42 0.900000 0.919000 0.845000 600 47 1.000000 0.053000 0.053000 1.200000 0.048000 0.058000
1517599906990464525	1400 45 1.200000 0.437000 0.551000 800 42 0.900000 1.214000 1.114000 600 47 1.000000 0.053000 0.053000 1.200000 0.042000 0.050000
1517599907499250567	1400 44 1.200000 0.505000 0.635000 800 41 0.900000 1.073000 0.983000 600 46 1.000000 0.053000 0.053000 1.200000 0.037000 0.044000
1517599908007658192	1400 45 1.200000 0.485000 0.610000 800 42 0.900000 1.024000 0.940000 600 47 1.000000 0.053000 0.053000 1.200000 0.041000 0.049000
1517599908572055359	1400 44 1.200000 0.458000 0.577000 800 41 0.900000 1.212000 1.112000 600 46 1.000000 0.053000 0.053000 1.200000 0.043000 0.051000
1517599909080456734	1400 45 1.200000 0.314000 0.397000 800 41 0.900000 1.172000 1.078000 600 47 1.000000 0.053000 0.053000 1.200000 0.048000 0.057000
1517599909589373942	1400 43 1.200000 0.460000 0.579000 800 41 0.900000 1.123000 1.030000 600 45 1.000000 0.053000 0.053000 1.200000 0.038000 0.045000
1517599910151977609	1400 45 1.200000 0.321000 0.405000 800 42 0.900000 0.895000 0.823000 600 47 1.000000 0.053000 0.053000 1.200000 0.048000 0.058000
1517599910660379525	1400 45 1.200000 0.481000 0.605000 800 42 0.900000 0.872000 0.800000 600 47 1.000000 0.053000 0.053000 1.200000 0.043000 0.051000
1517599911215990025	1400 44 1.200000 0.423000 0.533000 800 41 0.900000 0.963000 0.885000 600 47 1.000000 0.053000 0.053000 1.200000 0.046000 0.055000
1517599911732658651	1400 44 1.200000 0.472000 0.593000 800 41 0.900000 1.196000 1.097000 600 46 1.000000 0.053000 0.053000 1.200000 0.041000 0.049000
1517599912240916109	1400 45 1.200000 0.463000 0.581000 800 42 0.900000 1.238000 1.136000 600 47 1.000000 0.053000 0.053000 1.200000 0.041000 0.049000
1517599912799984526	1400 45 1.200000 0.364000 0.460000 800 42 0.900000 0.902000 0.829000 600 47 1.000000 0.053000 0.053000 1.200000 0.038000 0.045000
1517599913314611776	1400 45 1.200000 0.323000 0.408000 800 42 0.900000 0.911000 0.838000 600 47 1.000000 0.053000 0.053000 1.200000 0.050000 0.060000
1517599913871980567	1400 44 1.200000 0.432000 0.544000 800 41 0.900000 1.206000 1.107000 600 47 1.000000 0.053000 0.053000 1.200000 0.042000 0.050000
1517599914380682443	1400 43 1.200000 0.482000 0.606000 800 41 0.900000 1.218000 1.118000 600 45 1.000000 0.053000 0.053000 1.200000 0.040000 0.048000
1517599914932126068	1400 45 1.200000 0.496000 0.623000 800 42 0.900000 1.204000 1.105000 600 46 1.000000 0.053000 0.053000 1.200000 0.039000 0.047000
1517599915454665443	1400 45 1.200000 0.376000 0.474000 800 42 0.900000 0.878000 0.807000 600 47 1.000000 0.053000 0.053000 1.200000 0.049000 0.059000
1517599916012044484	1400 44 1.200000 0.305000 0.385000 800 41 0.900000 1.020000 0.938000 600 47 1.000000 0.053000 0.053000 1.200000 0.046000 0.055000
1517599916551997318	1400 44 1.200000 0.403000 0.508000 800 41 0.900000 1.148000 1.053000 600 47 1.000000 0.053000 0.053000 1.200000 0.039000 0.047000
1517599917060791735	1400 43 1.200000 0.496000 0.623000 800 41 0.900000 1.238000 1.136000 600 46 1.000000 0.053000 0.053000 1.200000 0.039000 0.047000
1517599917599960735	1400 45 1.200000 0.295000 0.373000 800 42 0.900000 1.071000 0.983000 600 47 1.000000 0.053000 0.053000 1.200000 0.043000 0.051000
1517599918158984110	1400 45 1.200000 0.382000 0.482000 800 42 0.900000 0.839000 0.771000 600 47 1.000000 0.053000 0.053000 1.200000 0.046000 0.055000
1517599918714531401	1400 45 1.200000 0.494000 0.621000 800 41 0.900000 1.141000 1.049000 600 47 1.000000 0.053000 0.053000 1.200000 0.045000 0.054000
1517599919275954193	1400 44 1.200000 0.492000 0.618000 800 41 0.900000 1.237000 1.135000 600 47 1.000000 0.053000 0.053000 1.200000 0.040000 0.048000
1517599919785225735	1400 43 1.200000 0.453000 0.569000 800 41 0.900000 1.235000 1.133000 600 45 1.000000 0.053000 0.053000 1.200000 0.047000 0.056000
1517599920346210985	1400 45 1.200000 0.303000 0.382000 800 42 0.900000 0.923000 0.849000 600 47 1.000000 0.053000 0.053000 1.200000 0.046000 0.055000
1517599920900053693	1400 45 1.200000 0.289000 0.365000 800 41 0.900000 0.902000 0.828000 600 47 1.000000 0.053000 0.053000 1.200000 0.041000 0.049000
1517599921452011610	1400 45 1.200000 0.395000 0.498000 800 41 0.900000 1.074000 0.985000 600 47 1.000000 0.053000 0.053000 1.200000 0.038000 0.045000
1517599921962549860	1400 44 1.200000 0.470000 0.591000 800 41 0.900000 1.240000 1.138000 600 46 1.000000 0.053000 0.053000 1.200000 0.041000 0.049000
1517599922473061235	1400 43 1.200000 0.480000 0.603000 800 41 0.900000 1.191000 1.093000 600 46 1.000000 0.053000 0.053000 1.200000 0.048000 0.057000
1517599922984131152	1400 45 1.200000 0.442000 0.556000 800 42 0.900000 0.885000 0.814000 600 47 1.000000 0.053000 0.053000 1.200000 0.049000 0.059000
1517599923537006152	1400 45 1.200000 0.317000 0.400000 800 42 0.900000 0.816000 0.749000 600 47 1.000000 0.053000 0.053000 1.200000 0.040000 0.048000
1517599924045558819	1400 45 1.200000 0.476000 0.598000 800 41 0.900000 0.996000 0.914000 600 47 1.000000 0.053000 0.053000 1.200000 0.044000 0.053000
1517599924596033235	1400 44 1.200000 0.462000 0.581000 800 41 0.900000 1.170000 1.074000 600 46 1.000000 0.053000 0.053000 1.200000 0.040000 0.048000
1517599925155980319	1400 44 1.200000 0.418000 0.525000 800 41 0.900000 1.194000 1.096000 600 46 1.000000 0.053000 0.053000 1.200000 0.047000 0.056000
1517599925677181111	1400 43 1.200000 0.371000 0.468000 800 41 0.900000 1.112000 1.020000 600 45 1.000000 0.053000 0.053000 1.200000 0.050000 0.060000
1517599926200756736	1400 45 1.200000 0.315000 0.398000 800 42 0.900000 0.922000 0.848000 600 47 1.000000 0.053000 0.053000 1.200000 0.048000 0.057000
1517599926760057861	1400 45 1.200000 0.358000 0.452000 800 41 0.900000 0.815000 0.748000 600 47 1.000000 0.053000 0.053000 1.200000 0.042000 0.050000
1517599927300003027	1400 44 1.200000 0.272000 0.344000 800 41 0.900000 0.973000 0.895000 600 46 1.000000 0.053000 0.053000 1.200000 0.046000 0.055000
1517599927811376986	1400 45 1.200000 0.317000 0.400000 800 41 0.900000 0.841000 0.773000 600 47 1.000000 0.053000 0.053000 1.200000 0.039000 0.047000
1517599928326039111	1400 43 1.200000 0.498000 0.625000 800 41 0.900000 1.178000 1.081000 600 47 1.000000 0.053000 0.053000 1.200000 0.038000 0.045000
1517599928842886153	1400 45 1.200000 0.331000 0.419000 800 42 0.900000 0.860000 0.791000 600 47 1.000000 0.053000 0.053000 1.200000 0.042000 0.050000
1517599929351358486	1400 44 1.200000 0.318000 0.401000 800 41 0.900000 1.052000 0.967000 600 47 1.000000 0.053000 0.053000 1.200000 0.041000 0.049000
1517599929912038903	1400 44 1.200000 0.467000 0.587000 800 41 0.900000 1.215000 1.115000 600 47 1.000000 0.053000 0.053000 1.200000 0.039000 0.047000
1517599930420773444	1400 44 1.200000 0.455000 0.573000 800 41 0.900000 1.235000 1.133000 600 46 1.000000 0.053000 0.053000 1.200000 0.037000 0.044000
1517599930949320945	1400 45 1.200000 0.382000 0.482000 800 42 0.900000 0.886000 0.813000 600 47 1.000000 0.053000 0.053000 1.200000 0.041000 0.049000
1517599931512019653	1400 45 1.200000 0.485000 0.610000 800 42 0.900000 0.993000 0.913000 600 47 1.000000 0.053000 0.053000 1.200000 0.039000 0.047000
1517599932038637486	1400 45 1.200000 0.389000 0.490000 800 41 0.900000 0.851000 0.782000 600 47 1.000000 0.053000 0.053000 1.200000 0.041000 0.049000
1517599932547866320	1400 44 1.200000 0.488000 0.613000 800 41 0.900000 1.154000 1.061000 600 45 1.000000 0.053000 0.053000 1.200000 0.039000 0.047000
1517599933112006778	1400 45 1.200000 0.296000 0.374000 800 42 0.900000 0.964000 0.886000 600 46 1.000000 0.053000 0.053000 1.200000 0.044000 0.053000
1517599933627990945	1400 45 1.200000 0.384000 0.484000 800 41 0.900000 1.188000 1.090000 600 47 1.000000 0.053000 0.053000 1.200000 0.046000 0.055000
1517599934140201820	1400 44 1.200000 0.268000 0.339000 800 41 0.900000 0.940000 0.864000 600 47 1.000000 0.053000 0.053000 1.200000 0.040000 0.048000
1517599934648977945	1400 43 1.200000 0.489000 0.615000 800 41 0.900000 1.123000 1.033000 600 45 1.000000 0.053000 0.053000 1.200000 0.036000 0.043000
1517599935212067820	1400 44 1.200000 0.307000 0.388000 800 42 0.900000 0.948000 0.872000 600 47 1.000000 0.053000 0.053000 1.200000 0.045000 0.054000
1517599935735944987	1400 45 1.200000 0.427000 0.537000 800 41 0.900000 1.174000 1.077000 600 47 1.000000 0.053000 0.053000 1.200000 0.046000 0.055000
1517599936304170028	1400 44 1.200000 0.500000 0.629000 800 41 0.900000 0.891000 0.817000 600 46 1.000000 0.053000 0.053000 1.200000 0.046000 0.055000
1517599936822564112	1400 44 1.200000 0.482000 0.605000 800 41 0.900000 0.932000 0.857000 600 46 1.000000 0.053000 0.053000 1.200000 0.042000 0.050000
1517599937341902779	1400 44 1.200000 0.468000 0.588000 800 41 0.900000 1.188000 1.090000 600 46 1.000000 0.053000 0.053000 1.200000 0.037000 0.044000
1517599937880703237	1400 45 1.200000 0.349000 0.441000 800 42 0.900000 1.234000 1.132000 600 47 1.000000 0.053000 0.053000 1.200000 0.047000 0.056000
1517599938389004987	1400 45 1.200000 0.303000 0.383000 800 41 0.900000 1.057000 0.970000 600 47 1.000000 0.053000 0.053000 1.200000 0.049000 0.059000
1517599938948137195	1400 44 1.200000 0.490000 0.616000 800 41 0.900000 0.890000 0.819000 600 46 1.000000 0.053000 0.053000 1.200000 0.036000 0.043000
1517599939456901571	1400 43 1.200000 0.461000 0.579000 800 41 0.900000 1.256000 1.153000 600 46 1.000000 0.053000 0.053000 1.200000 0.038000 0.045000
1517599939975648446	1400 45 1.200000 0.474000 0.597000 800 42 0.900000 1.166000 1.072000 600 47 1.000000 0.053000 0.053000 1.200000 0.042000 0.050000
1517599940484088362	1400 45 1.200000 0.315000 0.398000 800 41 0.900000 1.009000 0.926000 600 47 1.000000 0.053000 0.053000 1.200000 0.052000 0.062000
1517599941048161446	1400 44 1.200000 0.341000 0.431000 800 41 0.900000 1.159000 1.063000 600 46 1.000000 0.053000 0.053000 1.200000 0.039000 0.047000
1517599941556774612	1400 43 1.200000 0.465000 0.584000 800 41 0.900000 1.208000 1.108000 600 47 1.000000 0.053000 0.053000 1.200000 0.037000 0.044000
1517599942065181487	1400 45 1.200000 0.484000 0.609000 800 42 0.900000 0.900000 0.828000 600 47 1.000000 0.053000 0.053000 1.200000 0.041000 0.049000
1517599942632004613	1400 45 1.200000 0.334000 0.422000 800 41 0.900000 0.962000 0.883000 600 46 1.000000 0.053000 0.053000 1.200000 0.053000 0.064000
1517599943140676404	1400 44 1.200000 0.493000 0.620000 800 41 0.900000 1.223000 1.122000 600 47 1.000000 0.053000 0.053000 1.200000 0.040000 0.048000
1517599943655804696	1400 43 1.200000 0.478000 0.601000 800 41 0.900000 1.151000 1.056000 600 45 1.000000 0.053000 0.053000 1.200000 0.039000 0.047000
1517599944203704029	1400 45 1.200000 0.486000 0.612000 800 41 0.900000 1.141000 1.047000 600 47 1.000000 0.053000 0.053000 1.200000 0.038000 0.045000
1517599944752021488	1400 44 1.200000 0.293000 0.370000 800 41 0.900000 0.912000 0.837000 600 46 1.000000 0.053000 0.053000 1.200000 0.049000 0.059000
1517599945260621196	1400 44 1.200000 0.283000 0.357000 800 41 0.900000 0.941000 0.865000 600 47 1.000000 0.053000 0.053000 1.200000 0.046000 0.055000
1517599945791864988	1400 45 1.200000 0.411000 0.518000 800 41 0.900000 1.195000 1.097000 600 46 1.000000 0.053000 0.053000 1.200000 0.042000 0.050000
1517599946300661405	1400 44 1.200000 0.444000 0.558000 800 41 0.900000 1.199000 1.100000 600 46 1.000000 0.053000 0.053000 1.200000 0.040000 0.048000
1517599946811697988	1400 45 1.200000 0.503000 0.632000 800 41 0.900000 1.227000 1.126000 600 46 1.000000 0.053000 0.053000 1.200000 0.042000 0.050000
1517599947334593530	1400 45 1.200000 0.463000 0.583000 800 41 0.900000 0.974000 0.896000 600 47 1.000000 0.053000 0.053000 1.200000 0.041000 0.049000
1517599947859877447	1400 45 1.200000 0.435000 0.547000 800 41 0.900000 0.840000 0.773000 600 47 1.000000 0.053000 0.053000 1.200000 0.047000 0.056000
1517599948368322530	1400 45 1.200000 0.283000 0.357000 800 41 0.900000 0.932000 0.857000 600 47 1.000000 0.053000 0.053000 1.200000 0.048000 0.058000
1517599948882220155	1400 44 1.200000 0.491000 0.617000 800 41 0.900000 1.213000 1.113000 600 46 1.000000 0.053000 0.053000 1.200000 0.047000 0.056000
1517599949392127447	1400 45 1.200000 0.268000 0.339000 800 41 0.900000 0.855000 0.786000 600 47 1.000000 0.053000 0.053000 1.200000 0.047000 0.056000
1517599949940018863	1400 44 1.200000 0.413000 0.521000 800 41 0.900000 1.013000 0.929000 600 46 1.000000 0.053000 0.053000 1.200000 0.047000 0.056000
1517599950464109488	1400 45 1.200000 0.505000 0.635000 800 41 0.900000 1.192000 1.096000 600 47 1.000000 0.053000 0.053000 1.200000 0.043000 0.051000
1517599951016178697	1400 44 1.200000 0.507000 0.637000 800 41 0.900000 1.221000 1.120000 600 46 1.000000 0.053000 0.053000 1.200000 0.045000 0.054000
1517599951524990072	1400 43 1.200000 0.348000 0.439000 800 41 0.900000 0.925000 0.851000 600 47 1.000000 0.053000 0.053000 1.200000 0.042000 0.050000
1517599952050252655	1400 45 1.200000 0.324000 0.410000 800 41 0.900000 0.894000 0.822000 600 47 1.000000 0.053000 0.053000 1.200000 0.049000 0.059000
1517599952608106364	1400 44 1.200000 0.439000 0.553000 800 41 0.900000 1.219000 1.119000 600 46 1.000000 0.053000 0.053000 1.200000 0.042000 0.050000
1517599953117251447	1400 45 1.200000 0.272000 0.343000 800 41 0.900000 0.989000 0.909000 600 47 1.000000 0.053000 0.053000 1.200000 0.048000 0.057000
1517599953626424114	1400 44 1.200000 0.501000 0.630000 800 41 0.900000 1.213000 1.113000 600 45 1.000000 0.053000 0.053000 1.200000 0.041000 0.049000
1517599954176199281	1400 44 1.200000 0.346000 0.436000 800 41 0.900000 0.873000 0.804000 600 46 1.000000 0.053000 0.053000 1.200000 0.048000 0.057000
1517599954690475989	1400 45 1.200000 0.304000 0.384000 800 41 0.900000 1.130000 1.039000 600 47 1.000000 0.053000 0.053000 1.200000 0.050000 0.060000
1517599955198823031	1400 45 1.200000 0.432000 0.544000 800 41 0.900000 1.175000 1.078000 600 47 1.000000 0.053000 0.053000 1.200000 0.042000 0.050000
1517599955716201447	1400 44 1.200000 0.314000 0.396000 800 41 0.900000 1.230000 1.129000 600 45 1.000000 0.053000 0.053000 1.200000 0.041000 0.049000
1517599956227537281	1400 45 1.200000 0.301000 0.380000 800 41 0.900000 0.893000 0.821000 600 47 1.000000 0.053000 0.053000 1.200000 0.044000 0.053000
1517599956757174073	1400 45 1.200000 0.418000 0.527000 800 41 0.900000 0.939000 0.863000 600 47 1.000000 0.053000 0.053000 1.200000 0.047000 0.056000
1517599957265452864	1400 45 1.200000 0.503000 0.632000 800 41 0.900000 1.180000 1.083000 600 46 1.000000 0.053000 0.053000 1.200000 0.042000 0.050000
1517599957774337156	1400 42 1.200000 0.462000 0.581000 800 41 0.900000 1.229000 1.128000 600 46 1.000000 0.053000 0.053000 1.200000 0.037000 0.044000
1517599958332072364	1400 45 1.200000 0.343000 0.432000 800 41 0.900000 1.009000 0.928000 600 47 1.000000 0.053000 0.053000 1.200000 0.039000 0.047000
1517599958840929739	1400 45 1.200000 0.277000 0.349000 800 41 0.900000 0.784000 0.722000 600 46 1.000000 0.053000 0.053000 1.200000 0.047000 0.056000
1517599959404011073	1400 44 1.200000 0.422000 0.531000 800 41 0.900000 1.210000 1.110000 600 46 1.000000 0.053000 0.053000 1.200000 0.044000 0.053000
1517599959920871990	1400 43 1.200000 0.476000 0.598000 800 41 0.900000 1.176000 1.079000 600 46 1.000000 0.053000 0.053000 1.200000 0.045000 0.054000
1517599960451460948	1400 45 1.200000 0.471000 0.592000 800 41 0.900000 1.131000 1.038000 600 47 1.000000 0.053000 0.053000 1.200000 0.047000 0.056000
1517599961008042823	1400 45 1.200000 0.262000 0.330000 800 41 0.900000 0.985000 0.904000 600 46 1.000000 0.053000 0.053000 1.200000 0.038000 0.045000
1517599961516205240	1400 45 1.200000 0.331000 0.416000 800 41 0.900000 1.099000 1.008000 600 46 1.000000 0.053000 0.053000 1.200000 0.045000 0.054000
1517599962031990948	1400 44 1.200000 0.461000 0.579000 800 41 0.900000 1.226000 1.125000 600 46 1.000000 0.053000 0.053000 1.200000 0.043000 0.051000
1517599962540811907	1400 44 1.200000 0.324000 0.409000 800 41 0.900000 1.233000 1.131000 600 46 1.000000 0.053000 0.053000 1.200000 0.049000 0.059000
1517599963096012448	1400 45 1.200000 0.320000 0.404000 800 41 0.900000 0.884000 0.813000 600 46 1.000000 0.053000 0.053000 1.200000 0.040000 0.048000
1517599963604595448	1400 44 1.200000 0.508000 0.638000 800 41 0.900000 1.034000 0.951000 600 47 1.000000 0.053000 0.053000 1.200000 0.045000 0.054000
1517599964164027407	1400 44 1.200000 0.445000 0.560000 800 41 0.900000 1.150000 1.055000 600 47 1.000000 0.053000 0.053000 1.200000 0.041000 0.049000
1517599964672885699	1400 44 1.200000 0.458000 0.576000 800 41 0.900000 1.222000 1.121000 600 45 1.000000 0.053000 0.053000 1.200000 0.050000 0.060000
1517599965183478949	1400 45 1.200000 0.326000 0.412000 800 41 0.900000 0.962000 0.885000 600 47 1.000000 0.053000 0.053000 1.200000 0.043000 0.051000
1517599965701579199	1400 45 1.200000 0.336000 0.424000 800 41 0.900000 0.924000 0.850000 600 47 1.000000 0.053000 0.053000 1.200000 0.045000 0.054000
1517599966263996240	1400 44 1.200000 0.462000 0.581000 800 41 0.900000 1.182000 1.085000 600 46 1.000000 0.053000 0.053000 1.200000 0.038000 0.045000
1517599966772986949	1400 44 1.200000 0.482000 0.606000 800 41 0.900000 1.206000 1.107000 600 45 1.000000 0.053000 0.053000 1.200000 0.050000 0.060000
1517599967332024074	1400 45 1.200000 0.417000 0.524000 800 41 0.900000 1.126000 1.032000 600 46 1.000000 0.053000 0.053000 1.200000 0.047000 0.056000
1517599967892016449	1400 44 1.200000 0.348000 0.437000 800 41 0.900000 0.953000 0.876000 600 46 1.000000 0.053000 0.053000 1.200000 0.045000 0.054000
1517599968431811449	1400 45 1.200000 0.461000 0.579000 800 41 0.900000 0.965000 0.887000 600 46 1.000000 0.053000 0.053000 1.200000 0.037000 0.044000
1517599968963328407	1400 45 1.200000 0.498000 0.626000 800 41 0.900000 0.877000 0.806000 600 46 1.000000 0.053000 0.053000 1.200000 0.043000 0.051000
1517599969508583782	1400 44 1.200000 0.470000 0.592000 800 41 0.900000 0.843000 0.775000 600 46 1.000000 0.053000 0.053000 1.200000 0.046000 0.055000
1517599970026927991	1400 44 1.200000 0.482000 0.606000 800 41 0.900000 1.012000 0.931000 600 45 1.000000 0.053000 0.053000 1.200000 0.040000 0.048000
1517599970535463908	1400 43 1.200000 0.453000 0.569000 800 41 0.900000 1.202000 1.103000 600 47 1.000000 0.053000 0.053000 1.200000 0.040000 0.048000
1517599971046619699	1400 45 1.200000 0.300000 0.379000 800 41 0.900000 0.877000 0.806000 600 47 1.000000 0.053000 0.053000 1.200000 0.042000 0.050000
1517599971577640033	1400 45 1.200000 0.389000 0.490000 800 41 0.900000 0.869000 0.799000 600 46 1.000000 0.053000 0.053000 1.200000 0.042000 0.050000
1517599972114855408	1400 44 1.200000 0.481000 0.604000 800 41 0.900000 1.090000 1.002000 600 46 1.000000 0.053000 0.053000 1.200000 0.043000 0.051000
1517599972650993408	1400 44 1.200000 0.478000 0.601000 800 41 0.900000 1.202000 1.103000 600 46 1.000000 0.053000 0.053000 1.200000 0.041000 0.049000
1517599973159647075	1400 43 1.200000 0.494000 0.621000 800 41 0.900000 1.170000 1.074000 600 45 1.000000 0.053000 0.053000 1.200000 0.049000 0.059000
1517599973686057533	1400 45 1.200000 0.394000 0.495000 800 41 0.900000 1.100000 1.009000 600 46 1.000000 0.053000 0.053000 1.200000 0.047000 0.056000
1517599974240028116	1400 44 1.200000 0.480000 0.603000 800 41 0.900000 0.902000 0.828000 600 47 1.000000 0.053000 0.053000 1.200000 0.044000 0.053000
1517599974748897616	1400 45 1.200000 0.324000 0.409000 800 41 0.900000 1.154000 1.059000 600 46 1.000000 0.053000 0.053000 1.200000 0.048000 0.057000
1517599975300245825	1400 44 1.200000 0.411000 0.517000 800 41 0.900000 1.172000 1.075000 600 46 1.000000 0.053000 0.053000 1.200000 0.040000 0.048000
1517599975809046742	1400 42 1.200000 0.505000 0.634000 800 41 0.900000 0.982000 0.901000 600 45 1.000000 0.053000 0.053000 1.200000 0.046000 0.055000
1517599976355988200	1400 45 1.200000 0.286000 0.361000 800 41 0.900000 1.040000 0.953000 600 46 1.000000 0.053000 0.053000 1.200000 0.048000 0.057000
1517599976873753325	1400 45 1.200000 0.336000 0.424000 800 41 0.900000 1.231000 1.130000 600 46 1.000000 0.053000 0.053000 1.200000 0.048000 0.057000
1517599977432130617	1400 44 1.200000 0.497000 0.624000 800 41 0.900000 1.008000 0.925000 600 46 1.000000 0.053000 0.053000 1.200000 0.041000 0.049000
1517599977972056658	1400 44 1.200000 0.438000 0.552000 800 41 0.900000 1.209000 1.109000 600 46 1.000000 0.053000 0.053000 1.200000 0.046000 0.055000
1517599978480868742	1400 44 1.200000 0.452000 0.568000 800 41 0.900000 1.188000 1.090000 600 47 1.000000 0.053000 0.053000 1.200000 0.041000 0.049000
1517599979034547617	1400 45 1.200000 0.448000 0.563000 800 41 0.900000 0.920000 0.844000 600 46 1.000000 0.053000 0.053000 1.200000 0.046000 0.055000
1517599979584049034	1400 44 1.200000 0.309000 0.389000 800 41 0.900000 0.931000 0.856000 600 46 1.000000 0.053000 0.053000 1.200000 0.048000 0.057000
1517599980140095700	1400 44 1.200000 0.261000 0.330000 800 41 0.900000 1.209000 1.109000 600 46 1.000000 0.053000 0.053000 1.200000 0.039000 0.047000
1517599980648918950	1400 44 1.200000 0.428000 0.538000 800 41 0.900000 1.247000 1.144000 600 45 1.000000 0.053000 0.053000 1.200000 0.039000 0.047000
1517599981163050992	1400 44 1.200000 0.278000 0.351000 800 41 0.900000 0.878000 0.807000 600 46 1.000000 0.053000 0.053000 1.200000 0.045000 0.054000
1517599981728243534	1400 45 1.200000 0.313000 0.395000 800 41 0.900000 0.873000 0.803000 600 46 1.000000 0.053000 0.053000 1.200000 0.046000 0.055000
1517599982240734617	1400 44 1.200000 0.491000 0.617000 800 41 0.900000 1.145000 1.051000 600 46 1.000000 0.053000 0.053000 1.200000 0.041000 0.049000
1517599982749740117	1400 42 1.200000 0.454000 0.571000 800 41 0.900000 1.205000 1.106000 600 46 1.000000 0.053000 0.053000 1.200000 0.039000 0.047000
1517599983257919867	1400 45 1.200000 0.427000 0.537000 800 41 0.900000 0.981000 0.902000 600 47 1.000000 0.053000 0.053000 1.200000 0.039000 0.047000
1517599983800207867	1400 44 1.200000 0.315000 0.398000 800 41 0.900000 0.879000 0.808000 600 46 1.000000 0.053000 0.053000 1.200000 0.048000 0.057000
1517599984315139743	1400 44 1.200000 0.379000 0.478000 800 41 0.900000 1.149000 1.054000 600 46 1.000000 0.053000 0.053000 1.200000 0.041000 0.049000
1517599984823987034	1400 43 1.200000 0.478000 0.601000 800 41 0.900000 1.164000 1.068000 600 45 1.000000 0.053000 0.053000 1.200000 0.040000 0.048000
1517599985332397034	1400 45 1.200000 0.443000 0.557000 800 41 0.900000 1.120000 1.028000 600 46 1.000000 0.053000 0.053000 1.200000 0.039000 0.047000
1517599985868510326	1400 45 1.200000 0.429000 0.540000 800 41 0.900000 0.865000 0.795000 600 46 1.000000 0.053000 0.053000 1.200000 0.047000 0.056000
1517599986403376451	1400 44 1.200000 0.317000 0.401000 800 41 0.900000 1.154000 1.059000 600 47 1.000000 0.053000 0.053000 1.200000 0.042000 0.050000
1517599986912080160	1400 42 1.200000 0.503000 0.632000 800 41 0.900000 1.197000 1.098000 600 46 1.000000 0.053000 0.053000 1.200000 0.039000 0.047000
1517599987420297076	1400 45 1.200000 0.400000 0.504000 800 41 0.900000 1.195000 1.097000 600 47 1.000000 0.053000 0.053000 1.200000 0.037000 0.044000
1517599987932078993	1400 44 1.200000 0.445000 0.560000 800 41 0.900000 1.228000 1.127000 600 46 1.000000 0.053000 0.053000 1.200000 0.043000 0.051000
1517599988492106660	1400 44 1.200000 0.492000 0.618000 800 41 0.900000 1.134000 1.041000 600 46 1.000000 0.053000 0.053000 1.200000 0.044000 0.053000
1517599989000725243	1400 42 1.200000 0.452000 0.568000 800 41 0.900000 1.243000 1.141000 600 45 1.000000 0.053000 0.053000 1.200000 0.038000 0.045000
1517599989511466660	1400 45 1.200000 0.268000 0.339000 800 41 0.900000 0.895000 0.823000 600 47 1.000000 0.053000 0.053000 1.200000 0.049000 0.059000
1517599990079954785	1400 44 1.200000 0.433000 0.546000 800 41 0.900000 1.218000 1.118000 600 47 1.000000 0.053000 0.053000 1.200000 0.043000 0.051000
1517599990643999535	1400 44 1.200000 0.292000 0.368000 800 41 0.900000 0.903000 0.830000 600 46 1.000000 0.053000 0.053000 1.200000 0.046000 0.055000
1517599991207911077	1400 44 1.200000 0.366000 0.461000 800 41 0.900000 1.231000 1.130000 600 46 1.000000 0.053000 0.053000 1.200000 0.042000 0.050000
1517599991716679327	1400 42 1.200000 0.493000 0.620000 800 41 0.900000 1.151000 1.056000 600 46 1.000000 0.053000 0.053000 1.200000 0.040000 0.048000
1517599992268021077	1400 44 1.200000 0.445000 0.559000 800 41 0.900000 1.253000 1.150000 600 46 1.000000 0.053000 0.053000 1.200000 0.043000 0.051000
1517599992824078369	1400 44 1.200000 0.411000 0.517000 800 41 0.900000 0.924000 0.850000 600 46 1.000000 0.053000 0.053000 1.200000 0.046000 0.055000
1517599993383810577	1400 44 1.200000 0.513000 0.645000 800 41 0.900000 0.875000 0.805000 600 46 1.000000 0.053000 0.053000 1.200000 0.047000 0.056000
1517599993934494577	1400 44 1.200000 0.488000 0.613000 800 41 0.900000 1.222000 1.121000 600 46 1.000000 0.053000 0.053000 1.200000 0.042000 0.050000
1517599994486915869	1400 44 1.200000 0.487000 0.612000 800 41 0.900000 1.206000 1.107000 600 46 1.000000 0.053000 0.053000 1.200000 0.042000 0.050000
1517599994994798910	1400 43 1.200000 0.444000 0.559000 800 40 0.900000 1.232000 1.130000 600 46 1.000000 0.053000 0.053000 1.200000 0.040000 0.048000
1517599995503610244	1400 45 1.200000 0.328000 0.414000 800 41 0.900000 1.013000 0.931000 600 46 1.000000 0.053000 0.053000 1.200000 0.040000 0.048000
1517599996043754411	1400 44 1.200000 0.297000 0.375000 800 41 0.900000 0.905000 0.830000 600 46 1.000000 0.053000 0.053000 1.200000 0.047000 0.056000
1517599996592141911	1400 44 1.200000 0.324000 0.409000 800 41 0.900000 0.975000 0.895000 600 46 1.000000 0.053000 0.053000 1.200000 0.054000 0.065000
1517599997123295369	1400 44 1.200000 0.469000 0.590000 800 41 0.900000 1.221000 1.120000 600 46 1.000000 0.053000 0.053000 1.200000 0.044000 0.053000
1517599997666310202	1400 44 1.200000 0.481000 0.605000 800 41 0.900000 1.214000 1.114000 600 46 1.000000 0.053000 0.053000 1.200000 0.039000 0.047000
1517599998174970328	1400 43 1.200000 0.488000 0.613000 800 41 0.900000 1.178000 1.081000 600 45 1.000000 0.053000 0.053000 1.200000 0.039000 0.047000
1517599998724017578	1400 44 1.200000 0.472000 0.593000 800 41 0.900000 1.021000 0.937000 600 46 1.000000 0.053000 0.053000 1.200000 0.052000 0.062000
1517599999272080369	1400 44 1.200000 0.334000 0.422000 800 41 0.900000 0.824000 0.758000 600 46 1.000000 0.053000 0.053000 1.200000 0.048000 0.058000
1517599999796609953	1400 44 1.200000 0.463000 0.582000 800 41 0.900000 1.201000 1.102000 600 46 1.000000 0.053000 0.053000 1.200000 0.044000 0.053000
1517600000348678619	1400 44 1.200000 0.481000 0.605000 800 41 0.900000 1.172000 1.075000 600 46 1.000000 0.053000 0.053000 1.200000 0.045000 0.054000
1517600000858576370	1400 44 1.200000 0.277000 0.349000 800 41 0.900000 1.236000 1.134000 600 45 1.000000 0.053000 0.053000 1.200000 0.049000 0.059000
1517600001382477328	1400 45 1.200000 0.312000 0.394000 800 41 0.900000 0.870000 0.798000 600 46 1.000000 0.053000 0.053000 1.200000 0.042000 0.050000
1517600001891607703	1400 44 1.200000 0.498000 0.626000 800 41 0.900000 1.049000 0.965000 600 46 1.000000 0.053000 0.053000 1.200000 0.040000 0.048000
1517600002458895078	1400 44 1.200000 0.447000 0.562000 800 41 0.900000 1.174000 1.077000 600 46 1.000000 0.053000 0.053000 1.200000 0.042000 0.050000
1517600002967871536	1400 42 1.200000 0.465000 0.584000 800 41 0.900000 1.198000 1.099000 600 45 1.000000 0.053000 0.053000 1.200000 0.052000 0.062000
1517600003476109328	1400 45 1.200000 0.288000 0.364000 800 41 0.900000 0.912000 0.839000 600 46 1.000000 0.053000 0.053000 1.200000 0.043000 0.051000
1517600003995852495	1400 44 1.200000 0.354000 0.447000 800 41 0.900000 0.941000 0.865000 600 46 1.000000 0.053000 0.053000 1.200000 0.040000 0.048000
1517600004556013828	1400 44 1.200000 0.451000 0.567000 800 41 0.900000 1.157000 1.062000 600 46 1.000000 0.053000 0.053000 1.200000 0.040000 0.048000
1517600005064993995	1400 44 1.200000 0.480000 0.603000 800 41 0.900000 1.243000 1.141000 600 45 1.000000 0.053000 0.053000 1.200000 0.052000 0.062000
1517600005583707453	1400 45 1.200000 0.416000 0.523000 800 41 0.900000 1.040000 0.954000 600 46 1.000000 0.053000 0.053000 1.200000 0.042000 0.050000
1517600006096049453	1400 44 1.200000 0.468000 0.588000 800 41 0.900000 0.880000 0.810000 600 46 1.000000 0.053000 0.053000 1.200000 0.040000 0.048000
1517600006664069787	1400 44 1.200000 0.440000 0.553000 800 41 0.900000 1.220000 1.119000 600 46 1.000000 0.053000 0.053000 1.200000 0.037000 0.044000
1517600007172941912	1400 44 1.200000 0.389000 0.490000 800 41 0.900000 1.222000 1.121000 600 45 1.000000 0.053000 0.053000 1.200000 0.050000 0.060000
1517600007681216995	1400 44 1.200000 0.290000 0.366000 800 41 0.900000 0.982000 0.901000 600 46 1.000000 0.053000 0.053000 1.200000 0.045000 0.054000
1517600008194023412	1400 44 1.200000 0.426000 0.537000 800 41 0.900000 0.837000 0.770000 600 46 1.000000 0.053000 0.053000 1.200000 0.039000 0.047000
1517600008727993870	1400 44 1.200000 0.497000 0.624000 800 41 0.900000 1.211000 1.111000 600 46 1.000000 0.053000 0.053000 1.200000 0.041000 0.049000
1517600009236845287	1400 44 1.200000 0.477000 0.599000 800 41 0.900000 1.243000 1.143000 600 45 1.000000 0.053000 0.053000 1.200000 0.049000 0.059000
1517600009765286121	1400 45 1.200000 0.279000 0.352000 800 41 0.900000 1.073000 0.985000 600 46 1.000000 0.053000 0.053000 1.200000 0.048000 0.057000
1517600010304145246	1400 44 1.200000 0.311000 0.393000 800 41 0.900000 0.864000 0.794000 600 46 1.000000 0.053000 0.053000 1.200000 0.038000 0.045000
1517600010834927412	1400 44 1.200000 0.500000 0.629000 800 41 0.900000 1.138000 1.046000 600 46 1.000000 0.053000 0.053000 1.200000 0.042000 0.050000
1517600011343393329	1400 42 1.200000 0.452000 0.568000 800 41 0.900000 1.204000 1.105000 600 46 1.000000 0.053000 0.053000 1.200000 0.049000 0.059000
1517600011854553037	1400 44 1.200000 0.459000 0.577000 800 41 0.900000 1.123000 1.030000 600 46 1.000000 0.053000 0.053000 1.200000 0.048000 0.057000
1517600012412004663	1400 44 1.200000 0.480000 0.603000 800 41 0.900000 0.837000 0.770000 600 47 1.000000 0.053000 0.053000 1.200000 0.040000 0.048000
1517600012924011621	1400 44 1.200000 0.477000 0.600000 800 41 0.900000 0.983000 0.904000 600 46 1.000000 0.053000 0.053000 1.200000 0.039000 0.047000
1517600013441916288	1400 42 1.200000 0.437000 0.549000 800 41 0.900000 1.236000 1.134000 600 45 1.000000 0.053000 0.053000 1.200000 0.045000 0.054000
1517600013950313038	1400 44 1.200000 0.301000 0.380000 800 41 0.900000 1.199000 1.100000 600 46 1.000000 0.053000 0.053000 1.200000 0.047000 0.056000
1517600014495480246	1400 44 1.200000 0.345000 0.435000 800 41 0.900000 0.895000 0.821000 600 46 1.000000 0.053000 0.053000 1.200000 0.043000 0.051000
1517600015054451121	1400 44 1.200000 0.469000 0.590000 800 41 0.900000 0.875000 0.805000 600 46 1.000000 0.053000 0.053000 1.200000 0.042000 0.050000
1517600015601474330	1400 44 1.200000 0.511000 0.642000 800 41 0.900000 1.236000 1.134000 600 46 1.000000 0.053000 0.053000 1.200000 0.038000 0.045000
1517600016111706121	1400 43 1.200000 0.500000 0.629000 800 40 0.900000 0.882000 0.811000 600 45 1.000000 0.053000 0.053000 1.200000 0.046000 0.055000
1517600016620392246	1400 44 1.200000 0.460000 0.579000 800 41 0.900000 0.857000 0.788000 600 46 1.000000 0.053000 0.053000 1.200000 0.048000 0.057000
1517600017174964580	1400 44 1.200000 0.294000 0.371000 800 41 0.900000 0.939000 0.863000 600 46 1.000000 0.053000 0.053000 1.200000 0.049000 0.059000
1517600017696755205	1400 44 1.200000 0.305000 0.385000 800 41 0.900000 1.096000 1.005000 600 46 1.000000 0.053000 0.053000 1.200000 0.042000 0.050000
1517600018209417288	1400 44 1.200000 0.332000 0.419000 800 41 0.900000 1.175000 1.078000 600 46 1.000000 0.053000 0.053000 1.200000 0.041000 0.049000
1517600018717757955	1400 44 1.200000 0.477000 0.600000 800 41 0.900000 1.230000 1.129000 600 46 1.000000 0.053000 0.053000 1.200000 0.041000 0.049000
1517600019231764872	1400 43 1.200000 0.372000 0.468000 800 40 0.900000 1.124000 1.031000 600 45 1.000000 0.053000 0.053000 1.200000 0.042000 0.050000
1517600019740323997	1400 43 1.200000 0.324000 0.409000 800 41 0.900000 0.879000 0.808000 600 45 1.000000 0.053000 0.053000 1.200000 0.046000 0.055000
1517600020248474913	1400 45 1.200000 0.282000 0.356000 800 41 0.900000 0.897000 0.825000 600 46 1.000000 0.053000 0.053000 1.200000 0.050000 0.060000
1517600020756967622	1400 45 1.200000 0.315000 0.398000 800 41 0.900000 0.915000 0.841000 600 46 1.000000 0.053000 0.053000 1.200000 0.050000 0.060000
1517600021279908955	1400 44 1.200000 0.338000 0.426000 800 41 0.900000 1.179000 1.082000 600 46 1.000000 0.053000 0.053000 1.200000 0.043000 0.051000
1517600021814818122	1400 44 1.200000 0.423000 0.532000 800 41 0.900000 1.202000 1.103000 600 46 1.000000 0.053000 0.053000 1.200000 0.040000 0.048000
1517600022324142289	1400 44 1.200000 0.487000 0.612000 800 40 0.900000 1.172000 1.075000 600 46 1.000000 0.053000 0.053000 1.200000 0.039000 0.047000
1517600022838422372	1400 43 1.200000 0.480000 0.603000 800 41 0.900000 1.162000 1.066000 600 45 1.000000 0.053000 0.053000 1.200000 0.040000 0.048000
1517600023350938206	1400 45 1.200000 0.508000 0.638000 800 41 0.900000 0.992000 0.912000 600 46 1.000000 0.053000 0.053000 1.200000 0.046000 0.055000
1517600023904069997	1400 44 1.200000 0.429000 0.540000 800 41 0.900000 0.848000 0.780000 600 46 1.000000 0.053000 0.053000 1.200000 0.049000 0.059000
1517600024456193039	1400 44 1.200000 0.316000 0.397000 800 41 0.900000 1.138000 1.046000 600 46 1.000000 0.053000 0.053000 1.200000 0.046000 0.055000
1517600024968153164	1400 44 1.200000 0.456000 0.573000 800 41 0.900000 1.235000 1.133000 600 46 1.000000 0.053000 0.053000 1.200000 0.041000 0.049000
1517600025476868247	1400 43 1.200000 0.406000 0.510000 800 41 0.900000 1.239000 1.137000 600 47 1.000000 0.053000 0.053000 1.200000 0.046000 0.055000
1517600026025348664	1400 44 1.200000 0.291000 0.368000 800 41 0.900000 0.946000 0.870000 600 47 1.000000 0.053000 0.053000 1.200000 0.043000 0.051000
1517600026584011123	1400 44 1.200000 0.318000 0.402000 800 41 0.900000 0.849000 0.781000 600 46 1.000000 0.053000 0.053000 1.200000 0.049000 0.059000
1517600027093105373	1400 44 1.200000 0.462000 0.582000 800 41 0.900000 1.205000 1.106000 600 46 1.000000 0.053000 0.053000 1.200000 0.041000 0.049000
1517600027601896248	1400 42 1.200000 0.507000 0.637000 800 41 0.900000 1.105000 1.014000 600 46 1.000000 0.053000 0.053000 1.200000 0.048000 0.057000
1517600028155047498	1400 44 1.200000 0.485000 0.610000 800 41 0.900000 1.176000 1.079000 600 47 1.000000 0.053000 0.053000 1.200000 0.040000 0.048000
1517600028716034539	1400 44 1.200000 0.308000 0.388000 800 41 0.900000 0.957000 0.877000 600 46 1.000000 0.053000 0.053000 1.200000 0.045000 0.054000
1517600029283948123	1400 44 1.200000 0.259000 0.326000 800 41 0.900000 0.972000 0.894000 600 46 1.000000 0.053000 0.053000 1.200000 0.050000 0.060000
1517600029840386915	1400 44 1.200000 0.397000 0.501000 800 41 0.900000 1.171000 1.074000 600 46 1.000000 0.053000 0.053000 1.200000 0.044000 0.053000
1517600030384182498	1400 44 1.200000 0.480000 0.603000 800 41 0.900000 1.150000 1.055000 600 46 1.000000 0.053000 0.053000 1.200000 0.038000 0.045000
1517600030892981873	1400 43 1.200000 0.469000 0.593000 800 41 0.900000 1.136000 1.042000 600 45 1.000000 0.053000 0.053000 1.200000 0.039000 0.047000
1517600031434676831	1400 45 1.200000 0.323000 0.408000 800 41 0.900000 0.892000 0.820000 600 47 1.000000 0.053000 0.053000 1.200000 0.048000 0.057000
1517600031956573040	1400 44 1.200000 0.475000 0.598000 800 41 0.900000 1.125000 1.032000 600 46 1.000000 0.053000 0.053000 1.200000 0.048000 0.058000
1517600032498884707	1400 44 1.200000 0.437000 0.549000 800 41 0.900000 1.234000 1.132000 600 46 1.000000 0.053000 0.053000 1.200000 0.041000 0.049000
1517600033007687998	1400 42 1.200000 0.439000 0.553000 800 41 0.900000 1.154000 1.059000 600 45 1.000000 0.053000 0.053000 1.200000 0.039000 0.047000
1517600033544106373	1400 44 1.200000 0.320000 0.404000 800 41 0.900000 0.870000 0.800000 600 46 1.000000 0.053000 0.053000 1.200000 0.047000 0.056000
1517600034068154332	1400 45 1.200000 0.349000 0.440000 800 41 0.900000 0.976000 0.895000 600 47 1.000000 0.053000 0.053000 1.200000 0.054000 0.065000
1517600034632061540	1400 44 1.200000 0.451000 0.567000 800 41 0.900000 1.148000 1.053000 600 46 1.000000 0.053000 0.053000 1.200000 0.042000 0.050000
1517600035140896374	1400 44 1.200000 0.497000 0.625000 800 41 0.900000 1.231000 1.132000 600 46 1.000000 0.053000 0.053000 1.200000 0.042000 0.050000
1517600035649886707	1400 44 1.200000 0.463000 0.583000 800 41 0.900000 1.077000 0.990000 600 46 1.000000 0.053000 0.053000 1.200000 0.039000 0.047000
1517600036208003957	1400 44 1.200000 0.296000 0.374000 800 41 0.900000 0.987000 0.905000 600 46 1.000000 0.053000 0.053000 1.200000 0.049000 0.059000
1517600036768073915	1400 44 1.200000 0.308000 0.389000 800 41 0.900000 1.067000 0.981000 600 46 1.000000 0.053000 0.053000 1.200000 0.045000 0.054000
1517600037279112582	1400 44 1.200000 0.467000 0.587000 800 41 0.900000 0.834000 0.767000 600 47 1.000000 0.053000 0.053000 1.200000 0.047000 0.056000
1517600037788138457	1400 42 1.200000 0.275000 0.347000 800 40 0.900000 1.240000 1.138000 600 46 1.000000 0.053000 0.053000 1.200000 0.040000 0.048000
1517600038336014749	1400 44 1.200000 0.309000 0.390000 800 41 0.900000 0.955000 0.876000 600 46 1.000000 0.053000 0.053000 1.200000 0.047000 0.056000
1517600038846774791	1400 45 1.200000 0.461000 0.579000 800 41 0.900000 0.899000 0.827000 600 47 1.000000 0.053000 0.053000 1.200000 0.049000 0.059000
1517600039404007541	1400 44 1.200000 0.490000 0.615000 800 41 0.900000 1.181000 1.084000 600 46 1.000000 0.053000 0.053000 1.200000 0.039000 0.047000
1517600039916061499	1400 44 1.200000 0.501000 0.630000 800 41 0.900000 0.915000 0.841000 600 46 1.000000 0.053000 0.053000 1.200000 0.039000 0.047000
1517600040434087583	1400 43 1.200000 0.371000 0.467000 800 41 0.900000 1.230000 1.129000 600 45 1.000000 0.053000 0.053000 1.200000 0.050000 0.060000
1517600040980025541	1400 44 1.200000 0.300000 0.379000 800 41 0.900000 0.928000 0.853000 600 46 1.000000 0.053000 0.053000 1.200000 0.038000 0.045000
1517600041543966041	1400 44 1.200000 0.337000 0.426000 800 41 0.900000 0.885000 0.815000 600 46 1.000000 0.053000 0.053000 1.200000 0.042000 0.050000
1517600042087082249	1400 45 1.200000 0.394000 0.496000 800 41 0.900000 0.966000 0.888000 600 46 1.000000 0.053000 0.053000 1.200000 0.045000 0.054000
1517600042621904708	1400 44 1.200000 0.288000 0.364000 800 41 0.900000 0.881000 0.810000 600 46 1.000000 0.053000 0.053000 1.200000 0.040000 0.048000
1517600043143292458	1400 44 1.200000 0.288000 0.364000 800 41 0.900000 0.900000 0.828000 600 46 1.000000 0.053000 0.053000 1.200000 0.041000 0.049000
1517600043652057791	1400 44 1.200000 0.502000 0.631000 800 41 0.900000 1.066000 0.980000 600 46 1.000000 0.053000 0.053000 1.200000 0.040000 0.048000
1517600044160751666	1400 44 1.200000 0.457000 0.575000 800 41 0.900000 1.212000 1.112000 600 45 1.000000 0.053000 0.053000 1.200000 0.045000 0.054000
1517600044669177666	1400 45 1.200000 0.304000 0.383000 800 41 0.900000 1.199000 1.100000 600 47 1.000000 0.053000 0.053000 1.200000 0.046000 0.055000
1517600045181920125	1400 45 1.200000 0.490000 0.616000 800 41 0.900000 0.911000 0.838000 600 47 1.000000 0.053000 0.053000 1.200000 0.040000 0.048000
1517600045698036292	1400 44 1.200000 0.498000 0.626000 800 41 0.900000 1.088000 0.998000 600 46 1.000000 0.053000 0.053000 1.200000 0.041000 0.049000
1517600046219614750	1400 44 1.200000 0.483000 0.607000 800 41 0.900000 1.187000 1.089000 600 46 1.000000 0.053000 0.053000 1.200000 0.044000 0.053000
1517600046728102458	1400 44 1.200000 0.484000 0.608000 800 41 0.900000 1.190000 1.092000 600 46 1.000000 0.053000 0.053000 1.200000 0.051000 0.061000
1517600047236507292	1400 44 1.200000 0.437000 0.551000 800 41 0.900000 1.166000 1.070000 600 47 1.000000 0.053000 0.053000 1.200000 0.047000 0.056000
1517600047791938958	1400 45 1.200000 0.320000 0.404000 800 41 0.900000 0.900000 0.828000 600 46 1.000000 0.053000 0.053000 1.200000 0.043000 0.051000
1517600048335968292	1400 44 1.200000 0.331000 0.418000 800 41 0.900000 0.842000 0.774000 600 46 1.000000 0.053000 0.053000 1.200000 0.042000 0.050000
1517600048844374917	1400 44 1.200000 0.496000 0.623000 800 41 0.900000 1.203000 1.104000 600 46 1.000000 0.053000 0.053000 1.200000 0.044000 0.053000
1517600049352404625	1400 42 1.200000 0.486000 0.610000 800 40 0.900000 1.222000 1.121000 600 46 1.000000 0.053000 0.053000 1.200000 0.045000 0.054000
1517600049860902042	1400 45 1.200000 0.265000 0.335000 800 41 0.900000 1.202000 1.103000 600 47 1.000000 0.053000 0.053000 1.200000 0.048000 0.057000
1517600050397424625	1400 45 1.200000 0.411000 0.518000 800 41 0.900000 0.918000 0.842000 600 46 1.000000 0.053000 0.053000 1.200000 0.041000 0.049000
1517600050956040959	1400 44 1.200000 0.513000 0.645000 800 41 0.900000 0.896000 0.824000 600 46 1.000000 0.053000 0.053000 1.200000 0.038000 0.045000
1517600051520008001	1400 44 1.200000 0.475000 0.597000 800 41 0.900000 1.208000 1.108000 600 46 1.000000 0.053000 0.053000 1.200000 0.042000 0.050000
1517600052028492292	1400 44 1.200000 0.381000 0.480000 800 41 0.900000 1.145000 1.051000 600 45 1.000000 0.053000 0.053000 1.200000 0.048000 0.057000
1517600052547291542	1400 45 1.200000 0.328000 0.414000 800 41 0.900000 1.163000 1.066000 600 47 1.000000 0.053000 0.053000 1.200000 0.048000 0.058000
1517600053096907292	1400 44 1.200000 0.384000 0.484000 800 41 0.900000 0.894000 0.820000 600 46 1.000000 0.053000 0.053000 1.200000 0.042000 0.050000
1517600053615730917	1400 44 1.200000 0.470000 0.591000 800 41 0.900000 1.208000 1.108000 600 46 1.000000 0.053000 0.053000 1.200000 0.040000 0.048000
1517600054127041459	1400 44 1.200000 0.418000 0.525000 800 41 0.900000 1.067000 0.979000 600 45 1.000000 0.053000 0.053000 1.200000 0.044000 0.053000
1517600054663656168	1400 45 1.200000 0.435000 0.548000 800 41 0.900000 0.889000 0.817000 600 47 1.000000 0.053000 0.053000 1.200000 0.048000 0.057000
1517600055220037834	1400 44 1.200000 0.251000 0.317000 800 41 0.900000 1.157000 1.064000 600 47 1.000000 0.053000 0.053000 1.200000 0.042000 0.050000
1517600055728494459	1400 44 1.200000 0.345000 0.436000 800 41 0.900000 1.249000 1.146000 600 46 1.000000 0.053000 0.053000 1.200000 0.041000 0.049000
1517600056291972084	1400 44 1.200000 0.426000 0.536000 800 41 0.900000 1.177000 1.080000 600 46 1.000000 0.053000 0.053000 1.200000 0.040000 0.048000
1517600056800776876	1400 43 1.200000 0.473000 0.594000 800 41 0.900000 1.178000 1.081000 600 45 1.000000 0.053000 0.053000 1.200000 0.041000 0.049000
1517600057315701835	1400 44 1.200000 0.293000 0.370000 800 41 0.900000 0.938000 0.862000 600 46 1.000000 0.053000 0.053000 1.200000 0.048000 0.057000
1517600057837729668	1400 40 1.200000 0.486000 0.610000 800 40 0.900000 1.189000 1.093000 600 43 1.000000 0.053000 0.053000 1.200000 0.044000 0.053000
1517600058346222251	1400 39 1.200000 0.081000 0.103000 800 39 0.900000 0.109000 0.100000 600 42 1.000000 0.053000 0.053000 1.200000 0.023000 0.027000
