#Timestamp	CPU(0) Frequency(MHz)	CPU(0) Temperature(C)	A7 Voltage(V)	A7 Current(A)	A7 Power(W)	CPU(4) Frequency(MHz)	CPU(4) Temperature(C)	A15 Voltage(V)	A15 Current(A)	A15 Power(W)	GPU Frequency(MHz)	GPU Temperature(C)	GPU Voltage(V)	GPU Current(A)	GPU Power(W)	RAM Voltage(V)	RAM Current(A)	RAM Power(W)
1518104339741219866	400 46 0.900000 0.022000 0.020000 1500 44 1.100000 0.342000 0.376000 600 51 1.000000 0.053000 0.053000 1.200000 0.043000 0.051000
1518104340249716200	400 47 0.900000 0.026000 0.023000 1500 45 1.000000 0.906000 0.989000 600 51 1.000000 0.053000 0.053000 1.200000 0.037000 0.044000
1518104340757952992	400 47 0.900000 0.026000 0.023000 1500 45 1.000000 0.922000 1.006000 600 52 1.000000 0.053000 0.053000 1.200000 0.039000 0.047000
1518104341309421950	400 55 0.900000 0.026000 0.023000 1500 46 1.000000 0.900000 0.983000 600 60 1.000000 0.053000 0.053000 1.200000 0.042000 0.050000
1518104341869370408	400 58 0.900000 0.145000 0.132000 1500 49 1.100000 3.577000 3.956000 600 65 1.000000 0.054000 0.054000 1.200000 0.029000 0.035000
1518104342429358700	400 60 0.900000 0.145000 0.132000 1500 50 1.100000 3.599000 3.980000 600 67 1.000000 0.054000 0.054000 1.200000 0.030000 0.036000
1518104342993353408	400 61 0.900000 0.145000 0.132000 1500 52 1.100000 3.617000 4.000000 600 69 1.000000 0.055000 0.055000 1.200000 0.030000 0.036000
1518104343541324659	400 63 0.900000 0.145000 0.132000 1500 53 1.100000 3.631000 4.019000 600 70 1.000000 0.055000 0.055000 1.200000 0.030000 0.036000
1518104344089325950	400 63 0.900000 0.147000 0.134000 1500 53 1.100000 3.633000 4.021000 600 71 1.000000 0.055000 0.055000 1.200000 0.030000 0.036000
1518104344657267742	400 64 0.900000 0.146000 0.133000 1500 54 1.100000 3.635000 4.023000 600 72 1.000000 0.055000 0.055000 1.200000 0.030000 0.036000
1518104345201293534	400 65 0.900000 0.147000 0.134000 1500 55 1.100000 3.639000 4.028000 600 72 1.000000 0.055000 0.055000 1.200000 0.030000 0.036000
1518104345753357117	400 65 0.900000 0.146000 0.133000 1500 55 1.100000 3.646000 4.036000 600 73 1.000000 0.056000 0.056000 1.200000 0.030000 0.036000
1518104346305355826	400 66 0.900000 0.146000 0.133000 1500 56 1.100000 3.647000 4.037000 600 74 1.000000 0.056000 0.056000 1.200000 0.030000 0.036000
1518104346857302617	400 66 0.900000 0.147000 0.133000 1500 56 1.100000 3.655000 4.046000 600 74 1.000000 0.056000 0.056000 1.200000 0.030000 0.036000
1518104347417316784	400 67 0.900000 0.147000 0.134000 1500 56 1.100000 3.655000 4.046000 600 74 1.000000 0.056000 0.056000 1.200000 0.029000 0.035000
1518104347969327951	400 67 0.900000 0.147000 0.134000 1500 57 1.100000 3.656000 4.047000 600 75 1.000000 0.056000 0.056000 1.200000 0.029000 0.035000
1518104348533290242	400 67 0.900000 0.147000 0.134000 1500 57 1.100000 3.662000 4.053000 600 75 1.000000 0.056000 0.056000 1.200000 0.030000 0.036000
1518104349077364117	400 67 0.900000 0.148000 0.134000 1500 57 1.100000 3.673000 4.066000 600 75 1.000000 0.056000 0.056000 1.200000 0.029000 0.035000
1518104349637319826	400 68 0.900000 0.148000 0.134000 1500 57 1.100000 3.674000 4.067000 600 76 1.000000 0.056000 0.056000 1.200000 0.030000 0.036000
1518104350197472951	400 68 0.900000 0.148000 0.134000 1500 58 1.100000 3.669000 4.061000 600 76 1.000000 0.056000 0.056000 1.200000 0.030000 0.036000
1518104350761373534	400 68 0.900000 0.148000 0.134000 1500 58 1.100000 3.663000 4.054000 600 76 1.000000 0.056000 0.056000 1.200000 0.030000 0.036000
1518104351305346576	400 68 0.900000 0.148000 0.134000 1500 58 1.100000 3.666000 4.058000 600 76 1.000000 0.056000 0.056000 1.200000 0.030000 0.036000
1518104351869347451	400 68 0.900000 0.148000 0.134000 1500 58 1.100000 3.671000 4.063000 600 76 1.000000 0.057000 0.057000 1.200000 0.030000 0.036000
1518104352441346743	400 68 0.900000 0.148000 0.134000 1500 58 1.100000 3.681000 4.074000 600 76 1.000000 0.056000 0.056000 1.200000 0.029000 0.035000
1518104352985381660	400 69 0.900000 0.148000 0.134000 1500 58 1.100000 3.669000 4.061000 600 77 1.000000 0.057000 0.057000 1.200000 0.030000 0.036000
1518104353537306576	400 69 0.900000 0.148000 0.134000 1500 59 1.100000 3.673000 4.066000 600 77 1.000000 0.057000 0.057000 1.200000 0.030000 0.036000
1518104354093340451	400 69 0.900000 0.148000 0.134000 1500 59 1.100000 3.688000 4.082000 600 77 1.000000 0.057000 0.057000 1.200000 0.029000 0.035000
1518104354649334660	400 69 0.900000 0.148000 0.134000 1500 59 1.100000 3.688000 4.082000 600 77 1.000000 0.056000 0.056000 1.200000 0.029000 0.035000
1518104355201285243	400 69 0.900000 0.149000 0.135000 1500 59 1.100000 3.700000 4.095000 600 77 1.000000 0.057000 0.057000 1.200000 0.030000 0.036000
1518104355757321285	400 69 0.900000 0.148000 0.134000 1500 59 1.100000 3.706000 4.102000 600 77 1.000000 0.057000 0.057000 1.200000 0.030000 0.036000
1518104356321300910	400 69 0.900000 0.147000 0.134000 1500 59 1.100000 3.706000 4.102000 600 77 1.000000 0.057000 0.057000 1.200000 0.030000 0.036000
1518104356885328952	400 69 0.900000 0.148000 0.134000 1500 59 1.100000 3.708000 4.104000 600 78 1.000000 0.057000 0.057000 1.200000 0.029000 0.035000
1518104357445164868	400 69 0.900000 0.148000 0.134000 1500 59 1.100000 3.702000 4.098000 600 78 1.000000 0.057000 0.057000 1.200000 0.029000 0.035000
1518104358005284910	400 70 0.900000 0.148000 0.134000 1500 59 1.100000 3.692000 4.087000 600 78 1.000000 0.057000 0.057000 1.200000 0.030000 0.036000
1518104358549336952	400 70 0.900000 0.149000 0.135000 1500 59 1.100000 3.712000 4.109000 600 78 1.000000 0.057000 0.057000 1.200000 0.029000 0.035000
1518104359101332327	400 70 0.900000 0.149000 0.135000 1500 59 1.100000 3.712000 4.109000 600 78 1.000000 0.057000 0.057000 1.200000 0.029000 0.035000
1518104359653342494	400 70 0.900000 0.148000 0.134000 1500 60 1.100000 3.711000 4.108000 600 78 1.000000 0.057000 0.057000 1.200000 0.030000 0.036000
1518104360205366869	400 70 0.900000 0.148000 0.134000 1500 60 1.100000 3.712000 4.109000 600 78 1.000000 0.057000 0.057000 1.200000 0.029000 0.035000
1518104360769351411	400 70 0.900000 0.149000 0.135000 1500 60 1.100000 3.714000 4.111000 600 78 1.000000 0.057000 0.057000 1.200000 0.030000 0.036000
1518104361333340119	400 70 0.900000 0.149000 0.135000 1500 60 1.100000 3.717000 4.114000 600 78 1.000000 0.057000 0.057000 1.200000 0.029000 0.035000
1518104361889276786	400 70 0.900000 0.149000 0.135000 1500 60 1.100000 3.717000 4.118000 600 78 1.000000 0.057000 0.057000 1.200000 0.029000 0.035000
1518104362453313244	400 70 0.900000 0.149000 0.135000 1500 60 1.100000 3.719000 4.116000 600 78 1.000000 0.057000 0.057000 1.200000 0.030000 0.036000
1518104363005264536	400 70 0.900000 0.149000 0.135000 1500 60 1.100000 3.717000 4.114000 600 78 1.000000 0.057000 0.057000 1.200000 0.030000 0.036000
1518104363553368036	400 70 0.900000 0.149000 0.135000 1500 60 1.100000 3.714000 4.111000 600 78 1.000000 0.057000 0.057000 1.200000 0.030000 0.036000
1518104364109293369	400 70 0.900000 0.149000 0.135000 1500 60 1.100000 3.720000 4.118000 600 78 1.000000 0.057000 0.057000 1.200000 0.029000 0.035000
1518104364661310953	400 70 0.900000 0.149000 0.135000 1500 60 1.100000 3.720000 4.118000 600 78 1.000000 0.057000 0.057000 1.200000 0.029000 0.035000
1518104365209353619	400 70 0.900000 0.149000 0.135000 1500 60 1.100000 3.722000 4.120000 600 78 1.000000 0.057000 0.057000 1.200000 0.030000 0.036000
1518104365769321536	400 70 0.900000 0.149000 0.135000 1500 60 1.100000 3.721000 4.119000 600 79 1.000000 0.057000 0.057000 1.200000 0.029000 0.035000
1518104366329329661	400 70 0.900000 0.149000 0.135000 1500 60 1.100000 3.722000 4.120000 600 79 1.000000 0.057000 0.057000 1.200000 0.029000 0.035000
1518104366885275286	400 71 0.900000 0.149000 0.135000 1500 60 1.100000 3.722000 4.120000 600 79 1.000000 0.057000 0.057000 1.200000 0.030000 0.036000
1518104367445323911	400 71 0.900000 0.149000 0.135000 1500 60 1.100000 3.725000 4.123000 600 79 1.000000 0.057000 0.057000 1.200000 0.030000 0.036000
1518104368005277828	400 71 0.900000 0.149000 0.135000 1500 60 1.100000 3.722000 4.120000 600 79 1.000000 0.057000 0.057000 1.200000 0.030000 0.036000
1518104368561321870	400 71 0.900000 0.148000 0.134000 1500 60 1.100000 3.723000 4.121000 600 79 1.000000 0.057000 0.057000 1.200000 0.030000 0.036000
1518104369125307787	400 71 0.900000 0.150000 0.136000 1500 60 1.100000 3.734000 4.133000 600 79 1.000000 0.057000 0.057000 1.200000 0.029000 0.035000
1518104369681352245	400 71 0.900000 0.148000 0.134000 1500 60 1.100000 3.734000 4.133000 600 79 1.000000 0.057000 0.057000 1.200000 0.029000 0.035000
1518104370241327578	400 71 0.900000 0.149000 0.135000 1500 60 1.100000 3.734000 4.137000 600 79 1.000000 0.057000 0.057000 1.200000 0.029000 0.035000
1518104370805283787	400 71 0.900000 0.149000 0.135000 1500 60 1.100000 3.736000 4.135000 600 79 1.000000 0.057000 0.057000 1.200000 0.029000 0.035000
1518104371365329412	400 71 0.900000 0.149000 0.135000 1500 61 1.100000 3.703000 4.099000 600 79 1.000000 0.057000 0.057000 1.200000 0.029000 0.035000
1518104371917354454	400 71 0.900000 0.149000 0.135000 1500 61 1.100000 3.724000 4.122000 600 79 1.000000 0.057000 0.057000 1.200000 0.030000 0.036000
1518104372465326912	400 71 0.900000 0.149000 0.135000 1500 60 1.100000 3.723000 4.121000 600 79 1.000000 0.057000 0.057000 1.200000 0.029000 0.035000
1518104373021338620	400 71 0.900000 0.149000 0.135000 1500 61 1.100000 3.730000 4.129000 600 79 1.000000 0.057000 0.057000 1.200000 0.030000 0.036000
1518104373577355037	400 71 0.900000 0.148000 0.134000 1500 61 1.100000 3.726000 4.128000 600 79 1.000000 0.057000 0.057000 1.200000 0.030000 0.036000
1518104374129296120	400 71 0.900000 0.149000 0.135000 1500 61 1.100000 3.733000 4.132000 600 79 1.000000 0.057000 0.057000 1.200000 0.029000 0.035000
1518104374681325996	400 71 0.900000 0.150000 0.136000 1500 61 1.100000 3.723000 4.121000 600 79 1.000000 0.057000 0.057000 1.200000 0.030000 0.036000
1518104375233381246	400 71 0.900000 0.149000 0.135000 1500 61 1.100000 3.724000 4.122000 600 79 1.000000 0.057000 0.057000 1.200000 0.029000 0.035000
1518104375793386579	400 71 0.900000 0.149000 0.135000 1500 61 1.100000 3.756000 4.161000 600 79 1.000000 0.057000 0.057000 1.200000 0.029000 0.035000
1518104376353357746	400 71 0.900000 0.149000 0.135000 1500 61 1.100000 3.748000 4.149000 600 79 1.000000 0.057000 0.057000 1.200000 0.029000 0.035000
1518104376913342912	400 71 0.900000 0.148000 0.134000 1500 61 1.100000 3.754000 4.155000 600 79 1.000000 0.058000 0.058000 1.200000 0.029000 0.035000
1518104377469322163	400 71 0.900000 0.148000 0.134000 1500 61 1.100000 3.765000 4.167000 600 79 1.000000 0.057000 0.057000 1.200000 0.029000 0.035000
1518104378033341454	400 71 0.900000 0.149000 0.135000 1500 61 1.100000 3.759000 4.161000 600 79 1.000000 0.057000 0.057000 1.200000 0.029000 0.035000
1518104378589269954	400 71 0.900000 0.149000 0.135000 1500 61 1.100000 3.757000 4.162000 600 80 1.000000 0.057000 0.057000 1.200000 0.030000 0.036000
1518104379145272246	400 71 0.900000 0.149000 0.135000 1500 61 1.100000 3.769000 4.172000 600 80 1.000000 0.057000 0.057000 1.200000 0.029000 0.035000
1518104379693353746	400 71 0.900000 0.150000 0.136000 1500 61 1.100000 3.769000 4.172000 600 80 1.000000 0.057000 0.057000 1.200000 0.030000 0.036000
1518104380257327955	400 72 0.900000 0.149000 0.135000 1500 61 1.100000 3.767000 4.170000 600 80 1.000000 0.057000 0.057000 1.200000 0.030000 0.036000
1518104380817318538	400 71 0.900000 0.150000 0.136000 1500 61 1.100000 3.768000 4.171000 600 80 1.000000 0.058000 0.058000 1.200000 0.030000 0.036000
1518104381377305330	400 72 0.900000 0.149000 0.135000 1500 61 1.100000 3.759000 4.161000 600 80 1.000000 0.058000 0.058000 1.200000 0.030000 0.036000
1518104381937318455	400 72 0.900000 0.149000 0.135000 1500 61 1.100000 3.753000 4.158000 600 80 1.000000 0.057000 0.057000 1.200000 0.030000 0.036000
1518104382493281830	400 72 0.900000 0.150000 0.136000 1500 61 1.100000 3.769000 4.176000 600 80 1.000000 0.058000 0.058000 1.200000 0.030000 0.036000
1518104383057352872	400 71 0.900000 0.148000 0.134000 1500 61 1.100000 3.731000 4.130000 600 80 1.000000 0.058000 0.058000 1.200000 0.030000 0.036000
1518104383617319038	400 72 0.900000 0.149000 0.135000 1500 61 1.100000 3.722000 4.123000 600 80 1.000000 0.058000 0.058000 1.200000 0.030000 0.036000
1518104384169334413	400 72 0.900000 0.149000 0.135000 1500 61 1.100000 3.740000 4.140000 600 80 1.000000 0.058000 0.058000 1.200000 0.030000 0.036000
1518104384721318622	400 72 0.900000 0.149000 0.135000 1500 61 1.100000 3.740000 4.140000 600 80 1.000000 0.057000 0.057000 1.200000 0.030000 0.036000
1518104385269335705	400 72 0.900000 0.149000 0.135000 1500 61 1.100000 3.737000 4.136000 600 80 1.000000 0.058000 0.058000 1.200000 0.030000 0.036000
1518104385825330289	400 72 0.900000 0.149000 0.135000 1500 61 1.100000 3.734000 4.137000 600 80 1.000000 0.057000 0.057000 1.200000 0.030000 0.036000
1518104386381298872	400 72 0.900000 0.150000 0.136000 1500 61 1.100000 3.734000 4.137000 600 80 1.000000 0.058000 0.058000 1.200000 0.030000 0.036000
1518104386929349664	400 72 0.900000 0.149000 0.135000 1500 61 1.100000 3.730000 4.129000 600 80 1.000000 0.058000 0.058000 1.200000 0.030000 0.036000
1518104387489338455	400 72 0.900000 0.150000 0.136000 1500 61 1.100000 3.726000 4.124000 600 80 1.000000 0.057000 0.057000 1.200000 0.029000 0.035000
1518104388053296664	400 72 0.900000 0.149000 0.135000 1500 61 1.100000 3.735000 4.134000 600 80 1.000000 0.057000 0.057000 1.200000 0.030000 0.036000
1518104388621313081	400 72 0.900000 0.149000 0.135000 1500 61 1.100000 3.740000 4.140000 600 80 1.000000 0.058000 0.058000 1.200000 0.030000 0.036000
1518104389185309789	400 72 0.900000 0.150000 0.136000 1500 61 1.100000 3.742000 4.146000 600 80 1.000000 0.057000 0.057000 1.200000 0.030000 0.036000
1518104389745346247	400 72 0.900000 0.150000 0.136000 1500 61 1.100000 3.697000 4.092000 600 80 1.000000 0.057000 0.057000 1.200000 0.030000 0.036000
1518104390301316414	400 72 0.900000 0.149000 0.135000 1500 61 1.100000 3.695000 4.090000 600 80 1.000000 0.058000 0.058000 1.200000 0.030000 0.036000
1518104390853306497	400 72 0.900000 0.149000 0.135000 1500 61 1.100000 3.693000 4.088000 600 80 1.000000 0.058000 0.058000 1.200000 0.030000 0.036000
1518104391401276706	400 72 0.900000 0.149000 0.135000 1500 61 1.100000 3.685000 4.079000 600 80 1.000000 0.058000 0.058000 1.200000 0.030000 0.036000
1518104391965353331	400 72 0.900000 0.150000 0.136000 1500 61 1.100000 3.685000 4.079000 600 80 1.000000 0.058000 0.058000 1.200000 0.030000 0.036000
1518104392509326331	400 72 0.900000 0.150000 0.136000 1500 61 1.100000 3.678000 4.071000 600 80 1.000000 0.058000 0.058000 1.200000 0.030000 0.036000
1518104393065345289	400 72 0.900000 0.149000 0.135000 1500 61 1.100000 3.682000 4.075000 600 80 1.000000 0.058000 0.058000 1.200000 0.030000 0.036000
1518104393621327248	400 72 0.900000 0.150000 0.136000 1500 61 1.100000 3.686000 4.080000 600 80 1.000000 0.058000 0.058000 1.200000 0.030000 0.036000
1518104394173252290	400 72 0.900000 0.149000 0.135000 1500 61 1.100000 3.697000 4.092000 600 80 1.000000 0.057000 0.057000 1.200000 0.029000 0.035000
1518104394737291248	400 72 0.900000 0.150000 0.136000 1500 61 1.100000 3.695000 4.090000 600 80 1.000000 0.057000 0.057000 1.200000 0.029000 0.035000
1518104395301310831	400 72 0.900000 0.149000 0.135000 1500 61 1.100000 3.695000 4.090000 600 80 1.000000 0.057000 0.057000 1.200000 0.030000 0.036000
1518104395861307831	400 72 0.900000 0.150000 0.136000 1500 61 1.100000 3.694000 4.089000 600 80 1.000000 0.057000 0.057000 1.200000 0.029000 0.035000
1518104396417330248	400 72 0.900000 0.150000 0.136000 1500 61 1.100000 3.699000 4.094000 600 80 1.000000 0.058000 0.058000 1.200000 0.030000 0.036000
1518104396965329040	400 72 0.900000 0.150000 0.136000 1500 61 1.100000 3.703000 4.099000 600 80 1.000000 0.057000 0.057000 1.200000 0.030000 0.036000
1518104397529338415	400 72 0.900000 0.149000 0.135000 1500 61 1.100000 3.695000 4.090000 600 80 1.000000 0.058000 0.058000 1.200000 0.030000 0.036000
1518104398089292373	400 72 0.900000 0.149000 0.135000 1500 62 1.100000 3.689000 4.083000 600 80 1.000000 0.058000 0.058000 1.200000 0.030000 0.036000
1518104398645280623	400 72 0.900000 0.150000 0.136000 1500 61 1.100000 3.699000 4.094000 600 80 1.000000 0.058000 0.058000 1.200000 0.030000 0.036000
1518104399205270790	400 72 0.900000 0.150000 0.136000 1500 62 1.100000 3.702000 4.098000 600 80 1.000000 0.058000 0.058000 1.200000 0.030000 0.036000
1518104399765298582	400 72 0.900000 0.149000 0.135000 1500 62 1.100000 3.701000 4.097000 600 80 1.000000 0.058000 0.058000 1.200000 0.029000 0.035000
1518104400329266165	400 72 0.900000 0.149000 0.135000 1500 61 1.100000 3.702000 4.098000 600 80 1.000000 0.058000 0.058000 1.200000 0.029000 0.035000
1518104400889308540	400 72 0.900000 0.150000 0.136000 1500 62 1.100000 3.703000 4.099000 600 80 1.000000 0.058000 0.058000 1.200000 0.030000 0.036000
1518104401453328624	400 72 0.900000 0.149000 0.135000 1500 61 1.100000 3.703000 4.099000 600 80 1.000000 0.057000 0.057000 1.200000 0.030000 0.036000
1518104402001366665	400 72 0.900000 0.150000 0.136000 1500 61 1.100000 3.701000 4.097000 600 80 1.000000 0.058000 0.058000 1.200000 0.030000 0.036000
1518104402553340832	400 72 0.900000 0.149000 0.135000 1500 62 1.100000 3.702000 4.098000 600 80 1.000000 0.058000 0.058000 1.200000 0.030000 0.036000
1518104403109334374	400 72 0.900000 0.150000 0.136000 1500 62 1.100000 3.694000 4.089000 600 80 1.000000 0.057000 0.057000 1.200000 0.030000 0.036000
1518104403665377166	400 72 0.900000 0.149000 0.135000 1500 62 1.100000 3.721000 4.119000 600 80 1.000000 0.058000 0.058000 1.200000 0.030000 0.036000
1518104404225326457	400 72 0.900000 0.149000 0.135000 1500 62 1.100000 3.728000 4.126000 600 80 1.000000 0.058000 0.058000 1.200000 0.030000 0.036000
1518104404789346916	400 72 0.900000 0.150000 0.136000 1500 62 1.100000 3.715000 4.112000 600 80 1.000000 0.058000 0.058000 1.200000 0.030000 0.036000
1518104405345320499	400 72 0.900000 0.150000 0.136000 1500 62 1.100000 3.726000 4.124000 600 80 1.000000 0.058000 0.058000 1.200000 0.030000 0.036000
1518104405913318041	400 72 0.900000 0.150000 0.136000 1500 62 1.100000 3.715000 4.112000 600 80 1.000000 0.057000 0.057000 1.200000 0.030000 0.036000
1518104406477329208	400 72 0.900000 0.149000 0.135000 1500 62 1.100000 3.711000 4.108000 600 80 1.000000 0.058000 0.058000 1.200000 0.030000 0.036000
1518104407021363166	400 72 0.900000 0.150000 0.136000 1500 62 1.100000 3.711000 4.108000 600 80 1.000000 0.058000 0.058000 1.200000 0.030000 0.036000
1518104407573191708	400 72 0.900000 0.150000 0.136000 1500 62 1.100000 3.717000 4.114000 600 80 1.000000 0.058000 0.058000 1.200000 0.030000 0.036000
1518104408137304333	400 72 0.900000 0.149000 0.135000 1500 62 1.100000 3.717000 4.114000 600 80 1.000000 0.058000 0.058000 1.200000 0.030000 0.036000
1518104408705320250	400 72 0.900000 0.149000 0.135000 1500 62 1.100000 3.720000 4.118000 600 80 1.000000 0.058000 0.058000 1.200000 0.029000 0.035000
1518104409261334125	400 72 0.900000 0.150000 0.136000 1500 62 1.100000 3.713000 4.110000 600 80 1.000000 0.058000 0.058000 1.200000 0.030000 0.036000
1518104409817349458	400 72 0.900000 0.150000 0.136000 1500 62 1.100000 3.722000 4.120000 600 80 1.000000 0.058000 0.058000 1.200000 0.029000 0.035000
1518104410377280208	400 72 0.900000 0.150000 0.136000 1500 62 1.100000 3.728000 4.130000 600 80 1.000000 0.058000 0.058000 1.200000 0.029000 0.035000
1518104410933279917	400 72 0.900000 0.150000 0.136000 1500 62 1.100000 3.721000 4.119000 600 80 1.000000 0.058000 0.058000 1.200000 0.030000 0.036000
1518104411489360917	400 72 0.900000 0.150000 0.136000 1500 62 1.100000 3.723000 4.121000 600 80 1.000000 0.058000 0.058000 1.200000 0.030000 0.036000
1518104412041345958	400 72 0.900000 0.149000 0.135000 1500 62 1.100000 3.725000 4.123000 600 80 1.000000 0.058000 0.058000 1.200000 0.030000 0.036000
1518104412601342417	400 72 0.900000 0.149000 0.135000 1500 62 1.100000 3.713000 4.110000 600 80 1.000000 0.058000 0.058000 1.200000 0.030000 0.036000
1518104413157348667	400 72 0.900000 0.150000 0.136000 1500 62 1.100000 3.733000 4.136000 600 81 1.000000 0.058000 0.058000 1.200000 0.030000 0.036000
1518104413705337125	400 72 0.900000 0.149000 0.135000 1500 62 1.100000 3.737000 4.140000 600 80 1.000000 0.058000 0.058000 1.200000 0.029000 0.035000
1518104414261273750	400 72 0.900000 0.150000 0.136000 1500 62 1.100000 3.734000 4.133000 600 80 1.000000 0.058000 0.058000 1.200000 0.029000 0.035000
1518104414801334375	400 72 0.900000 0.149000 0.135000 1500 62 1.100000 3.736000 4.139000 600 81 1.000000 0.058000 0.058000 1.200000 0.029000 0.035000
1518104415357368875	400 72 0.900000 0.150000 0.136000 1500 62 1.100000 3.722000 4.123000 600 81 1.000000 0.058000 0.058000 1.200000 0.030000 0.036000
1518104415909326917	400 72 0.900000 0.150000 0.136000 1500 62 1.100000 3.725000 4.127000 600 80 1.000000 0.058000 0.058000 1.200000 0.029000 0.035000
1518104416465342834	400 72 0.900000 0.150000 0.136000 1500 62 1.100000 3.727000 4.125000 600 80 1.000000 0.058000 0.058000 1.200000 0.030000 0.036000
1518104417017313751	400 72 0.900000 0.149000 0.135000 1500 62 1.100000 3.717000 4.114000 600 81 1.000000 0.058000 0.058000 1.200000 0.030000 0.036000
1518104417569366126	400 73 0.900000 0.150000 0.136000 1500 62 1.100000 3.757000 4.162000 600 81 1.000000 0.058000 0.058000 1.200000 0.030000 0.036000
1518104418121330792	400 72 0.900000 0.150000 0.136000 1500 62 1.100000 3.766000 4.172000 600 81 1.000000 0.058000 0.058000 1.200000 0.030000 0.036000
1518104418673369876	400 73 0.900000 0.150000 0.136000 1500 62 1.100000 3.762000 4.164000 600 81 1.000000 0.058000 0.058000 1.200000 0.030000 0.036000
1518104419237342501	400 73 0.900000 0.150000 0.136000 1500 62 1.100000 3.754000 4.159000 600 81 1.000000 0.058000 0.058000 1.200000 0.029000 0.035000
1518104419789282793	400 73 0.900000 0.150000 0.136000 1500 62 1.100000 3.777000 4.184000 600 81 1.000000 0.058000 0.058000 1.200000 0.030000 0.036000
1518104420337289751	400 73 0.900000 0.150000 0.136000 1500 62 1.100000 3.774000 4.181000 600 81 1.000000 0.058000 0.058000 1.200000 0.030000 0.036000
1518104420889355834	400 73 0.900000 0.150000 0.136000 1500 62 1.100000 3.774000 4.181000 600 81 1.000000 0.058000 0.058000 1.200000 0.030000 0.036000
1518104421449341084	400 73 0.900000 0.150000 0.136000 1500 62 1.100000 3.774000 4.181000 600 81 1.000000 0.058000 0.058000 1.200000 0.030000 0.036000
1518104422001345876	400 72 0.900000 0.150000 0.136000 1500 62 1.100000 3.763000 4.169000 600 81 1.000000 0.058000 0.058000 1.200000 0.030000 0.036000
1518104422557340210	400 73 0.900000 0.150000 0.136000 1500 62 1.100000 3.761000 4.167000 600 81 1.000000 0.058000 0.058000 1.200000 0.030000 0.036000
1518104423101333585	400 73 0.900000 0.150000 0.136000 1500 62 1.100000 3.762000 4.168000 600 81 1.000000 0.058000 0.058000 1.200000 0.030000 0.036000
1518104423661336585	400 73 0.900000 0.150000 0.136000 1500 62 1.100000 3.771000 4.178000 600 81 1.000000 0.058000 0.058000 1.200000 0.030000 0.036000
1518104424209360668	400 73 0.900000 0.150000 0.136000 1500 62 1.100000 3.731000 4.133000 600 81 1.000000 0.058000 0.058000 1.200000 0.030000 0.036000
1518104424765346585	400 72 0.900000 0.150000 0.136000 1500 62 1.100000 3.698000 4.093000 600 81 1.000000 0.058000 0.058000 1.200000 0.030000 0.036000
1518104425321292335	400 72 0.900000 0.150000 0.136000 1500 62 1.100000 3.712000 4.109000 600 81 1.000000 0.058000 0.058000 1.200000 0.030000 0.036000
1518104425873306960	400 73 0.900000 0.150000 0.136000 1500 62 1.100000 3.715000 4.112000 600 81 1.000000 0.058000 0.058000 1.200000 0.030000 0.036000
1518104426425340210	400 72 0.900000 0.149000 0.135000 1500 62 1.100000 3.713000 4.110000 600 81 1.000000 0.058000 0.058000 1.200000 0.030000 0.036000
1518104426981290293	400 72 0.900000 0.149000 0.135000 1500 62 1.100000 3.710000 4.106000 600 81 1.000000 0.058000 0.058000 1.200000 0.030000 0.036000
1518104427529332127	400 72 0.900000 0.149000 0.135000 1500 62 1.100000 3.710000 4.106000 600 81 1.000000 0.058000 0.058000 1.200000 0.030000 0.036000
1518104428089297710	400 72 0.900000 0.150000 0.136000 1500 62 1.100000 3.713000 4.110000 600 81 1.000000 0.058000 0.058000 1.200000 0.030000 0.036000
1518104428645306585	400 72 0.900000 0.150000 0.136000 1500 62 1.100000 3.713000 4.110000 600 81 1.000000 0.058000 0.058000 1.200000 0.030000 0.036000
1518104429197348294	400 73 0.900000 0.149000 0.135000 1500 62 1.100000 3.701000 4.100000 600 81 1.000000 0.058000 0.058000 1.200000 0.030000 0.036000
1518104429745354335	400 72 0.900000 0.150000 0.136000 1500 62 1.100000 3.701000 4.097000 600 81 1.000000 0.058000 0.058000 1.200000 0.030000 0.036000
1518104430301308627	400 72 0.900000 0.150000 0.136000 1500 62 1.100000 3.696000 4.091000 600 81 1.000000 0.058000 0.058000 1.200000 0.030000 0.036000
1518104430845331752	400 72 0.900000 0.149000 0.135000 1500 62 1.100000 3.711000 4.108000 600 81 1.000000 0.058000 0.058000 1.200000 0.030000 0.036000
1518104431405341044	400 72 0.900000 0.150000 0.136000 1500 62 1.100000 3.722000 4.120000 600 81 1.000000 0.058000 0.058000 1.200000 0.030000 0.036000
1518104431969272127	400 72 0.900000 0.150000 0.136000 1500 62 1.100000 3.723000 4.121000 600 81 1.000000 0.058000 0.058000 1.200000 0.029000 0.035000
1518104432529350711	400 72 0.900000 0.150000 0.136000 1500 62 1.100000 3.723000 4.121000 600 81 1.000000 0.058000 0.058000 1.200000 0.030000 0.036000
1518104433089328503	400 73 0.900000 0.150000 0.136000 1500 62 1.100000 3.719000 4.116000 600 81 1.000000 0.058000 0.058000 1.200000 0.030000 0.036000
1518104433649308794	400 73 0.900000 0.149000 0.135000 1500 62 1.100000 3.720000 4.118000 600 81 1.000000 0.058000 0.058000 1.200000 0.030000 0.036000
1518104434201325419	400 73 0.900000 0.150000 0.136000 1500 62 1.100000 3.720000 4.118000 600 81 1.000000 0.058000 0.058000 1.200000 0.030000 0.036000
1518104434761328086	400 73 0.900000 0.150000 0.136000 1500 62 1.100000 3.712000 4.109000 600 81 1.000000 0.058000 0.058000 1.200000 0.030000 0.036000
1518104435317295586	400 73 0.900000 0.150000 0.136000 1500 62 1.100000 3.712000 4.109000 600 81 1.000000 0.058000 0.058000 1.200000 0.030000 0.036000
1518104435873266878	400 72 0.900000 0.150000 0.136000 1500 62 1.100000 3.723000 4.121000 600 81 1.000000 0.058000 0.058000 1.200000 0.030000 0.036000
1518104436429339753	400 73 0.900000 0.150000 0.136000 1500 62 1.100000 3.724000 4.122000 600 81 1.000000 0.058000 0.058000 1.200000 0.030000 0.036000
1518104436989274711	400 73 0.900000 0.150000 0.136000 1500 62 1.100000 3.721000 4.119000 600 81 1.000000 0.058000 0.058000 1.200000 0.030000 0.036000
1518104437549330753	400 72 0.900000 0.150000 0.136000 1500 62 1.100000 3.741000 4.141000 600 81 1.000000 0.058000 0.058000 1.200000 0.030000 0.036000
1518104438101264128	400 73 0.900000 0.149000 0.135000 1500 62 1.100000 3.727000 4.125000 600 81 1.000000 0.058000 0.058000 1.200000 0.030000 0.036000
1518104438657305170	400 73 0.900000 0.150000 0.136000 1500 62 1.100000 3.700000 4.095000 600 81 1.000000 0.058000 0.058000 1.200000 0.030000 0.036000
1518104439205337087	400 73 0.900000 0.150000 0.136000 1500 62 1.100000 3.705000 4.101000 600 81 1.000000 0.058000 0.058000 1.200000 0.030000 0.036000
1518104439773334337	400 73 0.900000 0.149000 0.135000 1500 62 1.100000 3.704000 4.100000 600 81 1.000000 0.058000 0.058000 1.200000 0.030000 0.036000
1518104440329352670	400 72 0.900000 0.150000 0.136000 1500 62 1.100000 3.706000 4.102000 600 81 1.000000 0.058000 0.058000 1.200000 0.030000 0.036000
1518104440881261378	400 72 0.900000 0.150000 0.136000 1500 62 1.100000 3.706000 4.102000 600 81 1.000000 0.058000 0.058000 1.200000 0.030000 0.036000
1518104441445358337	400 73 0.900000 0.150000 0.136000 1500 62 1.100000 3.696000 4.091000 600 81 1.000000 0.058000 0.058000 1.200000 0.030000 0.036000
1518104442005314212	400 73 0.900000 0.151000 0.137000 1500 62 1.100000 3.692000 4.087000 600 81 1.000000 0.058000 0.058000 1.200000 0.030000 0.036000
1518104442561345212	400 73 0.900000 0.149000 0.135000 1500 62 1.100000 3.704000 4.100000 600 81 1.000000 0.058000 0.058000 1.200000 0.030000 0.036000
1518104443125303295	400 73 0.900000 0.149000 0.135000 1500 62 1.100000 3.703000 4.099000 600 81 1.000000 0.058000 0.058000 1.200000 0.030000 0.036000
1518104443689335129	400 72 0.900000 0.149000 0.135000 1500 62 1.100000 3.695000 4.090000 600 81 1.000000 0.058000 0.058000 1.200000 0.029000 0.035000
1518104444249346712	400 73 0.900000 0.149000 0.135000 1500 62 1.100000 3.694000 4.089000 600 81 1.000000 0.058000 0.058000 1.200000 0.030000 0.036000
1518104444801330837	400 73 0.900000 0.149000 0.135000 1500 62 1.100000 3.743000 4.143000 600 81 1.000000 0.058000 0.058000 1.200000 0.030000 0.036000
1518104445365332546	400 73 0.900000 0.151000 0.137000 1500 62 1.100000 3.752000 4.153000 600 81 1.000000 0.058000 0.058000 1.200000 0.030000 0.036000
1518104445925334504	400 73 0.900000 0.151000 0.137000 1500 62 1.100000 3.756000 4.157000 600 81 1.000000 0.058000 0.058000 1.200000 0.029000 0.035000
1518104446489709212	400 73 0.900000 0.151000 0.137000 1500 62 1.100000 3.759000 4.161000 600 81 1.000000 0.058000 0.058000 1.200000 0.029000 0.035000
1518104447045357254	400 73 0.900000 0.151000 0.137000 1500 62 1.100000 3.763000 4.165000 600 81 1.000000 0.058000 0.058000 1.200000 0.029000 0.035000
1518104447597247296	400 73 0.900000 0.150000 0.136000 1500 62 1.100000 3.754000 4.159000 600 81 1.000000 0.058000 0.058000 1.200000 0.029000 0.035000
1518104448149318713	400 73 0.900000 0.151000 0.137000 1500 62 1.100000 3.754000 4.159000 600 81 1.000000 0.058000 0.058000 1.200000 0.029000 0.035000
1518104448717318754	400 73 0.900000 0.150000 0.136000 1500 63 1.100000 3.763000 4.165000 600 81 1.000000 0.058000 0.058000 1.200000 0.029000 0.035000
1518104449277259879	400 73 0.900000 0.151000 0.137000 1500 63 1.100000 3.766000 4.168000 600 81 1.000000 0.058000 0.058000 1.200000 0.029000 0.035000
1518104449837331171	400 73 0.900000 0.151000 0.137000 1500 62 1.100000 3.757000 4.162000 600 81 1.000000 0.058000 0.058000 1.200000 0.030000 0.036000
1518104450397311963	400 73 0.900000 0.150000 0.136000 1500 63 1.100000 3.768000 4.174000 600 81 1.000000 0.058000 0.058000 1.200000 0.029000 0.035000
1518104450949320463	400 73 0.900000 0.150000 0.136000 1500 63 1.100000 3.767000 4.173000 600 81 1.000000 0.058000 0.058000 1.200000 0.029000 0.035000
1518104451493337296	400 73 0.900000 0.150000 0.136000 1500 62 1.100000 3.731000 4.133000 600 81 1.000000 0.058000 0.058000 1.200000 0.029000 0.035000
1518104452045321713	400 73 0.900000 0.150000 0.136000 1500 63 1.100000 3.708000 4.104000 600 81 1.000000 0.058000 0.058000 1.200000 0.029000 0.035000
1518104452609320338	400 73 0.900000 0.150000 0.136000 1500 62 1.100000 3.707000 4.103000 600 81 1.000000 0.058000 0.058000 1.200000 0.029000 0.035000
1518104453165301213	400 73 0.900000 0.150000 0.136000 1500 62 1.100000 3.710000 4.106000 600 81 1.000000 0.058000 0.058000 1.200000 0.029000 0.035000
1518104453713307255	400 73 0.900000 0.151000 0.137000 1500 62 1.100000 3.700000 4.095000 600 81 1.000000 0.058000 0.058000 1.200000 0.029000 0.035000
1518104454265296338	400 73 0.900000 0.150000 0.136000 1500 62 1.100000 3.694000 4.089000 600 81 1.000000 0.058000 0.058000 1.200000 0.030000 0.036000
1518104454829301547	400 73 0.900000 0.151000 0.137000 1500 62 1.100000 3.700000 4.095000 600 81 1.000000 0.058000 0.058000 1.200000 0.029000 0.035000
1518104455393285797	400 73 0.900000 0.150000 0.136000 1500 62 1.100000 3.712000 4.109000 600 81 1.000000 0.058000 0.058000 1.200000 0.029000 0.035000
1518104455949340880	400 73 0.900000 0.151000 0.137000 1500 62 1.100000 3.712000 4.109000 600 81 1.000000 0.058000 0.058000 1.200000 0.030000 0.036000
1518104456517324172	400 73 0.900000 0.151000 0.137000 1500 62 1.100000 3.714000 4.115000 600 81 1.000000 0.058000 0.058000 1.200000 0.029000 0.035000
1518104457061304672	400 73 0.900000 0.151000 0.137000 1500 62 1.100000 3.712000 4.109000 600 81 1.000000 0.058000 0.058000 1.200000 0.029000 0.035000
1518104457613336255	400 73 0.900000 0.150000 0.136000 1500 62 1.100000 3.712000 4.109000 600 81 1.000000 0.058000 0.058000 1.200000 0.029000 0.035000
1518104458173336922	400 73 0.900000 0.150000 0.136000 1500 62 1.100000 3.719000 4.120000 600 81 1.000000 0.058000 0.058000 1.200000 0.030000 0.036000
1518104458733329797	400 73 0.900000 0.151000 0.137000 1500 62 1.100000 3.756000 4.161000 600 81 1.000000 0.058000 0.058000 1.200000 0.029000 0.035000
1518104459284123672	400 73 0.900000 0.150000 0.136000 1500 63 1.100000 3.749000 4.153000 600 81 1.000000 0.058000 0.058000 1.200000 0.029000 0.035000
1518104459853333464	400 73 0.900000 0.151000 0.137000 1500 62 1.100000 3.742000 4.146000 600 81 1.000000 0.058000 0.058000 1.200000 0.029000 0.035000
1518104460421312797	400 73 0.900000 0.151000 0.137000 1500 62 1.100000 3.759000 4.164000 600 81 1.000000 0.058000 0.058000 1.200000 0.029000 0.035000
1518104460981339006	400 73 0.900000 0.151000 0.137000 1500 62 1.100000 3.758000 4.160000 600 81 1.000000 0.058000 0.058000 1.200000 0.029000 0.035000
1518104461537283339	400 73 0.900000 0.152000 0.138000 1500 63 1.100000 3.760000 4.166000 600 81 1.000000 0.058000 0.058000 1.200000 0.029000 0.035000
1518104462093359006	400 73 0.900000 0.151000 0.137000 1500 63 1.100000 3.758000 4.163000 600 81 1.000000 0.058000 0.058000 1.200000 0.029000 0.035000
1518104462645341798	400 73 0.900000 0.151000 0.137000 1500 63 1.100000 3.758000 4.163000 600 81 1.000000 0.058000 0.058000 1.200000 0.029000 0.035000
1518104463209342173	400 73 0.900000 0.151000 0.137000 1500 63 1.100000 3.759000 4.164000 600 81 1.000000 0.058000 0.058000 1.200000 0.030000 0.036000
1518104463769278090	400 73 0.900000 0.150000 0.136000 1500 63 1.100000 3.759000 4.164000 600 81 1.000000 0.058000 0.058000 1.200000 0.029000 0.035000
1518104464333370673	400 73 0.900000 0.151000 0.137000 1500 63 1.100000 3.748000 4.152000 600 81 1.000000 0.058000 0.058000 1.200000 0.029000 0.035000
1518104464893290506	400 73 0.900000 0.150000 0.136000 1500 63 1.100000 3.743000 4.143000 600 81 1.000000 0.058000 0.058000 1.200000 0.029000 0.035000
1518104465457346465	400 73 0.900000 0.150000 0.136000 1500 63 1.100000 3.706000 4.102000 600 81 1.000000 0.058000 0.058000 1.200000 0.029000 0.035000
1518104466017303715	400 73 0.900000 0.150000 0.136000 1500 63 1.100000 3.703000 4.099000 600 81 1.000000 0.058000 0.058000 1.200000 0.029000 0.035000
1518104466577339173	400 73 0.900000 0.150000 0.136000 1500 63 1.100000 3.703000 4.099000 600 81 1.000000 0.058000 0.058000 1.200000 0.029000 0.035000
1518104467121331132	400 73 0.900000 0.150000 0.136000 1500 63 1.100000 3.703000 4.099000 600 81 1.000000 0.058000 0.058000 1.200000 0.029000 0.035000
1518104467669331965	400 73 0.900000 0.150000 0.136000 1500 63 1.100000 3.703000 4.099000 600 81 1.000000 0.058000 0.058000 1.200000 0.029000 0.035000
1518104468241302965	400 73 0.900000 0.150000 0.136000 1500 63 1.100000 3.701000 4.097000 600 81 1.000000 0.058000 0.058000 1.200000 0.029000 0.035000
1518104468781988173	400 73 0.900000 0.150000 0.136000 1500 63 1.100000 3.693000 4.088000 600 81 1.000000 0.058000 0.058000 1.200000 0.029000 0.035000
1518104469333343340	400 73 0.900000 0.151000 0.137000 1500 63 1.100000 3.695000 4.090000 600 81 1.000000 0.058000 0.058000 1.200000 0.029000 0.035000
1518104469893323049	400 73 0.900000 0.150000 0.136000 1500 63 1.100000 3.696000 4.091000 600 81 1.000000 0.058000 0.058000 1.200000 0.030000 0.036000
1518104470449326340	400 73 0.900000 0.150000 0.136000 1500 63 1.100000 3.702000 4.098000 600 81 1.000000 0.058000 0.058000 1.200000 0.029000 0.035000
1518104471009307507	400 73 0.900000 0.150000 0.136000 1500 63 1.100000 3.685000 4.079000 600 81 1.000000 0.058000 0.058000 1.200000 0.029000 0.035000
1518104471589344424	400 73 0.900000 0.151000 0.137000 1500 63 1.100000 3.688000 4.082000 600 81 1.000000 0.058000 0.058000 1.200000 0.029000 0.035000
1518104472141330882	400 73 0.900000 0.152000 0.138000 1500 63 1.100000 3.694000 4.089000 600 81 1.000000 0.058000 0.058000 1.200000 0.030000 0.036000
1518104472705316132	400 73 0.900000 0.151000 0.137000 1500 63 1.100000 3.709000 4.105000 600 81 1.000000 0.058000 0.058000 1.200000 0.029000 0.035000
1518104473253323091	400 73 0.900000 0.151000 0.137000 1500 63 1.100000 3.712000 4.109000 600 81 1.000000 0.058000 0.058000 1.200000 0.029000 0.035000
1518104473805360841	400 73 0.900000 0.150000 0.136000 1500 63 1.100000 3.715000 4.112000 600 81 1.000000 0.058000 0.058000 1.200000 0.029000 0.035000
1518104474373314674	400 73 0.900000 0.151000 0.137000 1500 63 1.100000 3.703000 4.099000 600 81 1.000000 0.058000 0.058000 1.200000 0.029000 0.035000
1518104474941336591	400 73 0.900000 0.151000 0.137000 1500 63 1.100000 3.708000 4.104000 600 81 1.000000 0.058000 0.058000 1.200000 0.029000 0.035000
1518104475493349549	400 73 0.900000 0.151000 0.137000 1500 63 1.100000 3.703000 4.099000 600 81 1.000000 0.058000 0.058000 1.200000 0.029000 0.035000
1518104476041344299	400 73 0.900000 0.150000 0.136000 1500 63 1.100000 3.710000 4.110000 600 81 1.000000 0.058000 0.058000 1.200000 0.029000 0.035000
1518104476601314508	400 73 0.900000 0.150000 0.136000 1500 63 1.100000 3.709000 4.105000 600 81 1.000000 0.058000 0.058000 1.200000 0.029000 0.035000
1518104477161320591	400 73 0.900000 0.150000 0.136000 1500 63 1.100000 3.700000 4.095000 600 81 1.000000 0.058000 0.058000 1.200000 0.029000 0.035000
1518104477709349174	400 73 0.900000 0.150000 0.136000 1500 63 1.100000 3.704000 4.100000 600 81 1.000000 0.058000 0.058000 1.200000 0.029000 0.035000
1518104478269324133	400 73 0.900000 0.150000 0.136000 1500 63 1.100000 3.703000 4.099000 600 81 1.000000 0.058000 0.058000 1.200000 0.029000 0.035000
1518104478829288091	400 73 0.900000 0.151000 0.137000 1500 63 1.100000 3.716000 4.113000 600 81 1.000000 0.058000 0.058000 1.200000 0.029000 0.035000
1518104479373340800	400 73 0.900000 0.151000 0.137000 1500 63 1.100000 3.733000 4.132000 600 81 1.000000 0.058000 0.058000 1.200000 0.029000 0.035000
1518104479933339008	400 73 0.900000 0.151000 0.137000 1500 63 1.100000 3.748000 4.152000 600 81 1.000000 0.058000 0.058000 1.200000 0.029000 0.035000
1518104480489311300	400 73 0.900000 0.151000 0.137000 1500 63 1.100000 3.748000 4.152000 600 81 1.000000 0.058000 0.058000 1.200000 0.029000 0.035000
1518104481041322883	400 73 0.900000 0.151000 0.137000 1500 63 1.100000 3.735000 4.134000 600 81 1.000000 0.058000 0.058000 1.200000 0.029000 0.035000
1518104481593341342	400 73 0.900000 0.151000 0.137000 1500 63 1.100000 3.730000 4.129000 600 81 1.000000 0.058000 0.058000 1.200000 0.029000 0.035000
1518104482145324133	400 73 0.900000 0.151000 0.137000 1500 63 1.100000 3.745000 4.145000 600 81 1.000000 0.058000 0.058000 1.200000 0.029000 0.035000
1518104482693344758	400 73 0.900000 0.150000 0.136000 1500 63 1.100000 3.739000 4.139000 600 81 1.000000 0.058000 0.058000 1.200000 0.029000 0.035000
1518104483245280258	400 73 0.900000 0.151000 0.137000 1500 63 1.100000 3.745000 4.145000 600 81 1.000000 0.058000 0.058000 1.200000 0.029000 0.035000
1518104483797268009	400 73 0.900000 0.151000 0.137000 1500 63 1.100000 3.740000 4.143000 600 81 1.000000 0.058000 0.058000 1.200000 0.029000 0.035000
1518104484348098634	400 73 0.900000 0.151000 0.137000 1500 63 1.100000 3.734000 4.133000 600 81 1.000000 0.058000 0.058000 1.200000 0.029000 0.035000
1518104484897325300	400 73 0.900000 0.151000 0.137000 1500 63 1.100000 3.731000 4.133000 600 81 1.000000 0.058000 0.058000 1.200000 0.029000 0.035000
1518104485453330050	400 73 0.900000 0.150000 0.136000 1500 63 1.100000 3.726000 4.124000 600 81 1.000000 0.058000 0.058000 1.200000 0.029000 0.035000
1518104486017318800	400 73 0.900000 0.151000 0.137000 1500 63 1.100000 3.771000 4.174000 600 81 1.000000 0.058000 0.058000 1.200000 0.029000 0.035000
1518104486565368551	400 73 0.900000 0.151000 0.137000 1500 63 1.100000 3.772000 4.179000 600 82 1.000000 0.058000 0.058000 1.200000 0.029000 0.035000
1518104487109285592	400 73 0.900000 0.151000 0.137000 1500 63 1.100000 3.772000 4.179000 600 82 1.000000 0.058000 0.058000 1.200000 0.029000 0.035000
1518104487665337467	400 73 0.900000 0.151000 0.137000 1500 63 1.100000 3.774000 4.181000 600 82 1.000000 0.058000 0.058000 1.200000 0.029000 0.035000
1518104488213323676	400 73 0.900000 0.151000 0.137000 1500 63 1.100000 3.771000 4.178000 600 82 1.000000 0.058000 0.058000 1.200000 0.029000 0.035000
1518104488777341384	400 73 0.900000 0.151000 0.137000 1500 63 1.100000 3.767000 4.173000 600 82 1.000000 0.058000 0.058000 1.200000 0.030000 0.036000
1518104489333331759	400 73 0.900000 0.150000 0.136000 1500 63 1.100000 3.770000 4.177000 600 82 1.000000 0.058000 0.058000 1.200000 0.030000 0.036000
1518104489881282593	400 73 0.900000 0.150000 0.136000 1500 63 1.100000 3.759000 4.164000 600 82 1.000000 0.058000 0.058000 1.200000 0.029000 0.035000
1518104490433324593	400 74 0.900000 0.150000 0.136000 1500 63 1.100000 3.760000 4.166000 600 82 1.000000 0.058000 0.058000 1.200000 0.029000 0.035000
1518104490997288843	400 74 0.900000 0.151000 0.137000 1500 63 1.100000 3.762000 4.168000 600 82 1.000000 0.058000 0.058000 1.200000 0.029000 0.035000
1518104491557325218	400 73 0.900000 0.150000 0.136000 1500 63 1.100000 3.774000 4.181000 600 82 1.000000 0.058000 0.058000 1.200000 0.029000 0.035000
1518104492105357760	400 73 0.900000 0.151000 0.137000 1500 63 1.100000 3.775000 4.182000 600 82 1.000000 0.058000 0.058000 1.200000 0.029000 0.035000
1518104492657293635	400 74 0.900000 0.151000 0.137000 1500 63 1.100000 3.766000 4.172000 600 82 1.000000 0.058000 0.058000 1.200000 0.029000 0.035000
1518104493217314343	400 74 0.900000 0.150000 0.136000 1500 63 1.100000 3.762000 4.164000 600 82 1.000000 0.058000 0.058000 1.200000 0.029000 0.035000
1518104493777313051	400 74 0.900000 0.150000 0.136000 1500 63 1.100000 3.762000 4.168000 600 82 1.000000 0.058000 0.058000 1.200000 0.029000 0.035000
1518104494333297218	400 74 0.900000 0.151000 0.137000 1500 63 1.100000 3.760000 4.162000 600 82 1.000000 0.058000 0.058000 1.200000 0.030000 0.036000
1518104494893324968	400 73 0.900000 0.151000 0.137000 1500 63 1.100000 3.743000 4.143000 600 82 1.000000 0.058000 0.058000 1.200000 0.029000 0.035000
1518104495457322302	400 73 0.900000 0.150000 0.136000 1500 63 1.100000 3.751000 4.152000 600 82 1.000000 0.058000 0.058000 1.200000 0.030000 0.036000
1518104496009332802	400 74 0.900000 0.150000 0.136000 1500 63 1.100000 3.759000 4.161000 600 82 1.000000 0.058000 0.058000 1.200000 0.029000 0.035000
1518104496557341802	400 73 0.900000 0.151000 0.137000 1500 63 1.100000 3.764000 4.166000 600 82 1.000000 0.058000 0.058000 1.200000 0.029000 0.035000
1518104497117335927	400 73 0.900000 0.150000 0.136000 1500 63 1.100000 3.762000 4.164000 600 82 1.000000 0.058000 0.058000 1.200000 0.029000 0.035000
1518104497673335594	400 73 0.900000 0.151000 0.137000 1500 63 1.100000 3.763000 4.165000 600 82 1.000000 0.058000 0.058000 1.200000 0.030000 0.036000
1518104498237315594	400 74 0.900000 0.151000 0.137000 1500 63 1.100000 3.762000 4.164000 600 81 1.000000 0.058000 0.058000 1.200000 0.029000 0.035000
1518104498793344385	400 74 0.900000 0.151000 0.137000 1500 63 1.100000 3.763000 4.165000 600 82 1.000000 0.058000 0.058000 1.200000 0.029000 0.035000
1518104499349342302	400 73 0.900000 0.150000 0.136000 1500 63 1.100000 3.742000 4.142000 600 82 1.000000 0.058000 0.058000 1.200000 0.029000 0.035000
1518104499905382635	400 73 0.900000 0.151000 0.137000 1500 63 1.100000 3.753000 4.154000 600 82 1.000000 0.058000 0.058000 1.200000 0.029000 0.035000
1518104500457337469	400 73 0.900000 0.151000 0.137000 1500 63 1.100000 3.745000 4.145000 600 82 1.000000 0.058000 0.058000 1.200000 0.029000 0.035000
1518104501005322011	400 73 0.900000 0.149000 0.135000 1500 63 1.100000 3.748000 4.149000 600 82 1.000000 0.058000 0.058000 1.200000 0.029000 0.035000
1518104501569321886	400 73 0.900000 0.150000 0.136000 1500 63 1.100000 3.753000 4.158000 600 82 1.000000 0.058000 0.058000 1.200000 0.029000 0.035000
1518104502125319261	400 73 0.900000 0.151000 0.137000 1500 63 1.100000 3.753000 4.158000 600 82 1.000000 0.058000 0.058000 1.200000 0.029000 0.035000
1518104502677323344	400 73 0.900000 0.150000 0.136000 1500 63 1.100000 3.753000 4.154000 600 82 1.000000 0.058000 0.058000 1.200000 0.028000 0.033000
1518104503225299803	400 73 0.900000 0.150000 0.136000 1500 63 1.100000 3.754000 4.155000 600 82 1.000000 0.058000 0.058000 1.200000 0.029000 0.035000
1518104503785310678	400 73 0.900000 0.150000 0.136000 1500 63 1.100000 3.753000 4.158000 600 82 1.000000 0.058000 0.058000 1.200000 0.029000 0.035000
1518104504337277261	400 73 0.900000 0.150000 0.136000 1500 63 1.100000 3.742000 4.142000 600 82 1.000000 0.058000 0.058000 1.200000 0.029000 0.035000
1518104504893314969	400 73 0.900000 0.150000 0.136000 1500 63 1.100000 3.747000 4.147000 600 82 1.000000 0.058000 0.058000 1.200000 0.029000 0.035000
1518104505453306636	400 73 0.900000 0.151000 0.137000 1500 63 1.100000 3.736000 4.139000 600 82 1.000000 0.058000 0.058000 1.200000 0.029000 0.035000
1518104505997404553	400 74 0.900000 0.150000 0.136000 1500 63 1.100000 3.732000 4.131000 600 82 1.000000 0.058000 0.058000 1.200000 0.029000 0.035000
1518104506553343261	400 73 0.900000 0.149000 0.135000 1500 63 1.100000 3.755000 4.160000 600 82 1.000000 0.058000 0.058000 1.200000 0.029000 0.035000
1518104507101257678	400 73 0.900000 0.150000 0.136000 1500 63 1.100000 3.729000 4.128000 600 81 1.000000 0.058000 0.058000 1.200000 0.028000 0.033000
1518104507653352428	400 73 0.900000 0.151000 0.137000 1500 63 1.100000 3.729000 4.128000 600 82 1.000000 0.058000 0.058000 1.200000 0.029000 0.035000
1518104508205321678	400 73 0.900000 0.150000 0.136000 1500 63 1.100000 3.721000 4.119000 600 81 1.000000 0.058000 0.058000 1.200000 0.029000 0.035000
1518104508769320345	400 73 0.900000 0.151000 0.137000 1500 63 1.100000 3.729000 4.128000 600 81 1.000000 0.058000 0.058000 1.200000 0.029000 0.035000
1518104509325284595	400 73 0.900000 0.151000 0.137000 1500 63 1.100000 3.739000 4.142000 600 82 1.000000 0.058000 0.058000 1.200000 0.028000 0.033000
1518104509873323803	400 73 0.900000 0.150000 0.136000 1500 63 1.100000 3.730000 4.129000 600 81 1.000000 0.058000 0.058000 1.200000 0.029000 0.035000
1518104510421289720	400 73 0.900000 0.150000 0.136000 1500 63 1.100000 3.732000 4.135000 600 82 1.000000 0.058000 0.058000 1.200000 0.029000 0.035000
1518104510981259053	400 73 0.900000 0.151000 0.137000 1500 63 1.100000 3.727000 4.125000 600 82 1.000000 0.058000 0.058000 1.200000 0.029000 0.035000
1518104511525360887	400 73 0.900000 0.151000 0.137000 1500 63 1.100000 3.737000 4.136000 600 82 1.000000 0.058000 0.058000 1.200000 0.029000 0.035000
1518104512085370262	400 73 0.900000 0.150000 0.136000 1500 63 1.100000 3.728000 4.126000 600 81 1.000000 0.058000 0.058000 1.200000 0.029000 0.035000
1518104512625348304	400 73 0.900000 0.151000 0.137000 1500 63 1.100000 3.740000 4.140000 600 81 1.000000 0.058000 0.058000 1.200000 0.028000 0.033000
1518104513185333429	400 73 0.900000 0.150000 0.136000 1500 63 1.100000 3.738000 4.137000 600 81 1.000000 0.058000 0.058000 1.200000 0.029000 0.035000
1518104513737276429	400 73 0.900000 0.151000 0.137000 1500 63 1.100000 3.735000 4.134000 600 82 1.000000 0.058000 0.058000 1.200000 0.028000 0.033000
1518104514293338054	400 73 0.900000 0.149000 0.135000 1500 63 1.100000 3.732000 4.131000 600 82 1.000000 0.058000 0.058000 1.200000 0.029000 0.035000
1518104514845281721	400 73 0.900000 0.150000 0.136000 1500 63 1.100000 3.735000 4.134000 600 81 1.000000 0.058000 0.058000 1.200000 0.029000 0.035000
1518104515401337054	400 73 0.900000 0.150000 0.136000 1500 63 1.100000 3.727000 4.125000 600 82 1.000000 0.058000 0.058000 1.200000 0.028000 0.033000
1518104515953329471	400 73 0.900000 0.152000 0.138000 1500 63 1.100000 3.737000 4.140000 600 82 1.000000 0.058000 0.058000 1.200000 0.029000 0.035000
1518104516509379304	400 73 0.900000 0.150000 0.136000 1500 63 1.100000 3.737000 4.140000 600 82 1.000000 0.058000 0.058000 1.200000 0.029000 0.035000
1518104517061349721	400 73 0.900000 0.150000 0.136000 1500 63 1.100000 3.734000 4.137000 600 82 1.000000 0.058000 0.058000 1.200000 0.029000 0.035000
1518104517613307638	400 73 0.900000 0.150000 0.136000 1500 63 1.100000 3.732000 4.131000 600 82 1.000000 0.058000 0.058000 1.200000 0.029000 0.035000
1518104518177327888	400 73 0.900000 0.150000 0.136000 1500 63 1.100000 3.734000 4.133000 600 82 1.000000 0.058000 0.058000 1.200000 0.029000 0.035000
1518104518737319221	400 73 0.900000 0.150000 0.136000 1500 63 1.100000 3.746000 4.146000 600 82 1.000000 0.058000 0.058000 1.200000 0.028000 0.033000
1518104519277298888	400 74 0.900000 0.150000 0.136000 1500 63 1.100000 3.748000 4.149000 600 82 1.000000 0.058000 0.058000 1.200000 0.028000 0.033000
1518104519837317888	400 73 0.900000 0.150000 0.136000 1500 63 1.100000 3.747000 4.147000 600 82 1.000000 0.058000 0.058000 1.200000 0.028000 0.033000
1518104520373313013	400 73 0.900000 0.150000 0.136000 1500 63 1.100000 3.725000 4.123000 600 82 1.000000 0.058000 0.058000 1.200000 0.028000 0.033000
1518104520937307805	400 73 0.900000 0.150000 0.136000 1500 63 1.100000 3.729000 4.128000 600 81 1.000000 0.058000 0.058000 1.200000 0.029000 0.035000
1518104521493317263	400 73 0.900000 0.151000 0.137000 1500 63 1.100000 3.732000 4.131000 600 82 1.000000 0.058000 0.058000 1.200000 0.029000 0.035000
1518104522053337263	400 73 0.900000 0.150000 0.136000 1500 63 1.100000 3.714000 4.111000 600 82 1.000000 0.058000 0.058000 1.200000 0.028000 0.033000
1518104522603680597	400 73 0.900000 0.150000 0.136000 1500 63 1.100000 3.720000 4.118000 600 82 1.000000 0.058000 0.058000 1.200000 0.028000 0.033000
1518104523157331638	400 73 0.900000 0.151000 0.137000 1500 63 1.100000 3.727000 4.125000 600 82 1.000000 0.058000 0.058000 1.200000 0.028000 0.033000
1518104523721309472	400 73 0.900000 0.150000 0.136000 1500 63 1.100000 3.720000 4.118000 600 81 1.000000 0.058000 0.058000 1.200000 0.029000 0.035000
1518104524261334888	400 73 0.900000 0.150000 0.136000 1500 63 1.100000 3.729000 4.128000 600 81 1.000000 0.058000 0.058000 1.200000 0.029000 0.035000
1518104524813312097	400 73 0.900000 0.150000 0.136000 1500 63 1.100000 3.731000 4.130000 600 81 1.000000 0.058000 0.058000 1.200000 0.029000 0.035000
1518104525381337930	400 73 0.900000 0.152000 0.138000 1500 63 1.100000 3.734000 4.133000 600 81 1.000000 0.058000 0.058000 1.200000 0.029000 0.035000
1518104525929366680	400 73 0.900000 0.150000 0.136000 1500 63 1.100000 3.732000 4.131000 600 82 1.000000 0.058000 0.058000 1.200000 0.029000 0.035000
1518104526501329514	400 73 0.900000 0.150000 0.136000 1500 63 1.100000 3.731000 4.130000 600 82 1.000000 0.058000 0.058000 1.200000 0.029000 0.035000
1518104527057350264	400 73 0.900000 0.150000 0.136000 1500 63 1.100000 3.709000 4.105000 600 82 1.000000 0.058000 0.058000 1.200000 0.029000 0.035000
1518104527609350222	400 73 0.900000 0.152000 0.138000 1500 63 1.100000 3.703000 4.099000 600 81 1.000000 0.058000 0.058000 1.200000 0.029000 0.035000
1518104528169332597	400 73 0.900000 0.150000 0.136000 1500 63 1.100000 3.705000 4.101000 600 81 1.000000 0.058000 0.058000 1.200000 0.029000 0.035000
1518104528721362264	400 73 0.900000 0.150000 0.136000 1500 63 1.100000 3.705000 4.101000 600 81 1.000000 0.058000 0.058000 1.200000 0.029000 0.035000
1518104529281302056	400 73 0.900000 0.150000 0.136000 1500 63 1.100000 3.714000 4.111000 600 81 1.000000 0.058000 0.058000 1.200000 0.029000 0.035000
1518104529841313389	400 73 0.900000 0.150000 0.136000 1500 63 1.100000 3.713000 4.110000 600 81 1.000000 0.058000 0.058000 1.200000 0.029000 0.035000
1518104530389326181	400 73 0.900000 0.150000 0.136000 1500 63 1.100000 3.712000 4.109000 600 81 1.000000 0.058000 0.058000 1.200000 0.029000 0.035000
1518104530945262014	400 73 0.900000 0.150000 0.136000 1500 63 1.100000 3.711000 4.108000 600 81 1.000000 0.058000 0.058000 1.200000 0.029000 0.035000
1518104531509335306	400 73 0.900000 0.150000 0.136000 1500 63 1.100000 3.712000 4.109000 600 81 1.000000 0.058000 0.058000 1.200000 0.029000 0.035000
1518104532065307098	400 73 0.900000 0.150000 0.136000 1500 63 1.100000 3.712000 4.109000 600 81 1.000000 0.058000 0.058000 1.200000 0.029000 0.035000
1518104532621340639	400 73 0.900000 0.151000 0.137000 1500 63 1.100000 3.704000 4.100000 600 81 1.000000 0.058000 0.058000 1.200000 0.029000 0.035000
1518104533169312181	400 73 0.900000 0.150000 0.136000 1500 63 1.100000 3.709000 4.105000 600 81 1.000000 0.058000 0.058000 1.200000 0.029000 0.035000
1518104533675955723	400 66 0.900000 0.151000 0.137000 1500 62 1.100000 2.749000 3.029000 600 71 1.000000 0.058000 0.058000 1.200000 0.028000 0.033000
1518104534182254890	400 61 0.900000 0.150000 0.136000 1500 60 1.000000 0.514000 0.564000 600 66 1.000000 0.058000 0.058000 1.200000 0.029000 0.035000
1518104534688616640	400 59 0.900000 0.149000 0.136000 1500 58 1.100000 0.253000 0.278000 600 63 1.000000 0.057000 0.057000 1.200000 0.028000 0.033000
1518104535194912056	400 57 0.900000 0.147000 0.134000 1500 56 1.100000 0.243000 0.267000 600 61 1.000000 0.057000 0.057000 1.200000 0.029000 0.035000
1518104535701180515	400 56 0.900000 0.146000 0.133000 1500 55 1.100000 0.232000 0.255000 600 60 1.000000 0.056000 0.056000 1.200000 0.028000 0.033000
1518104536207494973	400 55 0.900000 0.147000 0.134000 1500 54 1.100000 0.229000 0.252000 600 59 1.000000 0.056000 0.056000 1.200000 0.028000 0.033000
1518104536713631265	400 54 0.900000 0.147000 0.134000 1500 53 1.100000 0.227000 0.249000 600 58 1.000000 0.055000 0.055000 1.200000 0.028000 0.033000
1518104537219854723	400 53 0.900000 0.147000 0.134000 1500 53 1.100000 0.224000 0.246000 600 57 1.000000 0.055000 0.055000 1.200000 0.028000 0.033000
1518104537725986390	400 52 0.900000 0.147000 0.134000 1500 52 1.100000 0.252000 0.277000 600 56 1.000000 0.055000 0.055000 1.200000 0.028000 0.033000
1518104538232191723	400 52 0.900000 0.146000 0.133000 1500 52 1.100000 0.231000 0.254000 600 56 1.000000 0.055000 0.055000 1.200000 0.028000 0.033000
1518104538738348265	400 51 0.900000 0.145000 0.132000 1500 51 1.100000 0.244000 0.268000 600 55 1.000000 0.055000 0.055000 1.200000 0.028000 0.033000
1518104539244658849	400 51 0.900000 0.145000 0.132000 1500 50 1.100000 0.239000 0.263000 600 55 1.000000 0.055000 0.055000 1.200000 0.028000 0.033000
1518104539750907599	400 51 0.900000 0.145000 0.132000 1500 50 1.100000 0.217000 0.238000 600 54 1.000000 0.055000 0.055000 1.200000 0.028000 0.033000
1518104540257346057	400 50 0.900000 0.145000 0.132000 1500 50 1.100000 0.234000 0.257000 600 54 1.000000 0.055000 0.055000 1.200000 0.028000 0.033000
1518104540763511890	400 50 0.900000 0.145000 0.132000 1500 49 1.100000 0.233000 0.256000 600 54 1.000000 0.055000 0.055000 1.200000 0.028000 0.033000
1518104541269803432	400 50 0.900000 0.145000 0.132000 1500 49 1.100000 0.246000 0.270000 600 53 1.000000 0.054000 0.054000 1.200000 0.028000 0.033000
1518104541776122765	400 49 0.900000 0.145000 0.132000 1500 49 1.100000 0.219000 0.240000 600 53 1.000000 0.054000 0.054000 1.200000 0.028000 0.033000
1518104542282354349	400 49 0.900000 0.146000 0.133000 1500 49 1.100000 0.241000 0.265000 600 53 1.000000 0.054000 0.054000 1.200000 0.028000 0.033000
1518104542788576891	400 49 0.900000 0.145000 0.132000 1500 49 1.100000 0.214000 0.235000 600 52 1.000000 0.054000 0.054000 1.200000 0.028000 0.033000
1518104543294750141	400 48 0.900000 0.144000 0.131000 1500 48 1.100000 0.247000 0.271000 600 52 1.000000 0.054000 0.054000 1.200000 0.028000 0.033000
1518104543800919141	400 49 0.900000 0.144000 0.131000 1500 48 1.100000 0.214000 0.235000 600 52 1.000000 0.054000 0.054000 1.200000 0.028000 0.033000
1518104544307047474	400 48 0.900000 0.144000 0.131000 1500 48 1.100000 0.246000 0.270000 600 52 1.000000 0.054000 0.054000 1.200000 0.028000 0.033000
1518104544813679724	400 49 0.900000 0.145000 0.132000 1500 48 1.100000 0.217000 0.238000 600 52 1.000000 0.054000 0.054000 1.200000 0.028000 0.033000
1518104545320339183	400 48 0.900000 0.145000 0.132000 1500 48 1.100000 0.217000 0.238000 600 52 1.000000 0.054000 0.054000 1.200000 0.028000 0.033000
1518104545826877766	400 48 0.900000 0.144000 0.131000 1500 47 1.100000 0.223000 0.245000 600 51 1.000000 0.054000 0.054000 1.200000 0.028000 0.033000
1518104546333136308	400 48 0.900000 0.144000 0.131000 1500 47 1.100000 0.235000 0.258000 600 51 1.000000 0.054000 0.054000 1.200000 0.028000 0.033000
1518104546839481224	400 48 0.900000 0.145000 0.132000 1500 47 1.100000 0.217000 0.238000 600 51 1.000000 0.054000 0.054000 1.200000 0.028000 0.033000
1518104547345658099	400 47 0.900000 0.144000 0.131000 1500 47 1.100000 0.237000 0.260000 600 51 1.000000 0.054000 0.054000 1.200000 0.028000 0.033000
1518104547852004850	400 47 0.900000 0.144000 0.131000 1500 47 1.100000 0.227000 0.249000 600 51 1.000000 0.054000 0.054000 1.200000 0.028000 0.033000
1518104548358121933	400 47 0.900000 0.144000 0.131000 1500 47 1.100000 0.226000 0.248000 600 51 1.000000 0.054000 0.054000 1.200000 0.028000 0.033000
1518104548864457350	400 47 0.900000 0.145000 0.132000 1500 46 1.100000 0.227000 0.249000 600 50 1.000000 0.053000 0.053000 1.200000 0.028000 0.033000
1518104549370675350	400 47 0.900000 0.091000 0.083000 1500 46 1.100000 0.214000 0.235000 600 50 1.000000 0.054000 0.054000 1.200000 0.025000 0.030000
1518104549876885141	400 47 0.900000 0.083000 0.075000 1500 46 1.100000 0.229000 0.252000 600 50 1.000000 0.054000 0.054000 1.200000 0.025000 0.030000
1518104550383504141	400 46 0.900000 0.039000 0.035000 1500 46 1.100000 0.306000 0.336000 600 50 1.000000 0.054000 0.054000 1.200000 0.027000 0.032000
1518104550889761892	400 46 0.900000 0.020000 0.018000 1500 45 1.100000 0.197000 0.216000 600 50 1.000000 0.053000 0.053000 1.200000 0.023000 0.027000
